idx,chars_idx,token,entity_type,sentiment,idk_1,idk_2,orig_sentiment,heads,upos,xpos,deprel
0,0-5,varuh,_,_,_,_,_,5,NOUN,Ncmsn,nsubj
1,6-16,konkurenca,_,_,_,_,_,1,NOUN,Ncfsg,nmod
2,17-20,naj,_,_,_,_,_,5,PART,Q,advmod
3,21-23,biti,_,_,_,_,_,5,AUX,Va-c,aux
4,24-32,ugotoviti,_,_,_,_,_,0,VERB,Vmep-sm,root
5,33-46,nespoštovanje,_,_,_,_,_,5,NOUN,Ncnsa,obj
6,47-58,konkurenčen,_,_,_,_,_,8,ADJ,Agpfsg,amod
7,59-69,zakonodaja,_,_,_,_,_,6,NOUN,Ncfsg,nmod
8,70-71,",",_,_,_,_,_,15,PUNCT,Z,punct
9,72-75,saj,_,_,_,_,_,15,CCONJ,Cc,cc
10,76-79,naj,_,_,_,_,_,15,PART,Q,advmod
11,80-82,biti,_,_,_,_,_,15,AUX,Va-c,aux
12,83-92,gradbinec,_,_,_,_,_,15,NOUN,Ncmpn,nsubj
13,93-102,usklajeno,_,_,_,_,_,15,ADV,Rgp,advmod
14,103-111,delovati,_,_,_,_,_,5,VERB,Vmpp-pm,conj
15,112-113,.,_,_,_,_,_,5,PUNCT,Z,punct
16,114-123,preiskava,_,_,_,_,_,20,NOUN,Ncfsn,nsubj
17,124-126,se,_,_,_,_,_,20,PRON,Px------y,expl
18,127-129,biti,_,_,_,_,_,20,AUX,Va-r3s-n,aux
19,130-138,nanašati,_,_,_,_,_,5,VERB,Vmpp-sf,parataxis
20,139-141,na,_,_,_,_,_,23,ADP,Sa,case
21,142-152,avtocesten,_,_,_,_,_,23,ADJ,Agpfpa,amod
22,153-160,gradnja,_,_,_,_,_,20,NOUN,Ncfpa,obl
23,161-162,",",_,_,_,_,_,25,PUNCT,Z,punct
24,163-167,delo,_,_,_,_,_,23,NOUN,Ncnpa,conj
25,168-170,na,_,_,_,_,_,28,ADP,Sl,case
26,171-177,drug,_,_,_,_,_,28,ADJ,Mlpfpl,amod
27,178-184,cesta,_,_,_,_,_,25,NOUN,Ncfpl,nmod
28,185-188,ter,_,_,_,_,_,31,CCONJ,Cc,cc
29,189-195,visok,_,_,_,_,_,31,ADJ,Agpfpa,amod
30,196-203,gradnja,_,_,_,_,_,28,NOUN,Ncfpa,conj
31,204-205,.,_,_,_,_,_,36,PUNCT,Z,punct
32,206-212,kakšen,_,_,_,_,_,34,DET,Pq-fpn,det
33,213-218,kazen,_,_,_,_,_,36,NOUN,Ncfpn,nsubj
34,219-222,on,_,_,_,_,_,36,PRON,Pp3mpd--y,obj
35,223-230,groziti,_,_,_,_,_,31,VERB,Vmpr3p,acl
36,231-232,?,_,_,_,_,_,36,PUNCT,Z,punct
37,233-237,urad,ORG[1],_,*->19-1,*[19],_,36,NOUN,Ncmsn,nsubj
38,238-240,RS,ORG[1]|LOC[2],_,*->19-1|*->8-1,*[19]|*[8],_,38,PROPN,Npfsg,nmod
39,241-243,za,ORG[1],_,*->19-1,*[19],_,41,ADP,Sa,case
40,244-251,varstvo,ORG[1],_,*->19-1,*[19],_,38,NOUN,Ncnsa,nmod
41,252-262,konkurenca,ORG[1],_,*->19-1,*[19],_,41,NOUN,Ncfsg,nmod
42,263-265,biti,_,_,_,_,_,50,AUX,Va-r3s-n,aux
43,266-271,konec,_,_,_,_,_,46,ADP,Sg,case
44,272-280,minul,_,_,_,_,_,46,ADJ,Appmsg,amod
45,281-286,teden,_,_,_,_,_,50,NOUN,Ncmsg,obl
46,287-289,po,_,_,_,_,_,49,ADP,Sl,case
47,290-294,dva,_,_,_,_,_,49,NUM,Mlcndl,nummod
48,295-300,leto,_,_,_,_,_,50,NOUN,Ncndl,obl
49,301-307,končati,_,_,_,_,_,5,VERB,Vmep-sm,parataxis
50,308-317,preiskava,_,_,_,_,_,50,NOUN,Ncfsa,obj
51,318-323,proti,_,_,_,_,_,54,ADP,Sd,case
52,324-333,gradben,_,_,_,_,_,54,ADJ,Agpnpd,amod
53,334-343,podjetje,_,_,_,_,_,51,NOUN,Ncnpd,nmod
54,344-350,zaradi,_,_,_,_,_,56,ADP,Sg,case
55,351-355,suma,_,_,_,_,_,50,NOUN,Ncmsg,obl
56,356-367,usklajen,_,_,_,_,_,58,ADJ,Appnsg,amod
57,368-377,delovanje,_,_,_,_,_,56,NOUN,Ncnsg,nmod
58,378-379,.,_,_,_,_,_,50,PUNCT,Z,punct
59,380-386,medtem,_,_,_,_,_,72,ADV,Rgp,mark
60,387-389,ko,_,_,_,_,_,60,SCONJ,Cs,fixed
61,390-394,urad,_,_,*->19-2,*[19],_,72,NOUN,Ncmsn,nsubj
62,395-397,do,_,_,_,_,_,64,ADP,Sg,case
63,398-406,vročitev,_,_,_,_,_,62,NOUN,Ncfsg,nmod
64,407-416,upraven,_,_,_,_,_,66,ADJ,Agpmsg,amod
65,417-421,akt,_,_,_,_,_,64,NOUN,Ncmsg,nmod
66,422-430,stranka,_,_,_,_,_,72,NOUN,Ncfpd,obj
67,431-432,v,_,_,_,_,_,69,ADP,Sl,case
68,433-441,postopek,_,_,_,_,_,72,NOUN,Ncmsl,obl
69,442-448,zadeva,_,_,_,_,_,69,NOUN,Ncfsg,nmod
70,449-451,ne,_,_,_,_,_,72,PART,Q,advmod
71,452-461,komentirati,_,_,_,_,_,56,VERB,Vmbr3s,acl
72,462-463,",",_,_,_,_,_,72,PUNCT,Z,punct
73,464-466,pa,_,_,_,_,_,78,CCONJ,Cc,advmod
74,467-471,delo,ORG,0,*->23-1,*[23],3 - Nevtralno,78,NOUN,Ncnsn,nsubj
75,472-474,in,_,_,_,_,_,77,CCONJ,Cc,cc
76,475-482,dnevnik,ORG,0,*->14-1,*[14],3 - Nevtralno,75,NOUN,Ncmsn,conj
77,483-489,pisati,_,_,_,_,_,72,VERB,Vmpr3d,conj
78,490-491,",",_,_,_,_,_,82,PUNCT,Z,punct
79,492-494,da,_,_,_,_,_,82,SCONJ,Cs,mark
80,495-497,biti,_,_,_,_,_,82,AUX,Va-r3s-n,aux
81,498-506,ugotoviti,_,_,*->19-3,*[19],_,78,VERB,Vmep-sm,ccomp
82,507-520,nespoštovanje,_,_,_,_,_,82,NOUN,Ncnsa,obj
83,521-532,konkurenčen,_,_,_,_,_,85,ADJ,Agpfsg,amod
84,533-543,zakonodaja,_,_,_,_,_,83,NOUN,Ncfsg,nmod
85,544-545,.,_,_,_,_,_,78,PUNCT,Z,punct
86,546-548,na,_,_,_,_,_,88,ADP,Sl,case
87,549-554,urad,ORG[3],_,*->19-4,*[19],_,94,NOUN,Ncmsl,obl
88,555-557,za,ORG[3],_,*->19-4,*[19],_,90,ADP,Sa,case
89,558-565,varstvo,ORG[3],_,*->19-4,*[19],_,88,NOUN,Ncnsa,nmod
90,566-576,konkurenca,ORG[3],_,*->19-4,*[19],_,90,NOUN,Ncfsg,nmod
91,577-579,biti,_,_,_,_,_,94,AUX,Va-r3p-n,aux
92,580-585,danes,_,_,_,_,_,94,ADV,Rgp,advmod
93,586-594,povedati,_,_,_,_,_,78,VERB,Vmep-pm,parataxis
94,595-597,le,_,_,_,_,_,94,PART,Q,advmod
95,598-599,",",_,_,_,_,_,99,PUNCT,Z,punct
96,600-602,da,_,_,_,_,_,99,SCONJ,Cs,mark
97,603-605,biti,_,_,_,_,_,99,AUX,Va-r3p-n,aux
98,606-614,sprejeti,_,_,*->19-5,*[19],_,94,VERB,Vmep-pm,ccomp
99,615-624,odločitev,_,_,_,_,_,99,NOUN,Ncfsa,obj
100,625-626,v,_,_,_,_,_,102,ADP,Sl,case
101,627-632,zveza,_,_,_,_,_,100,NOUN,Ncfsl,nmod
102,633-634,z,_,_,_,_,_,104,ADP,Si,case
103,635-644,postopek,_,_,_,_,_,102,NOUN,Ncmsi,nmod
104,645-646,",",_,_,_,_,_,109,PUNCT,Z,punct
105,647-649,ki,_,_,_,_,_,109,SCONJ,Cs,mark
106,650-652,biti,_,_,_,_,_,109,AUX,Va-r3s-n,aux
107,653-656,biti,_,_,_,_,_,109,AUX,Va-p-sm,cop
108,657-663,uveden,_,_,_,_,_,104,ADJ,Appmsnn,acl
109,664-669,zoper,_,_,_,_,_,112,ADP,Sa,case
110,670-678,gradben,_,_,_,_,_,112,ADJ,Agpnpa,amod
111,679-687,podjetje,_,_,_,_,_,109,NOUN,Ncnpa,obl
112,688-694,zaradi,_,_,_,_,_,114,ADP,Sg,case
113,695-702,kršitev,_,_,_,_,_,109,NOUN,Ncfsg,obl
114,703-710,določba,_,_,_,_,_,114,NOUN,Ncfsg,nmod
115,711-717,zakon,_,_,_,_,_,115,NOUN,Ncmsg,nmod
116,718-719,o,_,_,_,_,_,118,ADP,Sl,case
117,720-733,preprečevanje,_,_,_,_,_,116,NOUN,Ncnsl,nmod
118,734-744,omejevanje,_,_,_,_,_,118,NOUN,Ncnsg,nmod
119,745-755,konkurenca,_,_,_,_,_,119,NOUN,Ncfsg,nmod
120,756-758,in,_,_,_,_,_,122,CCONJ,Cc,cc
121,759-766,pogodba,_,_,_,_,_,120,NOUN,Ncfsg,conj
122,767-768,o,_,_,_,_,_,124,ADP,Sl,case
123,769-778,delovanje,_,_,_,_,_,122,NOUN,Ncnsl,nmod
124,779-781,EU,ORG,_,*->33-1,*[33],_,124,PROPN,Npfsg,nmod
125,782-783,.,_,_,_,_,_,5,PUNCT,Z,punct
126,784-788,urad,_,_,*->19-6,*[19],_,138,NOUN,Ncmsn,obj
127,789-791,do,_,_,_,_,_,129,ADP,Sg,case
128,792-800,vročitev,_,_,_,_,_,127,NOUN,Ncfsg,nmod
129,801-810,upraven,_,_,_,_,_,131,ADJ,Agpmsg,amod
130,811-815,akt,_,_,_,_,_,129,NOUN,Ncmsg,nmod
131,816-824,stranka,_,_,_,_,_,138,NOUN,Ncfpd,obj
132,825-826,v,_,_,_,_,_,134,ADP,Sl,case
133,827-835,postopek,_,_,_,_,_,138,NOUN,Ncmsl,obl
134,836-845,predmeten,_,_,_,_,_,136,ADJ,Agpfsg,amod
135,846-852,zadeva,_,_,_,_,_,134,NOUN,Ncfsg,nmod
136,853-855,ne,_,_,_,_,_,138,PART,Q,advmod
137,856-865,komentirati,_,_,_,_,_,141,VERB,Vmbr3s,advcl
138,866-867,",",_,_,_,_,_,138,PUNCT,Z,punct
139,868-870,biti,_,_,_,_,_,172,AUX,Va-r3p-n,aux
140,871-877,dodati,_,_,*->19-7,*[19],_,5,VERB,Vmep-pm,parataxis
141,878-879,.,_,_,_,_,_,138,PUNCT,Z,punct
142,880-885,danes,_,_,_,_,_,144,ADV,Rgp,advmod
143,886-898,redkobeseden,_,_,_,_,_,145,ADJ,Agpmsny,amod
144,899-907,direktor,_,_,*->1-1,*[1],_,166,NOUN,Ncmsn,nsubj
145,908-913,urad,ORG[4],_,*->1-1|*->19-8,*[1]|*[19],_,145,NOUN,Ncmsg,nmod
146,914-916,za,ORG[4],_,*->1-1|*->19-8,*[1]|*[19],_,148,ADP,Sa,case
147,917-924,varstvo,ORG[4],_,*->1-1|*->19-8,*[1]|*[19],_,146,NOUN,Ncnsa,nmod
148,925-935,konkurenca,ORG[4],_,*->1-1|*->19-8,*[1]|*[19],_,148,NOUN,Ncfsg,nmod
149,936-942,Damjan,PER[5],_,*->1-1,*[1],_,145,PROPN,Npmsn,nmod
150,943-950,Matičič,PER[5],_,*->1-1,*[1],_,150,PROPN,Npmsn,flat:name
151,951-953,biti,_,_,_,_,_,156,AUX,Va-r3s-n,aux
152,954-958,pred,_,_,_,_,_,154,ADP,Si,case
153,959-964,dan,_,_,_,_,_,156,NOUN,Ncmpi,obl
154,965-970,sicer,_,_,_,_,_,156,PART,Q,advmod
155,971-978,povedati,_,_,_,_,_,5,VERB,Vmep-sm,parataxis
156,979-980,",",_,_,_,_,_,166,PUNCT,Z,punct
157,981-983,da,_,_,_,_,_,166,SCONJ,Cs,mark
158,984-992,postopek,_,_,_,_,_,166,NOUN,Ncmsn,nsubj
159,993-994,",",_,_,_,_,_,164,PUNCT,Z,punct
160,995-997,ki,_,_,_,_,_,164,SCONJ,Cs,mark
161,998-1000,biti,_,_,_,_,_,164,AUX,Va-r3s-n,cop
162,1001-1008,izredno,_,_,_,_,_,164,ADV,Rgp,advmod
163,1009-1017,zahteven,_,_,_,_,_,159,ADJ,Agpmsnn,acl
164,1018-1019,",",_,_,_,_,_,164,PUNCT,Z,punct
165,1020-1026,voditi,_,_,*->19-9,*[19],_,156,VERB,Vmpr3p,ccomp
166,1027-1037,prednostno,_,_,_,_,_,166,ADJ,Agpnsa,obj
167,1038-1039,.,_,_,_,_,_,166,PUNCT,Z,punct
168,1040-1047,Matičič,PER,_,*->1-2,*[1],_,172,PROPN,Npmsn,nsubj
169,1048-1054,takrat,_,_,_,_,_,173,ADV,Rgp,advmod
170,1055-1057,biti,_,_,_,_,_,172,AUX,Va-r3s-y,aux
171,1058-1063,moči,_,_,_,_,_,166,VERB,Vmpp-sm,conj
172,1064-1074,napovedati,_,_,_,_,_,172,VERB,Vmen,xcomp
173,1075-1076,",",_,_,_,_,_,178,PUNCT,Z,punct
174,1077-1081,kdaj,_,_,_,_,_,178,ADV,Rgp,mark
175,1082-1084,biti,_,_,_,_,_,178,AUX,Va-f3s-n,aux
176,1085-1089,urad,_,_,*->19-10,*[19],_,178,NOUN,Ncmsn,nsubj
177,1090-1097,sprejeti,_,_,_,_,_,173,VERB,Vmep-sm,ccomp
178,1098-1107,odločitev,_,_,_,_,_,178,NOUN,Ncfsa,obj
179,1108-1109,.,_,_,_,_,_,172,PUNCT,Z,punct
180,1110-1114,urad,ORG[6],_,*->19-11,*[19],_,179,NOUN,Ncmsan,conj
181,1115-1117,za,ORG[6],_,*->19-11,*[19],_,183,ADP,Sa,case
182,1118-1125,varstvo,ORG[6],_,*->19-11,*[19],_,181,NOUN,Ncnsa,nmod
183,1126-1136,konkurenca,ORG[6],_,*->19-11,*[19],_,183,NOUN,Ncfsg,nmod
184,1137-1138,",",_,_,_,_,_,178,PUNCT,Z,punct
185,1139-1145,takrat,_,_,_,_,_,189,ADV,Rgp,advmod
186,1146-1148,še,_,_,_,_,_,186,PART,Q,fixed
187,1149-1152,pod,_,_,_,_,_,189,ADP,Si,case
188,1153-1161,vodstvo,_,_,_,_,_,183,NOUN,Ncnsi,appos
189,1162-1168,Janija,PER[7],0,*->20-1,*[20],3 - Nevtralno[33],189,PROPN,Npmsg,nmod
190,1169-1175,Sorška,PER[7],0,*->20-1,*[20],3 - Nevtralno[33],190,PROPN,Npmsg,flat:name
191,1176-1177,",",_,_,_,_,_,178,PUNCT,Z,punct
192,1178-1180,biti,_,_,_,_,_,218,AUX,Va-r3s-n,aux
193,1181-1190,preiskava,_,_,_,_,_,218,NOUN,Ncfsa,obj
194,1191-1192,",",_,_,_,_,_,211,PUNCT,Z,punct
195,1193-1195,po,_,_,_,_,_,197,ADP,Sl,case
196,1196-1202,kateri,_,_,_,_,_,211,DET,Pq-fsl,obl
197,1203-1205,biti,_,_,_,_,_,211,AUX,Va-r3s-n,aux
198,1206-1212,zaradi,_,_,_,_,_,200,ADP,Sg,case
199,1213-1217,suma,_,_,_,_,_,211,NOUN,Ncmsg,obl
200,1218-1228,kartelen,_,_,_,_,_,202,ADJ,Agpnsg,amod
201,1229-1241,dogovarjanje,_,_,_,_,_,200,NOUN,Ncnsg,nmod
202,1242-1245,med,_,_,_,_,_,204,ADP,Si,case
203,1246-1252,drug,_,_,_,_,_,200,ADJ,Mlpmsi,amod
204,1253-1256,pri,_,_,_,_,_,206,ADP,Sl,case
205,1257-1264,gradnja,_,_,_,_,_,211,NOUN,Ncfsl,obl
206,1265-1273,avtocest,_,_,_,_,_,206,NOUN,Ncfpg,nmod
207,1274-1275,v,_,_,_,_,_,209,ADP,Sl,case
208,1276-1285,Slovenija,LOC,0,*->8-2,*[8],3 - Nevtralno,207,PROPN,Npfsl,nmod
209,1286-1294,postopek,_,_,_,_,_,211,NOUN,Ncmsan,obj
210,1295-1301,uvedeti,_,_,_,_,_,194,VERB,Vmep-sm,acl
211,1302-1307,zoper,_,_,_,_,_,216,ADP,Sa,case
212,1308-1314,skupen,_,_,_,_,_,216,ADJ,Agpnsa,amod
213,1315-1317,20,_,_,_,_,_,216,NUM,Mdc,nummod
214,1318-1327,gradben,_,_,_,_,_,216,ADJ,Agpnpg,amod
215,1328-1336,podjetje,_,_,_,_,_,211,NOUN,Ncnpg,obl
216,1337-1338,",",_,_,_,_,_,211,PUNCT,Z,punct
217,1339-1344,začeti,_,_,_,_,_,156,VERB,Vmep-sm,ccomp
218,1345-1350,marec,_,_,_,_,_,218,NOUN,Ncmsg,obl
219,1351-1355,2010,_,_,_,_,_,219,NUM,Mdc,nummod
220,1356-1357,.,_,_,_,_,_,5,PUNCT,Z,punct
221,1358-1366,postopek,_,_,_,_,_,218,NOUN,Ncmsn,nsubj
222,1367-1368,",",_,_,_,_,_,226,PUNCT,Z,punct
223,1369-1371,ki,_,_,_,_,_,226,SCONJ,Cs,mark
224,1372-1374,on,_,_,_,_,_,226,PRON,Pp3msa--y,obj
225,1375-1379,voditi,_,_,_,_,_,222,VERB,Vmpr3s,acl
226,1380-1386,zaradi,_,_,_,_,_,228,ADP,Sg,case
227,1387-1398,verjetnost,_,_,_,_,_,226,NOUN,Ncfsg,obl
228,1399-1406,kršitev,_,_,_,_,_,228,NOUN,Ncfsg,nmod
229,1407-1413,zakon,_,_,_,_,_,229,NOUN,Ncmsg,nmod
230,1414-1415,o,_,_,_,_,_,232,ADP,Sl,case
231,1416-1429,preprečevanje,_,_,_,_,_,230,NOUN,Ncnsl,nmod
232,1430-1440,omejevanje,_,_,_,_,_,232,NOUN,Ncnsg,nmod
233,1441-1451,konkurenca,_,_,_,_,_,233,NOUN,Ncfsg,nmod
234,1452-1454,in,_,_,_,_,_,236,CCONJ,Cc,cc
235,1455-1462,pogodba,_,_,_,_,_,234,NOUN,Ncfsg,conj
236,1463-1464,o,_,_,_,_,_,238,ADP,Sl,case
237,1465-1474,delovanje,_,_,_,_,_,236,NOUN,Ncnsl,nmod
238,1475-1477,EU,ORG,0,*->33-2,*[33],3 - Nevtralno,238,PROPN,Npfsg,nmod
239,1478-1479,",",_,_,_,_,_,226,PUNCT,Z,punct
240,1480-1482,biti,_,_,_,_,_,246,AUX,Va-r3s-n,aux
241,1483-1484,9,_,_,_,_,_,246,NUM,Mdc,nummod
242,1485-1486,.,_,_,_,_,_,226,PUNCT,Z,punct
243,1487-1492,marec,_,_,_,_,_,246,NOUN,Ncmsg,obl
244,1493-1497,2010,_,_,_,_,_,244,NUM,Mdc,nummod
245,1498-1504,uvedeti,_,_,_,_,_,5,VERB,Vmep-sm,parataxis
246,1505-1510,zoper,_,_,_,_,_,249,ADP,Sa,case
247,1511-1519,gradben,_,_,_,_,_,249,ADJ,Agpnpa,amod
248,1520-1528,podjetje,_,_,_,_,_,246,NOUN,Ncnpa,obl
249,1529-1532,SCT,ORG,_,*->25-1,*[25],_,249,PROPN,Npmsn,nmod
250,1533-1534,",",_,_,_,_,_,252,PUNCT,Z,punct
251,1535-1543,Primorje,ORG,_,*->11-1,*[11],_,250,PROPN,Npnsn,conj
252,1544-1545,",",_,_,_,_,_,254,PUNCT,Z,punct
253,1546-1552,Vegrad,ORG,_,*->5-1,*[5],_,250,PROPN,Npmsn,conj
254,1553-1554,",",_,_,_,_,_,257,PUNCT,Z,punct
255,1555-1561,cesten,ORG[8],_,*->15-1,*[15],_,257,ADJ,Agpnsn,amod
256,1562-1570,podjetje,ORG[8],_,*->15-1,*[15],_,250,NOUN,Ncnsn,conj
257,1571-1578,Maribor,ORG[8]|LOC[9],_,*->15-1|*->29-1,*[15]|*[29],_,257,PROPN,Npmsn,nmod
258,1579-1580,",",_,_,_,_,_,261,PUNCT,Z,punct
259,1581-1587,cesten,ORG[10],2,*->12-1,*[12],2 - Negativno[34],261,ADJ,Agpnsn,amod
260,1588-1596,podjetje,ORG[10],2,*->12-1,*[12],2 - Negativno[34],250,NOUN,Ncnsn,conj
261,1597-1606,Ljubljana,ORG[10]|LOC[11],0,*->12-1|*->6-1,*[12]|*[6],2 - Negativno[34]|3 - Nevtralno[35],261,PROPN,Npfsn,nmod
262,1607-1609,in,_,_,_,_,_,265,CCONJ,Cc,cc
263,1610-1618,gradben,ORG[12],_,*->31-1,*[31],_,265,ADJ,Agpnsn,amod
264,1619-1627,podjetje,ORG[12],_,*->31-1,*[31],_,250,NOUN,Ncnsn,conj
265,1628-1637,Grosuplje,ORG[12]|LOC[13],_,*->31-1|*->27-1,*[31]|*[27],_,265,PROPN,Npmsn,nmod
266,1638-1639,",",_,_,_,_,_,268,PUNCT,Z,punct
267,1640-1641,2,_,_,_,_,_,266,NUM,Mdc,nummod
268,1642-1643,.,_,_,_,_,_,246,PUNCT,Z,punct
269,1644-1650,april,_,_,_,_,_,246,NOUN,Ncmsg,obl
270,1651-1655,2010,_,_,_,_,_,270,NUM,Mdc,nummod
271,1656-1661,zoper,_,_,_,_,_,274,ADP,Sa,case
272,1662-1668,kraški,ORG[14],2,*->7-1,*[7],2 - Negativno[36],274,ADJ,Agpmsay,amod
273,1669-1674,zidar,ORG[14],2,*->7-1,*[7],2 - Negativno[36],270,NOUN,Ncmsan,nmod
274,1675-1676,",",_,_,_,_,_,276,PUNCT,Z,punct
275,1677-1679,14,_,_,_,_,_,274,NUM,Mdc,nummod
276,1680-1681,.,_,_,_,_,_,5,PUNCT,Z,punct
277,1682-1688,junij,_,_,_,_,_,270,NOUN,Ncmsg,nmod
278,1689-1693,2010,_,_,_,_,_,278,NUM,Mdc,nummod
279,1694-1699,zoper,_,_,_,_,_,283,ADP,Sa,case
280,1700-1706,cesten,ORG[15],2,*->2-1,*[2],2 - Negativno[37],283,ADJ,Agpnsa,amod
281,1707-1715,gradben,ORG[15],2,*->2-1,*[2],2 - Negativno[37],283,ADJ,Agpnsa,amod
282,1716-1724,podjetje,ORG[15],2,*->2-1,*[2],2 - Negativno[37],278,NOUN,Ncnsa,conj
283,1725-1729,nov,ORG[15]|LOC[16],0,*->2-1|*->17-1,*[2]|*[17],2 - Negativno[37]|3 - Nevtralno[38],285,ADJ,Agpnsn,amod
284,1730-1735,mesto,ORG[15]|LOC[16],0,*->2-1|*->17-1,*[2]|*[17],2 - Negativno[37]|3 - Nevtralno[38],283,NOUN,Ncnsn,nmod
285,1736-1737,",",_,_,_,_,_,287,PUNCT,Z,punct
286,1738-1744,Gradis,ORG,2,*->24-1|*->18-1,*[24]|*[18],2 - Negativno[39],285,PROPN,Npmsn,conj
287,1745-1752,skupina,_,2,*->24-1,*[24],2 - Negativno[39],285,NOUN,Ncfsn,conj
288,1753-1754,G,_,2,*->24-1,*[24],2 - Negativno[39],288,NOUN,Ncmsn,nmod
289,1755-1756,",",_,_,_,_,_,291,PUNCT,Z,punct
290,1757-1760,GIZ,ORG,2,*->13-1,*[13],2 - Negativno,288,NOUN,Ncmsn,conj
291,1761-1769,gradben,_,_,*->18-2,*[18],_,294,ADJ,Agpnsn,amod
292,1770-1783,industrijski,_,_,*->18-2,*[18],_,294,ADJ,Agpnpg,amod
293,1784-1793,podjetje,_,_,*->18-2,*[18],_,291,NOUN,Ncnpg,nmod
294,1794-1800,Gradis,ORG,_,*->18-2,*[18],_,294,PROPN,Npmsn,nmod
295,1801-1802,v,_,_,_,_,_,297,ADP,Sl,case
296,1803-1814,likvidacija,_,_,_,_,_,294,NOUN,Ncfsl,nmod
297,1815-1817,in,_,_,_,_,_,299,CCONJ,Cc,cc
298,1818-1821,SGP,ORG[17],0,*->32-1,*[32],3 - Nevtralno[40],295,PROPN,Npmsn,conj
299,1822-1829,Pomgrad,ORG[17],0,*->32-1,*[32],3 - Nevtralno[40],299,PROPN,Npmsn,nmod
300,1830-1831,",",_,_,_,_,_,302,PUNCT,Z,punct
301,1832-1833,4,_,_,_,_,_,300,NUM,Mdc,nummod
302,1834-1835,.,_,_,_,_,_,5,PUNCT,Z,punct
303,1836-1843,oktober,_,_,_,_,_,300,NOUN,Ncmsg,nmod
304,1844-1848,2010,_,_,_,_,_,304,NUM,Mdc,nummod
305,1849-1854,zoper,_,_,_,_,_,308,ADP,Sa,case
306,1855-1866,ljubljanski,_,_,_,_,_,308,ADJ,Agpfsa,amod
307,1867-1877,podružnica,_,_,_,_,_,304,NOUN,Ncfsa,nmod
308,1878-1888,avstrijski,_,2,*->30-1,*[30],2 - Negativno[41],310,ADJ,Agpfsg,amod
309,1889-1895,družba,_,2,*->30-1,*[30],2 - Negativno[41],308,NOUN,Ncfsg,nmod
310,1896-1903,Strabag,ORG,2,*->30-1,*[30],2 - Negativno[41],310,PROPN,Npmsn,nmod
311,1904-1906,in,_,_,_,_,_,313,CCONJ,Cc,cc
312,1907-1913,družba,_,2,*->10-1,*[10],2 - Negativno[42],308,NOUN,Ncfsa,conj
313,1914-1921,Strabag,ORG,2,*->10-1,*[10],2 - Negativno[42],313,PROPN,Npmsn,nmod
314,1922-1930,gradben,_,2,*->10-1,*[10],2 - Negativno[42],316,ADJ,Agpfsg,amod
315,1931-1939,storitev,_,2,*->10-1,*[10],2 - Negativno[42],314,NOUN,Ncfsg,nmod
316,1940-1943,ter,_,_,_,_,_,319,CCONJ,Cc,cc
317,1944-1951,celjski,_,_,_,_,_,319,ADJ,Agpfsa,amod
318,1952-1962,podružnica,_,_,_,_,_,313,NOUN,Ncfsa,nmod
319,1963-1973,avstrijski,_,2,*->22-1,*[22],2 - Negativno[43],321,ADJ,Agpfsg,amod
320,1974-1980,družba,_,2,*->22-1,*[22],2 - Negativno[43],319,NOUN,Ncfsg,nmod
321,1981-1987,Alpine,ORG[18],2,*->22-1,*[22],2 - Negativno[43],321,PROPN,Npfsn,nmod
322,1988-1991,Bau,ORG[18],2,*->22-1,*[22],2 - Negativno[43],322,PROPN,Npmsn,nmod
323,1992-1993,",",_,_,_,_,_,326,PUNCT,Z,punct
324,1994-2000,cesten,ORG[19],2,*->21-1,*[21],2 - Negativno[44],326,ADJ,Agpnsn,amod
325,2001-2009,podjetje,ORG[19],2,*->21-1,*[21],2 - Negativno[44],323,NOUN,Ncnsn,appos
326,2010-2015,Koper,ORG[19]|LOC[20],0,*->21-1|*->16-1,*[21]|*[16],2 - Negativno[44]|3 - Nevtralno[45],326,PROPN,Npmsn,nmod
327,2016-2017,",",_,_,_,_,_,330,PUNCT,Z,punct
328,2018-2024,cesten,ORG[21],2,*->3-1,*[3],2 - Negativno[46],330,ADJ,Agpnsn,amod
329,2025-2033,podjetje,ORG[21],2,*->3-1,*[3],2 - Negativno[46],326,NOUN,Ncnsn,conj
330,2034-2038,Ptuj,ORG[21]|LOC[22],0,*->3-1|*->28-1,*[3]|*[28],2 - Negativno[46]|3 - Nevtralno[47],330,PROPN,Npmsn,nmod
331,2039-2041,in,_,_,_,_,_,334,CCONJ,Cc,cc
332,2042-2048,cesten,ORG[23],_,*->9-1,*[9],_,334,ADJ,Agpnsn,amod
333,2049-2057,podjetje,ORG[23],_,*->9-1,*[9],_,330,NOUN,Ncnsn,conj
334,2058-2063,Kranj,ORG[23]|LOC[24],_,*->9-1|*->4-1,*[9]|*[4],_,334,PROPN,Npmsn,nmod
335,2064-2065,",",_,_,_,_,_,337,PUNCT,Z,punct
336,2066-2068,28,_,_,_,_,_,335,NUM,Mdc,nummod
337,2069-2070,.,_,_,_,_,_,330,PUNCT,Z,punct
338,2071-2078,oktober,_,_,_,_,_,304,NOUN,Ncmsg,nmod
339,2079-2083,2010,_,_,_,_,_,339,NUM,Mdc,nummod
340,2084-2086,pa,_,_,_,_,_,344,CCONJ,Cc,cc
341,2087-2089,še,_,_,_,_,_,339,PART,Q,advmod
342,2090-2095,zoper,_,_,_,_,_,344,ADP,Sa,case
343,2096-2099,SCT,ORG[25],_,*->25-2,*[25],_,339,PROPN,Npmsan,nmod
344,2100-2107,holding,ORG[25],_,*->25-2,*[25],_,344,PROPN,Npmsan,flat:name
345,2108-2109,",",_,_,_,_,_,347,PUNCT,Z,punct
346,2110-2118,Primorje,ORG[26],_,*->11-2,*[11],_,344,PROPN,Npnsn,conj
347,2119-2126,holding,ORG[26],_,*->11-2,*[11],_,347,PROPN,Npmsn,nmod
348,2127-2129,in,_,_,_,_,_,351,CCONJ,Cc,cc
349,2130-2136,cesten,ORG[27],2,*->9-2,*[9],2 - Negativno[48],351,ADJ,Agpnsa,amod
350,2137-2145,podjetje,ORG[27],2,*->9-2,*[9],2 - Negativno[48],347,NOUN,Ncnsa,conj
351,2146-2151,Kranj,ORG[27]|LOC[28],0,*->9-2|*->4-2,*[9]|*[4],2 - Negativno[48]|3 - Nevtralno[49],351,PROPN,Npmsn,nmod
352,2152-2153,",",_,_,_,_,_,354,PUNCT,Z,punct
353,2154-2160,družba,_,_,_,_,_,351,NOUN,Ncfsa,conj
354,2161-2163,za,_,_,_,_,_,356,ADP,Sa,case
355,2164-2175,vzdrževanje,_,_,_,_,_,354,NOUN,Ncnsa,nmod
356,2176-2178,in,_,_,_,_,_,358,CCONJ,Cc,cc
357,2179-2186,gradnja,_,_,_,_,_,356,NOUN,Ncfsa,conj
358,2187-2191,cesta,_,_,_,_,_,358,NOUN,Ncfpg,nmod
359,2192-2193,.,_,_,_,_,_,347,PUNCT,Z,punct
360,2194-2198,foto,_,_,_,_,_,362,NOUN,Ncmsn,nmod
361,2199-2206,Reuters,ORG,0,*->26-1,*[26],3 - Nevtralno,365,PROPN,Npmsn,nsubj
362,2207-2210,kaj,_,_,_,_,_,365,PRON,Pq-nsa,obj
363,2211-2213,biti,_,_,_,_,_,365,AUX,Va-r3p-n,aux
364,2214-2223,zagrešiti,_,_,_,_,_,359,VERB,Vmep-pm,acl
365,2224-2225,?,_,_,_,_,_,365,PUNCT,Z,punct
366,2226-2234,podjetje,_,_,_,_,_,371,NOUN,Ncnpn,nsubj
367,2235-2238,naj,_,_,_,_,_,371,PART,Q,advmod
368,2239-2241,biti,_,_,_,_,_,371,AUX,Va-c,aux
369,2242-2244,se,_,_,_,_,_,371,PRON,Px------y,expl
370,2245-2258,sporazumevati,_,_,_,_,_,5,VERB,Vmpp-pf,parataxis
371,2259-2260,o,_,_,_,_,_,373,ADP,Sl,case
372,2261-2267,višina,_,_,_,_,_,371,NOUN,Ncfsl,obl
373,2268-2274,ponudba,_,_,_,_,_,373,NOUN,Ncfpg,nmod
374,2275-2276,",",_,_,_,_,_,376,PUNCT,Z,punct
375,2277-2283,oddaja,_,_,_,_,_,374,NOUN,Ncfsl,conj
376,2284-2290,ponudba,_,_,_,_,_,376,NOUN,Ncfpg,nmod
377,2291-2292,",",_,_,_,_,_,371,PUNCT,Z,punct
378,2293-2295,in,_,_,_,_,_,384,CCONJ,Cc,cc
379,2296-2301,sicer,_,_,_,_,_,384,PART,Q,advmod
380,2302-2306,tako,_,_,_,_,_,384,ADV,Rgp,advmod
381,2307-2310,pri,_,_,_,_,_,384,ADP,Sl,case
382,2311-2317,javen,_,_,_,_,_,384,ADJ,Agpnpl,amod
383,2318-2327,naročilo,_,_,_,_,_,374,NOUN,Ncnpl,conj
384,2328-2331,kot,_,_,_,_,_,388,SCONJ,Cs,case
385,2332-2335,pri,_,_,_,_,_,388,ADP,Sl,case
386,2336-2346,preostal,_,_,_,_,_,388,ADJ,Appmpl,amod
387,2347-2356,projekt,_,_,_,_,_,384,NOUN,Ncmpl,conj
388,2357-2358,",",_,_,_,_,_,390,PUNCT,Z,punct
389,2359-2365,deliti,_,_,_,_,_,371,VERB,Vmpp-sf,conj
390,2366-2369,naj,_,_,_,_,_,390,PART,Q,advmod
391,2370-2372,biti,_,_,_,_,_,390,AUX,Va-c,aux
392,2373-2375,se,_,_,_,_,_,390,PRON,Px---d--y,expl
393,2376-2383,podatek,_,_,_,_,_,390,NOUN,Ncmpa,obj
394,2384-2385,o,_,_,_,_,_,396,ADP,Sl,case
395,2386-2391,cena,_,_,_,_,_,394,NOUN,Ncfpl,nmod
396,2392-2394,in,_,_,_,_,_,400,CCONJ,Cc,cc
397,2395-2401,drug,_,_,_,_,_,400,ADJ,Mlpmpl,amod
398,2402-2411,posloven,_,_,_,_,_,400,ADJ,Agpmpl,amod
399,2412-2419,pogoj,_,_,_,_,_,396,NOUN,Ncmpl,conj
400,2420-2422,na,_,_,_,_,_,402,ADP,Sl,case
401,2423-2427,trg,_,_,_,_,_,400,NOUN,Ncmsl,nmod
402,2428-2437,gradben,_,_,_,_,_,404,ADJ,Agpfpg,amod
403,2438-2446,storitev,_,_,_,_,_,402,NOUN,Ncfpg,nmod
404,2447-2448,",",_,_,_,_,_,409,PUNCT,Z,punct
405,2449-2450,z,_,_,_,_,_,407,ADP,Si,case
406,2451-2454,ta,_,_,_,_,_,409,DET,Pd-nsi,obl
407,2455-2457,pa,_,_,_,_,_,409,CCONJ,Cc,advmod
408,2458-2466,določati,_,_,_,_,_,390,VERB,Vmpp-sf,advcl
409,2467-2475,prodajen,_,_,_,_,_,411,ADJ,Agpfpa,amod
410,2476-2480,cena,_,_,_,_,_,409,NOUN,Ncfpa,obj
411,2481-2483,in,_,_,_,_,_,414,CCONJ,Cc,cc
412,2484-2486,se,_,_,_,_,_,414,PRON,Px---d--y,expl
413,2487-2496,razdeliti,_,_,_,_,_,409,VERB,Vmep-sf,conj
414,2497-2500,trg,_,_,_,_,_,414,NOUN,Ncmsan,obj
415,2501-2502,.,_,_,_,_,_,409,PUNCT,Z,punct
416,2503-2512,preiskava,_,_,_,_,_,422,NOUN,Ncfsn,nsubj
417,2513-2519,varuh,_,_,_,_,_,417,NOUN,Ncmsg,nmod
418,2520-2530,konkurenca,_,_,_,_,_,418,NOUN,Ncfsg,nmod
419,2531-2533,se,_,_,_,_,_,422,PRON,Px------y,expl
420,2534-2536,biti,_,_,_,_,_,422,AUX,Va-r3s-n,aux
421,2537-2545,nanašati,_,_,_,_,_,5,VERB,Vmpp-sf,parataxis
422,2546-2548,na,_,_,_,_,_,425,ADP,Sa,case
423,2549-2559,avtocesten,_,_,_,_,_,425,ADJ,Agpfpa,amod
424,2560-2567,gradnja,_,_,_,_,_,422,NOUN,Ncfpa,obl
425,2568-2569,",",_,_,_,_,_,427,PUNCT,Z,punct
426,2570-2574,delo,_,_,_,_,_,425,NOUN,Ncnpa,conj
427,2575-2577,na,_,_,_,_,_,430,ADP,Sl,case
428,2578-2585,ostal,_,_,_,_,_,430,ADJ,Appfpl,amod
429,2586-2592,cesta,_,_,_,_,_,427,NOUN,Ncfpl,nmod
430,2593-2596,ter,_,_,_,_,_,433,CCONJ,Cc,cc
431,2597-2603,visok,_,_,_,_,_,433,ADJ,Agpfpa,amod
432,2604-2611,gradnja,_,_,_,_,_,425,NOUN,Ncfpa,conj
433,2612-2613,.,_,_,_,_,_,409,PUNCT,Z,punct
434,2614-2620,kakšen,_,_,_,_,_,436,DET,Pq-fpn,det
435,2621-2626,globa,_,_,_,_,_,438,NOUN,Ncfpn,nsubj
436,2627-2630,on,_,_,_,_,_,438,PRON,Pp3mpd--y,obj
437,2631-2638,groziti,_,_,_,_,_,433,VERB,Vmpr3p,acl
438,2639-2640,?,_,_,_,_,_,438,PUNCT,Z,punct
439,2641-2649,gradben,_,_,_,_,_,441,ADJ,Agpnpn,amod
440,2650-2658,podjetje,_,_,_,_,_,449,NOUN,Ncnpn,nsubj
441,2659-2664,lahko,_,_,_,_,_,449,ADV,Rgp,advmod
442,2665-2666,v,_,_,_,_,_,445,ADP,Sl,case
443,2667-2669,30,_,_,_,_,_,445,NUM,Mdc,nummod
444,2670-2674,dan,_,_,_,_,_,449,NOUN,Ncmpl,obl
445,2675-2677,po,_,_,_,_,_,447,ADP,Sl,case
446,2678-2685,prejem,_,_,_,_,_,449,NOUN,Ncmsl,obl
447,2686-2693,odločba,_,_,_,_,_,447,NOUN,Ncfsg,nmod
448,2694-2701,vložiti,_,_,_,_,_,5,VERB,Vmer3p,parataxis
449,2702-2707,tožba,_,_,_,_,_,449,NOUN,Ncfsa,obj
450,2708-2710,na,_,_,_,_,_,453,ADP,Sa,case
451,2711-2718,vrhoven,_,_,_,_,_,453,ADJ,Agpnsa,amod
452,2719-2726,sodišče,_,_,_,_,_,450,NOUN,Ncnsa,nmod
453,2727-2728,.,_,_,_,_,_,457,PUNCT,Z,punct
454,2729-2731,ko,_,_,_,_,_,457,SCONJ,Cs,mark
455,2732-2739,odločba,_,_,_,_,_,457,NOUN,Ncfsn,nsubj
456,2740-2747,postati,_,_,_,_,_,453,VERB,Vmer3s,acl
457,2748-2759,pravnomočen,_,_,_,_,_,457,ADJ,Agpfsn,xcomp
458,2760-2761,",",_,_,_,_,_,457,PUNCT,Z,punct
459,2762-2766,urad,_,_,*->19-12,*[19],_,461,NOUN,Ncmsn,nsubj
460,2767-2771,izdati,_,_,_,_,_,449,VERB,Vmer3s,advcl
461,2772-2777,globa,_,_,_,_,_,461,NOUN,Ncfsa,obj
462,2778-2779,.,_,_,_,_,_,438,PUNCT,Z,punct
463,2780-2782,ta,_,_,_,_,_,467,DET,Pd-msn,nsubj
464,2783-2785,za,_,_,_,_,_,466,ADP,Sa,case
465,2786-2794,podjetje,_,_,_,_,_,467,NOUN,Ncnpa,obl
466,2795-2800,znašati,_,_,_,_,_,461,VERB,Vmpr3s,conj
467,2801-2807,največ,_,_,_,_,_,470,DET,Rgs,det
468,2808-2813,deset,_,_,_,_,_,470,NUM,Mlc-pa,nummod
469,2814-2823,odstotek,_,_,_,_,_,467,NOUN,Ncmpg,obl
470,2824-2831,promet,_,_,_,_,_,470,NOUN,Ncmsg,nmod
471,2832-2833,v,_,_,_,_,_,474,ADP,Sl,case
472,2834-2844,predhoden,_,_,_,_,_,474,ADJ,Agpnsl,amod
473,2845-2849,leto,_,_,_,_,_,471,NOUN,Ncnsl,nmod
474,2850-2851,.,_,_,_,_,_,467,PUNCT,Z,punct
475,2852-2856,urad,_,_,*->19-13,*[19],_,478,NOUN,Ncmsan,obj
476,2857-2862,lahko,_,_,_,_,_,478,ADV,Rgp,advmod
477,2863-2869,izreči,_,_,_,_,_,467,VERB,Vmer3s,conj
478,2870-2875,globa,_,_,_,_,_,478,NOUN,Ncfsa,obj
479,2876-2880,tako,_,_,_,_,_,481,ADV,Rgp,advmod
480,2881-2890,odgovoren,_,_,_,_,_,482,ADJ,Agpfsd,amod
481,2891-2896,oseba,_,_,_,_,_,478,NOUN,Ncfsd,iobj
482,2897-2903,praven,_,_,_,_,_,484,ADJ,Agpfsg,amod
483,2904-2909,oseba,_,_,_,_,_,482,NOUN,Ncfsg,nmod
484,2910-2913,kot,_,_,_,_,_,488,SCONJ,Cs,case
485,2914-2918,tudi,_,_,_,_,_,490,PART,Q,advmod
486,2919-2925,praven,_,_,_,_,_,488,ADJ,Agpfsd,amod
487,2926-2931,oseba,_,_,_,_,_,482,NOUN,Ncfsd,conj
488,2932-2933,",",_,_,_,_,_,490,PUNCT,Z,punct
489,2934-2946,pojasnjevati,_,_,_,_,_,478,VERB,Vmpr3p,conj
490,2947-2949,na,_,_,_,_,_,492,ADP,Sl,case
491,2950-2955,urad,_,1,*->19-14,*[19],4 - Pozitivno[50],490,NOUN,Ncmsl,obl
492,2956-2958,za,_,1,*->19-14,*[19],4 - Pozitivno[50],494,ADP,Sa,case
493,2959-2966,varstvo,_,1,*->19-14,*[19],4 - Pozitivno[50],492,NOUN,Ncnsa,nmod
494,2967-2977,konkurenca,_,1,*->19-14,*[19],4 - Pozitivno[50],494,NOUN,Ncfsg,nmod
495,2978-2979,.,_,_,_,_,_,5,PUNCT,Z,punct
496,2980-2986,višina,_,_,_,_,_,511,NOUN,Ncfsn,nsubj
497,2987-2992,globa,_,_,_,_,_,497,NOUN,Ncfsg,nmod
498,2993-2994,",",_,_,_,_,_,503,PUNCT,Z,punct
499,2995-2997,ki,_,_,_,_,_,503,SCONJ,Cs,mark
500,2998-3000,on,_,_,_,_,_,506,PRON,Pp3fsa--y,obj
501,3001-3005,biti,_,_,_,_,_,503,AUX,Va-f3p-n,aux
502,3006-3012,morati,_,_,_,_,_,498,VERB,Vmpp-pm,acl
503,3013-3015,ob,_,_,_,_,_,505,ADP,Sl,case
504,3016-3030,pravnomočnost,_,_,_,_,_,506,NOUN,Ncfsl,obl
505,3031-3038,plačati,_,_,_,_,_,503,VERB,Vmen,xcomp
506,3039-3048,gradbinec,_,_,_,_,_,506,NOUN,Ncmpn,nsubj
507,3049-3050,",",_,_,_,_,_,503,PUNCT,Z,punct
508,3051-3055,tako,_,_,_,_,_,511,ADV,Rgp,advmod
509,3056-3058,biti,_,_,_,_,_,511,AUX,Va-r3s-y,cop
510,3059-3064,znan,_,_,_,_,_,495,ADJ,Appfsn,acl
511,3065-3066,.,_,_,_,_,_,511,PUNCT,Z,punct
512,3067-3074,podatek,_,_,_,_,_,522,NOUN,Ncmpn,nsubj
513,3075-3076,o,_,_,_,_,_,515,ADP,Sl,case
514,3077-3087,poslovanje,_,_,_,_,_,513,NOUN,Ncnsl,nmod
515,3088-3097,omenjen,_,_,_,_,_,517,ADJ,Appnpg,amod
516,3098-3106,podjetje,_,_,_,_,_,515,NOUN,Ncnpg,nmod
517,3107-3109,za,_,_,_,_,_,519,ADP,Sa,case
518,3110-3114,lani,_,_,_,_,_,522,ADV,Rgp,advmod
519,3115-3117,še,_,_,_,_,_,522,PART,Q,advmod
520,3118-3122,biti,_,_,_,_,_,522,AUX,Va-r3p-y,cop
521,3123-3128,znan,_,_,_,_,_,511,ADJ,Appmpn,conj
522,3129-3130,",",_,_,_,_,_,522,PUNCT,Z,punct
523,3131-3133,biti,_,_,_,_,_,528,AUX,Va-r3s-n,cop
524,3134-3136,pa,_,_,_,_,_,528,CCONJ,Cc,advmod
525,3137-3139,že,_,_,_,_,_,528,PART,Q,advmod
526,3140-3144,zdaj,_,_,_,_,_,529,ADV,Rgp,advmod
527,3145-3151,mogoč,_,_,_,_,_,5,ADJ,Agpnsn,parataxis
528,3152-3158,trditi,_,_,_,_,_,528,VERB,Vmpn,csubj
529,3159-3160,",",_,_,_,_,_,534,PUNCT,Z,punct
530,3161-3163,da,_,_,_,_,_,534,SCONJ,Cs,mark
531,3164-3166,biti,_,_,_,_,_,534,AUX,Va-r3p-n,cop
532,3167-3174,občutno,_,_,_,_,_,534,ADV,Rgp,advmod
533,3175-3180,nizek,_,_,_,_,_,529,ADJ,Agcmpn,ccomp
534,3181-3184,kot,_,_,_,_,_,537,SCONJ,Cs,case
535,3185-3186,v,_,_,_,_,_,537,ADP,Sl,case
536,3187-3191,leto,_,_,_,_,_,534,NOUN,Ncnsl,obl
537,3192-3196,2010,_,_,_,_,_,537,NUM,Mdc,nummod
538,3197-3198,.,_,_,_,_,_,528,PUNCT,Z,punct
539,3199-3207,gradben,_,_,_,_,_,541,ADJ,Agpmsny,amod
540,3208-3214,sektor,_,_,_,_,_,546,NOUN,Ncmsn,nsubj
541,3215-3217,biti,_,_,_,_,_,546,AUX,Va-r3s-n,aux
542,3218-3224,namreč,_,_,_,_,_,546,CCONJ,Cc,advmod
543,3225-3230,kriza,_,_,_,_,_,546,NOUN,Ncfsn,nsubj
544,3231-3236,močno,_,_,_,_,_,546,ADV,Rgp,advmod
545,3237-3246,prizadeti,_,_,_,_,_,528,VERB,Vmep-sf,csubj
546,3247-3248,",",_,_,_,_,_,546,PUNCT,Z,punct
547,3249-3260,marsikateri,_,_,_,_,_,549,DET,Pi-nsn,det
548,3261-3269,podjetje,_,_,_,_,_,546,NOUN,Ncnsa,obj
549,3270-3271,",",_,_,_,_,_,554,PUNCT,Z,punct
550,3272-3274,ki,_,_,_,_,_,554,SCONJ,Cs,mark
551,3275-3277,biti,_,_,_,_,_,554,AUX,Va-r3s-n,aux
552,3278-3282,biti,_,_,_,_,_,554,AUX,Va-p-sn,cop
553,3283-3290,predmet,_,_,_,_,_,549,NOUN,Ncmsn,acl
554,3291-3300,preiskava,_,_,_,_,_,554,NOUN,Ncfsg,nmod
555,3301-3307,varuh,_,_,_,_,_,555,NOUN,Ncmsg,nmod
556,3308-3318,konkurenca,_,_,_,_,_,556,NOUN,Ncfsg,nmod
557,3319-3320,",",_,_,_,_,_,554,PUNCT,Z,punct
558,3321-3323,pa,_,_,_,_,_,565,CCONJ,Cc,advmod
559,3324-3326,biti,_,_,_,_,_,565,AUX,Va-r3s-n,aux
560,3327-3328,v,_,_,_,_,_,563,ADP,Sl,case
561,3329-3332,ta,_,_,_,_,_,563,DET,Pd-msl,det
562,3333-3337,čas,_,_,_,_,_,565,NOUN,Ncmsl,obl
563,3338-3340,že,_,_,_,_,_,565,PART,Q,advmod
564,3341-3349,propasti,_,_,_,_,_,554,VERB,Vmep-sn,conj
565,3350-3351,.,_,_,_,_,_,565,PUNCT,Z,punct
566,3352-3356,tako,_,_,_,_,_,576,ADV,Rgp,mark
567,3357-3359,biti,_,_,_,_,_,576,AUX,Va-r3p-n,aux
568,3360-3362,se,_,_,_,_,_,576,PRON,Px------y,expl
569,3363-3364,v,_,_,_,_,_,573,ADP,Sl,case
570,3365-3372,zadnji,_,_,_,_,_,573,ADJ,Agpnpl,amod
571,3373-3377,dva,_,_,_,_,_,573,NUM,Mlcndl,nummod
572,3378-3383,leto,_,_,_,_,_,576,NOUN,Ncndl,obl
573,3384-3385,v,_,_,_,_,_,575,ADP,Sl,case
574,3386-3393,stečaj,_,_,_,_,_,573,NOUN,Ncmsl,nmod
575,3394-3400,znajti,_,_,_,_,_,565,VERB,Vmep-pm,advcl
576,3401-3405,tako,_,_,_,_,_,578,ADV,Rgp,advmod
577,3406-3409,SCT,ORG,2,*->25-3,*[25],2 - Negativno,576,PROPN,Npmsn,nsubj
578,3410-3413,kot,_,_,_,_,_,580,SCONJ,Cs,case
579,3414-3420,Vegrad,ORG,2,*->5-2,*[5],2 - Negativno,578,PROPN,Npmsn,obl
580,3421-3422,",",_,_,_,_,_,583,PUNCT,Z,punct
581,3423-3429,cesten,ORG[29],2,*->15-2,*[15],2 - Negativno[51],583,ADJ,Agpnsn,amod
582,3430-3438,podjetje,ORG[29],2,*->15-2,*[15],2 - Negativno[51],578,NOUN,Ncnsn,conj
583,3439-3446,Maribor,ORG[29]|LOC[30],0,*->15-2|*->29-2,*[15]|*[29],2 - Negativno[51]|3 - Nevtralno[52],583,PROPN,Npmsn,nmod
584,3447-3449,in,_,_,_,_,_,587,CCONJ,Cc,cc
585,3450-3458,gradben,ORG[31],2,*->31-2,*[31],2 - Negativno[53],587,ADJ,Agpnsn,amod
586,3459-3467,podjetje,ORG[31],2,*->31-2,*[31],2 - Negativno[53],583,NOUN,Ncnsn,conj
587,3468-3477,Grosuplje,ORG[31]|LOC[32],0,*->31-2|*->27-2,*[31]|*[27],2 - Negativno[53]|3 - Nevtralno[54],587,PROPN,Npmsn,nmod
588,3478-3479,",",_,_,_,_,_,592,PUNCT,Z,punct
589,3480-3488,ajdovski,_,_,_,_,_,591,ADJ,Agpnsn,amod
590,3489-3497,Primorje,ORG,2,*->11-3,*[11],2 - Negativno,592,PROPN,Npnsn,nsubj
591,3498-3500,biti,_,_,_,_,_,583,VERB,Va-r3s-n,acl
592,3501-3503,na,_,_,_,_,_,594,ADP,Sl,case
593,3504-3508,rob,_,_,_,_,_,592,NOUN,Ncmsl,obl
594,3509-3519,preživetje,_,_,_,_,_,594,NOUN,Ncnsg,nmod
595,3520-3521,",",_,_,_,_,_,599,PUNCT,Z,punct
596,3522-3528,medtem,_,_,_,_,_,599,ADV,Rgp,mark
597,3529-3531,ko,_,_,_,_,_,597,SCONJ,Cs,fixed
598,3532-3534,biti,_,_,_,_,_,592,VERB,Va-r3s-n,advcl
599,3535-3541,Gradis,ORG,2,*->18-3,*[18],2 - Negativno,599,PROPN,Npmsn,nsubj
600,3542-3544,že,_,_,_,_,_,599,PART,Q,advmod
601,3545-3547,od,_,_,_,_,_,603,ADP,Sg,case
602,3548-3552,leto,_,_,_,_,_,599,NOUN,Ncnsg,obl
603,3553-3557,2008,_,_,_,_,_,603,NUM,Mdc,nummod
604,3558-3559,v,_,_,_,_,_,606,ADP,Sl,case
605,3560-3571,likvidacija,_,_,_,_,_,599,NOUN,Ncfsl,obl
