idx,chars_idx,token,entity_type,sentiment,idk_1,idk_2,orig_sentiment,heads,upos,xpos,deprel
0,0-4,tako,_,_,_,_,_,2,ADV,Rgp,advmod
1,5-9,meniti,_,_,_,_,_,0,VERB,Vmpr3s,root
2,10-18,direktor,_,_,*->4-1,*[4],_,2,NOUN,Ncmsn,nsubj
3,19-23,EBRD,ORG[1]|ORG[2],_,*->4-1|*->15-1|*->8-1,*[4]|*[15]|*[8],_,3,PROPN,Npmsn,nmod
4,24-26,za,ORG[1],_,*->4-1|*->15-1,*[4]|*[15],_,9,ADP,Sa,case
5,27-34,srednji,ORG[1],_,*->4-1|*->15-1,*[4]|*[15],_,9,ADJ,Agpfsa,amod
6,35-37,in,ORG[1],_,*->4-1|*->15-1,*[4]|*[15],_,8,CCONJ,Cc,cc
7,38-45,vzhoden,ORG[1],_,*->4-1|*->15-1,*[4]|*[15],_,6,ADJ,Agpfsa,conj
8,46-52,Evropa,ORG[1]|LOC[3],_,*->4-1|*->15-1|*->1-1,*[4]|*[15]|*[1],_,4,PROPN,Npfsa,nmod
9,53-54,.,_,_,_,_,_,14,PUNCT,Z,punct
10,55-60,glede,_,_,_,_,_,12,ADP,Sg,case
11,61-64,NLB,ORG,_,*->2-1,*[2],_,9,PROPN,Npfsg,nmod
12,65-67,pa,_,_,_,_,_,14,CCONJ,Cc,advmod
13,68-73,praviti,_,_,*->4-2,*[4],_,2,VERB,Vmbr3s,parataxis
14,74-75,",",_,_,_,_,_,18,PUNCT,Z,punct
15,76-78,da,_,_,_,_,_,18,SCONJ,Cs,mark
16,79-81,se,_,_,_,_,_,20,PRON,Px------y,expl
17,82-88,morati,_,_,_,_,_,14,VERB,Vmpr3p,ccomp
18,89-97,lastnik,_,_,_,_,_,18,NOUN,Ncmpn,nsubj
19,98-106,odločiti,_,_,_,_,_,18,VERB,Vmen,xcomp
20,107-108,",",_,_,_,_,_,23,PUNCT,Z,punct
21,109-112,kaj,_,_,_,_,_,23,PRON,Pq-nsa,obj
22,113-119,želeti,_,_,_,_,_,20,VERB,Vmpr3p,ccomp
23,120-121,z,_,_,_,_,_,25,ADP,Si,case
24,122-127,banka,_,_,*->2-2,*[2],_,23,NOUN,Ncfsi,obl
25,128-129,.,_,_,_,_,_,23,PUNCT,Z,punct
26,130-134,eden,_,_,_,_,_,29,NUM,Mlpmsn,nummod
27,135-142,glaven,_,_,_,_,_,29,ADJ,Agpmpg,amod
28,143-154,ekonomist,_,_,_,_,_,33,NOUN,Ncmpg,nsubj
29,155-158,pri,_,_,_,_,_,31,ADP,Sl,case
30,159-163,EBRD,ORG,_,*->8-2,*[8],_,29,PROPN,Npfsl,nmod
31,164-166,pa,_,_,_,_,_,33,CCONJ,Cc,advmod
32,167-175,opozarjati,_,_,_,_,_,2,VERB,Vmpr3s,parataxis
33,176-177,",",_,_,_,_,_,46,PUNCT,Z,punct
34,178-180,da,_,_,_,_,_,38,SCONJ,Cs,mark
35,181-183,biti,_,_,_,_,_,38,AUX,Va-r3s-n,cop
36,184-193,Slovenija,LOC,_,*->12-1,*[12],_,38,PROPN,Npfsn,nsubj
37,194-197,en,_,_,_,_,_,33,NUM,Mlpfsn,ccomp
38,198-203,izmed,_,_,_,_,_,40,ADP,Sg,case
39,204-209,država,_,_,_,_,_,38,NOUN,Ncfpg,nmod
40,210-211,",",_,_,_,_,_,46,PUNCT,Z,punct
41,212-214,ki,_,_,_,_,_,46,SCONJ,Cs,mark
42,215-217,se,_,_,_,_,_,46,PRON,Px------y,expl
43,218-221,on,_,_,_,_,_,46,PRON,Pp3mpd--y,obj
44,222-227,letos,_,_,_,_,_,46,ADV,Rgp,advmod
45,228-233,obetati,_,_,_,_,_,40,VERB,Vmpr3s,acl
46,234-242,recesija,_,_,_,_,_,46,NOUN,Ncfsn,nsubj
47,243-244,.,_,_,_,_,_,46,PUNCT,Z,punct
48,245-251,skrben,_,_,_,_,_,50,ADJ,Agpmsny,amod
49,252-259,pregled,_,_,_,_,_,55,NOUN,Ncmsn,nsubj
50,260-263,NLB,ORG,_,*->2-3,*[2],_,50,PROPN,Npfsg,nmod
51,264-267,naj,_,_,_,_,_,55,PART,Q,advmod
52,268-270,biti,_,_,_,_,_,55,AUX,Va-c,aux
53,271-274,biti,_,_,_,_,_,55,AUX,Va-p-sm,cop
54,275-281,končan,_,_,_,_,_,2,ADJ,Appmsnn,parataxis
55,282-292,kasno,_,_,_,_,_,59,ADV,Rgs,advmod
56,293-295,do,_,_,_,_,_,59,ADP,Sg,case
57,296-300,prvi,_,_,_,_,_,59,ADJ,Mlofsg,amod
58,301-309,polovica,_,_,_,_,_,55,NOUN,Ncfsg,obl
59,310-316,junij,_,_,_,_,_,59,NOUN,Ncmsg,nmod
60,317-318,",",_,_,_,_,_,46,PUNCT,Z,punct
61,319-335,dokapitalizacija,_,_,_,_,_,66,NOUN,Ncfsn,nsubj
62,336-338,pa,_,_,_,_,_,66,CCONJ,Cc,advmod
63,339-342,naj,_,_,_,_,_,66,PART,Q,advmod
64,343-345,biti,_,_,_,_,_,66,AUX,Va-c,aux
65,346-352,steči,_,_,_,_,_,55,VERB,Vmep-sf,parataxis
66,353-355,do,_,_,_,_,_,68,ADP,Sg,case
67,356-362,jeseni,_,_,_,_,_,66,ADV,Rgp,advmod
68,363-364,.,_,_,_,_,_,66,PUNCT,Z,punct
69,365-367,če,_,_,_,_,_,78,SCONJ,Cs,mark
70,368-370,pa,_,_,_,_,_,78,CCONJ,Cc,advmod
71,371-379,dogovor,_,_,_,_,_,78,NOUN,Ncmsg,nsubj
72,380-385,okrog,_,_,_,_,_,74,ADP,Sg,case
73,386-402,dokapitalizacija,_,_,_,_,_,78,NOUN,Ncfsg,obl
74,403-408,banka,_,_,*->2-4,*[2],_,74,NOUN,Ncfsg,nmod
75,409-411,ne,_,_,_,_,_,78,PART,Q,advmod
76,412-414,biti,_,_,_,_,_,78,AUX,Va-c,aux
77,415-419,biti,_,_,_,_,_,66,VERB,Va-p-sn,advcl
78,420-422,do,_,_,_,_,_,80,ADP,Sg,case
79,423-428,konec,_,_,_,_,_,78,NOUN,Ncmsg,obl
80,429-433,leto,_,_,_,_,_,78,NOUN,Ncnsg,obl
81,434-435,",",_,_,_,_,_,78,PUNCT,Z,punct
82,436-438,biti,_,_,_,_,_,84,AUX,Va-f3s-n,cop
83,439-447,potreben,_,_,_,_,_,78,ADJ,Agpnsn,conj
84,448-454,iskati,_,_,_,_,_,84,VERB,Vmpn,csubj
85,455-460,drug,_,_,_,_,_,87,ADJ,Mlpfpa,amod
86,461-469,možnost,_,_,_,_,_,85,NOUN,Ncfpa,obj
87,470-471,",",_,_,_,_,_,78,PUNCT,Z,punct
88,472-475,saj,_,_,_,_,_,97,CCONJ,Cc,cc
89,476-483,interes,_,_,_,_,_,85,NOUN,Ncmsn,nsubj
90,484-486,za,_,_,_,_,_,92,ADP,Sa,case
91,487-492,banka,_,_,*->2-5,*[2],_,90,NOUN,Ncfsa,nmod
92,493-495,biti,_,_,_,_,_,97,AUX,Va-r3s-n,cop
93,496-497,",",_,_,_,_,_,97,PUNCT,Z,punct
94,498-503,pravi,_,_,_,_,_,97,ADJ,Agpmsny,amod
95,504-512,finančen,_,_,*->3-1,*[3],_,97,ADJ,Agpmsny,amod
96,513-521,minister,_,_,*->3-1,*[3],_,90,NOUN,Ncmsn,conj
97,522-527,Janez,PER[4],_,*->3-1,*[3],_,97,PROPN,Npmsn,nmod
98,528-537,Šušteršič,PER[4],_,*->3-1,*[3],_,98,PROPN,Npmsn,flat:name
99,538-539,.,_,_,_,_,_,84,PUNCT,Z,punct
100,540-550,premoženje,_,_,_,_,_,107,NOUN,Ncnsn,nsubj
101,551-561,slovenski,_,_,_,_,_,103,ADJ,Agpfpg,amod
102,562-566,banka,_,_,_,_,_,101,NOUN,Ncfpg,nmod
103,567-569,in,_,_,_,_,_,105,CCONJ,Cc,cc
104,570-578,podjetje,_,_,_,_,_,103,NOUN,Ncnpg,conj
105,579-581,biti,_,_,_,_,_,107,AUX,Va-r3s-n,cop
106,582-592,precenjen,_,_,_,_,_,2,ADJ,Appnsn,parataxis
107,593-594,",",_,_,_,_,_,110,PUNCT,Z,punct
108,595-599,zato,_,_,_,_,_,110,CCONJ,Cc,cc
109,600-603,imeti,_,_,_,_,_,107,VERB,Vmpr3s-n,conj
110,604-613,slovenski,_,_,_,_,_,112,ADJ,Agpnsn,amod
111,614-626,gospodarstvo,_,_,_,_,_,110,NOUN,Ncnsa,obj
112,627-633,težava,_,_,_,_,_,110,NOUN,Ncfpa,obj
113,634-637,pri,_,_,_,_,_,115,ADP,Sl,case
114,638-652,konkurenčnost,_,_,_,_,_,113,NOUN,Ncfsl,nmod
115,653-654,",",_,_,_,_,_,118,PUNCT,Z,punct
116,655-663,finančen,_,_,_,_,_,118,ADJ,Agpmsay,amod
117,664-670,sektor,_,_,_,_,_,121,NOUN,Ncmsn,nmod
118,671-673,pa,_,_,_,_,_,121,CCONJ,Cc,cc
119,674-677,pri,_,_,_,_,_,121,ADP,Sl,case
120,678-690,pridobivanje,_,_,_,_,_,115,NOUN,Ncnsl,conj
121,691-698,svež,_,_,_,_,_,123,ADJ,Agpmsg,amod
122,699-706,denar,_,_,_,_,_,121,NOUN,Ncmsg,nmod
123,707-708,",",_,_,_,_,_,125,PUNCT,Z,punct
124,709-713,meniti,_,_,_,_,_,2,VERB,Vmpr3s,parataxis
125,714-722,direktor,_,_,*->4-3,*[4],_,125,NOUN,Ncmsn,nsubj
126,723-727,EBRD,ORG[5]|ORG[6],0,*->4-3|*->15-2|*->8-3,*[4]|*[15]|*[8],3 - Nevtralno[16],126,PROPN,Npmsn,nmod
127,728-730,za,ORG[5],0,*->4-3|*->15-2,*[4]|*[15],3 - Nevtralno[16],132,ADP,Sa,case
128,731-738,srednji,ORG[5],0,*->4-3|*->15-2,*[4]|*[15],3 - Nevtralno[16],132,ADJ,Agpfsa,amod
129,739-741,in,ORG[5],0,*->4-3|*->15-2,*[4]|*[15],3 - Nevtralno[16],131,CCONJ,Cc,cc
130,742-753,jugovzhoden,ORG[5],0,*->4-3|*->15-2,*[4]|*[15],3 - Nevtralno[16],129,ADJ,Agpfsa,conj
131,754-760,Evropa,ORG[5]|LOC[7],0,*->4-3|*->15-2|*->1-2,*[4]|*[15]|*[1],3 - Nevtralno[16]|3 - Nevtralno[17],127,PROPN,Npfsa,nmod
132,761-765,Jean,PER[8],_,*->4-3,*[4],_,126,PROPN,Npmsn,nmod
133,766-770,Marc,PER[8],_,*->4-3,*[4],_,133,PROPN,Npmsn,flat:name
134,771-783,Peterschmitt,PER[8],_,*->4-3,*[4],_,133,PROPN,Npmsn,flat:name
135,784-785,.,_,_,_,_,_,2,PUNCT,Z,punct
136,786-791,glede,_,_,_,_,_,139,ADP,Sg,case
137,792-804,kapitalski,_,_,_,_,_,139,ADJ,Agpmsg,amod
138,805-811,vstop,_,_,_,_,_,144,NOUN,Ncmsg,obl
139,812-816,EBRD,ORG,_,*->8-4,*[8],_,139,PROPN,Npmsn,nmod
140,817-818,v,_,_,_,_,_,142,ADP,Sl,case
141,819-822,NLB,ORG,_,*->2-6,*[2],_,139,PROPN,Npfsl,nmod
142,823-825,pa,_,_,_,_,_,144,CCONJ,Cc,advmod
143,826-830,meniti,_,_,*->4-4,*[4],_,2,VERB,Vmpr3s,parataxis
144,831-832,",",_,_,_,_,_,148,PUNCT,Z,punct
145,833-835,da,_,_,_,_,_,148,SCONJ,Cs,mark
146,836-838,se,_,_,_,_,_,151,PRON,Px------y,expl
147,839-845,morati,_,_,_,_,_,144,VERB,Vmpr3p,ccomp
148,846-853,najprej,_,_,_,_,_,151,ADV,Rgs,advmod
149,854-862,lastnik,_,_,_,_,_,148,NOUN,Ncmpn,nsubj
150,863-871,odločiti,_,_,_,_,_,148,VERB,Vmen,xcomp
151,872-873,",",_,_,_,_,_,154,PUNCT,Z,punct
152,874-877,kaj,_,_,_,_,_,154,PRON,Pq-nsa,obj
153,878-884,želeti,_,_,_,_,_,151,VERB,Vmpr3p,ccomp
154,885-886,z,_,_,_,_,_,156,ADP,Si,case
155,887-892,banka,_,_,*->2-7,*[2],_,154,NOUN,Ncfsi,obl
156,893-894,.,_,_,_,_,_,160,PUNCT,Z,punct
157,895-898,kot,_,_,_,_,_,160,SCONJ,Cs,mark
158,899-901,biti,_,_,_,_,_,160,AUX,Va-r3s-n,aux
159,902-907,dejati,_,_,_,_,_,151,VERB,Vmep-sm,advcl
160,908-920,Peterschmitt,PER,_,*->4-5,*[4],_,160,PROPN,Npmsn,nsubj
161,921-922,",",_,_,_,_,_,160,PUNCT,Z,punct
162,923-925,se,_,_,_,_,_,164,PRON,Px------y,expl
163,926-932,morati,_,_,_,_,_,2,VERB,Vmpr3d,parataxis
164,933-941,velik,_,_,_,_,_,166,ADJ,Agsmdn,amod
165,942-950,lastnik,_,_,_,_,_,164,NOUN,Ncmdn,nsubj
166,951-955,nov,ORG[9],_,*->2-8,*[2],_,169,ADJ,Agpfsg,amod
167,956-967,ljubljanski,ORG[9],_,*->2-8,*[2],_,169,ADJ,Agpfsg,amod
168,968-973,banka,ORG[9],_,*->2-8,*[2],_,166,NOUN,Ncfsg,nmod
169,974-977,NLB,ORG[9],_,*->2-8,*[2],_,169,PROPN,Npfsg,nmod
170,978-979,",",_,_,_,_,_,172,PUNCT,Z,punct
171,980-986,država,_,_,*->12-2,*[12],_,170,NOUN,Ncfsn,appos
172,987-989,in,_,_,_,_,_,175,CCONJ,Cc,cc
173,990-999,belgijski,_,0,*->16-1,*[16],3 - Nevtralno[18],175,ADJ,Agpfsn,amod
174,1000-1003,KBC,ORG,0,*->16-1,*[16],3 - Nevtralno[18],172,PROPN,Npfsn,conj
175,1004-1005,",",_,_,_,_,_,160,PUNCT,Z,punct
176,1006-1014,odločiti,_,_,_,_,_,164,VERB,Vmen,xcomp
177,1015-1016,",",_,_,_,_,_,181,PUNCT,Z,punct
178,1017-1021,kako,_,_,_,_,_,181,ADV,Rgp,advmod
179,1022-1027,biti,_,_,_,_,_,181,AUX,Va-f3d-n,aux
180,1028-1034,rešiti,_,_,_,_,_,177,VERB,Vmep-dm,ccomp
181,1035-1042,nastati,_,_,_,_,_,181,VERB,Vmep-pf,advcl
182,1043-1049,težava,_,_,_,_,_,182,NOUN,Ncfpa,obj
183,1050-1051,z,_,_,_,_,_,186,ADP,Si,case
184,1052-1067,problematičen,_,_,_,_,_,186,ADJ,Agpfpi,amod
185,1068-1077,naložba,_,_,_,_,_,183,NOUN,Ncfpi,nmod
186,1078-1079,",",_,_,_,_,_,188,PUNCT,Z,punct
187,1080-1094,precenjenost,_,_,_,_,_,186,NOUN,Ncfsi,conj
188,1095-1101,naložba,_,_,_,_,_,186,NOUN,Ncfpg,conj
189,1102-1105,itd,_,_,_,_,_,189,NOUN,Ncmsg,nmod
190,1106-1107,.,_,_,_,_,_,2,PUNCT,Z,punct
191,1108-1112,zato,_,_,_,_,_,201,CCONJ,Cc,cc
192,1113-1114,v,_,_,_,_,_,195,ADP,Sl,case
193,1115-1123,evropski,ORG[10],0,*->5-1,*[5],3 - Nevtralno[19],195,ADJ,Agpfsl,amod
194,1124-1129,banka,ORG[10],0,*->5-1,*[5],3 - Nevtralno[19],201,NOUN,Ncfsl,obl
195,1130-1132,za,_,_,_,_,_,197,ADP,Sa,case
196,1133-1139,obnova,_,_,_,_,_,195,NOUN,Ncfsa,nmod
197,1140-1142,in,_,_,_,_,_,199,CCONJ,Cc,cc
198,1143-1149,razvoj,_,_,_,_,_,197,NOUN,Ncmsan,conj
199,1150-1154,EBRD,ORG,_,*->8-5,*[8],_,199,PROPN,Npfsg,nmod
200,1155-1167,pozdravljati,_,_,_,_,_,227,VERB,Vmpr3p,conj
201,1168-1174,skrben,_,_,_,_,_,203,ADJ,Agpmsay,amod
202,1175-1182,pregled,_,_,_,_,_,201,NOUN,Ncmsan,obj
203,1183-1188,banka,_,_,*->2-9,*[2],_,203,NOUN,Ncfsg,nmod
204,1189-1190,",",_,_,_,_,_,207,PUNCT,Z,punct
205,1191-1193,ki,_,_,_,_,_,207,SCONJ,Cs,mark
206,1194-1196,biti,_,_,_,_,_,204,VERB,Va-r3s-n,acl
207,1197-1198,v,_,_,_,_,_,209,ADP,Sl,case
208,1199-1203,tek,_,_,_,_,_,207,NOUN,Ncmsl,obl
209,1204-1205,.,_,_,_,_,_,201,PUNCT,Z,punct
210,1206-1211,glede,_,_,_,_,_,213,ADP,Sg,case
211,1212-1224,kapitalski,_,_,_,_,_,213,ADJ,Agpmsg,amod
212,1225-1231,vstop,_,_,_,_,_,227,NOUN,Ncmsg,obl
213,1232-1233,v,_,_,_,_,_,216,ADP,Sa,case
214,1234-1236,ta,_,_,_,_,_,216,DET,Pd-fsa,det
215,1237-1242,banka,_,_,*->2-10,*[2],_,213,NOUN,Ncfsa,nmod
216,1243-1245,pa,_,_,_,_,_,227,CCONJ,Cc,advmod
217,1246-1248,biti,_,_,_,_,_,234,AUX,Va-r3s-n,aux
218,1249-1250,",",_,_,_,_,_,222,PUNCT,Z,punct
219,1251-1254,kot,_,_,_,_,_,222,SCONJ,Cs,mark
220,1255-1257,biti,_,_,_,_,_,222,AUX,Va-r3s-n,aux
221,1258-1263,dejati,_,_,_,_,_,235,VERB,Vmep-sm,advcl
222,1264-1276,Peterschmitt,PER,_,*->4-6,*[4],_,222,PROPN,Npmsn,nsubj
223,1277-1278,",",_,_,_,_,_,222,PUNCT,Z,punct
224,1279-1281,še,_,_,_,_,_,226,PART,Q,advmod
225,1282-1291,prezgodaj,_,_,_,_,_,227,ADV,Rgp,advmod
226,1292-1300,govoriti,_,_,_,_,_,222,VERB,Vmpn,xcomp
227,1301-1302,.,_,_,_,_,_,2,PUNCT,Z,punct
228,1303-1311,lastnik,_,_,_,_,_,234,NOUN,Ncmpn,nsubj
229,1312-1314,pa,_,_,_,_,_,234,CCONJ,Cc,advmod
230,1315-1319,biti,_,_,_,_,_,234,AUX,Va-f3p-n,aux
231,1320-1325,banka,_,_,*->2-11,*[2],_,235,NOUN,Ncfsa,obj
232,1326-1334,zagotovo,_,_,_,_,_,234,ADV,Rgp,advmod
233,1335-1341,morati,_,_,_,_,_,2,VERB,Vmpp-pm,parataxis
234,1342-1358,dokapitalizirati,_,_,_,_,_,234,VERB,Vmbn,xcomp
235,1359-1360,",",_,_,_,_,_,237,PUNCT,Z,punct
236,1361-1378,prestrukturiranje,_,_,_,_,_,227,NOUN,Ncnsa,obj
237,1379-1380,",",_,_,_,_,_,245,PUNCT,Z,punct
238,1381-1382,z,_,_,_,_,_,240,ADP,Si,case
239,1383-1390,kateri,_,_,_,_,_,245,DET,Pq-msi,obl
240,1391-1393,biti,_,_,_,_,_,245,AUX,Va-c,aux
241,1394-1399,lahko,_,_,_,_,_,245,ADV,Rgp,advmod
242,1400-1405,banka,_,2,*->2-12,*[2],2 - Negativno,245,NOUN,Ncfsa,obj
243,1406-1411,dobro,_,_,_,_,_,245,ADV,Rgp,advmod
244,1412-1419,prodati,_,_,_,_,_,237,VERB,Vmep-pm,acl
245,1420-1421,",",_,_,_,_,_,245,PUNCT,Z,punct
246,1422-1424,pa,_,_,_,_,_,248,CCONJ,Cc,advmod
247,1425-1428,znati,_,_,_,_,_,234,VERB,Vmpr3s,advcl
248,1429-1436,trajati,_,_,_,_,_,248,VERB,Vmpn,xcomp
249,1437-1439,še,_,_,_,_,_,249,PART,Q,advmod
250,1440-1445,nekaj,_,_,_,_,_,252,DET,Rgp,det
251,1446-1449,leto,_,_,_,_,_,249,NOUN,Ncnpg,obl
252,1450-1451,.,_,_,_,_,_,248,PUNCT,Z,punct
253,1452-1456,čas,_,_,_,_,_,259,NOUN,Ncmpn,nsubj
254,1457-1459,za,_,_,_,_,_,256,ADP,Sa,case
255,1460-1467,prodaja,_,_,_,_,_,254,NOUN,Ncfsa,nmod
256,1468-1478,premoženje,_,_,_,_,_,256,NOUN,Ncnsg,nmod
257,1479-1483,biti,_,_,_,_,_,259,AUX,Va-r3p-y,cop
258,1484-1489,dober,_,_,_,_,_,2,ADJ,Agpmpn,parataxis
259,1490-1491,",",_,_,_,_,_,259,PUNCT,Z,punct
260,1492-1494,še,_,_,_,_,_,264,PART,Q,advmod
261,1495-1502,posebej,_,_,_,_,_,264,ADV,Rgp,advmod
262,1503-1505,ta,_,_,_,_,_,264,DET,Pd-nsn,nsubj
263,1506-1511,veljati,_,_,_,_,_,259,VERB,Vmpr3s,advcl
264,1512-1514,za,_,_,_,_,_,266,ADP,Sa,case
265,1515-1520,banka,_,_,_,_,_,264,NOUN,Ncfpa,obl
266,1521-1522,",",_,_,_,_,_,264,PUNCT,Z,punct
267,1523-1528,sploh,_,_,_,_,_,280,PART,Q,advmod
268,1529-1531,pa,_,_,_,_,_,268,CCONJ,Cc,fixed
269,1532-1534,za,_,_,_,_,_,271,ADP,Sa,case
270,1535-1540,banka,_,_,_,_,_,266,NOUN,Ncfpa,conj
271,1541-1542,",",_,_,_,_,_,274,PUNCT,Z,punct
272,1543-1545,ki,_,_,_,_,_,274,SCONJ,Cs,mark
273,1546-1551,imeti,_,_,_,_,_,271,VERB,Vmpr3p-n,acl
274,1552-1558,veliko,_,_,_,_,_,277,DET,Rgp,det
275,1559-1573,problematičen,_,_,_,_,_,277,ADJ,Agpfpg,amod
276,1574-1580,naložba,_,_,_,_,_,274,NOUN,Ncfpg,obj
277,1581-1582,",",_,_,_,_,_,274,PUNCT,Z,punct
278,1583-1585,biti,_,0,*->4-7,*[4],3 - Nevtralno[20],280,AUX,Va-r3s-n,aux
279,1586-1591,dejati,_,0,*->4-7,*[4],3 - Nevtralno[20],2,VERB,Vmep-sm,parataxis
280,1592-1593,.,_,_,_,_,_,264,PUNCT,Z,punct
281,1594-1605,vlagatelj,_,_,_,_,_,295,NOUN,Ncmpg,obj
282,1606-1607,v,_,_,_,_,_,284,ADP,Sa,case
283,1608-1617,Slovenija,LOC,_,*->12-3,*[12],_,282,PROPN,Npfsa,nmod
284,1618-1620,biti,_,_,_,_,_,286,AUX,Va-r3s-y,aux
285,1621-1626,vodja,_,_,*->7-1,*[7],_,280,NOUN,Ncmsn,nsubj
286,1627-1635,operacija,_,_,*->7-1,*[7],_,286,NOUN,Ncfpg,nmod
287,1636-1638,za,_,_,*->7-1,*[7],_,289,ADP,Sa,case
288,1639-1648,Slovenija,LOC,_,*->7-1|*->12-4,*[7]|*[12],_,287,PROPN,Npfsa,nmod
289,1649-1652,pri,_,_,*->7-1,*[7],_,291,ADP,Sl,case
290,1653-1657,EBRD,ORG,_,*->7-1|*->8-6,*[7]|*[8],_,289,PROPN,Npfsl,nmod
291,1658-1665,Jolanta,PER[11],_,*->7-1,*[7],_,291,PROPN,Npmsg,nmod
292,1666-1673,Gabriel,PER[11],_,*->7-1,*[7],_,292,PROPN,Npmsn,flat:name
293,1674-1676,biti,_,_,_,_,_,295,AUX,Va-r3s-n,aux
294,1677-1684,oceniti,_,_,_,_,_,286,VERB,Vmep-sf,acl
295,1685-1686,",",_,_,_,_,_,301,PUNCT,Z,punct
296,1687-1689,da,_,_,_,_,_,301,SCONJ,Cs,mark
297,1690-1701,vlagatelj,_,_,_,_,_,301,NOUN,Ncmpg,obj
298,1702-1703,v,_,_,_,_,_,300,ADP,Sa,case
299,1704-1713,Slovenija,LOC,_,*->12-5,*[12],_,301,PROPN,Npfsa,obl
300,1714-1716,biti,_,_,_,_,_,295,VERB,Va-r3s-y,ccomp
301,1717-1718,",",_,_,_,_,_,312,PUNCT,Z,punct
302,1719-1722,ker,_,_,_,_,_,312,SCONJ,Cs,mark
303,1723-1725,biti,_,_,_,_,_,312,AUX,Va-r3p-n,aux
304,1726-1737,pričakovan,_,_,_,_,_,306,ADJ,Appfpn,amod
305,1738-1742,cena,_,_,_,_,_,312,NOUN,Ncfpn,nsubj
306,1743-1752,lastnik,_,_,_,_,_,306,NOUN,Ncmpg,nmod
307,1753-1763,slovenski,_,_,_,_,_,309,ADJ,Agpnpg,amod
308,1764-1772,podjetje,_,_,_,_,_,307,NOUN,Ncnpg,nmod
309,1773-1775,in,_,_,_,_,_,311,CCONJ,Cc,cc
310,1776-1780,banka,_,_,_,_,_,309,NOUN,Ncfpg,conj
311,1781-1790,previsok,_,_,_,_,_,301,ADJ,Agpfpn,advcl
312,1791-1792,.,_,_,_,_,_,301,PUNCT,Z,punct
313,1793-1794,v,_,_,_,_,_,315,ADP,Sl,case
314,1795-1801,večina,_,_,_,_,_,323,NOUN,Ncfsl,obl
315,1802-1807,država,_,_,_,_,_,315,NOUN,Ncfpg,nmod
316,1808-1810,biti,_,_,_,_,_,323,AUX,Va-r3s-n,aux
317,1811-1812,v,_,_,_,_,_,322,ADP,Sl,case
318,1813-1820,realen,_,_,_,_,_,322,ADJ,Agpmsl,amod
319,1821-1823,in,_,_,_,_,_,321,CCONJ,Cc,cc
320,1824-1833,finančen,_,_,_,_,_,319,ADJ,Agpmsl,conj
321,1834-1842,sektor,_,_,_,_,_,323,NOUN,Ncmsl,obl
322,1843-1849,priti,_,_,_,_,_,312,VERB,Vmep-sn,conj
323,1850-1852,do,_,_,_,_,_,326,ADP,Sg,case
324,1853-1861,občuten,_,_,_,_,_,326,ADJ,Agpmpg,amod
325,1862-1871,popravek,_,_,_,_,_,323,NOUN,Ncmpg,obl
326,1872-1875,cena,_,_,_,_,_,326,NOUN,Ncfpg,nmod
327,1876-1886,premoženje,_,_,_,_,_,327,NOUN,Ncnsg,nmod
328,1887-1894,navzdol,_,_,_,_,_,328,ADV,Rgp,advmod
329,1895-1896,",",_,_,_,_,_,323,PUNCT,Z,punct
330,1897-1898,v,_,_,_,_,_,332,ADP,Sl,case
331,1899-1908,Slovenija,LOC,_,*->12-6,*[12],_,336,PROPN,Npfsl,obl
332,1909-1911,pa,_,_,_,_,_,336,CCONJ,Cc,advmod
333,1912-1914,ta,_,_,_,_,_,336,DET,Pd-nsn,nsubj
334,1915-1917,biti,_,_,_,_,_,336,AUX,Va-r3s-y,cop
335,1918-1924,primer,_,_,_,_,_,323,NOUN,Ncmsn,conj
336,1925-1926,",",_,_,_,_,_,336,PUNCT,Z,punct
337,1927-1929,biti,_,_,*->7-2,*[7],_,339,AUX,Va-r3s-n,aux
338,1930-1936,dejati,_,_,*->7-2,*[7],_,2,VERB,Vmep-sf,parataxis
339,1937-1938,.,_,_,_,_,_,323,PUNCT,Z,punct
340,1939-1941,na,_,_,_,_,_,342,ADP,Sa,case
341,1942-1951,vprašanje,_,_,_,_,_,336,NOUN,Ncnsa,obl
342,1952-1953,",",_,_,_,_,_,348,PUNCT,Z,punct
343,1954-1956,če,_,_,_,_,_,348,SCONJ,Cs,mark
344,1957-1959,se,_,_,_,_,_,348,PRON,Px------y,expl
345,1960-1962,on,_,_,*->7-3,*[7],_,348,PRON,Pp3fsd--y,obj
346,1963-1965,ne,_,_,_,_,_,348,PART,Q,advmod
347,1966-1969,zdeti,_,_,_,_,_,342,VERB,Vmpr3s,acl
348,1970-1971,",",_,_,_,_,_,357,PUNCT,Z,punct
349,1972-1974,da,_,_,_,_,_,357,SCONJ,Cs,mark
350,1975-1977,biti,_,_,_,_,_,357,AUX,Va-r3p-n,aux
351,1978-1980,se,_,_,_,_,_,357,PRON,Px------y,expl
352,1981-1985,cena,_,_,_,_,_,357,NOUN,Ncfpn,nsubj
353,1986-1996,slovenski,_,_,_,_,_,355,ADJ,Agpnpg,amod
354,1997-2005,podjetje,_,_,_,_,_,353,NOUN,Ncnpg,nmod
355,2006-2011,močno,_,_,_,_,_,357,ADV,Rgp,advmod
356,2012-2019,znižati,_,_,_,_,_,348,VERB,Vmep-pf,csubj
357,2020-2021,",",_,_,_,_,_,361,PUNCT,Z,punct
358,2022-2024,na,_,_,_,_,_,360,ADP,Sa,case
359,2025-2028,kar,_,_,_,_,_,361,PRON,Pr-nsa,obl
360,2029-2035,kazati,_,_,_,_,_,357,VERB,Vmpr3p,advcl
361,2036-2044,rekordno,_,_,_,_,_,363,ADV,Rgp,advmod
362,2045-2050,nizek,_,_,_,_,_,364,ADJ,Agpmpn,amod
363,2051-2057,tečaj,_,_,_,_,_,361,NOUN,Ncmpn,nsubj
364,2058-2066,podjetje,_,_,_,_,_,364,NOUN,Ncnpg,nmod
365,2067-2069,na,_,_,_,_,_,368,ADP,Sl,case
366,2070-2081,ljubljanski,ORG[12],0,*->6-1,*[6],3 - Nevtralno[21],368,ADJ,Agpfsl,amod
367,2082-2087,borz,ORG[12],0,*->6-1,*[6],3 - Nevtralno[21],365,NOUN,Ncfsl,nmod
368,2088-2089,",",_,_,_,_,_,361,PUNCT,Z,punct
369,2090-2092,biti,_,_,_,_,_,371,AUX,Va-r3s-n,aux
370,2093-2099,dejati,_,0,*->7-4,*[7],3 - Nevtralno,2,VERB,Vmep-sf,parataxis
371,2100-2101,",",_,_,_,_,_,382,PUNCT,Z,punct
372,2102-2104,da,_,_,_,_,_,382,SCONJ,Cs,mark
373,2105-2107,biti,_,_,_,_,_,382,AUX,Va-r3s-n,cop
374,2108-2117,slovenski,_,_,_,_,_,377,ADJ,Agpmsny,amod
375,2118-2128,kapitalski,_,_,_,_,_,377,ADJ,Agpmsny,amod
376,2129-2132,trg,_,_,_,_,_,382,NOUN,Ncmsn,nsubj
377,2133-2142,preplitek,_,_,_,_,_,377,NOUN,Ncmsn,nmod
378,2143-2145,oz,_,_,_,_,_,378,PROPN,Npmsn,nmod
379,2146-2147,.,_,_,_,_,_,361,PUNCT,Z,punct
380,2148-2154,preveč,_,_,_,_,_,382,DET,Rgp,advmod
381,2155-2165,nelikviden,_,_,_,_,_,371,ADJ,Agpmsnn,ccomp
382,2166-2167,",",_,_,_,_,_,386,PUNCT,Z,punct
383,2168-2170,da,_,_,_,_,_,386,SCONJ,Cs,mark
384,2171-2173,biti,_,_,_,_,_,386,AUX,Va-c,aux
385,2174-2183,izkazovati,_,_,_,_,_,382,VERB,Vmpp-sm,advcl
386,2184-2190,realen,_,_,_,_,_,388,ADJ,Agpfpa,amod
387,2191-2195,cena,_,_,_,_,_,386,NOUN,Ncfpa,obj
388,2196-2204,podjetje,_,_,_,_,_,388,NOUN,Ncnpg,nmod
389,2205-2206,.,_,_,_,_,_,382,PUNCT,Z,punct
390,2207-2212,letos,_,_,_,_,_,394,ADV,Rgp,advmod
391,2213-2215,se,_,_,_,_,_,394,PRON,Px------y,expl
392,2216-2219,ti,_,_,*->12-7,*[12],_,394,PRON,Pp2-pd,obj
393,2220-2225,obetati,_,_,_,_,_,2,VERB,Vmpr3s,parataxis
394,2226-2234,recesija,_,_,_,_,_,394,NOUN,Ncfsn,nsubj
395,2235-2239,eden,_,_,*->11-1,*[11],_,398,NUM,Mlpmsn,nummod
396,2240-2247,glaven,_,_,*->11-1,*[11],_,398,ADJ,Agpmpg,amod
397,2248-2259,ekonomist,_,_,*->11-1,*[11],_,395,NOUN,Ncmpg,nmod
398,2260-2263,pri,_,_,*->11-1,*[11],_,400,ADP,Sl,case
399,2264-2268,EBRD,ORG,_,*->11-1|*->8-7,*[11]|*[8],_,398,PROPN,Npmsl,nmod
400,2269-2273,Alex,PER[13],_,*->11-1,*[11],_,395,PROPN,Npmsn,nmod
401,2274-2281,Lehmann,PER[13],_,*->11-1,*[11],_,401,PROPN,Npmsn,flat:name
402,2282-2284,biti,_,_,_,_,_,404,AUX,Va-r3s-n,aux
403,2285-2291,oceniti,_,_,_,_,_,394,VERB,Vmep-sm,csubj
404,2292-2293,",",_,_,_,_,_,407,PUNCT,Z,punct
405,2294-2296,da,_,_,_,_,_,407,SCONJ,Cs,mark
406,2297-2301,morati,_,_,_,_,_,404,VERB,Vmpr3s,ccomp
407,2302-2311,Slovenija,LOC,_,*->12-8,*[12],_,407,PROPN,Npfsn,nsubj
408,2312-2317,kmalu,_,_,_,_,_,410,ADV,Rgp,advmod
409,2318-2327,premagati,_,_,_,_,_,407,VERB,Vmen,xcomp
410,2328-2336,trenuten,_,_,_,_,_,412,ADJ,Agpfpa,amod
411,2337-2343,težava,_,_,_,_,_,410,NOUN,Ncfpa,obj
412,2344-2345,",",_,_,_,_,_,407,PUNCT,Z,punct
413,2346-2349,saj,_,_,_,_,_,420,CCONJ,Cc,cc
414,2350-2352,se,_,_,_,_,_,417,PRON,Px------y,expl
415,2353-2355,ta,_,_,_,_,_,417,DET,Pd-fpn,nsubj
416,2356-2364,kopičiti,_,_,_,_,_,407,VERB,Vmpr3p,conj
417,2365-2366,",",_,_,_,_,_,420,PUNCT,Z,punct
418,2367-2371,zato,_,_,_,_,_,420,CCONJ,Cc,cc
419,2372-2374,biti,_,_,_,_,_,417,VERB,Va-r3s-y,conj
420,2375-2380,rasti,_,_,_,_,_,420,VERB,Vmpn,csubj
421,2381-2393,gospodarstvo,_,_,_,_,_,421,NOUN,Ncnsg,obj
422,2394-2395,.,_,_,_,_,_,417,PUNCT,Z,punct
423,2396-2398,če,_,_,_,_,_,429,SCONJ,Cs,mark
424,2399-2401,se,_,_,_,_,_,429,PRON,Px------y,expl
425,2402-2404,ta,_,_,_,_,_,429,DET,Pd-nsn,nsubj
426,2405-2407,ne,_,_,_,_,_,429,PART,Q,advmod
427,2408-2410,biti,_,_,_,_,_,429,AUX,Va-f3s-n,aux
428,2411-2418,urediti,_,_,_,_,_,421,VERB,Vmep-sn,advcl
429,2419-2420,",",_,_,_,_,_,429,PUNCT,Z,punct
430,2421-2423,se,_,_,_,_,_,437,PRON,Px------y,expl
431,2424-2428,biti,_,_,_,_,_,437,AUX,Va-f3p-n,aux
432,2429-2436,razmera,_,_,_,_,_,437,NOUN,Ncfpn,nsubj
433,2437-2438,v,_,_,_,_,_,435,ADP,Sl,case
434,2439-2448,Slovenija,LOC,_,*->12-9,*[12],_,433,PROPN,Npfsl,nmod
435,2449-2451,še,_,_,_,_,_,437,PART,Q,advmod
436,2452-2462,poslabšati,_,_,_,_,_,417,VERB,Vmep-pf,conj
437,2463-2464,",",_,_,_,_,_,437,PUNCT,Z,punct
438,2465-2467,biti,_,_,*->11-2,*[11],_,440,AUX,Va-r3s-n,aux
439,2468-2473,dejati,_,_,*->11-2,*[11],_,437,VERB,Vmep-sm,conj
440,2474-2475,.,_,_,_,_,_,437,PUNCT,Z,punct
441,2476-2478,ob,_,_,_,_,_,443,ADP,Sl,case
442,2479-2482,ta,_,_,_,_,_,445,DET,Pd-nsl,obl
443,2483-2485,biti,_,_,*->11-3,*[11],_,445,AUX,Va-r3s-n,aux
444,2486-2493,pokazati,_,_,*->11-3,*[11],_,437,VERB,Vmep-sm,conj
445,2494-2498,tudi,_,_,_,_,_,445,PART,Q,advmod
446,2499-2501,na,_,_,_,_,_,448,ADP,Sa,case
447,2502-2512,projekcija,_,_,_,_,_,445,NOUN,Ncfsa,obl
448,2513-2517,EBRD,ORG,_,*->8-8,*[8],_,448,PROPN,Npfsg,nmod
449,2518-2519,",",_,_,_,_,_,455,PUNCT,Z,punct
450,2520-2522,ki,_,_,_,_,_,455,SCONJ,Cs,mark
451,2523-2532,Slovenija,LOC,_,*->12-10,*[12],_,455,PROPN,Npfsd,iobj
452,2533-2535,za,_,_,_,_,_,454,ADP,Sa,case
453,2536-2541,letos,_,_,_,_,_,455,ADV,Rgp,advmod
454,2542-2552,napovedovati,_,_,_,_,_,448,VERB,Vmpr3s,acl
455,2553-2561,znižanje,_,_,_,_,_,455,NOUN,Ncnsa,obj
456,2562-2567,bruto,_,_,_,_,_,459,ADJ,Agpmsg,amod
457,2568-2576,domač,_,_,_,_,_,459,ADJ,Agpmsg,amod
458,2577-2586,proizvod,_,_,_,_,_,456,NOUN,Ncmsg,nmod
459,2587-2589,za,_,_,_,_,_,462,ADP,Sa,case
460,2590-2593,dva,_,_,_,_,_,462,NUM,Mlcmda,nummod
461,2594-2602,odstotek,_,_,_,_,_,459,NOUN,Ncmda,nmod
462,2603-2604,",",_,_,_,_,_,455,PUNCT,Z,punct
463,2605-2606,v,_,_,_,_,_,466,ADP,Sl,case
464,2607-2617,prihodnji,_,_,_,_,_,466,ADJ,Agpnsl,amod
465,2618-2622,leto,_,_,_,_,_,462,NOUN,Ncnsl,appos
466,2623-2625,pa,_,_,_,_,_,471,CCONJ,Cc,cc
467,2626-2628,še,_,_,_,_,_,471,PART,Q,advmod
468,2629-2631,za,_,_,_,_,_,471,ADP,Sa,case
469,2632-2635,"1,1",_,_,_,_,_,471,NUM,Mdc,nummod
470,2636-2644,odstotek,_,_,_,_,_,466,NOUN,Ncmsg,appos
471,2645-2646,.,_,_,_,_,_,437,PUNCT,Z,punct
472,2647-2656,Slovenija,LOC,_,*->12-11,*[12],_,492,PROPN,Npfsn,nsubj
473,2657-2659,biti,_,_,_,_,_,475,AUX,Va-r3s-n,aux
474,2660-2663,en,_,_,_,_,_,471,NUM,Mlpfsn,nummod
475,2664-2669,izmed,_,_,_,_,_,478,ADP,Sg,case
476,2670-2674,trije,_,_,_,_,_,478,NUM,Mlcfpg,nummod
477,2675-2680,država,_,_,_,_,_,475,NOUN,Ncfpg,nmod
478,2681-2686,poleg,_,_,_,_,_,480,ADP,Sg,case
479,2687-2696,Madžarska,LOC,2,*->9-1,*[9],2 - Negativno,475,PROPN,Npfsg,nmod
480,2697-2699,in,_,_,_,_,_,482,CCONJ,Cc,cc
481,2700-2707,Hrvaška,LOC,2,*->10-1,*[10],2 - Negativno,480,PROPN,Npfsg,conj
482,2708-2709,",",_,_,_,_,_,488,PUNCT,Z,punct
483,2710-2712,ki,_,_,_,_,_,488,SCONJ,Cs,mark
484,2713-2715,se,_,_,_,_,_,488,PRON,Px------y,expl
485,2716-2718,on,_,_,_,_,_,488,PRON,Pp3fsd--y,obj
486,2719-2724,letos,_,_,_,_,_,488,ADV,Rgp,advmod
487,2725-2730,obetati,_,_,_,_,_,482,VERB,Vmpr3s,acl
488,2731-2739,recesija,_,_,_,_,_,488,NOUN,Ncfsn,nsubj
489,2740-2741,",",_,_,_,_,_,488,PUNCT,Z,punct
490,2742-2744,biti,_,0,*->11-4,*[11],3 - Nevtralno[22],492,AUX,Va-r3s-n,aux
491,2745-2750,dejati,_,0,*->11-4,*[11],3 - Nevtralno[22],2,VERB,Vmep-sm,parataxis
492,2751-2752,.,_,_,_,_,_,471,PUNCT,Z,punct
493,2753-2762,Šušteršič,PER,_,*->3-2,*[3],_,489,PROPN,Npmsn,conj
494,2763-2774,prilagoditi,_,_,_,_,_,471,VERB,Vmep-pm,acl
495,2775-2777,se,_,_,_,_,_,502,PRON,Px------y,expl
496,2778-2782,biti,_,_,_,_,_,502,AUX,Va-f1p-n,aux
497,2783-2792,Slovenija,LOC,2,*->12-12,*[12],2 - Negativno,502,PROPN,Npfsn,nsubj
498,2793-2795,biti,_,_,_,_,_,502,AUX,Va-r3s-n,aux
499,2796-2798,od,_,_,_,_,_,501,ADP,Sg,case
500,2799-2803,EBRD,ORG,_,*->8-9,*[8],_,502,PROPN,Npfsg,obl
501,2804-2810,dobiti,_,_,_,_,_,495,VERB,Vmep-sf,conj
502,2811-2819,nizek,_,_,_,_,_,504,ADJ,Agsfsa,amod
503,2820-2825,ocena,_,_,_,_,_,502,NOUN,Ncfsa,obj
504,2826-2837,gospodarski,_,_,_,_,_,506,ADJ,Agpfsg,amod
505,2838-2843,rast,_,_,_,_,_,504,NOUN,Ncfsg,nmod
506,2844-2850,doslej,_,_,_,_,_,502,ADV,Rgp,advmod
507,2851-2852,",",_,_,_,_,_,512,PUNCT,Z,punct
508,2853-2855,ta,_,_,_,_,_,512,DET,Pd-fsn,nsubj
509,2856-2858,pa,_,_,_,_,_,512,CCONJ,Cc,advmod
510,2859-2861,biti,_,_,_,_,_,512,AUX,Va-r3s-n,cop
511,2862-2871,posledica,_,_,_,_,_,502,NOUN,Ncfsn,advcl
512,2872-2878,razmera,_,_,_,_,_,512,NOUN,Ncfpg,nmod
513,2879-2880,v,_,_,_,_,_,517,ADP,Sl,case
514,2881-2891,slovenski,_,_,_,_,_,517,ADJ,Agpmsl,amod
515,2892-2901,finančen,_,_,_,_,_,517,ADJ,Agpmsl,amod
516,2902-2910,sektor,_,_,_,_,_,513,NOUN,Ncmsl,nmod
517,2911-2913,in,_,_,_,_,_,521,CCONJ,Cc,cc
518,2914-2923,negotov,_,_,_,_,_,521,ADJ,Agpfpl,amod
519,2924-2935,mednaroden,_,_,_,_,_,521,ADJ,Agpfpl,amod
520,2936-2942,razmera,_,_,_,_,_,517,NOUN,Ncfpl,conj
521,2943-2944,.,_,_,_,_,_,512,PUNCT,Z,punct
522,2945-2948,pri,_,_,_,_,_,524,ADP,Sl,case
523,2949-2952,ta,_,_,_,_,_,525,DET,Pd-nsl,obl
524,2953-2962,prednjačiti,_,_,_,_,_,512,VERB,Vmpr3s,conj
525,2963-2969,Grčija,LOC,2,*->13-1,*[13],2 - Negativno,525,PROPN,Npfsn,nsubj
526,2970-2971,z,_,_,_,_,_,530,ADP,Si,case
527,2972-2977,svoj,_,_,_,_,_,530,DET,Px-fsi,det
528,2978-2987,dolžniški,_,_,_,_,_,530,ADJ,Agpfsi,amod
529,2988-2993,kriza,_,_,_,_,_,526,NOUN,Ncfsi,nmod
530,2994-2995,",",_,_,_,_,_,525,PUNCT,Z,punct
531,2996-2998,pa,_,_,_,_,_,539,CCONJ,Cc,advmod
532,2999-3001,biti,_,_,_,_,_,539,AUX,Va-r3s-n,aux
533,3002-3003,v,_,_,_,_,_,535,ADP,Sl,case
534,3004-3010,odziv,_,_,_,_,_,539,NOUN,Ncmsl,obl
535,3011-3013,na,_,_,_,_,_,537,ADP,Sa,case
536,3014-3019,ocena,_,_,_,_,_,535,NOUN,Ncfsa,nmod
537,3020-3024,EBRD,ORG,0,*->8-10,*[8],3 - Nevtralno,537,PROPN,Npfsn,nmod
538,3025-3032,povedati,_,_,_,_,_,525,VERB,Vmep-sm,conj
539,3033-3041,finančen,_,_,*->3-3,*[3],_,541,ADJ,Agpmsny,amod
540,3042-3050,minister,_,_,*->3-3,*[3],_,539,NOUN,Ncmsn,nsubj
541,3051-3056,Janez,PER[14],_,*->3-3,*[3],_,541,PROPN,Npmsn,nmod
542,3057-3066,Šušteršič,PER[14],_,*->3-3,*[3],_,542,PROPN,Npmsn,flat:name
543,3067-3068,.,_,_,_,_,_,547,PUNCT,Z,punct
544,3069-3072,kot,_,_,_,_,_,547,SCONJ,Cs,mark
545,3073-3075,biti,_,_,*->3-4,*[3],_,547,AUX,Va-r3s-n,aux
546,3076-3081,dejati,_,_,*->3-4,*[3],_,539,VERB,Vmep-sm,advcl
547,3082-3083,",",_,_,_,_,_,547,PUNCT,Z,punct
548,3084-3086,se,_,_,_,_,_,556,PRON,Px------y,expl
549,3087-3095,finančen,_,_,_,_,_,551,ADJ,Agpnsn,amod
550,3096-3107,ministrstvo,_,_,_,_,_,556,NOUN,Ncnsn,nsubj
551,3108-3111,pri,_,_,_,_,_,554,ADP,Sl,case
552,3112-3118,svoj,_,_,_,_,_,554,DET,Px-nsl,det
553,3119-3123,del,_,_,_,_,_,556,NOUN,Ncnsl,obl
554,3124-3129,sicer,_,_,_,_,_,556,PART,Q,advmod
555,3130-3138,naslanjati,_,_,_,_,_,539,VERB,Vmpr3s,conj
556,3139-3141,na,_,_,_,_,_,558,ADP,Sa,case
557,3142-3147,ocena,_,_,_,_,_,556,NOUN,Ncfpa,obl
558,3148-3149,",",_,_,_,_,_,562,PUNCT,Z,punct
559,3150-3152,ki,_,_,_,_,_,562,SCONJ,Cs,mark
560,3153-3156,on,_,_,_,_,_,562,PRON,Pp3mpa--y,obj
561,3157-3165,pripraviti,_,_,_,_,_,558,VERB,Vmer3s,acl
562,3166-3170,urad,ORG[15],0,*->14-1,*[14],3 - Nevtralno[23],562,NOUN,Ncmsn,nsubj
563,3171-3173,za,ORG[15],0,*->14-1,*[14],3 - Nevtralno[23],566,ADP,Sa,case
564,3174-3188,makroekonomski,ORG[15],0,*->14-1,*[14],3 - Nevtralno[23],566,ADJ,Agpfpa,amod
565,3189-3196,analiza,ORG[15],0,*->14-1,*[14],3 - Nevtralno[23],563,NOUN,Ncfpa,nmod
566,3197-3199,in,ORG[15],0,*->14-1,*[14],3 - Nevtralno[23],568,CCONJ,Cc,cc
567,3200-3206,razvoj,ORG[15],0,*->14-1,*[14],3 - Nevtralno[23],566,NOUN,Ncmsan,conj
568,3207-3211,Umar,ORG[15],0,*->14-1,*[14],3 - Nevtralno[23],568,PROPN,Npmsn,nmod
569,3212-3213,",",_,_,_,_,_,573,PUNCT,Z,punct
570,3214-3216,ki,_,_,_,_,_,573,SCONJ,Cs,mark
571,3217-3219,biti,_,_,_,_,_,573,AUX,Va-r3s-n,aux
572,3220-3229,napovedati,_,_,_,_,_,568,VERB,Vmep-sm,acl
573,3230-3238,nekoliko,_,_,_,_,_,575,ADV,Rgp,advmod
574,3239-3243,bolj,_,_,_,_,_,576,ADV,Rgc,advmod
575,3244-3250,ugoden,_,_,_,_,_,577,ADJ,Agpfpa,amod
576,3251-3258,razmera,_,_,_,_,_,573,NOUN,Ncfpa,obj
577,3259-3260,.,_,_,_,_,_,581,PUNCT,Z,punct
578,3261-3263,če,_,_,_,_,_,581,SCONJ,Cs,mark
579,3264-3266,biti,_,_,_,_,_,581,AUX,Va-f3s-n,cop
580,3267-3275,potreben,_,_,_,_,_,573,ADJ,Agpnsn,advcl
581,3276-3277,",",_,_,_,_,_,581,PUNCT,Z,punct
582,3278-3280,se,_,_,_,_,_,588,PRON,Px------y,expl
583,3281-3283,biti,_,_,_,_,_,588,AUX,Va-f3s-n,aux
584,3284-3295,ministrstvo,_,_,_,_,_,588,NOUN,Ncnsn,nsubj
585,3296-3301,nov,_,_,_,_,_,587,ADJ,Agpfpd,amod
586,3302-3311,napoved,_,_,_,_,_,588,NOUN,Ncfpd,obj
587,3312-3323,prilagoditi,_,_,_,_,_,556,VERB,Vmep-sn,conj
588,3324-3325,",",_,_,_,_,_,588,PUNCT,Z,punct
589,3326-3328,biti,_,1,*->3-5,*[3],4 - Pozitivno[24],591,AUX,Va-r3s-n,aux
590,3329-3338,napovedati,_,1,*->3-5,*[3],4 - Pozitivno[24],588,VERB,Vmep-sm,conj
