idx,chars_idx,token,entity_type,sentiment,idk_1,idk_2,orig_sentiment,heads,upos,xpos,deprel
0,0-7,Španija,ORG,_,*->1-1,*[1],_,5,PROPN,Npfsn,nsubj
1,8-10,biti,_,_,_,_,_,5,AUX,Va-r3s-n,aux
2,11-15,tudi,_,_,_,_,_,5,PART,Q,advmod
3,16-22,uradno,_,_,_,_,_,5,ADV,Rgp,advmod
4,23-32,zaprositi,_,_,_,_,_,0,VERB,Vmep-sf,root
5,33-35,za,_,_,_,_,_,8,ADP,Sa,case
6,36-44,evropski,_,_,_,_,_,8,ADJ,Agpfsa,amod
7,45-50,pomoč,_,_,_,_,_,5,NOUN,Ncfsa,obl
8,51-52,.,_,_,_,_,_,13,PUNCT,Z,punct
9,53-64,gospodarski,_,_,*->5-1,*[5],_,11,ADJ,Agpmsny,amod
10,65-73,minister,_,_,*->5-1,*[5],_,17,NOUN,Ncmsn,nsubj
11,74-76,biti,_,_,_,_,_,13,AUX,Va-r3s-n,aux
12,77-82,dejati,_,_,_,_,_,5,VERB,Vmep-sm,conj
13,83-84,",",_,_,_,_,_,17,PUNCT,Z,punct
14,85-87,da,_,_,_,_,_,17,SCONJ,Cs,mark
15,88-94,država,_,_,*->1-2,*[1],_,17,NOUN,Ncfsn,nsubj
16,95-104,potrebovati,_,_,_,_,_,13,VERB,Vmpr3s,ccomp
17,105-107,do,_,_,_,_,_,20,ADP,Sg,case
18,108-111,100,_,_,_,_,_,20,NUM,Mdc,nummod
19,112-120,milijarda,_,_,_,_,_,17,NOUN,Ncfpg,obl
20,121-126,evro,_,_,_,_,_,20,NOUN,Ncmpg,nmod
21,127-133,pomoč,_,_,_,_,_,21,NOUN,Ncfsg,nmod
22,134-135,.,_,_,_,_,_,17,PUNCT,Z,punct
23,136-141,poleg,_,_,_,_,_,25,ADP,Sg,case
24,142-149,Španija,ORG,_,*->1-3,*[1],_,31,PROPN,Npfsg,obl
25,150-152,pa,_,_,_,_,_,31,CCONJ,Cc,advmod
26,153-155,biti,_,_,_,_,_,31,AUX,Va-r3s-n,aux
27,156-158,EU,ORG,_,*->15-1,*[15],_,31,PROPN,Npfsa,obj
28,159-161,za,_,_,_,_,_,30,ADP,Sa,case
29,162-167,pomoč,_,_,_,_,_,31,NOUN,Ncfsa,obl
30,168-176,zaprositi,_,_,_,_,_,5,VERB,Vmep-sm,parataxis
31,177-181,tudi,_,_,_,_,_,31,PART,Q,advmod
32,182-187,Ciper,ORG,_,*->13-1,*[13],_,31,PROPN,Npmsn,nsubj
33,188-189,",",_,_,_,_,_,31,PUNCT,Z,punct
34,190-192,in,_,_,_,_,_,41,CCONJ,Cc,cc
35,193-198,sicer,_,_,_,_,_,47,PART,Q,advmod
36,199-205,zaradi,_,_,_,_,_,39,ADP,Sg,case
37,206-215,prevelik,_,_,_,_,_,39,ADJ,Agpfsg,amod
38,216-232,izpostavljenost,_,_,_,_,_,47,NOUN,Ncfsg,obl
39,233-240,grški,_,_,_,_,_,41,ADJ,Agpnsd,amod
40,241-253,gospodarstvo,_,_,_,_,_,39,NOUN,Ncnsd,nmod
41,254-255,.,_,_,_,_,_,31,PUNCT,Z,punct
42,256-263,Španija,ORG,_,*->1-4,*[1],_,47,PROPN,Npfsn,nsubj
43,264-266,biti,_,_,_,_,_,47,AUX,Va-r3s-n,aux
44,267-271,tudi,_,_,_,_,_,47,PART,Q,advmod
45,272-278,uradno,_,_,_,_,_,47,ADV,Rgp,advmod
46,279-288,zaprositi,_,_,_,_,_,5,VERB,Vmep-sf,parataxis
47,289-291,za,_,_,_,_,_,50,ADP,Sa,case
48,292-300,evropski,_,_,_,_,_,50,ADJ,Agpfsa,amod
49,301-306,pomoč,_,_,_,_,_,47,NOUN,Ncfsa,obl
50,307-308,v,_,_,_,_,_,52,ADP,Sl,case
51,309-315,višina,_,_,_,_,_,50,NOUN,Ncfsl,nmod
52,316-318,do,_,_,_,_,_,55,ADP,Sg,case
53,319-322,100,_,_,_,_,_,55,NUM,Mdc,nummod
54,323-331,milijarda,_,_,_,_,_,52,NOUN,Ncfpg,nmod
55,332-337,evro,_,_,_,_,_,55,NOUN,Ncmpg,nmod
56,338-340,za,_,_,_,_,_,59,ADP,Sa,case
57,341-346,svoj,_,_,*->1-5,*[1],_,59,DET,Px-fpa,det
58,347-352,banka,_,_,_,_,_,56,NOUN,Ncfpa,nmod
59,353-354,",",_,_,_,_,_,47,PUNCT,Z,punct
60,355-357,biti,_,_,_,_,_,64,AUX,Va-r3p-n,aux
61,358-359,v,_,_,_,_,_,63,ADP,Sl,case
62,360-366,izjava,_,_,_,_,_,64,NOUN,Ncfsl,obl
63,367-373,dejati,_,_,_,_,_,47,VERB,Vmep-pm,advcl
64,374-376,na,_,_,_,_,_,68,ADP,Sl,case
65,377-385,španski,_,_,_,_,_,68,ADJ,Agpnsl,amod
66,386-398,gospodarski,_,_,_,_,_,68,ADJ,Agpnsl,amod
67,399-410,ministrstvo,_,_,_,_,_,64,NOUN,Ncnsl,obl
68,411-412,.,_,_,_,_,_,64,PUNCT,Z,punct
69,413-417,prvi,_,_,*->5-2,*[5],_,71,ADJ,Mlomsn,amod
70,418-421,mož,_,_,*->5-2,*[5],_,64,NOUN,Ncmsn,nsubj
71,422-433,ministrstvo,_,_,*->5-2,*[5],_,71,NOUN,Ncnsg,nmod
72,434-438,Luis,PER[1],_,*->5-2,*[5],_,72,PROPN,Npmsn,nmod
73,439-441,de,PER[1],_,*->5-2,*[5],_,75,X,Xf,nmod
74,442-449,Guindos,PER[1],_,*->5-2,*[5],_,73,PROPN,Npmsn,nmod
75,450-452,biti,_,_,_,_,_,86,AUX,Va-r3s-n,aux
76,453-454,v,_,_,_,_,_,78,ADP,Sl,case
77,455-460,pismo,_,_,_,_,_,86,NOUN,Ncnsl,obl
78,461-465,šef,_,_,*->2-1,*[2],_,78,NOUN,Ncmsd,nmod
79,466-472,evrski,_,_,*->2-1,*[2],_,81,ADJ,Agpfsg,amod
80,473-480,skupina,_,_,*->2-1,*[2],_,79,NOUN,Ncfsg,nmod
81,481-485,Jean,PER[2],_,*->2-1,*[2],_,81,PROPN,Npmsn,nmod
82,486-487,-,PER[2],_,*->2-1,*[2],_,84,PUNCT,Z,punct
83,488-494,Claud,PER[2],_,*->2-1,*[2],_,82,PROPN,Npmsd,conj
84,495-504,Juncker,PER[2],_,*->2-1,*[2],_,84,PROPN,Npmsd,flat:name
85,505-512,zapisati,_,_,_,_,_,64,VERB,Vmep-sm,conj
86,513-514,",",_,_,_,_,_,93,PUNCT,Z,punct
87,515-517,da,_,_,_,_,_,93,SCONJ,Cs,mark
88,518-520,biti,_,_,_,_,_,93,AUX,Va-f3s-n,cop
89,521-527,končen,_,_,_,_,_,91,ADJ,Agpfsn,amod
90,528-533,vsota,_,_,_,_,_,93,NOUN,Ncfsn,nsubj
91,534-540,pomoč,_,_,_,_,_,91,NOUN,Ncfsg,nmod
92,541-546,znan,_,_,_,_,_,86,ADJ,Appfsn,ccomp
93,547-554,pozno,_,_,_,_,_,93,ADV,Rgc,advmod
94,555-556,",",_,_,_,_,_,93,PUNCT,Z,punct
95,557-558,a,_,_,_,_,_,99,CCONJ,Cc,cc
96,559-565,vendar,_,_,_,_,_,99,CCONJ,Cc,cc
97,566-568,biti,_,_,_,_,_,99,AUX,Va-f3s-n,aux
98,569-580,zadostovati,_,_,_,_,_,93,VERB,Vmpp-sf,conj
99,581-583,za,_,_,_,_,_,101,ADP,Sa,case
100,584-600,dokapitalizacija,_,_,_,_,_,99,NOUN,Ncfsa,obl
101,601-605,banka,_,_,_,_,_,101,NOUN,Ncfpg,nmod
102,606-607,",",_,_,_,_,_,99,PUNCT,Z,punct
103,608-610,ob,_,_,_,_,_,105,ADP,Sl,case
104,611-614,ta,_,_,_,_,_,112,DET,Pd-nsl,obl
105,615-617,pa,_,_,_,_,_,112,CCONJ,Cc,advmod
106,618-620,biti,_,_,_,_,_,112,AUX,Va-r3s-n,cop
107,621-623,za,_,_,_,_,_,109,ADP,Sa,case
108,624-633,pomiritev,_,_,_,_,_,112,NOUN,Ncfsa,obl
109,634-643,finančen,_,_,_,_,_,111,ADJ,Agpmpg,amod
110,644-649,trg,_,_,_,_,_,109,NOUN,Ncmpg,nmod
111,650-660,predviden,_,_,_,_,_,5,ADJ,Appnsn,parataxis
112,661-663,še,_,_,_,_,_,112,PART,Q,advmod
113,664-669,nekaj,_,_,_,_,_,116,DET,Rgp,det
114,670-678,dodaten,_,_,_,_,_,116,ADJ,Agpnpg,amod
115,679-687,sredstvo,_,_,_,_,_,112,NOUN,Ncnpg,nsubj
116,688-689,.,_,_,_,_,_,112,PUNCT,Z,punct
117,690-700,svetovalen,_,_,_,_,_,119,ADJ,Agpfsl,amod
118,701-705,hiša,_,_,_,_,_,112,NOUN,Ncfsd,obj
119,706-712,Roland,ORG[3],0,*->3-1,*[3],3 - Nevtralno[8],119,PROPN,Npmsn,nmod
120,713-719,Berger,ORG[3],0,*->3-1,*[3],3 - Nevtralno[8],120,PROPN,Npmsn,flat:name
121,720-722,in,_,_,_,_,_,123,CCONJ,Cc,cc
122,723-730,Olivier,ORG[4],0,*->4-1,*[4],3 - Nevtralno[9],120,PROPN,Npmsn,conj
123,731-736,Wyman,ORG[4],0,*->4-1,*[4],3 - Nevtralno[9],123,PROPN,Npmsn,flat:name
124,737-740,biti,_,_,_,_,_,128,AUX,Va-r3d-n,aux
125,741-742,v,_,_,_,_,_,127,ADP,Sl,case
126,743-751,revizija,_,_,_,_,_,128,NOUN,Ncfsl,obl
127,752-759,oceniti,_,_,_,_,_,112,VERB,Vmep-dm,csubj
128,760-761,",",_,_,_,_,_,136,PUNCT,Z,punct
129,762-764,da,_,_,_,_,_,136,SCONJ,Cs,mark
130,765-772,španski,_,_,_,_,_,132,ADJ,Agpfpn,amod
131,773-778,banka,_,_,_,_,_,136,NOUN,Ncfpn,nsubj
132,779-780,v,_,_,_,_,_,135,ADP,Sl,case
133,781-791,slab,_,_,_,_,_,135,ADJ,Agsmsl,amod
134,792-799,primer,_,_,_,_,_,136,NOUN,Ncmsl,obl
135,800-811,potrebovati,_,_,_,_,_,128,VERB,Vmpr3p,ccomp
136,812-814,62,_,_,_,_,_,138,NUM,Mdc,nummod
137,815-823,milijarda,_,_,_,_,_,136,NOUN,Ncfpg,obj
138,824-829,evro,_,_,_,_,_,138,NOUN,Ncmpg,nmod
139,830-831,.,_,_,_,_,_,128,PUNCT,Z,punct
140,832-836,prav,_,_,_,_,_,142,PART,Q,advmod
141,837-841,tako,_,_,_,_,_,144,ADV,Rgp,advmod
142,842-844,biti,_,0,*->2-2,*[2],3 - Nevtralno[10],144,AUX,Va-r3s-n,aux
143,845-852,potrditi,_,0,*->2-2,*[2],3 - Nevtralno[10],136,VERB,Vmep-sm,conj
144,853-854,",",_,_,_,_,_,158,PUNCT,Z,punct
145,855-857,da,_,_,_,_,_,158,SCONJ,Cs,mark
146,858-862,biti,_,_,_,_,_,158,AUX,Va-f3p-n,aux
147,863-873,memorandum,_,_,_,_,_,158,NOUN,Ncmsan,obj
148,874-875,o,_,_,_,_,_,150,ADP,Sl,case
149,876-882,pomoč,_,_,_,_,_,148,NOUN,Ncfsl,nmod
150,883-884,",",_,_,_,_,_,153,PUNCT,Z,punct
151,885-887,ki,_,_,_,_,_,153,SCONJ,Cs,mark
152,888-897,vključevati,_,_,_,_,_,150,VERB,Vmpr3s,acl
153,898-902,tudi,_,_,_,_,_,153,PART,Q,advmod
154,903-906,ves,_,_,_,_,_,156,DET,Pg-fpa,det
155,907-918,podrobnost,_,_,_,_,_,153,NOUN,Ncfpa,obj
156,919-920,",",_,_,_,_,_,153,PUNCT,Z,punct
157,921-930,podpisati,_,_,_,_,_,144,VERB,Vmep-pm,ccomp
158,931-933,do,_,_,_,_,_,160,ADP,Sg,case
159,934-935,9,_,_,_,_,_,158,NUM,Mdc,obl
160,936-937,.,_,_,_,_,_,158,PUNCT,Z,punct
161,938-944,julij,_,_,_,_,_,158,NOUN,Ncmsg,obl
162,945-946,.,_,_,_,_,_,158,PUNCT,Z,punct
163,947-954,španski,_,_,_,_,_,165,ADJ,Agpfsn,amod
164,955-960,vlada,_,_,_,_,_,158,NOUN,Ncfsn,nsubj
165,961-962,",",_,_,_,_,_,171,PUNCT,Z,punct
166,963-966,kot,_,_,_,_,_,171,SCONJ,Cs,mark
167,967-969,biti,_,_,_,_,_,171,AUX,Va-r3s-n,aux
168,970-971,v,_,_,_,_,_,170,ADP,Sl,case
169,972-977,pismo,_,_,_,_,_,171,NOUN,Ncnsl,obl
170,978-988,izpostaviti,_,_,_,_,_,165,VERB,Vmep-sm,acl
171,989-991,de,PER[5],_,*->5-3,*[5],_,173,X,Xf,nmod
172,992-999,Guindos,PER[5],_,*->5-3,*[5],_,171,PROPN,Npmsn,nsubj
173,1000-1001,",",_,_,_,_,_,175,PUNCT,Z,punct
174,1002-1009,ponudba,_,_,_,_,_,173,NOUN,Ncfsa,appos
175,1010-1021,evrooobmočje,_,_,_,_,_,175,NOUN,Ncnsg,nmod
176,1022-1023,",",_,_,_,_,_,181,PUNCT,Z,punct
177,1024-1026,da,_,_,_,_,_,181,SCONJ,Cs,mark
178,1027-1029,biti,_,_,_,_,_,181,AUX,Va-r3p-n,cop
179,1030-1036,država,_,_,*->1-6,*[1],_,182,NOUN,Ncfsd,iobj
180,1037-1049,pripravljen,_,_,_,_,_,175,ADJ,Appmpn,acl
181,1050-1058,posoditi,_,_,_,_,_,181,VERB,Vmen,ccomp
182,1059-1064,denar,_,_,_,_,_,182,NOUN,Ncmsan,obj
183,1065-1066,",",_,_,_,_,_,181,PUNCT,Z,punct
184,1067-1071,videti,_,_,_,_,_,173,VERB,Vmbr3s,acl
185,1072-1075,kot,_,_,_,_,_,188,SCONJ,Cs,case
186,1076-1080,zelo,_,_,_,_,_,188,ADV,Rgp,advmod
187,1081-1091,naklonjen,_,_,_,_,_,185,ADJ,Appnsn,obl
188,1092-1093,.,_,_,_,_,_,185,PUNCT,Z,punct
189,1094-1096,ob,_,_,_,_,_,191,ADP,Sl,case
190,1097-1100,ta,_,_,_,_,_,194,DET,Pd-nsl,obl
191,1101-1103,biti,_,_,_,_,_,213,AUX,Va-r3s-n,aux
192,1104-1112,minister,_,1,*->5-4,*[5],4 - Pozitivno,194,NOUN,Ncmsn,nsubj
193,1113-1118,dodati,_,_,_,_,_,185,VERB,Vmep-sm,conj
194,1119-1120,",",_,_,_,_,_,205,PUNCT,Z,punct
195,1121-1123,da,_,_,_,_,_,205,SCONJ,Cs,mark
196,1124-1128,biti,_,_,_,_,_,205,AUX,Va-f3p-n,aux
197,1129-1140,evrooomočje,_,_,_,_,_,205,NOUN,Ncnsd,iobj
198,1141-1144,pri,_,_,_,_,_,200,ADP,Sl,case
199,1145-1154,odločanje,_,_,_,_,_,205,NOUN,Ncnsl,obl
200,1155-1156,o,_,_,_,_,_,203,ADP,Sl,case
201,1157-1166,primeren,_,_,_,_,_,203,ADJ,Agpmpl,amod
202,1167-1177,kriterij,_,_,_,_,_,200,NOUN,Ncmpl,nmod
203,1178-1186,posojilo,_,_,_,_,_,203,NOUN,Ncnsg,nmod
204,1187-1195,ponuditi,_,_,_,_,_,194,VERB,Vmep-pm,ccomp
205,1196-1199,ves,_,_,_,_,_,207,DET,Pg-fsa,det
206,1200-1205,pomoč,_,_,_,_,_,205,NOUN,Ncfsa,obj
207,1206-1207,.,_,_,_,_,_,205,PUNCT,Z,punct
208,1208-1213,Ciper,ORG,_,*->13-2,*[13],_,213,PROPN,Npmsn,nsubj
209,1214-1216,biti,_,_,_,_,_,213,AUX,Va-r3s-n,cop
210,1217-1219,že,_,_,_,_,_,213,PART,Q,advmod
211,1220-1224,peti,_,_,_,_,_,213,ADJ,Mlofsn,amod
212,1225-1232,članica,_,_,_,_,_,5,NOUN,Ncfsn,parataxis
213,1233-1244,evrooobmočje,_,_,_,_,_,213,NOUN,Ncnsg,nmod
214,1245-1246,",",_,_,_,_,_,218,PUNCT,Z,punct
215,1247-1249,ki,_,_,_,_,_,218,SCONJ,Cs,mark
216,1250-1252,biti,_,_,*->13-3,*[13],_,218,AUX,Va-r3s-n,aux
217,1253-1259,morati,_,_,_,_,_,214,VERB,Vmpp-sf,acl
218,1260-1269,zaprositi,_,_,_,_,_,218,VERB,Vmen,xcomp
219,1270-1275,drug,_,_,_,_,_,221,ADJ,Mlpfpa,amod
220,1276-1283,članica,_,_,_,_,_,219,NOUN,Ncfpa,obj
221,1284-1286,za,_,_,_,_,_,223,ADP,Sa,case
222,1287-1292,pomoč,_,_,_,_,_,221,NOUN,Ncfsa,nmod
223,1293-1294,.,_,_,_,_,_,218,PUNCT,Z,punct
224,1295-1297,za,_,_,_,_,_,226,ADP,Sa,case
225,1298-1303,pomoč,_,_,_,_,_,234,NOUN,Ncfsa,obl
226,1304-1306,biti,_,_,_,_,_,234,AUX,Va-r3s-n,aux
227,1307-1309,le,_,_,_,_,_,234,PART,Q,advmod
228,1310-1315,nekaj,_,_,_,_,_,230,DET,Rgp,det
229,1316-1318,ura,_,_,_,_,_,234,NOUN,Ncfpg,obl
230,1319-1323,pred,_,_,_,_,_,232,ADP,Si,case
231,1324-1330,Ciprom,ORG,_,*->13-4,*[13],_,230,PROPN,Npfsi,nmod
232,1331-1337,uradno,_,_,_,_,_,234,ADV,Rgp,advmod
233,1338-1347,zaprositi,_,_,_,_,_,5,VERB,Vmep-sf,parataxis
234,1348-1355,Španija,ORG,2,*->1-7,*[1],2 - Negativno,234,PROPN,Npfsn,nsubj
235,1356-1357,",",_,_,_,_,_,234,PUNCT,Z,punct
236,1358-1362,pred,_,_,_,_,_,238,ADP,Si,case
237,1363-1366,ta,_,_,_,_,_,242,DET,Pd-nsi,obl
238,1367-1369,pa,_,_,_,_,_,242,CCONJ,Cc,advmod
239,1370-1372,biti,_,_,_,_,_,242,AUX,Va-r3p-n,aux
240,1373-1378,pomoč,_,_,_,_,_,242,NOUN,Ncfsa,obj
241,1379-1385,dobiti,_,_,_,_,_,234,VERB,Vmep-pf,advcl
242,1386-1392,Grčija,ORG,2,*->6-1,*[6],2 - Negativno,242,PROPN,Npfsn,nsubj
243,1393-1394,",",_,_,_,_,_,245,PUNCT,Z,punct
244,1395-1400,Irska,ORG,2,*->7-1,*[7],2 - Negativno,243,PROPN,Npfsn,conj
245,1401-1403,in,_,_,_,_,_,247,CCONJ,Cc,cc
246,1404-1415,Portugalska,ORG,2,*->8-1,*[8],2 - Negativno,243,PROPN,Npfsn,conj
247,1416-1417,.,_,_,_,_,_,242,PUNCT,Z,punct
248,1418-1422,tudi,_,_,_,_,_,251,PART,Q,advmod
249,1423-1428,Ciper,ORG,_,*->13-5,*[13],_,251,PROPN,Npmsn,nsubj
250,1429-1437,zaprositi,_,_,_,_,_,242,VERB,Vmep-sm,conj
251,1438-1440,za,_,_,_,_,_,253,ADP,Sa,case
252,1441-1446,pomoč,_,_,_,_,_,251,NOUN,Ncfsa,obl
253,1447-1452,pozen,_,_,_,_,_,253,ADJ,Agpnsa,amod
254,1453-1461,popoldne,_,_,_,_,_,253,ADV,Rgp,advmod
255,1462-1464,pa,_,_,_,_,_,258,CCONJ,Cc,advmod
256,1465-1467,biti,_,_,_,_,_,258,AUX,Va-r3s-n,aux
257,1468-1477,odjekniti,_,_,_,_,_,251,VERB,Vmep-sf,conj
258,1478-1484,novica,_,_,_,_,_,258,NOUN,Ncfsn,nsubj
259,1485-1486,",",_,_,_,_,_,265,PUNCT,Z,punct
260,1487-1489,da,_,_,_,_,_,265,SCONJ,Cs,mark
261,1490-1492,biti,_,_,_,_,_,265,AUX,Va-r3s-n,aux
262,1493-1497,tudi,_,_,_,_,_,265,PART,Q,advmod
263,1498-1503,Ciper,ORG,_,*->13-6,*[13],_,265,PROPN,Npmsn,nsubj
264,1504-1512,zaprositi,_,_,_,_,_,259,VERB,Vmep-sm,acl
265,1513-1521,evropski,ORG[6],_,*->15-2,*[15],_,267,ADJ,Agpfsa,amod
266,1522-1527,unija,ORG[6],_,*->15-2,*[15],_,265,NOUN,Ncfsa,obj
267,1528-1530,za,_,_,_,_,_,270,ADP,Sa,case
268,1531-1539,finančen,_,_,_,_,_,270,ADJ,Agpfsa,amod
269,1540-1545,pomoč,_,_,_,_,_,267,NOUN,Ncfsa,nmod
270,1546-1552,zaradi,_,_,_,_,_,273,ADP,Sg,case
271,1553-1562,prevelik,_,_,_,_,_,273,ADJ,Agpfsg,amod
272,1563-1579,izpostavljenost,_,_,_,_,_,270,NOUN,Ncfsg,nmod
273,1580-1587,grški,_,_,_,_,_,275,ADJ,Agpnsd,amod
274,1588-1600,gospodarstvo,_,_,_,_,_,273,NOUN,Ncnsd,nmod
275,1601-1602,.,_,_,_,_,_,341,PUNCT,Z,punct
276,1603-1606,kot,_,_,_,_,_,279,SCONJ,Cs,mark
277,1607-1609,biti,_,_,_,_,_,279,AUX,Va-r3s-n,aux
278,1610-1619,sporočiti,_,_,_,_,_,265,VERB,Vmep-sf,advcl
279,1620-1627,ciprski,_,_,_,_,_,281,ADJ,Agpfsn,amod
280,1628-1633,vlada,_,_,_,_,_,279,NOUN,Ncfsn,nsubj
281,1634-1635,",",_,_,_,_,_,279,PUNCT,Z,punct
282,1636-1638,biti,_,_,_,_,_,288,AUX,Va-r3p-n,aux
283,1639-1644,drug,_,_,_,_,_,285,ADJ,Mlpfpa,amod
284,1645-1652,članica,_,_,_,_,_,288,NOUN,Ncfpn,nsubj
285,1653-1661,evrski,_,_,_,_,_,287,ADJ,Agpnsg,amod
286,1662-1669,območje,_,_,_,_,_,285,NOUN,Ncnsg,nmod
287,1670-1679,zaprositi,_,_,_,_,_,5,VERB,Vmep-pm,parataxis
288,1680-1682,za,_,_,_,_,_,290,ADP,Sa,case
289,1683-1688,pomoč,_,_,_,_,_,288,NOUN,Ncfsa,obl
290,1689-1691,iz,_,_,_,_,_,293,ADP,Sg,case
291,1692-1702,reševalen,_,0,*->9-1,*[9],3 - Nevtralno[11],293,ADJ,Agpmpg,amod
292,1703-1710,sklad,_,0,*->9-1,*[9],3 - Nevtralno[11],290,NOUN,Ncmpg,nmod
293,1711-1715,EFSF,ORG,0,*->9-1,*[9],3 - Nevtralno[11],293,PROPN,Npfsg,nmod
294,1716-1723,oziroma,_,_,_,_,_,296,CCONJ,Cc,cc
295,1724-1727,ESM,ORG,0,*->10-1,*[10],3 - Nevtralno,294,PROPN,Npfsg,conj
296,1728-1729,.,_,_,_,_,_,288,PUNCT,Z,punct
297,1730-1735,pomoč,_,_,_,_,_,300,NOUN,Ncfsn,nsubj
298,1736-1738,biti,_,_,_,_,_,300,AUX,Va-f3s-n,cop
299,1739-1748,namenjen,_,_,_,_,_,288,ADJ,Appfsn,conj
300,1749-1757,omejitev,_,_,_,_,_,300,NOUN,Ncfsd,obj
301,1758-1765,tveganje,_,_,_,_,_,301,NOUN,Ncnpg,nmod
302,1766-1768,za,_,_,_,_,_,305,ADP,Sa,case
303,1769-1776,ciprski,_,_,_,_,_,305,ADJ,Agpnsa,amod
304,1777-1789,gospodarstvo,_,_,_,_,_,302,NOUN,Ncnsa,nmod
305,1790-1792,po,_,_,_,_,_,308,ADP,Sl,case
306,1793-1803,negativen,_,_,_,_,_,308,ADJ,Agpmpl,amod
307,1804-1811,učinek,_,_,_,_,_,302,NOUN,Ncmpl,nmod
308,1812-1820,širjenje,_,_,_,_,_,308,NOUN,Ncnsg,nmod
309,1821-1826,kriza,_,_,_,_,_,309,NOUN,Ncfsg,nmod
310,1827-1832,preko,_,_,_,_,_,313,ADP,Sg,case
311,1833-1843,finančen,_,_,_,_,_,313,ADJ,Agpmsg,amod
312,1844-1852,sektor,_,_,_,_,_,310,NOUN,Ncmsg,nmod
313,1853-1859,zaradi,_,_,_,_,_,316,ADP,Sg,case
314,1860-1866,velik,_,_,_,_,_,316,ADJ,Agpfsg,amod
315,1867-1883,izpostavljenost,_,_,_,_,_,308,NOUN,Ncfsg,nmod
316,1884-1891,grški,_,_,_,_,_,318,ADJ,Agpnsd,amod
317,1892-1904,gospodarstvo,_,_,_,_,_,316,NOUN,Ncnsd,nmod
318,1905-1906,",",_,_,_,_,_,279,PUNCT,Z,punct
319,1907-1909,biti,_,_,_,_,_,321,AUX,Va-r3s-n,aux
320,1910-1918,zapisati,_,_,_,_,_,5,VERB,Vmep-sf,parataxis
321,1919-1926,ciprski,_,_,_,_,_,323,ADJ,Agpfsn,amod
322,1927-1932,vlada,_,_,_,_,_,321,NOUN,Ncfsn,nsubj
323,1933-1934,v,_,_,_,_,_,325,ADP,Sl,case
324,1935-1944,sporočilo,_,_,_,_,_,321,NOUN,Ncnsl,obl
325,1945-1947,za,_,_,_,_,_,327,ADP,Sa,case
326,1948-1955,javnost,_,_,_,_,_,325,NOUN,Ncfsa,nmod
327,1956-1957,.,_,_,_,_,_,318,PUNCT,Z,punct
328,1958-1965,ciprski,_,_,_,_,_,330,ADJ,Agpfsg,amod
329,1966-1971,banka,_,_,_,_,_,327,NOUN,Ncfsg,nmod
330,1972-1974,biti,_,_,_,_,_,332,AUX,Va-r3p-n,aux
331,1975-1983,imetnica,_,_,_,_,_,321,NOUN,Ncfpa,obj
332,1984-1992,velik,_,_,_,_,_,334,ADJ,Agpnsg,amod
333,1993-2000,število,_,_,_,_,_,332,NOUN,Ncnsg,nmod
334,2001-2007,grški,_,_,_,_,_,336,ADJ,Agpfpg,amod
335,2008-2016,obveznica,_,_,_,_,_,334,NOUN,Ncfpg,nmod
336,2017-2018,",",_,_,_,_,_,341,PUNCT,Z,punct
337,2019-2026,kateri,_,_,_,_,_,339,DET,Pq-fpg,nmod
338,2027-2036,vrednost,_,_,_,_,_,341,NOUN,Ncfpa,obj
339,2037-2039,biti,_,_,_,_,_,341,AUX,Va-r3p-n,aux
340,2040-2046,morati,_,_,_,_,_,336,VERB,Vmpp-pm,acl
341,2047-2053,upnik,_,_,_,_,_,341,NOUN,Ncmpn,nsubj
342,2054-2059,letos,_,_,_,_,_,345,ADV,Rgp,advmod
343,2060-2068,večinoma,_,_,_,_,_,345,ADV,Rgp,advmod
344,2069-2077,odpisati,_,_,_,_,_,341,VERB,Vmen,xcomp
345,2078-2079,.,_,_,_,_,_,5,PUNCT,Z,punct
346,2080-2088,diplomat,_,_,_,_,_,352,NOUN,Ncmsn,nsubj
347,2089-2091,EU,ORG,_,*->15-3,*[15],_,347,PROPN,Npfsg,nmod
348,2092-2094,biti,_,_,_,_,_,352,AUX,Va-r3s-n,aux
349,2095-2101,minul,_,_,_,_,_,351,ADJ,Appmsay,amod
350,2102-2107,teden,_,_,_,_,_,352,NOUN,Ncmsan,obl
351,2108-2113,dejati,_,_,_,_,_,5,VERB,Vmep-sm,parataxis
352,2114-2115,",",_,_,_,_,_,360,PUNCT,Z,punct
353,2116-2118,da,_,_,_,_,_,360,SCONJ,Cs,mark
354,2119-2121,biti,_,_,_,_,_,360,AUX,Va-f3s-n,aux
355,2122-2127,Ciper,ORG,_,*->13-7,*[13],_,360,PROPN,Npmsn,nsubj
356,2128-2130,za,_,_,_,_,_,358,ADP,Sa,case
357,2131-2136,pomoč,_,_,_,_,_,360,NOUN,Ncfsa,obl
358,2137-2144,najprej,_,_,_,_,_,360,ADV,Rgs,advmod
359,2145-2153,zaprositi,_,_,_,_,_,352,VERB,Vmep-sm,ccomp
360,2154-2160,Rusija,ORG,_,*->11-1,*[11],_,360,PROPN,Npfsa,obj
361,2161-2162,",",_,_,_,_,_,367,PUNCT,Z,punct
362,2163-2165,ki,_,_,_,_,_,367,SCONJ,Cs,mark
363,2166-2168,biti,_,_,_,_,_,367,AUX,Va-r3s-n,aux
364,2169-2174,sicer,_,_,_,_,_,367,PART,Q,advmod
365,2175-2181,država,_,_,*->13-8,*[13],_,367,NOUN,Ncfsl,obj
366,2182-2190,pomagati,_,_,*->11-2,*[11],_,361,VERB,Vmbp-sf,acl
367,2191-2193,že,_,_,_,_,_,367,PART,Q,advmod
368,2194-2198,lani,_,_,_,_,_,367,ADV,Rgp,advmod
369,2199-2200,.,_,_,_,_,_,360,PUNCT,Z,punct
370,2201-2203,po,_,_,_,_,_,372,ADP,Sl,case
371,2204-2212,navedba,_,_,_,_,_,378,NOUN,Ncfpl,obl
372,2213-2222,diplomat,_,_,_,_,_,372,NOUN,Ncmsg,nmod
373,2223-2226,naj,_,_,_,_,_,378,PART,Q,advmod
374,2227-2229,biti,_,_,_,_,_,378,AUX,Va-c,aux
375,2230-2235,Ciper,ORG,_,*->13-9,*[13],_,378,PROPN,Npmsa,obj
376,2236-2242,Rusija,ORG,_,*->11-3,*[11],_,376,PROPN,Npfsa,nmod
377,2243-2251,zaprositi,_,_,_,_,_,5,VERB,Vmep-sm,parataxis
378,2252-2254,za,_,_,_,_,_,380,ADP,Sa,case
379,2255-2263,posojilo,_,_,_,_,_,378,NOUN,Ncnsa,obl
380,2264-2265,v,_,_,_,_,_,382,ADP,Sl,case
381,2266-2272,višina,_,_,_,_,_,380,NOUN,Ncfsl,nmod
382,2273-2275,do,_,_,_,_,_,385,ADP,Sg,case
383,2276-2279,pet,_,_,_,_,_,385,NUM,Mlc-pa,nummod
384,2280-2288,milijarda,_,_,_,_,_,382,NOUN,Ncfpg,nmod
385,2289-2294,evro,_,_,_,_,_,385,NOUN,Ncmpg,nmod
386,2295-2296,.,_,_,_,_,_,378,PUNCT,Z,punct
387,2297-2303,Rusija,ORG,1,*->11-4,*[11],4 - Pozitivno,395,PROPN,Npfsn,nsubj
388,2304-2306,biti,_,_,_,_,_,395,AUX,Va-r3s-n,aux
389,2307-2312,Cipro,ORG,_,*->13-10,*[13],_,395,PROPN,Npfsd,iobj
390,2313-2319,namreč,_,_,_,_,_,395,CCONJ,Cc,advmod
391,2320-2328,december,_,_,_,_,_,395,NOUN,Ncmsg,obl
392,2329-2333,lani,_,_,_,_,_,392,ADV,Rgp,advmod
393,2334-2336,že,_,_,_,_,_,395,PART,Q,advmod
394,2337-2345,odobriti,_,_,_,_,_,378,VERB,Vmep-sf,conj
395,2346-2355,posojilen,_,_,_,_,_,397,ADJ,Agpfsa,amod
396,2356-2362,linija,_,_,_,_,_,395,NOUN,Ncfsa,obj
397,2363-2364,v,_,_,_,_,_,399,ADP,Sl,case
398,2365-2371,višina,_,_,_,_,_,397,NOUN,Ncfsl,nmod
399,2372-2375,"2,5",_,_,_,_,_,401,NUM,Mdc,nummod
400,2376-2385,milijarda,_,_,_,_,_,399,NOUN,Ncfsg,nmod
401,2386-2391,evro,_,_,_,_,_,401,NOUN,Ncmpg,nmod
402,2392-2393,.,_,_,_,_,_,395,PUNCT,Z,punct
403,2394-2399,danes,_,_,_,_,_,412,ADV,Rgp,advmod
404,2400-2402,biti,_,_,_,_,_,412,AUX,Va-r3s-n,aux
405,2403-2408,sicer,_,_,_,_,_,412,PART,Q,advmod
406,2409-2418,boniteten,_,_,*->12-1,*[12],_,408,ADJ,Agpfsn,amod
407,2419-2423,hiša,_,_,*->12-1,*[12],_,412,NOUN,Ncfsn,nsubj
408,2424-2429,Fitch,ORG,_,*->12-1,*[12],_,408,PROPN,Npmsn,nmod
409,2430-2435,Cipro,ORG,_,*->13-11,*[13],_,409,PROPN,Npfsn,flat:name
410,2436-2441,znova,_,_,_,_,_,412,ADV,Rgp,advmod
411,2442-2449,znižati,_,_,_,_,_,395,VERB,Vmep-sf,conj
412,2450-2459,boniteten,_,_,_,_,_,414,ADJ,Agpfsa,amod
413,2460-2465,ocena,_,_,_,_,_,412,NOUN,Ncfsa,obj
414,2466-2467,",",_,_,_,_,_,412,PUNCT,Z,punct
415,2468-2470,in,_,_,_,_,_,420,CCONJ,Cc,cc
416,2471-2476,sicer,_,_,_,_,_,420,PART,Q,advmod
417,2477-2482,ravno,_,_,_,_,_,420,PART,Q,advmod
418,2483-2489,zaradi,_,_,_,_,_,420,ADP,Sg,case
419,2490-2506,izpostavljenost,_,_,_,_,_,414,NOUN,Ncfsg,appos
420,2507-2515,bančen,_,_,_,_,_,422,ADJ,Agpmsg,amod
421,2516-2523,sistem,_,_,_,_,_,420,NOUN,Ncmsg,nmod
422,2524-2531,grški,_,_,_,_,_,424,ADJ,Agpnsd,amod
423,2532-2544,gospodarstvo,_,_,_,_,_,422,NOUN,Ncnsd,nmod
424,2545-2546,.,_,_,_,_,_,412,PUNCT,Z,punct
425,2547-2549,po,_,_,_,_,_,428,ADP,Sl,case
426,2550-2558,Fitchev,_,2,*->12-2,*[12],2 - Negativno,428,ADJ,Agpfsl,amod
427,2559-2564,ocena,_,_,_,_,_,432,NOUN,Ncfsl,obl
428,2565-2569,biti,_,_,_,_,_,432,AUX,Va-f3p-n,aux
429,2570-2577,ciprski,_,_,_,_,_,431,ADJ,Agpfpn,amod
430,2578-2583,banka,_,_,_,_,_,432,NOUN,Ncfpn,nsubj
431,2584-2593,zahtevati,_,_,_,_,_,412,VERB,Vmbp-pf,conj
432,2594-2602,finančen,_,_,_,_,_,434,ADJ,Agpfsa,amod
433,2603-2612,injekcija,_,_,_,_,_,432,NOUN,Ncfsa,obj
434,2613-2614,v,_,_,_,_,_,436,ADP,Sl,case
435,2615-2621,višina,_,_,_,_,_,434,NOUN,Ncfsl,nmod
436,2622-2624,do,_,_,_,_,_,439,ADP,Sg,case
437,2625-2630,štirje,_,_,_,_,_,439,NUM,Mlcfpa,nummod
438,2631-2640,milijarda,_,_,_,_,_,436,NOUN,Ncfpa,nmod
439,2641-2646,evro,_,_,_,_,_,439,NOUN,Ncmpg,nmod
440,2647-2648,",",_,_,_,_,_,443,PUNCT,Z,punct
441,2649-2652,kar,_,_,_,_,_,443,PRON,Pr-nsn,nsubj
442,2653-2664,predstavljati,_,_,_,_,_,439,VERB,Vmpr3s,acl
443,2665-2667,24,_,_,_,_,_,445,NUM,Mdc,nummod
444,2668-2677,odstotek,_,_,_,_,_,443,NOUN,Ncmpg,obj
445,2678-2683,bruto,_,_,_,_,_,448,ADJ,Agpmsg,amod
446,2684-2692,domač,_,_,_,_,_,448,ADJ,Agpmsg,amod
447,2693-2702,proizvod,_,_,_,_,_,445,NOUN,Ncmsg,nmod
448,2703-2705,ta,_,_,_,_,_,451,DET,Pd-fsg,det
449,2706-2712,otoški,_,_,*->13-12,*[13],_,451,ADJ,Agpfsg,amod
450,2713-2719,država,_,_,*->13-12,*[13],_,448,NOUN,Ncfsg,nmod
451,2720-2721,",",_,_,_,_,_,443,PUNCT,Z,punct
452,2722-2727,poleg,_,_,_,_,_,455,ADP,Sg,case
453,2728-2731,"1,8",_,_,_,_,_,455,NUM,Mdc,nummod
454,2732-2741,milijarda,_,_,_,_,_,470,NOUN,Ncfsg,obl
455,2742-2747,evro,_,_,_,_,_,455,NOUN,Ncmpg,nmod
456,2748-2754,vreden,_,_,_,_,_,458,ADJ,Agpfsg,amod
457,2755-2771,dokapitalizacija,_,_,_,_,_,456,NOUN,Ncfsg,nmod
458,2772-2780,velik,_,0,*->14-1,*[14],3 - Nevtralno[12],460,ADJ,Agsfsg,amod
459,2781-2786,banka,_,0,*->14-1,*[14],3 - Nevtralno[12],458,NOUN,Ncfsg,nmod
460,2787-2793,Cyprus,ORG[7],0,*->14-1,*[14],3 - Nevtralno[12],463,PROPN,Npmsn,nmod
461,2794-2801,Popular,ORG[7],0,*->14-1,*[14],3 - Nevtralno[12],463,PROPN,Npmsn,nmod
462,2802-2806,Bank,ORG[7],0,*->14-1,*[14],3 - Nevtralno[12],460,PROPN,Npfpg,nmod
463,2807-2808,.,_,_,_,_,_,443,PUNCT,Z,punct
464,2809-2814,Ciper,_,2,*->13-13,*[13],2 - Negativno,470,PROPN,Npmsn,nsubj
465,2815-2817,biti,_,_,_,_,_,470,AUX,Va-f3s-n,aux
466,2818-2819,1,_,_,_,_,_,470,NUM,Mdc,obl
467,2820-2821,.,_,_,_,_,_,470,PUNCT,Z,punct
468,2822-2828,julij,_,_,_,_,_,470,NOUN,Ncmsg,obl
469,2829-2836,prevzeti,_,_,_,_,_,5,VERB,Vmep-sm,parataxis
470,2837-2848,šestmesečen,_,_,_,_,_,472,ADJ,Agpnsa,amod
471,2849-2862,predsedovanje,_,_,_,_,_,470,NOUN,Ncnsa,obj
472,2863-2865,EU,ORG,1,*->15-4,*[15],4 - Pozitivno,472,PROPN,Npfsg,nmod
