idx,chars_idx,token,entity_type,sentiment,idk_1,idk_2,orig_sentiment,heads,upos,xpos,deprel
0,0-6,kakšen,_,_,_,_,_,2,DET,Pq-nsn,det
1,7-13,darilo,_,_,_,_,_,3,NOUN,Ncnsa,obj
2,14-21,izbrati,_,_,_,_,_,20,VERB,Vmen,advcl
3,22-24,za,_,_,_,_,_,5,ADP,Sa,case
4,25-33,praznik,_,_,_,_,_,3,NOUN,Ncmpa,obl
5,34-35,",",_,_,_,_,_,10,PUNCT,Z,punct
6,36-38,da,_,_,_,_,_,10,SCONJ,Cs,mark
7,39-41,ne,_,_,_,_,_,10,PART,Q,advmod
8,42-44,biti,_,_,_,_,_,10,AUX,Va-f3s-n,aux
9,45-52,postati,_,_,_,_,_,5,VERB,Vmep-sn,acl
10,53-55,le,_,_,_,_,_,10,PART,Q,advmod
11,56-57,',_,_,_,_,_,14,PUNCT,Z,punct
12,58-59,',_,_,_,_,_,14,PUNCT,Z,punct
13,60-70,praholovec,_,_,_,_,_,10,NOUN,Ncmsn,nsubj
14,71-72,',_,_,_,_,_,14,PUNCT,Z,punct
15,73-74,',_,_,_,_,_,14,PUNCT,Z,punct
16,75-76,?,_,_,_,_,_,10,PUNCT,Z,punct
17,77-83,svoj,_,_,_,_,_,19,DET,Px-fsi,det
18,84-92,bližnji,_,_,_,_,_,20,ADJ,Agpmpd,iobj
19,93-101,ponuditi,_,_,_,_,_,0,VERB,Vmem2p,root
20,102-111,doživetje,_,_,_,_,_,20,NOUN,Ncnsa,obj
21,112-113,",",_,_,_,_,_,28,PUNCT,Z,punct
22,114-116,ki,_,_,_,_,_,28,SCONJ,Cs,mark
23,117-119,on,_,_,_,_,_,28,PRON,Pp3msa--y,obj
24,120-124,biti,_,_,_,_,_,28,AUX,Va-f3p-n,aux
25,125-127,še,_,_,_,_,_,28,PART,Q,advmod
26,128-133,dolgo,_,_,_,_,_,28,ADV,Rgp,advmod
27,134-141,pomniti,_,_,_,_,_,21,VERB,Vmpp-pm,acl
28,142-143,.,_,_,_,_,_,20,PUNCT,Z,punct
29,144-148,zorba,_,_,_,_,_,28,NOUN,Ncmsn,nsubj
30,149-150,-,_,_,_,_,_,32,PUNCT,Z,punct
31,151-155,BALL,_,_,_,_,_,30,PROPN,Npmsn,conj
32,156-158,za,_,_,_,_,_,35,ADP,Sa,case
33,159-162,dva,_,_,_,_,_,35,NUM,Mlcfda,nummod
34,163-168,oseba,_,_,_,_,_,28,NOUN,Ncfda,obl
35,169-178,nepozaben,_,_,_,_,_,38,ADJ,Agpmsan,amod
36,179-191,adrenalinski,_,_,_,_,_,38,ADJ,Agpmsay,amod
37,192-197,spust,_,_,_,_,_,28,NOUN,Ncmsan,obj
38,198-199,z,_,_,_,_,_,40,ADP,Si,case
39,200-204,zorba,_,_,_,_,_,38,NOUN,Ncmsi,nmod
40,205-206,-,_,_,_,_,_,42,PUNCT,Z,punct
41,207-213,ball,_,_,_,_,_,38,NOUN,Ncmsi,conj
42,214-216,za,_,_,_,_,_,45,ADP,Sa,case
43,217-218,2,_,_,_,_,_,45,NUM,Mdc,nummod
44,219-224,oseba,_,_,_,_,_,42,NOUN,Ncfda,nmod
45,225-226,.,_,_,_,_,_,20,PUNCT,Z,punct
46,227-229,za,_,_,_,_,_,48,ADP,Sa,case
47,230-234,zorba,_,_,_,_,_,52,NOUN,Ncmsan,obl
48,235-236,-,_,_,_,_,_,50,PUNCT,Z,punct
49,237-241,ball,_,_,_,_,_,48,NOUN,Ncmsn,nmod
50,242-245,biti,_,_,_,_,_,52,AUX,Va-r3d-n,cop
51,246-251,nujen,_,_,_,_,_,20,ADJ,Agpfdn,parataxis
52,252-253,v,_,_,_,_,_,54,ADP,Sl,case
53,254-265,notranjost,_,_,_,_,_,52,NOUN,Ncfsl,obl
54,266-270,žoga,_,_,_,_,_,54,NOUN,Ncfsg,nmod
55,271-272,2,_,_,_,_,_,57,NUM,Mdc,nummod
56,273-278,oseba,_,_,_,_,_,55,NOUN,Ncfdn,nmod
57,279-280,!,_,_,_,_,_,62,PUNCT,Z,punct
58,281-283,ta,_,_,_,_,_,61,DET,Pd-fsn,det
59,284-291,ogromen,_,_,_,_,_,61,ADJ,Agpfsn,amod
60,292-296,žoga,_,_,_,_,_,62,NOUN,Ncfsn,nsubj
61,297-303,pomagati,_,_,_,_,_,52,VERB,Vmbr3s,parataxis
62,304-312,pozabiti,_,_,_,_,_,62,VERB,Vmen,xcomp
63,313-315,na,_,_,_,_,_,66,ADP,Sa,case
64,316-321,čisto,_,_,_,_,_,66,ADV,Rgp,advmod
65,322-325,ves,_,_,_,_,_,63,DET,Pg-nsa,obl
66,326-327,.,_,_,_,_,_,62,PUNCT,Z,punct
67,328-337,adrenalin,_,_,_,_,_,69,NOUN,Ncmsn,nsubj
68,338-349,zagotovljen,_,_,_,_,_,62,ADJ,Appmsnn,parataxis
69,350-352,na,_,_,_,_,_,73,ADP,Sa,case
70,353-361,predvsem,_,_,_,_,_,69,PART,Q,advmod
71,362-367,varen,_,_,_,_,_,73,ADJ,Agpmsan,amod
72,368-373,način,_,_,_,_,_,69,NOUN,Ncmsan,obl
73,374-375,.,_,_,_,_,_,69,PUNCT,Z,punct
74,376-381,namen,_,_,_,_,_,69,NOUN,Ncmsn,nsubj
75,382-386,žoga,_,_,_,_,_,75,NOUN,Ncfsg,nmod
76,387-391,zorba,_,_,_,_,_,76,NOUN,Ncmsn,nmod
77,392-393,-,_,_,_,_,_,79,PUNCT,Z,punct
78,394-398,ball,_,_,_,_,_,77,NOUN,Ncmsn,conj
79,399-401,biti,_,_,_,_,_,69,AUX,Va-r3s-n,cop
80,402-403,",",_,_,_,_,_,86,PUNCT,Z,punct
81,404-406,da,_,_,_,_,_,86,SCONJ,Cs,mark
82,407-409,se,_,_,_,_,_,86,PRON,Px------y,expl
83,410-413,oba,_,_,_,_,_,85,DET,Pg-mdn,det
84,414-424,udeleženca,_,_,_,_,_,86,NOUN,Ncmdn,nsubj
85,425-432,usediti,_,_,_,_,_,75,VERB,Vmer3d,acl
86,433-437,drug,_,_,_,_,_,86,ADJ,Mlpmsnn,obl
87,438-443,proti,_,_,_,_,_,89,ADP,Sd,case
88,444-451,drug,_,_,_,_,_,86,ADJ,Mlpmsd,obl
89,452-453,",",_,_,_,_,_,86,PUNCT,Z,punct
90,454-456,se,_,_,_,_,_,92,PRON,Px------y,expl
91,457-465,pripneti,_,_,_,_,_,69,VERB,Vmer3d,parataxis
92,466-468,in,_,_,_,_,_,96,CCONJ,Cc,cc
93,469-473,nato,_,_,_,_,_,96,ADV,Rgp,advmod
94,474-484,inštruktor,_,_,_,_,_,96,NOUN,Ncmsn,nsubj
95,485-491,poriniti,_,_,_,_,_,92,VERB,Vmer3s,conj
96,492-496,žoga,_,_,_,_,_,96,NOUN,Ncfsa,obj
97,497-498,.,_,_,_,_,_,92,PUNCT,Z,punct
98,499-505,naprej,_,_,_,_,_,104,ADV,Rgp,advmod
99,506-508,pa,_,_,_,_,_,104,CCONJ,Cc,advmod
100,509-511,se,_,_,_,_,_,104,PRON,Px------y,expl
101,512-516,žoga,_,_,_,_,_,104,NOUN,Ncfsn,nsubj
102,517-521,sam,_,_,_,_,_,104,ADJ,Agpfsn,obl
103,522-528,kotati,_,_,_,_,_,92,VERB,Vmpr3s,conj
104,529-530,.,_,_,_,_,_,104,PUNCT,Z,punct
105,531-533,za,_,_,_,_,_,107,ADP,Sa,case
106,534-538,zorba,_,_,_,_,_,104,NOUN,Ncmsan,obl
107,539-540,-,_,_,_,_,_,111,PUNCT,Z,punct
108,541-545,ball,_,_,_,_,_,107,NOUN,Ncmsn,conj
109,546-549,biti,_,_,_,_,_,111,AUX,Va-r3d-n,cop
110,550-558,potreben,_,_,_,_,_,104,ADJ,Agpmdn,conj
111,559-562,dva,_,_,_,_,_,111,NUM,Mlcmdn,obl
112,563-569,zaradi,_,_,_,_,_,115,ADP,Sg,case
113,570-580,pravilen,_,_,_,_,_,115,ADJ,Agpnsg,amod
114,581-590,delovanje,_,_,_,_,_,112,NOUN,Ncnsg,nmod
115,591-592,.,_,_,_,_,_,111,PUNCT,Z,punct
116,593-597,zorba,_,_,_,_,_,111,NOUN,Ncmsn,nsubj
117,598-599,-,_,_,_,_,_,119,PUNCT,Z,punct
118,600-604,ball,_,_,_,_,_,117,NOUN,Ncmsn,conj
119,605-607,biti,_,_,_,_,_,121,AUX,Va-r3s-n,cop
120,608-616,primeren,_,_,_,_,_,111,ADJ,Agpmsnn,parataxis
121,617-621,tako,_,_,_,_,_,124,CCONJ,Cc,cc:preconj
122,622-624,za,_,_,_,_,_,124,ADP,Sa,case
123,625-632,družina,_,_,_,_,_,121,NOUN,Ncfpa,obl
124,633-636,kot,_,_,_,_,_,128,SCONJ,Cs,case
125,637-641,tudi,_,_,_,_,_,121,PART,Q,advmod
126,642-644,za,_,_,_,_,_,128,ADP,Sa,case
127,645-653,podjetje,_,_,_,_,_,131,NOUN,Ncnpa,nmod
128,654-657,ali,_,_,_,_,_,131,CCONJ,Cc,cc
129,658-668,zaključen,_,_,_,_,_,131,ADJ,Appfpa,amod
130,669-676,skupina,_,_,_,_,_,124,NOUN,Ncfpa,conj
131,677-678,.,_,_,_,_,_,121,PUNCT,Z,punct
132,679-683,foto,_,_,_,_,_,134,NOUN,Ncmsn,nmod
133,684-689,arhiv,_,_,_,_,_,131,NOUN,Ncmsan,nmod
134,690-699,naročnik,_,_,_,_,_,134,NOUN,Ncmsg,nmod
135,700-708,padalski,_,_,_,_,_,137,ADJ,Agpmsny,amod
136,709-713,skok,_,_,_,_,_,134,NOUN,Ncmsn,nmod
137,714-715,v,_,_,_,_,_,139,ADP,Sl,case
138,716-723,Tand,_,_,_,_,_,137,PROPN,Npmsl,nmod
139,724-725,z,_,_,_,_,_,143,ADP,Si,case
140,726-731,4.000,_,_,_,_,_,143,NUM,Mdc,nummod
141,732-733,m,_,_,_,_,_,139,NOUN,Ncmsn,nmod
142,734-738,skok,_,_,_,_,_,137,NOUN,Ncmsan,nmod
143,739-740,z,_,_,_,_,_,145,ADP,Si,case
144,741-748,padalo,_,_,_,_,_,143,NOUN,Ncnsi,nmod
145,749-751,biti,_,_,_,_,_,164,AUX,Va-r3s-n,aux
146,752-761,doživetje,_,_,_,_,_,143,NOUN,Ncnsa,conj
147,762-763,",",_,_,_,_,_,149,PUNCT,Z,punct
148,764-769,poln,_,_,_,_,_,147,ADJ,Agpnsn,amod
149,770-780,adrenalina,_,_,_,_,_,149,NOUN,Ncmsg,obj
150,781-782,",",_,_,_,_,_,157,PUNCT,Z,punct
151,783-785,ki,_,_,_,_,_,157,SCONJ,Cs,mark
152,786-788,on,_,_,_,_,_,157,PRON,Pp3msa--y,obj
153,789-799,udeleženec,_,_,_,_,_,157,NOUN,Ncmsn,nsubj
154,800-802,ne,_,_,_,_,_,157,PART,Q,advmod
155,803-805,biti,_,_,_,_,_,157,AUX,Va-f3s-n,aux
156,806-813,pozabiti,_,_,_,_,_,147,VERB,Vmep-sm,acl
157,814-820,nikoli,_,_,_,_,_,157,ADV,Rgp,advmod
158,821-822,v,_,_,_,_,_,161,ADP,Sl,case
159,823-829,svoj,_,_,_,_,_,161,DET,Px-nsl,det
160,830-839,življenje,_,_,_,_,_,157,NOUN,Ncnsl,obl
161,840-841,.,_,_,_,_,_,157,PUNCT,Z,punct
162,842-851,doživetje,_,_,_,_,_,164,NOUN,Ncnsn,nsubj
163,852-856,dajati,_,_,_,_,_,121,VERB,Vmpr3s,parataxis
164,857-867,udeleženec,_,_,_,_,_,164,NOUN,Ncmsd,iobj
165,868-875,možnost,_,_,_,_,_,164,NOUN,Ncfsa,obj
166,876-877,",",_,_,_,_,_,169,PUNCT,Z,punct
167,878-880,da,_,_,_,_,_,169,SCONJ,Cs,mark
168,881-887,občutiti,_,_,_,_,_,166,VERB,Vmer3s,acl
169,888-889,",",_,_,_,_,_,172,PUNCT,Z,punct
170,890-893,kaj,_,_,_,_,_,172,PRON,Pq-nsa,obj
171,894-900,pomeniti,_,_,_,_,_,169,VERB,Vmbr3s,ccomp
172,901-907,prost,_,_,_,_,_,174,ADJ,Agpmsay,amod
173,908-911,pad,_,_,_,_,_,172,NOUN,Ncmsan,obj
174,912-913,.,_,_,_,_,_,169,PUNCT,Z,punct
175,914-924,udeleženec,_,_,_,_,_,178,NOUN,Ncmsn,nsubj
176,925-927,se,_,_,_,_,_,178,PRON,Px------y,expl
177,928-935,odpeljati,_,_,_,_,_,164,VERB,Vmer3s,root
178,936-937,z,_,_,_,_,_,180,ADP,Si,case
179,938-945,letalo,_,_,_,_,_,178,NOUN,Ncnsi,obl
180,946-948,na,_,_,_,_,_,182,ADP,Sa,case
181,949-955,višina,_,_,_,_,_,180,NOUN,Ncfsa,nmod
182,956-961,4.000,_,_,_,_,_,184,NUM,Mdc,nummod
183,962-963,m,_,_,_,_,_,182,NOUN,Ncmsn,nmod
184,964-965,",",_,_,_,_,_,188,PUNCT,Z,punct
185,966-968,od,_,_,_,_,_,187,ADP,Sg,case
186,969-974,koder,_,_,_,_,_,188,SCONJ,Cs,obl
187,975-982,seskočiti,_,_,_,_,_,184,VERB,Vmer3s,acl
188,983-984,v,_,_,_,_,_,190,ADP,Sl,case
189,985-992,Tand,_,_,_,_,_,188,PROPN,Npmsl,obl
190,993-994,.,_,_,_,_,_,172,PUNCT,Z,punct
191,995-1000,slediti,_,_,_,_,_,62,VERB,Vmpr3s,parataxis
192,1001-1010,nepozabno,_,_,_,_,_,194,ADJ,Agpnsa,amod
193,1011-1023,pospeševanje,_,_,_,_,_,192,NOUN,Ncnsa,obj
194,1024-1026,in,_,_,_,_,_,197,CCONJ,Cc,cc
195,1027-1031,nato,_,_,_,_,_,197,ADV,Rgp,advmod
196,1032-1040,lebdenje,_,_,_,_,_,194,NOUN,Ncnsa,conj
197,1041-1042,v,_,_,_,_,_,199,ADP,Sl,case
198,1043-1048,zrak,_,_,_,_,_,197,NOUN,Ncmsl,nmod
199,1049-1050,",",_,_,_,_,_,202,PUNCT,Z,punct
200,1051-1059,kateri,_,_,_,_,_,202,DET,Pq-msd,obj
201,1060-1065,slediti,_,_,_,_,_,199,VERB,Vmpr3s,acl
202,1066-1075,pristanek,_,_,_,_,_,202,NOUN,Ncmsan,obj
203,1076-1077,z,_,_,_,_,_,206,ADP,Si,case
204,1078-1087,jadralen,_,_,_,_,_,206,ADJ,Agpnsi,amod
205,1088-1095,padalo,_,_,_,_,_,203,NOUN,Ncnsi,nmod
206,1096-1097,.,_,_,_,_,_,202,PUNCT,Z,punct
207,1098-1102,foto,_,_,_,_,_,209,NOUN,Ncmsn,nmod
208,1103-1108,arhiv,_,_,_,_,_,206,NOUN,Ncmsn,nmod
209,1109-1118,naročnik,_,_,_,_,_,209,NOUN,Ncmsg,nmod
210,1119-1131,adrenalinski,_,_,_,_,_,212,ADJ,Agpmsny,amod
211,1132-1137,polet,_,_,_,_,_,209,NOUN,Ncmsn,nmod
212,1138-1141,007,_,_,_,_,_,212,NUM,Mdc,nummod
213,1142-1143,z,_,_,_,_,_,216,ADP,Si,case
214,1144-1152,bondov,_,_,_,_,_,216,ADJ,Aspnsi,amod
215,1153-1160,letalo,_,_,_,_,_,203,NOUN,Ncnsi,nmod
216,1161-1170,doživetje,_,_,_,_,_,216,NOUN,Ncnsa,nmod
217,1171-1172,z,_,_,_,_,_,221,ADP,Si,case
218,1173-1179,pravi,_,_,_,_,_,221,ADJ,Agpnsi,amod
219,1180-1188,bondov,_,_,_,_,_,221,ADJ,Aspnsi,amod
220,1189-1196,letalo,_,_,_,_,_,217,NOUN,Ncnsi,nmod
221,1197-1204,Pilatus,_,_,_,_,_,223,PROPN,Npmsn,nmod
222,1205-1208,PC6,_,_,_,_,_,221,PROPN,Npmsn,nmod
223,1209-1215,Porter,_,_,_,_,_,223,PROPN,Npmsn,nmod
224,1216-1218,za,_,_,_,_,_,227,ADP,Sa,case
225,1219-1221,20,_,_,_,_,_,227,NUM,Mdc,nummod
226,1222-1227,minuta,_,_,_,_,_,223,NOUN,Ncfpg,nmod
227,1228-1229,.,_,_,_,_,_,202,PUNCT,Z,punct
228,1230-1239,doživetje,_,_,_,_,_,230,NOUN,Ncnsn,nsubj
229,1240-1246,obsegati,_,_,_,_,_,62,VERB,Vmpr3s,parataxis
230,1247-1257,panoramski,_,_,_,_,_,232,ADJ,Agpmsay,amod
231,1258-1263,polet,_,_,_,_,_,230,NOUN,Ncmsan,obj
232,1264-1266,na,_,_,_,_,_,234,ADP,Sa,case
233,1267-1273,višina,_,_,_,_,_,232,NOUN,Ncfsa,nmod
234,1274-1279,4.000,_,_,_,_,_,236,NUM,Mdc,nummod
235,1280-1281,m,_,_,_,_,_,234,NOUN,Ncmsn,nmod
236,1282-1283,",",_,_,_,_,_,241,PUNCT,Z,punct
237,1284-1286,od,_,_,_,_,_,246,ADP,Sg,case
238,1287-1292,koder,_,_,_,_,_,241,SCONJ,Cs,obl
239,1293-1295,se,_,_,_,_,_,241,PRON,Px------y,expl
240,1296-1300,videti,_,_,_,_,_,236,VERB,Vmbr3s,acl
241,1301-1307,izskok,_,_,_,_,_,243,ADP,Sg,case
242,1308-1316,padalec,_,_,_,_,_,241,NOUN,Ncmpg,obl
243,1317-1318,",",_,_,_,_,_,241,PUNCT,Z,punct
244,1319-1321,po,_,_,_,_,_,246,ADP,Sl,case
245,1322-1329,izskok,_,_,_,_,_,249,NOUN,Ncmsl,nmod
246,1330-1338,padalec,_,_,_,_,_,246,NOUN,Ncmpg,nmod
247,1339-1341,pa,_,_,_,_,_,249,CCONJ,Cc,advmod
248,1342-1347,pilot,_,_,_,_,_,241,NOUN,Ncmsn,nsubj
249,1348-1349,z,_,_,_,_,_,251,ADP,Si,case
250,1350-1357,letalo,_,_,_,_,_,249,NOUN,Ncnsi,nmod
251,1358-1362,leto,_,_,_,_,_,251,NOUN,Ncnpg,nmod
252,1363-1371,navpičen,_,_,_,_,_,255,ADV,Rgp,advmod
253,1372-1377,proti,_,_,_,_,_,255,ADP,Sd,case
254,1378-1384,zemlja,_,_,_,_,_,252,NOUN,Ncfsd,nmod
255,1385-1387,in,_,_,_,_,_,257,CCONJ,Cc,cc
256,1388-1394,izvajati,_,_,_,_,_,249,VERB,Vmpr3s,conj
257,1395-1400,oster,_,_,_,_,_,259,ADJ,Agpmpa,amod
258,1401-1407,zavoj,_,_,_,_,_,257,NOUN,Ncmpa,obj
259,1408-1409,",",_,_,_,_,_,263,PUNCT,Z,punct
260,1410-1412,ki,_,_,_,_,_,263,SCONJ,Cs,mark
261,1413-1423,udeleženec,_,_,_,_,_,263,NOUN,Ncmsd,iobj
262,1424-1432,pognati,_,_,_,_,_,259,VERB,Vmer3p,acl
263,1433-1436,kri,_,_,_,_,_,263,NOUN,Ncfsa,obj
264,1437-1439,po,_,_,_,_,_,266,ADP,Sl,case
265,1440-1445,žila,_,_,_,_,_,264,NOUN,Ncfpl,nmod
266,1446-1448,in,_,_,_,_,_,268,CCONJ,Cc,cc
267,1449-1458,adrenalin,_,_,_,_,_,266,NOUN,Ncmsan,conj
268,1459-1460,!,_,_,_,_,_,263,PUNCT,Z,punct
269,1461-1465,foto,_,_,_,_,_,271,NOUN,Ncmsn,nmod
270,1466-1471,arhiv,_,_,_,_,_,277,NOUN,Ncmsn,nsubj
271,1472-1481,naročnik,_,_,_,_,_,271,NOUN,Ncmsg,nmod
272,1482-1488,vožnja,_,_,_,_,_,277,NOUN,Ncfsn,nsubj
273,1489-1490,z,_,_,_,_,_,275,ADP,Si,case
274,1491-1504,helikopter,_,_,_,_,_,272,NOUN,Ncmsi,nmod
275,1505-1514,doživetje,_,_,_,_,_,277,NOUN,Ncnsn,nsubj
276,1515-1521,obsegati,_,_,_,_,_,263,VERB,Vmpr3s,conj
277,1522-1524,15,_,_,_,_,_,280,NUM,Mdc,nummod
278,1525-1526,-,_,_,_,_,_,280,PUNCT,Z,punct
279,1527-1534,minuten,_,_,_,_,_,281,ADJ,Agpfsa,amod
280,1535-1541,vožnja,_,_,_,_,_,277,NOUN,Ncfsa,obj
281,1542-1543,z,_,_,_,_,_,283,ADP,Si,case
282,1544-1557,helikopter,_,_,_,_,_,281,NOUN,Ncmsi,nmod
283,1558-1560,za,_,_,_,_,_,286,ADP,Sa,case
284,1561-1564,en,_,_,_,_,_,286,NUM,Mlpfsa,nummod
285,1565-1570,oseba,_,_,_,_,_,283,NOUN,Ncfsa,nmod
286,1571-1572,.,_,_,_,_,_,277,PUNCT,Z,punct
287,1573-1575,po,_,_,_,_,_,290,ADP,Sl,case
288,1576-1583,kratek,_,_,_,_,_,290,ADJ,Agpnpl,amod
289,1584-1593,navodilo,_,_,_,_,_,281,NOUN,Ncnpl,nmod
290,1594-1603,zemeljski,_,_,_,_,_,292,ADJ,Agpfsg,amod
291,1604-1609,ekipa,_,_,_,_,_,290,NOUN,Ncfsg,nmod
292,1610-1611,o,_,_,_,_,_,295,ADP,Sl,case
293,1612-1618,varen,_,_,_,_,_,295,ADJ,Agpmsl,amod
294,1619-1625,vstop,_,_,_,_,_,292,NOUN,Ncmsl,nmod
295,1626-1627,v,_,_,_,_,_,297,ADP,Sa,case
296,1628-1638,helikopter,_,_,_,_,_,292,NOUN,Ncmsan,nmod
297,1639-1641,in,_,_,_,_,_,299,CCONJ,Cc,cc
298,1642-1651,obnašanje,_,_,_,_,_,297,NOUN,Ncnsl,conj
299,1652-1653,v,_,_,_,_,_,301,ADP,Sl,case
300,1654-1658,on,_,_,_,_,_,299,PRON,Pp3msl,nmod
301,1659-1660,",",_,_,_,_,_,263,PUNCT,Z,punct
302,1661-1665,biti,_,_,_,_,_,305,AUX,Va-f3p-n,aux
303,1666-1676,udeleženec,_,_,_,_,_,305,NOUN,Ncmpn,nsubj
304,1677-1685,poleteti,_,_,_,_,_,62,VERB,Vmep-pm,parataxis
305,1686-1688,in,_,_,_,_,_,307,CCONJ,Cc,cc
306,1689-1697,doživeti,_,_,_,_,_,305,VERB,Vmep-pm,conj
307,1698-1706,enkraten,_,_,_,_,_,309,ADJ,Agpfsa,amod
308,1707-1715,izkušnja,_,_,_,_,_,307,NOUN,Ncfsa,obj
309,1716-1723,letenje,_,_,_,_,_,309,NOUN,Ncnsg,nmod
310,1724-1725,.,_,_,_,_,_,305,PUNCT,Z,punct
311,1726-1733,odličen,_,_,_,_,_,314,ADJ,Agpfsg,amod
312,1734-1743,manevrski,_,_,_,_,_,314,ADJ,Agpfsg,amod
313,1744-1755,sposobnost,_,_,_,_,_,310,NOUN,Ncfsg,conj
314,1756-1757,",",_,_,_,_,_,317,PUNCT,Z,punct
315,1758-1767,prekrasen,_,_,_,_,_,317,ADJ,Agpmsan,amod
316,1768-1774,pogled,_,_,_,_,_,310,NOUN,Ncmsan,appos
317,1775-1777,in,_,_,_,_,_,319,CCONJ,Cc,cc
318,1778-1785,svoboda,_,_,_,_,_,317,NOUN,Ncfsa,conj
319,1786-1793,letenje,_,_,_,_,_,319,NOUN,Ncnsg,nmod
320,1794-1795,",",_,_,_,_,_,317,PUNCT,Z,punct
321,1796-1799,ves,_,_,_,_,_,323,DET,Pg-nsa,nmod
322,1800-1802,ta,_,_,_,_,_,328,DET,Pd-nsa,obj
323,1803-1805,in,_,_,_,_,_,328,CCONJ,Cc,cc
324,1806-1808,še,_,_,_,_,_,328,PART,Q,advmod
325,1809-1812,več,_,_,_,_,_,323,DET,Rgc,advmod
326,1813-1817,biti,_,_,_,_,_,328,AUX,Va-f3p-n,aux
327,1818-1826,izkusiti,_,_,_,_,_,314,VERB,Vmep-pm,acl
328,1827-1828,z,_,_,_,_,_,330,ADP,Si,case
329,1829-1836,polet,_,_,_,_,_,328,NOUN,Ncmsi,obl
330,1837-1840,nad,_,_,_,_,_,333,ADP,Si,case
331,1841-1850,prekrasen,_,_,_,_,_,333,ADJ,Agpfsi,amod
332,1851-1860,pokrajina,_,_,_,_,_,330,NOUN,Ncfsi,nmod
333,1861-1868,kanjon,_,_,_,_,_,333,NOUN,Ncmsg,nmod
334,1869-1873,Iška,LOC,1,*->10-1,*[10],4 - Pozitivno,334,PROPN,Npfsg,nmod
335,1874-1876,in,_,_,_,_,_,337,CCONJ,Cc,cc
336,1877-1881,Zale,LOC,1,*->11-1,*[11],4 - Pozitivno,335,PROPN,Npfsg,conj
337,1882-1883,.,_,_,_,_,_,328,PUNCT,Z,punct
338,1884-1889,polet,_,_,_,_,_,341,NOUN,Ncmsn,nsubj
339,1890-1892,se,_,_,_,_,_,341,PRON,Px------y,expl
340,1893-1899,izvajati,_,_,_,_,_,328,VERB,Vmpr3s,conj
341,1900-1903,nad,_,_,_,_,_,344,ADP,Si,case
342,1904-1916,ljubljanski,_,_,_,_,_,344,ADJ,Agpnsi,amod
343,1917-1923,barje,_,_,_,_,_,341,NOUN,Ncnsi,obl
344,1924-1927,ali,_,_,_,_,_,348,CCONJ,Cc,cc
345,1928-1931,nad,_,_,_,_,_,348,ADP,Si,case
346,1932-1938,južen,_,0,*->12-1,*[12],3 - Nevtralno[6],348,ADJ,Agpmsi,amod
347,1939-1944,delo,_,0,*->12-1,*[12],3 - Nevtralno[6],344,NOUN,Ncnsi,conj
348,1945-1954,Ljubljana,LOC,0,*->12-1,*[12],3 - Nevtralno[6],348,PROPN,Npfsg,nmod
349,1955-1956,.,_,_,_,_,_,341,PUNCT,Z,punct
350,1957-1961,foto,_,_,_,_,_,352,NOUN,Ncmsn,nmod
351,1962-1967,arhiv,_,_,_,_,_,361,NOUN,Ncmsn,nsubj
352,1968-1977,naročnik,_,_,_,_,_,352,NOUN,Ncmsg,nmod
353,1978-1982,Jeep,_,_,_,_,_,353,PROPN,Npmsn,nmod
354,1983-1989,Safara,_,_,_,_,_,354,PROPN,Npmsn,nmod
355,1990-1994,Jeep,_,_,_,_,_,355,PROPN,Npmsn,nmod
356,1995-2001,safara,_,_,_,_,_,361,NOUN,Ncmsn,conj
357,2002-2004,biti,_,_,_,_,_,361,AUX,Va-r3s-n,cop
358,2005-2009,prav,_,_,_,_,_,360,PART,Q,advmod
359,2010-2017,poseben,_,_,_,_,_,361,ADJ,Agpmsnn,amod
360,2018-2023,izlet,_,_,_,_,_,341,NOUN,Ncmsn,nsubj
361,2024-2025,.,_,_,_,_,_,361,PUNCT,Z,punct
362,2026-2033,občutek,_,_,_,_,_,361,NOUN,Ncmpn,conj
363,2034-2035,",",_,_,_,_,_,365,PUNCT,Z,punct
364,2036-2045,doživetje,_,_,_,_,_,361,NOUN,Ncnpn,conj
365,2046-2047,",",_,_,_,_,_,368,PUNCT,Z,punct
366,2048-2056,terenski,_,_,_,_,_,368,ADJ,Agpnpn,amod
367,2057-2063,vozilo,_,_,_,_,_,370,NOUN,Ncnpn,conj
368,2064-2066,biti,_,_,_,_,_,370,AUX,Va-r3p-n,cop
369,2067-2077,posebnost,_,_,_,_,_,361,NOUN,Ncfpn,conj
370,2078-2079,",",_,_,_,_,_,374,PUNCT,Z,punct
371,2080-2082,ki,_,_,_,_,_,374,SCONJ,Cs,mark
372,2083-2086,ti,_,_,_,_,_,374,PRON,Pp2-pa,obj
373,2087-2097,prevzeti,_,_,_,_,_,370,VERB,Vmer3p,acl
374,2098-2099,.,_,_,_,_,_,365,PUNCT,Z,punct
375,2100-2104,jeep,_,_,_,_,_,377,NOUN,Ncmsn,nmod
376,2105-2111,safara,_,_,_,_,_,379,NOUN,Ncmsn,appos
377,2112-2114,biti,_,_,_,_,_,379,AUX,Va-r3s-n,cop
378,2115-2124,doživetje,_,_,_,_,_,361,NOUN,Ncnsn,nsubj
379,2125-2126,",",_,_,_,_,_,386,PUNCT,Z,punct
380,2127-2128,v,_,_,_,_,_,382,ADP,Sl,case
381,2129-2136,kateri,_,_,_,_,_,386,DET,Pq-msl,obl
382,2137-2139,se,_,_,_,_,_,387,PRON,Px------y,expl
383,2140-2145,biti,_,_,_,_,_,386,AUX,Va-f2p-n,aux
384,2146-2155,skupinski,_,_,_,_,_,386,ADV,Rgp,advmod
385,2156-2162,podati,_,_,_,_,_,379,VERB,Vmbp-pm,acl
386,2163-2173,raziskovati,_,_,_,_,_,386,VERB,Vmpu,xcomp
387,2174-2181,območje,_,_,_,_,_,387,NOUN,Ncnpa,obj
388,2182-2185,med,_,_,_,_,_,390,ADP,Si,case
389,2186-2194,Postojna,LOC,0,*->1-1,*[1],3 - Nevtralno,388,PROPN,Npfsi,nmod
390,2195-2196,",",_,_,_,_,_,392,PUNCT,Z,punct
391,2197-2202,Pivko,LOC,0,*->2-1,*[2],3 - Nevtralno,390,PROPN,Npfsi,conj
392,2203-2205,in,_,_,_,_,_,394,CCONJ,Cc,cc
393,2206-2214,Cerknica,LOC,0,*->3-1,*[3],3 - Nevtralno,390,PROPN,Npfsi,conj
394,2215-2216,.,_,_,_,_,_,386,PUNCT,Z,punct
395,2217-2229,pripravljen,_,_,_,_,_,376,ADJ,Appmpn,acl
396,2230-2236,biti,_,_,_,_,_,396,AUX,Va-m2p,cop
397,2237-2239,na,_,_,_,_,_,400,ADP,Sa,case
398,2240-2245,pravi,_,_,_,_,_,400,ADJ,Agpfsa,amod
399,2246-2254,avantura,_,_,_,_,_,396,NOUN,Ncfsa,obl
400,2255-2256,",",_,_,_,_,_,396,PUNCT,Z,punct
401,2257-2260,saj,_,_,_,_,_,410,CCONJ,Cc,cc
402,2261-2266,biti,_,_,_,_,_,410,AUX,Va-f2p-n,aux
403,2267-2270,pod,_,_,_,_,_,405,ADP,Si,case
404,2271-2279,vodstvo,_,_,_,_,_,410,NOUN,Ncnsi,obl
405,2280-2289,izkušen,_,_,_,_,_,409,ADJ,Agpmpg,amod
406,2290-2292,in,_,_,_,_,_,408,CCONJ,Cc,cc
407,2293-2304,motiviran,_,_,_,_,_,406,ADJ,Appmpg,conj
408,2305-2318,inštruktor,_,_,_,_,_,405,NOUN,Ncmpg,nmod
409,2319-2327,reševati,_,_,_,_,_,396,VERB,Vmpp-pm,conj
410,2328-2336,terenski,_,_,_,_,_,412,ADJ,Agpnpa,amod
411,2337-2343,vozilo,_,_,_,_,_,410,NOUN,Ncnpa,obj
412,2344-2346,iz,_,_,_,_,_,414,ADP,Sg,case
413,2347-2352,blato,_,_,_,_,_,412,NOUN,Ncnsg,nmod
414,2353-2354,",",_,_,_,_,_,374,PUNCT,Z,punct
415,2355-2358,med,_,_,_,_,_,417,ADP,Si,case
416,2359-2368,treking,_,_,_,_,_,418,NOUN,Ncmsi,obl
417,2369-2380,preizkušati,_,_,_,_,_,410,VERB,Vmpp-pm,conj
418,2381-2386,svoj,_,_,_,_,_,420,DET,Px-fpa,det
419,2387-2398,sposobnost,_,_,_,_,_,418,NOUN,Ncfpa,obj
420,2399-2410,orientacija,_,_,_,_,_,420,NOUN,Ncfsg,nmod
421,2411-2412,",",_,_,_,_,_,418,PUNCT,Z,punct
422,2413-2419,iskati,_,_,_,_,_,418,VERB,Vmpp-pm,conj
423,2420-2427,zaklad,_,_,_,_,_,423,NOUN,Ncmpa,obj
424,2428-2429,v,_,_,_,_,_,426,ADP,Sl,case
425,2430-2434,jama,_,_,_,_,_,424,NOUN,Ncfsl,nmod
426,2435-2436,",",_,_,_,_,_,374,PUNCT,Z,punct
427,2437-2439,se,_,_,_,_,_,429,PRON,Px------y,expl
428,2440-2445,učiti,_,_,_,_,_,418,VERB,Vmpp-pm,advcl
429,2446-2456,pripraviti,_,_,_,_,_,429,VERB,Vmen,xcomp
430,2457-2465,ognjišče,_,_,_,_,_,430,NOUN,Ncnsa,obj
431,2466-2470,brez,_,_,_,_,_,433,ADP,Sg,case
432,2471-2479,vžigalica,_,_,_,_,_,431,NOUN,Ncfpg,nmod
433,2480-2482,in,_,_,_,_,_,436,CCONJ,Cc,cc
434,2483-2485,še,_,_,_,_,_,440,PART,Q,advmod
435,2486-2489,kaj,_,_,_,_,_,433,PRON,Pq-nsa,conj
436,2490-2491,.,_,_,_,_,_,429,PUNCT,Z,punct
437,2492-2505,pustolovščina,_,_,_,_,_,436,NOUN,Ncfsn,nmod
438,2506-2508,biti,_,_,_,_,_,440,AUX,Va-f3s-n,aux
439,2509-2516,trajati,_,_,_,_,_,430,VERB,Vmpp-sf,conj
440,2517-2523,dober,_,_,_,_,_,443,ADJ,Agpfpg,amod
441,2524-2528,šest,_,_,_,_,_,443,NUM,Mlc-pa,nummod
442,2529-2531,ura,_,_,_,_,_,430,NOUN,Ncfpg,obl
443,2532-2533,",",_,_,_,_,_,448,PUNCT,Z,punct
444,2534-2536,po,_,_,_,_,_,446,ADP,Sl,case
445,2537-2544,kateri,_,_,_,_,_,448,DET,Pq-mpl,obl
446,2545-2550,biti,_,_,_,_,_,448,AUX,Va-f2p-n,aux
447,2551-2557,priti,_,_,_,_,_,443,VERB,Vmep-pm,acl
448,2558-2563,domov,_,_,_,_,_,450,ADV,Rgp,advmod
449,2564-2570,nabiti,_,_,_,_,_,448,VERB,Vmen,csubj
450,2571-2572,z,_,_,_,_,_,455,ADP,Si,case
451,2573-2582,pozitiven,_,_,_,_,_,455,ADJ,Agpfsi,amod
452,2583-2584,",",_,_,_,_,_,454,PUNCT,Z,punct
453,2585-2595,zmagovalen,_,_,_,_,_,452,ADJ,Agpfsi,conj
454,2596-2604,energija,_,_,_,_,_,450,NOUN,Ncfsi,obl
455,2605-2606,.,_,_,_,_,_,436,PUNCT,Z,punct
456,2607-2614,Indian,PER[1],_,*->13-1,*[13],_,460,PROPN,Npfsn,nmod
457,2615-2620,Jones,PER[1],_,*->13-1,*[13],_,457,PROPN,Npmsn,nmod
458,2621-2622,?,_,_,_,_,_,457,PUNCT,Z,punct
459,2623-2626,Pih,_,_,_,_,_,443,PROPN,Npmsn,conj
460,2627-2628,",",_,_,_,_,_,463,PUNCT,Z,punct
461,2629-2636,navaden,_,2,*->13-2,*[13],2 - Negativno[7],463,ADJ,Agpmsnn,amod
462,2637-2643,amater,_,2,*->13-2,*[13],2 - Negativno[7],458,NOUN,Ncmsn,appos
463,2644-2645,!,_,_,_,_,_,463,PUNCT,Z,punct
464,2646-2655,doživetje,_,_,_,_,_,463,NOUN,Ncnsn,conj
465,2656-2665,vključevati,_,_,_,_,_,458,VERB,Vmpr3s,acl
466,2666-2675,strokoven,_,_,_,_,_,468,ADJ,Agpnsa,amod
467,2676-2683,vodenje,_,_,_,_,_,466,NOUN,Ncnsa,obj
468,2684-2685,",",_,_,_,_,_,470,PUNCT,Z,punct
469,2686-2692,vožnja,_,_,_,_,_,468,NOUN,Ncfsn,conj
470,2693-2694,z,_,_,_,_,_,472,ADP,Si,case
471,2695-2700,džip,_,_,_,_,_,470,NOUN,Ncmpi,nmod
472,2701-2702,",",_,_,_,_,_,475,PUNCT,Z,punct
473,2703-2714,animacijski,_,_,_,_,_,475,ADJ,Agpmsny,amod
474,2715-2720,ogled,_,_,_,_,_,470,NOUN,Ncmsn,conj
475,2721-2730,bunker,_,_,_,_,_,475,NOUN,Ncmpg,nmod
476,2731-2732,",",_,_,_,_,_,478,PUNCT,Z,punct
477,2733-2742,prigrizek,_,_,_,_,_,470,NOUN,Ncmsn,conj
478,2743-2745,na,_,_,_,_,_,480,ADP,Sa,case
479,2746-2752,safara,_,_,_,_,_,478,NOUN,Ncmsan,nmod
480,2753-2758,način,_,_,_,_,_,478,NOUN,Ncmsan,nmod
481,2759-2760,",",_,_,_,_,_,484,PUNCT,Z,punct
482,2761-2765,mini,_,_,_,_,_,484,ADJ,Agpfsn,amod
483,2766-2770,šola,_,_,_,_,_,478,NOUN,Ncfsn,conj
484,2771-2779,terenski,_,_,_,_,_,486,ADJ,Agpfsg,amod
485,2780-2786,vožnja,_,_,_,_,_,484,NOUN,Ncfsg,nmod
486,2787-2788,",",_,_,_,_,_,488,PUNCT,Z,punct
487,2789-2795,oprema,_,_,_,_,_,484,NOUN,Ncfsn,conj
488,2796-2797,",",_,_,_,_,_,490,PUNCT,Z,punct
489,2798-2809,zavarovanje,_,_,_,_,_,488,NOUN,Ncnsn,conj
490,2810-2811,.,_,_,_,_,_,460,PUNCT,Z,punct
491,2812-2816,foto,_,_,_,_,_,493,NOUN,Ncmsn,nmod
492,2817-2822,arhiv,_,_,_,_,_,490,NOUN,Ncmsn,nmod
493,2823-2832,naročnik,_,_,_,_,_,493,NOUN,Ncmsg,nmod
494,2833-2841,dirkaški,_,_,_,_,_,496,ADJ,Agpfsn,amod
495,2842-2848,vožnja,_,_,_,_,_,503,NOUN,Ncfsn,nsubj
496,2849-2850,z,_,_,_,_,_,498,ADP,Si,case
497,2851-2861,mitsubish,_,_,_,_,_,496,NOUN,Ncmpi,nmod
498,2862-2868,lancer,_,_,_,_,_,498,NOUN,Ncmsn,nmod
499,2869-2872,EVO,_,_,_,_,_,499,PROPN,Npmsn,nmod
500,2873-2874,X,_,_,_,_,_,500,NOUN,Ncmsn,nmod
501,2875-2884,doživetje,_,_,_,_,_,503,NOUN,Ncnsn,nsubj
502,2885-2891,obsegati,_,_,_,_,_,460,VERB,Vmpr3s,parataxis
503,2892-2904,adrenalinski,_,_,_,_,_,505,ADJ,Agpfsa,amod
504,2905-2911,vožnja,_,_,_,_,_,503,NOUN,Ncfsa,obj
505,2912-2913,z,_,_,_,_,_,507,ADP,Si,case
506,2914-2924,mitsubish,_,_,_,_,_,505,NOUN,Ncmpi,nmod
507,2925-2931,lancer,_,_,_,_,_,507,NOUN,Ncmsn,nmod
508,2932-2935,EVO,_,_,_,_,_,508,PROPN,Npmsn,nmod
509,2936-2937,X,_,_,_,_,_,509,NOUN,Ncmsn,nmod
510,2938-2940,za,_,_,_,_,_,513,ADP,Sa,case
511,2941-2942,1,_,_,_,_,_,513,NUM,Mdc,nummod
512,2943-2948,oseba,_,_,_,_,_,508,NOUN,Ncfsa,nmod
513,2949-2950,.,_,_,_,_,_,503,PUNCT,Z,punct
514,2951-2957,vožnja,_,_,_,_,_,516,NOUN,Ncfsn,nsubj
515,2958-2964,potekati,_,_,_,_,_,503,VERB,Vmpr3s,conj
516,2965-2966,v,_,_,_,_,_,518,ADP,Sl,case
517,2967-2972,vloga,_,_,_,_,_,516,NOUN,Ncfsl,obl
518,2973-2982,sovoznik,_,_,_,_,_,518,NOUN,Ncmsg,nmod
519,2983-2985,in,_,_,_,_,_,521,CCONJ,Cc,cc
520,2986-2992,obsegati,_,_,_,_,_,516,VERB,Vmpr3s,conj
521,2993-2994,2,_,_,_,_,_,523,NUM,Mdc,nummod
522,2995-3001,vožnja,_,_,_,_,_,521,NOUN,Ncfda,obj
523,3002-3004,po,_,_,_,_,_,526,ADP,Sa,case
524,3005-3006,5,_,_,_,_,_,526,NUM,Mdc,nummod
525,3007-3013,krog,_,_,_,_,_,523,NOUN,Ncmpg,nmod
526,3014-3016,po,_,_,_,_,_,528,ADP,Sl,case
527,3017-3027,dirkališče,_,_,_,_,_,526,NOUN,Ncnsl,nmod
528,3028-3034,skupen,_,_,_,_,_,530,ADJ,Agpmsay,amod
529,3035-3038,čas,_,_,_,_,_,523,NOUN,Ncmsan,nmod
530,3039-3047,trajanje,_,_,_,_,_,530,NOUN,Ncnsg,nmod
531,3048-3057,približno,_,_,_,_,_,533,ADV,Rgp,advmod
532,3058-3060,10,_,_,_,_,_,534,NUM,Mdc,nummod
533,3061-3064,mina,_,_,_,_,_,531,NOUN,Ncfpg,nmod
534,3065-3066,.,_,_,_,_,_,503,PUNCT,Z,punct
535,3067-3076,doživetje,_,_,_,_,_,537,NOUN,Ncnsn,nsubj
536,3077-3083,obsegati,_,_,_,_,_,503,VERB,Vmpr3s,conj
537,3084-3091,izjemen,_,_,_,_,_,540,ADJ,Agpfsa,amod
538,3092-3104,adrenalinski,_,_,_,_,_,540,ADJ,Agpfsa,amod
539,3105-3111,vožnja,_,_,_,_,_,537,NOUN,Ncfsa,obj
540,3112-3114,za,_,_,_,_,_,543,ADP,Sa,case
541,3115-3116,1,_,_,_,_,_,543,NUM,Mdc,nummod
542,3117-3122,oseba,_,_,_,_,_,540,NOUN,Ncfsa,nmod
543,3123-3124,v,_,_,_,_,_,545,ADP,Sl,case
544,3125-3130,vloga,_,_,_,_,_,543,NOUN,Ncfsl,nmod
545,3131-3140,sovoznik,_,_,_,_,_,545,NOUN,Ncmsg,nmod
546,3141-3142,v,_,_,_,_,_,548,ADP,Sl,case
547,3143-3149,vozilo,_,_,_,_,_,546,NOUN,Ncnsl,nmod
548,3150-3160,mitsubish,_,_,_,_,_,548,NOUN,Ncmsn,nmod
549,3161-3167,lancer,_,_,_,_,_,549,NOUN,Ncmsn,nmod
550,3168-3171,EVO,_,_,_,_,_,550,PROPN,Npmsn,nmod
551,3172-3173,X,_,_,_,_,_,550,NOUN,Ncmsn,nmod
552,3174-3175,",",_,_,_,_,_,556,PUNCT,Z,punct
553,3176-3178,ki,_,_,_,_,_,556,SCONJ,Cs,mark
554,3179-3181,biti,_,_,_,_,_,556,AUX,Va-r3s-n,cop
555,3182-3194,pripravljen,_,_,_,_,_,550,ADJ,Appnsn,acl
556,3195-3197,za,_,_,_,_,_,558,ADP,Sa,case
557,3198-3208,tekmovanje,_,_,_,_,_,556,NOUN,Ncnpa,obl
558,3209-3213,time,_,_,_,_,_,560,NOUN,Ncmsn,nmod
559,3214-3220,Attack,_,_,_,_,_,558,PROPN,Npmsn,nmod
560,3221-3222,z,_,_,_,_,_,563,ADP,Si,case
561,3223-3226,313,_,_,_,_,_,563,NUM,Mdc,nummod
562,3227-3229,kW,_,_,_,_,_,558,NOUN,Ncmsn,nmod
563,3230-3233,420,_,_,_,_,_,566,NUM,Mdc,nummod
564,3234-3243,konjski,_,_,_,_,_,566,ADJ,Agpfpi,amod
565,3244-3249,moč,_,_,_,_,_,563,NOUN,Ncfpi,nmod
566,3250-3251,.,_,_,_,_,_,62,PUNCT,Z,punct
567,3252-3256,foto,_,_,_,_,_,569,NOUN,Ncmsan,conj
568,3257-3262,arhiv,_,_,_,_,_,563,NOUN,Ncmsan,nmod
569,3263-3272,naročnik,_,_,_,_,_,569,NOUN,Ncmsg,nmod
570,3273-3279,Meden,_,_,_,_,_,570,PROPN,Npfsn,nmod
571,3280-3285,kopel,_,_,_,_,_,570,NOUN,Ncmsn,nmod
572,3286-3288,in,_,_,_,_,_,575,CCONJ,Cc,cc
573,3289-3295,tajski,_,_,_,_,_,575,ADJ,Agpfsn,amod
574,3296-3302,masaž,_,_,_,_,_,572,NOUN,Ncfsa,conj
575,3303-3304,z,_,_,_,_,_,577,ADP,Si,case
576,3305-3311,mleko,_,_,_,_,_,575,NOUN,Ncnsi,nmod
577,3312-3314,za,_,_,_,_,_,580,ADP,Sa,case
578,3315-3318,dva,_,_,_,_,_,580,NUM,Mlcfda,nummod
579,3319-3324,oseba,_,_,_,_,_,577,NOUN,Ncfda,nmod
580,3325-3335,romantičen,_,_,_,_,_,582,ADJ,Agpfsn,amod
581,3336-3341,kopel,_,_,_,_,_,577,NOUN,Ncfsa,nmod
582,3342-3344,za,_,_,_,_,_,585,ADP,Sa,case
583,3345-3346,2,_,_,_,_,_,585,NUM,Mdc,nummod
584,3347-3352,oseba,_,_,_,_,_,582,NOUN,Ncfda,nmod
585,3353-3355,in,_,_,_,_,_,587,CCONJ,Cc,cc
586,3356-3366,sprostitev,_,_,_,_,_,585,NOUN,Ncfsa,conj
587,3367-3368,z,_,_,_,_,_,590,ADP,Si,case
588,3369-3375,tajski,_,_,_,_,_,590,ADJ,Agpfsi,amod
589,3376-3382,masaža,_,_,_,_,_,587,NOUN,Ncfsi,nmod
590,3383-3384,z,_,_,_,_,_,592,ADP,Si,case
591,3385-3391,mleko,_,_,_,_,_,590,NOUN,Ncnsi,nmod
592,3392-3393,.,_,_,_,_,_,581,PUNCT,Z,punct
593,3394-3400,kopel,_,_,_,_,_,569,NOUN,Ncmsi,conj
594,3401-3403,in,_,_,_,_,_,596,CCONJ,Cc,cc
595,3404-3410,masaža,_,_,_,_,_,594,NOUN,Ncfsa,conj
596,3411-3416,slediti,_,_,_,_,_,581,VERB,Vmpr3s,conj
597,3417-3424,večerja,_,_,_,_,_,597,NOUN,Ncfsn,nsubj
598,3425-3427,za,_,_,_,_,_,601,ADP,Sa,case
599,3428-3431,dva,_,_,_,_,_,601,NUM,Mlcfda,nummod
600,3432-3437,oseba,_,_,_,_,_,598,NOUN,Ncfda,nmod
601,3438-3439,.,_,_,_,_,_,597,PUNCT,Z,punct
602,3440-3445,Kopel,_,_,_,_,_,594,PROPN,Npmsan,nmod
603,3446-3453,vsebovati,_,_,_,_,_,62,VERB,Vmpr3s,parataxis
604,3454-3461,dodatek,_,_,_,_,_,604,NOUN,Ncmsan,obj
605,3462-3468,meden,_,_,_,_,_,605,NOUN,Ncfsg,nmod
606,3469-3476,kopalen,_,_,_,_,_,608,ADJ,Agpfsg,amod
607,3477-3481,sol,_,_,_,_,_,606,NOUN,Ncfsg,nmod
608,3482-3483,z,_,_,_,_,_,611,ADP,Si,case
609,3484-3493,eteričen,_,_,_,_,_,611,ADJ,Agpnsi,amod
610,3494-3499,oljem,_,_,_,_,_,608,NOUN,Ncnsi,nmod
611,3500-3514,poživljajoč,_,_,_,_,_,613,ADJ,Appmsg,amod
612,3515-3522,jasmin,_,_,_,_,_,611,NOUN,Ncfsn,nmod
613,3523-3524,.,_,_,_,_,_,62,PUNCT,Z,punct
614,3525-3534,doživetje,_,_,_,_,_,616,NOUN,Ncnsn,nsubj
615,3535-3544,vključevati,_,_,_,_,_,62,VERB,Vmpr3s,parataxis
616,3545-3554,postrežba,_,_,_,_,_,616,NOUN,Ncfsa,obj
617,3555-3565,zeliščen,_,_,_,_,_,619,ADJ,Agpmsg,amod
618,3566-3570,čaj,_,_,_,_,_,617,NOUN,Ncmsg,nmod
619,3571-3572,z,_,_,_,_,_,621,ADP,Si,case
620,3573-3578,med,_,_,_,_,_,619,NOUN,Ncmsi,nmod
621,3579-3580,.,_,_,_,_,_,616,PUNCT,Z,punct
622,3581-3583,po,_,_,_,_,_,624,ADP,Sl,case
623,3584-3590,kopel,_,_,_,_,_,627,NOUN,Ncfsl,obl
624,3591-3593,se,_,_,_,_,_,627,PRON,Px------y,expl
625,3594-3604,udeleženca,_,_,_,_,_,627,NOUN,Ncmdn,nsubj
626,3605-3614,sprostiti,_,_,_,_,_,616,VERB,Vmer3d,conj
627,3615-3616,v,_,_,_,_,_,630,ADP,Sl,case
628,3617-3623,tajski,_,_,_,_,_,630,ADJ,Agpfsl,amod
629,3624-3630,masaža,_,_,_,_,_,627,NOUN,Ncfsl,obl
630,3631-3632,z,_,_,_,_,_,632,ADP,Si,case
631,3633-3639,mleko,_,_,_,_,_,630,NOUN,Ncnsi,nmod
632,3640-3641,",",_,_,_,_,_,627,PUNCT,Z,punct
633,3642-3647,zatem,_,_,_,_,_,638,ADV,Rgp,advmod
634,3648-3650,pa,_,_,_,_,_,638,CCONJ,Cc,advmod
635,3651-3653,se,_,_,_,_,_,638,PRON,Px---d--y,expl
636,3654-3657,oba,_,_,_,_,_,638,DET,Pg-mdn,nsubj
637,3658-3668,privoščiti,_,_,_,_,_,627,VERB,Vmbr3d,advcl
638,3669-3676,večerja,_,_,_,_,_,638,NOUN,Ncfsa,obj
639,3677-3678,v,_,_,_,_,_,643,ADP,Sl,case
640,3679-3680,a,_,_,_,_,_,642,CCONJ,Cc,cc
641,3681-3683,la,_,_,_,_,_,643,NOUN,Ncmsn,nmod
642,3684-3689,carta,_,_,_,_,_,639,NOUN,Ncfsl,nmod
643,3690-3702,restavracija,_,_,_,_,_,643,NOUN,Ncfsl,nmod
644,3703-3711,Wellness,ORG[2],0,*->4-1,*[4],3 - Nevtralno[8],644,NOUN,Ncmsn,nmod
645,3712-3717,Park,ORG[2],0,*->4-1,*[4],3 - Nevtralno[8],645,PROPN,Npmsg,nmod
646,3718-3723,Laško,ORG[2]|LOC[3],0,*->4-1|*->5-1,*[4]|*[5],3 - Nevtralno[8]|3 - Nevtralno[9],646,PROPN,Npnsn,nmod
647,3724-3725,.,_,_,_,_,_,638,PUNCT,Z,punct
648,3726-3730,foto,_,_,_,_,_,660,NOUN,Ncmsnn,nmod
649,3731-3736,arhiv,_,_,_,_,_,638,NOUN,Ncmsan,obj
650,3737-3746,naročnik,_,_,_,_,_,650,NOUN,Ncmsg,nmod
651,3747-3752,Kopel,_,_,_,_,_,651,PROPN,Npmsn,nmod
652,3753-3761,kokosov,_,_,_,_,_,654,ADJ,Aspfpg,amod
653,3762-3767,sanja,_,_,_,_,_,651,NOUN,Ncfpg,nmod
654,3768-3769,z,_,_,_,_,_,656,ADP,Si,case
655,3770-3777,večerja,_,_,_,_,_,654,NOUN,Ncfsi,nmod
656,3778-3780,za,_,_,_,_,_,659,ADP,Sa,case
657,3781-3784,dva,_,_,_,_,_,659,NUM,Mlcfda,nummod
658,3785-3790,oseba,_,_,_,_,_,656,NOUN,Ncfda,nmod
659,3791-3801,romantičen,_,_,_,_,_,661,ADJ,Agpfsn,amod
660,3802-3807,kopel,_,_,_,_,_,654,NOUN,Ncfsa,nmod
661,3808-3810,za,_,_,_,_,_,664,ADP,Sa,case
662,3811-3814,dva,_,_,_,_,_,664,NUM,Mlcfda,nummod
663,3815-3820,oseba,_,_,_,_,_,659,NOUN,Ncfda,nmod
664,3821-3822,z,_,_,_,_,_,666,ADP,Si,case
665,3823-3830,večerja,_,_,_,_,_,659,NOUN,Ncfsi,nmod
666,3831-3833,ob,_,_,_,_,_,668,ADP,Sl,case
667,3834-3838,soj,_,_,_,_,_,664,NOUN,Ncmsl,nmod
668,3839-3843,sveč,_,_,_,_,_,668,NOUN,Ncfpg,nmod
669,3844-3845,.,_,_,_,_,_,660,PUNCT,Z,punct
670,3846-3851,kopel,_,_,_,_,_,654,NOUN,Ncmsan,nmod
671,3852-3860,kokosov,_,_,_,_,_,673,ADJ,Aspfpa,amod
672,3861-3866,sanja,_,_,_,_,_,679,NOUN,Ncfpa,obj
673,3867-3870,ti,_,_,_,_,_,679,PRON,Pp2-pd,iobj
674,3871-3872,z,_,_,_,_,_,676,ADP,Si,case
675,3873-3880,pomoč,_,_,_,_,_,679,NOUN,Ncfsi,obl
676,3881-3889,prijeten,_,_,_,_,_,678,ADJ,Agpfsg,amod
677,3890-3895,aroma,_,_,_,_,_,676,NOUN,Ncfsg,nmod
678,3896-3903,pričarati,_,_,_,_,_,660,VERB,Vmer3s,conj
679,3904-3911,vzdušje,_,_,_,_,_,679,NOUN,Ncnsa,obj
680,3912-3914,iz,_,_,_,_,_,684,ADP,Sg,case
681,3915-3922,daljen,_,_,_,_,_,684,ADJ,Agpmpg,amod
682,3923-3929,topel,_,_,_,_,_,684,ADJ,Agpmpg,amod
683,3930-3936,kraj,_,_,_,_,_,680,NOUN,Ncmpg,nmod
684,3937-3938,.,_,_,_,_,_,679,PUNCT,Z,punct
685,3939-3944,Kopel,_,_,_,_,_,687,PROPN,Npmsan,obj
686,3945-3951,podariti,_,_,_,_,_,679,VERB,Vmer3s,conj
687,3952-3958,telo,_,_,_,_,_,687,NOUN,Ncnsd,obj
688,3959-3967,prijeten,_,_,_,_,_,692,ADJ,Agpmsan,amod
689,3968-3971,ter,_,_,_,_,_,691,CCONJ,Cc,cc
690,3972-3977,topel,_,_,_,_,_,689,ADJ,Agpmsan,conj
691,3978-3985,občutek,_,_,_,_,_,687,NOUN,Ncmsan,obj
692,3986-3989,ter,_,_,_,_,_,696,CCONJ,Cc,cc
693,3990-3992,on,_,_,_,_,_,696,PRON,Pp3msa--y,obj
694,3993-4002,istočasno,_,_,_,_,_,696,ADV,Rgp,advmod
695,4003-4010,napolniti,_,_,_,_,_,687,VERB,Vmer3s,conj
696,4011-4012,z,_,_,_,_,_,698,ADP,Si,case
697,4013-4021,energija,_,_,_,_,_,696,NOUN,Ncfsi,obl
698,4022-4023,.,_,_,_,_,_,679,PUNCT,Z,punct
699,4024-4029,Kopel,_,_,_,_,_,701,PROPN,Npmsn,nsubj
700,4030-4039,vključevati,_,_,_,_,_,679,VERB,Vmpr3s,conj
701,4040-4049,postrežba,_,_,_,_,_,701,NOUN,Ncfsa,obj
702,4050-4057,kozarec,_,_,_,_,_,702,NOUN,Ncmsg,nmod
703,4058-4064,penina,_,_,_,_,_,703,NOUN,Ncfsg,nmod
704,4065-4068,ter,_,_,_,_,_,707,CCONJ,Cc,cc
705,4069-4075,sladek,_,_,_,_,_,707,ADJ,Agpmsan,amod
706,4076-4085,prigrizek,_,_,_,_,_,703,NOUN,Ncmsan,conj
707,4086-4087,.,_,_,_,_,_,679,PUNCT,Z,punct
708,4088-4093,zatem,_,_,_,_,_,712,ADV,Rgp,advmod
709,4094-4099,lahko,_,_,_,_,_,712,ADV,Rgp,advmod
710,4100-4103,par,_,_,_,_,_,712,NOUN,Ncmsnn,obj
711,4104-4111,uživati,_,_,_,_,_,679,VERB,Vmpr3d,conj
712,4112-4113,v,_,_,_,_,_,715,ADP,Sl,case
713,4114-4125,prečudovit,_,_,_,_,_,715,ADJ,Agpfsl,amod
714,4126-4133,večerja,_,_,_,_,_,712,NOUN,Ncfsl,obl
715,4134-4136,ob,_,_,_,_,_,717,ADP,Sl,case
716,4137-4141,soj,_,_,_,_,_,715,NOUN,Ncmsl,nmod
717,4142-4146,sveč,_,_,_,_,_,717,NOUN,Ncfpg,nmod
718,4147-4148,.,_,_,_,_,_,712,PUNCT,Z,punct
719,4149-4153,foto,_,_,_,_,_,721,NOUN,Ncmsn,nmod
720,4154-4159,arhiv,_,_,_,_,_,712,NOUN,Ncmsn,nsubj
721,4160-4169,naročnik,_,_,_,_,_,721,NOUN,Ncmsg,nmod
722,4170-4180,romantičen,_,_,_,_,_,724,ADJ,Agpmsny,amod
723,4181-4186,paket,_,_,_,_,_,722,NOUN,Ncmsn,nmod
724,4187-4189,za,_,_,_,_,_,727,ADP,Sa,case
725,4190-4193,dva,_,_,_,_,_,727,NUM,Mlcfda,nummod
726,4194-4199,oseba,_,_,_,_,_,724,NOUN,Ncfda,nmod
727,4200-4201,v,_,_,_,_,_,729,ADP,Sl,case
728,4202-4212,apartma,_,_,_,_,_,724,NOUN,Ncmpl,nmod
729,4213-4217,skok,_,_,_,_,_,729,NOUN,Ncmsn,nmod
730,4218-4225,Mozirje,LOC,_,*->6-1,*[6],_,730,PROPN,Npnsn,nmod
731,4226-4228,ko,_,_,_,_,_,733,SCONJ,Cs,mark
732,4229-4231,biti,_,_,_,_,_,724,VERB,Va-r3s-n,acl
733,4232-4242,obveznost,_,_,_,_,_,733,NOUN,Ncfpg,nsubj
734,4243-4249,preveč,_,_,_,_,_,733,DET,Rgp,advmod
735,4250-4251,",",_,_,_,_,_,738,PUNCT,Z,punct
736,4252-4254,ko,_,_,_,_,_,738,SCONJ,Cs,mark
737,4255-4257,biti,_,_,_,_,_,733,VERB,Va-r3s-n,advcl
738,4258-4263,treba,_,_,_,_,_,738,ADV,Rgp,advmod
739,4264-4273,napolniti,_,_,_,_,_,738,VERB,Vmen,csubj
740,4274-4282,baterija,_,_,_,_,_,740,NOUN,Ncfpa,obj
741,4283-4284,",",_,_,_,_,_,738,PUNCT,Z,punct
742,4285-4287,biti,_,_,_,_,_,745,AUX,Va-r3s-n,cop
743,4288-4290,že,_,_,_,_,_,745,PART,Q,advmod
744,4291-4297,kratek,_,_,_,_,_,746,ADJ,Agpmsnn,amod
745,4298-4303,oddih,_,_,_,_,_,712,NOUN,Ncmsn,nsubj
746,4304-4306,in,_,_,_,_,_,748,CCONJ,Cc,cc
747,4307-4312,pobeg,_,_,_,_,_,746,NOUN,Ncmsn,conj
748,4313-4315,iz,_,_,_,_,_,750,ADP,Sg,case
749,4316-4325,realnost,_,_,_,_,_,748,NOUN,Ncfsg,nmod
750,4326-4329,kot,_,_,_,_,_,752,SCONJ,Cs,case
751,4330-4336,balzam,_,_,_,_,_,746,NOUN,Ncmsan,obl
752,4337-4339,za,_,_,_,_,_,754,ADP,Sa,case
753,4340-4344,duša,_,_,_,_,_,752,NOUN,Ncfsa,nmod
754,4345-4347,za,_,_,_,_,_,756,ADP,Sa,case
755,4348-4351,oba,_,_,_,_,_,754,DET,Pg-mda,nmod
756,4352-4353,.,_,_,_,_,_,745,PUNCT,Z,punct
757,4354-4362,uživanje,_,_,_,_,_,746,NOUN,Ncnsa,conj
758,4363-4364,v,_,_,_,_,_,760,ADP,Sl,case
759,4365-4369,mir,_,_,_,_,_,758,NOUN,Ncmsl,nmod
760,4370-4371,z,_,_,_,_,_,764,ADP,Si,case
761,4372-4377,svoj,_,_,_,_,_,764,DET,Px-fsi,det
762,4378-4387,lep,_,_,_,_,_,764,ADJ,Agsfsi,amod
763,4388-4393,oseba,_,_,_,_,_,760,NOUN,Ncfsi,nmod
764,4394-4396,biti,_,_,_,_,_,766,AUX,Va-r3s-n,cop
765,4397-4401,pik,_,_,_,_,_,758,NOUN,Ncfsn,acl
766,4402-4404,na,_,_,_,_,_,768,ADP,Sa,case
767,4405-4406,i,_,_,_,_,_,766,NOUN,Ncmsn,nmod
768,4407-4409,in,_,_,_,_,_,771,CCONJ,Cc,cc
769,4410-4413,kar,_,_,_,_,_,771,PRON,Pr-nsa,obj
770,4414-4423,potrebovati,_,_,_,_,_,766,VERB,Vmpr3s,acl
771,4424-4432,današnji,_,_,_,_,_,773,ADJ,Agpmsay,amod
772,4433-4439,človek,_,_,_,_,_,771,NOUN,Ncmsan,obj
773,4440-4441,.,_,_,_,_,_,766,PUNCT,Z,punct
774,4442-4451,doživetje,_,_,_,_,_,776,NOUN,Ncnsn,nsubj
775,4452-4458,obsegati,_,_,_,_,_,766,VERB,Vmpr3s,acl
776,4459-4460,2,_,_,_,_,_,778,NUM,Mdc,nummod
777,4461-4464,dan,_,_,_,_,_,776,NOUN,Ncmpg,obl
778,4465-4466,1,_,_,_,_,_,780,NUM,Mdc,nummod
779,4467-4474,nočitev,_,_,_,_,_,778,NOUN,Ncfsn,nmod
780,4475-4476,v,_,_,_,_,_,782,ADP,Sl,case
781,4477-4487,apartma,_,_,_,_,_,780,NOUN,Ncmpl,nmod
782,4488-4489,*,_,_,_,_,_,780,PUNCT,Z,punct
783,4490-4491,*,_,_,_,_,_,787,PUNCT,Z,punct
784,4492-4493,*,_,_,_,_,_,787,PUNCT,Z,punct
785,4494-4495,*,_,_,_,_,_,787,PUNCT,Z,punct
786,4496-4500,skok,_,_,_,_,_,780,NOUN,Ncmsn,nmod
787,4501-4508,Mozirje,LOC,0,*->6-2,*[6],3 - Nevtralno,787,PROPN,Npnsn,nmod
788,4509-4510,z,_,_,_,_,_,790,ADP,Si,case
789,4511-4522,razvajanje,_,_,_,_,_,787,NOUN,Ncnsi,nmod
790,4523-4524,v,_,_,_,_,_,792,ADP,Sl,case
791,4525-4534,wellness,_,_,_,_,_,790,NOUN,Ncmsl,nmod
792,4535-4536,.,_,_,_,_,_,787,PUNCT,Z,punct
793,4537-4541,foto,_,_,_,_,_,795,NOUN,Ncmsn,nmod
794,4542-4547,arhiv,_,_,_,_,_,787,NOUN,Ncmsn,conj
795,4548-4557,naročnik,_,_,_,_,_,795,NOUN,Ncmsg,nmod
796,4558-4566,lebdenje,_,_,_,_,_,795,NOUN,Ncnsn,nmod
797,4567-4568,v,_,_,_,_,_,799,ADP,Sl,case
798,4569-4575,komor,_,_,_,_,_,796,NOUN,Ncfsl,nmod
799,4576-4584,Timeless,_,_,_,_,_,799,PROPN,Npmsn,nmod
800,4585-4593,lebdenje,_,_,_,_,_,800,NOUN,Ncnsn,nmod
801,4594-4596,biti,_,_,_,_,_,808,AUX,Va-r3s-n,cop
802,4597-4604,najbolj,_,_,_,_,_,804,ADV,Rgs,advmod
803,4605-4615,učinkovit,_,_,_,_,_,805,ADJ,Agpnsn,conj
804,4616-4628,protistresen,_,_,_,_,_,808,ADJ,Agpnsn,amod
805,4629-4631,in,_,_,_,_,_,807,CCONJ,Cc,cc
806,4632-4644,sprostitven,_,_,_,_,_,805,ADJ,Agpnsn,conj
807,4645-4653,sredstvo,_,_,_,_,_,787,NOUN,Ncnsn,conj
808,4654-4655,",",_,_,_,_,_,811,PUNCT,Z,punct
809,4656-4658,ki,_,_,_,_,_,811,SCONJ,Cs,mark
810,4659-4661,biti,_,_,_,_,_,808,VERB,Va-r3s-n,acl
811,4662-4664,na,_,_,_,_,_,813,ADP,Sa,case
812,4665-4670,volja,_,_,_,_,_,811,NOUN,Ncfsa,obl
813,4671-4672,.,_,_,_,_,_,808,PUNCT,Z,punct
814,4673-4682,doživetje,_,_,_,_,_,816,NOUN,Ncnsn,nsubj
815,4683-4688,trajati,_,_,_,_,_,808,VERB,Vmpr3s,acl
816,4689-4691,90,_,_,_,_,_,818,NUM,Mdc,nummod
817,4692-4697,minuta,_,_,_,_,_,816,NOUN,Ncfpg,obl
818,4698-4699,",",_,_,_,_,_,824,PUNCT,Z,punct
819,4700-4702,od,_,_,_,_,_,821,ADP,Sg,case
820,4703-4711,kateri,_,_,_,_,_,824,DET,Pq-msg,det
821,4712-4720,lebdenje,_,_,_,_,_,818,NOUN,Ncnsn,acl
822,4721-4723,60,_,_,_,_,_,824,NUM,Mdc,nummod
823,4724-4729,minuta,_,_,_,_,_,822,NOUN,Ncfpg,nmod
824,4730-4731,.,_,_,_,_,_,816,PUNCT,Z,punct
825,4732-4738,komor,_,_,_,_,_,822,NOUN,Ncfsn,nmod
826,4739-4741,za,_,_,_,_,_,828,ADP,Sa,case
827,4742-4750,lebdenje,_,_,_,_,_,826,NOUN,Ncnsa,nmod
828,4751-4753,biti,_,_,_,_,_,830,AUX,Va-r3s-n,cop
829,4754-4764,sproščujoč,_,_,_,_,_,824,ADJ,Appmsnn,acl
830,4765-4766,",",_,_,_,_,_,832,PUNCT,Z,punct
831,4767-4772,varen,_,_,_,_,_,830,ADJ,Agpmsnn,conj
832,4773-4775,in,_,_,_,_,_,834,CCONJ,Cc,cc
833,4776-4782,ugoden,_,_,_,_,_,830,ADJ,Agpmsnn,conj
834,4783-4790,prostor,_,_,_,_,_,830,NOUN,Ncmsn,nsubj
835,4791-4792,",",_,_,_,_,_,839,PUNCT,Z,punct
836,4793-4797,kjer,_,_,_,_,_,839,SCONJ,Cs,mark
837,4798-4803,lahko,_,_,_,_,_,839,ADV,Rgp,advmod
838,4804-4812,dosegati,_,_,_,_,_,835,VERB,Vmpr2p,acl
839,4813-4820,najbolj,_,_,_,_,_,841,ADV,Rgs,advmod
840,4821-4831,kakovosten,_,_,_,_,_,842,ADJ,Agpnpa,amod
841,4832-4838,stanje,_,_,_,_,_,839,NOUN,Ncnpa,obj
842,4839-4846,zavest,_,_,_,_,_,842,NOUN,Ncfsg,nmod
843,4847-4848,.,_,_,_,_,_,839,PUNCT,Z,punct
844,4849-4855,komor,_,_,_,_,_,847,NOUN,Ncfsn,nsubj
845,4856-4859,ti,_,_,_,_,_,847,PRON,Pp2-pd,iobj
846,4860-4870,zagotavljati,_,_,_,_,_,830,VERB,Vmpr3s,conj
847,4871-4877,popoln,_,_,_,_,_,849,ADJ,Agpmsan,amod
848,4878-4881,mir,_,_,_,_,_,847,NOUN,Ncmsan,obj
849,4882-4883,",",_,_,_,_,_,852,PUNCT,Z,punct
850,4884-4892,umirjen,_,_,_,_,_,852,ADJ,Appfsa,amod
851,4893-4904,sproščenost,_,_,_,_,_,849,NOUN,Ncfsa,conj
852,4905-4906,",",_,_,_,_,_,851,PUNCT,Z,punct
853,4907-4916,odpravljati,_,_,_,_,_,851,VERB,Vmpr3s,conj
854,4917-4927,utrujenost,_,_,_,_,_,854,NOUN,Ncfsa,obj
855,4928-4929,",",_,_,_,_,_,857,PUNCT,Z,punct
856,4930-4936,delovati,_,_,_,_,_,855,VERB,Vmpr3s,acl
857,4937-4949,protistresen,_,_,_,_,_,849,ADJ,Agpnsa,amod
858,4950-4952,in,_,_,_,_,_,860,CCONJ,Cc,cc
859,4953-4968,protibolečinski,_,_,_,_,_,858,ADJ,Agpnsa,conj
860,4969-4970,",",_,_,_,_,_,862,PUNCT,Z,punct
861,4971-4978,napolniti,_,_,_,_,_,857,VERB,Vmer3s,conj
862,4979-4982,vas,_,_,_,_,_,862,NOUN,Ncfsa,obj
863,4983-4984,z,_,_,_,_,_,865,ADP,Si,case
864,4985-4993,energija,_,_,_,_,_,863,NOUN,Ncfsi,nmod
865,4994-4995,.,_,_,_,_,_,868,PUNCT,Z,punct
866,4996-5000,kako,_,_,_,_,_,868,ADV,Rgp,advmod
867,5001-5007,delovati,_,_,_,_,_,862,VERB,Vmpr3s,ccomp
868,5008-5014,komor,_,_,_,_,_,868,NOUN,Ncfsn,nsubj
869,5015-5017,za,_,_,_,_,_,871,ADP,Sa,case
870,5018-5026,lebdenje,_,_,_,_,_,869,NOUN,Ncnsa,nmod
871,5027-5028,?,_,_,_,_,_,868,PUNCT,Z,punct
872,5029-5035,komor,_,_,_,_,_,877,NOUN,Ncfsn,nsubj
873,5036-5038,biti,_,_,_,_,_,877,AUX,Va-r3s-n,cop
874,5039-5045,majhen,_,_,_,_,_,877,ADJ,Agpmsnn,amod
875,5046-5052,pokrit,_,_,_,_,_,877,ADJ,Appmsnn,amod
876,5053-5058,bazen,_,_,_,_,_,868,NOUN,Ncmsn,nsubj
877,5059-5060,",",_,_,_,_,_,886,PUNCT,Z,punct
878,5061-5062,v,_,_,_,_,_,880,ADP,Sl,case
879,5063-5070,kateri,_,_,_,_,_,886,DET,Pq-msl,obl
880,5071-5073,biti,_,_,_,_,_,886,AUX,Va-r3s-n,cop
881,5074-5076,25,_,_,_,_,_,883,NUM,Mdc,nummod
882,5077-5079,cm,_,_,_,_,_,886,NOUN,Ncmsn,nsubj
883,5080-5085,topel,_,_,_,_,_,885,ADJ,Agpfsg,amod
884,5086-5090,voda,_,_,_,_,_,883,NOUN,Ncfsg,nmod
885,5091-5099,nasičen,_,_,_,_,_,877,ADJ,Appfsn,acl
886,5100-5101,z,_,_,_,_,_,889,ADP,Si,case
887,5102-5110,Epsomov,_,_,_,_,_,889,ADJ,Aspfsi,amod
888,5111-5116,sol,_,_,_,_,_,886,NOUN,Ncfsi,obl
889,5117-5119,in,_,_,_,_,_,891,CCONJ,Cc,cc
890,5120-5128,uravnavati,_,_,_,_,_,886,VERB,Vmpr3s,conj
891,5129-5137,številen,_,_,_,_,_,893,ADJ,Agpmpa,amod
892,5138-5144,pogoj,_,_,_,_,_,891,NOUN,Ncmpa,obj
893,5145-5146,",",_,_,_,_,_,896,PUNCT,Z,punct
894,5147-5149,ki,_,_,_,_,_,896,SCONJ,Cs,mark
895,5150-5162,zagotavljati,_,_,_,_,_,893,VERB,Vmpr3p,acl
896,5163-5171,resnično,_,_,_,_,_,898,ADJ,Agpfsa,amod
897,5172-5182,sprostitev,_,_,_,_,_,896,NOUN,Ncfsa,obj
898,5183-5191,Epsomov,_,_,_,_,_,900,ADJ,Aspfsn,amod
899,5192-5201,raztopina,_,_,_,_,_,898,NOUN,Ncfsn,nmod
900,5202-5209,omogočati,_,_,_,_,_,893,VERB,Vmpr3s,acl
901,5210-5218,lebdenje,_,_,_,_,_,901,NOUN,Ncnsa,obj
902,5219-5223,brez,_,_,_,_,_,907,ADP,Sg,case
903,5224-5232,kakršen,_,_,_,_,_,907,DET,Pq-mpg,det
904,5233-5237,koli,_,_,_,_,_,904,PART,Q,fixed
905,5238-5246,fizičen,_,_,_,_,_,907,ADJ,Agpmpg,amod
906,5247-5254,napor,_,_,_,_,_,902,NOUN,Ncmpg,nmod
907,5255-5256,.,_,_,_,_,_,901,PUNCT,Z,punct
908,5257-5263,komor,_,_,_,_,_,911,NOUN,Ncfsn,nsubj
909,5264-5266,biti,_,_,_,_,_,911,AUX,Va-r3s-n,cop
910,5267-5273,zvočen,_,_,_,_,_,907,ADJ,Agpfsn,acl
911,5274-5276,in,_,_,_,_,_,913,CCONJ,Cc,cc
912,5277-5286,svetloben,_,_,_,_,_,914,ADV,Rgp,advmod
913,5287-5296,izoliran,_,_,_,_,_,911,ADJ,Appfsn,conj
914,5297-5300,ter,_,_,_,_,_,916,CCONJ,Cc,cc
915,5301-5308,omogočati,_,_,_,_,_,914,VERB,Vmpr3s,conj
916,5309-5316,popoln,_,_,_,_,_,918,ADJ,Agpfsa,amod
917,5317-5321,tema,_,_,_,_,_,916,NOUN,Ncfsa,obj
918,5322-5323,",",_,_,_,_,_,920,PUNCT,Z,punct
919,5324-5327,mir,_,_,_,_,_,918,NOUN,Ncmsan,conj
920,5328-5330,in,_,_,_,_,_,922,CCONJ,Cc,cc
921,5331-5337,tišina,_,_,_,_,_,918,NOUN,Ncfsa,conj
922,5338-5339,.,_,_,_,_,_,911,PUNCT,Z,punct
923,5340-5351,temperatura,_,_,_,_,_,927,NOUN,Ncfsn,nsubj
924,5352-5356,voda,_,_,_,_,_,924,NOUN,Ncfsg,nmod
925,5357-5359,biti,_,_,_,_,_,927,AUX,Va-r3s-n,cop
926,5360-5371,prilagojen,_,_,_,_,_,911,ADJ,Appfsn,conj
927,5372-5383,temperatura,_,_,_,_,_,927,NOUN,Ncfsd,obj
928,5384-5388,koža,_,_,_,_,_,928,NOUN,Ncfsg,nmod
929,5389-5391,ob,_,_,_,_,_,931,ADP,Sl,case
930,5392-5402,sprostitev,_,_,_,_,_,928,NOUN,Ncfsl,nmod
931,5403-5404,",",_,_,_,_,_,941,PUNCT,Z,punct
932,5405-5409,tako,_,_,_,_,_,941,CCONJ,Cc,cc
933,5410-5412,da,_,_,_,_,_,933,SCONJ,Cs,fixed
934,5413-5415,se,_,_,_,_,_,941,PRON,Px------y,expl
935,5416-5420,meja,_,_,_,_,_,941,NOUN,Ncfpn,nsubj
936,5421-5427,telo,_,_,_,_,_,936,NOUN,Ncnsg,nmod
937,5428-5430,in,_,_,_,_,_,939,CCONJ,Cc,cc
938,5431-5437,okolje,_,_,_,_,_,937,NOUN,Ncnsg,conj
939,5438-5444,povsem,_,_,_,_,_,941,ADV,Rgp,advmod
940,5445-5454,zabrisati,_,_,_,_,_,931,VERB,Vmer3p,acl
941,5455-5457,in,_,_,_,_,_,943,CCONJ,Cc,cc
942,5458-5467,omogočen,_,_,_,_,_,941,ADJ,Appfsn,conj
943,5468-5470,biti,_,_,_,_,_,943,AUX,Va-r3s-n,cop
944,5471-5478,popoln,_,_,_,_,_,946,ADJ,Agpfsn,amod
945,5479-5489,sprostitev,_,_,_,_,_,943,NOUN,Ncfsn,nsubj
946,5490-5491,.,_,_,_,_,_,941,PUNCT,Z,punct
947,5492-5493,v,_,_,_,_,_,949,ADP,Sl,case
948,5494-5500,komor,_,_,_,_,_,953,NOUN,Ncfsl,obl
949,5501-5503,za,_,_,_,_,_,951,ADP,Sa,case
950,5504-5512,lebdenje,_,_,_,_,_,949,NOUN,Ncnsa,nmod
951,5513-5517,telo,_,_,_,_,_,953,NOUN,Ncnsa,obj
952,5518-5524,doseči,_,_,_,_,_,941,VERB,Vmer3s,conj
953,5525-5532,stopnja,_,_,_,_,_,953,NOUN,Ncfsa,obj
954,5533-5540,počitek,_,_,_,_,_,954,NOUN,Ncmsg,nmod
955,5541-5542,",",_,_,_,_,_,961,PUNCT,Z,punct
956,5543-5545,ki,_,_,_,_,_,961,SCONJ,Cs,mark
957,5546-5548,biti,_,_,_,_,_,961,AUX,Va-r3s-n,cop
958,5549-5555,veliko,_,_,_,_,_,960,DET,Rgp,advmod
959,5556-5560,bolj,_,_,_,_,_,961,ADV,Rgc,advmod
960,5561-5571,učinkovit,_,_,_,_,_,955,ADJ,Agpfsn,acl
961,5572-5575,kot,_,_,_,_,_,964,SCONJ,Cs,case
962,5576-5587,popoldanski,_,_,_,_,_,964,ADJ,Agpnsn,amod
963,5588-5596,dremanje,_,_,_,_,_,961,NOUN,Ncnsn,obl
964,5597-5599,in,_,_,_,_,_,967,CCONJ,Cc,cc
965,5600-5604,celo,_,_,_,_,_,961,PART,Q,advmod
966,5605-5611,spanje,_,_,_,_,_,964,NOUN,Ncnsn,conj
967,5612-5613,!,_,_,_,_,_,961,PUNCT,Z,punct
968,5614-5618,foto,_,_,_,_,_,970,NOUN,Ncmsn,nmod
969,5619-5624,arhiv,_,_,_,_,_,977,NOUN,Ncmsn,nsubj
970,5625-5634,naročnik,_,_,_,_,_,970,NOUN,Ncmsg,nmod
971,5635-5637,za,_,_,_,_,_,974,ADP,Sa,case
972,5638-5645,dodaten,_,_,_,_,_,974,ADJ,Agpfpa,amod
973,5646-5657,informacija,_,_,_,_,_,971,NOUN,Ncfpa,nmod
974,5658-5660,se,_,_,_,_,_,977,PRON,Px------y,expl
975,5661-5666,lahko,_,_,_,_,_,977,ADV,Rgp,advmod
976,5667-5674,obrniti,_,_,_,_,_,961,VERB,Vmer2p,conj
977,5675-5677,na,_,_,_,_,_,979,ADP,Sa,case
978,5678-5687,darilnica,ORG[4],0,*->7-1,*[7],3 - Nevtralno[10],977,NOUN,Ncfsa,obl
979,5688-5689,",",ORG[4],0,*->7-1,*[7],3 - Nevtralno[10],981,PUNCT,Z,punct
980,5690-5695,ideja,ORG[4],0,*->7-1,*[7],3 - Nevtralno[10],979,NOUN,Ncfpa,conj
981,5696-5698,za,ORG[4],0,*->7-1,*[7],3 - Nevtralno[10],983,ADP,Sa,case
982,5699-5705,darilo,ORG[4],0,*->7-1,*[7],3 - Nevtralno[10],981,NOUN,Ncnpa,nmod
983,5706-5707,",",ORG[4],0,*->7-1,*[7],3 - Nevtralno[10],985,PUNCT,Z,punct
984,5708-5709,d,ORG[4],0,*->7-1,*[7],3 - Nevtralno[10],983,NOUN,Ncmsn,conj
985,5710-5711,.,ORG[4],0,*->7-1,*[7],3 - Nevtralno[10],977,PUNCT,Z,punct
986,5712-5713,o,ORG[4],0,*->7-1,*[7],3 - Nevtralno[10],991,ADP,Sl,case
987,5714-5715,.,ORG[4],0,*->7-1,*[7],3 - Nevtralno[10],977,PUNCT,Z,punct
988,5716-5717,o,ORG[4],0,*->7-1,*[7],3 - Nevtralno[10],991,ADP,Sl,case
989,5718-5730,slamnikarski,LOC[5],0,*->8-1,*[8],3 - Nevtralno[11],991,ADJ,Agpfsn,amod
990,5731-5736,ulica,LOC[5],0,*->8-1,*[8],3 - Nevtralno[11],979,NOUN,Ncfsn,appos
991,5737-5738,6,LOC[5],0,*->8-1,*[8],3 - Nevtralno[11],993,NUM,Mdc,flat
992,5739-5743,1234,_,_,_,_,_,994,NUM,Mdc,nummod
993,5744-5750,Mengeš,LOC,0,*->9-1,*[9],3 - Nevtralno,995,PROPN,Npmsn,nmod
994,5751-5756,splet,_,_,_,_,_,991,NOUN,Ncmsn,nmod
995,5757-5761,http,_,_,_,_,_,995,NOUN,Ncmsn,nmod
996,5762-5763,/,_,_,_,_,_,999,PUNCT,Z,punct
997,5764-5765,/,_,_,_,_,_,999,PUNCT,Z,punct
998,5766-5782,wwwddarilnica.si,ORG,0,*->14-1,*[14],3 - Nevtralno,996,NUM,Mdc,conj
999,5783-5784,/,_,_,_,_,_,1001,PUNCT,Z,punct
1000,5785-5790,email,_,_,_,_,_,1002,NOUN,Ncmsn,nmod
1001,5791-5795,info,_,_,_,_,_,1003,NOUN,Ncmsn,nmod
1002,5796-5797,@,_,_,_,_,_,1005,PROPN,Npmsn,nmod
1003,5798-5810,darilnica.s,_,_,_,_,_,1005,NUM,Mdc,nummod
1004,5811-5816,pomoč,_,_,_,_,_,995,NOUN,Ncfsn,conj
1005,5817-5820,pri,_,_,_,_,_,1007,ADP,Sl,case
1006,5821-5827,nakup,_,_,_,_,_,1005,NOUN,Ncmsl,nmod
1007,5828-5831,040,_,_,_,_,_,1007,NUM,Mdc,nummod
1008,5832-5835,416,_,_,_,_,_,1008,NUM,Mdc,conj
