idx,chars_idx,token,entity_type,sentiment,idk_1,idk_2,orig_sentiment,heads,upos,xpos,deprel
0,0-5,letos,_,_,_,_,_,6,ADV,Rgp,advmod
1,6-8,se,_,_,_,_,_,6,PRON,Px------y,expl
2,9-11,biti,_,_,_,_,_,6,AUX,Va-f3s-n,aux
3,12-17,obseg,_,_,_,_,_,6,NOUN,Ncmsn,nsubj
4,18-21,BDP,_,_,_,_,_,4,PROPN,Npmsn,nmod
5,22-28,skrčiti,_,_,_,_,_,0,VERB,Vmep-sm,root
6,29-31,za,_,_,_,_,_,11,ADP,Sa,case
7,32-35,"2,6",_,_,_,_,_,11,NUM,Mdc,nummod
8,36-37,",",_,_,_,_,_,27,PUNCT,Z,punct
9,38-47,prihodnji,_,_,_,_,_,11,ADJ,Agpnsa,amod
10,48-52,leto,_,_,_,_,_,27,NOUN,Ncnsa,obl
11,53-55,pa,_,_,_,_,_,15,CCONJ,Cc,cc
12,56-58,za,_,_,_,_,_,15,ADP,Sa,case
13,59-62,"0,7",_,_,_,_,_,15,NUM,Mdc,nummod
14,63-71,odstotek,_,_,_,_,_,11,NOUN,Ncmsg,conj
15,72-73,",",_,_,_,_,_,15,PUNCT,Z,punct
16,74-75,v,_,_,_,_,_,23,ADP,Sl,case
17,76-80,nov,_,_,_,_,_,23,ADJ,Agpfsl,amod
18,81-82,",",_,_,_,_,_,22,PUNCT,Z,punct
19,83-89,precej,_,_,_,_,_,22,ADV,Rgp,advmod
20,90-94,bolj,_,_,_,_,_,22,ADV,Rgc,advmod
21,95-107,pesimističen,_,_,_,_,_,18,ADJ,Agpfsl,conj
22,108-116,napoved,_,_,_,_,_,15,NOUN,Ncfsl,appos
23,117-119,od,_,_,_,_,_,25,ADP,Sg,case
24,120-129,predhoden,_,_,_,_,_,23,ADJ,Agpfsg,amod
25,130-131,",",_,_,_,_,_,27,PUNCT,Z,punct
26,132-142,napovedovati,_,_,_,_,_,6,VERB,Vmpr3s,parataxis
27,143-148,banka,ORG[1],_,*->8-1,*[8],_,27,NOUN,Ncfsn,nsubj
28,149-158,Slovenija,ORG[1]|ORG[2]|LOC[3],_,*->8-1|*->5-1,*[8]|*[5],_,28,PROPN,Npfsg,nmod
29,159-160,.,_,_,_,_,_,27,PUNCT,Z,punct
30,161-170,Črnogled,_,_,_,_,_,27,PROPN,Npmpn,nsubj
31,171-173,biti,_,_,_,_,_,31,AUX,Va-r3p-n,cop
32,174-178,tudi,_,_,_,_,_,27,PART,Q,advmod
33,179-180,v,_,_,_,_,_,35,ADP,Sl,case
34,181-184,IMF,ORG,_,*->1-1,*[1],_,27,PROPN,Npmsln,obl
35,185-186,.,_,_,_,_,_,27,PUNCT,Z,punct
36,187-196,Slovenija,ORG,_,*->5-2,*[5],_,45,PROPN,Npfsn,nsubj
37,197-199,biti,_,_,_,_,_,45,AUX,Va-f3s-n,cop
38,200-205,poleg,_,_,_,_,_,40,ADP,Sg,case
39,206-211,Cipra,ORG,_,*->2-1,*[2],_,45,PROPN,Npfsg,obl
40,212-221,naslednji,_,_,_,_,_,42,ADJ,Agpnsa,amod
41,222-226,leto,_,_,_,_,_,45,NOUN,Ncnsa,obl
42,227-232,edin,_,_,_,_,_,45,ADJ,Agpfsn,amod
43,233-239,evrski,_,_,_,_,_,45,ADJ,Agpfsn,amod
44,240-246,država,_,_,_,_,_,49,NOUN,Ncfsn,nsubj
45,247-248,v,_,_,_,_,_,47,ADP,Sl,case
46,249-257,recesija,_,_,_,_,_,45,NOUN,Ncfsl,nmod
47,258-259,",",_,_,_,_,_,45,PUNCT,Z,punct
48,260-272,napovedovati,_,_,*->1-2,*[1],_,6,VERB,Vmpr3p,parataxis
49,273-274,.,_,_,_,_,_,49,PUNCT,Z,punct
50,275-280,banka,ORG[4],_,*->8-2,*[8],_,54,NOUN,Ncfsn,nsubj
51,281-290,Slovenija,ORG[4]|LOC[5],_,*->8-2|*->5-3,*[8]|*[5],_,51,PROPN,Npfsg,nmod
52,291-293,biti,_,_,_,_,_,54,AUX,Va-r3s-n,aux
53,294-304,poslabšati,_,_,_,_,_,6,VERB,Vmep-sf,parataxis
54,305-316,gospodarski,_,_,_,_,_,56,ADJ,Agpfpa,amod
55,317-325,napoved,_,_,_,_,_,54,NOUN,Ncfpa,obj
56,326-328,za,_,_,_,_,_,58,ADP,Sa,case
57,329-338,Slovenija,ORG,_,*->5-4,*[5],_,56,PROPN,Npfsa,nmod
58,339-340,.,_,_,_,_,_,54,PUNCT,Z,punct
59,341-351,mednaroden,ORG[6],_,*->1-3,*[1],_,62,ADJ,Agpmsny,amod
60,352-359,denaren,ORG[6],_,*->1-3,*[1],_,62,ADJ,Agpmsny,amod
61,360-365,sklad,ORG[6],_,*->1-3,*[1],_,74,NOUN,Ncmsn,nsubj
62,366-369,IMF,ORG[6],_,*->1-3,*[1],_,62,PROPN,Npmsn,nmod
63,370-371,v,_,_,_,_,_,66,ADP,Sl,case
64,372-383,nov,_,_,_,_,_,66,ADJ,Agsnsl,amod
65,384-392,poročilo,_,_,_,_,_,74,NOUN,Ncnsl,obl
66,393-394,o,_,_,_,_,_,70,ADP,Sl,case
67,395-404,svetoven,_,_,_,_,_,70,ADJ,Agpmpl,amod
68,405-417,gospodarski,_,_,_,_,_,70,ADJ,Agpmpl,amod
69,418-424,obet,_,_,_,_,_,66,NOUN,Ncmpl,nmod
70,425-434,Slovenija,ORG,_,*->5-5,*[5],_,70,PROPN,Npfsl,nmod
71,435-437,za,_,_,_,_,_,73,ADP,Sa,case
72,438-443,letos,_,_,_,_,_,74,ADV,Rgp,advmod
73,444-454,napovedovati,_,_,_,_,_,54,VERB,Vmpr3s,parataxis
74,455-458,"2,6",_,_,_,_,_,77,NUM,Mdc,nummod
75,459-460,-,_,_,_,_,_,77,PUNCT,Z,punct
76,461-469,odstoten,_,_,_,_,_,78,ADJ,Agpmsay,amod
77,470-474,upad,_,_,_,_,_,74,NOUN,Ncmsan,obj
78,475-480,bruto,_,_,_,_,_,81,ADJ,Agpmsg,amod
79,481-489,domač,_,_,_,_,_,81,ADJ,Agpmsg,amod
80,490-499,proizvod,_,_,_,_,_,78,NOUN,Ncmsg,nmod
81,500-503,BDP,_,_,_,_,_,81,NOUN,Ncmsg,nmod
82,504-505,",",_,_,_,_,_,92,PUNCT,Z,punct
83,506-515,prihodnji,_,_,_,_,_,100,ADJ,Agpnsa,amod
84,516-520,leto,_,_,_,_,_,92,NOUN,Ncnsa,obl
85,521-523,pa,_,_,_,_,_,92,CCONJ,Cc,advmod
86,524-527,naj,_,_,_,_,_,92,PART,Q,advmod
87,528-530,biti,_,_,_,_,_,92,AUX,Va-c,aux
88,531-533,se,_,_,_,_,_,92,PRON,Px------y,expl
89,534-543,slovenski,_,_,_,_,_,91,ADJ,Agpnsn,amod
90,544-556,gospodarstvo,_,_,_,_,_,92,NOUN,Ncnsn,nsubj
91,557-564,skrčiti,_,_,_,_,_,74,VERB,Vmep-sn,parataxis
92,565-567,še,_,_,_,_,_,92,PART,Q,advmod
93,568-570,za,_,_,_,_,_,96,ADP,Sa,case
94,571-574,"1,4",_,_,_,_,_,96,NUM,Mdc,nummod
95,575-583,odstotek,_,_,_,_,_,92,NOUN,Ncmsg,obl
96,584-585,.,_,_,_,_,_,92,PUNCT,Z,punct
97,586-589,med,_,_,_,_,_,100,ADP,Si,case
98,590-598,evrski,_,_,_,_,_,100,ADJ,Agpfpi,amod
99,599-607,država,_,_,_,_,_,112,NOUN,Ncfpi,obl
100,608-611,naj,_,_,_,_,_,112,PART,Q,advmod
101,612-614,biti,_,_,_,_,_,112,AUX,Va-c,aux
102,615-618,biti,_,_,_,_,_,112,AUX,Va-p-sm,cop
103,619-624,poleg,_,_,_,_,_,105,ADP,Sg,case
104,625-634,Slovenija,ORG,_,*->5-6,*[5],_,112,PROPN,Npfsg,obl
105,635-644,prihodnji,_,_,_,_,_,107,ADJ,Agpnsa,amod
106,645-649,leto,_,_,_,_,_,112,NOUN,Ncnsa,obl
107,650-651,v,_,_,_,_,_,109,ADP,Sl,case
108,652-660,recesija,_,_,_,_,_,112,NOUN,Ncfsl,obl
109,661-663,le,_,_,_,_,_,112,PART,Q,advmod
110,664-666,še,_,_,_,_,_,112,PART,Q,advmod
111,667-672,Ciper,ORG,2,*->2-2,*[2],2 - Negativno,92,PROPN,Npmsn,nsubj
112,673-674,.,_,_,_,_,_,112,PUNCT,Z,punct
113,675-677,še,_,_,_,_,_,160,PART,Q,advmod
114,678-684,april,_,_,_,_,_,135,NOUN,Ncmsg,obl
115,685-687,biti,_,_,_,_,_,135,AUX,Va-r3s-n,aux
116,688-691,IMF,ORG,_,*->1-4,*[1],_,135,PROPN,Npmsn,nsubj
117,692-701,Slovenija,ORG,_,*->5-7,*[5],_,117,PROPN,Npfsd,flat:name
118,702-703,",",_,_,_,_,_,126,PUNCT,Z,punct
119,704-706,ki,_,_,_,_,_,126,SCONJ,Cs,mark
120,707-709,biti,_,_,_,_,_,126,AUX,Va-r3s-n,aux
121,710-714,lani,_,_,_,_,_,126,ADV,Rgp,advmod
122,715-717,po,_,_,_,_,_,125,ADP,Sl,case
123,718-729,revidiran,_,_,_,_,_,125,ADJ,Appmpl,amod
124,730-738,podatek,_,_,_,_,_,126,NOUN,Ncmpl,obl
125,739-747,beležiti,_,_,_,_,_,117,VERB,Vmpp-sf,acl
126,748-751,"2,5",_,_,_,_,_,129,NUM,Mdc,nummod
127,752-753,-,_,_,_,_,_,129,PUNCT,Z,punct
128,754-762,odstoten,_,_,_,_,_,130,ADJ,Agpmsay,amod
129,763-768,padec,_,_,_,_,_,126,NOUN,Ncmsan,obj
130,769-772,BDP,_,_,_,_,_,130,NOUN,Ncmsg,nmod
131,773-774,",",_,_,_,_,_,126,PUNCT,Z,punct
132,775-777,za,_,_,_,_,_,134,ADP,Sa,case
133,778-783,letos,_,_,_,_,_,135,ADV,Rgp,advmod
134,784-795,napovedovati,_,_,_,_,_,112,VERB,Vmpp-sm,acl
135,796-807,dvoodstoten,_,_,_,_,_,137,ADJ,Agpmsay,amod
136,808-813,padec,_,_,_,_,_,135,NOUN,Ncmsan,obj
137,814-815,",",_,_,_,_,_,135,PUNCT,Z,punct
138,816-817,v,_,_,_,_,_,140,ADP,Sl,case
139,818-822,leto,_,_,_,_,_,135,NOUN,Ncnsl,obl
140,823-827,2014,_,_,_,_,_,140,NUM,Mdc,nummod
141,828-830,pa,_,_,_,_,_,148,CCONJ,Cc,advmod
142,831-834,naj,_,_,_,_,_,148,PART,Q,advmod
143,835-837,biti,_,_,_,_,_,148,AUX,Va-c,aux
144,838-840,po,_,_,_,_,_,147,ADP,Sl,case
145,841-854,spomladanski,_,_,_,_,_,147,ADJ,Agpfpl,amod
146,855-861,ocena,_,_,_,_,_,148,NOUN,Ncfpl,obl
147,862-870,beležiti,_,_,_,_,_,135,VERB,Vmpp-sf,conj
148,871-874,"1,5",_,_,_,_,_,151,NUM,Mdc,nummod
149,875-876,-,_,_,_,_,_,151,PUNCT,Z,punct
150,877-885,odstoten,_,_,_,_,_,152,ADJ,Agpfsa,amod
151,886-890,rast,_,_,_,_,_,148,NOUN,Ncfsa,obj
152,891-892,.,_,_,_,_,_,148,PUNCT,Z,punct
153,893-897,zdaj,_,_,_,_,_,160,ADV,Rgp,advmod
154,898-900,biti,_,_,_,_,_,160,AUX,Va-r3s-n,aux
155,901-906,sklad,_,_,*->1-5,*[1],_,160,NOUN,Ncmsn,nsubj
156,907-909,ta,_,_,_,_,_,158,DET,Pd-fsg,det
157,910-918,napoved,_,_,_,_,_,156,NOUN,Ncfsg,nmod
158,919-927,bistveno,_,_,_,_,_,160,ADV,Rgp,advmod
159,928-937,poslabšati,_,_,_,_,_,148,VERB,Vmep-sm,parataxis
160,938-941,ter,_,_,_,_,_,164,CCONJ,Cc,cc
161,942-943,z,_,_,_,_,_,163,ADP,Si,case
162,944-947,ta,_,_,_,_,_,164,DET,Pd-nsi,obl
163,948-954,slediti,_,2,*->1-6,*[1],2 - Negativno,160,VERB,Vmpp-sm,conj
164,955-964,nekateri,_,_,_,_,_,170,DET,Pi-fpd,det
165,965-971,drug,_,_,_,_,_,170,ADJ,Mlpfpd,amod
166,972-983,mednaroden,_,_,_,_,_,170,ADJ,Agpfpd,amod
167,984-986,in,_,_,_,_,_,169,CCONJ,Cc,cc
168,987-994,domač,_,_,_,_,_,167,ADJ,Agpfpd,conj
169,995-1007,institucija,_,_,_,_,_,164,NOUN,Ncfpd,obj
170,1008-1009,.,_,_,_,_,_,160,PUNCT,Z,punct
171,1010-1015,banka,ORG[7],_,*->8-3,*[8],_,160,NOUN,Ncfsn,nsubj
172,1016-1025,Slovenija,ORG[7]|LOC[8],_,*->8-3|*->5-8,*[8]|*[5],_,172,PROPN,Npfsg,nmod
173,1026-1028,biti,_,_,_,_,_,180,AUX,Va-r3s-n,aux
174,1029-1031,za,_,_,_,_,_,179,ADP,Sa,case
175,1032-1037,letos,_,_,_,_,_,180,ADV,Rgp,advmod
176,1038-1040,in,_,_,_,_,_,180,CCONJ,Cc,cc
177,1041-1050,prihodnji,_,_,_,_,_,176,ADJ,Agpnsa,conj
178,1051-1055,leto,_,_,_,_,_,180,NOUN,Ncnsa,obl
179,1056-1066,poslabšati,_,_,_,_,_,160,VERB,Vmep-sf,conj
180,1067-1078,gospodarski,_,_,_,_,_,182,ADJ,Agpfpa,amod
181,1079-1087,napoved,_,_,_,_,_,180,NOUN,Ncfpa,obj
182,1088-1090,za,_,_,_,_,_,184,ADP,Sa,case
183,1091-1100,Slovenija,ORG,_,*->5-9,*[5],_,182,PROPN,Npfsa,nmod
184,1101-1102,.,_,_,_,_,_,180,PUNCT,Z,punct
185,1103-1108,letos,_,_,_,_,_,195,ADV,Rgp,advmod
186,1109-1112,naj,_,_,_,_,_,195,PART,Q,advmod
187,1113-1115,biti,_,_,_,_,_,195,AUX,Va-c,aux
188,1116-1118,se,_,_,_,_,_,195,PRON,Px------y,expl
189,1119-1124,obseg,_,_,_,_,_,195,NOUN,Ncmsn,nsubj
190,1125-1130,bruto,_,_,_,_,_,193,ADJ,Agpmsg,amod
191,1131-1139,domač,_,_,_,_,_,193,ADJ,Agpmsg,amod
192,1140-1149,proizvod,_,_,_,_,_,190,NOUN,Ncmsg,nmod
193,1150-1153,BDP,_,_,_,_,_,193,PROPN,Npmsn,nmod
194,1154-1160,skrčiti,_,_,_,_,_,160,VERB,Vmep-sm,parataxis
195,1161-1163,za,_,_,_,_,_,198,ADP,Sa,case
196,1164-1167,"2,6",_,_,_,_,_,198,NUM,Mdc,nummod
197,1168-1176,odstotek,_,_,_,_,_,195,NOUN,Ncmsg,obl
198,1177-1178,",",_,_,_,_,_,195,PUNCT,Z,punct
199,1179-1188,prihodnji,_,_,_,_,_,201,ADJ,Agpnsa,amod
200,1189-1193,leto,_,_,_,_,_,205,NOUN,Ncnsa,nmod
201,1194-1196,pa,_,_,_,_,_,205,CCONJ,Cc,cc
202,1197-1199,za,_,_,_,_,_,205,ADP,Sa,case
203,1200-1203,"0,7",_,_,_,_,_,205,NUM,Mdc,nummod
204,1204-1212,odstotek,_,_,_,_,_,198,NOUN,Ncmsg,appos
205,1213-1214,.,_,_,_,_,_,195,PUNCT,Z,punct
206,1215-1219,rast,_,_,_,_,_,212,NOUN,Ncfsa,obj
207,1220-1223,naj,_,_,_,_,_,212,PART,Q,advmod
208,1224-1226,biti,_,_,_,_,_,212,AUX,Va-c,aux
209,1227-1233,država,_,_,*->5-10,*[5],_,212,NOUN,Ncfsn,nsubj
210,1234-1240,vnovič,_,_,_,_,_,212,ADV,Rgp,advmod
211,1241-1248,doseči,_,_,_,_,_,195,VERB,Vmep-sf,parataxis
212,1249-1253,leto,_,_,_,_,_,212,NOUN,Ncnsg,obl
213,1254-1258,2015,_,_,_,_,_,213,NUM,Mdc,nummod
214,1259-1260,",",_,_,_,_,_,212,PUNCT,Z,punct
215,1261-1263,in,_,_,_,_,_,220,CCONJ,Cc,cc
216,1264-1269,sicer,_,_,_,_,_,220,PART,Q,advmod
217,1270-1273,"1,4",_,_,_,_,_,220,NUM,Mdc,nummod
218,1274-1275,-,_,_,_,_,_,220,PUNCT,Z,punct
219,1276-1284,odstoten,_,_,_,_,_,222,ADJ,Agpnsa,amod
220,1285-1286,.,_,_,_,_,_,212,PUNCT,Z,punct
221,1287-1292,banka,ORG[9],_,*->8-4,*[8],_,227,NOUN,Ncfsn,nsubj
222,1293-1302,Slovenija,ORG[9]|LOC[10],_,*->8-4|*->5-11,*[8]|*[5],_,222,PROPN,Npfsg,nmod
223,1303-1305,biti,_,_,_,_,_,227,AUX,Va-r3s-n,aux
224,1306-1307,z,_,_,_,_,_,226,ADP,Si,case
225,1308-1311,ta,_,_,_,_,_,227,DET,Pd-nsi,obl
226,1312-1319,slediti,_,_,_,_,_,212,VERB,Vmpp-sf,conj
227,1320-1325,urad,ORG[11],_,*->3-1,*[3],_,227,NOUN,Ncmsd,obj
228,1326-1328,RS,ORG[11]|ORG[12],_,*->3-1|*->5-12,*[3]|*[5],_,228,PROPN,Npfsg,nmod
229,1329-1331,za,ORG[11],_,*->3-1,*[3],_,232,ADP,Sa,case
230,1332-1346,makroekonomski,ORG[11],_,*->3-1,*[3],_,232,ADJ,Agpfpa,amod
231,1347-1354,analiza,ORG[11],_,*->3-1,*[3],_,229,NOUN,Ncfpa,nmod
232,1355-1357,in,ORG[11],_,*->3-1,*[3],_,234,CCONJ,Cc,cc
233,1358-1364,razvoj,ORG[11],_,*->3-1,*[3],_,232,NOUN,Ncmsan,conj
234,1365-1369,Umar,ORG[11],_,*->3-1,*[3],_,234,PROPN,Npmsg,nmod
235,1370-1371,",",_,_,_,_,_,227,PUNCT,Z,punct
236,1372-1378,vendar,_,_,_,_,_,244,CCONJ,Cc,cc
237,1379-1381,biti,_,_,_,_,_,244,AUX,Va-r3p-n,aux
238,1382-1387,njen,_,_,*->8-5,*[8],_,240,DET,Ps3fpnsf,det
239,1388-1396,napoved,_,_,_,_,_,244,NOUN,Ncfpn,nsubj
240,1397-1399,še,_,_,_,_,_,244,PART,Q,advmod
241,1400-1408,nekoliko,_,_,_,_,_,243,ADV,Rgp,advmod
242,1409-1413,bolj,_,_,_,_,_,244,ADV,Rgc,advmod
243,1414-1426,pesimističen,_,_,_,_,_,227,ADJ,Agpfpn,conj
244,1427-1428,.,_,_,_,_,_,244,PUNCT,Z,punct
245,1429-1433,Umar,ORG,_,*->3-2,*[3],_,250,PROPN,Npfsn,nsubj
246,1434-1440,namreč,_,_,_,_,_,250,CCONJ,Cc,advmod
247,1441-1443,za,_,_,_,_,_,249,ADP,Sa,case
248,1444-1449,letos,_,_,_,_,_,250,ADV,Rgp,advmod
249,1450-1460,napovedovati,_,_,_,_,_,244,VERB,Vmpr3s,csubj
250,1461-1464,"2,4",_,_,_,_,_,253,NUM,Mdc,nummod
251,1465-1466,-,_,_,_,_,_,253,PUNCT,Z,punct
252,1467-1475,odstoten,_,_,_,_,_,254,ADJ,Agpnsa,amod
253,1476-1483,krčenje,_,_,_,_,_,250,NOUN,Ncnsa,obj
254,1484-1487,BDP,_,_,_,_,_,254,NOUN,Ncmsg,nmod
255,1488-1489,",",_,_,_,_,_,263,PUNCT,Z,punct
256,1490-1492,za,_,_,_,_,_,259,ADP,Sa,case
257,1493-1502,prihodnji,_,_,_,_,_,259,ADJ,Agpnsa,amod
258,1503-1507,leto,_,_,_,_,_,272,NOUN,Ncnsa,obl
259,1508-1510,pa,_,_,_,_,_,263,CCONJ,Cc,cc
260,1511-1514,"0,8",_,_,_,_,_,263,NUM,Mdc,nummod
261,1515-1516,-,_,_,_,_,_,263,PUNCT,Z,punct
262,1517-1525,odstoten,_,_,_,_,_,254,ADJ,Agpnsa,amod
263,1526-1527,.,_,_,_,_,_,250,PUNCT,Z,punct
264,1528-1530,še,_,_,_,_,_,272,PART,Q,advmod
265,1531-1537,april,_,_,_,_,_,272,NOUN,Ncmsg,obl
266,1538-1540,biti,_,_,_,_,_,272,AUX,Va-r3s-n,aux
267,1541-1546,banka,ORG[13],_,*->8-6,*[8],_,272,NOUN,Ncfsn,nsubj
268,1547-1556,Slovenija,ORG[13]|LOC[14],_,*->8-6|*->5-13,*[8]|*[5],_,268,PROPN,Npfsg,nmod
269,1557-1559,za,_,_,_,_,_,271,ADP,Sa,case
270,1560-1565,letos,_,_,_,_,_,272,ADV,Rgp,advmod
271,1566-1578,napovedovati,_,_,_,_,_,250,VERB,Vmpp-sf,conj
272,1579-1586,krčenje,_,_,_,_,_,272,NOUN,Ncnsa,obj
273,1587-1590,BDP,_,_,_,_,_,273,NOUN,Ncmsg,nmod
274,1591-1593,za,_,_,_,_,_,277,ADP,Sa,case
275,1594-1597,"1,9",_,_,_,_,_,277,NUM,Mdc,nummod
276,1598-1606,odstotek,_,_,_,_,_,274,NOUN,Ncmsg,nmod
277,1607-1608,",",_,_,_,_,_,272,PUNCT,Z,punct
278,1609-1611,za,_,_,_,_,_,281,ADP,Sa,case
279,1612-1621,prihodnji,_,_,_,_,_,281,ADJ,Agpnsa,amod
280,1622-1626,leto,_,_,_,_,_,287,NOUN,Ncnsa,nmod
281,1627-1629,pa,_,_,_,_,_,287,CCONJ,Cc,cc
282,1630-1634,celo,_,_,_,_,_,287,PART,Q,advmod
283,1635-1638,"0,5",_,_,_,_,_,286,NUM,Mdc,nummod
284,1639-1640,-,_,_,_,_,_,286,PUNCT,Z,punct
285,1641-1649,odstoten,_,_,_,_,_,287,ADJ,Agpfsa,amod
286,1650-1654,rast,_,_,_,_,_,277,NOUN,Ncfsa,appos
287,1655-1656,.,_,_,_,_,_,272,PUNCT,Z,punct
288,1657-1659,za,_,_,_,_,_,290,ADP,Sa,case
289,1660-1664,leto,_,_,_,_,_,287,NOUN,Ncnsa,nmod
290,1665-1669,2015,_,_,_,_,_,290,NUM,Mdc,nummod
291,1670-1672,biti,_,_,_,_,_,297,AUX,Va-r3s-n,aux
292,1673-1681,osrednji,_,_,*->8-7,*[8],_,295,ADJ,Agpfsn,amod
293,1682-1690,finančen,_,_,*->8-7,*[8],_,295,ADJ,Agpfsn,amod
294,1691-1702,institucija,_,_,*->8-7,*[8],_,297,NOUN,Ncfsn,nsubj
295,1703-1707,bolj,_,_,_,_,_,297,ADV,Rgc,advmod
296,1708-1720,optimističen,_,_,_,_,_,287,ADJ,Agpfsn,amod
297,1721-1724,kot,_,_,_,_,_,299,SCONJ,Cs,case
298,1725-1729,Umar,ORG,_,*->3-3,*[3],_,297,PROPN,Npmsn,obl
299,1730-1731,.,_,_,_,_,_,297,PUNCT,Z,punct
300,1732-1741,Slovenija,ORG,_,*->5-14,*[5],_,297,PROPN,Npfsl,nmod
301,1742-1748,namreč,_,_,_,_,_,303,CCONJ,Cc,advmod
302,1749-1759,napovedovati,_,_,*->8-8,*[8],_,297,VERB,Vmpr3s,conj
303,1760-1763,"1,4",_,_,_,_,_,306,NUM,Mdc,nummod
304,1764-1765,-,_,_,_,_,_,306,PUNCT,Z,punct
305,1766-1774,odstoten,_,_,_,_,_,307,ADJ,Agpfsa,amod
306,1775-1779,rast,_,_,_,_,_,303,NOUN,Ncfsa,obj
307,1780-1781,",",_,_,_,_,_,312,PUNCT,Z,punct
308,1782-1788,medtem,_,_,_,_,_,312,ADV,Rgp,mark
309,1789-1791,ko,_,_,_,_,_,309,SCONJ,Cs,fixed
310,1792-1796,urad,_,2,*->3-4,*[3],2 - Negativno,312,NOUN,Ncmsn,nsubj
311,1797-1806,pričakovati,_,_,_,_,_,303,VERB,Vmpr3s,advcl
312,1807-1811,rast,_,_,_,_,_,312,NOUN,Ncfsa,obj
313,1812-1817,zgolj,_,_,_,_,_,312,PART,Q,advmod
314,1818-1819,v,_,_,_,_,_,316,ADP,Sl,case
315,1820-1826,višina,_,_,_,_,_,312,NOUN,Ncfsl,obl
316,1827-1830,"0,4",_,_,_,_,_,318,NUM,Mdc,nummod
317,1831-1839,odstotek,_,_,_,_,_,316,NOUN,Ncmsg,nmod
318,1840-1841,.,_,_,_,_,_,312,PUNCT,Z,punct
319,1842-1845,en,_,_,_,_,_,322,NUM,Mlpfsn,nummod
320,1846-1852,redek,_,_,_,_,_,322,ADJ,Agpfpg,amod
321,1853-1858,država,_,_,_,_,_,318,NOUN,Ncfpg,appos
322,1859-1860,",",_,_,_,_,_,326,PUNCT,Z,punct
323,1861-1863,ki,_,_,_,_,_,326,SCONJ,Cs,mark
324,1864-1866,biti,_,_,_,_,_,326,AUX,Va-f3s-n,aux
325,1867-1872,imeti,_,_,_,_,_,322,VERB,Vmpp-sf,acl
326,1873-1881,recesija,_,_,_,_,_,326,NOUN,Ncfsa,obj
327,1882-1891,Slovenija,ORG,_,*->5-15,*[5],_,327,PROPN,Npfsn,nmod
328,1892-1894,biti,_,_,_,_,_,332,AUX,Va-r3s-n,cop
329,1895-1898,en,_,_,_,_,_,332,NUM,Mlpfsn,nummod
330,1899-1905,redek,_,_,_,_,_,332,ADJ,Agpfpg,amod
331,1906-1911,država,_,_,_,_,_,326,NOUN,Ncfpg,obj
332,1912-1913,",",_,_,_,_,_,336,PUNCT,Z,punct
333,1914-1916,ki,_,_,_,_,_,336,SCONJ,Cs,mark
334,1917-1919,biti,_,_,_,_,_,336,AUX,Va-f3s-n,aux
335,1920-1925,imeti,_,_,*->11-1,*[11],_,332,VERB,Vmpp-sf,acl
336,1926-1935,prihodnji,_,_,_,_,_,338,ADJ,Agpnsa,amod
337,1936-1940,leto,_,_,_,_,_,336,NOUN,Ncnsa,obl
338,1941-1949,recesija,_,_,_,_,_,336,NOUN,Ncfsa,obj
339,1950-1951,.,_,_,_,_,_,326,PUNCT,Z,punct
340,1952-1957,raven,_,_,_,_,_,352,NOUN,Ncfsa,obj
341,1958-1969,gospodarski,_,_,_,_,_,343,ADJ,Agpfsg,amod
342,1970-1980,aktivnost,_,_,_,_,_,341,NOUN,Ncfsg,nmod
343,1981-1982,v,_,_,_,_,_,345,ADP,Sl,case
344,1983-1987,leto,_,_,_,_,_,343,NOUN,Ncnsl,nmod
345,1988-1992,2015,_,_,_,_,_,345,NUM,Mdc,nummod
346,1993-1995,biti,_,_,_,_,_,352,AUX,Va-f3s-n,cop
347,1996-1998,za,_,_,_,_,_,351,ADP,Sa,case
348,1999-2004,okoli,_,_,_,_,_,350,ADV,Rgp,advmod
349,2005-2007,10,_,_,_,_,_,351,NUM,Mdc,nummod
350,2008-2017,odstotek,_,_,_,_,_,352,NOUN,Ncmpg,obl
351,2018-2023,nizek,_,_,_,_,_,336,ADJ,Agcfsn,conj
352,2024-2027,kot,_,_,_,_,_,355,SCONJ,Cs,case
353,2028-2032,pred,_,_,_,_,_,355,ADP,Si,case
354,2033-2038,kriza,_,_,_,_,_,352,NOUN,Ncfsi,obl
355,2039-2040,",",_,_,_,_,_,352,PUNCT,Z,punct
356,2041-2043,biti,_,_,_,_,_,358,AUX,Va-r3s-n,aux
357,2044-2049,dejati,_,_,_,_,_,6,VERB,Vmep-sm,parataxis
358,2050-2059,namestnik,_,_,*->7-1,*[7],_,358,NOUN,Ncmsn,nsubj
359,2060-2070,direktor,_,_,*->7-1,*[7],_,359,NOUN,Ncmsg,nmod
360,2071-2080,analitsko,_,_,*->7-1,*[7],_,363,ADV,Rgp,advmod
361,2081-2095,raziskovalen,_,_,*->7-1,*[7],_,363,ADJ,Agpmsg,amod
362,2096-2102,center,_,_,*->7-1,*[7],_,360,NOUN,Ncmsg,nmod
363,2103-2107,Aleš,PER[15],_,*->7-1,*[7],_,359,PROPN,Npmsn,nmod
364,2108-2117,Delakord,PER[15],_,*->7-1,*[7],_,364,PROPN,Npmsn,flat:name
365,2118-2119,.,_,_,_,_,_,369,PUNCT,Z,punct
366,2120-2123,kot,_,_,_,_,_,369,SCONJ,Cs,mark
367,2124-2126,biti,_,_,_,_,_,369,AUX,Va-r3s-n,aux
368,2127-2133,povzeti,_,_,_,_,_,363,VERB,Vmep-sm,acl
369,2134-2143,Delakord,PER,_,*->7-2,*[7],_,369,PROPN,Npmsay,obj
370,2144-2145,",",_,_,_,_,_,369,PUNCT,Z,punct
371,2146-2151,banka,ORG[16],_,*->8-9,*[8],_,374,NOUN,Ncfsn,nsubj
372,2152-2161,Slovenija,ORG[16]|LOC[17],_,*->8-9|*->5-16,*[8]|*[5],_,372,PROPN,Npfsg,nmod
373,2162-2169,podpirati,_,_,_,_,_,369,VERB,Vmpr3s,conj
374,2170-2176,ukrep,_,_,_,_,_,374,NOUN,Ncmpa,obj
375,2177-2180,pri,_,_,_,_,_,378,ADP,Sl,case
376,2181-2189,fiskalen,_,_,_,_,_,378,ADJ,Agpfsl,amod
377,2190-2203,konsolidacija,_,_,_,_,_,375,NOUN,Ncfsl,nmod
378,2204-2206,in,_,_,_,_,_,381,CCONJ,Cc,cc
379,2207-2217,predlagan,_,_,_,_,_,381,ADJ,Appmpa,amod
380,2218-2224,ukrep,_,_,_,_,_,378,NOUN,Ncmpa,conj
381,2225-2226,v,_,_,_,_,_,383,ADP,Sl,case
382,2227-2233,okvir,_,_,_,_,_,381,NOUN,Ncmsl,nmod
383,2234-2244,proračun,_,_,_,_,_,383,NOUN,Ncmpg,nmod
384,2245-2247,za,_,_,_,_,_,388,ADP,Sa,case
385,2248-2257,prihodnji,_,_,_,_,_,388,ADJ,Agpnda,amod
386,2258-2261,dva,_,_,_,_,_,388,NUM,Mlcnda,nummod
387,2262-2266,leto,_,_,_,_,_,384,NOUN,Ncnda,nmod
388,2267-2268,.,_,_,_,_,_,374,PUNCT,Z,punct
389,2269-2277,proračun,_,_,_,_,_,395,NOUN,Ncmsn,nsubj
390,2278-2279,v,_,_,_,_,_,394,ADP,Sl,case
391,2280-2289,majhen,_,_,_,_,_,394,ADJ,Agsfsl,amod
392,2290-2295,možen,_,_,_,_,_,394,ADJ,Agpfsl,amod
393,2296-2300,mera,_,_,_,_,_,395,NOUN,Ncfsl,obl
394,2301-2309,spodbujati,_,_,_,_,_,374,VERB,Vmpr3s,conj
395,2310-2317,dodaten,_,_,_,_,_,397,ADJ,Agpnsa,amod
396,2318-2325,krčenje,_,_,_,_,_,395,NOUN,Ncnsa,obj
397,2326-2327,",",_,_,_,_,_,395,PUNCT,Z,punct
398,2328-2334,hkrati,_,_,_,_,_,403,ADV,Rgp,advmod
399,2335-2337,pa,_,_,_,_,_,403,CCONJ,Cc,advmod
400,2338-2345,najmanj,_,_,_,_,_,402,ADV,Rgs,advmod
401,2346-2355,negativen,_,_,_,_,_,403,ADV,Rgp,advmod
402,2356-2362,vplivati,_,_,_,_,_,395,VERB,Vmpr3s,conj
403,2363-2365,na,_,_,_,_,_,406,ADP,Sa,case
404,2366-2373,izvozen,_,_,_,_,_,406,ADJ,Agpmsay,amod
405,2374-2380,sektor,_,_,_,_,_,403,NOUN,Ncmsan,obl
406,2381-2382,",",_,_,_,_,_,403,PUNCT,Z,punct
407,2383-2385,biti,_,_,*->7-3,*[7],_,409,AUX,Va-r3s-n,aux
408,2386-2394,poudariti,_,_,*->7-3,*[7],_,6,VERB,Vmep-sm,parataxis
409,2395-2396,.,_,_,_,_,_,403,PUNCT,Z,punct
410,2397-2399,na,_,_,_,_,_,412,ADP,Sa,case
411,2400-2409,vprašanje,_,_,_,_,_,403,NOUN,Ncnsa,obl
412,2410-2411,",",_,_,_,_,_,417,PUNCT,Z,punct
413,2412-2415,ali,_,_,_,_,_,417,ADV,Rgp,mark
414,2416-2418,biti,_,_,_,_,_,417,AUX,Va-f3s-n,aux
415,2419-2428,Slovenija,ORG,_,*->5-17,*[5],_,417,PROPN,Npfsn,nsubj
416,2429-2440,potrebovati,_,_,_,_,_,412,VERB,Vmpp-sf,acl
417,2441-2446,pomoč,_,_,_,_,_,417,NOUN,Ncfsa,obj
418,2447-2448,",",_,_,_,_,_,417,PUNCT,Z,punct
419,2449-2451,biti,_,_,_,_,_,426,AUX,Va-r3s-n,aux
420,2452-2460,guverner,_,0,*->4-1,*[4],3 - Nevtralno[26],426,NOUN,Ncmsn,nsubj
421,2461-2466,banka,ORG[18],0,*->4-1|*->8-10,*[4]|*[8],3 - Nevtralno[26],421,NOUN,Ncfsg,nmod
422,2467-2476,Slovenija,ORG[18]|LOC[19],0,*->4-1|*->8-10|*->5-18,*[4]|*[8]|*[5],3 - Nevtralno[26],422,PROPN,Npfsg,nmod
423,2477-2484,Boštjan,PER[20],0,*->4-1,*[4],3 - Nevtralno[26],421,PROPN,Npmsn,nmod
424,2485-2491,Jazbec,PER[20],0,*->4-1,*[4],3 - Nevtralno[26],424,PROPN,Npmsn,flat:name
425,2492-2501,odgovoriti,_,_,_,_,_,403,VERB,Vmep-sm,csubj
426,2502-2503,",",_,_,_,_,_,432,PUNCT,Z,punct
427,2504-2506,da,_,_,_,_,_,432,SCONJ,Cs,mark
428,2507-2509,biti,_,_,_,_,_,432,AUX,Va-r3s-n,cop
429,2510-2512,še,_,_,_,_,_,432,PART,Q,advmod
430,2513-2516,ves,_,_,_,_,_,432,DET,Pg-nsn,nsubj
431,2517-2523,odprt,_,_,_,_,_,426,ADJ,Appnsn,ccomp
432,2524-2526,in,_,_,_,_,_,438,CCONJ,Cc,cc
433,2527-2529,da,_,_,_,_,_,435,SCONJ,Cs,mark
434,2530-2539,obstajati,_,_,_,_,_,432,VERB,Vmpr3p,conj
435,2540-2542,in,_,_,_,_,_,438,CCONJ,Cc,cc
436,2543-2545,se,_,_,_,_,_,438,PRON,Px------y,expl
437,2546-2556,preučevati,_,_,_,_,_,435,VERB,Vmpr3p,conj
438,2557-2565,različen,_,_,_,_,_,440,ADJ,Agpmpn,amod
439,2566-2575,scenarija,_,_,_,_,_,438,NOUN,Ncmpn,nsubj
440,2576-2577,",",_,_,_,_,_,447,PUNCT,Z,punct
441,2578-2580,da,_,_,_,_,_,447,SCONJ,Cs,mark
442,2581-2583,pa,_,_,_,_,_,447,CCONJ,Cc,advmod
443,2584-2586,se,_,_,_,_,_,447,PRON,Px---d--y,expl
444,2587-2592,nihče,_,_,_,_,_,447,PRON,Pz-msn,nsubj
445,2593-2595,ne,_,_,_,_,_,447,PART,Q,advmod
446,2596-2600,želeti,_,_,_,_,_,440,VERB,Vmpr3s,acl
447,2601-2602,",",_,_,_,_,_,452,PUNCT,Z,punct
448,2603-2605,da,_,_,_,_,_,452,SCONJ,Cs,mark
449,2606-2608,biti,_,_,_,_,_,452,AUX,Va-c,aux
450,2609-2618,Slovenija,ORG,_,*->5-19,*[5],_,452,PROPN,Npfsn,nsubj
451,2619-2628,zaprositi,_,_,_,_,_,447,VERB,Vmep-sf,ccomp
452,2629-2631,za,_,_,_,_,_,454,ADP,Sa,case
453,2632-2637,pomoč,_,_,_,_,_,452,NOUN,Ncfsa,obl
454,2638-2639,.,_,_,_,_,_,447,PUNCT,Z,punct
455,2640-2647,razmera,_,_,_,_,_,452,NOUN,Ncfpn,nsubj
456,2648-2650,na,_,_,_,_,_,458,ADP,Sl,case
457,2651-2655,trg,_,_,_,_,_,456,NOUN,Ncmsl,nmod
458,2656-2660,delo,_,_,_,_,_,458,NOUN,Ncnsg,nmod
459,2661-2663,biti,_,_,_,_,_,465,AUX,Va-r3p-n,aux
460,2664-2668,biti,_,_,_,_,_,465,AUX,Va-p-pf,cop
461,2669-2670,v,_,_,_,_,_,464,ADP,Sl,case
462,2671-2676,prvi,_,_,_,_,_,464,ADJ,Mlonsl,amod
463,2677-2685,polletje,_,_,_,_,_,465,NOUN,Ncnsl,obl
464,2686-2694,stabilen,_,_,_,_,_,426,ADJ,Agpfpn,ccomp
465,2695-2696,",",_,_,_,_,_,465,PUNCT,Z,punct
466,2697-2698,a,_,_,_,_,_,471,CCONJ,Cc,cc
467,2699-2707,upadanje,_,_,_,_,_,471,NOUN,Ncnsn,nsubj
468,2708-2723,razpoložljiv,_,_,_,_,_,470,ADJ,Agpmsg,amod
469,2724-2731,dohodek,_,_,_,_,_,468,NOUN,Ncmsg,nmod
470,2732-2740,povzročati,_,_,_,_,_,465,VERB,Vmpr3s,conj
471,2741-2749,neugoden,_,_,_,_,_,473,ADJ,Agpnpa,amod
472,2750-2757,gibanje,_,_,_,_,_,471,NOUN,Ncnpa,obj
473,2758-2759,.,_,_,_,_,_,465,PUNCT,Z,punct
474,2760-2763,pri,_,_,_,_,_,476,ADP,Sl,case
475,2764-2767,ta,_,_,_,_,_,479,DET,Pd-nsl,obl
476,2768-2770,biti,_,_,_,_,_,479,AUX,Va-r3s-n,aux
477,2771-2780,Delakord,PER,_,*->7-4,*[7],_,479,PROPN,Npmsn,nsubj
478,2781-2789,opozoriti,_,_,_,_,_,465,VERB,Vmep-sm,conj
479,2790-2792,na,_,_,_,_,_,481,ADP,Sa,case
480,2793-2799,težava,_,_,_,_,_,479,NOUN,Ncfsa,obl
481,2800-2810,strukturen,_,_,_,_,_,483,ADJ,Agpfsg,amod
482,2811-2825,brezposelnost,_,_,_,_,_,481,NOUN,Ncfsg,nmod
483,2826-2827,",",_,_,_,_,_,479,PUNCT,Z,punct
484,2828-2834,zlasti,_,_,_,_,_,487,PART,Q,advmod
485,2835-2838,med,_,_,_,_,_,487,ADP,Si,case
486,2839-2846,mlad,_,_,_,_,_,483,ADJ,Agpmpi,appos
487,2847-2848,",",_,_,_,_,_,494,PUNCT,Z,punct
488,2849-2852,pri,_,_,_,_,_,490,ADP,Sl,case
489,2853-2860,kateri,_,_,_,_,_,494,DET,Pq-mpl,obl
490,2861-2863,biti,_,_,_,_,_,494,AUX,Va-r3p-n,cop
491,2864-2870,težava,_,_,_,_,_,494,NOUN,Ncfsn,nsubj
492,2871-2875,tudi,_,_,_,_,_,494,PART,Q,advmod
493,2876-2882,odhod,_,_,_,_,_,483,NOUN,Ncmpn,acl
494,2883-2884,v,_,_,_,_,_,496,ADP,Sa,case
495,2885-2891,tujina,_,_,_,_,_,494,NOUN,Ncfsa,nmod
496,2892-2893,",",_,_,_,_,_,494,PUNCT,Z,punct
497,2894-2897,ter,_,_,_,_,_,501,CCONJ,Cc,cc
498,2898-2901,med,_,_,_,_,_,501,ADP,Si,case
499,2902-2912,dolgoročno,_,_,_,_,_,501,ADV,Rgp,advmod
500,2913-2926,brezposeln,_,_,_,_,_,496,ADJ,Agpfpi,conj
501,2927-2928,.,_,_,_,_,_,494,PUNCT,Z,punct
502,2929-2931,po,_,_,_,_,_,505,ADP,Sl,case
503,2932-2940,njegov,_,_,*->7-5,*[7],_,505,DET,Ps3fplsm,det
504,2941-2949,navedba,_,_,_,_,_,510,NOUN,Ncfpl,obl
505,2950-2952,se,_,_,_,_,_,510,PRON,Px------y,expl
506,2953-2960,strošek,_,_,_,_,_,510,NOUN,Ncmpn,nsubj
507,2961-2965,delo,_,_,_,_,_,507,NOUN,Ncnsg,nmod
508,2966-2973,najbolj,_,_,_,_,_,510,ADV,Rgs,advmod
509,2974-2985,prilagajati,_,_,_,_,_,501,VERB,Vmpr3p,acl
510,2986-2987,v,_,_,_,_,_,513,ADP,Sl,case
511,2988-2997,menjalen,_,_,_,_,_,513,ADJ,Agpmsl,amod
512,2998-3006,sektor,_,_,_,_,_,510,NOUN,Ncmsl,obl
513,3007-3008,",",_,_,_,_,_,510,PUNCT,Z,punct
514,3009-3013,manj,_,_,_,_,_,518,DET,Rgc,advmod
515,3014-3016,pa,_,_,_,_,_,515,CCONJ,Cc,fixed
516,3017-3018,v,_,_,_,_,_,518,ADP,Sl,case
517,3019-3028,sektor,_,_,_,_,_,510,NOUN,Ncmpl,obl
518,3029-3030,",",_,_,_,_,_,522,PUNCT,Z,punct
519,3031-3034,kot,_,_,_,_,_,522,SCONJ,Cs,mark
520,3035-3038,biti,_,_,_,_,_,522,AUX,Va-r3d-n,cop
521,3039-3047,komunal,_,_,_,_,_,518,NOUN,Ncfsn,acl
522,3048-3049,",",_,_,_,_,_,524,PUNCT,Z,punct
523,3050-3060,energetika,_,_,_,_,_,522,NOUN,Ncfsn,conj
524,3061-3062,.,_,_,_,_,_,522,PUNCT,Z,punct
525,3063-3071,podjetje,_,_,_,_,_,528,NOUN,Ncnpn,nsubj
526,3072-3074,biti,_,_,_,_,_,528,AUX,Va-r3p-n,cop
527,3075-3082,omejen,_,_,_,_,_,510,ADJ,Appnpn,conj
528,3083-3089,zaradi,_,_,_,_,_,531,ADP,Sg,case
529,3090-3097,šibek,_,_,_,_,_,531,ADJ,Agpnsg,amod
530,3098-3106,trošenje,_,_,_,_,_,528,NOUN,Ncnsg,obl
531,3107-3109,in,_,_,_,_,_,535,CCONJ,Cc,cc
532,3110-3116,zaradi,_,_,_,_,_,535,ADP,Sg,case
533,3117-3126,finančen,_,_,_,_,_,535,ADJ,Agpfpg,amod
534,3127-3132,težava,_,_,_,_,_,531,NOUN,Ncfpg,conj
535,3133-3134,.,_,_,_,_,_,522,PUNCT,Z,punct
536,3135-3145,omejitven,_,_,_,_,_,538,ADJ,Agpmsny,amod
537,3146-3154,dejavnik,_,_,_,_,_,545,NOUN,Ncmsn,nsubj
538,3155-3157,za,_,_,_,_,_,540,ADP,Sa,case
539,3158-3169,investicija,_,_,_,_,_,538,NOUN,Ncfpa,nmod
540,3170-3172,biti,_,_,_,_,_,545,AUX,Va-r3s-n,cop
541,3173-3175,še,_,_,_,_,_,545,PART,Q,advmod
542,3176-3181,vedno,_,_,_,_,_,545,ADV,Rgp,advmod
543,3182-3189,njihov,_,_,_,_,_,545,DET,Ps3fsnp,det
544,3190-3201,zadolženost,_,_,_,_,_,535,NOUN,Ncfsn,acl
545,3202-3203,.,_,_,_,_,_,545,PUNCT,Z,punct
546,3204-3206,ta,_,_,_,_,_,549,DET,Pd-fsn,nsubj
547,3207-3209,biti,_,_,_,_,_,549,AUX,Va-r3s-y,cop
548,3210-3216,velik,_,_,_,_,_,545,ADJ,Agpfsn,conj
549,3217-3218,",",_,_,_,_,_,549,PUNCT,Z,punct
550,3219-3221,biti,_,_,_,_,_,554,AUX,Va-r3s-n,cop
551,3222-3224,pa,_,_,_,_,_,554,CCONJ,Cc,advmod
552,3225-3231,velik,_,_,_,_,_,554,ADJ,Agpfsn,amod
553,3232-3239,razlika,_,_,_,_,_,549,NOUN,Ncfsn,nsubj
554,3240-3243,med,_,_,_,_,_,559,ADP,Si,case
555,3244-3254,dolžniški,_,_,_,_,_,559,ADJ,Agpnsi,amod
556,3255-3257,in,_,_,_,_,_,558,CCONJ,Cc,cc
557,3258-3268,lastniški,_,_,_,_,_,556,ADJ,Agpnsi,conj
558,3269-3282,financiranje,_,_,_,_,_,554,NOUN,Ncnsi,nmod
559,3283-3284,",",_,_,_,_,_,562,PUNCT,Z,punct
560,3285-3287,biti,_,_,*->7-6,*[7],_,562,AUX,Va-r3s-n,aux
561,3288-3296,pojasniti,_,_,*->7-6,*[7],_,549,VERB,Vmep-sm,parataxis
562,3297-3299,in,_,_,_,_,_,564,CCONJ,Cc,cc
563,3300-3305,dodati,_,_,*->7-7,*[7],_,562,VERB,Vmep-sm,conj
564,3306-3307,",",_,_,_,_,_,568,PUNCT,Z,punct
565,3308-3310,da,_,_,_,_,_,579,SCONJ,Cs,mark
566,3311-3313,biti,_,_,_,_,_,579,AUX,Va-r3s-n,cop
567,3314-3323,Slovenija,ORG,_,*->5-20,*[5],_,562,PROPN,Npfsn,nsubj
568,3324-3326,po,_,_,_,_,_,571,ADP,Sl,case
569,3327-3337,dolžniški,_,_,_,_,_,571,ADJ,Agpmsl,amod
570,3338-3344,vzvod,_,_,_,_,_,568,NOUN,Ncmsl,nmod
571,3345-3347,na,_,_,_,_,_,573,ADP,Sl,case
572,3348-3352,vrh,_,_,_,_,_,571,NOUN,Ncmsl,nmod
573,3353-3355,EU,ORG,0,*->6-1,*[6],3 - Nevtralno,573,PROPN,Npfsg,nmod
574,3356-3357,.,_,_,_,_,_,545,PUNCT,Z,punct
575,3358-3361,pri,_,_,_,_,_,577,ADP,Sl,case
576,3362-3365,ta,_,_,_,_,_,579,DET,Pd-nsl,obl
577,3366-3369,biti,_,_,_,_,_,579,AUX,Va-r3d-n,cop
578,3370-3379,zadolžen,_,_,_,_,_,549,ADJ,Appmdn,advcl
579,3380-3388,predvsem,_,_,_,_,_,579,PART,Q,advmod
580,3389-3397,sektor,_,_,_,_,_,579,NOUN,Ncmdn,nsubj
581,3398-3410,gradbeništvo,_,_,_,_,_,581,NOUN,Ncnsn,nmod
582,3411-3413,in,_,_,_,_,_,585,CCONJ,Cc,cc
583,3414-3422,finančen,_,_,_,_,_,585,ADJ,Agpmpn,amod
584,3423-3431,holding,_,_,_,_,_,581,NOUN,Ncmpn,conj
585,3432-3433,",",_,_,_,_,_,594,PUNCT,Z,punct
586,3434-3440,medtem,_,_,_,_,_,594,ADV,Rgp,mark
587,3441-3443,ko,_,_,_,_,_,587,SCONJ,Cs,fixed
588,3444-3446,biti,_,_,_,_,_,594,AUX,Va-r3s-n,cop
589,3447-3459,predelovalen,_,_,_,_,_,591,ADJ,Agpmsny,amod
590,3460-3466,sektor,_,_,_,_,_,594,NOUN,Ncmsn,nsubj
591,3467-3477,sorazmerno,_,_,_,_,_,593,ADV,Rgp,advmod
592,3478-3482,malo,_,_,_,_,_,594,DET,Rgp,advmod
593,3483-3491,zadolžen,_,_,_,_,_,603,ADJ,Appmsnn,advcl
594,3492-3493,.,_,_,_,_,_,603,PUNCT,Z,punct
595,3494-3498,malo,_,_,_,_,_,597,DET,Rgp,advmod
596,3499-3508,zadolžen,_,_,_,_,_,603,ADJ,Appfsn,advcl
597,3509-3511,biti,_,_,_,_,_,597,AUX,Va-r3p-n,cop
598,3512-3516,tudi,_,_,_,_,_,597,PART,Q,advmod
599,3517-3530,gospodinjstvo,_,_,_,_,_,597,NOUN,Ncnpn,nsubj
600,3531-3532,.,_,_,_,_,_,597,PUNCT,Z,punct
601,3533-3535,ta,_,_,_,_,_,603,DET,Pd-nsn,nsubj
602,3536-3540,kazati,_,_,_,_,_,6,VERB,Vmpr3s,parataxis
603,3541-3543,na,_,_,_,_,_,606,ADP,Sa,case
604,3544-3554,racionalen,_,_,_,_,_,606,ADJ,Agpnsa,amod
605,3555-3564,obnašanje,_,_,_,_,_,603,NOUN,Ncnsa,obl
606,3565-3566,",",_,_,_,_,_,609,PUNCT,Z,punct
607,3567-3569,biti,_,_,_,_,_,609,AUX,Va-r3s-n,aux
608,3570-3575,meniti,_,_,_,_,_,597,VERB,Vmpp-sm,parataxis
609,3576-3585,Delakord,PER,0,*->7-8,*[7],3 - Nevtralno,609,PROPN,Npmsn,nsubj
610,3586-3587,.,_,_,_,_,_,603,PUNCT,Z,punct
611,3588-3597,govorilen,_,_,_,_,_,613,ADJ,Agpfsg,amod
612,3598-3601,ura,_,_,_,_,_,603,NOUN,Ncfsg,obl
613,3602-3604,za,_,_,_,_,_,615,ADP,Sa,case
614,3605-3617,gospodarstvo,_,_,_,_,_,613,NOUN,Ncnsa,nmod
615,3618-3620,za,_,_,_,_,_,617,ADP,Sa,case
616,3621-3630,reševanje,_,_,_,_,_,615,NOUN,Ncnsa,nmod
617,3631-3636,težava,_,_,_,_,_,617,NOUN,Ncfpg,nmod
618,3637-3638,v,_,_,_,_,_,621,ADP,Sl,case
619,3639-3646,realen,_,_,_,_,_,621,ADJ,Agpnsl,amod
620,3647-3659,gospodarstvo,_,_,_,_,_,618,NOUN,Ncnsl,nmod
621,3660-3662,biti,_,_,_,_,_,632,AUX,Va-r3s-n,aux
622,3663-3668,banka,ORG[21],0,*->8-11,*[8],3 - Nevtralno[27],632,PROPN,Npfsn,nsubj
623,3669-3678,Slovenija,ORG[21]|LOC[22],0,*->8-11|*->5-21,*[8]|*[5],3 - Nevtralno[27],623,PROPN,Npfsn,nmod
624,3679-3680,v,_,_,_,_,_,626,ADP,Sl,case
625,3681-3692,sodelovanje,_,_,_,_,_,632,NOUN,Ncnsl,obl
626,3693-3694,z,_,_,_,_,_,629,ADP,Si,case
627,3695-3706,gospodarski,ORG[23],0,*->9-1,*[9],3 - Nevtralno[28],629,ADJ,Agpfsi,amod
628,3707-3715,zbornica,ORG[23],0,*->9-1,*[9],3 - Nevtralno[28],626,NOUN,Ncfsi,nmod
629,3716-3725,Slovenija,ORG[23]|LOC[24],0,*->9-1|*->5-22,*[9]|*[5],3 - Nevtralno[28]|2 - Negativno[29],629,PROPN,Npfsg,nmod
630,3726-3729,GZS,ORG[23],0,*->9-1,*[9],3 - Nevtralno[28],630,PROPN,Npfsg,nmod
631,3730-3736,uvesti,_,_,_,_,_,613,VERB,Vmep-sf,acl
632,3737-3747,neposreden,_,_,_,_,_,634,ADJ,Agpfsa,amod
633,3748-3755,možnost,_,_,_,_,_,632,NOUN,Ncfsa,obj
634,3756-3769,komuniciranje,_,_,_,_,_,634,NOUN,Ncnsg,nmod
635,3770-3772,oz,_,_,_,_,_,635,NOUN,Ncmsn,nmod
636,3773-3774,.,_,_,_,_,_,613,PUNCT,Z,punct
637,3775-3776,t,_,_,_,_,_,640,NOUN,Ncmsn,nmod
638,3777-3778,.,_,_,_,_,_,613,PUNCT,Z,punct
639,3779-3780,i,_,_,_,_,_,643,NOUN,Ncmsn,nmod
640,3781-3782,.,_,_,_,_,_,640,PUNCT,Z,punct
641,3783-3792,govorilen,_,_,_,_,_,643,ADJ,Agpfsg,amod
642,3793-3796,ura,_,_,_,_,_,635,NOUN,Ncfsg,appos
643,3797-3798,",",_,_,_,_,_,646,PUNCT,Z,punct
644,3799-3801,biti,_,_,_,_,_,646,AUX,Va-r3s-n,aux
645,3802-3809,povedati,_,_,_,_,_,640,VERB,Vmep-sm,parataxis
646,3810-3822,viceguverner,_,_,*->10-1,*[10],_,646,NOUN,Ncmsn,nsubj
647,3823-3825,in,_,_,_,_,_,649,CCONJ,Cc,cc
648,3826-3835,namestnik,_,0,*->10-2,*[10],3 - Nevtralno[30],647,NOUN,Ncmsn,conj
649,3836-3846,guverner,_,0,*->10-2,*[10],3 - Nevtralno[30],649,NOUN,Ncmsg,nmod
650,3847-3852,Janez,PER[25],0,*->10-2,*[10],3 - Nevtralno[30],649,PROPN,Npmsn,nmod
651,3853-3860,Fabijan,PER[25],0,*->10-2,*[10],3 - Nevtralno[30],651,PROPN,Npmsn,flat:name
