idx,chars_idx,token,entity_type,sentiment,idk_1,idk_2,orig_sentiment,heads,upos,xpos,deprel
0,0-9,Ljubljana,LOC,0,*->7-1,*[7],3 - Nevtralno,28,PROPN,Npfsn,parataxis
1,10-11,-,_,_,_,_,_,1,PUNCT,Z,punct
2,12-14,na,_,_,_,_,_,4,ADP,Sl,case
3,15-26,ministrstvo,_,_,_,_,_,8,NOUN,Ncnsl,obl
4,27-29,za,_,_,_,_,_,6,ADP,Sa,case
5,30-37,finance,_,_,_,_,_,4,NOUN,Ncfpa,nmod
6,38-45,ponovno,_,_,_,_,_,8,ADV,Rgp,advmod
7,46-53,obujati,_,_,_,_,_,0,VERB,Vmpr3p,root
8,54-60,načrt,_,_,_,_,_,8,NOUN,Ncmpa,obj
9,61-62,o,_,_,_,_,_,11,ADP,Sl,case
10,63-74,povezovanje,_,_,_,_,_,9,NOUN,Ncnsl,nmod
11,75-85,slovenski,_,_,_,_,_,14,ADJ,Agpnpg,amod
12,86-97,logističen,_,_,_,_,_,14,ADJ,Agpnpg,amod
13,98-106,podjetje,_,_,_,_,_,11,NOUN,Ncnpg,nmod
14,107-108,v,_,_,_,_,_,16,ADP,Sa,case
15,109-116,holding,_,_,_,_,_,14,NOUN,Ncmsan,nmod
16,117-118,",",_,_,_,_,_,22,PUNCT,Z,punct
17,119-120,v,_,_,_,_,_,19,ADP,Sa,case
18,121-129,kateri,_,_,_,_,_,22,DET,Pq-msa,obl
19,130-132,biti,_,_,_,_,_,22,AUX,Va-c,aux
20,133-140,kasno,_,_,_,_,_,22,ADV,Rgc,advmod
21,141-151,pripustiti,_,_,_,_,_,16,VERB,Vmep-pm,acl
22,152-158,tuj,_,_,_,_,_,25,ADJ,Agpmsa,amod
23,159-170,strateški,_,_,_,_,_,25,ADJ,Agpmsa,amod
24,171-180,partner,_,_,_,_,_,22,NOUN,Ncmsay,obj
25,181-182,",",_,_,_,_,_,22,PUNCT,Z,punct
26,183-186,biti,_,_,_,_,_,28,AUX,Va-r1p-n,aux
27,187-195,izvedeti,_,_,_,_,_,8,VERB,Vmep-pm,parataxis
28,196-198,iz,_,_,_,_,_,31,ADP,Sg,case
29,199-208,neuraden,_,_,_,_,_,31,ADJ,Agpmpg,amod
30,209-214,vir,_,_,_,_,_,28,NOUN,Ncmpg,obl
31,215-216,.,_,_,_,_,_,28,PUNCT,Z,punct
32,217-219,po,_,_,_,_,_,35,ADP,Sl,case
33,220-229,dostopen,_,_,_,_,_,35,ADJ,Agpfpl,amod
34,230-242,informacija,_,_,_,_,_,36,NOUN,Ncfpl,obl
35,243-245,biti,_,_,_,_,_,28,VERB,Va-r3s-n,parataxis
36,246-248,po,_,_,_,_,_,38,ADP,Sl,case
37,249-254,nov,_,_,_,_,_,41,ADJ,Agpnsl,amod
38,255-256,v,_,_,_,_,_,41,ADP,Sl,case
39,257-258,"""",_,_,_,_,_,41,PUNCT,Z,punct
40,259-263,igra,_,_,_,_,_,36,NOUN,Ncfsl,obl
41,264-265,"""",_,_,_,_,_,41,PUNCT,Z,punct
42,266-276,kapitalski,_,_,_,_,_,44,ADJ,Agpnsn,amod
43,277-288,povezovanje,_,_,_,_,_,41,NOUN,Ncnsn,nmod
44,289-293,Luka,ORG[1],_,*->1-1,*[1],_,44,PROPN,Npfsg,nmod
45,294-299,Koper,ORG[1]|LOC[2],_,*->1-1|*->11-1,*[1]|*[11],_,45,PROPN,Npmsn,flat:name
46,300-302,in,_,_,_,_,_,48,CCONJ,Cc,cc
47,303-314,Intereurope,ORG,_,*->2-1,*[2],_,46,PROPN,Npmpg,conj
48,315-316,.,_,_,_,_,_,36,PUNCT,Z,punct
49,317-319,po,_,_,_,_,_,52,ADP,Sl,case
50,320-330,nov,_,_,_,_,_,52,ADJ,Agsfsl,amod
51,331-340,različica,_,_,_,_,_,58,NOUN,Ncfsl,obl
52,341-344,naj,_,_,_,_,_,58,PART,Q,advmod
53,345-347,biti,_,_,_,_,_,58,AUX,Va-c,aux
54,348-352,tako,_,_,_,_,_,58,ADV,Rgp,advmod
55,353-355,na,_,_,_,_,_,57,ADP,Sl,case
56,356-367,ministrstvo,_,_,_,_,_,58,NOUN,Ncnsl,obl
57,368-378,preučevati,_,_,_,_,_,28,VERB,Vmpp-pm,parataxis
58,379-386,možnost,_,_,_,_,_,58,NOUN,Ncfsa,obj
59,387-388,",",_,_,_,_,_,66,PUNCT,Z,punct
60,389-391,da,_,_,_,_,_,66,SCONJ,Cs,mark
61,392-394,biti,_,_,_,_,_,66,AUX,Va-c,aux
62,395-399,Luka,ORG,_,*->1-2,*[1],_,66,PROPN,Npfsn,nsubj
63,400-402,od,_,_,_,_,_,65,ADP,Sg,case
64,403-409,država,_,_,*->14-1,*[14],_,66,NOUN,Ncfsg,obl
65,410-418,odkupiti,_,_,_,_,_,59,VERB,Vmep-sf,acl
66,419-425,deleža,_,_,_,_,_,66,NOUN,Ncmpa,obj
67,426-434,državen,_,_,_,_,_,69,ADJ,Agpnpg,amod
68,435-443,podjetje,_,_,_,_,_,67,NOUN,Ncnpg,nmod
69,444-445,v,_,_,_,_,_,71,ADP,Sa,case
70,446-457,Intereuropi,ORG,_,*->2-2,*[2],_,69,PROPN,Npmsan,nmod
71,458-460,in,_,_,_,_,_,74,CCONJ,Cc,cc
72,461-465,tako,_,_,_,_,_,74,ADV,Rgp,advmod
73,466-473,postati,_,_,*->1-3,*[1],_,66,VERB,Vmep-sf,conj
74,474-482,lastnica,_,_,*->1-4,*[1],_,74,NOUN,Ncfsn,nsubj
75,483-486,več,_,_,*->1-4,*[1],_,78,DET,Rgc,advmod
76,487-490,kot,_,_,*->1-4,*[1],_,78,SCONJ,Cs,case
77,491-499,polovica,_,_,*->1-4,*[1],_,74,NOUN,Ncfsg,obl
78,500-512,logističen,_,_,*->1-4|*->2-3,*[1]|*[2],_,80,ADJ,Agpnsg,amod
79,513-521,podjetje,_,_,*->1-4|*->2-3,*[1]|*[2],_,78,NOUN,Ncnsg,nmod
80,522-523,",",_,_,_,_,_,84,PUNCT,Z,punct
81,524-526,ki,_,_,_,_,_,84,SCONJ,Cs,mark
82,527-529,on,_,_,_,_,_,84,PRON,Pp3msa--y,obj
83,530-534,voditi,_,_,_,_,_,80,VERB,Vmpr3s,acl
84,535-541,Andrej,PER[3],0,*->8-1,*[8],3 - Nevtralno[19],84,PROPN,Npmsn,nsubj
85,542-548,Lovšin,PER[3],0,*->8-1,*[8],3 - Nevtralno[19],85,PROPN,Npmsn,flat:name
86,549-550,.,_,_,_,_,_,84,PUNCT,Z,punct
87,551-552,"""",_,_,_,_,_,89,PUNCT,Z,punct
88,553-563,preučevati,_,_,_,_,_,8,VERB,Vmpr1p,parataxis
89,564-567,več,_,_,_,_,_,92,DET,Rgc,det
90,568-574,možen,_,_,_,_,_,92,ADJ,Agpfpg,amod
91,575-583,različica,_,_,_,_,_,89,NOUN,Ncfpg,obj
92,584-595,povezovanje,_,_,_,_,_,92,NOUN,Ncnsg,nmod
93,596-597,.,_,_,_,_,_,84,PUNCT,Z,punct
94,598-606,pogovor,_,_,_,_,_,101,NOUN,Ncmpn,nsubj
95,607-608,o,_,_,_,_,_,98,ADP,Sl,case
96,609-615,možen,_,_,_,_,_,98,ADJ,Agpfpl,amod
97,616-625,povezava,_,_,_,_,_,95,NOUN,Ncfpl,nmod
98,626-633,oziroma,_,_,_,_,_,100,CCONJ,Cc,cc
99,634-645,sodelovanje,_,_,_,_,_,98,NOUN,Ncnsl,conj
100,646-654,potekati,_,_,_,_,_,89,VERB,Vmpr3p,conj
101,655-656,",",_,_,_,_,_,101,PUNCT,Z,punct
102,657-658,"""",_,_,_,_,_,101,PUNCT,Z,punct
103,659-661,biti,_,_,_,_,_,116,AUX,Va-r3p-n,aux
104,662-665,jaz,_,_,_,_,_,116,PRON,Pp1-pd,obj
105,666-668,na,_,_,_,_,_,107,ADP,Sl,case
106,669-680,ministrstvo,_,_,_,_,_,116,NOUN,Ncnsl,obl
107,681-682,",",_,_,_,_,_,111,PUNCT,Z,punct
108,683-685,ki,_,_,_,_,_,111,SCONJ,Cs,mark
109,686-688,on,_,_,_,_,_,111,PRON,Pp3msa--y,obj
110,689-693,voditi,_,_,_,_,_,107,VERB,Vmpr3s,acl
111,694-700,Andrej,PER[4],0,*->9-1,*[9],3 - Nevtralno[20],111,PROPN,Npmsn,nsubj
112,701-706,Bajuk,PER[4],0,*->9-1,*[9],3 - Nevtralno[20],112,PROPN,Npmsn,flat:name
113,707-708,",",_,_,_,_,_,111,PUNCT,Z,punct
114,709-715,včeraj,_,_,_,_,_,116,ADV,Rgp,advmod
115,716-726,odgovoriti,_,_,_,_,_,101,VERB,Vmep-pm,advcl
116,727-729,na,_,_,_,_,_,118,ADP,Sa,case
117,730-739,vprašanje,_,_,_,_,_,116,NOUN,Ncnpa,obl
118,740-741,o,_,_,_,_,_,121,ADP,Sl,case
119,742-751,morebiten,_,_,_,_,_,121,ADJ,Agpfsl,amod
120,752-760,krepitev,_,_,_,_,_,118,NOUN,Ncfsl,nmod
121,761-772,strateški,_,_,_,_,_,125,ADJ,Agpnsg,amod
122,773-775,in,_,_,_,_,_,124,CCONJ,Cc,cc
123,776-788,kapitalski,_,_,_,_,_,122,ADJ,Agpnsg,conj
124,789-800,povezovanje,_,_,_,_,_,121,NOUN,Ncnsg,nmod
125,801-805,oba,_,_,_,_,_,127,DET,Pg-ndg,det
126,806-814,podjetje,_,_,_,_,_,125,NOUN,Ncnpg,nmod
127,815-816,.,_,_,_,_,_,116,PUNCT,Z,punct
128,817-818,v,_,_,_,_,_,130,ADP,Sl,case
129,819-823,Luki,ORG,_,*->1-5,*[1],_,116,PROPN,Npfsl,obl
130,824-825,",",_,_,_,_,_,134,PUNCT,Z,punct
131,826-828,ki,_,_,_,_,_,134,SCONJ,Cs,mark
132,829-831,on,_,_,*->1-6,*[1],_,134,PRON,Pp3fsa--y,obj
133,832-836,voditi,_,_,_,_,_,130,VERB,Vmpr3s,acl
134,837-843,Robert,PER[5],0,*->10-1,*[10],3 - Nevtralno[21],134,PROPN,Npmsn,nsubj
135,844-849,Časar,PER[5],0,*->10-1,*[10],3 - Nevtralno[21],135,PROPN,Npmsn,flat:name
136,850-851,",",_,_,_,_,_,134,PUNCT,Z,punct
137,852-854,biti,_,_,_,_,_,140,AUX,Va-r3p-n,aux
138,855-858,jaz,_,_,_,_,_,140,PRON,Pp1-pd,obj
139,859-868,pojasniti,_,_,*->1-7,*[1],_,116,VERB,Vmep-pm,conj
140,869-870,",",_,_,_,_,_,155,PUNCT,Z,punct
141,871-873,da,_,_,_,_,_,155,SCONJ,Cs,mark
142,874-875,"""",_,_,_,_,_,155,PUNCT,Z,punct
143,876-878,biti,_,_,_,_,_,155,AUX,Va-r3s-n,aux
144,879-889,partnerski,_,_,_,_,_,146,ADJ,Agpnsn,amod
145,890-901,povezovanje,_,_,_,_,_,155,NOUN,Ncnsn,nsubj
146,902-903,v,_,_,_,_,_,151,ADP,Sl,case
147,904-914,logističen,_,_,_,_,_,151,ADJ,Agpnsn,amod
148,915-916,-,_,_,_,_,_,150,PUNCT,Z,punct
149,917-925,prometen,_,_,_,_,_,148,ADJ,Agpfsl,conj
150,926-936,dejavnost,_,_,_,_,_,146,NOUN,Ncfsl,nmod
151,937-938,v,_,_,_,_,_,153,ADP,Sl,case
152,939-944,svet,_,_,_,_,_,151,NOUN,Ncmsl,nmod
153,945-951,povsem,_,_,_,_,_,155,ADV,Rgp,advmod
154,952-960,običajen,_,_,_,_,_,140,ADJ,Agpnsn,ccomp
155,961-962,",",_,_,_,_,_,155,PUNCT,Z,punct
156,963-967,zato,_,_,_,_,_,162,CCONJ,Cc,cc
157,968-970,ne,_,_,_,_,_,162,PART,Q,advmod
158,971-973,biti,_,_,_,_,_,162,AUX,Va-c,aux
159,974-978,biti,_,_,_,_,_,162,AUX,Va-p-sn,cop
160,979-982,nič,_,_,_,_,_,162,PRON,Pz-nsn,nsubj
161,983-994,nenavaden,_,_,_,_,_,155,ADJ,Agpnsg,conj
162,995-996,",",_,_,_,_,_,166,PUNCT,Z,punct
163,997-999,če,_,_,_,_,_,166,SCONJ,Cs,mark
164,1000-1002,biti,_,_,_,_,_,166,AUX,Va-c,aux
165,1003-1009,priti,_,_,_,_,_,162,VERB,Vmep-sn,advcl
166,1010-1012,do,_,_,_,_,_,168,ADP,Sg,case
167,1013-1017,kaj,_,_,_,_,_,166,PRON,Pq-nsg,obl
168,1018-1027,podoben,_,_,_,_,_,168,ADJ,Agpnsg,amod
169,1028-1032,tudi,_,_,_,_,_,166,PART,Q,advmod
170,1033-1036,pri,_,_,_,_,_,172,ADP,Sl,case
171,1037-1040,jaz,_,_,*->1-8,*[1],_,166,PRON,Pp1-pl,obl
172,1041-1042,"""",_,_,_,_,_,172,PUNCT,Z,punct
173,1043-1044,.,_,_,_,_,_,8,PUNCT,Z,punct
174,1045-1046,"""",_,_,_,_,_,183,PUNCT,Z,punct
175,1047-1049,za,_,_,_,_,_,179,ADP,Sa,case
176,1050-1054,zdaj,_,_,_,_,_,183,ADV,Rgp,advmod
177,1055-1056,o,_,_,_,_,_,179,ADP,Sl,case
178,1057-1060,ta,_,_,_,_,_,183,DET,Pd-nsl,obl
179,1061-1063,še,_,_,_,_,_,183,PART,Q,advmod
180,1064-1069,biti,_,_,_,_,_,183,AUX,Va-r1p-y,aux
181,1070-1075,resno,_,_,_,_,_,183,ADV,Rgp,advmod
182,1076-1087,razmišljati,_,_,*->1-9,*[1],_,166,VERB,Vmpp-pm,conj
183,1088-1089,",",_,_,_,_,_,189,PUNCT,Z,punct
184,1090-1096,čeprav,_,_,_,_,_,189,SCONJ,Cs,mark
185,1097-1099,biti,_,_,_,_,_,189,AUX,Va-c,aux
186,1100-1104,biti,_,_,_,_,_,189,AUX,Va-p-pf,cop
187,1105-1112,korist,_,_,_,_,_,189,NOUN,Ncfpn,nsubj
188,1113-1126,obojestranski,_,_,_,_,_,183,ADJ,Agpfpn,advcl
189,1127-1128,",",_,_,_,_,_,189,PUNCT,Z,punct
190,1129-1130,"""",_,_,_,_,_,192,PUNCT,Z,punct
191,1131-1139,dodajati,_,_,_,_,_,183,VERB,Vmpr3p,advcl
192,1140-1141,v,_,_,_,_,_,194,ADP,Sl,case
193,1142-1146,Luki,ORG[6],_,*->1-10,*[1],_,192,PROPN,Npfsl,obl
194,1147-1152,Koper,ORG[6]|LOC[7],_,*->1-10|*->11-2,*[1]|*[11],_,194,PROPN,Npmsn,nmod
195,1153-1154,.,_,_,_,_,_,192,PUNCT,Z,punct
196,1155-1160,Marko,PER[8],_,*->12-1,*[12],_,192,PROPN,Npmsn,nsubj
197,1161-1169,Pogačnik,PER[8],_,*->12-1,*[12],_,197,PROPN,Npmsn,flat:name
198,1170-1171,",",_,_,_,_,_,200,PUNCT,Z,punct
199,1172-1180,direktor,_,_,*->12-2,*[12],_,197,NOUN,Ncmsn,appos
200,1181-1185,Soda,ORG,0,*->12-2|*->13-1,*[12]|*[13],3 - Nevtralno,200,PROPN,Npmsg,nmod
201,1186-1187,",",_,_,_,_,_,204,PUNCT,Z,punct
202,1188-1190,ki,_,_,_,_,_,204,SCONJ,Cs,mark
203,1191-1194,imeti,_,_,*->12-3,*[12],_,200,VERB,Vmpr3s-n,acl
204,1195-1196,v,_,_,_,_,_,206,ADP,Sl,case
205,1197-1202,last,_,_,_,_,_,204,NOUN,Ncfsl,obl
206,1203-1209,dober,_,_,_,_,_,209,ADJ,Agpmpg,amod
207,1210-1214,šest,_,_,_,_,_,209,NUM,Mlc-pa,nummod
208,1215-1224,odstotek,_,_,_,_,_,206,NOUN,Ncmpg,nmod
209,1225-1229,Luka,ORG,_,*->1-11,*[1],_,209,PROPN,Npfsg,nmod
210,1230-1231,",",_,_,_,_,_,204,PUNCT,Z,punct
211,1232-1234,pa,_,_,_,_,_,214,CCONJ,Cc,advmod
212,1235-1237,biti,_,_,_,_,_,214,AUX,Va-r3s-n,aux
213,1238-1246,poudariti,_,0,*->12-4,*[12],3 - Nevtralno,8,VERB,Vmep-sm,parataxis
214,1247-1248,",",_,_,_,_,_,222,PUNCT,Z,punct
215,1249-1251,da,_,_,_,_,_,222,SCONJ,Cs,mark
216,1252-1253,"""",_,_,_,_,_,222,PUNCT,Z,punct
217,1254-1255,o,_,_,_,_,_,219,ADP,Sl,case
218,1256-1265,pogovor,_,_,_,_,_,222,NOUN,Ncmpl,obl
219,1266-1270,biti,_,_,_,_,_,222,AUX,Va-r3p-y,aux
220,1271-1275,biti,_,_,_,_,_,222,AUX,Va-p-pm,cop
221,1276-1285,obveščen,_,_,_,_,_,214,ADJ,Appmpn,ccomp
222,1286-1287,"""",_,_,_,_,_,222,PUNCT,Z,punct
223,1288-1289,.,_,_,_,_,_,8,PUNCT,Z,punct
224,1290-1295,ideja,_,_,_,_,_,222,NOUN,Ncfsn,nsubj
225,1296-1297,o,_,_,_,_,_,227,ADP,Sl,case
226,1298-1309,povezovanje,_,_,_,_,_,225,NOUN,Ncnsl,nmod
227,1310-1314,trije,_,_,_,_,_,231,NUM,Mlcnpg,nummod
228,1315-1325,slovenski,_,_,_,_,_,231,ADJ,Agpnpg,amod
229,1326-1337,logističen,_,_,_,_,_,231,ADJ,Agpnpg,amod
230,1338-1346,podjetje,_,_,_,_,_,227,NOUN,Ncnpg,nmod
231,1347-1348,z,_,_,_,_,_,234,ADP,Si,case
232,1349-1356,nemški,_,_,_,_,_,234,ADJ,Agpmsi,amod
233,1357-1365,Deutsche,ORG[9],_,*->3-1,*[3],_,231,PROPN,Npmsi,nmod
234,1366-1372,Bahn,ORG[9],_,*->3-1,*[3],_,234,PROPN,Npmsi,flat:name
235,1373-1374,(,_,_,_,_,_,237,PUNCT,Z,punct
236,1375-1377,DB,ORG,_,*->3-2,*[3],_,235,NOUN,Ncmsn,appos
237,1378-1379,),_,_,_,_,_,237,PUNCT,Z,punct
238,1380-1384,segati,_,_,_,_,_,234,VERB,Vmpr3s,acl
239,1385-1386,v,_,_,_,_,_,242,ADP,Sa,case
240,1387-1393,lanski,_,_,_,_,_,242,ADJ,Agpfsa,amod
241,1394-1400,pomlad,_,_,_,_,_,239,NOUN,Ncfsa,obl
242,1401-1402,",",_,_,_,_,_,247,PUNCT,Z,punct
243,1403-1405,ko,_,_,_,_,_,247,SCONJ,Cs,mark
244,1406-1408,biti,_,_,_,_,_,247,AUX,Va-r3s-n,aux
245,1409-1414,vlada,_,_,_,_,_,247,NOUN,Ncfsn,nsubj
246,1415-1425,ustanoviti,_,_,_,_,_,239,VERB,Vmep-sf,advcl
247,1426-1435,projekten,_,_,_,_,_,249,ADJ,Agpmsay,amod
248,1436-1440,svet,_,_,_,_,_,247,NOUN,Ncmsan,obj
249,1441-1443,za,_,_,_,_,_,251,ADP,Sa,case
250,1444-1452,priprava,_,_,_,_,_,249,NOUN,Ncfsa,nmod
251,1453-1458,javen,_,_,_,_,_,255,ADJ,Agpnsn,amod
252,1459-1460,-,_,_,_,_,_,254,PUNCT,Z,punct
253,1461-1470,zaseben,_,_,_,_,_,252,ADJ,Agpnsg,conj
254,1471-1482,partnerstvo,_,_,_,_,_,251,NOUN,Ncnsg,nmod
255,1483-1485,na,_,_,_,_,_,257,ADP,Sl,case
256,1486-1494,področje,_,_,_,_,_,255,NOUN,Ncnsl,nmod
257,1495-1505,železniški,_,_,_,_,_,259,ADJ,Agpfsg,amod
258,1506-1520,infrastruktura,_,_,_,_,_,257,NOUN,Ncfsg,nmod
259,1521-1522,.,_,_,_,_,_,239,PUNCT,Z,punct
260,1523-1528,kmalu,_,_,_,_,_,274,ADV,Rgp,advmod
261,1529-1534,zatem,_,_,_,_,_,274,ADV,Rgp,advmod
262,1535-1537,biti,_,_,_,_,_,274,AUX,Va-r3p-n,aux
263,1538-1540,se,_,_,_,_,_,274,PRON,Px------y,expl
264,1541-1553,predstavnik,_,_,_,_,_,274,NOUN,Ncmpn,nsubj
265,1554-1559,vlada,_,_,_,_,_,265,NOUN,Ncfsg,nmod
266,1560-1562,na,_,_,_,_,_,268,ADP,Sl,case
267,1563-1567,čelo,_,_,_,_,_,265,NOUN,Ncnsl,nmod
268,1568-1569,z,_,_,_,_,_,271,ADP,Si,case
269,1570-1578,državen,_,0,*->4-1,*[4],3 - Nevtralno[22],271,ADJ,Agpmsi,amod
270,1579-1590,sekretar,_,0,*->4-1,*[4],3 - Nevtralno[22],268,NOUN,Ncmsi,nmod
271,1591-1599,Andrej,PER[10],0,*->4-1,*[4],3 - Nevtralno[22],271,PROPN,Npmsi,nmod
272,1600-1608,Šircelj,PER[10],0,*->4-1,*[4],3 - Nevtralno[22],272,PROPN,Npmsi,flat:name
273,1609-1615,začeti,_,_,_,_,_,8,VERB,Vmep-pm,parataxis
274,1616-1623,resno,_,_,_,_,_,276,ADV,Rgc,advmod
275,1624-1635,pogovarjati,_,_,_,_,_,274,VERB,Vmpn,xcomp
276,1636-1637,z,_,_,_,_,_,278,ADP,Si,case
277,1638-1643,Nemec,PER,_,*->3-3,*[3],_,276,PROPN,Npmpi,obl
278,1644-1645,o,_,_,_,_,_,282,ADP,Sl,case
279,1646-1654,njihov,_,_,*->3-4,*[3],_,282,DET,Ps3mslp,det
280,1655-1666,kapitalski,_,_,_,_,_,282,ADJ,Agpmsl,amod
281,1667-1673,vstop,_,_,_,_,_,278,NOUN,Ncmsl,nmod
282,1674-1675,v,_,_,_,_,_,286,ADP,Sa,case
283,1676-1685,slovenski,_,_,_,_,_,286,ADJ,Agpnpa,amod
284,1686-1696,logističen,_,_,_,_,_,286,ADJ,Agpnpa,amod
285,1697-1705,podjetje,_,_,_,_,_,282,NOUN,Ncnpa,nmod
286,1706-1707,",",_,_,_,_,_,274,PUNCT,Z,punct
287,1708-1710,ta,_,_,_,_,_,293,DET,Pd-mpn,nsubj
288,1711-1713,pa,_,_,_,_,_,293,CCONJ,Cc,advmod
289,1714-1716,biti,_,_,_,_,_,293,AUX,Va-c,aux
290,1717-1718,v,_,_,_,_,_,292,ADP,Sa,case
291,1719-1725,zamena,_,_,_,_,_,293,NOUN,Ncfsa,obl
292,1726-1739,sofinancirati,_,_,_,_,_,274,VERB,Vmbp-pm,advcl
293,1740-1743,več,_,_,_,_,_,295,DET,Rgc,det
294,1744-1752,milijarda,_,_,_,_,_,297,NOUN,Ncfpg,nmod
295,1753-1758,evro,_,_,_,_,_,295,NOUN,Ncmpg,nmod
296,1759-1765,vreden,_,_,_,_,_,298,ADJ,Agpfsa,amod
297,1766-1772,obnova,_,_,_,_,_,293,NOUN,Ncfsa,obj
298,1773-1775,in,_,_,_,_,_,300,CCONJ,Cc,cc
299,1776-1783,gradnja,_,_,_,_,_,298,NOUN,Ncfsa,conj
300,1784-1792,domač,_,_,_,_,_,303,ADJ,Agpnsg,amod
301,1793-1805,železniški,_,_,_,_,_,303,ADJ,Agpnsg,amod
302,1806-1813,omrežje,_,_,_,_,_,300,NOUN,Ncnsg,nmod
303,1814-1815,.,_,_,_,_,_,274,PUNCT,Z,punct
304,1816-1818,po,_,_,_,_,_,306,ADP,Sl,case
305,1819-1822,ta,_,_,_,_,_,303,DET,Pd-nsl,nmod
306,1823-1824,",",_,_,_,_,_,319,PUNCT,Z,punct
307,1825-1827,ko,_,_,_,_,_,319,SCONJ,Cs,mark
308,1828-1830,biti,_,_,_,_,_,319,AUX,Va-r3s-n,aux
309,1831-1837,država,_,_,*->14-2,*[14],_,320,NOUN,Ncfsd,iobj
310,1838-1842,lani,_,_,_,_,_,314,ADV,Rgp,advmod
311,1843-1849,poleti,_,_,_,_,_,319,ADV,Rgp,advmod
312,1850-1851,z,_,_,_,_,_,314,ADP,Si,case
313,1852-1861,pretvorba,_,_,_,_,_,320,NOUN,Ncfsi,obl
314,1862-1873,prednosten,_,_,_,_,_,316,ADJ,Agpfpg,amod
315,1874-1880,delnica,_,_,_,_,_,314,NOUN,Ncfpg,nmod
316,1881-1882,v,_,_,_,_,_,318,ADP,Sa,case
317,1883-1890,navaden,_,_,_,_,_,319,ADJ,Agpmpa,obl
318,1891-1897,uspeti,_,_,_,_,_,306,VERB,Vmep-sn,acl
319,1898-1906,prevzeti,_,_,_,_,_,319,VERB,Vmen,xcomp
320,1907-1916,lastniški,_,_,_,_,_,322,ADJ,Agpmsay,amod
321,1917-1923,nadzor,_,_,_,_,_,320,NOUN,Ncmsan,obj
322,1924-1927,nad,_,_,_,_,_,324,ADP,Si,case
323,1928-1932,Luka,ORG[11],_,*->1-12,*[1],_,322,PROPN,Npfsi,nmod
324,1933-1938,Koper,ORG[11]|LOC[12],_,*->1-12|*->11-3,*[1]|*[11],_,324,PROPN,Npmsn,nmod
325,1939-1940,",",_,_,_,_,_,319,PUNCT,Z,punct
326,1941-1948,premier,_,0,*->5-1,*[5],3 - Nevtralno[23],346,NOUN,Ncmsn,nsubj
327,1949-1954,Janez,PER[13],0,*->5-1,*[5],3 - Nevtralno[23],327,PROPN,Npmsn,nmod
328,1955-1960,Janša,PER[13],0,*->5-1,*[5],3 - Nevtralno[23],328,PROPN,Npmsn,flat:name
329,1961-1963,pa,_,_,_,_,_,333,CCONJ,Cc,advmod
330,1964-1966,se,_,_,_,_,_,333,PRON,Px------y,expl
331,1967-1969,biti,_,_,_,_,_,333,AUX,Va-r3s-n,aux
332,1970-1976,srečati,_,_,_,_,_,8,VERB,Vmep-sm,parataxis
333,1977-1978,z,_,_,_,_,_,336,ADP,Si,case
334,1979-1984,prvi,_,0,*->6-1,*[6],3 - Nevtralno[24],336,ADJ,Mlomsi,amod
335,1985-1990,mož,_,0,*->6-1,*[6],3 - Nevtralno[24],320,NOUN,Ncmsi,obl
336,1991-1999,koncerna,_,0,*->6-1,*[6],3 - Nevtralno[24],336,NOUN,Ncmsg,nmod
337,2000-2002,DB,ORG,0,*->6-1|*->3-5,*[6]|*[3],3 - Nevtralno[24],337,PROPN,Npmsn,nmod
338,2003-2012,Hartmut,PER[14],0,*->6-1,*[6],3 - Nevtralno[24],337,PROPN,Npmsi,nmod
339,2013-2022,Mehdorn,PER[14],0,*->6-1,*[6],3 - Nevtralno[24],339,PROPN,Npmsi,flat:name
340,2023-2024,",",_,_,_,_,_,319,PUNCT,Z,punct
341,2025-2027,biti,_,_,_,_,_,346,AUX,Va-r3p-n,aux
342,2028-2036,pogovor,_,_,_,_,_,346,NOUN,Ncmpn,nsubj
343,2037-2038,z,_,_,_,_,_,345,ADP,Si,case
344,2039-2044,Nemec,PER,_,*->3-6,*[3],_,343,PROPN,Npmpi,nmod
345,2045-2052,zastati,_,_,_,_,_,8,VERB,Vmep-pm,parataxis
346,2053-2054,.,_,_,_,_,_,346,PUNCT,Z,punct
347,2055-2067,predstavnik,_,_,*->3-7,*[3],_,353,NOUN,Ncmpa,obj
348,2068-2070,DB,ORG,_,*->3-7,*[3],_,348,NOUN,Ncmsn,nmod
349,2071-2074,naj,_,_,_,_,_,353,PART,Q,advmod
350,2075-2077,biti,_,_,_,_,_,353,AUX,Va-c,aux
351,2078-2084,namreč,_,_,_,_,_,353,CCONJ,Cc,advmod
352,2085-2093,ohladiti,_,_,_,_,_,346,VERB,Vmep-pf,conj
353,2094-2102,domnevno,_,_,_,_,_,356,ADV,Rgp,advmod
354,2103-2104,"""",_,_,_,_,_,356,PUNCT,Z,punct
355,2105-2118,prenapihnjen,_,_,_,_,_,358,ADJ,Appfpa,amod
356,2119-2120,"""",_,_,_,_,_,356,PUNCT,Z,punct
357,2121-2125,cena,_,_,_,_,_,353,NOUN,Ncfpa,obj
358,2126-2132,delnica,_,_,_,_,_,358,NOUN,Ncfpg,nmod
359,2133-2135,na,_,_,_,_,_,362,ADP,Sl,case
360,2136-2147,ljubljanski,_,_,_,_,_,362,ADJ,Agpfsl,amod
361,2148-2153,borz,_,_,_,_,_,358,NOUN,Ncfsl,nmod
362,2154-2156,in,_,_,_,_,_,364,CCONJ,Cc,cc
363,2157-2166,bližajoč,_,_,_,_,_,367,ADJ,Appfpa,amod
364,2167-2169,se,_,_,_,_,_,364,PRON,Px------y,nmod
365,2170-2183,parlamentaren,_,_,_,_,_,367,ADJ,Agpfpn,amod
366,2184-2191,volitev,_,_,_,_,_,358,NOUN,Ncfpn,conj
367,2192-2193,v,_,_,_,_,_,369,ADP,Sl,case
368,2194-2203,Slovenija,LOC,_,*->14-3,*[14],_,367,PROPN,Npfsl,nmod
369,2204-2205,.,_,_,_,_,_,353,PUNCT,Z,punct
370,2206-2208,po,_,_,_,_,_,373,ADP,Sl,case
371,2209-2218,neuraden,_,_,_,_,_,373,ADJ,Agpfpl,amod
372,2219-2231,informacija,_,_,_,_,_,383,NOUN,Ncfpl,obl
373,2232-2235,med,_,_,_,_,_,378,ADP,Si,case
374,2236-2245,slovenski,_,_,_,_,_,378,ADJ,Agpfsi,amod
375,2246-2248,in,_,_,_,_,_,377,CCONJ,Cc,cc
376,2249-2255,nemški,_,_,_,_,_,375,ADJ,Agpfsi,conj
377,2256-2263,stranja,_,_,_,_,_,373,NOUN,Ncfsi,nmod
378,2264-2268,vsaj,_,_,_,_,_,383,PART,Q,advmod
379,2269-2273,pred,_,_,_,_,_,381,ADP,Si,case
380,2274-2282,oktober,_,_,_,_,_,383,NOUN,Ncmsi,obl
381,2283-2285,biti,_,_,_,_,_,383,AUX,Va-r3s-y,cop
382,2286-2297,predviden,_,_,_,_,_,367,ADJ,Appmpg,amod
383,2298-2299,(,_,_,_,_,_,385,PUNCT,Z,punct
384,2300-2307,uraden,_,_,_,_,_,387,ADJ,Agpmpg,amod
385,2308-2309,),_,_,_,_,_,385,PUNCT,Z,punct
386,2310-2316,stik,_,_,_,_,_,383,NOUN,Ncmpg,obl
387,2317-2318,.,_,_,_,_,_,383,PUNCT,Z,punct
388,2319-2323,tudi,_,_,_,_,_,401,PART,Q,advmod
389,2324-2330,zaradi,_,_,_,_,_,392,ADP,Sg,case
390,2331-2335,ta,_,_,_,_,_,392,DET,Pd-nsg,det
391,2336-2347,informacija,_,_,_,_,_,401,NOUN,Ncfsg,obl
392,2348-2349,o,_,_,_,_,_,396,ADP,Sl,case
393,2350-2360,morebiten,_,_,_,_,_,396,ADJ,Agpnsl,amod
394,2361-2372,skorajšnji,_,_,_,_,_,396,ADJ,Agpnsl,amod
395,2373-2384,povezovanje,_,_,_,_,_,392,NOUN,Ncnsl,nmod
396,2385-2389,Luka,ORG[15],_,*->1-13,*[1],_,396,PROPN,Npfsg,nmod
397,2390-2395,Koper,ORG[15]|LOC[16],_,*->1-13|*->11-4,*[1]|*[11],_,397,PROPN,Npmsn,flat:name
398,2396-2398,in,_,_,_,_,_,400,CCONJ,Cc,cc
399,2399-2410,Intereurope,ORG,_,*->2-4,*[2],_,397,PROPN,Npmpa,conj
400,2411-2419,odpirati,_,_,_,_,_,387,VERB,Vmpr3p,conj
401,2420-2423,več,_,_,_,_,_,403,DET,Rgc,det
402,2424-2432,vprašanje,_,_,_,_,_,401,NOUN,Ncnpg,obj
403,2433-2434,.,_,_,_,_,_,401,PUNCT,Z,punct
404,2435-2437,če,_,_,_,_,_,406,SCONJ,Cs,mark
405,2438-2441,iti,_,_,_,_,_,401,VERB,Vmbr3s,advcl
406,2442-2448,namreč,_,_,_,_,_,406,CCONJ,Cc,advmod
407,2449-2452,res,_,_,_,_,_,406,ADV,Rgp,advmod
408,2453-2455,le,_,_,_,_,_,406,PART,Q,advmod
409,2456-2458,za,_,_,_,_,_,411,ADP,Sa,case
410,2459-2467,priprava,_,_,_,_,_,406,NOUN,Ncfsa,obl
411,2468-2470,na,_,_,_,_,_,413,ADP,Sa,case
412,2471-2476,vstop,_,_,_,_,_,411,NOUN,Ncmsan,nmod
413,2477-2483,tuj,_,_,_,_,_,416,ADJ,Agpmsg,amod
414,2484-2495,strateški,_,_,_,_,_,416,ADJ,Agpmsg,amod
415,2496-2505,partner,_,_,_,_,_,413,NOUN,Ncmsg,nmod
416,2506-2507,",",_,_,_,_,_,425,PUNCT,Z,punct
417,2508-2510,ki,_,_,_,_,_,425,SCONJ,Cs,mark
418,2511-2513,biti,_,_,_,_,_,425,AUX,Va-c,aux
419,2514-2515,z,_,_,_,_,_,422,ADP,Si,case
420,2516-2526,morebiten,_,_,_,_,_,422,ADJ,Agpmsi,amod
421,2527-2534,nakup,_,_,_,_,_,425,NOUN,Ncmsi,obl
422,2535-2539,Luka,ORG,_,*->1-14,*[1],_,422,PROPN,Npfsg,nmod
423,2540-2549,lastniško,_,_,_,_,_,425,ADV,Rgp,advmod
424,2550-2560,obvladovati,_,_,_,_,_,416,VERB,Vmpp-sm,acl
425,2561-2565,tudi,_,_,_,_,_,425,PART,Q,advmod
426,2566-2577,Intereuropo,ORG,_,*->2-5,*[2],_,425,PROPN,Npmsan,obj
427,2578-2579,",",_,_,_,_,_,425,PUNCT,Z,punct
428,2580-2585,veljati,_,_,_,_,_,425,VERB,Vmpr3s,conj
429,2586-2594,spomniti,_,_,_,_,_,429,VERB,Vmen,xcomp
430,2595-2596,",",_,_,_,_,_,444,PUNCT,Z,punct
431,2597-2599,da,_,_,_,_,_,444,SCONJ,Cs,mark
432,2600-2602,biti,_,_,_,_,_,444,AUX,Va-r3s-n,aux
433,2603-2610,slednji,_,_,*->2-6,*[2],_,444,ADJ,Agpfsn,nsubj
434,2611-2613,po,_,_,_,_,_,437,ADP,Sl,case
435,2614-2625,zanesljiv,_,_,_,_,_,437,ADJ,Agpfpl,amod
436,2626-2638,informacija,_,_,_,_,_,444,NOUN,Ncfpl,obl
437,2639-2641,že,_,_,_,_,_,444,PART,Q,advmod
438,2642-2646,lani,_,_,_,_,_,444,ADV,Rgp,advmod
439,2647-2656,september,_,_,_,_,_,444,NOUN,Ncmsg,obl
440,2657-2659,na,_,_,_,_,_,442,ADP,Sa,case
441,2660-2666,pobuda,_,_,_,_,_,444,NOUN,Ncfsa,obl
442,2667-2669,DB,ORG,_,*->3-8,*[3],_,442,PROPN,Npmsn,nmod
443,2670-2677,izpasti,_,_,_,_,_,430,VERB,Vmep-sf,ccomp
444,2678-2679,z,_,_,_,_,_,446,ADP,Sg,case
445,2680-2687,seznam,_,_,_,_,_,444,NOUN,Ncmsg,obl
446,2688-2694,možen,_,_,_,_,_,448,ADJ,Agpmpg,amod
447,2695-2701,član,_,_,_,_,_,446,NOUN,Ncmpg,nmod
448,2702-2710,holdinga,_,_,_,_,_,448,NOUN,Ncmsg,nmod
449,2711-2712,.,_,_,_,_,_,444,PUNCT,Z,punct
450,2713-2717,prav,_,_,_,_,_,452,PART,Q,advmod
451,2718-2722,tako,_,_,_,_,_,454,ADV,Rgp,advmod
452,2723-2725,biti,_,_,_,_,_,454,AUX,Va-r3s-n,cop
453,2726-2735,vprašanje,_,_,_,_,_,444,NOUN,Ncnsn,nsubj
454,2736-2737,",",_,_,_,_,_,462,PUNCT,Z,punct
455,2738-2744,kakšen,_,_,_,_,_,457,DET,Pq-fpn,det
456,2745-2752,korist,_,_,_,_,_,462,NOUN,Ncfpn,nsubj
457,2753-2755,od,_,_,_,_,_,459,ADP,Sg,case
458,2756-2767,prevzemanje,_,_,_,_,_,457,NOUN,Ncnsg,nmod
459,2768-2779,Intereurope,ORG,_,*->2-7,*[2],_,459,PROPN,Npmpa,nmod
460,2780-2782,biti,_,_,_,_,_,462,AUX,Va-c,aux
461,2783-2788,imeti,_,_,_,_,_,454,VERB,Vmpp-sf,acl
462,2789-2793,Luka,ORG[17],_,*->1-15,*[1],_,462,PROPN,Npmsn,nsubj
463,2794-2799,Koper,ORG[17]|LOC[18],0,*->1-15|*->11-5,*[1]|*[11],3 - Nevtralno,463,PROPN,Npmsn,flat:name
464,2800-2801,.,_,_,_,_,_,462,PUNCT,Z,punct
465,2802-2805,oba,_,_,_,_,_,467,DET,Pg-ndn,det
466,2806-2814,podjetje,_,_,_,_,_,472,NOUN,Ncnda,obj
467,2815-2817,že,_,_,_,_,_,472,PART,Q,advmod
468,2818-2823,danes,_,_,_,_,_,472,ADV,Rgp,advmod
469,2824-2826,na,_,_,_,_,_,471,ADP,Sa,case
470,2827-2833,veliko,_,_,_,_,_,472,DET,Rgp,advmod
471,2834-2844,sodelovati,_,_,_,_,_,462,VERB,Vmpr3d,conj
472,2845-2846,",",_,_,_,_,_,472,PUNCT,Z,punct
473,2847-2858,Intereurop,ORG,_,*->2-8,*[2],_,479,PROPN,Npfsn,nsubj
474,2859-2863,tako,_,_,_,_,_,479,ADV,Rgp,advmod
475,2864-2868,Luki,ORG,_,*->1-16,*[1],_,479,PROPN,Npfsd,obj
476,2869-2871,na,_,_,_,_,_,478,ADP,Sa,case
477,2872-2876,leto,_,_,_,_,_,479,NOUN,Ncnsa,obl
478,2877-2885,zagotoviti,_,_,_,_,_,472,VERB,Vmer3s,conj
479,2886-2891,okoli,_,_,_,_,_,481,ADV,Rgp,advmod
480,2892-2894,40,_,_,_,_,_,482,NUM,Mdc,nummod
481,2895-2904,odstotek,_,_,_,_,_,479,NOUN,Ncmpg,obl
482,2905-2918,pretovorjen,_,_,_,_,_,484,ADJ,Appmpg,amod
483,2919-2930,avtomobil,_,_,_,_,_,482,NOUN,Ncmpg,nmod
484,2931-2932,(,_,_,_,_,_,488,PUNCT,Z,punct
485,2933-2936,več,_,_,_,_,_,488,DET,Rgc,advmod
486,2937-2940,kot,_,_,_,_,_,486,SCONJ,Cs,fixed
487,2941-2948,200.000,_,_,_,_,_,484,NUM,Mdc,nummod
488,2949-2950,),_,_,_,_,_,488,PUNCT,Z,punct
489,2951-2952,.,_,_,_,_,_,479,PUNCT,Z,punct
490,2953-2957,Luka,ORG,_,*->1-17,*[1],_,492,PROPN,Npmsn,nsubj
491,2958-2961,imeti,_,_,_,_,_,479,VERB,Vmpr3s-n,conj
492,2962-2966,prav,_,_,_,_,_,494,PART,Q,advmod
493,2967-2971,tako,_,_,_,_,_,496,ADV,Rgp,advmod
494,2972-2973,v,_,_,_,_,_,496,ADP,Sl,case
495,2974-2979,last,_,_,_,_,_,492,NOUN,Ncfsl,obl
496,2980-2982,že,_,_,_,_,_,492,PART,Q,advmod
497,2983-2989,skoraj,_,_,_,_,_,499,PART,Q,advmod
498,2990-2998,četrtina,_,_,_,_,_,492,NOUN,Ncfsa,obj
499,2999-3010,Intereurope,ORG,_,*->2-9,*[2],_,499,PROPN,Npmpa,nmod
500,3011-3012,",",_,_,_,_,_,492,PUNCT,Z,punct
501,3013-3019,skupaj,_,_,_,_,_,513,ADV,Rgp,advmod
502,3020-3021,z,_,_,_,_,_,504,ADP,Si,case
503,3022-3028,država,_,0,*->14-4,*[14],3 - Nevtralno,500,NOUN,Ncfsi,appos
504,3029-3030,",",_,_,_,_,_,509,PUNCT,Z,punct
505,3031-3033,ki,_,_,_,_,_,509,SCONJ,Cs,mark
506,3034-3036,biti,_,_,_,_,_,509,AUX,Va-r3s-n,cop
507,3037-3045,večinski,_,_,_,_,_,509,ADJ,Agpfsn,amod
508,3046-3054,lastnica,_,_,_,_,_,504,NOUN,Ncfsn,acl
509,3055-3059,Luka,ORG,_,*->1-18,*[1],_,509,PROPN,Npfsg,nmod
510,3060-3061,",",_,_,_,_,_,509,PUNCT,Z,punct
511,3062-3064,pa,_,_,_,_,_,513,CCONJ,Cc,advmod
512,3065-3074,obvladovati,_,_,_,_,_,504,VERB,Vmpr3s,acl
513,3075-3081,večina,_,_,_,_,_,513,NOUN,Ncfsa,obj
514,3082-3093,Intereurope,ORG,_,*->2-10,*[2],_,514,PROPN,Npmpn,nmod
515,3094-3095,.,_,_,_,_,_,513,PUNCT,Z,punct
516,3096-3101,ravno,_,_,_,_,_,520,PART,Q,advmod
517,3102-3106,zato,_,_,_,_,_,519,CCONJ,Cc,cc
518,3107-3110,iti,_,_,_,_,_,513,VERB,Vmbr3s,conj
519,3111-3118,dvomiti,_,_,_,_,_,519,VERB,Vmpn,csubj
520,3119-3120,o,_,_,_,_,_,522,ADP,Sl,case
521,3121-3132,smiselnost,_,_,_,_,_,520,NOUN,Ncfsl,obl
522,3133-3141,krepitev,_,_,_,_,_,522,NOUN,Ncfsg,nmod
523,3142-3152,lastništvo,_,_,_,_,_,523,NOUN,Ncnsg,nmod
524,3153-3157,Luka,ORG,_,*->1-19,*[1],_,524,PROPN,Npfsg,nmod
525,3158-3159,",",_,_,_,_,_,552,PUNCT,Z,punct
526,3160-3162,ki,_,_,_,_,_,552,SCONJ,Cs,mark
527,3163-3165,biti,_,_,*->1-20,*[1],_,531,AUX,Va-r3s-n,cop
528,3166-3170,pred,_,_,_,_,_,531,ADP,Si,case
529,3171-3179,velik,_,_,_,_,_,531,ADJ,Agpnpi,amod
530,3180-3188,vlaganje,_,_,_,_,_,520,NOUN,Ncnpi,obl
531,3189-3190,v,_,_,_,_,_,533,ADP,Sa,case
532,3191-3197,razvoj,_,_,_,_,_,531,NOUN,Ncmsan,nmod
533,3198-3200,in,_,_,_,_,_,535,CCONJ,Cc,cc
534,3201-3208,širitev,_,_,_,_,_,533,NOUN,Ncfsa,conj
535,3209-3210,.,_,_,_,_,_,519,PUNCT,Z,punct
536,3211-3216,zgolj,_,_,_,_,_,552,PART,Q,advmod
537,3217-3222,nakup,_,_,_,_,_,531,NOUN,Ncmsan,conj
538,3223-3230,dodaten,_,_,_,_,_,540,ADJ,Agpfsg,amod
539,3231-3239,četrtina,_,_,_,_,_,538,NOUN,Ncfsg,nmod
540,3240-3246,delnica,_,_,_,_,_,540,NOUN,Ncfpg,nmod
541,3247-3249,biti,_,_,_,_,_,552,AUX,Va-c,aux
542,3250-3254,Luka,ORG,_,*->1-21,*[1],_,552,PROPN,Npfsa,obj
543,3255-3256,(,_,_,_,_,_,548,PUNCT,Z,punct
544,3257-3259,po,_,_,_,_,_,548,ADP,Sl,case
545,3260-3271,včerajšnji,_,_,_,_,_,548,ADJ,Agpmsl,amod
546,3272-3279,enoten,_,_,_,_,_,548,ADJ,Agpmsl,amod
547,3280-3286,tečaj,_,_,_,_,_,552,NOUN,Ncmsl,obl
548,3287-3294,delnica,_,_,_,_,_,548,NOUN,Ncfsg,nmod
549,3295-3306,Intereurope,ORG,_,*->2-11,*[2],_,548,PROPN,Npmsn,nmod
550,3307-3308,),_,_,_,_,_,548,PUNCT,Z,punct
551,3309-3313,stati,_,_,_,_,_,538,VERB,Vmpp-sm,acl
552,3314-3320,skoraj,_,_,_,_,_,554,PART,Q,advmod
553,3321-3323,60,_,_,_,_,_,555,NUM,Mdc,nummod
554,3324-3333,milijon,_,_,_,_,_,552,NOUN,Ncmpg,obl
555,3334-3339,evro,_,_,_,_,_,555,NOUN,Ncmpg,nmod
556,3340-3341,",",_,_,_,_,_,559,PUNCT,Z,punct
557,3342-3345,kar,_,_,_,_,_,559,PRON,Pr-nsn,nsubj
558,3346-3348,biti,_,_,_,_,_,555,VERB,Va-r3s-n,acl
559,3349-3352,več,_,_,_,_,_,559,PART,Q,advmod
560,3353-3355,od,_,_,_,_,_,562,ADP,Sg,case
561,3356-3367,dvakratnik,_,_,_,_,_,559,NOUN,Ncmsg,obl
562,3368-3376,lanski,_,_,_,_,_,564,ADJ,Agpmsg,amod
563,3377-3384,dobiček,_,_,_,_,_,562,NOUN,Ncmsg,nmod
564,3385-3391,družba,_,_,*->1-22,*[1],_,564,NOUN,Ncfsg,nmod
565,3392-3393,.,_,_,_,_,_,552,PUNCT,Z,punct
566,3394-3397,res,_,_,_,_,_,552,ADV,Rgp,advmod
567,3398-3400,pa,_,_,_,_,_,579,CCONJ,Cc,advmod
568,3401-3403,biti,_,_,_,_,_,579,AUX,Va-r3s-n,aux
569,3404-3405,",",_,_,_,_,_,579,PUNCT,Z,punct
570,3406-3408,da,_,_,_,_,_,579,SCONJ,Cs,mark
571,3409-3411,biti,_,_,_,_,_,579,AUX,Va-c,aux
572,3412-3416,Luka,ORG,0,*->1-23,*[1],3 - Nevtralno,579,PROPN,Npfsn,nsubj
573,3417-3418,z,_,_,_,_,_,576,ADP,Si,case
574,3419-3429,morebiten,_,_,_,_,_,576,ADJ,Agpmsi,amod
575,3430-3439,prevzem,_,_,_,_,_,579,NOUN,Ncmsi,obl
576,3440-3445,lahko,_,_,_,_,_,579,ADV,Rgp,advmod
577,3446-3447,"""",_,_,_,_,_,579,PUNCT,Z,punct
578,3448-3457,izplačati,_,_,_,_,_,559,VERB,Vmbp-sf,csubj
579,3458-3459,"""",_,_,_,_,_,579,PUNCT,Z,punct
580,3460-3464,tudi,_,_,_,_,_,579,PART,Q,advmod
581,3465-3473,kateri,_,_,_,_,_,579,DET,Pq-msa,obj
582,3474-3479,izmed,_,_,_,_,_,584,ADP,Sg,case
583,3480-3491,vlagatelj,_,_,_,_,_,582,NOUN,Ncmpg,nmod
584,3492-3493,",",_,_,_,_,_,595,PUNCT,Z,punct
585,3494-3496,ki,_,_,_,_,_,595,SCONJ,Cs,mark
586,3497-3499,biti,_,_,_,_,_,595,AUX,Va-r3p-n,aux
587,3500-3503,med,_,_,_,_,_,590,ADP,Si,case
588,3504-3512,lanski,_,_,_,_,_,590,ADJ,Agpmpi,amod
589,3513-3521,pogovor,_,_,_,_,_,595,NOUN,Ncmpi,obl
590,3522-3523,z,_,_,_,_,_,592,ADP,Si,case
591,3524-3529,Nemec,PER,0,*->3-9,*[3],3 - Nevtralno,590,PROPN,Npmpi,nmod
592,3530-3532,na,_,_,_,_,_,594,ADP,Sa,case
593,3533-3539,veliko,_,_,_,_,_,595,DET,Rgp,advmod
594,3540-3548,kupovati,_,_,_,_,_,584,VERB,Vmpp-pm,acl
595,3549-3556,delnica,_,_,_,_,_,595,NOUN,Ncfpa,obj
596,3557-3568,Intereurope,ORG,0,*->2-12,*[2],3 - Nevtralno,596,PROPN,Npmsn,nmod
597,3569-3570,.,_,_,_,_,_,8,PUNCT,Z,punct
598,3571-3584,primoz.cirman,_,_,_,_,_,596,PROPN,Npmsn,nmod
599,3585-3586,@,_,_,_,_,_,8,PUNCT,Z,punct
