idx,chars_idx,token,entity_type,sentiment,idk_1,idk_2,orig_sentiment,heads,upos,xpos,deprel
0,0-2,po,_,_,_,_,_,3,ADP,Sl,case
1,3-8,prvi,_,_,_,_,_,3,ADJ,Mlofpl,amod
2,9-15,ocena,_,_,_,_,_,13,NOUN,Ncfpl,obl
3,16-27,francoski,_,_,_,_,_,6,ADJ,Agpmsg,amod
4,28-41,statističen,_,_,_,_,_,6,ADJ,Agpmsg,amod
5,42-47,urad,_,_,_,_,_,3,NOUN,Ncmsg,nmod
6,48-50,biti,_,_,_,_,_,13,AUX,Va-r3s-n,aux
7,51-59,Francija,ORG,2,*->5-1,*[5],2 - Negativno,13,PROPN,Npfsn,nsubj
8,60-65,prvič,_,_,_,_,_,13,ADV,Rgp,advmod
9,66-68,po,_,_,_,_,_,12,ADP,Sl,case
10,69-71,15,_,_,_,_,_,12,NUM,Mdc,nummod
11,72-77,leto,_,_,_,_,_,13,NOUN,Ncnpl,obl
12,78-83,pasti,_,_,_,_,_,0,VERB,Vmep-sf,root
13,84-85,v,_,_,_,_,_,15,ADP,Sa,case
14,86-94,recesija,_,_,_,_,_,13,NOUN,Ncfsa,obl
15,95-96,",",_,_,_,_,_,26,PUNCT,Z,punct
16,97-100,saj,_,_,_,_,_,26,CCONJ,Cc,cc
17,101-103,se,_,_,_,_,_,26,PRON,Px------y,expl
18,104-106,biti,_,_,_,_,_,26,AUX,Va-r3s-n,aux
19,107-112,bruto,_,_,_,_,_,22,ADJ,Agpmsn,amod
20,113-119,domač,_,_,_,_,_,22,ADJ,Agpmsny,amod
21,120-128,proizvod,_,_,_,_,_,26,NOUN,Ncmsn,nsubj
22,129-132,dva,_,_,_,_,_,24,NUM,Mlcnda,nummod
23,133-143,četrtletje,_,_,_,_,_,22,NOUN,Ncnda,nmod
24,144-151,zapored,_,_,_,_,_,26,ADV,Rgp,advmod
25,152-158,znižati,_,_,_,_,_,13,VERB,Vmep-sm,conj
26,159-160,.,_,_,_,_,_,34,PUNCT,Z,punct
27,161-166,potem,_,_,_,_,_,34,ADV,Rgp,mark
28,167-169,ko,_,_,_,_,_,28,SCONJ,Cs,fixed
29,170-172,biti,_,_,_,_,_,34,AUX,Va-r3s-n,aux
30,173-174,v,_,_,_,_,_,33,ADP,Sl,case
31,175-181,drug,_,_,_,_,_,33,ADJ,Mlpnsl,amod
32,182-192,četrtletje,_,_,_,_,_,34,NOUN,Ncnsl,obl
33,193-199,upasti,_,_,_,_,_,26,VERB,Vmep-sm,advcl
34,200-202,za,_,_,_,_,_,37,ADP,Sa,case
35,203-206,"0,3",_,_,_,_,_,37,NUM,Mdc,nummod
36,207-215,odstotek,_,_,_,_,_,34,NOUN,Ncmsg,obl
37,216-217,",",_,_,_,_,_,34,PUNCT,Z,punct
38,218-220,se,_,_,_,_,_,44,PRON,Px------y,expl
39,221-223,biti,_,_,_,_,_,44,AUX,Va-r3s-n,aux
40,224-225,v,_,_,_,_,_,43,ADP,Sl,case
41,226-233,tretji,_,_,_,_,_,43,ADJ,Mlonsl,amod
42,234-244,četrtletje,_,_,_,_,_,44,NOUN,Ncnsl,obl
43,245-251,skrčiti,_,_,_,_,_,13,VERB,Vmep-sm,parataxis
44,252-254,za,_,_,_,_,_,47,ADP,Sa,case
45,255-258,"0,1",_,_,_,_,_,47,NUM,Mdc,nummod
46,259-267,odstotek,_,_,_,_,_,44,NOUN,Ncmsg,obl
47,268-269,",",_,_,_,_,_,44,PUNCT,Z,punct
48,270-274,urad,_,_,_,_,_,51,NOUN,Ncmsn,nsubj
49,275-277,pa,_,_,_,_,_,51,CCONJ,Cc,advmod
50,278-286,ocenjevati,_,_,_,_,_,44,VERB,Vmpr3s,conj
51,287-288,",",_,_,_,_,_,60,PUNCT,Z,punct
52,289-291,da,_,_,_,_,_,60,SCONJ,Cs,mark
53,292-294,se,_,_,_,_,_,60,PRON,Px------y,expl
54,295-297,biti,_,_,_,_,_,60,AUX,Va-f3s-n,aux
55,298-300,za,_,_,_,_,_,59,ADP,Sa,case
56,301-304,"0,1",_,_,_,_,_,59,NUM,Mdc,nummod
57,305-313,odstoten,_,_,_,_,_,59,ADJ,Agpfsg,amod
58,314-319,točka,_,_,_,_,_,60,NOUN,Ncfsg,obl
59,320-328,zmanjšati,_,_,_,_,_,51,VERB,Vmep-sm,ccomp
60,329-333,tudi,_,_,_,_,_,60,PART,Q,advmod
61,334-335,v,_,_,_,_,_,65,ADP,Sl,case
62,336-343,zadnji,_,_,_,_,_,65,ADJ,Agpnsl,amod
63,344-353,letošnji,_,_,_,_,_,65,ADJ,Agpnsl,amod
64,354-364,četrtletje,_,_,_,_,_,60,NOUN,Ncnsl,obl
65,365-366,.,_,_,_,_,_,60,PUNCT,Z,punct
66,367-369,od,_,_,_,_,_,69,ADP,Sg,case
67,370-374,ves,_,_,_,_,_,69,DET,Pg-fpg,det
68,375-380,država,_,_,_,_,_,77,NOUN,Ncfpg,obl
69,381-382,v,_,_,_,_,_,71,ADP,Sl,case
70,383-390,območje,_,_,_,_,_,69,NOUN,Ncnsl,nmod
71,391-395,evro,_,_,_,_,_,71,NOUN,Ncmsg,nmod
72,396-398,biti,_,_,_,_,_,77,AUX,Va-r3s-n,aux
73,399-404,sicer,_,_,_,_,_,77,PART,Q,advmod
74,405-410,Irska,ORG,2,*->6-1,*[6],2 - Negativno,76,ADJ,Agpfsn,amod
75,411-415,prvi,_,_,_,_,_,77,ADJ,Mlofsn,nsubj
76,416-421,zaiti,_,_,_,_,_,60,VERB,Vmep-sf,conj
77,422-423,v,_,_,_,_,_,79,ADP,Sa,case
78,424-432,recesija,_,_,_,_,_,77,NOUN,Ncfsa,obl
79,433-434,.,_,_,_,_,_,77,PUNCT,Z,punct
80,435-443,Norilsko,ORG,_,*->1-1,*[1],_,82,PROPN,Npmsd,obj
81,444-450,upasti,_,_,_,_,_,13,VERB,Vmep-sm,parataxis
82,451-458,dobiček,_,_,_,_,_,82,NOUN,Ncmsn,nsubj
83,459-461,za,_,_,_,_,_,85,ADP,Sa,case
84,462-470,tretjina,_,_,_,_,_,83,NOUN,Ncfsa,nmod
85,471-479,velik,_,_,*->1-2,*[1],_,87,ADJ,Agsmsny,amod
86,480-492,proizvajalec,_,_,*->1-2,*[1],_,83,NOUN,Ncmsn,nmod
87,493-498,kovina,_,_,*->1-2,*[1],_,87,NOUN,Ncfpg,nmod
88,499-501,na,_,_,*->1-2,*[1],_,90,ADP,Sl,case
89,502-507,svet,_,_,*->1-2,*[1],_,88,NOUN,Ncmsl,nmod
90,508-515,Norilsk,ORG[1],_,*->1-2,*[1],_,90,PROPN,Npmsn,nmod
91,516-522,Nickel,ORG[1],_,*->1-2,*[1],_,91,PROPN,Npmsn,nmod
92,523-525,biti,_,_,_,_,_,99,AUX,Va-r3s-n,aux
93,526-527,v,_,_,_,_,_,96,ADP,Sl,case
94,528-532,prvi,_,_,_,_,_,96,ADJ,Mlofsl,amod
95,533-541,polovica,_,_,_,_,_,99,NOUN,Ncfsl,obl
96,542-552,letošnji,_,_,_,_,_,98,ADJ,Agpnsg,amod
97,553-557,leto,_,_,_,_,_,96,NOUN,Ncnsg,nmod
98,558-566,ustvariti,_,_,_,_,_,82,VERB,Vmep-sm,conj
99,567-570,"2,7",_,_,_,_,_,101,NUM,Mdc,nummod
100,571-580,milijarda,_,_,_,_,_,99,NOUN,Ncfsg,obj
101,581-589,dolar,_,_,_,_,_,101,NOUN,Ncmpg,nmod
102,590-597,čist,_,_,_,_,_,104,ADJ,Agpmsg,amod
103,598-605,dobiček,_,_,_,_,_,102,NOUN,Ncmsg,nmod
104,606-607,",",_,_,_,_,_,138,PUNCT,Z,punct
105,608-611,kar,_,_,_,_,_,138,PRON,Pr-nsn,nsubj
106,612-614,biti,_,_,_,_,_,121,AUX,Va-r3s-n,cop
107,615-617,za,_,_,_,_,_,110,ADP,Sa,case
108,618-620,33,_,_,_,_,_,110,NUM,Mdc,nummod
109,621-630,odstotek,_,_,_,_,_,111,NOUN,Ncmpg,nmod
110,631-635,manj,_,_,_,_,_,121,DET,Rgc,advmod
111,636-639,kot,_,_,_,_,_,115,SCONJ,Cs,case
112,640-641,v,_,_,_,_,_,115,ADP,Sl,case
113,642-648,enak,_,_,_,_,_,115,DET,Pi-nsl,det
114,649-656,obdobje,_,_,_,_,_,111,NOUN,Ncnsl,obl
115,657-661,lani,_,_,_,_,_,115,ADV,Rgp,advmod
116,662-663,.,_,_,_,_,_,116,PUNCT,Z,punct
117,664-669,padec,_,_,_,_,_,121,NOUN,Ncmsn,nsubj
118,670-677,dobiček,_,_,_,_,_,118,NOUN,Ncmsg,nmod
119,678-680,biti,_,_,_,_,_,121,AUX,Va-r3s-n,cop
120,681-690,posledica,_,_,_,_,_,13,NOUN,Ncfsn,parataxis
121,691-697,nizek,_,_,_,_,_,123,ADJ,Agcfpg,amod
122,698-701,cena,_,_,_,_,_,121,NOUN,Ncfpg,nmod
123,702-708,nikelj,_,_,_,_,_,123,NOUN,Ncfpg,nmod
124,709-711,in,_,_,_,_,_,127,CCONJ,Cc,cc
125,712-718,visok,_,_,_,_,_,127,ADJ,Agcmpg,amod
126,719-727,strošek,_,_,_,_,_,124,NOUN,Ncmpg,conj
127,728-739,proizvodnja,_,_,_,_,_,127,NOUN,Ncfsg,nmod
128,740-741,.,_,_,_,_,_,121,PUNCT,Z,punct
129,742-747,tržen,_,_,_,_,_,131,ADJ,Agpfsn,amod
130,748-756,vrednost,_,_,_,_,_,138,NOUN,Ncfsn,nsubj
131,757-762,ruski,_,2,*->1-3,*[1],2 - Negativno[15],133,ADJ,Agpfsg,amod
132,763-769,družba,_,2,*->1-3,*[1],2 - Negativno[15],131,NOUN,Ncfsg,nmod
133,770-772,pa,_,_,_,_,_,138,CCONJ,Cc,advmod
134,773-775,se,_,_,_,_,_,138,PRON,Px------y,expl
135,776-778,biti,_,_,_,_,_,138,AUX,Va-r3s-n,aux
136,779-784,letos,_,_,_,_,_,138,ADV,Rgp,advmod
137,785-792,znižati,_,_,_,_,_,13,VERB,Vmep-sf,parataxis
138,793-795,za,_,_,_,_,_,141,ADP,Sa,case
139,796-798,51,_,_,_,_,_,141,NUM,Mdc,nummod
140,799-808,odstotek,_,_,_,_,_,138,NOUN,Ncmpg,obl
141,809-810,",",_,_,_,_,_,145,PUNCT,Z,punct
142,811-813,na,_,_,_,_,_,145,ADP,Sa,case
143,814-816,23,_,_,_,_,_,145,NUM,Mdc,nummod
144,817-825,milijarda,_,_,_,_,_,141,NOUN,Ncfpg,appos
145,826-834,dolar,_,_,_,_,_,145,NOUN,Ncmpg,nmod
146,835-836,.,_,_,_,_,_,138,PUNCT,Z,punct
147,837-842,Wells,ORG[2],_,*->2-1,*[2],_,150,PROPN,Npmsn,nsubj
148,843-848,Fargo,ORG[2],_,*->2-1,*[2],_,148,PROPN,Npmsn,nmod
149,849-856,prevzeti,_,_,_,_,_,138,VERB,Vmep-sm,parataxis
150,857-865,Wachovia,ORG,_,*->3-1,*[3],_,150,PROPN,Npmsn,nsubj
151,866-874,ameriški,_,_,*->2-2,*[2],_,153,ADJ,Agpfsn,amod
152,875-880,banka,_,_,*->2-2,*[2],_,151,NOUN,Ncfsn,nmod
153,881-886,Wells,ORG[3],_,*->2-2,*[2],_,153,PROPN,Npmsn,nmod
154,887-892,Fargo,ORG[3],_,*->2-2,*[2],_,154,PROPN,Npmsn,flat:name
155,893-895,biti,_,_,_,_,_,161,AUX,Va-f3s-n,aux
156,896-898,za,_,_,_,_,_,159,ADP,Sa,case
157,899-903,"15,1",_,_,_,_,_,159,NUM,Mdc,nummod
158,904-913,milijarda,_,_,_,_,_,161,NOUN,Ncfsg,obl
159,914-922,dolar,_,_,_,_,_,159,NOUN,Ncmpg,nmod
160,923-931,prevzeti,_,_,_,_,_,150,VERB,Vmep-sf,conj
161,932-943,konkurentka,_,_,_,_,_,161,NOUN,Ncfsa,obj
162,944-952,Wachovio,ORG,_,*->3-2,*[3],_,162,PROPN,Npfsg,nmod
163,953-954,.,_,_,_,_,_,161,PUNCT,Z,punct
164,955-962,prevzem,_,_,_,_,_,167,NOUN,Ncmsan,obj
165,963-965,biti,_,_,_,_,_,167,AUX,Va-f3s-n,aux
166,966-973,izvesti,_,_,_,_,_,13,VERB,Vmep-sf,parataxis
167,974-975,z,_,_,_,_,_,169,ADP,Si,case
168,976-983,menjava,_,_,_,_,_,167,NOUN,Ncfsi,obl
169,984-990,delnica,_,_,_,_,_,169,NOUN,Ncfpg,nmod
170,991-992,-,_,_,_,_,_,179,PUNCT,Z,punct
171,993-1003,delničar,_,_,_,_,_,179,NOUN,Ncmpn,nsubj
172,1004-1012,Wachovie,ORG,_,*->3-3,*[3],_,172,PROPN,Npmsn,nmod
173,1013-1017,biti,_,_,_,_,_,179,AUX,Va-f3p-n,aux
174,1018-1020,za,_,_,_,_,_,178,ADP,Sa,case
175,1021-1026,vsak,_,_,_,_,_,178,DET,Pg-fsa,det
176,1027-1032,svoj,_,_,_,_,_,178,DET,Px-fsa,det
177,1033-1040,delnica,_,_,_,_,_,179,NOUN,Ncfsa,obl
178,1041-1048,prejeti,_,_,_,_,_,167,VERB,Vmep-pm,conj
179,1049-1055,"0,1991",_,_,_,_,_,181,NUM,Mdc,nummod
180,1056-1063,delnica,_,_,_,_,_,179,NOUN,Ncfsg,obj
181,1064-1069,banka,_,_,_,_,_,181,NOUN,Ncfsg,nmod
182,1070-1075,Wells,ORG[4],_,*->2-3,*[2],_,182,PROPN,Npmsn,nmod
183,1076-1081,Fargo,ORG[4],_,*->2-3,*[2],_,183,PROPN,Npmsn,flat:name
184,1082-1083,.,_,_,_,_,_,179,PUNCT,Z,punct
185,1084-1090,novica,_,_,_,_,_,191,NOUN,Ncfsn,nsubj
186,1091-1092,o,_,_,_,_,_,188,ADP,Sl,case
187,1093-1101,prevzem,_,_,_,_,_,186,NOUN,Ncmsl,nmod
188,1102-1104,biti,_,_,_,_,_,191,AUX,Va-r3s-n,aux
189,1105-1110,sicer,_,_,_,_,_,191,PART,Q,advmod
190,1111-1118,pognati,_,_,_,_,_,13,VERB,Vmep-sf,parataxis
191,1119-1123,cena,_,_,_,_,_,191,NOUN,Ncfpa,obj
192,1124-1130,delnica,_,_,_,_,_,192,NOUN,Ncfpg,nmod
193,1131-1139,Wachovie,ORG,1,*->3-4,*[3],4 - Pozitivno,193,PROPN,Npmsn,nmod
194,1140-1142,za,_,_,_,_,_,197,ADP,Sa,case
195,1143-1145,66,_,_,_,_,_,197,NUM,Mdc,nummod
196,1146-1155,odstotek,_,_,_,_,_,194,NOUN,Ncmpg,nmod
197,1156-1159,gor,_,_,_,_,_,197,ADV,Rgp,advmod
198,1160-1161,",",_,_,_,_,_,206,PUNCT,Z,punct
199,1162-1167,tržen,_,_,_,_,_,201,ADJ,Agpfsn,amod
200,1168-1176,vrednost,_,_,_,_,_,206,NOUN,Ncfsn,nsubj
201,1177-1182,Wells,ORG[5],1,*->2-4,*[2],4 - Pozitivno[16],201,PROPN,Npmsn,nmod
202,1183-1188,Farg,ORG[5],1,*->2-4,*[2],4 - Pozitivno[16],202,PROPN,Npfsn,flat:name
203,1189-1191,pa,_,_,_,_,_,206,CCONJ,Cc,advmod
204,1192-1194,biti,_,_,_,_,_,206,AUX,Va-r3s-n,aux
205,1195-1202,narasti,_,_,_,_,_,191,VERB,Vmep-sf,conj
206,1203-1205,za,_,_,_,_,_,208,ADP,Sa,case
207,1206-1214,odstotek,_,_,_,_,_,206,NOUN,Ncmsan,obl
208,1215-1216,.,_,_,_,_,_,206,PUNCT,Z,punct
209,1217-1224,Japonec,PER,_,*->12-1,*[12],_,211,PROPN,Npmpn,nsubj
210,1225-1235,prevzemati,_,_,_,_,_,13,VERB,Vmpr3p,parataxis
211,1236-1241,banka,_,_,_,_,_,211,NOUN,Ncfpa,obj
212,1242-1250,Japonska,_,_,*->12-2,*[12],_,215,ADJ,Agpfsn,amod
213,1251-1268,borznoposredniški,_,_,*->12-2,*[12],_,215,ADJ,Agpfsn,amod
214,1269-1273,hiša,_,_,*->12-2,*[12],_,212,NOUN,Ncfsn,nmod
215,1274-1280,Nomur,ORG[6],_,*->12-2,*[12],_,215,PROPN,Npfsn,nmod
216,1281-1289,Holdings,ORG[6],_,*->12-2,*[12],_,216,PROPN,Npmsn,flat:name
217,1290-1291,",",_,_,_,_,_,224,PUNCT,Z,punct
218,1292-1294,ki,_,_,_,_,_,224,SCONJ,Cs,mark
219,1295-1297,biti,_,_,_,_,_,224,AUX,Va-r3s-n,aux
220,1298-1300,že,_,_,_,_,_,224,PART,Q,advmod
221,1301-1305,pred,_,_,_,_,_,223,ADP,Si,case
222,1306-1311,dan,_,_,_,_,_,224,NOUN,Ncmpi,obl
223,1312-1322,napovedati,_,_,*->16-1,*[16],_,215,VERB,Vmep-sf,acl
224,1323-1330,prevzem,_,_,_,_,_,224,NOUN,Ncmsan,obj
225,1331-1335,enota,_,_,_,_,_,225,NOUN,Ncfpg,nmod
226,1336-1344,ameriški,_,_,*->13-1,*[13],_,228,ADJ,Agpfsg,amod
227,1345-1350,banka,_,_,*->13-1,*[13],_,226,NOUN,Ncfsg,nmod
228,1351-1357,Lehman,ORG[7],_,*->13-1,*[13],_,228,PROPN,Npfsg,nmod
229,1358-1366,Brothers,ORG[7],_,*->13-1,*[13],_,229,PROPN,Npfsn,flat:name
230,1367-1368,v,_,_,_,_,_,232,ADP,Sl,case
231,1369-1375,Evropa,LOC,0,*->7-1,*[7],3 - Nevtralno,228,PROPN,Npfsl,nmod
232,1376-1377,",",_,_,_,_,_,236,PUNCT,Z,punct
233,1378-1380,na,_,_,_,_,_,236,ADP,Sl,case
234,1381-1389,bližnji,LOC[8],0,*->8-1,*[8],3 - Nevtralno[17],236,ADJ,Agpmsl,amod
235,1390-1396,vzhod,LOC[8],0,*->8-1,*[8],3 - Nevtralno[17],232,NOUN,Ncmsl,conj
236,1397-1399,in,_,_,_,_,_,242,CCONJ,Cc,cc
237,1400-1401,v,_,_,_,_,_,242,ADP,Sl,case
238,1402-1409,azijski,_,_,_,_,_,242,ADJ,Agpnsn,amod
239,1410-1411,-,_,_,_,_,_,241,PUNCT,Z,punct
240,1412-1421,pacifiški,_,_,_,_,_,239,ADJ,Agpfsl,conj
241,1422-1428,regija,_,_,_,_,_,232,NOUN,Ncfsl,conj
242,1429-1430,",",_,_,_,_,_,236,PUNCT,Z,punct
243,1431-1433,biti,_,_,_,_,_,245,AUX,Va-f3s-n,aux
244,1434-1442,prevzeti,_,1,*->12-3,*[12],4 - Pozitivno,13,VERB,Vmep-sf,parataxis
245,1443-1447,tudi,_,_,_,_,_,245,PART,Q,advmod
246,1448-1456,globalen,_,_,_,_,_,248,ADJ,Agpfsa,amod
247,1457-1462,enota,_,_,_,_,_,245,NOUN,Ncfsa,obj
248,1463-1470,Lehman,ORG,0,*->13-2,*[13],3 - Nevtralno,248,PROPN,Npmsg,nmod
249,1471-1473,za,_,_,_,_,_,251,ADP,Sa,case
250,1474-1481,podpora,_,_,_,_,_,248,NOUN,Ncfsa,nmod
251,1482-1492,poslovanje,_,_,_,_,_,251,NOUN,Ncnsd,nmod
252,1493-1494,",",_,_,_,_,_,255,PUNCT,Z,punct
253,1495-1496,z,_,_,_,_,_,255,ADP,Si,case
254,1497-1504,sedež,_,_,_,_,_,252,NOUN,Ncmsi,appos
255,1505-1506,v,_,_,_,_,_,257,ADP,Sl,case
256,1507-1513,Indija,LOC,0,*->9-1,*[9],3 - Nevtralno,255,PROPN,Npfsl,nmod
257,1514-1515,.,_,_,_,_,_,245,PUNCT,Z,punct
258,1516-1524,japonski,_,_,_,_,_,260,ADJ,Agpmpn,amod
259,1525-1531,medij,_,_,_,_,_,262,NOUN,Ncmpn,nsubj
260,1532-1536,tudi,_,_,_,_,_,262,PART,Q,advmod
261,1537-1545,poročati,_,_,_,_,_,13,VERB,Vmpr3p,parataxis
262,1546-1547,",",_,_,_,_,_,277,PUNCT,Z,punct
263,1548-1550,da,_,_,_,_,_,277,SCONJ,Cs,mark
264,1551-1553,se,_,_,_,_,_,277,PRON,Px------y,expl
265,1554-1556,biti,_,_,_,_,_,277,AUX,Va-r3s-n,aux
266,1557-1565,velik,_,_,_,_,_,269,ADJ,Agsfsn,amod
267,1566-1574,japonski,_,_,*->10-1,*[10],_,269,ADJ,Agpfsn,amod
268,1575-1580,banka,_,_,*->10-1,*[10],_,277,NOUN,Ncfsn,nsubj
269,1581-1591,Mitsubishi,ORG[9],_,*->10-1,*[10],_,269,PROPN,Npmsn,nmod
270,1592-1595,UFJ,ORG[9],_,*->10-1,*[10],_,270,PROPN,Npmsn,flat:name
271,1596-1605,Financial,ORG[9],_,*->10-1,*[10],_,273,PROPN,Npmsn,nmod
272,1606-1611,Group,ORG[9],_,*->10-1,*[10],_,269,PROPN,Npmsn,nmod
273,1612-1613,z,_,_,_,_,_,275,ADP,Si,case
274,1614-1620,Morgan,PER[10],0,*->11-1,*[11],3 - Nevtralno[18],277,PROPN,Npmsi,obl
275,1621-1631,Stanley,PER[10],0,*->11-1,*[11],3 - Nevtralno[18],275,PROPN,Npmsi,flat:name
276,1632-1642,dogovoriti,_,_,_,_,_,262,VERB,Vmep-sf,ccomp
277,1643-1644,o,_,_,_,_,_,279,ADP,Sl,case
278,1645-1654,združitev,_,_,_,_,_,277,NOUN,Ncfsl,obl
279,1655-1660,svoj,_,1,*->10-2,*[10],4 - Pozitivno,282,DET,Px-fsg,det
280,1661-1669,japonski,_,_,_,_,_,282,ADJ,Agpfsg,amod
281,1670-1675,enota,_,_,_,_,_,279,NOUN,Ncfsg,nmod
282,1676-1678,za,_,_,_,_,_,284,ADP,Sa,case
283,1679-1688,trgovanje,_,_,_,_,_,282,NOUN,Ncnsa,nmod
284,1689-1690,z,_,_,_,_,_,287,ADP,Si,case
285,1691-1703,vrednosten,_,_,_,_,_,287,ADJ,Agpmpi,amod
286,1704-1711,papir,_,_,_,_,_,284,NOUN,Ncmpi,nmod
287,1712-1713,.,_,_,_,_,_,277,PUNCT,Z,punct
288,1714-1717,UBS,ORG,_,*->17-1,*[17],_,291,PROPN,Npfsn,nsubj
289,1718-1720,biti,_,_,_,_,_,291,AUX,Va-f3s-n,aux
290,1721-1727,ukiniti,_,_,_,_,_,13,VERB,Vmep-sm,parataxis
291,1728-1732,2000,_,_,_,_,_,294,NUM,Mdc,nummod
292,1733-1741,deloven,_,_,_,_,_,294,ADJ,Agpnpg,amod
293,1742-1746,mesto,_,_,_,_,_,291,NOUN,Ncnpg,obj
294,1747-1750,UBS,ORG,_,*->17-2,*[17],_,294,PROPN,Npfsn,nmod
295,1751-1752,",",_,_,_,_,_,298,PUNCT,Z,punct
296,1753-1761,evropski,_,_,*->17-3,*[17],_,298,ADJ,Agpfsn,amod
297,1762-1767,banka,_,_,*->17-3,*[17],_,295,NOUN,Ncfsn,appos
298,1768-1769,",",_,_,_,_,_,306,PUNCT,Z,punct
299,1770-1772,ki,_,_,_,_,_,306,SCONJ,Cs,mark
300,1773-1775,on,_,_,*->17-4,*[17],_,306,PRON,Pp3fsa--y,obj
301,1776-1778,biti,_,_,_,_,_,306,AUX,Va-r3s-n,aux
302,1779-1787,finančen,_,_,_,_,_,304,ADJ,Agpfsn,amod
303,1788-1793,kriza,_,_,_,_,_,306,NOUN,Ncfsn,nsubj
304,1794-1801,najbolj,_,_,_,_,_,306,ADV,Rgs,advmod
305,1802-1811,prizadeti,_,_,_,_,_,298,VERB,Vmep-sf,acl
306,1812-1813,",",_,_,_,_,_,306,PUNCT,Z,punct
307,1814-1816,biti,_,_,_,_,_,314,AUX,Va-f3s-n,aux
308,1817-1818,v,_,_,_,_,_,310,ADP,Sl,case
309,1819-1826,oddelek,_,_,_,_,_,314,NOUN,Ncmsl,obl
310,1827-1829,za,_,_,_,_,_,313,ADP,Sa,case
311,1830-1843,investicijski,_,_,_,_,_,313,ADJ,Agpnsa,amod
312,1844-1854,bančništvo,_,_,_,_,_,310,NOUN,Ncnsa,nmod
313,1855-1862,ukiniti,_,_,_,_,_,13,VERB,Vmep-sf,parataxis
314,1863-1867,2000,_,_,_,_,_,317,NUM,Mdc,nummod
315,1868-1876,deloven,_,_,_,_,_,317,ADJ,Agpnpg,amod
316,1877-1881,mesto,_,_,_,_,_,314,NOUN,Ncnpg,obj
317,1882-1883,",",_,_,_,_,_,320,PUNCT,Z,punct
318,1884-1887,kar,_,_,_,_,_,320,PRON,Pr-nsn,nsubj
319,1888-1899,predstavljati,_,_,_,_,_,314,VERB,Vmpr3s,advcl
320,1900-1902,10,_,_,_,_,_,322,NUM,Mdc,nummod
321,1903-1912,odstotek,_,_,_,_,_,320,NOUN,Ncmpg,obj
322,1913-1917,ves,_,_,_,_,_,324,DET,Pg-mpg,nmod
323,1918-1928,zaposlen,_,_,_,_,_,322,ADJ,Appmpg,amod
324,1929-1930,v,_,_,_,_,_,327,ADP,Sl,case
325,1931-1934,ta,_,_,_,_,_,327,DET,Pd-msl,det
326,1935-1942,oddelek,_,_,_,_,_,324,NOUN,Ncmsl,nmod
327,1943-1944,.,_,_,_,_,_,320,PUNCT,Z,punct
328,1945-1949,tako,_,_,_,_,_,330,ADV,Rgp,advmod
329,1950-1952,biti,_,_,_,_,_,314,VERB,Va-f3s-n,advcl
330,1953-1955,na,_,_,_,_,_,332,ADP,Sl,case
331,1956-1961,konec,_,_,_,_,_,330,NOUN,Ncmsl,obl
332,1962-1966,leto,_,_,_,_,_,332,NOUN,Ncnsg,nmod
333,1967-1968,v,_,_,_,_,_,336,ADP,Sl,case
334,1969-1983,investicijski,_,_,_,_,_,336,ADJ,Agpnsl,amod
335,1984-1994,bančništvo,_,_,_,_,_,330,NOUN,Ncnsl,obl
336,1995-1998,UBS,ORG,_,*->17-5,*[17],_,336,PROPN,Npmsn,nmod
337,1999-2005,17.000,_,_,_,_,_,339,NUM,Mdc,nummod
338,2006-2016,zaposlen,_,_,_,_,_,336,ADJ,Appmpg,nmod
339,2017-2018,",",_,_,_,_,_,330,PUNCT,Z,punct
340,2019-2022,saj,_,_,_,_,_,348,CCONJ,Cc,cc
341,2023-2025,biti,_,_,_,_,_,348,AUX,Va-r3s-n,aux
342,2026-2031,banka,_,2,*->17-6,*[17],2 - Negativno,348,NOUN,Ncfsn,nsubj
343,2032-2038,zaradi,_,_,_,_,_,346,ADP,Sg,case
344,2039-2047,finančen,_,_,_,_,_,346,ADJ,Agpfsg,amod
345,2048-2053,kriza,_,_,_,_,_,348,NOUN,Ncfsg,obl
346,2054-2056,že,_,_,_,_,_,348,PART,Q,advmod
347,2057-2066,odpustiti,_,_,_,_,_,330,VERB,Vmep-sf,conj
348,2067-2071,6000,_,_,_,_,_,350,NUM,Mdc,nummod
349,2072-2082,zaposlen,_,_,_,_,_,348,ADJ,Appfpg,obj
350,2083-2084,.,_,_,_,_,_,339,PUNCT,Z,punct
351,2085-2087,EU,LOC,_,*->4-1,*[4],_,339,PROPN,Npfsg,nmod
352,2088-2089,:,_,_,_,_,_,352,PUNCT,Z,punct
353,2090-2098,trgovina,_,_,_,_,_,371,NOUN,Ncfsn,nsubj
354,2099-2101,na,_,_,_,_,_,358,ADP,Sa,case
355,2102-2108,drobno,_,_,_,_,_,357,ADV,Rgp,advmod
356,2109-2116,navzdol,_,_,_,_,_,358,ADV,Rgp,advmod
357,2117-2122,obseg,_,_,_,_,_,354,NOUN,Ncmsan,nmod
358,2123-2131,trgovina,_,_,_,_,_,358,NOUN,Ncfsg,nmod
359,2132-2134,na,_,_,_,_,_,361,ADP,Sa,case
360,2135-2141,drobno,_,_,_,_,_,371,ADV,Rgp,advmod
361,2142-2144,se,_,_,_,_,_,371,PRON,Px------y,expl
362,2145-2147,biti,_,_,_,_,_,371,AUX,Va-r3s-n,aux
363,2148-2149,v,_,_,_,_,_,365,ADP,Sl,case
364,2150-2157,območje,_,_,_,_,_,371,NOUN,Ncnsl,obl
365,2158-2162,evro,_,_,_,_,_,365,NOUN,Ncmsg,nmod
366,2163-2170,avgust,_,_,_,_,_,371,NOUN,Ncmsg,obl
367,2171-2173,na,_,_,_,_,_,370,ADP,Sl,case
368,2174-2179,leten,_,_,_,_,_,370,ADJ,Agpfsl,amod
369,2180-2185,raven,_,_,_,_,_,371,NOUN,Ncfsl,obl
370,2186-2194,zmanjšati,_,_,_,_,_,13,VERB,Vmep-sm,parataxis
371,2195-2197,za,_,_,_,_,_,374,ADP,Sa,case
372,2198-2201,"1,8",_,_,_,_,_,374,NUM,Mdc,nummod
373,2202-2210,odstotek,_,_,_,_,_,371,NOUN,Ncmsg,obl
374,2211-2212,",",_,_,_,_,_,371,PUNCT,Z,punct
375,2213-2214,v,_,_,_,_,_,378,ADP,Sl,case
376,2215-2222,celoten,_,_,_,_,_,378,ADJ,Agpfsl,amod
377,2223-2225,EU,ORG,_,*->4-2,*[4],_,374,PROPN,Npfsl,appos
378,2226-2228,pa,_,_,_,_,_,378,CCONJ,Cc,advmod
379,2229-2231,za,_,_,_,_,_,382,ADP,Sa,case
380,2232-2235,"0,2",_,_,_,_,_,382,NUM,Mdc,nummod
381,2236-2244,odstotek,_,_,_,_,_,374,NOUN,Ncmsg,appos
382,2245-2246,.,_,_,_,_,_,382,PUNCT,Z,punct
383,2247-2248,v,_,_,_,_,_,385,ADP,Sl,case
384,2249-2258,nasprotje,_,_,_,_,_,382,NOUN,Ncnsl,nmod
385,2259-2260,z,_,_,_,_,_,387,ADP,Si,case
386,2261-2263,EU,ORG,_,*->4-3,*[4],_,385,PROPN,Npfsi,nmod
387,2264-2266,se,_,_,_,_,_,396,PRON,Px------y,expl
388,2267-2269,biti,_,_,_,_,_,396,AUX,Va-r3s-n,aux
389,2270-2271,v,_,_,_,_,_,391,ADP,Sl,case
390,2272-2281,Slovenija,ORG,0,*->14-1,*[14],3 - Nevtralno,396,PROPN,Npfsl,obl
391,2282-2287,obseg,_,_,_,_,_,396,NOUN,Ncmsn,nsubj
392,2288-2296,trgovina,_,_,_,_,_,392,NOUN,Ncfsg,nmod
393,2297-2299,na,_,_,_,_,_,395,ADP,Sa,case
394,2300-2306,drobno,_,_,_,_,_,396,ADV,Rgp,advmod
395,2307-2313,zvišati,_,_,_,_,_,382,VERB,Vmep-sm,acl
396,2314-2316,za,_,_,_,_,_,399,ADP,Sa,case
397,2317-2320,"6,9",_,_,_,_,_,399,NUM,Mdc,nummod
398,2321-2329,odstotek,_,_,_,_,_,396,NOUN,Ncmsg,obl
399,2330-2331,.,_,_,_,_,_,396,PUNCT,Z,punct
400,2332-2334,na,_,_,_,_,_,403,ADP,Sl,case
401,2335-2342,mesečen,_,_,_,_,_,403,ADJ,Agpfsl,amod
402,2343-2348,raven,_,_,_,_,_,406,NOUN,Ncfsl,obl
403,2349-2351,pa,_,_,_,_,_,406,CCONJ,Cc,advmod
404,2352-2354,se,_,_,_,_,_,406,PRON,Px------y,expl
405,2355-2361,kazati,_,_,_,_,_,13,VERB,Vmpr3p,parataxis
406,2362-2366,bolj,_,_,_,_,_,408,ADV,Rgc,advmod
407,2367-2376,pozitiven,_,_,_,_,_,409,ADJ,Agpmpn,amod
408,2377-2383,trend,_,_,_,_,_,406,NOUN,Ncmpn,nsubj
409,2384-2385,",",_,_,_,_,_,406,PUNCT,Z,punct
410,2386-2389,saj,_,_,_,_,_,419,CCONJ,Cc,cc
411,2390-2392,se,_,_,_,_,_,419,PRON,Px------y,expl
412,2393-2395,biti,_,_,_,_,_,419,AUX,Va-r3s-n,aux
413,2396-2397,v,_,_,_,_,_,415,ADP,Sl,case
414,2398-2405,območje,_,_,_,_,_,419,NOUN,Ncnsl,obl
415,2406-2410,evro,_,_,_,_,_,415,NOUN,Ncmsg,nmod
416,2411-2416,obseg,_,_,_,_,_,419,NOUN,Ncmsn,nsubj
417,2417-2425,trgovina,_,_,_,_,_,417,NOUN,Ncfsg,nmod
418,2426-2432,zvišati,_,_,_,_,_,406,VERB,Vmep-sm,conj
419,2433-2435,za,_,_,_,_,_,422,ADP,Sa,case
420,2436-2439,"0,3",_,_,_,_,_,422,NUM,Mdc,nummod
421,2440-2448,odstotek,_,_,_,_,_,419,NOUN,Ncmsg,obl
422,2449-2450,",",_,_,_,_,_,419,PUNCT,Z,punct
423,2451-2452,v,_,_,_,_,_,426,ADP,Sl,case
424,2453-2460,celoten,_,_,_,_,_,426,ADJ,Agpfsl,amod
425,2461-2463,EU,ORG,0,*->4-4,*[4],3 - Nevtralno,430,PROPN,Npfsl,nmod
426,2464-2466,pa,_,_,_,_,_,430,CCONJ,Cc,cc
427,2467-2469,za,_,_,_,_,_,430,ADP,Sa,case
428,2470-2473,"0,4",_,_,_,_,_,430,NUM,Mdc,nummod
429,2474-2482,odstotek,_,_,_,_,_,422,NOUN,Ncmsg,appos
430,2483-2484,.,_,_,_,_,_,419,PUNCT,Z,punct
431,2485-2492,državen,_,_,_,_,_,433,ADJ,Agpfsn,amod
432,2493-2498,pomoč,_,_,_,_,_,441,NOUN,Ncfsn,nsubj
433,2499-2503,tudi,_,_,_,_,_,441,PART,Q,advmod
434,2504-2508,Hypo,ORG[11],_,*->18-1,*[18],_,437,PROPN,Npmsn,nmod
435,2509-2513,Real,ORG[11],_,*->18-1,*[18],_,437,PROPN,Npmsn,nmod
436,2514-2520,Estat,ORG[11],_,*->18-1,*[18],_,441,PROPN,Npmsd,obl
437,2521-2529,evropski,ORG[12],0,*->15-1,*[15],3 - Nevtralno[19],439,ADJ,Agpfsn,amod
438,2530-2538,komisija,ORG[12],0,*->15-1,*[15],3 - Nevtralno[19],441,NOUN,Ncfsn,nsubj
439,2539-2541,biti,_,_,_,_,_,441,AUX,Va-r3s-n,aux
440,2542-2550,odobriti,_,_,_,_,_,13,VERB,Vmep-sf,parataxis
441,2551-2556,pomoč,_,_,_,_,_,441,NOUN,Ncfsa,obj
442,2557-2564,nemški,_,_,_,_,_,444,ADJ,Agpfpg,amod
443,2565-2572,oblast,_,_,_,_,_,442,NOUN,Ncfpg,nmod
444,2573-2575,za,_,_,_,_,_,446,ADP,Sa,case
445,2576-2583,rešitev,_,_,_,_,_,444,NOUN,Ncfsa,nmod
446,2584-2592,nemški,_,_,*->18-2,*[18],_,448,ADJ,Agpmsg,amod
447,2593-2601,koncerna,_,_,*->18-2,*[18],_,446,NOUN,Ncmsg,nmod
448,2602-2606,Hypo,ORG[13],_,*->18-2,*[18],_,448,PROPN,Npmsn,nmod
449,2607-2611,Real,ORG[13],_,*->18-2,*[18],_,449,PROPN,Npmsn,nmod
450,2612-2618,Estate,ORG[13],_,*->18-2,*[18],_,449,PROPN,Npmsn,nmod
451,2619-2620,(,_,_,*->18-2,*[18],_,453,PUNCT,Z,punct
452,2621-2624,HRE,ORG,_,*->18-2,*[18],_,451,PROPN,Npmsn,appos
453,2625-2626,),_,_,_,_,_,453,PUNCT,Z,punct
454,2627-2628,",",_,_,_,_,_,460,PUNCT,Z,punct
455,2629-2632,saj,_,_,_,_,_,460,CCONJ,Cc,cc
456,2633-2636,naj,_,_,_,_,_,460,PART,Q,advmod
457,2637-2639,biti,_,_,_,_,_,460,AUX,Va-c,aux
458,2640-2644,biti,_,_,_,_,_,460,AUX,Va-p-pm,cop
459,2645-2655,predviden,_,_,_,_,_,451,ADJ,Appmpn,acl
460,2656-2662,ukrep,_,_,_,_,_,460,NOUN,Ncmpn,nsubj
461,2663-2664,v,_,_,_,_,_,463,ADP,Sl,case
462,2665-2671,sklad,_,_,_,_,_,461,NOUN,Ncmsl,nmod
463,2672-2673,z,_,_,_,_,_,466,ADP,Si,case
464,2674-2682,evropski,_,_,_,_,_,466,ADJ,Agpfsi,amod
465,2683-2693,zakonodaja,_,_,_,_,_,463,NOUN,Ncfsi,nmod
466,2694-2695,.,_,_,_,_,_,460,PUNCT,Z,punct
467,2696-2702,nemški,_,_,_,_,_,469,ADJ,Agpfsn,amod
468,2703-2708,vlada,_,_,_,_,_,474,NOUN,Ncfsn,nsubj
469,2709-2712,naj,_,_,_,_,_,474,PART,Q,advmod
470,2713-2715,biti,_,_,_,_,_,474,AUX,Va-c,aux
471,2716-2720,tako,_,_,_,_,_,473,ADV,Rgp,advmod
472,2721-2724,hre,ORG,_,*->18-3,*[18],_,474,ADV,Rgp,advmod
473,2725-2733,odobriti,_,_,_,_,_,13,VERB,Vmep-sf,parataxis
474,2734-2743,garancija,_,_,_,_,_,474,NOUN,Ncfsa,obj
475,2744-2745,v,_,_,_,_,_,477,ADP,Sl,case
476,2746-2752,višina,_,_,_,_,_,475,NOUN,Ncfsl,nmod
477,2753-2757,"26,6",_,_,_,_,_,479,NUM,Mdc,nummod
478,2758-2767,milijarda,_,_,_,_,_,477,NOUN,Ncfsg,nmod
479,2768-2773,evro,_,_,_,_,_,479,NOUN,Ncmpg,nmod
480,2774-2775,",",_,_,_,_,_,487,PUNCT,Z,punct
481,2776-2787,komercialen,_,_,_,_,_,483,ADJ,Agpfpn,amod
482,2788-2793,banka,_,_,_,_,_,487,NOUN,Ncfpn,nsubj
483,2794-2796,pa,_,_,_,_,_,487,CCONJ,Cc,advmod
484,2797-2799,on,_,0,*->18-4,*[18],3 - Nevtralno,487,PRON,Pp3fsd--y,obj
485,2800-2804,biti,_,_,_,_,_,487,AUX,Va-f3p-n,aux
486,2805-2815,zagotoviti,_,_,_,_,_,474,VERB,Vmep-pf,conj
487,2816-2818,še,_,_,_,_,_,487,PART,Q,advmod
488,2819-2822,"8,5",_,_,_,_,_,490,NUM,Mdc,nummod
489,2823-2832,milijarda,_,_,_,_,_,487,NOUN,Ncfsg,obj
490,2833-2838,evro,_,_,_,_,_,490,NOUN,Ncmpg,nmod
491,2839-2840,.,_,_,_,_,_,13,PUNCT,Z,punct
492,2841-2850,Medvedjev,PER,_,*->19-1,*[19],_,504,PROPN,Npmsn,parataxis
493,2851-2852,:,_,_,_,_,_,493,PUNCT,Z,punct
494,2853-2861,prevlada,_,_,_,_,_,499,NOUN,Ncfpn,nsubj
495,2862-2865,en,_,_,_,_,_,497,NUM,Mlpfsg,nummod
496,2866-2872,država,_,_,_,_,_,495,NOUN,Ncfsg,nmod
497,2873-2875,biti,_,_,_,_,_,499,AUX,Va-r3s-n,cop
498,2876-2881,konec,_,_,_,_,_,13,NOUN,Ncmsn,parataxis
499,2882-2887,ruski,_,_,*->19-2,*[19],_,501,ADJ,Agpmsny,amod
500,2888-2898,predsednik,_,_,*->19-2,*[19],_,499,NOUN,Ncmsn,nmod
501,2899-2906,Dmitrij,PER[14],_,*->19-2,*[19],_,501,PROPN,Npmsn,nmod
502,2907-2916,Medvedjev,PER[14],_,*->19-2,*[19],_,502,PROPN,Npmsn,flat:name
503,2917-2921,meniti,_,_,_,_,_,499,VERB,Vmpr3s,csubj
504,2922-2923,",",_,_,_,_,_,510,PUNCT,Z,punct
505,2924-2926,da,_,_,_,_,_,510,SCONJ,Cs,mark
506,2927-2935,trenuten,_,_,_,_,_,509,ADJ,Agpfsn,amod
507,2936-2944,finančen,_,_,_,_,_,509,ADJ,Agpfsn,amod
508,2945-2950,kriza,_,_,_,_,_,510,NOUN,Ncfsn,nsubj
509,2951-2959,nakazovati,_,_,_,_,_,504,VERB,Vmpr3s,ccomp
510,2960-2962,na,_,_,_,_,_,512,ADP,Sa,case
511,2963-2965,ta,_,_,_,_,_,510,DET,Pd-nsa,obl
512,2966-2967,",",_,_,_,_,_,531,PUNCT,Z,punct
513,2968-2970,da,_,_,_,_,_,531,SCONJ,Cs,mark
514,2971-2973,se,_,_,_,_,_,531,PRON,Px------y,expl
515,2974-2977,čas,_,_,_,_,_,531,NOUN,Ncmsn,nsubj
516,2978-2986,prevlada,_,_,_,_,_,516,NOUN,Ncfsg,nmod
517,2987-2990,en,_,_,_,_,_,519,NUM,Mlpfsg,nummod
518,2991-2997,država,_,_,_,_,_,517,NOUN,Ncfsg,nmod
519,2998-2999,(,_,_,_,_,_,523,PUNCT,Z,punct
520,3000-3002,in,_,_,_,_,_,523,CCONJ,Cc,cc
521,3003-3006,en,_,_,_,_,_,523,NUM,Mlpfsg,nummod
522,3007-3013,valuta,_,_,_,_,_,519,NOUN,Ncfsg,appos
523,3014-3015,),_,_,_,_,_,523,PUNCT,Z,punct
524,3016-3017,",",_,_,_,_,_,527,PUNCT,Z,punct
525,3018-3020,ki,_,_,_,_,_,527,SCONJ,Cs,mark
526,3021-3027,odločati,_,_,_,_,_,519,VERB,Vmpr3s,acl
527,3028-3029,o,_,_,_,_,_,529,ADP,Sl,case
528,3030-3034,ves,_,_,_,_,_,527,DET,Pg-nsl,obl
529,3035-3036,",",_,_,_,_,_,527,PUNCT,Z,punct
530,3037-3044,končevati,_,_,_,_,_,512,VERB,Vmpr3s,acl
531,3045-3046,.,_,_,_,_,_,536,PUNCT,Z,punct
532,3047-3050,pri,_,_,_,_,_,534,ADP,Sl,case
533,3051-3054,ta,_,_,_,_,_,536,DET,Pd-nsl,obl
534,3055-3057,biti,_,_,_,_,_,536,AUX,Va-r3s-n,aux
535,3058-3064,misliti,_,_,*->19-3,*[19],_,531,VERB,Vmpp-sm,conj
536,3065-3067,na,_,_,_,_,_,538,ADP,Sa,case
537,3068-3076,prevlada,_,_,_,_,_,536,NOUN,Ncfsa,obl
538,3077-3080,ZDA,ORG,_,*->20-1,*[20],_,538,PROPN,Npfpg,nmod
539,3081-3082,",",_,_,_,_,_,536,PUNCT,Z,punct
540,3083-3086,saj,_,_,_,_,_,548,CCONJ,Cc,cc
541,3087-3089,ta,_,_,*->20-2,*[20],_,548,DET,Pd-fsn,nsubj
542,3090-3092,po,_,_,_,_,_,545,ADP,Sl,case
543,3093-3101,njegov,_,0,*->19-4,*[19],3 - Nevtralno,545,DET,Ps3nslsm,det
544,3102-3108,mnenje,_,_,_,_,_,549,NOUN,Ncnsl,obl
545,3109-3111,biti,_,_,_,_,_,548,AUX,Va-r3s-y,cop
546,3112-3115,več,_,_,_,_,_,548,PART,Q,advmod
547,3116-3122,zmožen,_,2,*->20-3,*[20],2 - Negativno,536,ADJ,Agpfsn,conj
548,3123-3134,nadzorovati,_,_,_,_,_,548,VERB,Vmpn,ccomp
549,3135-3143,svetoven,_,_,_,_,_,551,ADJ,Agpmpa,amod
550,3144-3148,trg,_,_,_,_,_,549,NOUN,Ncmpa,obj
