idx,chars_idx,token,entity_type,sentiment,idk_1,idk_2,orig_sentiment,heads,upos,xpos,deprel
0,0-9,Ljubljana,LOC,0,*->1-1,*[1],3 - Nevtralno,20,PROPN,Npfsn,parataxis
1,10-11,-,_,_,_,_,_,1,PUNCT,Z,punct
2,12-17,obseg,_,_,_,_,_,9,NOUN,Ncmsn,nsubj
3,18-23,tuj,_,_,_,_,_,5,ADJ,Agpfpg,amod
4,24-30,naložba,_,_,_,_,_,3,NOUN,Ncfpg,nmod
5,31-33,na,_,_,_,_,_,7,ADP,Sl,case
6,34-43,Kitajsko,LOC,_,*->2-1,*[2],_,5,PROPN,Npnsl,nmod
7,44-46,se,_,_,_,_,_,9,PRON,Px------y,expl
8,47-54,zniževati,_,_,_,_,_,0,VERB,Vmpr3s,root
9,55-56,.,_,_,_,_,_,11,PUNCT,Z,punct
10,57-66,Februar,_,_,_,_,_,20,PROPN,Npmsg,obl
11,67-69,biti,_,_,_,_,_,20,AUX,Va-r3p-n,aux
12,70-74,tuj,_,_,_,_,_,14,ADJ,Agpnpn,amod
13,75-83,podjetje,_,_,_,_,_,20,NOUN,Ncnpn,nsubj
14,84-86,za,_,_,_,_,_,16,ADP,Sa,case
15,87-94,naložba,_,_,_,_,_,14,NOUN,Ncfpa,nmod
16,95-96,v,_,_,_,_,_,19,ADP,Sa,case
17,97-105,kitajski,_,_,_,_,_,19,ADJ,Agpnsa,amod
18,106-118,gospodarstvo,_,_,_,_,_,16,NOUN,Ncnsa,nmod
19,119-127,nameniti,_,_,_,_,_,9,VERB,Vmep-pf,parataxis
20,128-131,"5,8",_,_,_,_,_,22,NUM,Mdc,nummod
21,132-141,milijarda,_,_,_,_,_,20,NOUN,Ncfsg,obj
22,142-150,dolar,_,_,_,_,_,22,NOUN,Ncmpg,nmod
23,151-152,",",_,_,_,_,_,26,PUNCT,Z,punct
24,153-156,kar,_,_,_,_,_,26,PRON,Pr-nsn,nsubj
25,157-159,biti,_,_,_,_,_,20,VERB,Va-r3s-n,advcl
26,160-164,"15,8",_,_,_,_,_,28,NUM,Mdc,nummod
27,165-173,odstotek,_,_,_,_,_,29,NOUN,Ncmsg,nmod
28,174-178,manj,_,_,_,_,_,26,DET,Rgc,advmod
29,179-182,kot,_,_,_,_,_,33,SCONJ,Cs,case
30,183-184,v,_,_,_,_,_,33,ADP,Sl,case
31,185-191,enak,_,_,_,_,_,33,DET,Pi-nsl,det
32,192-199,obdobje,_,_,_,_,_,29,NOUN,Ncnsl,nmod
33,200-204,lani,_,_,_,_,_,29,ADV,Rgp,advmod
34,205-206,",",_,_,_,_,_,26,PUNCT,Z,punct
35,207-209,biti,_,_,_,_,_,44,AUX,Va-r3s-n,aux
36,210-212,po,_,_,_,_,_,38,ADP,Sl,case
37,213-221,navedba,_,_,_,_,_,44,NOUN,Ncfpl,obl
38,222-230,ameriški,_,_,*->3-1,*[3],_,41,ADJ,Agpfsg,amod
39,231-239,tiskoven,_,_,*->3-1,*[3],_,41,ADJ,Agpfsg,amod
40,240-248,agencija,_,_,*->3-1,*[3],_,38,NOUN,Ncfsg,nmod
41,249-251,AP,ORG,_,*->3-1,*[3],_,41,PROPN,Npfsn,nmod
42,252-257,danes,_,_,_,_,_,44,ADV,Rgp,advmod
43,258-267,sporočilo,_,_,_,_,_,9,NOUN,Ncnsn,parataxis
44,268-276,kitajski,_,_,_,_,_,46,ADJ,Agpnsn,amod
45,277-288,ministrstvo,_,_,_,_,_,44,NOUN,Ncnsn,nmod
46,289-291,za,_,_,_,_,_,48,ADP,Sa,case
47,292-300,trgovina,_,_,_,_,_,46,NOUN,Ncfsa,nmod
48,301-302,.,_,_,_,_,_,44,PUNCT,Z,punct
49,303-311,globalen,_,_,_,_,_,54,ADJ,Agpfsn,amod
50,312-323,gospodarski,_,_,_,_,_,54,ADJ,Agpfsn,amod
51,324-326,in,_,_,_,_,_,53,CCONJ,Cc,cc
52,327-335,finančen,_,_,_,_,_,51,ADJ,Agpfsn,conj
53,336-341,kriza,_,_,_,_,_,56,NOUN,Ncfsn,nsubj
54,342-344,biti,_,_,_,_,_,56,AUX,Va-r3s-n,aux
55,345-355,upočasniti,_,_,_,_,_,44,VERB,Vmep-sf,conj
56,356-363,priliva,_,_,_,_,_,56,NOUN,Ncfpa,obj
57,364-370,tuj,_,_,_,_,_,59,ADJ,Agpmsg,amod
58,371-379,kapital,_,_,_,_,_,57,NOUN,Ncmsg,nmod
59,380-381,",",_,_,_,_,_,62,PUNCT,Z,punct
60,382-385,kar,_,_,_,_,_,62,PRON,Pr-nsa,obj
61,386-392,občutiti,_,_,_,_,_,59,VERB,Vmer3s,acl
62,393-397,tudi,_,_,_,_,_,62,PART,Q,advmod
63,398-406,Kitajska,ORG,_,*->2-2,*[2],_,62,PROPN,Npfsn,nsubj
64,407-408,",",_,_,_,_,_,71,PUNCT,Z,punct
65,409-413,kjer,_,_,_,_,_,71,SCONJ,Cs,mark
66,414-416,biti,_,_,_,_,_,71,AUX,Va-r3p-n,aux
67,417-421,biti,_,_,_,_,_,71,AUX,Va-p-pf,cop
68,422-426,tuj,_,_,_,_,_,70,ADJ,Agpfpn,amod
69,427-438,investicija,_,_,_,_,_,71,NOUN,Ncfpn,nsubj
70,439-443,eden,_,_,_,_,_,64,NUM,Mlpmsn,acl
71,444-446,od,_,_,_,_,_,73,ADP,Sg,case
72,447-455,motor,_,_,_,_,_,71,NOUN,Ncmpg,nmod
73,456-467,gospodarski,_,_,_,_,_,75,ADJ,Agpfsg,amod
74,468-473,rast,_,_,_,_,_,73,NOUN,Ncfsg,nmod
75,474-475,.,_,_,_,_,_,71,PUNCT,Z,punct
76,476-482,vseeno,_,_,_,_,_,82,ADV,Rgp,advmod
77,483-485,pa,_,_,_,_,_,82,CCONJ,Cc,advmod
78,486-488,biti,_,_,_,_,_,82,AUX,Va-r3s-n,cop
79,489-499,februarski,_,_,_,_,_,81,ADJ,Agpnsn,amod
80,500-511,nazadovanje,_,_,_,_,_,82,NOUN,Ncnsn,nsubj
81,512-518,majhen,_,_,_,_,_,9,ADJ,Agcnsn,parataxis
82,519-521,od,_,_,_,_,_,84,ADP,Sg,case
83,522-533,januarski,_,_,_,_,_,82,ADJ,Agpnsg,amod
84,534-535,",",_,_,_,_,_,94,PUNCT,Z,punct
85,536-538,ko,_,_,_,_,_,94,SCONJ,Cs,mark
86,539-541,biti,_,_,_,_,_,94,AUX,Va-r3s-n,aux
87,542-547,obseg,_,_,_,_,_,94,NOUN,Ncmsn,nsubj
88,548-553,tuj,_,_,_,_,_,90,ADJ,Agpfpg,amod
89,554-560,naložba,_,_,_,_,_,88,NOUN,Ncfpg,nmod
90,561-562,v,_,_,_,_,_,93,ADP,Sl,case
91,563-571,medleten,_,_,_,_,_,93,ADJ,Agpfsl,amod
92,572-582,primerjava,_,_,_,_,_,94,NOUN,Ncfsl,obl
93,583-590,oslabiti,_,_,_,_,_,82,VERB,Vmep-sm,advcl
94,591-593,za,_,_,_,_,_,97,ADP,Sa,case
95,594-598,"32,7",_,_,_,_,_,97,NUM,Mdc,nummod
96,599-607,odstotek,_,_,_,_,_,94,NOUN,Ncmsg,obl
97,608-609,.,_,_,_,_,_,94,PUNCT,Z,punct
98,610-611,v,_,_,_,_,_,102,ADP,Sl,case
99,612-617,prvi,_,_,_,_,_,102,ADJ,Mlompl,amod
100,618-622,dva,_,_,_,_,_,102,NUM,Mlcmdl,nummod
101,623-630,mesec,_,_,_,_,_,108,NOUN,Ncmdl,obl
102,631-636,letos,_,_,_,_,_,108,ADV,Rgp,advmod
103,637-639,biti,_,_,_,_,_,108,AUX,Va-r3p-n,aux
104,640-642,se,_,_,_,_,_,108,PRON,Px------y,expl
105,643-647,tuj,_,_,_,_,_,107,ADJ,Agpfpn,amod
106,648-659,investicija,_,_,_,_,_,108,NOUN,Ncfpn,nsubj
107,660-667,znižati,_,_,_,_,_,82,VERB,Vmep-pf,csubj
108,668-670,za,_,_,_,_,_,111,ADP,Sa,case
109,671-675,"26,2",_,_,_,_,_,111,NUM,Mdc,nummod
110,676-684,odstotek,_,_,_,_,_,108,NOUN,Ncmsg,obl
111,685-690,glede,_,_,_,_,_,115,ADV,Rgp,advmod
112,691-693,na,_,_,_,_,_,115,ADP,Sa,case
113,694-699,enak,_,_,_,_,_,115,DET,Pi-nsa,det
114,700-707,obdobje,_,_,_,_,_,108,NOUN,Ncnsa,obl
115,708-712,lani,_,_,_,_,_,115,ADV,Rgp,advmod
116,713-714,.,_,_,_,_,_,108,PUNCT,Z,punct
117,715-722,občuten,_,_,_,_,_,119,ADJ,Agpmsan,amod
118,723-728,padec,_,_,_,_,_,125,NOUN,Ncmsn,nsubj
119,729-730,v,_,_,_,_,_,121,ADP,Sl,case
120,731-738,prilivo,_,_,_,_,_,119,NOUN,Ncmsl,nmod
121,739-744,tuj,_,_,_,_,_,123,ADJ,Agpfpg,amod
122,745-751,naložba,_,_,_,_,_,121,NOUN,Ncfpg,nmod
123,752-760,Kitajska,ORG,_,*->2-3,*[2],_,123,PROPN,Npfsn,nmod
124,761-767,beležiti,_,_,_,_,_,108,VERB,Vmpr3s,conj
125,768-770,po,_,_,_,_,_,128,ADP,Sl,case
126,771-778,lanski,_,_,_,_,_,128,ADJ,Agpmsl,amod
127,779-788,september,_,_,_,_,_,125,NOUN,Ncmsl,obl
128,789-790,",",_,_,_,_,_,138,PUNCT,Z,punct
129,791-793,ko,_,_,_,_,_,138,SCONJ,Cs,mark
130,794-796,biti,_,_,_,_,_,138,AUX,Va-r3p-n,aux
131,797-799,se,_,_,_,_,_,138,PRON,Px------y,expl
132,800-807,razmera,_,_,_,_,_,138,NOUN,Ncfpn,nsubj
133,808-809,v,_,_,_,_,_,136,ADP,Sl,case
134,810-821,mednaroden,_,_,_,_,_,136,ADJ,Agpnsl,amod
135,822-828,okolje,_,_,_,_,_,138,NOUN,Ncnsl,obl
136,829-834,močno,_,_,_,_,_,138,ADV,Rgp,advmod
137,835-844,zaostriti,_,_,_,_,_,128,VERB,Vmep-pf,acl
138,845-846,",",_,_,_,_,_,138,PUNCT,Z,punct
139,847-860,povpraševanje,_,_,_,_,_,147,NOUN,Ncnsa,obj
140,861-863,po,_,_,_,_,_,143,ADP,Sl,case
141,864-873,kitajski,_,_,_,_,_,143,ADJ,Agpmpl,amod
142,874-882,izdelek,_,_,_,_,_,140,NOUN,Ncmpl,nmod
143,883-885,pa,_,_,_,_,_,146,CCONJ,Cc,advmod
144,886-888,biti,_,_,_,_,_,146,AUX,Va-r3s-n,aux
145,889-895,začeti,_,_,_,_,_,125,VERB,Vmep-sn,parataxis
146,896-903,upadati,_,_,_,_,_,146,VERB,Vmpn,xcomp
147,904-905,.,_,_,_,_,_,146,PUNCT,Z,punct
148,906-914,Kitajska,_,_,_,_,_,150,ADJ,Agpfsn,amod
149,915-920,vlada,_,_,_,_,_,152,NOUN,Ncfsn,nsubj
150,921-925,tudi,_,_,_,_,_,152,PART,Q,advmod
151,926-930,meniti,_,_,_,_,_,146,VERB,Vmpr3s,conj
152,931-932,",",_,_,_,_,_,162,PUNCT,Z,punct
153,933-935,da,_,_,_,_,_,162,SCONJ,Cs,mark
154,936-938,biti,_,_,_,_,_,162,AUX,Va-f3s-n,aux
155,939-947,stabilen,_,_,_,_,_,158,ADJ,Agpfsn,amod
156,948-954,domač,_,_,*->2-4,*[2],_,158,ADJ,Agpfsn,amod
157,955-961,valuta,_,_,_,_,_,162,NOUN,Ncfsn,nsubj
158,962-963,",",_,_,_,_,_,160,PUNCT,Z,punct
159,964-968,juan,_,_,_,_,_,158,PROPN,Npmsn,appos
160,969-970,",",_,_,_,_,_,160,PUNCT,Z,punct
161,971-981,prispevati,_,_,_,_,_,152,VERB,Vmbp-sf,ccomp
162,982-983,k,_,_,_,_,_,166,ADP,Sd,case
163,984-994,globalen,_,_,_,_,_,166,ADJ,Agpnsd,amod
164,995-1008,gospodarski,_,_,_,_,_,166,ADJ,Agpnsd,amod
165,1009-1018,okrevanje,_,_,_,_,_,162,NOUN,Ncnsd,obl
166,1019-1020,.,_,_,_,_,_,162,PUNCT,Z,punct
167,1021-1026,letos,_,_,_,_,_,175,ADV,Rgp,advmod
168,1027-1029,biti,_,_,_,_,_,175,AUX,Va-f3s-n,aux
169,1030-1034,zato,_,_,_,_,_,175,ADV,Rgp,advmod
170,1035-1043,Kitajska,ORG,_,*->2-5,*[2],_,175,PROPN,Npfsn,nsubj
171,1044-1046,po,_,_,_,_,_,173,ADP,Sl,case
172,1047-1056,poročanje,_,_,_,_,_,175,NOUN,Ncnsl,obl
173,1057-1059,AP,ORG,_,*->3-2,*[3],_,173,PROPN,Npfsn,nmod
174,1060-1068,okrepiti,_,_,_,_,_,9,VERB,Vmep-sf,parataxis
175,1069-1076,število,_,_,_,_,_,175,NOUN,Ncnsa,obj
176,1077-1084,obisk,_,_,_,_,_,176,NOUN,Ncmpg,nmod
177,1085-1096,trgovinski,_,_,_,_,_,179,ADJ,Agpfpg,amod
178,1097-1106,delegacija,_,_,_,_,_,177,NOUN,Ncfpg,nmod
179,1107-1108,v,_,_,_,_,_,181,ADP,Sl,case
180,1109-1115,tujina,_,_,_,_,_,179,NOUN,Ncfsl,nmod
181,1116-1117,.,_,_,_,_,_,175,PUNCT,Z,punct
182,1118-1122,tako,_,_,_,_,_,190,ADV,Rgp,advmod
183,1123-1127,biti,_,_,_,_,_,190,AUX,Va-f3p-n,aux
184,1128-1134,vladen,_,_,_,_,_,188,ADJ,Agpnsn,amod
185,1135-1136,-,_,_,_,_,_,187,PUNCT,Z,punct
186,1137-1148,gospodarski,_,_,_,_,_,185,ADJ,Agpfpn,conj
187,1149-1159,delegacija,_,_,_,_,_,190,NOUN,Ncfpn,nsubj
188,1160-1173,verjetno,_,_,_,_,_,190,ADV,Rgs,advmod
189,1174-1182,obiskati,_,_,_,_,_,175,VERB,Vmep-pf,advcl
190,1183-1189,Evropa,LOC,_,*->4-1,*[4],_,190,PROPN,Npfsa,obj
191,1190-1191,",",_,_,_,_,_,193,PUNCT,Z,punct
192,1192-1195,ZDA,LOC,0,*->5-1,*[5],3 - Nevtralno,191,PROPN,Npfpg,conj
193,1196-1197,",",_,_,_,_,_,195,PUNCT,Z,punct
194,1198-1206,Japonska,LOC,0,*->6-1,*[6],3 - Nevtralno,191,PROPN,Npfsa,conj
195,1207-1209,in,_,_,_,_,_,197,CCONJ,Cc,cc
196,1210-1216,država,_,0,*->7-1,*[7],3 - Nevtralno[3],191,NOUN,Ncfpn,conj
197,1217-1228,jugovzhoden,_,0,*->7-1,*[7],3 - Nevtralno[3],199,ADJ,Agpfsg,amod
198,1229-1234,Azije,LOC,0,*->7-1,*[7],3 - Nevtralno[3],197,PROPN,Npfsg,nmod
199,1235-1236,.,_,_,_,_,_,190,PUNCT,Z,punct
200,1237-1246,Februar,_,_,_,_,_,211,PROPN,Npmsg,obl
201,1247-1249,biti,_,_,_,_,_,211,AUX,Va-r3s-n,aux
202,1250-1253,200,_,_,_,_,_,205,NUM,Mdc,nummod
203,1254-1255,-,_,_,_,_,_,205,PUNCT,Z,punct
204,1256-1263,članski,_,_,_,_,_,206,ADJ,Agpfsn,amod
205,1264-1274,delegacija,_,_,_,_,_,211,NOUN,Ncfsn,nsubj
206,1275-1278,med,_,_,_,_,_,208,ADP,Si,case
207,1279-1286,obisk,_,_,_,_,_,206,NOUN,Ncmsi,nmod
208,1287-1288,v,_,_,_,_,_,210,ADP,Sl,case
209,1289-1295,Evropa,LOC,0,*->4-2,*[4],3 - Nevtralno,208,PROPN,Npfsl,nmod
210,1296-1305,podpisati,_,_,_,_,_,9,VERB,Vmep-sf,parataxis
211,1306-1308,za,_,_,_,_,_,214,ADP,Sa,case
212,1309-1311,13,_,_,_,_,_,214,NUM,Mdc,nummod
213,1312-1320,milijarda,_,_,_,_,_,211,NOUN,Ncfpg,obl
214,1321-1329,dolar,_,_,_,_,_,214,NOUN,Ncmpg,nmod
215,1330-1336,pogodba,_,_,_,_,_,215,NOUN,Ncfpg,nmod
216,1337-1338,v,_,_,_,_,_,219,ADP,Sl,case
217,1339-1345,velik,LOC[1],0,*->8-1,*[8],3 - Nevtralno[4],219,ADJ,Agpfsl,amod
218,1346-1355,Britanija,LOC[1],0,*->8-1,*[8],3 - Nevtralno[4],216,PROPN,Npfsl,nmod
219,1356-1357,",",_,_,_,_,_,221,PUNCT,Z,punct
220,1358-1365,Nemčija,LOC,0,*->9-1,*[9],3 - Nevtralno,219,PROPN,Npfsl,conj
221,1366-1367,",",_,_,_,_,_,223,PUNCT,Z,punct
222,1368-1373,Švica,LOC,0,*->10-1,*[10],3 - Nevtralno,219,PROPN,Npfsl,conj
223,1374-1376,in,_,_,_,_,_,225,CCONJ,Cc,cc
224,1377-1384,Španija,LOC,0,*->11-1,*[11],3 - Nevtralno,219,PROPN,Npfsl,conj
225,1385-1386,",",_,_,_,_,_,227,PUNCT,Z,punct
226,1387-1393,navajati,_,_,_,_,_,211,VERB,Vmpr3s,conj
227,1394-1396,AP,ORG,0,*->3-3,*[3],3 - Nevtralno,227,NOUN,Ncmsn,obj
228,1397-1398,.,_,_,_,_,_,227,PUNCT,Z,punct
229,1399-1406,oblast,_,_,_,_,_,233,NOUN,Ncfpn,nsubj
230,1407-1408,v,_,_,_,_,_,232,ADP,Sl,case
231,1409-1416,Peking,LOC,0,*->12-1,*[12],3 - Nevtralno,234,PROPN,Npmsl,obl
232,1417-1423,želeti,_,_,_,_,_,227,VERB,Vmpr3p,conj
233,1424-1434,spodbuditi,_,_,_,_,_,233,VERB,Vmen,xcomp
234,1435-1443,kitajski,_,_,_,_,_,236,ADJ,Agpnpa,amod
235,1444-1452,podjetje,_,_,_,_,_,234,NOUN,Ncnpa,obj
236,1453-1454,k,_,_,_,_,_,239,ADP,Sd,case
237,1455-1469,intenziven,_,_,_,_,_,239,ADJ,Agcnpd,amod
238,1470-1479,vlaganje,_,_,_,_,_,234,NOUN,Ncnpd,obl
239,1480-1481,v,_,_,_,_,_,241,ADP,Sl,case
240,1482-1488,tujina,_,_,_,_,_,239,NOUN,Ncfsl,nmod
241,1489-1490,",",_,_,_,_,_,245,PUNCT,Z,punct
242,1491-1497,obenem,_,_,_,_,_,245,ADV,Rgp,advmod
243,1498-1500,pa,_,_,_,_,_,245,CCONJ,Cc,advmod
244,1501-1509,povečati,_,_,_,_,_,234,VERB,Vmen,conj
245,1510-1517,naložba,_,_,_,_,_,245,NOUN,Ncfpa,obj
246,1518-1519,v,_,_,_,_,_,249,ADP,Sa,case
247,1520-1527,sodoben,_,_,_,_,_,249,ADJ,Agpfpa,amod
248,1528-1539,tehnologija,_,_,_,_,_,246,NOUN,Ncfpa,nmod
249,1540-1541,",",_,_,_,_,_,253,PUNCT,Z,punct
250,1542-1544,ki,_,_,_,_,_,253,SCONJ,Cs,mark
251,1545-1547,biti,_,_,_,_,_,253,AUX,Va-c,aux
252,1548-1557,omogočiti,_,_,_,_,_,249,VERB,Vmep-pf,acl
253,1558-1564,okolje,_,_,_,_,_,253,NOUN,Ncnsd,obj
254,1565-1576,prijazen,_,_,_,_,_,258,ADJ,Agcfsa,amod
255,1577-1579,in,_,_,_,_,_,257,CCONJ,Cc,cc
256,1580-1593,učinkovit,_,_,_,_,_,255,ADJ,Agcfsa,conj
257,1594-1605,proizvodnja,_,_,_,_,_,253,NOUN,Ncfsa,obj
258,1606-1607,.,_,_,_,_,_,245,PUNCT,Z,punct
259,1608-1615,izhoden,_,_,_,_,_,261,ADJ,Agpfsg,amod
260,1616-1627,investicija,_,_,_,_,_,258,NOUN,Ncfsg,nmod
261,1628-1631,naj,_,_,_,_,_,288,PART,Q,advmod
262,1632-1634,biti,_,_,_,_,_,288,AUX,Va-c,aux
263,1635-1639,biti,_,_,_,_,_,288,AUX,Va-p-pf,aux
264,1640-1643,en,_,_,_,_,_,267,NUM,Mlpfsa,nummod
265,1644-1651,glaven,_,_,_,_,_,267,ADJ,Agpfpg,amod
266,1652-1658,težišče,_,_,_,_,_,258,NOUN,Ncnpg,conj
267,1659-1660,v,_,_,_,_,_,269,ADP,Sl,case
268,1661-1668,odnos,_,_,_,_,_,267,NOUN,Ncmpl,nmod
269,1669-1670,z,_,_,_,_,_,271,ADP,Si,case
270,1671-1677,tujina,_,_,_,_,_,269,NOUN,Ncfsi,nmod
271,1678-1679,",",_,_,_,_,_,277,PUNCT,Z,punct
272,1680-1681,z,_,_,_,_,_,274,ADP,Si,case
273,1682-1687,kar,_,_,_,_,_,277,PRON,Pr-nsi,obl
274,1688-1691,naj,_,_,_,_,_,277,PART,Q,advmod
275,1692-1694,biti,_,_,_,_,_,277,AUX,Va-c,aux
276,1695-1705,spodbuditi,_,_,*->2-6,*[2],_,271,VERB,Vmep-pm,acl
277,1706-1710,tudi,_,_,_,_,_,277,PART,Q,advmod
278,1711-1715,rast,_,_,_,_,_,277,NOUN,Ncfsa,obj
279,1716-1728,gospodarstvo,_,_,_,_,_,279,NOUN,Ncnsg,nmod
280,1729-1730,.,_,_,_,_,_,277,PUNCT,Z,punct
281,1731-1739,kitajski,_,_,_,_,_,283,ADJ,Agpfsg,amod
282,1740-1746,družba,_,_,_,_,_,280,NOUN,Ncfsg,nmod
283,1747-1749,biti,_,_,_,_,_,288,AUX,Va-r3p-n,aux
284,1750-1754,tako,_,_,_,_,_,288,ADV,Rgp,advmod
285,1755-1760,letos,_,_,_,_,_,288,ADV,Rgp,advmod
286,1761-1763,že,_,_,_,_,_,288,PART,Q,advmod
287,1764-1773,podpisati,_,_,_,_,_,277,VERB,Vmep-pf,conj
288,1774-1777,več,_,_,_,_,_,290,DET,Rgc,det
289,1778-1786,milijarda,_,_,_,_,_,288,NOUN,Ncfpg,obj
290,1787-1795,dolar,_,_,_,_,_,290,NOUN,Ncmpg,nmod
291,1796-1802,vreden,_,_,_,_,_,293,ADJ,Agpfsg,amod
292,1803-1810,pogodba,_,_,_,_,_,291,NOUN,Ncfsg,nmod
293,1811-1812,o,_,_,_,_,_,295,ADP,Sl,case
294,1813-1819,dobava,_,_,_,_,_,293,NOUN,Ncfsl,nmod
295,1820-1825,nafta,_,_,_,_,_,295,NOUN,Ncfsg,nmod
296,1826-1828,iz,_,_,_,_,_,298,ADP,Sg,case
297,1829-1835,Rusija,LOC,0,*->13-1,*[13],3 - Nevtralno,296,PROPN,Npfsg,nmod
298,1836-1837,",",_,_,_,_,_,300,PUNCT,Z,punct
299,1838-1847,Venezuel,LOC,0,*->14-1,*[14],3 - Nevtralno,298,PROPN,Npfsg,conj
300,1848-1850,in,_,_,_,_,_,302,CCONJ,Cc,cc
301,1851-1860,Brazilija,LOC,0,*->15-1,*[15],3 - Nevtralno,298,PROPN,Npfsg,conj
302,1861-1862,",",_,_,_,_,_,310,PUNCT,Z,punct
303,1863-1871,velik,_,_,_,_,_,306,ADJ,Agsmsny,amod
304,1872-1880,kitajski,_,1,*->16-1,*[16],4 - Pozitivno[5],306,ADJ,Agpmsay,amod
305,1881-1893,proizvajalec,_,1,*->16-1,*[16],4 - Pozitivno[5],311,NOUN,Ncmsan,obj
306,1894-1903,aluminija,_,1,*->16-1,*[16],4 - Pozitivno[5],306,NOUN,Ncmsg,nmod
307,1904-1912,Chinalco,ORG,1,*->16-1,*[16],4 - Pozitivno[5],307,PROPN,Npfsn,nmod
308,1913-1915,pa,_,_,_,_,_,310,CCONJ,Cc,advmod
309,1916-1924,nameravati,_,_,_,_,_,288,VERB,Vmpr3s,advcl
310,1925-1932,vložiti,_,_,_,_,_,310,VERB,Vmen,xcomp
311,1933-1937,"19,5",_,_,_,_,_,313,NUM,Mdc,nummod
312,1938-1947,milijarda,_,_,_,_,_,311,NOUN,Ncfsg,obj
313,1948-1956,dolar,_,_,_,_,_,313,NOUN,Ncmpg,nmod
314,1957-1958,v,_,_,_,_,_,319,ADP,Sa,case
315,1959-1964,drug,_,_,_,_,_,319,ADJ,Mlpfsa,amod
316,1965-1973,velik,_,_,_,_,_,319,ADJ,Agsfsa,amod
317,1974-1982,rudarski,_,0,*->17-1,*[17],3 - Nevtralno[6],319,ADJ,Agpfsa,amod
318,1983-1989,družba,_,0,*->17-1,*[17],3 - Nevtralno[6],311,NOUN,Ncfsa,obl
319,1990-1992,na,_,0,*->17-1,*[17],3 - Nevtralno[6],321,ADP,Sl,case
320,1993-1998,svet,_,0,*->17-1,*[17],3 - Nevtralno[6],319,NOUN,Ncmsl,nmod
321,1999-2002,Rio,ORG[2],0,*->17-1,*[17],3 - Nevtralno[6],321,PROPN,Npmsn,nmod
322,2003-2008,Tinto,ORG[2],0,*->17-1,*[17],3 - Nevtralno[6],322,PROPN,Npmsn,nmod
323,2009-2010,.,_,_,_,_,_,310,PUNCT,Z,punct
324,2011-2019,Kitajska,ORG,_,*->2-7,*[2],_,322,PROPN,Npfsn,nmod
325,2020-2022,biti,_,_,_,_,_,330,AUX,Va-c,aux
326,2023-2028,letos,_,_,_,_,_,330,ADV,Rgp,advmod
327,2029-2034,sicer,_,_,_,_,_,330,PART,Q,advmod
328,2035-2040,lahko,_,_,_,_,_,330,ADV,Rgp,advmod
329,2041-2049,izgubiti,_,_,_,_,_,310,VERB,Vmep-sf,conj
330,2050-2053,več,_,_,_,_,_,334,DET,Rgc,advmod
331,2054-2057,kot,_,_,_,_,_,331,SCONJ,Cs,fixed
332,2058-2060,80,_,_,_,_,_,334,NUM,Mdc,nummod
333,2061-2069,milijarda,_,_,_,_,_,330,NOUN,Ncfpg,obj
334,2070-2078,dolar,_,_,_,_,_,334,NOUN,Ncmpg,nmod
335,2079-2085,svoj,_,_,*->2-8,*[2],_,338,DET,Px-fpg,det
336,2086-2094,devizen,_,_,_,_,_,338,ADJ,Agpfpg,amod
337,2095-2101,rezerva,_,_,_,_,_,335,NOUN,Ncfpg,nmod
338,2102-2108,zaradi,_,_,_,_,_,341,ADP,Sg,case
339,2109-2118,neugoden,_,_,_,_,_,341,ADJ,Agpmpg,amod
340,2119-2126,nakup,_,_,_,_,_,334,NOUN,Ncmpg,nmod
341,2127-2133,delnica,_,_,_,_,_,341,NOUN,Ncfpg,nmod
342,2134-2137,tik,_,_,_,_,_,345,ADV,Rgp,advmod
343,2138-2142,pred,_,_,_,_,_,345,ADP,Si,case
344,2143-2155,zaostritev,_,_,_,_,_,341,NOUN,Ncfsi,nmod
345,2156-2162,razmera,_,_,_,_,_,345,NOUN,Ncfpg,nmod
346,2163-2165,na,_,_,_,_,_,350,ADP,Sl,case
347,2166-2177,mednaroden,_,_,_,_,_,350,ADJ,Agpmpl,amod
348,2178-2187,finančen,_,_,_,_,_,350,ADJ,Agpmpl,amod
349,2188-2193,trg,_,_,_,_,_,346,NOUN,Ncmpl,nmod
350,2194-2195,.,_,_,_,_,_,362,PUNCT,Z,punct
351,2196-2199,kot,_,_,_,_,_,353,SCONJ,Cs,mark
352,2200-2206,poročati,_,_,_,_,_,350,VERB,Vmpr3s,acl
353,2207-2215,današnji,_,_,_,_,_,356,ADJ,Agpmsny,amod
354,2216-2225,Financial,_,_,_,_,_,356,PROPN,Npmsn,nmod
355,2226-2231,Times,_,_,_,_,_,353,PROPN,Npmsn,nsubj
356,2232-2233,",",_,_,_,_,_,353,PUNCT,Z,punct
357,2234-2236,biti,_,_,_,_,_,370,AUX,Va-r3s-n,aux
358,2237-2245,Kitajska,ORG,_,*->2-9,*[2],_,370,PROPN,Npfsn,nsubj
359,2246-2247,",",_,_,_,_,_,362,PUNCT,Z,punct
360,2248-2250,ki,_,_,_,_,_,362,SCONJ,Cs,mark
361,2251-2254,imeti,_,_,*->2-10,*[2],_,359,VERB,Vmpr3s-n,acl
362,2255-2260,sicer,_,_,_,_,_,362,PART,Q,advmod
363,2261-2267,skoraj,_,_,_,_,_,365,PART,Q,advmod
364,2268-2272,2000,_,_,_,_,_,366,NUM,Mdc,nummod
365,2273-2281,milijarda,_,_,_,_,_,362,NOUN,Ncfpg,obj
366,2282-2291,dolarski,_,_,_,_,_,368,ADJ,Agpfpg,amod
367,2292-2298,rezerva,_,_,_,_,_,366,NOUN,Ncfpg,nmod
368,2299-2300,",",_,_,_,_,_,362,PUNCT,Z,punct
369,2301-2310,razpršiti,_,_,*->2-11,*[2],_,356,VERB,Vmep-sf,acl
370,2311-2316,svoj,_,_,_,_,_,372,DET,Px-fpa,det
371,2317-2324,naložba,_,_,_,_,_,370,NOUN,Ncfpa,obj
372,2325-2326,z,_,_,_,_,_,374,ADP,Si,case
373,2327-2340,investicija,_,_,_,_,_,372,NOUN,Ncfpi,nmod
374,2341-2342,v,_,_,_,_,_,376,ADP,Sa,case
375,2343-2350,delnica,_,_,_,_,_,374,NOUN,Ncfpa,nmod
376,2351-2359,večinoma,_,_,_,_,_,370,ADV,Rgp,advmod
377,2360-2369,ameriški,_,_,_,_,_,379,ADJ,Agpnpg,amod
378,2370-2378,podjetje,_,_,_,_,_,376,NOUN,Ncnpg,nmod
379,2379-2380,",",_,_,_,_,_,388,PUNCT,Z,punct
380,2381-2387,medtem,_,_,_,_,_,388,ADV,Rgp,mark
381,2388-2390,ko,_,_,_,_,_,381,SCONJ,Cs,fixed
382,2391-2393,biti,_,_,_,_,_,388,AUX,Va-r3s-n,aux
383,2394-2398,pred,_,_,_,_,_,386,ADP,Si,case
384,2399-2402,ta,_,_,_,_,_,386,DET,Pd-nsi,det
385,2403-2411,sredstvo,_,_,_,_,_,388,NOUN,Ncnsa,obl
386,2412-2420,večinoma,_,_,_,_,_,388,ADV,Rgp,advmod
387,2421-2429,nalagati,_,2,*->2-12,*[2],2 - Negativno,379,VERB,Vmpp-sf,acl
388,2430-2431,v,_,_,_,_,_,391,ADP,Sa,case
389,2432-2440,varen,_,_,_,_,_,391,ADJ,Agcfpa,amod
390,2441-2450,obveznica,_,_,_,_,_,388,NOUN,Ncfpa,obl
