idx,chars_idx,token,entity_type,sentiment,idk_1,idk_2,orig_sentiment,heads,upos,xpos,deprel
0,0-9,britanski,_,_,_,_,_,2,ADJ,Agpmsny,amod
1,10-18,Vodafona,ORG,_,*->20-1,*[20],_,3,PROPN,Npmsn,nsubj
2,19-21,biti,_,_,_,_,_,0,VERB,Va-r3s-n,root
3,22-23,v,_,_,_,_,_,6,ADP,Sl,case
4,24-33,posloven,_,_,_,_,_,6,ADJ,Agpnsl,amod
5,34-38,leto,_,_,_,_,_,3,NOUN,Ncnsl,obl
6,39-40,",",_,_,_,_,_,11,PUNCT,Z,punct
7,41-43,ki,_,_,_,_,_,11,SCONJ,Cs,mark
8,44-46,se,_,_,_,_,_,11,PRON,Px------y,expl
9,47-49,biti,_,_,_,_,_,11,AUX,Va-r3s-n,aux
10,50-57,končati,_,_,_,_,_,6,VERB,Vmep-sn,acl
11,58-63,marec,_,_,_,_,_,11,NOUN,Ncmsg,obl
12,64-65,",",_,_,_,_,_,11,PUNCT,Z,punct
13,66-74,ustvariti,_,_,_,_,_,3,VERB,Vmep-sm,csubj
14,75-78,"3,5",_,_,_,_,_,16,NUM,Mdc,nummod
15,79-88,milijarda,_,_,_,_,_,14,NOUN,Ncfsg,obj
16,89-94,evro,_,_,_,_,_,16,NOUN,Ncmpg,nmod
17,95-102,čist,_,_,_,_,_,19,ADJ,Agpmsg,amod
18,103-110,dobiček,_,_,_,_,_,17,NOUN,Ncmsg,nmod
19,111-112,",",_,_,_,_,_,96,PUNCT,Z,punct
20,113-116,kar,_,_,_,_,_,35,PRON,Pr-nsn,nsubj
21,117-119,biti,_,_,_,_,_,35,AUX,Va-r3s-n,aux
22,120-122,za,_,_,_,_,_,25,ADP,Sa,case
23,123-125,54,_,_,_,_,_,25,NUM,Mdc,nummod
24,126-135,odstotek,_,_,_,_,_,26,NOUN,Ncmpg,nmod
25,136-140,manj,_,_,_,_,_,35,DET,Rgc,advmod
26,141-144,kot,_,_,_,_,_,30,SCONJ,Cs,case
27,145-146,v,_,_,_,_,_,30,ADP,Sl,case
28,147-153,enak,_,_,_,_,_,30,DET,Pi-nsl,det
29,154-161,obdobje,_,_,_,_,_,26,NOUN,Ncnsl,obl
30,162-166,lani,_,_,_,_,_,30,ADV,Rgp,advmod
31,167-168,.,_,_,_,_,_,30,PUNCT,Z,punct
32,169-179,zmanjšanje,_,_,_,_,_,35,NOUN,Ncnsa,obj
33,180-187,dobiček,_,_,_,_,_,33,NOUN,Ncmsg,nmod
34,188-199,pripisovati,_,2,*->20-2,*[20],2 - Negativno,3,VERB,Vmpr3p,parataxis
35,200-201,v,_,_,_,_,_,37,ADP,Sl,case
36,202-210,podjetje,_,_,_,_,_,35,NOUN,Ncnsl,obl
37,211-219,predvsem,_,_,_,_,_,35,PART,Q,advmod
38,220-226,odpis,_,_,_,_,_,35,NOUN,Ncmsd,obj
39,227-236,vrednost,_,_,_,_,_,39,NOUN,Ncfsg,nmod
40,237-247,premoženje,_,_,_,_,_,40,NOUN,Ncnsg,nmod
41,248-249,v,_,_,_,_,_,43,ADP,Sl,case
42,250-256,višina,_,_,_,_,_,39,NOUN,Ncfsl,nmod
43,257-260,"6,7",_,_,_,_,_,45,NUM,Mdc,nummod
44,261-270,milijarda,_,_,_,_,_,43,NOUN,Ncfsg,nmod
45,271-276,evro,_,_,_,_,_,45,NOUN,Ncmpg,nmod
46,277-278,.,_,_,_,_,_,35,PUNCT,Z,punct
47,279-284,obseg,_,_,_,_,_,55,NOUN,Ncmsn,nsubj
48,285-294,družbin,_,_,_,_,_,50,ADJ,Aspmpg,amod
49,295-304,prihodek,_,_,_,_,_,48,NOUN,Ncmpg,nmod
50,305-307,od,_,_,_,_,_,52,ADP,Sg,case
51,308-315,prodaja,_,_,_,_,_,50,NOUN,Ncfsg,nmod
52,316-318,se,_,_,_,_,_,55,PRON,Px------y,expl
53,319-321,biti,_,_,_,_,_,55,AUX,Va-r3s-n,aux
54,322-329,povečati,_,_,_,_,_,3,VERB,Vmep-sm,parataxis
55,330-332,za,_,_,_,_,_,58,ADP,Sa,case
56,333-335,16,_,_,_,_,_,58,NUM,Mdc,nummod
57,336-345,odstotek,_,_,_,_,_,55,NOUN,Ncmpg,obl
58,346-347,",",_,_,_,_,_,62,PUNCT,Z,punct
59,348-350,na,_,_,_,_,_,62,ADP,Sa,case
60,351-355,"46,6",_,_,_,_,_,62,NUM,Mdc,nummod
61,356-365,milijarda,_,_,_,_,_,58,NOUN,Ncfsg,appos
62,366-371,evro,_,_,_,_,_,62,NOUN,Ncmpg,nmod
63,372-373,",",_,_,_,_,_,68,PUNCT,Z,punct
64,374-377,kar,_,_,_,_,_,68,PRON,Pr-nsn,nsubj
65,378-380,pa,_,_,_,_,_,68,CCONJ,Cc,advmod
66,381-383,biti,_,_,_,_,_,68,AUX,Va-r3s-n,cop
67,384-393,posledica,_,_,_,_,_,55,NOUN,Ncfsn,advcl
68,394-399,padec,_,_,_,_,_,68,NOUN,Ncmsg,nmod
69,400-406,tečaj,_,_,_,_,_,69,NOUN,Ncmsg,nmod
70,407-418,britanski,_,_,_,_,_,72,ADJ,Agpmsg,amod
71,419-424,funt,_,_,_,_,_,70,NOUN,Ncmsg,nmod
72,425-427,na,_,_,_,_,_,75,ADP,Sl,case
73,428-433,tuj,_,_,_,_,_,75,ADJ,Agpmpl,amod
74,434-439,trg,_,_,_,_,_,72,NOUN,Ncmpl,nmod
75,440-441,.,_,_,_,_,_,68,PUNCT,Z,punct
76,442-446,tudi,_,_,_,_,_,55,PART,Q,advmod
77,447-455,Norveška,ORG,_,*->1-1,*[1],_,55,PROPN,Npfsn,nsubj
78,456-457,v,_,_,_,_,_,80,ADP,Sl,case
79,458-466,recesija,_,_,_,_,_,96,NOUN,Ncfsl,obl
80,467-473,medtem,_,_,_,_,_,96,ADV,Rgp,mark
81,474-476,ko,_,_,_,_,_,81,SCONJ,Cs,fixed
82,477-479,se,_,_,_,_,_,96,PRON,Px------y,expl
83,480-482,biti,_,_,_,_,_,96,AUX,Va-r3s-n,aux
84,483-488,bruto,_,_,_,_,_,87,ADJ,Agpmsny,amod
85,489-495,domač,_,_,_,_,_,87,ADJ,Agpmsny,amod
86,496-504,proizvod,_,_,_,_,_,96,NOUN,Ncmsn,nsubj
87,505-506,(,_,_,_,_,_,89,PUNCT,Z,punct
88,507-510,BDP,_,_,_,_,_,87,PROPN,Npmsn,appos
89,511-512,),_,_,_,_,_,89,PUNCT,Z,punct
90,513-521,Norveška,ORG,_,*->1-2,*[1],_,96,PROPN,Npfsg,obl
91,522-523,v,_,_,_,_,_,94,ADP,Sl,case
92,524-531,zadnji,_,_,_,_,_,94,ADJ,Agpnsl,amod
93,532-542,četrtletje,_,_,_,_,_,96,NOUN,Ncnsl,obl
94,543-547,lani,_,_,_,_,_,96,ADV,Rgp,advmod
95,548-554,skrčiti,_,_,_,_,_,78,VERB,Vmep-sm,acl
96,555-557,za,_,_,_,_,_,99,ADP,Sa,case
97,558-561,"0,8",_,_,_,_,_,99,NUM,Mdc,nummod
98,562-570,odstotek,_,_,_,_,_,96,NOUN,Ncmsg,obl
99,571-572,",",_,_,_,_,_,96,PUNCT,Z,punct
100,573-575,se,_,_,_,_,_,107,PRON,Px------y,expl
101,576-578,biti,_,_,_,_,_,107,AUX,Va-r3s-n,aux
102,579-580,v,_,_,_,_,_,106,ADP,Sl,case
103,581-586,prvi,_,_,_,_,_,106,ADJ,Mlonsl,amod
104,587-596,letošnji,_,_,_,_,_,106,ADJ,Agpnsl,amod
105,597-607,četrtletje,_,_,_,_,_,107,NOUN,Ncnsl,obl
106,608-614,skrčiti,_,_,_,_,_,96,VERB,Vmep-sm,conj
107,615-617,za,_,_,_,_,_,109,ADP,Sa,case
108,618-626,odstotek,_,_,_,_,_,107,NOUN,Ncmsan,obl
109,627-628,.,_,_,_,_,_,107,PUNCT,Z,punct
110,629-633,tako,_,_,_,_,_,121,ADV,Rgp,advmod
111,634-636,biti,_,_,_,_,_,121,AUX,Va-r3s-n,aux
112,637-641,tudi,_,_,_,_,_,121,PART,Q,advmod
113,642-650,Norveška,LOC,_,*->1-3,*[1],_,121,PROPN,Npfsn,nsubj
114,651-653,po,_,_,_,_,_,119,ADP,Sl,case
115,654-658,dva,_,_,_,_,_,119,NUM,Mlcmdl,nummod
116,659-669,zaporeden,_,_,_,_,_,119,ADJ,Agpmdl,amod
117,670-681,četrtleten,_,_,_,_,_,119,ADJ,Agpmdl,amod
118,682-688,padec,_,_,_,_,_,121,NOUN,Ncmdl,obl
119,689-692,BDP,_,_,_,_,_,119,PROPN,Npmsn,nmod
120,693-698,zaiti,_,_,_,_,_,107,VERB,Vmep-sf,advcl
121,699-700,v,_,_,_,_,_,123,ADP,Sa,case
122,701-709,recesija,_,_,_,_,_,121,NOUN,Ncfsa,obl
123,710-711,.,_,_,_,_,_,121,PUNCT,Z,punct
124,712-717,obseg,_,_,_,_,_,121,NOUN,Ncmsnn,nsubj
125,718-724,izvoz,_,_,_,_,_,125,NOUN,Ncmsg,nmod
126,725-726,z,_,2,*->1-4,*[1],2 - Negativno[20],128,ADP,Si,case
127,727-732,nafta,_,2,*->1-4,*[1],2 - Negativno[20],126,NOUN,Ncfsi,nmod
128,733-739,bogat,_,2,*->1-4,*[1],2 - Negativno[20],130,ADJ,Agpfsg,amod
129,740-746,država,_,2,*->1-4,*[1],2 - Negativno[20],128,NOUN,Ncfsg,nmod
130,747-749,se,_,_,_,_,_,144,PRON,Px------y,expl
131,750-752,biti,_,_,_,_,_,144,AUX,Va-r3s-n,aux
132,753-754,",",_,_,_,_,_,135,PUNCT,Z,punct
133,755-759,brez,_,_,_,_,_,135,ADP,Sg,case
134,760-771,upoštevanje,_,_,_,_,_,128,NOUN,Ncnsg,nmod
135,772-778,izvoz,_,_,_,_,_,135,NOUN,Ncmsg,nmod
136,779-784,nafta,_,_,_,_,_,136,NOUN,Ncfsg,nmod
137,785-786,",",_,_,_,_,_,135,PUNCT,Z,punct
138,787-788,v,_,_,_,_,_,140,ADP,Sl,case
139,789-799,primerjava,_,_,_,_,_,144,NOUN,Ncfsl,obl
140,800-801,z,_,_,_,_,_,143,ADP,Si,case
141,802-811,prejšnji,_,_,_,_,_,143,ADJ,Agpnsi,amod
142,812-823,četrtletje,_,_,_,_,_,140,NOUN,Ncnsi,nmod
143,824-830,skrčiti,_,_,_,_,_,121,VERB,Vmep-sm,conj
144,831-833,za,_,_,_,_,_,147,ADP,Sa,case
145,834-837,"7,3",_,_,_,_,_,147,NUM,Mdc,nummod
146,838-846,odstotek,_,_,_,_,_,144,NOUN,Ncmsg,obl
147,847-848,",",_,_,_,_,_,144,PUNCT,Z,punct
148,849-850,z,_,_,_,_,_,150,ADP,Si,case
149,851-863,upoštevanje,_,_,_,_,_,156,NOUN,Ncnsi,nmod
150,864-870,izvoz,_,_,_,_,_,150,NOUN,Ncmsg,nmod
151,871-876,nafta,_,_,_,_,_,151,NOUN,Ncfsg,nmod
152,877-879,pa,_,_,_,_,_,156,CCONJ,Cc,cc
153,880-882,za,_,_,_,_,_,156,ADP,Sa,case
154,883-886,"4,7",_,_,_,_,_,156,NUM,Mdc,nummod
155,887-895,odstotek,_,_,_,_,_,147,NOUN,Ncmsg,conj
156,896-897,.,_,_,_,_,_,156,PUNCT,Z,punct
157,898-906,svetoven,_,_,_,_,_,160,ADJ,Agpnsn,amod
158,907-918,gospodarski,_,_,_,_,_,160,ADJ,Agpnsn,amod
159,919-926,ozračje,_,_,_,_,_,156,NOUN,Ncnsa,nmod
160,927-933,dober,_,_,_,_,_,160,ADJ,Agcnsg,amod
161,934-939,prvič,_,_,_,_,_,156,ADV,Rgp,advmod
162,940-942,po,_,_,_,_,_,164,ADP,Sl,case
163,943-949,jeseni,_,_,_,_,_,165,ADV,Rgp,advmod
164,950-954,2007,_,_,_,_,_,166,NUM,Mdc,nummod
165,955-962,kazalec,_,_,_,_,_,160,NOUN,Ncmsn,nmod
166,963-973,svetoven,_,_,_,_,_,169,ADJ,Agpnsg,amod
167,974-987,gospodarski,_,_,_,_,_,169,ADJ,Agpnsg,amod
168,988-995,ozračje,_,_,_,_,_,166,NOUN,Ncnsg,nmod
169,996-998,se,_,_,_,_,_,180,PRON,Px------y,expl
170,999-1001,biti,_,_,_,_,_,180,AUX,Va-r3s-n,aux
171,1002-1003,v,_,_,_,_,_,175,ADP,Sl,case
172,1004-1010,drug,_,_,_,_,_,175,ADJ,Mlpnsl,amod
173,1011-1020,letošnji,_,_,_,_,_,175,ADJ,Agpnsl,amod
174,1021-1031,četrtletje,_,_,_,_,_,180,NOUN,Ncnsl,obl
175,1032-1033,v,_,_,_,_,_,177,ADP,Sl,case
176,1034-1044,primerjava,_,_,_,_,_,180,NOUN,Ncfsl,obl
177,1045-1046,z,_,_,_,_,_,179,ADP,Si,case
178,1047-1052,prvi,_,_,_,_,_,180,ADJ,Mlomsi,obl
179,1053-1059,zvišati,_,_,_,_,_,3,VERB,Vmep-sm,parataxis
180,1060-1061,z,_,_,_,_,_,182,ADP,Si,case
181,1062-1066,"50,1",_,_,_,_,_,185,NUM,Mdc,nummod
182,1067-1069,na,_,_,_,_,_,185,ADP,Sa,case
183,1070-1074,"64,4",_,_,_,_,_,185,NUM,Mdc,nummod
184,1075-1080,točka,_,_,_,_,_,180,NOUN,Ncfsg,obl
185,1081-1082,",",_,_,_,_,_,180,PUNCT,Z,punct
186,1083-1084,v,_,_,_,_,_,190,ADP,Sl,case
187,1085-1092,lanski,_,_,_,_,_,190,ADJ,Agpnsl,amod
188,1093-1099,drug,_,_,_,_,_,190,ADJ,Mlpnsl,amod
189,1100-1110,četrtletje,_,_,_,_,_,193,NOUN,Ncnsl,obl
190,1111-1113,pa,_,_,_,_,_,193,CCONJ,Cc,advmod
191,1114-1116,biti,_,_,_,_,_,193,AUX,Va-r3s-n,aux
192,1117-1123,znašati,_,_,_,_,_,180,VERB,Vmpp-sm,conj
193,1124-1128,"81,4",_,_,_,_,_,195,NUM,Mdc,nummod
194,1129-1134,točka,_,_,_,_,_,193,NOUN,Ncfsg,nsubj
195,1135-1136,.,_,_,_,_,_,193,PUNCT,Z,punct
196,1137-1145,svetoven,_,_,_,_,_,199,ADJ,Agpnsn,amod
197,1146-1157,gospodarski,_,_,_,_,_,199,ADJ,Agpnsn,amod
198,1158-1165,ozračje,_,_,_,_,_,211,NOUN,Ncnsn,nsubj
199,1166-1168,se,_,_,_,_,_,211,PRON,Px------y,expl
200,1169-1171,biti,_,_,_,_,_,211,AUX,Va-r3s-n,aux
201,1172-1176,tako,_,_,_,_,_,206,ADV,Rgp,advmod
202,1177-1178,v,_,_,_,_,_,206,ADP,Sl,case
203,1179-1188,letošnji,_,_,_,_,_,206,ADJ,Agpnsl,amod
204,1189-1195,drug,_,_,_,_,_,206,ADJ,Mlpnsl,amod
205,1196-1206,četrtletje,_,_,_,_,_,211,NOUN,Ncnsl,obl
206,1207-1212,prvič,_,_,_,_,_,211,ADV,Rgp,advmod
207,1213-1215,po,_,_,_,_,_,209,ADP,Sl,case
208,1216-1222,jeseni,_,_,_,_,_,211,ADV,Rgp,advmod
209,1223-1227,2007,_,_,_,_,_,209,NUM,Mdc,nummod
210,1228-1238,izboljšati,_,_,_,_,_,180,VERB,Vmep-sn,conj
211,1239-1240,",",_,_,_,_,_,211,PUNCT,Z,punct
212,1241-1250,ugotavljati,_,_,_,_,_,211,VERB,Vmpr3s,conj
213,1251-1261,münchenski,_,0,*->21-1,*[21],3 - Nevtralno[21],215,ADJ,Agpmsny,amod
214,1262-1270,inštitut,_,0,*->21-1,*[21],3 - Nevtralno[21],213,NOUN,Ncmsn,nsubj
215,1271-1273,za,_,0,*->21-1,*[21],3 - Nevtralno[21],218,ADP,Sa,case
216,1274-1285,gospodarski,_,0,*->21-1,*[21],3 - Nevtralno[21],218,ADJ,Agpfpa,amod
217,1286-1295,raziskava,_,0,*->21-1,*[21],3 - Nevtralno[21],215,NOUN,Ncfpa,nmod
218,1296-1299,Ifo,ORG,0,*->21-1,*[21],3 - Nevtralno[21],218,PROPN,Npmsg,nmod
219,1300-1301,.,_,_,_,_,_,211,PUNCT,Z,punct
220,1302-1313,gospodarski,_,_,_,_,_,222,ADJ,Agpnpn,amod
221,1314-1326,pričakovanje,_,_,_,_,_,225,NOUN,Ncnpn,nsubj
222,1327-1329,biti,_,_,_,_,_,225,AUX,Va-r3p-n,aux
223,1330-1332,se,_,_,_,_,_,225,PRON,Px------y,expl
224,1333-1343,izboljšati,_,_,_,_,_,3,VERB,Vmep-pn,parataxis
225,1344-1345,v,_,_,_,_,_,229,ADP,Sl,case
226,1346-1350,ves,_,_,_,_,_,229,DET,Pg-fpl,det
227,1351-1358,glaven,_,_,_,_,_,229,ADJ,Agpfpl,amod
228,1359-1366,regija,_,_,_,_,_,213,NOUN,Ncfpl,obl
229,1367-1368,",",_,_,_,_,_,236,PUNCT,Z,punct
230,1369-1371,še,_,_,_,_,_,236,PART,Q,cc:preconj
231,1372-1379,posebno,_,_,_,_,_,231,ADV,Rgp,fixed
232,1380-1382,pa,_,_,_,_,_,236,CCONJ,Cc,cc
233,1383-1384,v,_,_,_,_,_,236,ADP,Sl,case
234,1385-1392,severen,LOC[1],1,*->23-1,*[23],4 - Pozitivno[22],236,ADJ,Agpfsl,amod
235,1393-1400,Amerika,LOC[1],1,*->23-1,*[23],4 - Pozitivno[22],229,PROPN,Npfsl,conj
236,1401-1403,in,_,_,_,_,_,238,CCONJ,Cc,cc
237,1404-1409,Azija,LOC,1,*->9-1,*[9],4 - Pozitivno,236,PROPN,Npfsl,conj
238,1410-1411,",",_,_,_,_,_,236,PUNCT,Z,punct
239,1412-1414,pa,_,_,_,_,_,248,CCONJ,Cc,cc
240,1415-1419,tudi,_,_,_,_,_,248,PART,Q,advmod
241,1420-1421,v,_,_,_,_,_,248,ADP,Sl,case
242,1422-1429,zahoden,_,_,_,_,_,248,ADJ,Agpfsl,amod
243,1430-1431,",",_,_,_,_,_,245,PUNCT,Z,punct
244,1432-1439,srednji,_,_,_,_,_,243,ADJ,Agpfsl,conj
245,1440-1442,in,_,_,_,_,_,247,CCONJ,Cc,cc
246,1443-1450,vzhoden,_,_,_,_,_,243,ADJ,Agpfsl,conj
247,1451-1457,Evropa,LOC,_,*->22-1,*[22],_,236,PROPN,Npfsl,conj
248,1458-1459,",",_,_,_,_,_,250,PUNCT,Z,punct
249,1460-1466,Rusija,LOC,1,*->24-1,*[24],4 - Pozitivno,248,PROPN,Npfsl,conj
250,1467-1470,ter,_,_,_,_,_,253,CCONJ,Cc,cc
251,1471-1479,latinski,LOC[2],1,*->3-1,*[3],4 - Pozitivno[23],253,ADJ,Agpfsl,amod
252,1480-1487,Amerika,LOC[2],1,*->3-1,*[3],4 - Pozitivno[23],248,PROPN,Npfsl,conj
253,1488-1489,.,_,_,_,_,_,253,PUNCT,Z,punct
254,1490-1494,Time,ORG[3],0,*->7-1|*->10-1,*[7]|*[10],3 - Nevtralno[24],256,PROPN,Npmsn,nmod
255,1495-1501,Warner,ORG[3],0,*->7-1|*->10-1,*[7]|*[10],3 - Nevtralno[24],260,PROPN,Npmsn,nmod
256,1502-1504,31,_,0,*->7-1,*[7],3 - Nevtralno[24],259,NUM,Mdc,nummod
257,1505-1506,-,_,0,*->7-1,*[7],3 - Nevtralno[24],259,PUNCT,Z,punct
258,1507-1515,odstoten,_,0,*->7-1,*[7],3 - Nevtralno[24],260,ADJ,Agpmsny,amod
259,1516-1523,lastnik,_,0,*->7-1,*[7],3 - Nevtralno[24],253,NOUN,Ncmsn,conj
260,1524-1527,CME,ORG,0,*->7-1|*->16-1,*[7]|*[16],3 - Nevtralno[24],260,NOUN,Ncfsg,nmod
261,1528-1535,vodilen,_,_,*->10-2,*[10],_,263,ADJ,Agpfsn,amod
262,1536-1542,družba,_,_,*->10-2,*[10],_,260,NOUN,Ncfsn,conj
263,1543-1545,na,_,_,*->10-2,*[10],_,265,ADP,Sl,case
264,1546-1554,področje,_,_,*->10-2,*[10],_,263,NOUN,Ncnsl,nmod
265,1555-1562,medij,_,_,*->10-2,*[10],_,265,NOUN,Ncmpg,nmod
266,1563-1565,in,_,_,*->10-2,*[10],_,268,CCONJ,Cc,cc
267,1566-1572,zabava,_,_,*->10-2,*[10],_,266,NOUN,Ncfsg,conj
268,1573-1574,",",_,_,_,_,_,271,PUNCT,Z,punct
269,1575-1579,Time,ORG[4],_,*->10-3,*[10],_,271,PROPN,Npmsn,nmod
270,1580-1586,Warner,ORG[4],_,*->10-3,*[10],_,268,PROPN,Npmsn,appos
271,1587-1588,",",_,_,_,_,_,271,PUNCT,Z,punct
272,1589-1591,biti,_,_,_,_,_,276,AUX,Va-r3s-n,aux
273,1592-1593,v,_,_,_,_,_,275,ADP,Sa,case
274,1594-1604,ponedeljek,_,_,_,_,_,276,NOUN,Ncmsan,obl
275,1605-1613,objaviti,_,_,_,_,_,260,VERB,Vmep-sf,acl
276,1614-1615,",",_,_,_,_,_,281,PUNCT,Z,punct
277,1616-1618,da,_,_,_,_,_,281,SCONJ,Cs,mark
278,1619-1621,biti,_,_,_,_,_,281,AUX,Va-r3s-n,aux
279,1622-1630,dokončno,_,_,_,_,_,281,ADV,Rgp,advmod
280,1631-1642,realizirati,_,_,*->10-4,*[10],_,276,VERB,Vmbp-sf,ccomp
281,1643-1648,"241,5",_,_,_,_,_,283,NUM,Mdc,nummod
282,1649-1657,milijon,_,_,_,_,_,285,NOUN,Ncmsg,nmod
283,1658-1666,dolar,_,_,_,_,_,283,NOUN,Ncmpg,nmod
284,1667-1673,vreden,_,_,_,_,_,286,ADJ,Agpfsa,amod
285,1674-1681,naložba,_,_,_,_,_,281,NOUN,Ncfsa,obj
286,1682-1683,v,_,_,_,_,_,289,ADP,Sa,case
287,1684-1691,vodilen,_,_,*->16-2,*[16],_,289,ADJ,Agpfsa,amod
288,1692-1698,družba,_,_,*->16-2,*[16],_,286,NOUN,Ncfsa,nmod
289,1699-1701,na,_,_,*->16-2,*[16],_,291,ADP,Sl,case
290,1702-1710,področje,_,_,*->16-2,*[16],_,289,NOUN,Ncnsl,nmod
291,1711-1718,medij,_,_,*->16-2,*[16],_,291,NOUN,Ncmpg,nmod
292,1719-1720,v,_,_,*->16-2,*[16],_,297,ADP,Sl,case
293,1721-1728,srednji,_,_,*->16-2,*[16],_,297,ADJ,Agpfsl,amod
294,1729-1731,in,_,_,*->16-2,*[16],_,296,CCONJ,Cc,cc
295,1732-1739,vzhoden,_,_,*->16-2,*[16],_,294,ADJ,Agpfsl,conj
296,1740-1746,Evropa,LOC,1,*->16-2|*->22-2,*[16]|*[22],4 - Pozitivno,292,PROPN,Npfsl,nmod
297,1747-1748,",",_,_,_,_,_,299,PUNCT,Z,punct
298,1749-1756,Central,ORG[5],_,*->16-3,*[16],_,302,PROPN,Npmsn,nmod
299,1757-1765,european,ORG[5],_,*->16-3,*[16],_,302,PROPN,Npmsn,nmod
300,1766-1771,Media,ORG[5],_,*->16-3,*[16],_,302,PROPN,Npmsn,nmod
301,1772-1783,Enterprises,ORG[5],_,*->16-3,*[16],_,297,PROPN,Npmsn,appos
302,1784-1785,(,_,_,_,_,_,304,PUNCT,Z,punct
303,1786-1789,CME,ORG,_,*->16-4,*[16],_,302,PROPN,Npmsn,appos
304,1790-1791,),_,_,_,_,_,304,PUNCT,Z,punct
305,1792-1793,",",_,_,_,_,_,309,PUNCT,Z,punct
306,1794-1797,pod,_,_,_,_,_,308,ADP,Si,case
307,1798-1804,kateri,_,_,_,_,_,309,DET,Pq-fsi,obl
308,1805-1812,spadati,_,_,_,_,_,302,VERB,Vmpr3d,acl
309,1813-1817,tudi,_,_,_,_,_,309,PART,Q,advmod
310,1818-1827,slovenski,_,_,_,_,_,312,ADJ,Agpfsn,amod
311,1828-1831,POP,ORG[6],0,*->15-1,*[15],3 - Nevtralno[25],309,NOUN,Ncfsn,nsubj
312,1832-1834,TV,ORG[6],0,*->15-1,*[15],3 - Nevtralno[25],312,PROPN,Npmsn,nmod
313,1835-1837,in,_,_,_,_,_,315,CCONJ,Cc,cc
314,1838-1843,Kanal,ORG[7],0,*->12-1,*[12],3 - Nevtralno[26],312,NOUN,Ncmsn,conj
315,1844-1845,a,ORG[7],0,_,_,3 - Nevtralno[26],315,CCONJ,Cc,cc
316,1846-1847,.,_,_,_,_,_,309,PUNCT,Z,punct
317,1848-1854,družba,_,_,*->10-5,*[10],_,323,NOUN,Ncfsn,nsubj
318,1855-1859,Time,ORG[8],_,*->10-5,*[10],_,320,PROPN,Npmsn,nmod
319,1860-1866,Warner,ORG[8],_,*->10-5,*[10],_,318,PROPN,Npmsn,nmod
320,1867-1869,biti,_,_,_,_,_,323,AUX,Va-r3s-n,aux
321,1870-1874,tako,_,_,_,_,_,323,ADV,Rgp,advmod
322,1875-1882,postati,_,_,_,_,_,309,VERB,Vmep-sf,conj
323,1883-1885,31,_,1,*->10-6,*[10],4 - Pozitivno[27],326,NUM,Mdc,nummod
324,1886-1887,-,_,1,*->10-6,*[10],4 - Pozitivno[27],326,PUNCT,Z,punct
325,1888-1896,odstoten,_,1,*->10-6,*[10],4 - Pozitivno[27],327,ADJ,Agpfsn,amod
326,1897-1905,lastnica,_,1,*->10-6,*[10],4 - Pozitivno[27],323,NOUN,Ncfsn,nsubj
327,1906-1914,omenjen,_,1,*->10-6|*->16-5,*[10]|*[16],4 - Pozitivno[27]|4 - Pozitivno[28],329,ADJ,Appfsg,amod
328,1915-1921,družba,_,1,*->10-6|*->16-5,*[10]|*[16],4 - Pozitivno[27]|4 - Pozitivno[28],327,NOUN,Ncfsg,nmod
329,1922-1923,.,_,_,_,_,_,323,PUNCT,Z,punct
330,1924-1927,trije,_,_,_,_,_,333,NUM,Mlcfpn,nummod
331,1928-1937,newyorški,_,_,_,_,_,333,ADJ,Agpfpn,amod
332,1938-1943,banka,_,_,_,_,_,334,NOUN,Ncfpn,nsubj
333,1944-1950,začeti,_,_,_,_,_,323,VERB,Vmep-pf,conj
334,1951-1959,postopek,_,_,_,_,_,334,NOUN,Ncmsan,obj
335,1960-1972,odplačevanje,_,_,_,_,_,335,NOUN,Ncnsg,nmod
336,1973-1981,posojilo,_,_,_,_,_,336,NOUN,Ncnsg,nmod
337,1982-1990,ameriški,ORG[9],0,*->18-1,*[18],3 - Nevtralno[29],339,ADJ,Agpfsg,amod
338,1991-1996,banka,ORG[9],0,*->18-1,*[18],3 - Nevtralno[29],337,NOUN,Ncfsg,nmod
339,1997-2004,Goldman,ORG[10],0,*->17-1,*[17],3 - Nevtralno[30],337,PROPN,Npfsn,nmod
340,2005-2010,Sachs,ORG[10],0,*->17-1,*[17],3 - Nevtralno[30],340,PROPN,Npfsn,flat:name
341,2011-2012,",",_,_,_,_,_,343,PUNCT,Z,punct
342,2013-2015,JP,ORG[11],0,*->14-1,*[14],3 - Nevtralno[31],344,PROPN,Npmsn,nmod
343,2016-2022,Morgan,ORG[11],0,*->14-1,*[14],3 - Nevtralno[31],340,PROPN,Npmsn,conj
344,2023-2028,Chase,ORG[11],0,*->14-1,*[14],3 - Nevtralno[31],344,PROPN,Npmsn,flat:name
345,2029-2031,in,_,_,_,_,_,347,CCONJ,Cc,cc
346,2032-2038,Morgan,ORG[12],0,*->4-1,*[4],3 - Nevtralno[32],340,PROPN,Npmsn,conj
347,2039-2046,Stanely,ORG[12],0,*->4-1,*[4],3 - Nevtralno[32],347,PROPN,Npmsn,flat:name
348,2047-2049,biti,_,_,_,_,_,350,AUX,Va-r3p-n,aux
349,2050-2057,vložiti,_,_,_,_,_,334,VERB,Vmep-pf,advcl
350,2058-2065,prijava,_,_,_,_,_,350,NOUN,Ncfsa,obj
351,2066-2068,za,_,_,_,_,_,353,ADP,Sa,case
352,2069-2076,vračilo,_,_,_,_,_,351,NOUN,Ncnsa,nmod
353,2077-2079,45,_,_,_,_,_,355,NUM,Mdc,nummod
354,2080-2088,milijarda,_,_,_,_,_,353,NOUN,Ncfpg,nmod
355,2089-2097,dolar,_,_,_,_,_,355,NOUN,Ncmpg,nmod
356,2098-2107,državen,_,_,_,_,_,358,ADJ,Agpnsg,amod
357,2108-2116,posojilo,_,_,_,_,_,356,NOUN,Ncnsg,nmod
358,2117-2118,",",_,_,_,_,_,362,PUNCT,Z,punct
359,2119-2122,kar,_,_,_,_,_,362,PRON,Pr-nsn,nsubj
360,2123-2125,biti,_,_,_,_,_,362,AUX,Va-r3s-n,cop
361,2126-2134,velik,_,_,_,_,_,355,ADJ,Agsnsn,acl
362,2135-2142,vračilo,_,_,_,_,_,362,NOUN,Ncnsa,obj
363,2143-2159,davkoplačevalec,_,_,_,_,_,363,NOUN,Ncmpd,nmod
364,2160-2161,",",_,_,_,_,_,372,PUNCT,Z,punct
365,2162-2167,odkar,_,_,_,_,_,372,SCONJ,Cs,mark
366,2168-2170,biti,_,_,_,_,_,372,AUX,Va-r3s-n,aux
367,2171-2179,ameriški,_,_,_,_,_,369,ADJ,Agpfsn,amod
368,2180-2185,vlada,_,_,_,_,_,372,NOUN,Ncfsn,nsubj
369,2186-2193,oktober,_,_,_,_,_,372,NOUN,Ncmsg,obl
370,2194-2198,lani,_,_,_,_,_,370,ADV,Rgp,advmod
371,2199-2205,začeti,_,_,_,_,_,363,VERB,Vmep-sf,acl
372,2206-2207,z,_,_,_,_,_,375,ADP,Si,case
373,2208-2211,700,_,_,_,_,_,375,NUM,Mdc,nummod
374,2212-2220,milijarda,_,_,_,_,_,372,NOUN,Ncfpg,obl
375,2221-2229,dolar,_,_,_,_,_,375,NOUN,Ncmpg,nmod
376,2230-2237,vreden,_,_,_,_,_,378,ADJ,Agpmsd,amod
377,2238-2247,program,_,_,_,_,_,375,NOUN,Ncmsi,nmod
378,2248-2252,tarp,_,_,_,_,_,378,NOUN,Ncmsg,nmod
379,2253-2254,.,_,_,_,_,_,372,PUNCT,Z,punct
380,2255-2257,za,_,_,_,_,_,382,ADP,Sa,case
381,2258-2265,vračilo,_,_,_,_,_,385,NOUN,Ncnsa,obl
382,2266-2284,davkoplačevalski,_,_,_,_,_,384,ADJ,Agpmsg,amod
383,2285-2292,denar,_,_,_,_,_,382,NOUN,Ncmsg,nmod
384,2293-2304,potrebovati,_,_,_,_,_,372,VERB,Vmpr3p,conj
385,2305-2307,le,_,_,_,_,_,385,PART,Q,advmod
386,2308-2310,še,_,_,_,_,_,385,PART,Q,advmod
387,2311-2320,potrditev,_,_,_,_,_,385,NOUN,Ncfsa,obj
388,2321-2328,svoj,_,_,_,_,_,390,DET,Px-msg,det
389,2329-2339,nadzornik,_,_,_,_,_,388,NOUN,Ncmsg,nmod
390,2340-2341,-,_,_,_,_,_,392,PUNCT,Z,punct
391,2342-2349,zvezen,_,_,*->2-1,*[2],_,393,ADJ,Agpfpg,amod
392,2350-2356,rezerva,_,_,*->2-1,*[2],_,390,NOUN,Ncfpg,conj
393,2357-2358,(,_,_,_,_,_,395,PUNCT,Z,punct
394,2359-2362,fed,ORG,0,*->2-2,*[2],3 - Nevtralno,393,X,Xf,appos
395,2363-2364,),_,_,_,_,_,395,PUNCT,Z,punct
396,2365-2366,.,_,_,_,_,_,385,PUNCT,Z,punct
397,2367-2368,z,_,_,_,_,_,399,ADP,Si,case
398,2369-2377,vračilo,_,_,_,_,_,406,NOUN,Ncnsi,obl
399,2378-2387,državen,_,_,_,_,_,401,ADJ,Agpnsg,amod
400,2388-2396,posojilo,_,_,_,_,_,399,NOUN,Ncnsg,nmod
401,2397-2400,naj,_,_,_,_,_,405,PART,Q,advmod
402,2401-2403,biti,_,_,_,_,_,405,AUX,Va-c,aux
403,2404-2406,se,_,_,_,_,_,406,PRON,Px------y,expl
404,2407-2413,želeti,_,_,_,_,_,385,VERB,Vmpp-pf,conj
405,2414-2422,izogniti,_,_,_,_,_,405,VERB,Vmen,xcomp
406,2423-2432,omejitev,_,_,_,_,_,406,NOUN,Ncfpd,obj
407,2433-2434,",",_,_,_,_,_,409,PUNCT,Z,punct
408,2435-2444,povezan,_,_,_,_,_,407,ADJ,Appfpd,amod
409,2445-2446,z,_,_,_,_,_,412,ADP,Si,case
410,2447-2456,denaren,_,_,_,_,_,412,ADJ,Agpfpi,amod
411,2457-2466,nagrada,_,_,_,_,_,409,NOUN,Ncfpi,obl
412,2467-2469,in,_,_,_,_,_,414,CCONJ,Cc,cc
413,2470-2483,zaposlovanje,_,_,_,_,_,412,NOUN,Ncnsi,conj
414,2484-2485,",",_,_,_,_,_,421,PUNCT,Z,punct
415,2486-2489,kar,_,_,_,_,_,421,PRON,Pr-nsn,nsubj
416,2490-2492,biti,_,_,_,_,_,421,AUX,Va-r3s-n,aux
417,2493-2501,ameriški,_,_,_,_,_,419,ADJ,Agpfsn,amod
418,2502-2507,vlada,_,_,_,_,_,421,NOUN,Ncfsn,nsubj
419,2508-2517,februar,_,_,_,_,_,421,NOUN,Ncmsg,obl
420,2518-2527,postaviti,_,_,_,_,_,414,VERB,Vmep-sf,acl
421,2528-2531,kot,_,_,_,_,_,424,SCONJ,Cs,case
422,2532-2536,prvi,_,_,_,_,_,424,ADJ,Mlomsa,amod
423,2537-2542,pogoj,_,_,_,_,_,421,NOUN,Ncmsan,obl
424,2543-2545,za,_,_,_,_,_,428,ADP,Sa,case
425,2546-2553,prejet,_,_,_,_,_,428,ADJ,Appfsa,amod
426,2554-2562,finančen,_,_,_,_,_,428,ADJ,Agpfsa,amod
427,2563-2568,pomoč,_,_,_,_,_,424,NOUN,Ncfsa,nmod
428,2569-2570,.,_,_,_,_,_,421,PUNCT,Z,punct
429,2571-2580,Berkshire,ORG[13],_,*->19-1,*[19],_,433,PROPN,Npmsn,nsubj
430,2581-2588,Hataway,ORG[13],_,*->19-1,*[19],_,430,PROPN,Npmsn,nmod
431,2589-2596,začasno,_,_,_,_,_,433,ADV,Rgp,advmod
432,2597-2605,ustaviti,_,_,_,_,_,421,VERB,Vmep-sf,conj
433,2606-2612,nakup,_,_,_,_,_,433,NOUN,Ncmpa,obj
434,2613-2619,delnica,_,_,_,_,_,434,NOUN,Ncfpg,nmod
435,2620-2626,Warren,PER[14],0,*->5-1,*[5],3 - Nevtralno[33],435,PROPN,Npmsn,nmod
436,2627-2637,Buffettov,PER[14],0,*->5-1,*[5],3 - Nevtralno[33],438,ADJ,Aspfsn,amod
437,2638-2644,družba,_,_,*->19-2,*[19],_,436,NOUN,Ncfsn,nmod
438,2645-2654,Berkshire,ORG[15],_,*->19-2,*[19],_,438,PROPN,Npmsn,nmod
439,2655-2662,Hataway,ORG[15],_,*->19-2,*[19],_,439,PROPN,Npmsn,nmod
440,2663-2664,",",_,_,_,_,_,447,PUNCT,Z,punct
441,2665-2667,ki,_,_,_,_,_,447,SCONJ,Cs,mark
442,2668-2670,biti,_,_,_,_,_,447,AUX,Va-r3s-n,cop
443,2671-2674,med,_,_,_,_,_,445,ADP,Si,case
444,2675-2681,drug,_,_,_,_,_,447,ADJ,Mlpmsi,obl
445,2682-2690,velik,_,_,*->19-3,*[19],_,447,ADJ,Agsmsny,amod
446,2691-2699,delničar,_,_,*->19-3,*[19],_,438,NOUN,Ncmsn,acl
447,2700-2705,Kraft,ORG[16],0,*->19-3|*->13-1,*[19]|*[13],3 - Nevtralno[34],447,PROPN,Npmsn,nmod
448,2706-2711,Foods,ORG[16],0,*->19-3|*->13-1,*[19]|*[13],3 - Nevtralno[34],448,PROPN,Npmsn,flat:name
449,2712-2714,in,_,_,*->19-3,*[19],_,451,CCONJ,Cc,cc
450,2715-2719,Coca,PER[17],0,*->19-3|*->8-1,*[19]|*[8],3 - Nevtralno[35],449,PROPN,Npmsn,conj
451,2720-2721,-,PER[17],0,*->19-3|*->8-1,*[19]|*[8],3 - Nevtralno[35],453,PUNCT,Z,punct
452,2722-2726,Cole,PER[17],0,*->19-3|*->8-1,*[19]|*[8],3 - Nevtralno[35],451,PROPN,Npmsn,conj
453,2727-2728,",",_,_,_,_,_,447,PUNCT,Z,punct
454,2729-2731,biti,_,_,_,_,_,457,AUX,Va-r3s-n,aux
455,2732-2739,začasno,_,_,_,_,_,457,ADV,Rgp,advmod
456,2740-2748,ustaviti,_,2,*->19-4,*[19],2 - Negativno,447,VERB,Vmep-sf,conj
457,2749-2755,nakup,_,_,_,_,_,457,NOUN,Ncmpa,obj
458,2756-2762,delnica,_,_,_,_,_,458,NOUN,Ncfpg,nmod
459,2763-2764,",",_,_,_,_,_,457,PUNCT,Z,punct
460,2765-2768,saj,_,_,_,_,_,467,CCONJ,Cc,cc
461,2769-2771,biti,_,_,_,_,_,467,AUX,Va-r3p-n,aux
462,2772-2774,se,_,_,_,_,_,467,PRON,Px------y,expl
463,2775-2782,denaren,_,_,_,_,_,465,ADJ,Agpnpn,amod
464,2783-2791,sredstvo,_,_,_,_,_,467,NOUN,Ncnpn,nsubj
465,2792-2798,družba,_,_,_,_,_,465,NOUN,Ncfsg,nmod
466,2799-2808,zmanjšati,_,_,_,_,_,457,VERB,Vmep-pn,conj
467,2809-2811,za,_,_,_,_,_,469,ADP,Sa,case
468,2812-2818,največ,_,_,_,_,_,473,DET,Rgs,det
469,2819-2820,v,_,_,_,_,_,473,ADP,Sl,case
470,2821-2828,zadnji,_,_,_,_,_,473,ADJ,Agpnpl,amod
471,2829-2834,pet,_,_,_,_,_,473,NUM,Mlc-pl,nummod
472,2835-2840,leto,_,_,_,_,_,467,NOUN,Ncnpl,obl
473,2841-2842,.,_,_,_,_,_,457,PUNCT,Z,punct
474,2843-2852,inflacija,_,_,_,_,_,481,NOUN,Ncfsn,nmod
475,2853-2854,v,_,_,_,_,_,478,ADP,Sl,case
476,2855-2861,velik,LOC[18],_,*->6-1,*[6],_,478,ADJ,Agpfsl,amod
477,2862-2871,Britanija,LOC[18],_,*->6-1,*[6],_,480,PROPN,Npfsl,nmod
478,2872-2878,april,_,_,_,_,_,480,NOUN,Ncmsg,nmod
479,2879-2884,nizek,_,_,_,_,_,481,ADJ,Agcfsn,amod
480,2885-2894,inflacija,_,_,_,_,_,473,NOUN,Ncfsn,conj
481,2895-2896,v,_,_,_,_,_,484,ADP,Sl,case
482,2897-2903,velik,LOC[19],0,*->6-2,*[6],3 - Nevtralno[36],484,ADJ,Agpfsl,amod
483,2904-2913,Britanija,LOC[19],0,*->6-2,*[6],3 - Nevtralno[36],481,PROPN,Npfsl,nmod
484,2914-2916,se,_,_,_,_,_,492,PRON,Px------y,expl
485,2917-2919,biti,_,_,_,_,_,492,AUX,Va-r3s-n,aux
486,2920-2921,z,_,_,_,_,_,489,ADP,Si,case
487,2922-2925,"2,9",_,_,_,_,_,489,NUM,Mdc,nummod
488,2926-2934,odstotek,_,_,_,_,_,492,NOUN,Ncmsg,obl
489,2935-2936,v,_,_,_,_,_,491,ADP,Sl,case
490,2937-2942,marec,_,_,_,_,_,489,NOUN,Ncmsl,nmod
491,2943-2950,znižati,_,_,_,_,_,480,VERB,Vmep-sf,conj
492,2951-2953,na,_,_,_,_,_,495,ADP,Sa,case
493,2954-2957,"2,3",_,_,_,_,_,495,NUM,Mdc,nummod
494,2958-2966,odstotek,_,_,_,_,_,492,NOUN,Ncmsg,obl
495,2967-2968,v,_,_,_,_,_,497,ADP,Sl,case
496,2969-2975,april,_,_,_,_,_,495,NOUN,Ncmsl,nmod
497,2976-2977,",",_,_,_,_,_,501,PUNCT,Z,punct
498,2978-2981,kar,_,_,_,_,_,501,PRON,Pr-nsn,nsubj
499,2982-2984,biti,_,_,_,_,_,501,AUX,Va-r3s-n,cop
500,2985-2994,posledica,_,_,_,_,_,497,NOUN,Ncfsn,acl
501,2995-3001,nizek,_,_,_,_,_,503,ADJ,Agcfpg,amod
502,3002-3005,cena,_,_,_,_,_,501,NOUN,Ncfpg,nmod
503,3006-3011,plin,_,_,_,_,_,503,NOUN,Ncmsg,nmod
504,3012-3014,in,_,_,_,_,_,506,CCONJ,Cc,cc
505,3015-3024,elektrika,_,_,_,_,_,504,NOUN,Ncfsg,conj
506,3025-3026,.,_,_,_,_,_,492,PUNCT,Z,punct
507,3027-3033,indeks,_,_,_,_,_,492,NOUN,Ncmsn,nsubj
508,3034-3037,cena,_,_,_,_,_,508,NOUN,Ncfpg,nmod
509,3038-3040,na,_,_,_,_,_,511,ADP,Sa,case
510,3041-3047,drobno,_,_,_,_,_,509,ADJ,Agpnsa,amod
511,3048-3049,",",_,_,_,_,_,514,PUNCT,Z,punct
512,3050-3052,ki,_,_,_,_,_,514,SCONJ,Cs,mark
513,3053-3062,vključevati,_,_,_,_,_,511,VERB,Vmpr3s,acl
514,3063-3067,tudi,_,_,_,_,_,514,PART,Q,advmod
515,3068-3075,strošek,_,_,_,_,_,514,NOUN,Ncmpa,obj
516,3076-3089,stanovanjski,_,_,_,_,_,518,ADJ,Agpnpg,amod
517,3090-3097,posojilo,_,_,_,_,_,516,NOUN,Ncnpg,nmod
518,3098-3099,",",_,_,_,_,_,514,PUNCT,Z,punct
519,3100-3102,pa,_,_,_,_,_,523,CCONJ,Cc,advmod
520,3103-3105,se,_,_,_,_,_,523,PRON,Px------y,expl
521,3106-3108,biti,_,_,_,_,_,523,AUX,Va-r3s-n,aux
522,3109-3115,znižati,_,_,_,_,_,511,VERB,Vmep-sm,acl
523,3116-3118,za,_,_,_,_,_,526,ADP,Sa,case
524,3119-3122,"0,4",_,_,_,_,_,526,NUM,Mdc,nummod
525,3123-3131,odstotek,_,_,_,_,_,523,NOUN,Ncmsg,obl
526,3132-3133,",",_,_,_,_,_,531,PUNCT,Z,punct
527,3134-3136,na,_,_,_,_,_,531,ADP,Sl,case
528,3137-3138,-,_,_,_,_,_,530,PUNCT,Z,punct
529,3139-3142,"1,2",_,_,_,_,_,528,NUM,Mdc,conj
530,3143-3151,odstotek,_,_,_,_,_,526,NOUN,Ncmsg,appos
531,3152-3153,.,_,_,_,_,_,480,PUNCT,Z,punct
532,3154-3164,pripraviti,_,_,_,_,_,531,VERB,Vmep-sf,parataxis
533,3165-3169,Nuša,PER,0,*->11-1,*[11],3 - Nevtralno,533,PROPN,Npfsn,nsubj
