idx,chars_idx,token,entity_type,sentiment,idk_1,idk_2,orig_sentiment,heads,upos,xpos,deprel
0,0-5,Laško,LOC,_,*->1-1,*[1],_,31,PROPN,Npnsn,parataxis
1,6-7,-,_,_,_,_,_,1,PUNCT,Z,punct
2,8-12,Hypo,ORG[1],_,*->3-1,*[3],_,4,PROPN,Npmsn,nmod
3,13-17,Alpe,ORG[1],_,*->3-1,*[3],_,5,PROPN,Npmsn,nmod
4,18-23,Adria,ORG[1],_,*->3-1,*[3],_,11,PROPN,Npfsn,nsubj
5,24-28,banka,ORG[1],_,*->3-1,*[3],_,5,NOUN,Ncfpg,nmod
6,29-31,in,_,_,_,_,_,8,CCONJ,Cc,cc
7,32-41,pivovarna,ORG[2],_,*->4-1,*[4],_,5,NOUN,Ncfsn,nmod
8,42-47,Laško,ORG[2]|LOC[3],_,*->4-1|*->1-2,*[4]|*[1],_,8,PROPN,Npnsn,nmod
9,48-51,biti,_,_,_,_,_,11,AUX,Va-r3d-n,aux
10,52-59,doseči,_,_,_,_,_,0,VERB,Vmep-df,root
11,60-67,načelen,_,_,_,_,_,13,ADJ,Agpmsay,amod
12,68-76,sporazum,_,_,_,_,_,11,NOUN,Ncmsan,obj
13,77-78,o,_,_,_,_,_,15,ADP,Sl,case
14,79-89,reprogram,_,_,_,_,_,13,NOUN,Ncmsl,nmod
15,90-98,posojilo,_,_,_,_,_,15,NOUN,Ncnsg,nmod
16,99-100,v,_,_,_,_,_,18,ADP,Sl,case
17,101-107,višina,_,_,_,_,_,15,NOUN,Ncfsl,nmod
18,108-110,58,_,_,_,_,_,20,NUM,Mdc,nummod
19,111-120,milijon,_,_,_,_,_,18,NOUN,Ncmpg,nmod
20,121-126,evro,_,_,_,_,_,20,NOUN,Ncmpg,nmod
21,127-128,",",_,_,_,_,_,26,PUNCT,Z,punct
22,129-131,ki,_,_,_,_,_,26,SCONJ,Cs,mark
23,132-133,v,_,_,_,_,_,25,ADP,Sa,case
24,134-143,odplačilo,_,_,_,_,_,26,NOUN,Ncnsa,obl
25,144-150,zapasti,_,_,_,_,_,20,VERB,Vmer3s,acl
26,151-156,danes,_,_,_,_,_,26,ADV,Rgp,advmod
27,157-158,",",_,_,_,_,_,26,PUNCT,Z,punct
28,159-161,biti,_,_,_,_,_,31,AUX,Va-r3s-n,aux
29,162-165,biti,ORG,_,*->5-1,*[5],_,31,AUX,Va-r3d-n,aux
30,166-174,izvedeti,_,_,_,_,_,11,VERB,Vmep-dm,parataxis
31,175-177,iz,_,_,_,_,_,33,ADP,Sg,case
32,178-183,vir,_,_,_,_,_,31,NOUN,Ncmpg,obl
33,184-189,blizu,_,_,_,_,_,36,ADP,Sg,case
34,190-195,laški,_,_,*->4-2,*[4],_,36,ADJ,Agpfsg,amod
35,196-205,pivovarna,_,_,*->4-2,*[4],_,33,NOUN,Ncfsg,nmod
36,206-207,.,_,_,_,_,_,31,PUNCT,Z,punct
37,208-209,v,_,_,_,_,_,39,ADP,Sl,case
38,210-219,pivovarna,ORG[4],_,*->4-3,*[4],_,45,NOUN,Ncfsl,obl
39,220-225,Laško,ORG[4]|LOC[5],_,*->4-3|*->2-1,*[4]|*[2],_,39,PROPN,Npnsn,nmod
40,226-228,pa,_,_,_,_,_,45,CCONJ,Cc,advmod
41,229-231,biti,_,_,_,_,_,45,AUX,Va-r3p-n,aux
42,232-234,za,_,_,_,_,_,51,ADP,Sa,case
43,235-238,biti,ORG,0,*->5-2,*[5],3 - Nevtralno,45,AUX,Va-r3d-n,aux
44,239-247,povedati,_,_,_,_,_,31,VERB,Vmep-dm,parataxis
45,248-249,",",_,_,_,_,_,71,PUNCT,Z,punct
46,250-252,da,_,_,_,_,_,71,SCONJ,Cs,mark
47,253-255,biti,_,_,_,_,_,71,AUX,Va-r3p-n,aux
48,256-264,pogovor,_,_,_,_,_,71,NOUN,Ncmpn,nsubj
49,265-270,glede,_,_,_,_,_,51,ADP,Sg,case
50,271-281,reprogram,_,_,_,_,_,49,NOUN,Ncmsg,nmod
51,282-290,posojilo,_,_,_,_,_,51,NOUN,Ncnsg,nmod
52,291-292,v,_,_,_,_,_,54,ADP,Sl,case
53,293-297,tek,_,_,_,_,_,52,NOUN,Ncmsl,nmod
54,298-299,.,_,_,_,_,_,51,PUNCT,Z,punct
55,300-309,pivovarna,ORG[6],_,*->4-4,*[4],_,71,NOUN,Ncfsn,nsubj
56,310-315,Laško,ORG[6]|LOC[7],_,*->4-4|*->1-3,*[4]|*[1],_,56,PROPN,Npnsn,nmod
57,316-318,biti,_,_,_,_,_,71,AUX,Va-r3s-n,aux
58,319-327,posojilo,_,_,_,_,_,31,NOUN,Ncnsn,nsubj
59,328-329,",",_,_,_,_,_,64,PUNCT,Z,punct
60,330-332,ki,_,_,_,_,_,64,SCONJ,Cs,mark
61,333-335,on,_,_,_,_,_,64,PRON,Pp3msa--y,obj
62,336-338,biti,_,_,_,_,_,64,AUX,Va-r3s-n,aux
63,339-345,najti,_,_,*->4-5,*[4],_,59,VERB,Vmep-sf,acl
64,346-349,pri,_,_,_,_,_,66,ADP,Sl,case
65,350-354,Hypo,ORG[8],_,*->3-2,*[3],_,64,PROPN,Npfsl,obl
66,355-359,Alpe,ORG[8],_,*->3-2,*[3],_,66,PROPN,Npmsn,nmod
67,360-365,Adria,ORG[8],_,*->3-2,*[3],_,69,PROPN,Npfsn,nmod
68,366-371,banka,ORG[8],_,*->3-2,*[3],_,66,NOUN,Ncfsl,nmod
69,372-373,",",_,_,_,_,_,64,PUNCT,Z,punct
70,374-384,zavarovati,_,_,*->4-6,*[4],_,45,VERB,Vmep-sf,ccomp
71,385-386,z,_,_,_,_,_,73,ADP,Si,case
72,387-396,delnica,_,_,_,_,_,71,NOUN,Ncfpi,obl
73,397-403,družba,_,_,*->6-1,*[6],_,73,NOUN,Ncfsg,nmod
74,404-408,delo,ORG,_,*->6-1,*[6],_,71,NOUN,Ncnsa,obj
75,409-410,",",_,_,_,_,_,71,PUNCT,Z,punct
76,411-418,prošnja,_,_,_,_,_,83,NOUN,Ncfsa,obj
77,419-421,za,_,_,_,_,_,79,ADP,Sa,case
78,422-433,podaljšanje,_,_,_,_,_,77,NOUN,Ncnsa,nmod
79,434-442,posojilo,_,_,_,_,_,79,NOUN,Ncnsg,nmod
80,443-445,pa,_,_,_,_,_,83,CCONJ,Cc,advmod
81,446-448,biti,_,_,_,_,_,83,AUX,Va-r3s-n,aux
82,449-456,poslati,_,_,*->4-7,*[4],_,71,VERB,Vmep-sf,parataxis
83,457-465,januar,_,_,_,_,_,83,NOUN,Ncmsg,obl
84,466-471,letos,_,_,_,_,_,84,ADV,Rgp,advmod
85,472-473,.,_,_,_,_,_,92,PUNCT,Z,punct
86,474-476,če,_,_,_,_,_,92,SCONJ,Cs,mark
87,477-485,omenjen,_,_,_,_,_,89,ADJ,Appfsn,amod
88,486-491,banka,_,_,*->3-3,*[3],_,92,NOUN,Ncfsn,nsubj
89,492-494,ne,_,_,_,_,_,92,PART,Q,advmod
90,495-497,biti,_,_,_,_,_,92,AUX,Va-c,aux
91,498-512,reprogramirati,_,_,_,_,_,83,VERB,Vmbp-sf,advcl
92,513-521,posojilo,_,_,_,_,_,92,NOUN,Ncnsg,obj
93,522-523,",",_,_,_,_,_,92,PUNCT,Z,punct
94,524-526,biti,_,_,_,_,_,99,AUX,Va-c,aux
95,527-532,potem,_,_,_,_,_,99,ADV,Rgp,advmod
96,533-541,lastnik,_,_,_,_,_,99,NOUN,Ncmpn,nsubj
97,542-546,delo,ORG,_,*->6-2,*[6],_,97,NOUN,Ncnsg,nmod
98,547-554,postati,_,_,_,_,_,11,VERB,Vmep-pm,parataxis
99,555-564,Avstrijca,_,_,_,_,_,99,PROPN,Npmpn,nsubj
100,565-566,.,_,_,_,_,_,99,PUNCT,Z,punct
101,567-575,posojilo,_,_,_,_,_,107,NOUN,Ncnsn,nsubj
102,576-585,pivovarna,ORG[9],_,*->4-8,*[4],_,102,NOUN,Ncfsd,nmod
103,586-591,Laško,ORG[9]|LOC[10],_,*->4-8|*->1-4,*[4]|*[1],_,103,PROPN,Npnsn,nmod
104,592-594,biti,_,_,_,_,_,107,AUX,Va-r3s-n,aux
105,595-600,prvič,_,_,_,_,_,107,ADV,Rgp,advmod
106,601-608,zapasti,_,_,_,_,_,99,VERB,Vmep-sn,advcl
107,609-610,v,_,_,_,_,_,109,ADP,Sa,case
108,611-618,plačilo,_,_,_,_,_,107,NOUN,Ncnsa,obl
109,619-628,september,_,_,_,_,_,109,NOUN,Ncmsg,nmod
110,629-633,lani,_,_,_,_,_,110,ADV,Rgp,advmod
111,634-635,",",_,_,_,_,_,107,PUNCT,Z,punct
112,636-642,vendar,_,_,_,_,_,124,CCONJ,Cc,cc
113,643-645,se,_,_,_,_,_,125,PRON,Px------y,expl
114,646-648,biti,_,_,_,_,_,124,AUX,Va-r3s-n,aux
115,649-655,uprava,_,_,_,_,_,125,NOUN,Ncfsd,obj
116,656-661,laški,_,_,*->4-9,*[4],_,118,ADJ,Agpfsg,amod
117,662-671,pivovarna,_,_,*->4-9,*[4],_,116,NOUN,Ncfsg,nmod
118,672-673,z,_,_,_,_,_,121,ADP,Si,case
119,674-683,takraten,_,_,_,_,_,121,ADJ,Agpnsi,amod
120,684-692,vodstvo,_,_,_,_,_,125,NOUN,Ncnsi,obl
121,693-697,Hypo,ORG[11],0,*->3-4,*[3],3 - Nevtralno[33],121,PROPN,Npfsg,nmod
122,698-703,banka,ORG[11],0,*->3-4,*[3],3 - Nevtralno[33],122,NOUN,Ncfsg,nmod
123,704-710,uspeti,_,_,_,_,_,107,VERB,Vmep-sn,conj
124,711-721,dogovoriti,_,_,_,_,_,124,VERB,Vmen,xcomp
125,722-724,za,_,_,_,_,_,127,ADP,Sa,case
126,725-736,podaljšanje,_,_,_,_,_,125,NOUN,Ncnsa,obl
127,737-745,posojilo,_,_,_,_,_,127,NOUN,Ncnsg,nmod
128,746-747,.,_,_,_,_,_,124,PUNCT,Z,punct
129,748-756,tokraten,_,_,_,_,_,131,ADJ,Agpnsa,amod
130,757-768,podaljšanje,_,_,_,_,_,137,NOUN,Ncnsa,obj
131,769-773,roka,_,_,_,_,_,131,NOUN,Ncmsg,nmod
132,774-783,odplačilo,_,_,_,_,_,132,NOUN,Ncnsg,nmod
133,784-792,posojilo,_,_,_,_,_,133,NOUN,Ncnsg,nmod
134,793-797,morati,_,_,_,_,_,11,VERB,Vmpr3s,parataxis
135,798-806,Laščan,PER,_,*->1-5,*[1],_,137,PROPN,Npmpd,iobj
136,807-815,potrditi,_,_,_,_,_,135,VERB,Vmen,xcomp
137,816-823,vodstvo,_,_,_,_,_,137,NOUN,Ncnsa,obj
138,824-829,banka,_,_,_,_,_,138,NOUN,Ncfsg,nmod
139,830-832,na,_,_,_,_,_,141,ADP,Sl,case
140,833-839,Dunaj,LOC,0,*->7-1,*[7],3 - Nevtralno,139,PROPN,Npmsl,nmod
141,840-841,",",_,_,_,_,_,151,PUNCT,Z,punct
142,842-851,pivovarna,ORG[12],_,*->4-10,*[4],_,151,NOUN,Ncfsn,nsubj
143,852-857,Laško,ORG[12]|LOC[13],_,*->4-10|*->1-6,*[4]|*[1],_,143,PROPN,Npnsn,nmod
144,858-860,pa,_,_,_,_,_,151,CCONJ,Cc,advmod
145,861-864,naj,_,_,_,_,_,151,PART,Q,advmod
146,865-867,biti,_,_,_,_,_,151,AUX,Va-c,aux
147,868-870,za,_,_,_,_,_,149,ADP,Sa,case
148,871-882,podaljšanje,_,_,_,_,_,151,NOUN,Ncnsa,obl
149,883-891,posojilo,_,_,_,_,_,149,NOUN,Ncnsg,nmod
150,892-900,ponuditi,_,_,_,_,_,135,VERB,Vmep-sf,advcl
151,901-905,tudi,_,_,_,_,_,151,PART,Q,advmod
152,906-913,dodaten,_,_,_,_,_,154,ADJ,Agpnpa,amod
153,914-925,zavarovanje,_,_,_,_,_,151,NOUN,Ncnpa,obj
154,926-927,.,_,_,_,_,_,151,PUNCT,Z,punct
155,928-937,pivovarna,ORG[14],_,*->4-11,*[4],_,158,NOUN,Ncfsn,nsubj
156,938-943,Laško,ORG[14]|LOC[15],_,*->4-11|*->1-7,*[4]|*[1],_,156,PROPN,Npnsn,nmod
157,944-947,imeti,_,_,_,_,_,151,VERB,Vmpr3s-n,conj
158,948-950,do,_,_,_,_,_,160,ADP,Sg,case
159,951-955,banka,_,_,_,_,_,158,NOUN,Ncfpg,obl
160,956-961,upnica,_,_,_,_,_,160,NOUN,Ncfpg,nmod
161,962-968,skoraj,_,_,_,_,_,163,PART,Q,advmod
162,969-972,450,_,_,_,_,_,164,NUM,Mdc,nummod
163,973-982,milijon,_,_,_,_,_,166,NOUN,Ncmpg,obl
164,983-988,evro,_,_,_,_,_,164,NOUN,Ncmpg,nmod
165,989-994,dolg,_,_,_,_,_,158,ADJ,Agpfsn,conj
166,995-996,",",_,_,_,_,_,166,PUNCT,Z,punct
167,997-999,od,_,_,_,_,_,169,ADP,Sg,case
168,1000-1004,ta,_,_,_,_,_,172,DET,Pd-nsg,det
169,1005-1014,približno,_,_,_,_,_,171,ADV,Rgp,advmod
170,1015-1018,340,_,_,_,_,_,172,NUM,Mdc,nummod
171,1019-1028,milijon,_,_,_,_,_,166,NOUN,Ncmpg,obl
172,1029-1034,evro,_,_,_,_,_,172,NOUN,Ncmpg,nmod
173,1035-1048,kratkoročen,_,_,_,_,_,173,ADJ,Agpnsg,amod
174,1049-1050,.,_,_,_,_,_,166,PUNCT,Z,punct
175,1051-1053,že,_,_,_,_,_,182,PART,Q,advmod
176,1054-1058,lani,_,_,_,_,_,182,ADV,Rgp,advmod
177,1059-1062,naj,_,_,_,_,_,182,PART,Q,advmod
178,1063-1065,biti,_,_,_,_,_,182,AUX,Va-c,aux
179,1066-1067,v,_,_,_,_,_,181,ADP,Sa,case
180,1068-1077,odplačilo,_,_,_,_,_,182,NOUN,Ncnsa,obl
181,1078-1085,zapasti,_,_,_,_,_,158,VERB,Vmep-sn,advcl
182,1086-1089,190,_,_,_,_,_,184,NUM,Mdc,nummod
183,1090-1099,milijon,_,_,_,_,_,182,NOUN,Ncmpg,obj
184,1100-1105,evro,_,_,_,_,_,184,NOUN,Ncmpg,nmod
185,1106-1118,kratkoročen,_,_,_,_,_,187,ADJ,Agpnpg,amod
186,1119-1126,posojilo,_,_,_,_,_,185,NOUN,Ncnpg,nmod
187,1127-1128,.,_,_,_,_,_,182,PUNCT,Z,punct
188,1129-1138,pivovarna,ORG[16],_,*->4-12,*[4],_,191,NOUN,Ncfsn,nsubj
189,1139-1144,Laško,ORG[16]|LOC[17],_,*->4-12|*->1-8,*[4]|*[1],_,189,PROPN,Npnsn,nmod
190,1145-1149,želeti,_,_,_,_,_,182,VERB,Vmpr3s,conj
191,1150-1154,zato,_,_,_,_,_,196,ADV,Rgp,advmod
192,1155-1156,v,_,_,_,_,_,195,ADP,Sl,case
193,1157-1166,letošnji,_,_,_,_,_,195,ADJ,Agpnsl,amod
194,1167-1171,leto,_,_,_,_,_,196,NOUN,Ncnsl,obl
195,1172-1179,prodati,_,_,_,_,_,191,VERB,Vmen,xcomp
196,1180-1187,naložba,_,_,_,_,_,196,NOUN,Ncfpa,obj
197,1188-1189,v,_,_,_,_,_,199,ADP,Sl,case
198,1190-1200,Mercator,ORG,0,*->8-1,*[8],3 - Nevtralno,197,PROPN,Npmsl,nmod
199,1201-1202,",",_,_,_,_,_,201,PUNCT,Z,punct
200,1203-1207,del,LOC,0,*->6-3,*[6],3 - Nevtralno,199,NOUN,Ncnsl,conj
201,1208-1210,in,_,_,_,_,_,203,CCONJ,Cc,cc
202,1211-1219,Fructal,ORG,0,*->9-1,*[9],3 - Nevtralno,199,PROPN,Npmsl,conj
203,1220-1221,.,_,_,_,_,_,191,PUNCT,Z,punct
204,1222-1223,v,_,_,_,_,_,206,ADP,Sl,case
205,1224-1231,primer,_,_,_,_,_,220,NOUN,Ncmsl,obl
206,1232-1241,odprodaja,_,_,_,_,_,206,NOUN,Ncfsg,nmod
207,1242-1245,ta,_,_,_,_,_,209,DET,Pd-fpg,det
208,1246-1252,naložba,_,_,_,_,_,207,NOUN,Ncfpg,nmod
209,1253-1254,v,_,_,_,_,_,211,ADP,Sl,case
210,1255-1261,celota,_,_,_,_,_,209,NOUN,Ncfsl,nmod
211,1262-1264,biti,_,_,_,_,_,220,AUX,Va-c,aux
212,1265-1275,načrtovan,_,_,_,_,_,215,ADJ,Appmsny,amod
213,1276-1284,finančen,_,_,_,_,_,215,ADJ,Agpmsny,amod
214,1285-1289,dolg,_,_,_,_,_,220,NOUN,Ncmsn,nsubj
215,1290-1297,skupina,_,_,*->4-13,*[4],_,215,NOUN,Ncfsg,nmod
216,1298-1303,konec,_,_,_,_,_,219,ADP,Sg,case
217,1304-1315,prihodnji,_,_,_,_,_,219,ADJ,Agpnsg,amod
218,1316-1320,leto,_,_,_,_,_,220,NOUN,Ncnsg,obl
219,1321-1327,znašati,_,_,_,_,_,11,VERB,Vmpp-sm,parataxis
220,1328-1330,še,_,_,_,_,_,220,PART,Q,advmod
221,1331-1336,okoli,_,_,_,_,_,223,ADV,Rgp,advmod
222,1337-1340,160,_,_,_,_,_,224,NUM,Mdc,nummod
223,1341-1350,milijon,_,_,_,_,_,220,NOUN,Ncmpg,obl
224,1351-1356,evro,_,_,_,_,_,224,NOUN,Ncmpg,nmod
225,1357-1358,.,_,_,_,_,_,220,PUNCT,Z,punct
226,1359-1367,nadzoren,_,_,_,_,_,228,ADJ,Agpmsny,amod
227,1368-1372,svet,_,_,_,_,_,235,NOUN,Ncmsn,nsubj
228,1373-1382,pivovarna,ORG[18],_,*->4-14,*[4],_,228,NOUN,Ncfsg,nmod
229,1383-1388,Laško,ORG[18]|LOC[19],_,*->4-14|*->1-9,*[4]|*[1],_,229,PROPN,Npnsn,nmod
230,1389-1391,biti,_,_,_,_,_,235,AUX,Va-r3s-n,aux
231,1392-1397,sicer,_,_,_,_,_,235,PART,Q,advmod
232,1398-1400,že,_,_,_,_,_,235,PART,Q,advmod
233,1401-1410,september,_,_,_,_,_,235,NOUN,Ncmsg,obl
234,1411-1418,potrditi,_,_,_,_,_,220,VERB,Vmep-sm,conj
235,1419-1430,spremenjen,_,_,_,_,_,239,ADJ,Appfsa,amod
236,1431-1433,in,_,_,_,_,_,238,CCONJ,Cc,cc
237,1434-1444,dopolnjen,_,_,_,_,_,236,ADJ,Appfsa,conj
238,1445-1455,strategija,_,_,_,_,_,235,NOUN,Ncfsa,obj
239,1456-1463,skupina,_,_,_,_,_,239,NOUN,Ncfsg,nmod
240,1464-1469,laški,_,_,*->4-15,*[4],_,242,ADJ,Agpfsg,amod
241,1470-1479,pivovarna,_,_,*->4-15,*[4],_,240,NOUN,Ncfsg,nmod
242,1480-1482,do,_,_,_,_,_,244,ADP,Sg,case
243,1483-1487,leto,_,_,_,_,_,235,NOUN,Ncnsg,obl
244,1488-1492,2014,_,_,_,_,_,244,NUM,Mdc,nummod
245,1493-1494,.,_,_,_,_,_,235,PUNCT,Z,punct
246,1495-1503,temeljen,_,_,_,_,_,248,ADJ,Agpfsn,amod
247,1504-1516,predpostavka,_,_,_,_,_,252,NOUN,Ncfsn,nmod
248,1517-1525,sprejet,_,_,_,_,_,250,ADJ,Appfsg,amod
249,1526-1536,strategija,_,_,_,_,_,248,NOUN,Ncfsg,nmod
250,1537-1539,biti,_,_,_,_,_,248,AUX,Va-r3s-n,cop
251,1540-1554,preoblikovanje,_,_,_,_,_,239,NOUN,Ncnsa,conj
252,1555-1556,v,_,_,_,_,_,255,ADP,Sa,case
253,1557-1566,pogodben,_,_,_,_,_,255,ADJ,Agpmsay,amod
254,1567-1574,koncern,_,_,_,_,_,252,NOUN,Ncmsan,nmod
255,1575-1576,",",_,_,_,_,_,235,PUNCT,Z,punct
256,1577-1581,njen,_,_,_,_,_,259,DET,Ps3msnsf,det
257,1582-1590,temeljen,_,_,_,_,_,259,ADJ,Agpmsny,amod
258,1591-1594,del,_,_,_,_,_,252,NOUN,Ncmsn,nmod
259,1595-1597,pa,_,_,_,_,_,259,CCONJ,Cc,advmod
260,1598-1600,biti,_,_,_,_,_,259,AUX,Va-r3s-n,cop
261,1601-1605,tudi,_,_,_,_,_,259,PART,Q,advmod
262,1606-1619,razdolževanje,_,_,_,_,_,252,NOUN,Ncnsa,conj
263,1620-1622,in,_,_,_,_,_,265,CCONJ,Cc,cc
264,1623-1632,odprodaja,_,_,_,_,_,263,NOUN,Ncmsg,conj
265,1633-1643,investicija,_,_,_,_,_,265,NOUN,Ncfpg,nmod
266,1644-1645,",",_,_,_,_,_,271,PUNCT,Z,punct
267,1646-1648,ki,_,_,_,_,_,271,SCONJ,Cs,mark
268,1649-1651,biti,_,_,_,_,_,271,AUX,Va-r3p-n,aux
269,1652-1654,se,_,_,_,_,_,271,PRON,Px------y,expl
270,1655-1665,nakopičiti,_,_,_,_,_,266,VERB,Vmep-pf,acl
271,1666-1667,v,_,_,_,_,_,273,ADP,Sl,case
272,1668-1672,čas,_,_,_,_,_,271,NOUN,Ncmsl,obl
273,1673-1674,",",_,_,_,_,_,278,PUNCT,Z,punct
274,1675-1677,ko,_,_,_,_,_,278,SCONJ,Cs,mark
275,1678-1680,biti,_,_,_,_,_,278,AUX,Va-r3s-n,aux
276,1681-1687,družba,_,_,*->4-16,*[4],_,278,NOUN,Ncfsa,obj
277,1688-1693,voditi,_,_,_,_,_,273,VERB,Vmpp-sm,acl
278,1694-1699,Boško,PER[20],_,*->10-1,*[10],_,278,PROPN,Npmsn,nsubj
279,1700-1704,Šrot,PER[20],_,*->10-1,*[10],_,279,PROPN,Npmsn,flat:name
280,1705-1706,.,_,_,_,_,_,11,PUNCT,Z,punct
281,1707-1711,Šrot,PER,_,*->10-2,*[10],_,295,PROPN,Npmsn,nsubj
282,1712-1714,biti,_,_,_,_,_,295,AUX,Va-r3s-n,aux
283,1715-1723,posloven,_,_,_,_,_,285,ADJ,Agpmsny,amod
284,1724-1731,imperij,_,_,_,_,_,295,NOUN,Ncmsn,nsubj
285,1732-1733,",",_,_,_,_,_,291,PUNCT,Z,punct
286,1734-1736,ki,_,_,_,_,_,291,SCONJ,Cs,mark
287,1737-1739,on,_,_,_,_,_,291,PRON,Pp3msa--y,obj
288,1740-1742,biti,_,_,_,_,_,291,AUX,Va-r3s-n,aux
289,1743-1748,močno,_,_,_,_,_,291,ADV,Rgp,advmod
290,1749-1758,prizadeti,_,_,_,_,_,285,VERB,Vmep-sf,acl
291,1759-1767,finančen,_,_,_,_,_,293,ADJ,Agpfsn,amod
292,1768-1773,kriza,_,_,_,_,_,291,NOUN,Ncfsn,nsubj
293,1774-1775,",",_,_,_,_,_,291,PUNCT,Z,punct
294,1776-1783,zgraditi,_,_,_,_,_,279,VERB,Vmep-sm,acl
295,1784-1789,okoli,_,_,_,_,_,297,ADP,Sg,case
296,1790-1795,mreža,_,_,_,_,_,295,NOUN,Ncfsg,obl
297,1796-1805,lastniško,_,_,_,_,_,299,ADV,Rgp,advmod
298,1806-1815,povezan,_,_,_,_,_,300,ADJ,Appnpg,amod
299,1816-1824,podjetje,_,_,_,_,_,297,NOUN,Ncnpg,nmod
300,1825-1826,",",_,_,_,_,_,305,PUNCT,Z,punct
301,1827-1835,pomemben,_,_,_,_,_,303,ADJ,Agpfsa,amod
302,1836-1841,vloga,_,_,_,_,_,305,NOUN,Ncfsa,obj
303,1842-1844,biti,_,_,_,_,_,305,AUX,Va-r3s-n,aux
304,1845-1851,igrati,_,_,_,_,_,295,VERB,Vmpp-sf,conj
305,1852-1860,finančen,_,_,*->15-1,*[15],_,307,ADJ,Agpfsn,amod
306,1861-1867,družba,_,_,*->15-1,*[15],_,305,NOUN,Ncfsn,nsubj
307,1868-1874,Infond,ORG[21],_,*->15-1,*[15],_,307,PROPN,Npmsn,nmod
308,1875-1882,holding,ORG[21],_,*->15-1,*[15],_,308,NOUN,Ncmsn,nmod
309,1883-1884,.,_,_,_,_,_,305,PUNCT,Z,punct
310,1885-1894,pivovarna,ORG[22],_,*->4-17,*[4],_,314,NOUN,Ncfsa,obj
311,1895-1900,Laško,ORG[22]|LOC[23],_,*->4-17|*->1-10,*[4]|*[1],_,311,PROPN,Npnsa,nmod
312,1901-1903,biti,_,_,_,_,_,314,AUX,Va-r3s-n,aux
313,1904-1911,prevzeti,_,_,*->10-3,*[10],_,11,VERB,Vmep-sm,parataxis
314,1912-1916,leto,_,_,_,_,_,314,NOUN,Ncnsg,obl
315,1917-1921,2005,_,_,_,_,_,315,NUM,Mdc,nummod
316,1922-1923,",",_,_,_,_,_,314,PUNCT,Z,punct
317,1924-1934,managerski,_,_,_,_,_,319,ADJ,Agpmsny,amod
318,1935-1942,prevzem,_,_,_,_,_,323,NOUN,Ncmsn,nsubj
319,1943-1952,pivovarna,_,_,*->4-18,*[4],_,319,NOUN,Ncfsg,nmod
320,1953-1955,pa,_,_,_,_,_,323,CCONJ,Cc,advmod
321,1956-1958,biti,_,_,_,_,_,323,AUX,Va-r3s-n,aux
322,1959-1967,izpeljati,_,_,*->10-4,*[10],_,314,VERB,Vmep-sm,advcl
323,1968-1969,v,_,_,_,_,_,325,ADP,Sl,case
324,1970-1975,leto,_,_,_,_,_,323,NOUN,Ncnpl,obl
325,1976-1980,2008,_,_,_,_,_,325,NUM,Mdc,nummod
326,1981-1983,in,_,_,_,_,_,328,CCONJ,Cc,cc
327,1984-1988,2009,_,_,_,_,_,326,NUM,Mdc,conj
328,1989-1990,.,_,_,_,_,_,323,PUNCT,Z,punct
329,1991-1993,po,_,_,_,_,_,332,ADP,Sl,case
330,1994-2002,njegov,_,_,*->10-5,*[10],_,332,DET,Ps3nplsm,det
331,2003-2012,navodilo,_,_,_,_,_,346,NOUN,Ncnpl,obl
332,2013-2016,naj,_,_,_,_,_,346,PART,Q,advmod
333,2017-2019,biti,_,_,_,_,_,346,AUX,Va-c,aux
334,2020-2028,nekdanji,_,_,_,_,_,339,ADJ,Agpfsn,amod
335,2029-2030,"""",_,_,_,_,_,337,PUNCT,Z,punct
336,2031-2039,slamnat,_,0,*->11-1,*[11],3 - Nevtralno[34],339,ADJ,Agpfsn,amod
337,2040-2041,"""",_,0,*->11-1,*[11],3 - Nevtralno[34],337,PUNCT,Z,punct
338,2042-2050,lastnica,_,0,*->11-1,*[11],3 - Nevtralno[34],346,NOUN,Ncfsn,nsubj
339,2051-2057,družba,_,0,*->11-1,*[11],3 - Nevtralno[34],339,NOUN,Ncfsg,nmod
340,2058-2065,Kolonel,ORG,0,*->11-1|*->12-1,*[11]|*[12],3 - Nevtralno[34],340,PROPN,Npmsn,nmod
341,2066-2074,Danijel,PER[24],0,*->11-1,*[11],3 - Nevtralno[34],339,PROPN,Npfsn,nmod
342,2075-2082,Raković,PER[24],0,*->11-1,*[11],3 - Nevtralno[34],342,PROPN,Npmsn,flat:name
343,2083-2089,julij,_,_,_,_,_,346,NOUN,Ncmsg,obl
344,2090-2094,2006,_,_,_,_,_,344,NUM,Mdc,nummod
345,2095-2101,kupiti,_,_,_,_,_,11,VERB,Vmep-sf,parataxis
346,2102-2110,podjetje,_,_,_,_,_,346,NOUN,Ncnsa,obj
347,2111-2118,Kolonel,ORG,0,*->12-2,*[12],3 - Nevtralno,347,PROPN,Npmsn,nmod
348,2119-2120,",",_,_,_,_,_,353,PUNCT,Z,punct
349,2121-2123,ki,_,_,_,_,_,353,SCONJ,Cs,mark
350,2124-2126,biti,_,_,_,_,_,353,AUX,Va-r3s-n,aux
351,2127-2134,kasno,_,_,_,_,_,353,ADV,Rgc,advmod
352,2135-2143,prevzeti,_,_,_,_,_,347,VERB,Vmep-sn,acl
353,2144-2150,center,ORG[25],_,*->13-1,*[13],_,353,NOUN,Ncmsan,obj
354,2151-2158,naložba,ORG[25],_,*->13-1,*[13],_,354,NOUN,Ncfsg,nmod
355,2159-2160,",",_,_,_,_,_,353,PUNCT,Z,punct
356,2161-2163,ta,_,0,*->13-2,*[13],3 - Nevtralno,359,DET,Pd-msn,det
357,2164-2166,pa,_,_,_,_,_,359,CCONJ,Cc,cc
358,2167-2173,družba,_,_,*->15-2,*[15],_,347,NOUN,Ncfsa,conj
359,2174-2180,Infond,ORG[26],_,*->15-2,*[15],_,359,PROPN,Npmsn,nmod
360,2181-2188,holding,ORG[26],_,*->15-2,*[15],_,360,NOUN,Ncmsn,nmod
361,2189-2190,",",_,_,_,_,_,368,PUNCT,Z,punct
362,2191-2195,prek,_,_,_,_,_,364,ADP,Sg,case
363,2196-2202,kateri,_,0,*->15-3,*[15],3 - Nevtralno,368,DET,Pq-fsg,obl
364,2203-2205,biti,_,_,_,_,_,368,AUX,Va-r3s-n,aux
365,2206-2211,potem,_,_,_,_,_,368,ADV,Rgp,advmod
366,2212-2216,Šrot,PER,2,*->10-6,*[10],2 - Negativno,368,PROPN,Npmsn,nsubj
367,2217-2224,prevzeti,_,_,_,_,_,359,VERB,Vmep-sm,acl
368,2225-2234,pivovarna,ORG[27],_,*->4-19,*[4],_,368,NOUN,Ncfsa,obj
369,2235-2240,Laško,ORG[27]|LOC[28],_,*->4-19|*->1-11,*[4]|*[1],_,369,PROPN,Npnsn,nmod
370,2241-2242,.,_,_,_,_,_,368,PUNCT,Z,punct
371,2243-2251,domnevno,_,_,_,_,_,373,ADJ,Agpnsa,amod
372,2252-2263,oškodovanje,_,_,_,_,_,376,NOUN,Ncnsa,obj
373,2264-2273,pivovarna,ORG[29],_,*->4-20,*[4],_,373,NOUN,Ncfsg,nmod
374,2274-2279,Laško,ORG[29]|LOC[30],_,*->4-20|*->1-12,*[4]|*[1],_,374,PROPN,Npnsn,nmod
375,2280-2289,preiskovati,_,_,_,_,_,368,VERB,Vmpr3s,conj
376,2290-2294,tudi,_,_,_,_,_,376,PART,Q,advmod
377,2295-2302,skupina,_,_,_,_,_,376,NOUN,Ncfsn,nsubj
378,2303-2311,državen,_,_,_,_,_,380,ADJ,Agpmpg,amod
379,2312-2320,tožilec,_,_,_,_,_,378,NOUN,Ncmpg,nmod
380,2321-2323,za,_,_,_,_,_,382,ADP,Sa,case
381,2324-2330,pregon,_,_,_,_,_,380,NOUN,Ncmsan,nmod
382,2331-2345,organiziran,_,_,_,_,_,384,ADJ,Appmsg,amod
383,2346-2355,kriminal,_,_,_,_,_,382,NOUN,Ncmsg,nmod
384,2356-2357,.,_,_,_,_,_,368,PUNCT,Z,punct
385,2358-2365,državen,_,_,_,_,_,387,ADJ,Agpnsn,amod
386,2366-2375,tožilstvo,_,_,_,_,_,395,NOUN,Ncnsn,nsubj
387,2376-2378,biti,_,_,_,_,_,395,AUX,Va-r3s-n,aux
388,2379-2381,po,_,_,_,_,_,391,ADP,Sl,case
389,2382-2391,neuspešen,_,_,_,_,_,391,ADJ,Agpfsl,amod
390,2392-2400,vložitev,_,_,_,_,_,395,NOUN,Ncfsl,obl
391,2401-2411,neposreden,_,_,_,_,_,393,ADJ,Agpfsg,amod
392,2412-2421,obtožnica,_,_,_,_,_,391,NOUN,Ncfsg,nmod
393,2422-2431,februar,_,_,_,_,_,395,NOUN,Ncmsg,obl
394,2432-2439,vložiti,_,_,_,_,_,376,VERB,Vmep-sn,conj
395,2440-2447,zahteva,_,_,_,_,_,395,NOUN,Ncfsa,obj
396,2448-2450,za,_,_,_,_,_,398,ADP,Sa,case
397,2451-2460,preiskava,_,_,_,_,_,396,NOUN,Ncfsa,nmod
398,2461-2462,v,_,_,_,_,_,400,ADP,Sl,case
399,2463-2469,zadeva,_,_,_,_,_,395,NOUN,Ncfsl,obl
400,2470-2482,managerski,_,_,_,_,_,402,ADJ,Agpmsg,amod
401,2483-2489,odkup,_,_,_,_,_,400,NOUN,Ncmsg,nmod
402,2490-2499,pivovarna,ORG[31],2,*->4-21,*[4],2 - Negativno[35],402,NOUN,Ncfsg,nmod
403,2500-2505,Laško,ORG[31]|LOC[32],0,*->4-21|*->1-13,*[4]|*[1],2 - Negativno[35]|3 - Nevtralno[36],403,PROPN,Npnsn,nmod
404,2506-2508,in,_,_,_,_,_,406,CCONJ,Cc,cc
405,2509-2519,Istrabenz,ORG,2,*->14-1,*[14],2 - Negativno,404,PROPN,Npmsg,conj
