idx,chars_idx,token,entity_type,sentiment,idk_1,idk_2,orig_sentiment,heads,upos,xpos,deprel
0,0-9,Ljubljana,LOC,0,*->1-1,*[1],3 - Nevtralno,5,PROPN,Npfsn,parataxis
1,10-11,-,_,_,_,_,_,1,PUNCT,Z,punct
2,12-17,droga,ORG[1],_,*->2-1,*[2],_,5,NOUN,Ncfsn,nsubj
3,18-26,Kolinska,ORG[1],_,*->2-1,*[2],_,3,PROPN,Npfsn,nmod
4,27-35,spoštovati,_,_,_,_,_,0,VERB,Vmpr3s,root
5,36-47,pridobljen,_,_,_,_,_,7,ADJ,Appmda,amod
6,48-59,certifikat,_,_,_,_,_,5,NOUN,Ncmdn,nsubj
7,60-65,halalo,_,_,_,_,_,7,NOUN,Ncmsn,nmod
8,66-67,",",_,_,_,_,_,11,PUNCT,Z,punct
9,68-70,ki,_,_,_,_,_,11,SCONJ,Cs,mark
10,71-83,zagotavljati,_,_,_,_,_,7,VERB,Vmpr3d,acl
11,84-85,",",_,_,_,_,_,26,PUNCT,Z,punct
12,86-88,da,_,_,_,_,_,26,SCONJ,Cs,mark
13,89-91,biti,_,_,_,_,_,26,AUX,Va-r3p-n,cop
14,92-101,testiran,_,_,_,_,_,16,ADJ,Appmpn,amod
15,102-109,izdelek,_,_,_,_,_,26,NOUN,Ncmpn,nsubj
16,110-116,argeta,ORG,_,*->3-1,*[3],_,16,NOUN,Ncmsg,nmod
17,117-118,",",_,_,_,_,_,26,PUNCT,Z,punct
18,119-122,med,_,_,_,_,_,20,ADP,Si,case
19,123-128,on,_,_,_,_,_,26,PRON,Pp3mpi,obl
20,129-133,tudi,_,_,_,_,_,26,PART,Q,advmod
21,134-143,piščančje,_,_,_,_,_,26,NOUN,Ncfsn,nsubj
22,144-151,pašteta,_,_,_,_,_,22,NOUN,Ncfsn,nmod
23,152-158,Arge,ORG,_,*->3-2,*[3],_,23,PROPN,Npmsg,nmod
24,159-160,",",_,_,_,_,_,26,PUNCT,Z,punct
25,161-169,izdelan,_,_,_,_,_,11,ADJ,Appmpn,ccomp
26,170-171,v,_,_,_,_,_,28,ADP,Sl,case
27,172-178,sklad,_,_,_,_,_,26,NOUN,Ncmsl,obl
28,179-180,z,_,_,_,_,_,30,ADP,Si,case
29,181-188,pravilo,_,_,_,_,_,28,NOUN,Ncnpi,nmod
30,189-191,in,_,_,_,_,_,32,CCONJ,Cc,cc
31,192-201,zahteva,_,_,_,_,_,30,NOUN,Ncfpi,conj
32,202-207,halalo,_,_,_,_,_,32,NOUN,Ncmsg,nmod
33,208-217,standard,_,_,_,_,_,33,NOUN,Ncmsg,nmod
34,218-220,in,_,_,_,_,_,38,CCONJ,Cc,cc
35,221-226,torej,_,_,_,_,_,38,ADV,Rgp,advmod
36,227-229,ne,_,_,_,_,_,38,PART,Q,advmod
37,230-239,vsebovati,_,_,_,_,_,26,VERB,Vmpr3p,conj
38,240-248,svinjina,_,_,_,_,_,38,NOUN,Ncfsg,obj
39,249-250,.,_,_,_,_,_,38,PUNCT,Z,punct
40,251-262,certifikat,_,_,_,_,_,43,NOUN,Ncmsg,obj
41,263-266,biti,_,_,_,_,_,43,AUX,Va-r3d-n,aux
42,267-273,izdati,_,_,_,_,_,5,VERB,Vmep-df,parataxis
43,274-282,islamski,_,_,_,_,_,45,ADJ,Agpfdd,amod
44,283-292,skupnost,_,_,_,_,_,43,NOUN,Ncfda,nsubj
45,293-297,tako,_,_,_,_,_,48,ADV,Rgp,advmod
46,298-299,v,_,_,_,_,_,48,ADP,Sl,case
47,300-309,Slovenija,LOC,_,*->4-1,*[4],_,43,PROPN,Npfsl,obl
48,310-313,kot,_,_,_,_,_,52,SCONJ,Cs,case
49,314-318,tudi,_,_,_,_,_,43,PART,Q,advmod
50,319-320,v,_,_,_,_,_,52,ADP,Sl,case
51,321-324,Bih,LOC,_,*->14-1,*[14],_,48,PROPN,Npfsl,conj
52,325-326,.,_,_,_,_,_,56,PUNCT,Z,punct
53,327-330,kot,_,_,_,_,_,56,SCONJ,Cs,mark
54,331-333,biti,_,_,_,_,_,56,AUX,Va-r3p-n,aux
55,334-343,sporočiti,_,_,_,_,_,52,VERB,Vmep-pm,acl
56,344-346,iz,_,_,_,_,_,58,ADP,Sg,case
57,347-352,droga,ORG[2],_,*->2-2,*[2],_,56,NOUN,Ncfsg,obl
58,353-361,Kolinska,ORG[2],_,*->2-2,*[2],_,58,PROPN,Npfsg,nmod
59,362-363,",",_,_,_,_,_,56,PUNCT,Z,punct
60,364-366,biti,_,_,_,_,_,73,AUX,Va-r3s-n,aux
61,367-368,7,_,_,_,_,_,64,NUM,Mdc,nummod
62,369-370,.,_,_,_,_,_,56,PUNCT,Z,punct
63,371-378,avgust,_,_,_,_,_,73,NOUN,Ncmsg,obl
64,379-384,letos,_,_,_,_,_,73,ADV,Rgp,advmod
65,385-394,neodvisen,_,_,_,_,_,68,ADJ,Agpmsny,amod
66,395-407,raziskovalen,_,_,_,_,_,68,ADJ,Agpmsny,amod
67,408-419,laboratorij,_,_,_,_,_,73,NOUN,Ncmsn,nsubj
68,420-429,inštitut,ORG[3],_,*->5-1,*[5],_,68,NOUN,Ncmsg,nmod
69,430-436,Gissel,ORG[3],_,*->5-1,*[5],_,69,PROPN,Npmsn,nmod
70,437-439,iz,_,_,_,_,_,72,ADP,Sg,case
71,440-447,Hanovra,ORG,0,*->6-1,*[6],3 - Nevtralno,69,PROPN,Npmsg,nmod
72,448-455,opraviti,_,_,_,_,_,5,VERB,Vmep-sm,parataxis
73,456-466,testiranje,_,_,_,_,_,73,NOUN,Ncnpa,obj
74,467-469,na,_,_,_,_,_,77,ADP,Sl,case
75,470-480,piščančji,_,_,_,_,_,77,ADJ,Agpfpl,amod
76,481-489,pašteta,_,_,_,_,_,74,NOUN,Ncfpl,nmod
77,490-496,Arge,ORG,_,*->3-3,*[3],_,77,PROPN,Npmsg,nmod
78,497-499,in,_,_,_,_,_,80,CCONJ,Cc,cc
79,500-508,ugotoviti,_,_,*->5-2,*[5],_,73,VERB,Vmep-sm,conj
80,509-510,",",_,_,_,_,_,85,PUNCT,Z,punct
81,511-513,da,_,_,_,_,_,85,SCONJ,Cs,mark
82,514-516,ta,_,_,_,_,_,85,DET,Pd-fpn,nsubj
83,517-519,ne,_,_,_,_,_,85,PART,Q,advmod
84,520-529,vsebovati,_,_,_,_,_,80,VERB,Vmpr3p,ccomp
85,530-538,svinjina,_,_,_,_,_,85,NOUN,Ncfsg,obj
86,539-540,.,_,_,_,_,_,85,PUNCT,Z,punct
87,541-548,slednji,_,_,*->5-3,*[5],_,91,ADJ,Agpmsny,nsubj
88,549-551,biti,_,_,_,_,_,91,AUX,Va-r3s-n,aux
89,552-562,testiranje,_,_,_,_,_,91,NOUN,Ncnsg,obj
90,563-570,izvedeti,_,_,_,_,_,73,VERB,Vmep-sm,parataxis
91,571-573,po,_,_,_,_,_,94,ADP,Sl,case
92,574-579,enak,_,_,_,_,_,94,DET,Pi-fsl,det
93,580-592,metodologija,_,_,_,_,_,91,NOUN,Ncfsl,obl
94,593-596,kot,_,_,_,_,_,97,SCONJ,Cs,case
95,597-603,nemški,_,_,*->7-1,*[7],_,97,ADJ,Agpmsny,amod
96,604-612,inštitut,_,_,*->7-1,*[7],_,91,NOUN,Ncmsn,obl
97,613-615,za,_,_,*->7-1,*[7],_,99,ADP,Sa,case
98,616-624,prehrana,_,_,*->7-1,*[7],_,97,NOUN,Ncfsa,nmod
99,625-636,Bayerisches,ORG[4],_,*->7-1,*[7],_,99,PROPN,Npmsn,nmod
100,637-646,Landesamt,ORG[4],_,*->7-1,*[7],_,100,PROPN,Npmsn,flat:name
101,647-650,für,ORG[4],_,*->7-1,*[7],_,103,X,Xf,nmod
102,651-661,Gesundheit,ORG[4],_,*->7-1,*[7],_,101,PROPN,Npmsn,nmod
103,662-665,und,ORG[4],_,*->7-1,*[7],_,105,X,Xf,nmod
104,666-688,lebensmittelsicherheit,ORG[4],_,*->7-1,*[7],_,103,ADJ,Agpmpg,nummod
105,689-690,",",_,_,_,_,_,109,PUNCT,Z,punct
106,691-693,ki,_,_,_,_,_,109,SCONJ,Cs,mark
107,694-696,biti,_,_,_,_,_,109,AUX,Va-r3s-n,aux
108,697-705,ugotoviti,_,_,*->7-2,*[7],_,105,VERB,Vmep-sm,acl
109,706-707,",",_,_,_,_,_,115,PUNCT,Z,punct
110,708-710,da,_,_,_,_,_,115,SCONJ,Cs,mark
111,711-720,piščančje,_,_,_,_,_,115,NOUN,Ncfsn,nsubj
112,721-728,pašteta,_,_,_,_,_,112,NOUN,Ncfsn,nmod
113,729-735,Arge,ORG,_,*->3-4,*[3],_,113,PROPN,Npmsg,nmod
114,736-743,vsebovati,_,_,_,_,_,109,VERB,Vmpr3s,ccomp
115,744-752,svinjski,_,_,_,_,_,117,ADJ,Agpnsa,amod
116,753-757,meso,_,_,_,_,_,115,NOUN,Ncnsa,obj
117,758-760,in,_,_,_,_,_,119,CCONJ,Cc,cc
118,761-766,kost,_,_,_,_,_,117,NOUN,Ncfpa,conj
119,767-768,.,_,_,_,_,_,115,PUNCT,Z,punct
120,769-776,analiza,_,_,_,_,_,127,NOUN,Ncfsn,nsubj
121,777-778,v,_,_,_,_,_,123,ADP,Sl,case
122,779-788,inštitut,_,_,*->5-4,*[5],_,121,NOUN,Ncmsl,nmod
123,789-795,Gissel,ORG,_,*->5-4,*[5],_,123,PROPN,Npmsn,nmod
124,796-798,biti,_,_,_,_,_,127,AUX,Va-r3s-n,aux
125,799-803,biti,_,_,_,_,_,127,AUX,Va-p-sf,cop
126,804-814,opravljen,_,_,_,_,_,5,ADJ,Appfsn,parataxis
127,815-817,na,_,_,_,_,_,129,ADP,Sl,case
128,818-826,izdelek,_,_,_,_,_,127,NOUN,Ncmpl,obl
129,827-833,argeta,ORG,_,*->3-5,*[3],_,129,NOUN,Ncmsg,nmod
130,834-838,isti,_,_,_,_,_,130,DET,Pi-fsg,det
131,839-842,ter,_,_,_,_,_,134,CCONJ,Cc,cc
132,843-847,tudi,_,_,_,_,_,127,PART,Q,advmod
133,848-857,predhoden,_,_,_,_,_,137,ADJ,Agpfsg,amod
134,858-860,in,_,_,_,_,_,136,CCONJ,Cc,cc
135,861-870,naslednji,_,_,_,_,_,134,ADJ,Agpfsg,conj
136,871-877,serija,_,_,_,_,_,130,NOUN,Ncfsg,nmod
137,878-879,",",_,_,_,_,_,145,PUNCT,Z,punct
138,880-883,kot,_,_,_,_,_,145,SCONJ,Cs,mark
139,884-887,on,_,_,_,_,_,145,PRON,Pp3mpa--y,obj
140,888-890,biti,_,_,_,_,_,145,AUX,Va-r3s-n,aux
141,891-892,v,_,_,_,_,_,144,ADP,Sa,case
142,893-898,svoj,_,_,_,_,_,144,DET,Px-fsa,det
143,899-906,analiza,_,_,_,_,_,145,NOUN,Ncfsa,obl
144,907-915,vključiti,_,_,_,_,_,137,VERB,Vmep-sm,acl
145,916-920,tudi,_,_,_,_,_,145,PART,Q,advmod
146,921-929,bavarski,_,_,*->7-3,*[7],_,148,ADJ,Agpmsny,amod
147,930-938,inštitut,_,_,*->7-3,*[7],_,145,NOUN,Ncmsn,nsubj
148,939-941,za,_,_,*->7-3,*[7],_,150,ADP,Sa,case
149,942-950,prehrana,_,_,*->7-3,*[7],_,148,NOUN,Ncfsa,nmod
150,951-952,.,_,_,_,_,_,145,PUNCT,Z,punct
151,953-961,inštitut,ORG[5],0,*->5-5,*[5],3 - Nevtralno[15],145,NOUN,Ncmsn,nsubj
152,962-968,Gissel,ORG[5],0,*->5-5,*[5],3 - Nevtralno[15],152,PROPN,Npmsn,nmod
153,969-971,biti,_,_,_,_,_,159,AUX,Va-r3s-n,aux
154,972-974,za,_,_,_,_,_,157,ADP,Sa,case
155,975-980,svoj,_,_,_,_,_,157,DET,Px-fpa,det
156,981-991,ugotovitev,_,_,_,_,_,159,NOUN,Ncfpa,obl
157,992-996,tudi,_,_,_,_,_,159,PART,Q,advmod
158,997-1002,izdati,_,_,_,_,_,145,VERB,Vmep-sm,conj
159,1003-1009,uraden,_,_,_,_,_,161,ADJ,Agpnsa,amod
160,1010-1018,potrdilo,_,_,_,_,_,159,NOUN,Ncnsa,obj
161,1019-1020,",",_,_,_,_,_,159,PUNCT,Z,punct
162,1021-1031,poudarjati,_,_,_,_,_,159,VERB,Vmpr3p,conj
163,1032-1033,v,_,_,_,_,_,165,ADP,Sl,case
164,1034-1039,droga,ORG[6],_,*->2-3,*[2],_,163,NOUN,Ncfsl,obl
165,1040-1048,Kolinska,ORG[6],_,*->2-3,*[2],_,165,PROPN,Npmsn,nmod
166,1049-1050,.,_,_,_,_,_,159,PUNCT,Z,punct
167,1051-1053,ob,_,_,_,_,_,169,ADP,Sl,case
168,1054-1057,ta,_,_,_,_,_,170,DET,Pd-nsl,obl
169,1058-1066,dodajati,_,_,*->2-4,*[2],_,159,VERB,Vmpr3p,conj
170,1067-1068,",",_,_,_,_,_,189,PUNCT,Z,punct
171,1069-1071,da,_,_,_,_,_,189,SCONJ,Cs,mark
172,1072-1074,biti,_,_,_,_,_,189,AUX,Va-r3s-n,aux
173,1075-1079,tudi,_,_,_,_,_,189,PART,Q,advmod
174,1080-1088,trgovski,_,0,*->8-1,*[8],3 - Nevtralno[16],176,ADJ,Agpfsn,amod
175,1089-1095,verig,_,0,*->8-1,*[8],3 - Nevtralno[16],189,NOUN,Ncfsn,nsubj
176,1096-1100,Rewe,ORG,0,*->8-1,*[8],3 - Nevtralno[16],176,PROPN,Npmsn,nmod
177,1101-1102,",",_,_,_,_,_,181,PUNCT,Z,punct
178,1103-1108,kamor,_,_,_,_,_,181,SCONJ,Cs,mark
179,1109-1115,družba,_,_,*->2-5,*[2],_,181,NOUN,Ncfsn,nsubj
180,1116-1123,prodajati,_,_,_,_,_,176,VERB,Vmpr3s,acl
181,1124-1129,svoj,_,_,*->2-6,*[2],_,183,DET,Px-mpa,det
182,1130-1137,izdelek,_,_,_,_,_,181,NOUN,Ncmpa,obj
183,1138-1139,",",_,_,_,_,_,181,PUNCT,Z,punct
184,1140-1149,neodvisen,_,_,_,_,_,189,ADV,Rgp,advmod
185,1150-1152,od,_,_,_,_,_,187,ADP,Sg,case
186,1153-1158,droga,ORG[7],_,*->2-7,*[2],_,189,NOUN,Ncfsg,obl
187,1159-1167,Kolinska,ORG[7],_,*->2-7,*[2],_,187,PROPN,Npfsg,nmod
188,1168-1175,izvesti,_,_,_,_,_,170,VERB,Vmep-sf,ccomp
189,1176-1186,testiranje,_,_,_,_,_,189,NOUN,Ncnpa,obj
190,1187-1188,",",_,_,_,_,_,194,PUNCT,Z,punct
191,1189-1191,ki,_,_,_,_,_,194,SCONJ,Cs,mark
192,1192-1194,biti,_,_,_,_,_,194,AUX,Va-r3p-n,aux
193,1195-1203,potrditi,_,_,_,_,_,190,VERB,Vmep-pn,acl
194,1204-1205,",",_,_,_,_,_,200,PUNCT,Z,punct
195,1206-1208,da,_,_,_,_,_,200,SCONJ,Cs,mark
196,1209-1216,izdelek,_,_,_,_,_,200,NOUN,Ncmpn,nsubj
197,1217-1223,argeta,ORG,_,*->3-6,*[3],_,197,NOUN,Ncmsg,nmod
198,1224-1226,ne,_,_,_,_,_,200,PART,Q,advmod
199,1227-1236,vsebovati,_,_,_,_,_,194,VERB,Vmpr3p,ccomp
200,1237-1245,svinjina,_,_,_,_,_,200,NOUN,Ncfsg,obj
201,1246-1247,.,_,_,_,_,_,200,PUNCT,Z,punct
202,1248-1250,ta,_,_,_,_,_,204,DET,Pd-nsa,det
203,1251-1261,testiranje,_,_,_,_,_,210,NOUN,Ncnsa,obj
204,1262-1264,biti,_,_,_,_,_,210,AUX,Va-r3s-n,aux
205,1265-1266,4,_,_,_,_,_,204,NUM,Mdc,nummod
206,1267-1268,.,_,_,_,_,_,200,PUNCT,Z,punct
207,1269-1276,avgust,_,_,_,_,_,210,NOUN,Ncmsg,obl
208,1277-1282,letos,_,_,_,_,_,210,ADV,Rgp,advmod
209,1283-1290,izvesti,_,_,_,_,_,5,VERB,Vmep-sf,parataxis
210,1291-1303,organizacija,_,_,*->21-1,*[21],_,210,NOUN,Ncfsn,nsubj
211,1304-1316,Lebensmittel,ORG[8],_,*->21-1,*[21],_,211,PROPN,Npmsn,nmod
212,1317-1329,Untersuchung,ORG[8],_,*->21-1,*[21],_,212,PROPN,Npmsn,flat:name
213,1330-1332,iz,_,_,*->21-1,*[21],_,215,ADP,Sg,case
214,1333-1339,Dunaj,LOC,0,*->21-1|*->9-1,*[21]|*[9],3 - Nevtralno,211,PROPN,Npmsg,nmod
215,1340-1341,",",_,_,_,_,_,223,PUNCT,Z,punct
216,1342-1344,ki,_,_,_,_,_,223,SCONJ,Cs,mark
217,1345-1347,biti,_,_,_,_,_,223,AUX,Va-r3s-n,aux
218,1348-1350,za,_,_,_,_,_,220,ADP,Sa,case
219,1351-1360,rezultat,_,_,_,_,_,223,NOUN,Ncmpa,obl
220,1361-1370,testiranje,_,_,_,_,_,220,NOUN,Ncnpg,nmod
221,1371-1375,tudi,_,_,_,_,_,223,PART,Q,advmod
222,1376-1382,izdati,_,0,*->21-2,*[21],3 - Nevtralno,211,VERB,Vmep-sf,acl
223,1383-1389,uraden,_,_,_,_,_,225,ADJ,Agpnsa,amod
224,1390-1406,potrdilospašteta,_,_,_,_,_,223,NOUN,Ncnsa,obj
225,1407-1413,Arge,ORG,_,*->3-7,*[3],_,225,PROPN,Npmsg,nmod
226,1414-1421,ključen,_,_,_,_,_,228,ADJ,Agpmsay,amod
227,1422-1429,program,_,_,_,_,_,223,NOUN,Ncmsan,obj
228,1430-1436,družba,_,_,_,_,_,228,NOUN,Ncfsg,nmod
229,1437-1438,z,_,_,_,_,_,231,ADP,Si,case
230,1439-1442,ta,_,_,_,_,_,237,DET,Pd-nsi,obl
231,1443-1445,biti,_,_,_,_,_,237,AUX,Va-r3p-n,aux
232,1446-1448,se,_,_,_,_,_,237,PRON,Px------y,expl
233,1449-1450,v,_,_,_,_,_,235,ADP,Sl,case
234,1451-1456,droga,ORG[9],_,*->2-8,*[2],_,237,NOUN,Ncfsl,obl
235,1457-1465,Kolinska,ORG[9],_,*->2-8,*[2],_,235,PROPN,Npmsn,nmod
236,1466-1473,odzvati,_,_,_,_,_,223,VERB,Vmep-pm,conj
237,1474-1476,na,_,_,_,_,_,239,ADP,Sa,case
238,1477-1484,sredina,_,_,_,_,_,237,NOUN,Ncfsa,obl
239,1485-1489,vest,_,_,_,_,_,239,NOUN,Ncfsn,nmod
240,1490-1493,biti,ORG,0,*->10-1,*[10],3 - Nevtralno,237,AUX,Va-r3d-n,aux
241,1494-1495,",",_,_,_,_,_,246,PUNCT,Z,punct
242,1496-1498,ki,_,_,_,_,_,246,SCONJ,Cs,mark
243,1499-1502,biti,_,_,_,_,_,246,AUX,Va-r1p-n,aux
244,1503-1505,on,_,_,_,_,_,246,PRON,Pp3fsa--y,obj
245,1506-1513,povzeti,_,_,_,_,_,240,VERB,Vmep-pm,acl
246,1514-1516,po,_,_,_,_,_,250,ADP,Sl,case
247,1517-1523,srbski,_,0,*->11-1,*[11],3 - Nevtralno[17],250,ADJ,Agpfsl,amod
248,1524-1532,tiskoven,_,0,*->11-1,*[11],3 - Nevtralno[17],250,ADJ,Agpfsl,amod
249,1533-1541,agencija,_,0,*->11-1,*[11],3 - Nevtralno[17],246,NOUN,Ncfsl,obl
250,1542-1548,Tanjug,ORG,0,*->11-1,*[11],3 - Nevtralno[17],250,PROPN,Npnsn,nmod
251,1549-1550,",",_,_,_,_,_,276,PUNCT,Z,punct
252,1551-1553,da,_,_,_,_,_,276,SCONJ,Cs,mark
253,1554-1556,biti,_,_,_,_,_,265,AUX,Va-r3s-n,aux
254,1557-1565,bavarski,_,0,*->7-4,*[7],3 - Nevtralno[18],256,ADJ,Agpmsny,amod
255,1566-1574,inštitut,_,0,*->7-4,*[7],3 - Nevtralno[18],265,NOUN,Ncmsn,nsubj
256,1575-1577,za,_,0,*->7-4,*[7],3 - Nevtralno[18],258,ADP,Sa,case
257,1578-1586,prehrana,_,0,*->7-4,*[7],3 - Nevtralno[18],256,NOUN,Ncfsa,nmod
258,1587-1598,Bayerisches,ORG[10],0,*->7-4,*[7],3 - Nevtralno[18],256,PROPN,Npmsn,nmod
259,1599-1608,Landesamt,ORG[10],0,*->7-4,*[7],3 - Nevtralno[18],259,PROPN,Npmsn,flat:name
260,1609-1612,für,ORG[10],0,*->7-4,*[7],3 - Nevtralno[18],262,PROPN,Npmsn,nmod
261,1613-1623,Gesundheit,ORG[10],0,*->7-4,*[7],3 - Nevtralno[18],259,PROPN,Npmsn,flat:name
262,1624-1627,und,ORG[10],0,*->7-4,*[7],3 - Nevtralno[18],264,X,Xf,nmod
263,1628-1651,lebensmittelsicherheitt,ORG[10],0,*->7-4,*[7],3 - Nevtralno[18],262,ADJ,Agpnpg,amod
264,1652-1660,ugotoviti,_,_,_,_,_,250,VERB,Vmep-sm,acl
265,1661-1662,",",_,_,_,_,_,276,PUNCT,Z,punct
266,1663-1665,da,_,_,_,_,_,276,SCONJ,Cs,mark
267,1666-1668,biti,_,_,_,_,_,276,AUX,Va-r3p-n,aux
268,1669-1670,v,_,_,_,_,_,271,ADP,Sl,case
269,1671-1680,piščančji,_,_,_,_,_,271,ADJ,Agpfsl,amod
270,1681-1688,paštet,_,_,_,_,_,276,NOUN,Ncfsl,obl
271,1689-1695,argeta,_,_,_,_,_,271,NOUN,Ncmsg,nmod
272,1696-1708,proizvajalec,_,_,_,_,_,272,NOUN,Ncmsg,nmod
273,1709-1714,Droga,ORG[11],_,*->2-9,*[2],_,273,PROPN,Npfsg,nmod
274,1715-1723,Kolinska,ORG[11],_,*->2-9,*[2],_,274,PROPN,Npfsn,flat:name
275,1724-1735,uporabljati,_,_,_,_,_,265,VERB,Vmpp-pm,ccomp
276,1736-1740,tudi,_,_,_,_,_,276,PART,Q,advmod
277,1741-1749,svinjski,_,_,_,_,_,279,ADJ,Agpnsa,amod
278,1750-1754,meso,_,_,_,_,_,276,NOUN,Ncnsa,obj
279,1755-1757,in,_,_,_,_,_,281,CCONJ,Cc,cc
280,1758-1763,kost,_,_,_,_,_,279,NOUN,Ncfpa,conj
281,1764-1765,",",_,_,_,_,_,286,PUNCT,Z,punct
282,1766-1769,kar,_,_,_,_,_,286,PRON,Pr-nsn,nsubj
283,1770-1772,biti,_,_,_,_,_,286,AUX,Va-r3s-n,aux
284,1773-1778,močno,_,_,_,_,_,286,ADV,Rgp,advmod
285,1779-1788,razburiti,_,_,_,_,_,281,VERB,Vmep-sn,acl
286,1789-1798,musliman,_,_,_,_,_,286,NOUN,Ncmpa,obj
287,1799-1800,",",_,_,_,_,_,291,PUNCT,Z,punct
288,1801-1809,predvsem,_,_,_,_,_,286,PART,Q,advmod
289,1810-1816,turški,_,_,_,_,_,291,ADJ,Agpfsa,amod
290,1817-1825,skupnost,_,_,_,_,_,287,NOUN,Ncfsa,conj
291,1826-1827,v,_,_,_,_,_,293,ADP,Sl,case
292,1828-1835,Nemčija,LOC,_,*->12-1,*[12],_,291,PROPN,Npfsl,nmod
293,1836-1837,.,_,_,_,_,_,5,PUNCT,Z,punct
294,1838-1845,Pašteta,_,_,_,_,_,291,PROPN,Npfsg,nmod
295,1846-1847,z,_,_,_,_,_,297,ADP,Si,case
296,1848-1860,certifikat,_,_,_,_,_,295,NOUN,Ncmsi,nmod
297,1861-1866,halalo,_,_,_,_,_,297,NOUN,Ncmsn,nmod
298,1867-1868,(,_,_,_,_,_,303,PUNCT,Z,punct
299,1869-1870,v,_,_,_,_,_,301,ADP,Sl,case
300,1871-1880,arabščina,_,_,_,_,_,303,NOUN,Ncfsl,obl
301,1881-1883,ta,_,_,_,_,_,303,DET,Pd-nsn,nsubj
302,1884-1890,pomeniti,_,_,_,_,_,291,VERB,Vmbr3s,acl
303,1891-1900,dovoljen,_,_,_,_,_,305,ADJ,Appnsa,amod
304,1901-1903,oz,_,_,_,_,_,303,NOUN,Ncfsa,obj
305,1904-1905,.,_,_,_,_,_,303,PUNCT,Z,punct
306,1906-1911,dobro,_,_,_,_,_,311,ADV,Rgp,advmod
307,1912-1913,),_,_,_,_,_,307,PUNCT,Z,punct
308,1914-1919,droga,ORG[12],_,*->2-10,*[2],_,311,NOUN,Ncfsn,nsubj
309,1920-1928,Kolinska,ORG[12],_,*->2-10,*[2],_,309,PROPN,Npfsn,nmod
310,1929-1938,proizvajati,_,_,_,_,_,303,VERB,Vmpr3s,conj
311,1939-1947,predvsem,_,_,_,_,_,311,PART,Q,advmod
312,1948-1949,v,_,_,_,_,_,315,ADP,Sl,case
313,1950-1955,svoj,_,_,_,_,_,315,DET,Px-fsl,det
314,1956-1963,tovarna,_,_,_,_,_,311,NOUN,Ncfsl,obl
315,1964-1970,Arge,ORG,_,*->3-8,*[3],_,315,PROPN,Npmsg,nmod
316,1971-1972,v,_,_,_,_,_,318,ADP,Sl,case
317,1973-1981,Sarajevo,LOC,0,*->13-1,*[13],3 - Nevtralno,316,PROPN,Npnsl,nmod
318,1982-1983,",",_,_,_,_,_,324,PUNCT,Z,punct
319,1984-1986,ki,_,_,_,_,_,324,SCONJ,Cs,mark
320,1987-1989,biti,_,_,_,_,_,324,AUX,Va-r3s-n,aux
321,1990-1991,z,_,_,_,_,_,323,ADP,Si,case
322,1992-1997,delo,_,_,_,_,_,324,NOUN,Ncnsi,obl
323,1998-2004,začeti,_,_,_,_,_,318,VERB,Vmep-sf,acl
324,2005-2009,pred,_,_,_,_,_,328,ADP,Si,case
325,2010-2017,slab,_,_,_,_,_,328,ADJ,Agpnpi,amod
326,2018-2025,štirje,_,_,_,_,_,328,NUM,Mlcnpi,nummod
327,2026-2030,leto,_,_,_,_,_,324,NOUN,Ncnpi,obl
328,2031-2032,.,_,_,_,_,_,311,PUNCT,Z,punct
329,2033-2040,Pašteta,_,_,_,_,_,334,PROPN,Npfsn,nsubj
330,2041-2047,Arge,ORG,_,*->3-9,*[3],_,330,PROPN,Npmsg,nmod
331,2048-2050,biti,_,_,_,_,_,334,AUX,Va-r3s-n,cop
332,2051-2058,ključen,_,_,_,_,_,334,ADJ,Agpmsny,amod
333,2059-2066,program,_,_,_,_,_,5,NOUN,Ncmsn,parataxis
334,2067-2073,družba,_,_,_,_,_,334,NOUN,Ncfsg,nmod
335,2074-2076,in,_,_,_,_,_,341,CCONJ,Cc,cc
336,2077-2079,biti,_,_,_,_,_,341,AUX,Va-r3s-n,cop
337,2080-2084,tudi,_,_,_,_,_,341,PART,Q,advmod
338,2085-2092,najbolj,_,_,_,_,_,340,ADV,Rgs,advmod
339,2093-2102,prodajan,_,_,_,_,_,341,ADJ,Appmsny,amod
340,2103-2108,namazaz,_,_,_,_,_,334,NOUN,Ncmsn,conj
341,2109-2110,v,_,_,_,_,_,343,ADP,Sl,case
342,2111-2120,Slovenija,LOC,_,*->4-2,*[4],_,341,PROPN,Npfsl,nmod
343,2121-2122,",",_,_,_,_,_,345,PUNCT,Z,punct
344,2123-2126,Bih,LOC,_,*->14-2,*[14],_,343,PROPN,Npfsl,conj
345,2127-2128,",",_,_,_,_,_,347,PUNCT,Z,punct
346,2129-2139,Makedonija,LOC,_,*->15-1,*[15],_,343,PROPN,Npfsl,conj
347,2140-2142,in,_,_,_,_,_,350,CCONJ,Cc,cc
348,2143-2145,na,_,_,_,_,_,350,ADP,Sl,case
349,2146-2152,Kosovo,LOC,_,*->16-1,*[16],_,343,PROPN,Npnsl,conj
350,2153-2154,",",_,_,_,_,_,354,PUNCT,Z,punct
351,2155-2156,v,_,_,_,_,_,353,ADP,Sl,case
352,2157-2163,Srbija,LOC,_,*->17-1,*[17],_,354,PROPN,Npfsl,obl
353,2164-2166,biti,_,_,_,_,_,341,VERB,Va-r3s-n,acl
354,2167-2169,po,_,_,_,_,_,356,ADP,Sl,case
355,2170-2177,prodaja,_,_,_,_,_,354,NOUN,Ncfsl,obl
356,2178-2180,na,_,_,_,_,_,359,ADP,Sl,case
357,2181-2187,drug,_,_,_,_,_,359,ADJ,Mlpmsl,amod
358,2188-2190,oz,_,_,_,_,_,356,NOUN,Ncmsl,nmod
359,2191-2192,.,_,_,_,_,_,354,PUNCT,Z,punct
360,2193-2200,tretji,_,_,_,_,_,362,ADJ,Mlonsl,amod
361,2201-2206,mesto,_,_,_,_,_,359,NOUN,Ncnsl,conj
362,2207-2208,",",_,_,_,_,_,365,PUNCT,Z,punct
363,2209-2210,v,_,_,_,_,_,365,ADP,Sl,case
364,2211-2216,Švica,LOC,_,*->18-1,*[18],_,359,PROPN,Npfsl,conj
365,2217-2219,in,_,_,_,_,_,367,CCONJ,Cc,cc
366,2220-2228,Avstrija,LOC,_,*->19-1,*[19],_,365,PROPN,Npfsl,conj
367,2229-2231,pa,_,_,_,_,_,370,CCONJ,Cc,cc
368,2232-2234,na,_,_,_,_,_,370,ADP,Sl,case
369,2235-2241,drug,_,_,_,_,_,365,ADJ,Mlpmsl,conj
370,2242-2243,.,_,_,_,_,_,362,PUNCT,Z,punct
371,2244-2250,največ,_,_,_,_,_,373,DET,Rgs,det
372,2251-2258,namaz,_,_,_,_,_,380,NOUN,Ncmpg,obj
373,2259-2265,znamka,_,0,*->3-10,*[3],3 - Nevtralno[19],373,NOUN,Ncfsg,nmod
374,2266-2272,Arge,LOC,0,*->3-10,*[3],3 - Nevtralno[19],374,PROPN,Npmsg,nmod
375,2273-2275,biti,_,_,_,_,_,380,AUX,Va-r3s-n,aux
376,2276-2281,droga,ORG[13],0,*->2-11,*[2],3 - Nevtralno[20],380,NOUN,Ncfsn,nsubj
377,2282-2290,Kolinska,ORG[13],0,*->2-11,*[2],3 - Nevtralno[20],377,PROPN,Npfsn,nmod
378,2291-2295,lani,_,_,_,_,_,380,ADV,Rgp,advmod
379,2296-2303,prodati,_,_,_,_,_,370,VERB,Vmep-sf,acl
380,2304-2305,v,_,_,_,_,_,382,ADP,Sl,case
381,2306-2309,Bih,LOC,0,*->14-3,*[14],3 - Nevtralno,380,PROPN,Npmsl,obl
382,2310-2311,",",_,_,_,_,_,380,PUNCT,Z,punct
383,2312-2314,in,_,_,_,_,_,387,CCONJ,Cc,cc
384,2315-2320,sicer,_,_,_,_,_,389,PART,Q,advmod
385,2321-2323,31,_,_,_,_,_,387,NUM,Mdc,nummod
386,2324-2333,odstotek,_,_,_,_,_,382,NOUN,Ncmpg,appos
387,2334-2335,",",_,_,_,_,_,387,PUNCT,Z,punct
388,2336-2343,slediti,_,_,_,_,_,380,VERB,Vmpr3p,conj
389,2344-2353,Slovenija,LOC,0,*->4-3,*[4],3 - Nevtralno,389,PROPN,Npfsn,nsubj
390,2354-2355,(,_,_,_,_,_,393,PUNCT,Z,punct
391,2356-2360,"13,6",_,_,_,_,_,393,NUM,Mdc,nummod
392,2361-2369,odstotek,_,_,_,_,_,390,NOUN,Ncmsg,appos
393,2370-2371,),_,_,_,_,_,393,PUNCT,Z,punct
394,2372-2373,",",_,_,_,_,_,396,PUNCT,Z,punct
395,2374-2380,Srbija,LOC,0,*->17-2,*[17],3 - Nevtralno,390,PROPN,Npfsn,conj
396,2381-2383,in,_,_,_,_,_,399,CCONJ,Cc,cc
397,2384-2388,črn,LOC[14],0,*->20-1,*[20],3 - Nevtralno[21],399,ADJ,Agpfsn,amod
398,2389-2393,gora,LOC[14],0,*->20-1,*[20],3 - Nevtralno[21],390,NOUN,Ncfsn,conj
399,2394-2395,(,_,_,_,_,_,402,PUNCT,Z,punct
400,2396-2400,"13,1",_,_,_,_,_,402,NUM,Mdc,nummod
401,2401-2409,odstotek,_,_,_,_,_,399,NOUN,Ncmsg,appos
402,2410-2411,),_,_,_,_,_,402,PUNCT,Z,punct
403,2412-2413,",",_,_,_,_,_,405,PUNCT,Z,punct
404,2414-2424,Makedonija,LOC,0,*->15-2,*[15],3 - Nevtralno,390,PROPN,Npfsn,conj
405,2425-2426,(,_,_,_,_,_,408,PUNCT,Z,punct
406,2427-2431,"10,1",_,_,_,_,_,408,NUM,Mdc,nummod
407,2432-2440,odstotek,_,_,_,_,_,405,NOUN,Ncmsg,appos
408,2441-2442,),_,_,_,_,_,408,PUNCT,Z,punct
409,2443-2444,",",_,_,_,_,_,411,PUNCT,Z,punct
410,2445-2453,Avstrija,LOC,0,*->19-2,*[19],3 - Nevtralno,408,PROPN,Npfsn,conj
411,2454-2456,in,_,_,_,_,_,413,CCONJ,Cc,cc
412,2457-2464,Nemčija,LOC,0,*->12-2,*[12],3 - Nevtralno,411,PROPN,Npfsn,conj
413,2465-2466,(,_,_,_,_,_,416,PUNCT,Z,punct
414,2467-2472,devet,_,_,_,_,_,416,NUM,Mlc-pa,nummod
415,2473-2482,odstotek,_,_,_,_,_,413,NOUN,Ncmpg,appos
416,2483-2484,),_,_,_,_,_,416,PUNCT,Z,punct
417,2485-2486,",",_,_,_,_,_,416,PUNCT,Z,punct
418,2487-2490,ter,_,_,_,_,_,420,CCONJ,Cc,cc
419,2491-2497,Kosovo,LOC,0,*->16-2,*[16],3 - Nevtralno,413,PROPN,Npnsn,conj
420,2498-2499,(,_,_,_,_,_,423,PUNCT,Z,punct
421,2500-2503,"6,2",_,_,_,_,_,423,NUM,Mdc,nummod
422,2504-2512,odstotek,_,_,_,_,_,420,NOUN,Ncmsg,appos
423,2513-2514,),_,_,_,_,_,423,PUNCT,Z,punct
