idx,chars_idx,token,entity_type,sentiment,idk_1,idk_2,orig_sentiment,heads,upos,xpos,deprel
0,0-9,Ljubljana,LOC,_,*->1-1,*[1],_,43,PROPN,Npfsn,parataxis
1,10-11,-,_,_,_,_,_,1,PUNCT,Z,punct
2,12-14,če,_,_,_,_,_,17,SCONJ,Cs,mark
3,15-20,biti,_,_,_,_,_,17,AUX,Va-f3d-n,aux
4,21-31,kapitalski,ORG[1],_,*->2-1,*[2],_,6,ADJ,Agpfsn,amod
5,32-38,družba,ORG[1],_,*->2-1,*[2],_,17,NOUN,Ncfsn,nsubj
6,39-40,(,_,_,_,_,_,8,PUNCT,Z,punct
7,41-44,kad,ORG,_,*->2-2,*[2],_,6,NOUN,Ncmsn,appos
8,45-46,),_,_,_,_,_,8,PUNCT,Z,punct
9,47-49,in,_,_,_,_,_,13,CCONJ,Cc,cc
10,50-59,slovenski,ORG[2],_,*->3-1,*[3],_,13,ADJ,Agpfsn,amod
11,60-72,odškodninski,ORG[2],_,*->3-1,*[3],_,13,ADJ,Agpfsn,amod
12,73-79,družba,ORG[2],_,*->3-1,*[3],_,6,NOUN,Ncfsn,conj
13,80-81,(,_,_,_,_,_,15,PUNCT,Z,punct
14,82-85,sod,ORG,_,*->3-2,*[3],_,13,NOUN,Ncmsn,appos
15,86-87,),_,_,_,_,_,15,PUNCT,Z,punct
16,88-94,ostati,_,_,_,_,_,43,VERB,Vmep-df,advcl
17,95-103,lastnica,_,_,_,_,_,17,NOUN,Ncfsd,obj
18,104-108,ves,_,_,_,_,_,21,DET,Pg-fpg,det
19,109-115,svoj,_,_,_,_,_,21,DET,Px-fpg,det
20,116-122,naložba,_,_,_,_,_,18,NOUN,Ncfpg,nmod
21,123-124,",",_,_,_,_,_,17,PUNCT,Z,punct
22,125-131,skoraj,_,_,_,_,_,24,PART,Q,advmod
23,132-138,sto,_,_,_,_,_,21,NUM,Mlc-pg,nummod
24,139-140,",",_,_,_,_,_,17,PUNCT,Z,punct
25,141-148,oziroma,_,_,_,_,_,30,CCONJ,Cc,cc
26,149-153,on,_,_,_,_,_,30,PRON,Pp3mdd--y,obj
27,154-157,on,_,_,_,_,_,35,PRON,Pp3mpa--y,obj
28,158-160,ne,_,_,_,_,_,30,PART,Q,advmod
29,161-163,biti,_,_,_,_,_,17,VERB,Va-f3s-n,conj
30,164-169,treba,_,_,_,_,_,30,ADV,Rgp,advmod
31,170-171,v,_,_,_,_,_,34,ADP,Sl,case
32,172-177,nekaj,_,_,_,_,_,34,DET,Rgp,det
33,178-183,leto,_,_,_,_,_,35,NOUN,Ncnpl,obl
34,184-191,prodati,_,_,_,_,_,30,VERB,Vmen,csubj
35,192-193,",",_,_,_,_,_,17,PUNCT,Z,punct
36,194-196,pa,_,_,_,_,_,43,CCONJ,Cc,advmod
37,197-199,biti,_,_,_,_,_,43,AUX,Va-f3s-n,aux
38,200-206,nadzor,_,_,_,_,_,43,NOUN,Ncmsnn,nsubj
39,207-210,nad,_,_,_,_,_,42,ADP,Si,case
40,211-218,tisti,_,_,_,_,_,42,DET,Pd-mpi,det
41,219-235,pomemben,_,_,_,_,_,43,ADJ,Agsmpi,obl
42,236-244,prevzeti,_,_,_,_,_,0,VERB,Vmep-sf,root
43,245-249,nov,_,_,_,_,_,45,ADJ,Agpfsn,amod
44,250-258,agencija,_,_,_,_,_,43,NOUN,Ncfsn,nsubj
45,259-260,",",_,_,_,_,_,49,PUNCT,Z,punct
46,261-263,ki,_,_,_,_,_,49,SCONJ,Cs,mark
47,264-266,biti,_,_,_,_,_,49,AUX,Va-f3s-n,aux
48,267-277,upravljati,_,_,_,_,_,45,VERB,Vmpp-sf,acl
49,278-285,državen,_,_,_,_,_,51,ADJ,Agpfpa,amod
50,286-293,naložba,_,_,_,_,_,49,NOUN,Ncfpa,obj
51,294-295,.,_,_,_,_,_,49,PUNCT,Z,punct
52,296-298,po,_,_,_,_,_,54,ADP,Sl,case
53,299-302,ta,_,_,_,_,_,78,DET,Pd-nsl,obl
54,303-304,",",_,_,_,_,_,70,PUNCT,Z,punct
55,305-307,ko,_,_,_,_,_,70,SCONJ,Cs,mark
56,308-310,biti,_,_,_,_,_,70,AUX,Va-r3s-n,aux
57,311-322,ministrstvo,_,_,_,_,_,70,NOUN,Ncnsn,nsubj
58,323-325,za,_,_,_,_,_,60,ADP,Sa,case
59,326-333,finance,_,_,_,_,_,58,NOUN,Ncfpa,nmod
60,334-337,pod,_,_,_,_,_,62,ADP,Si,case
61,338-346,vodstvo,_,_,_,_,_,58,NOUN,Ncnsi,nmod
62,347-353,Franc,PER[3],0,*->4-1,*[4],3 - Nevtralno[27],62,PROPN,Npmsg,nmod
63,354-363,Križanič,PER[3],0,*->4-1,*[4],3 - Nevtralno[27],63,PROPN,Npmsg,flat:name
64,364-366,iz,_,_,_,_,_,66,ADP,Sg,case
65,367-373,zakon,_,_,_,_,_,70,NOUN,Ncmsg,obl
66,374-375,o,_,_,_,_,_,69,ADP,Sl,case
67,376-382,njun,_,_,_,_,_,69,DET,Ps3nslp,det
68,383-397,preoblikovanje,_,_,_,_,_,66,NOUN,Ncnsl,nmod
69,398-404,črtati,_,_,_,_,_,54,VERB,Vmep-sn,acl
70,405-411,seznam,_,_,_,_,_,70,NOUN,Ncmsan,obj
71,412-422,strateški,_,_,_,_,_,73,ADJ,Agpfpg,amod
72,423-429,naložba,_,_,_,_,_,71,NOUN,Ncfpg,nmod
73,430-431,",",_,_,_,_,_,70,PUNCT,Z,punct
74,432-434,še,_,_,_,_,_,78,PART,Q,advmod
75,435-437,biti,_,_,_,_,_,78,AUX,Va-r3s-y,cop
76,438-444,povsem,_,_,_,_,_,78,ADV,Rgp,advmod
77,445-450,jasen,_,_,_,_,_,43,ADJ,Agpnsn,conj
78,451-452,",",_,_,_,_,_,84,PUNCT,Z,punct
79,453-459,kateri,_,_,_,_,_,81,DET,Pq-fpn,det
80,460-467,naložba,_,_,_,_,_,84,NOUN,Ncfpn,nsubj
81,468-470,se,_,_,_,_,_,84,PRON,Px------y,expl
82,471-475,biti,_,_,_,_,_,84,AUX,Va-f3p-n,aux
83,476-486,pridružiti,_,_,_,_,_,78,VERB,Vmep-pf,csubj
84,487-490,NLB,ORG,_,*->5-1,*[5],_,84,PROPN,Npfsn,nsubj
85,491-492,",",_,_,_,_,_,87,PUNCT,Z,punct
86,493-497,Luki,ORG[4],_,*->6-1,*[6],_,85,PROPN,Npfsd,conj
87,498-503,Koper,ORG[4]|LOC[5],_,*->6-1|*->7-1,*[6]|*[7],_,87,PROPN,Npmsn,nmod
88,504-506,in,_,_,_,_,_,90,CCONJ,Cc,cc
89,507-520,zavarovalnica,ORG[6],_,*->8-1,*[8],_,87,NOUN,Ncfsd,conj
90,521-528,Triglav,ORG[6]|LOC[7],_,*->8-1|*->9-1,*[8]|*[9],_,90,PROPN,Npmsn,nmod
91,529-530,",",_,_,_,_,_,84,PUNCT,Z,punct
92,531-532,a,_,_,_,_,_,95,CCONJ,Cc,cc
93,533-535,biti,_,_,_,_,_,95,AUX,Va-r3s-n,cop
94,536-542,mogoč,_,_,_,_,_,84,ADJ,Agpnsn,conj
95,543-545,iz,_,_,_,_,_,97,ADP,Sg,case
96,546-554,pojasnilo,_,_,_,_,_,95,NOUN,Ncnpg,obl
97,555-562,državen,_,_,*->10-1,*[10],_,99,ADJ,Agpfsg,amod
98,563-573,sekretarka,_,_,*->10-1,*[10],_,97,NOUN,Ncfsg,nmod
99,574-576,na,_,_,*->10-1,*[10],_,101,ADP,Sl,case
100,577-588,ministrstvo,_,_,*->10-1,*[10],_,99,NOUN,Ncnsl,nmod
101,589-595,Helena,PER[8],_,*->10-1,*[10],_,101,PROPN,Npfsg,nmod
102,596-602,Kamnar,PER[8],_,*->10-1,*[10],_,102,PROPN,Npfsg,flat:name
103,603-611,sklepati,_,_,_,_,_,95,VERB,Vmpn,csubj
104,612-613,",",_,_,_,_,_,111,PUNCT,Z,punct
105,614-616,da,_,_,_,_,_,111,SCONJ,Cs,mark
106,617-619,se,_,_,_,_,_,111,PRON,Px------y,expl
107,620-625,lahko,_,_,_,_,_,111,ADV,Rgp,advmod
108,626-633,njihov,_,_,_,_,_,110,DET,Ps3nsnp,det
109,634-641,število,_,_,_,_,_,111,NOUN,Ncnsn,nsubj
110,642-649,povzpeti,_,_,_,_,_,104,VERB,Vmer3s,ccomp
111,650-654,tudi,_,_,_,_,_,111,PART,Q,advmod
112,655-657,na,_,_,_,_,_,114,ADP,Sa,case
113,658-663,deset,_,_,_,_,_,111,NUM,Mlc-pa,obl
114,664-665,.,_,_,_,_,_,111,PUNCT,Z,punct
115,666-669,kad,ORG,_,*->2-3,*[2],_,111,NOUN,Ncmsan,obj
116,670-672,in,_,_,_,_,_,118,CCONJ,Cc,cc
117,673-676,sod,ORG,_,*->3-3,*[3],_,116,NOUN,Ncmsan,conj
118,677-679,po,_,_,_,_,_,120,ADP,Sl,case
119,680-691,uveljavitev,_,_,_,_,_,127,NOUN,Ncfsl,obl
120,692-698,zakon,_,_,_,_,_,120,NOUN,Ncmsg,nmod
121,699-705,namreč,_,_,_,_,_,125,CCONJ,Cc,advmod
122,706-708,ne,_,_,_,_,_,125,PART,Q,advmod
123,709-714,biti,_,_,_,_,_,125,AUX,Va-f3d-n,aux
124,715-720,smeti,_,_,_,_,_,111,VERB,Vmpp-dm,conj
125,721-724,več,_,_,_,_,_,125,PART,Q,advmod
126,725-736,razpolagati,_,_,_,_,_,125,VERB,Vmpn,xcomp
127,737-738,z,_,_,_,_,_,131,ADP,Si,case
128,739-745,noben,_,_,_,_,_,131,DET,Pi-fsi,det
129,746-756,kapitalski,_,_,_,_,_,131,ADJ,Agpfsi,amod
130,757-764,naložba,_,_,_,_,_,127,NOUN,Ncfsi,obl
131,765-766,",",_,_,_,_,_,134,PUNCT,Z,punct
132,767-769,ki,_,_,_,_,_,134,SCONJ,Cs,mark
133,770-775,veljati,_,_,_,_,_,131,VERB,Vmpr3s,acl
134,776-778,za,_,_,_,_,_,136,ADP,Sa,case
135,779-788,strateški,_,_,_,_,_,141,ADJ,Agpnsa,amod
136,789-796,oziroma,_,_,_,_,_,141,CCONJ,Cc,cc
137,797-802,njen,_,_,_,_,_,136,DET,Ps3fsnsf,conj
138,803-809,skupen,_,_,_,_,_,141,ADJ,Agpfsn,amod
139,810-822,knjigovodski,_,_,_,_,_,141,ADJ,Agpfsn,amod
140,823-831,vrednost,_,_,_,_,_,142,NOUN,Ncfsn,nsubj
141,832-839,presegati,_,_,_,_,_,134,VERB,Vmpr3s,xcomp
142,840-842,40,_,_,_,_,_,144,NUM,Mdc,nummod
143,843-852,milijon,_,_,_,_,_,142,NOUN,Ncmpg,obj
144,853-858,evro,_,_,_,_,_,144,NOUN,Ncmpg,nmod
145,859-860,",",_,_,_,_,_,134,PUNCT,Z,punct
146,861-863,biti,_,_,_,_,_,43,VERB,Va-r3s-n,parataxis
147,864-870,včeraj,_,_,_,_,_,147,ADV,Rgp,advmod
148,871-873,po,_,_,_,_,_,150,ADP,Sl,case
149,874-877,ta,_,_,_,_,_,147,DET,Pd-nsl,obl
150,878-879,",",_,_,_,_,_,155,PUNCT,Z,punct
151,880-882,ko,_,_,_,_,_,155,SCONJ,Cs,mark
152,883-885,on,_,_,_,_,_,155,PRON,Pp3msa--y,obj
153,886-888,biti,_,_,_,_,_,155,AUX,Va-r3s-n,aux
154,889-897,sprejeti,_,_,_,_,_,150,VERB,Vmep-sf,acl
155,898-903,vlada,_,_,_,_,_,155,NOUN,Ncfsn,nsubj
156,904-905,",",_,_,_,_,_,155,PUNCT,Z,punct
157,906-914,povedati,_,_,_,_,_,147,VERB,Vmep-sf,advcl
158,915-925,Kamnarjev,PER,_,*->10-2,*[10],_,158,ADJ,Aspfsn,nsubj
159,926-927,.,_,_,_,_,_,158,PUNCT,Z,punct
160,928-937,strateški,_,_,_,_,_,162,ADJ,Agpfpn,amod
161,938-945,naložba,_,_,_,_,_,164,NOUN,Ncfpn,nsubj
162,946-948,biti,_,_,_,_,_,164,AUX,Va-r3p-n,cop
163,949-960,opredeljen,_,_,_,_,_,43,ADJ,Appfpn,parataxis
164,961-964,kot,_,_,_,_,_,166,SCONJ,Cs,case
165,965-970,tisti,_,_,_,_,_,164,DET,Pd-fpn,obl
166,971-972,",",_,_,_,_,_,169,PUNCT,Z,punct
167,973-977,kjer,_,_,_,_,_,169,SCONJ,Cs,mark
168,978-983,imeti,_,_,_,_,_,166,VERB,Vmpr3d-n,acl
169,984-990,družba,_,_,_,_,_,169,NOUN,Ncfsn,nsubj
170,991-1002,pristojnost,_,_,_,_,_,170,NOUN,Ncfsn,nmod
171,1003-1013,imenovanje,_,_,_,_,_,171,NOUN,Ncnsg,nmod
172,1014-1025,nadzornik,_,_,_,_,_,172,NOUN,Ncmpg,nmod
173,1026-1028,in,_,_,_,_,_,175,CCONJ,Cc,cc
174,1029-1040,sodelovanje,_,_,_,_,_,173,NOUN,Ncnsg,conj
175,1041-1044,pri,_,_,_,_,_,177,ADP,Sl,case
176,1045-1055,imenovanje,_,_,_,_,_,175,NOUN,Ncnsl,nmod
177,1056-1061,uprava,_,_,_,_,_,177,NOUN,Ncfpg,nmod
178,1062-1063,.,_,_,_,_,_,43,PUNCT,Z,punct
179,1064-1065,"""",_,_,_,_,_,184,PUNCT,Z,punct
180,1066-1074,običajno,_,_,_,_,_,197,ADV,Rgp,advmod
181,1075-1077,biti,_,_,_,_,_,197,AUX,Va-r3p-n,cop
182,1078-1080,ta,_,_,_,_,_,184,DET,Pd-nsn,det
183,1081-1087,delež,_,_,_,_,_,197,NOUN,Ncmpn,nsubj
184,1088-1091,nad,_,_,_,_,_,187,ADP,Si,case
185,1092-1094,25,_,_,_,_,_,187,NUM,Mdc,nummod
186,1095-1104,odstotek,_,_,_,_,_,184,NOUN,Ncmpg,nmod
187,1105-1106,",",_,_,_,_,_,193,PUNCT,Z,punct
188,1107-1109,da,_,_,_,_,_,193,SCONJ,Cs,mark
189,1110-1112,pa,_,_,_,_,_,193,CCONJ,Cc,advmod
190,1113-1115,biti,_,_,_,_,_,193,AUX,Va-c,aux
191,1116-1118,se,_,_,_,_,_,193,PRON,Px------y,expl
192,1119-1127,izogniti,_,_,_,_,_,184,VERB,Vmep-pm,acl
193,1128-1139,izigravanje,_,_,_,_,_,193,NOUN,Ncnsd,obj
194,1140-1141,",",_,_,_,_,_,193,PUNCT,Z,punct
195,1142-1144,biti,_,_,_,_,_,204,AUX,Va-r3s-n,aux
196,1145-1154,predviden,_,_,_,_,_,43,ADJ,Appmsnn,parataxis
197,1155-1159,tudi,_,_,_,_,_,197,PART,Q,advmod
198,1160-1169,nominalen,_,_,_,_,_,200,ADJ,Agpmsny,amod
199,1170-1174,prag,_,_,_,_,_,193,NOUN,Ncmsn,nsubj
200,1175-1176,",",_,_,_,_,_,193,PUNCT,Z,punct
201,1177-1178,"""",_,_,_,_,_,204,PUNCT,Z,punct
202,1179-1181,biti,_,0,*->10-3,*[10],3 - Nevtralno[28],204,AUX,Va-r3s-n,aux
203,1182-1191,pojasniti,_,0,*->10-3,*[10],3 - Nevtralno[28],43,VERB,Vmep-sf,parataxis
204,1192-1193,.,_,_,_,_,_,193,PUNCT,Z,punct
205,1194-1200,vseeno,_,_,_,_,_,210,ADV,Rgp,advmod
206,1201-1203,pa,_,_,_,_,_,210,CCONJ,Cc,advmod
207,1204-1206,biti,_,_,_,_,_,210,AUX,Va-f3s-n,cop
208,1207-1209,ta,_,_,_,_,_,210,DET,Pd-nsn,nsubj
209,1210-1218,določen,_,_,_,_,_,43,ADJ,Appnsn,parataxis
210,1219-1223,šele,_,_,_,_,_,210,PART,Q,advmod
211,1224-1225,z,_,_,_,_,_,213,ADP,Si,case
212,1226-1235,dokument,_,_,_,_,_,210,NOUN,Ncmpi,obl
213,1236-1237,",",_,_,_,_,_,216,PUNCT,Z,punct
214,1238-1240,ki,_,_,_,_,_,216,SCONJ,Cs,mark
215,1241-1248,urejati,_,_,_,_,_,213,VERB,Vmpr3p,acl
216,1249-1260,upravljanje,_,_,_,_,_,216,NOUN,Ncnsa,obj
217,1261-1272,kapitalski,_,_,_,_,_,219,ADJ,Agpfpg,amod
218,1273-1279,naložba,_,_,_,_,_,217,NOUN,Ncfpg,nmod
219,1280-1281,",",_,_,_,_,_,216,PUNCT,Z,punct
220,1282-1289,oziroma,_,_,_,_,_,225,CCONJ,Cc,cc
221,1290-1292,biti,_,_,_,_,_,225,AUX,Va-f3s-n,aux
222,1293-1295,ta,_,_,_,_,_,224,DET,Pd-msa,det
223,1296-1302,seznam,_,_,_,_,_,225,NOUN,Ncmsan,obj
224,1303-1313,pripraviti,_,_,_,_,_,216,VERB,Vmep-sf,conj
225,1314-1322,agencija,_,_,_,_,_,225,NOUN,Ncfsn,nsubj
226,1323-1324,.,_,_,_,_,_,216,PUNCT,Z,punct
227,1325-1331,čeprav,_,_,_,_,_,236,SCONJ,Cs,mark
228,1332-1334,biti,_,_,_,_,_,236,AUX,Va-r3s-n,cop
229,1335-1336,v,_,_,_,_,_,231,ADP,Sl,case
230,1337-1343,zakon,_,_,_,_,_,236,NOUN,Ncmsl,obl
231,1344-1345,o,_,_,_,_,_,233,ADP,Sl,case
232,1346-1360,preoblikovanje,_,_,_,_,_,231,NOUN,Ncnsl,nmod
233,1361-1368,sklad,_,_,_,_,_,233,NOUN,Ncmpg,nmod
234,1369-1371,še,_,_,_,_,_,236,PART,Q,advmod
235,1372-1379,nejasen,_,_,_,_,_,225,ADJ,Agpnsn,advcl
236,1380-1381,",",_,_,_,_,_,239,PUNCT,Z,punct
237,1382-1386,kako,_,_,_,_,_,239,ADV,Rgp,advmod
238,1387-1397,izračunati,_,_,_,_,_,236,VERB,Vmen,csubj
239,1398-1410,knjigovodski,_,_,_,_,_,241,ADJ,Agpfsa,amod
240,1411-1419,vrednost,_,_,_,_,_,239,NOUN,Ncfsa,obj
241,1420-1421,",",_,_,_,_,_,236,PUNCT,Z,punct
242,1422-1424,pa,_,_,_,_,_,246,CCONJ,Cc,cc
243,1425-1429,biti,_,_,_,_,_,246,AUX,Va-f3p-n,aux
244,1430-1433,med,_,_,_,_,_,246,ADP,Si,case
245,1434-1443,naložba,_,_,_,_,_,239,NOUN,Ncfpi,obl
246,1444-1445,",",_,_,_,_,_,251,PUNCT,Z,punct
247,1446-1447,z,_,_,_,_,_,249,ADP,Si,case
248,1448-1456,kateri,_,_,_,_,_,251,DET,Pq-mpi,obl
249,1457-1459,biti,_,_,_,_,_,251,AUX,Va-f3s-n,aux
250,1460-1470,upravljati,_,_,_,_,_,246,VERB,Vmpp-sf,acl
251,1471-1479,agencija,_,_,_,_,_,251,NOUN,Ncfsn,nsubj
252,1480-1481,",",_,_,_,_,_,251,PUNCT,Z,punct
253,1482-1488,skoraj,_,_,_,_,_,255,PART,Q,advmod
254,1489-1497,zagotovo,_,_,_,_,_,256,ADV,Rgp,advmod
255,1498-1505,delnica,_,_,_,_,_,252,NOUN,Ncfpn,conj
256,1506-1510,Krka,ORG,0,*->11-1,*[11],3 - Nevtralno,256,PROPN,Npfsg,nmod
257,1511-1512,",",_,_,_,_,_,259,PUNCT,Z,punct
258,1513-1521,Telekom,ORG[9],_,*->12-1,*[12],_,257,PROPN,Npmsg,conj
259,1522-1531,Slovenija,ORG[9]|LOC[10],_,*->12-1|*->13-1,*[12]|*[13],_,259,PROPN,Npfsg,nmod
260,1532-1533,",",_,_,_,_,_,262,PUNCT,Z,punct
261,1534-1537,NLB,ORG,0,*->5-2,*[5],3 - Nevtralno,257,PROPN,Npfsg,conj
262,1538-1539,",",_,_,_,_,_,264,PUNCT,Z,punct
263,1540-1547,Petrol,ORG,0,*->14-1,*[14],3 - Nevtralno,257,PROPN,Npmsg,conj
264,1548-1549,",",_,_,_,_,_,266,PUNCT,Z,punct
265,1550-1557,gorenje,ORG,0,*->15-1,*[15],3 - Nevtralno,257,PROPN,Npnsg,conj
266,1558-1559,",",_,_,_,_,_,268,PUNCT,Z,punct
267,1560-1564,NKBM,ORG,0,*->16-1,*[16],3 - Nevtralno,257,PROPN,Npfsg,conj
268,1565-1566,",",_,_,_,_,_,270,PUNCT,Z,punct
269,1567-1580,zavarovalnica,ORG[11],0,*->8-2,*[8],3 - Nevtralno[29],257,NOUN,Ncfsg,conj
270,1581-1588,Triglav,ORG[11]|LOC[12],0,*->8-2|*->9-2,*[8]|*[9],3 - Nevtralno[29]|3 - Nevtralno[30],270,PROPN,Npmsn,nmod
271,1589-1591,in,_,_,_,_,_,273,CCONJ,Cc,cc
272,1592-1596,Luka,ORG[13],0,*->6-2,*[6],3 - Nevtralno[31],271,PROPN,Npfsg,conj
273,1597-1602,Koper,ORG[13]|LOC[14],0,*->6-2|*->7-2,*[6]|*[7],3 - Nevtralno[31]|3 - Nevtralno[32],273,PROPN,Npmsn,nmod
274,1603-1604,.,_,_,_,_,_,251,PUNCT,Z,punct
275,1605-1607,da,_,_,_,_,_,280,SCONJ,Cs,mark
276,1608-1610,biti,_,_,_,_,_,280,AUX,Va-c,aux
277,1611-1613,za,_,_,_,_,_,279,ADP,Sa,case
278,1614-1623,strateški,_,_,_,_,_,280,ADJ,Agpmpa,obl
279,1624-1632,označiti,_,_,_,_,_,274,VERB,Vmep-pm,acl
280,1633-1636,ves,_,_,_,_,_,282,DET,Pg-fpa,det
281,1637-1644,naložba,_,_,_,_,_,280,NOUN,Ncfpa,obj
282,1645-1646,",",_,_,_,_,_,288,PUNCT,Z,punct
283,1647-1651,kjer,_,_,_,_,_,288,SCONJ,Cs,mark
284,1652-1655,kad,ORG,0,*->2-4,*[2],3 - Nevtralno,288,NOUN,Ncmsn,nsubj
285,1656-1658,in,_,_,_,_,_,287,CCONJ,Cc,cc
286,1659-1662,sod,ORG,0,*->3-4,*[3],3 - Nevtralno,285,NOUN,Ncmsan,conj
287,1663-1672,presegati,_,_,_,_,_,282,VERB,Vmpr3d,acl
288,1673-1675,25,_,_,_,_,_,290,NUM,Mdc,nummod
289,1676-1685,odstotek,_,_,_,_,_,288,NOUN,Ncmpg,obj
290,1686-1687,",",_,_,_,_,_,288,PUNCT,Z,punct
291,1688-1690,biti,_,_,_,_,_,295,AUX,Va-r3s-n,cop
292,1691-1695,bolj,_,_,_,_,_,294,ADV,Rgc,advmod
293,1696-1700,malo,_,_,_,_,_,295,DET,Rgp,advmod
294,1701-1709,verjeten,_,_,_,_,_,43,ADJ,Agpnsn,parataxis
295,1710-1711,",",_,_,_,_,_,295,PUNCT,Z,punct
296,1712-1715,saj,_,_,_,_,_,301,CCONJ,Cc,cc
297,1716-1718,biti,_,_,_,_,_,301,AUX,Va-c,aux
298,1719-1729,potemtakem,_,_,_,_,_,301,ADV,Rgp,advmod
299,1730-1738,agencija,_,_,_,_,_,301,NOUN,Ncfsn,nsubj
300,1739-1747,prevzeti,_,_,_,_,_,295,VERB,Vmep-sf,conj
301,1748-1749,v,_,_,_,_,_,303,ADP,Sa,case
302,1750-1761,upravljanje,_,_,_,_,_,301,NOUN,Ncnsa,obl
303,1762-1766,Savo,ORG,0,*->17-1,*[17],3 - Nevtralno,303,PROPN,Npfsa,nmod
304,1767-1768,",",_,_,_,_,_,306,PUNCT,Z,punct
305,1769-1784,pozavarovalnica,ORG[15],0,*->18-1,*[18],3 - Nevtralno[33],303,NOUN,Ncfsa,conj
306,1785-1789,Savo,ORG[15],0,*->18-1,*[18],3 - Nevtralno[33],306,PROPN,Npfsn,nmod
307,1790-1791,",",_,_,_,_,_,309,PUNCT,Z,punct
308,1792-1800,Cinkarno,ORG[16],0,*->19-1,*[19],3 - Nevtralno[34],307,PROPN,Npfsn,conj
309,1801-1806,Celje,ORG[16]|LOC[17],0,*->19-1|*->20-1,*[19]|*[20],3 - Nevtralno[34]|3 - Nevtralno[35],307,PROPN,Npnsn,conj
310,1807-1808,",",_,_,_,_,_,312,PUNCT,Z,punct
311,1809-1821,Slovenijales,ORG,0,*->21-1,*[21],3 - Nevtralno,307,PROPN,Npmsn,conj
312,1822-1823,",",_,_,_,_,_,314,PUNCT,Z,punct
313,1824-1828,Žita,ORG,0,*->22-1,*[22],3 - Nevtralno,310,PROPN,Npfsa,conj
314,1829-1830,",",_,_,_,_,_,316,PUNCT,Z,punct
315,1831-1834,PDP,ORG,0,*->23-1,*[23],3 - Nevtralno,310,PROPN,Npmsan,conj
316,1835-1838,ter,_,_,_,_,_,321,CCONJ,Cc,cc
317,1839-1843,vsaj,_,_,_,_,_,321,PART,Q,advmod
318,1844-1846,še,_,_,_,_,_,323,PART,Q,advmod
319,1847-1857,igralniški,_,_,_,_,_,321,ADJ,Agpfpa,amod
320,1858-1864,družba,_,_,_,_,_,303,NOUN,Ncfpa,conj
321,1865-1866,(,_,_,_,_,_,323,PUNCT,Z,punct
322,1867-1870,hit,ORG,0,*->24-1,*[24],3 - Nevtralno,321,NOUN,Ncmsn,appos
323,1871-1872,",",_,_,_,_,_,325,PUNCT,Z,punct
324,1873-1881,loterija,ORG[18],0,*->25-1,*[25],3 - Nevtralno[36],323,NOUN,Ncfsn,conj
325,1882-1891,Slovenija,ORG[18]|LOC[19],0,*->25-1|*->13-2,*[25]|*[13],3 - Nevtralno[36],325,PROPN,Npfsg,nmod
326,1892-1893,",",_,_,_,_,_,329,PUNCT,Z,punct
327,1894-1900,Casino,ORG[20],0,*->26-1,*[26],3 - Nevtralno[37],329,PROPN,Npmsn,nmod
328,1901-1905,Bled,ORG[20]|LOC[21],0,*->26-1|*->27-1,*[26]|*[27],3 - Nevtralno[37]|3 - Nevtralno[38],323,PROPN,Npmsn,conj
329,1906-1907,",",_,_,_,_,_,332,PUNCT,Z,punct
330,1908-1914,Casino,ORG[22],0,*->28-1,*[28],3 - Nevtralno[39],332,PROPN,Npmsn,nmod
331,1915-1924,Ljubljana,ORG[22]|LOC[23],0,*->28-1|*->1-2,*[28]|*[1],3 - Nevtralno[39]|3 - Nevtralno[40],329,PROPN,Npfsn,conj
332,1925-1926,",",_,_,_,_,_,335,PUNCT,Z,punct
333,1927-1933,Casino,ORG[24],0,*->30-1,*[30],3 - Nevtralno[41],335,PROPN,Npmsn,nmod
334,1934-1942,Portorož,ORG[24]|LOC[25],0,*->30-1|*->31-1,*[30]|*[31],3 - Nevtralno[41]|3 - Nevtralno[42],332,PROPN,Npmsn,nmod
335,1943-1944,),_,_,_,_,_,335,PUNCT,Z,punct
336,1945-1946,.,_,_,_,_,_,329,PUNCT,Z,punct
337,1947-1954,premier,_,0,*->29-1,*[29],3 - Nevtralno[43],343,NOUN,Ncmsn,nsubj
338,1955-1960,Borut,PER[26],0,*->29-1,*[29],3 - Nevtralno[43],338,PROPN,Npmsn,nmod
339,1961-1966,Pahor,PER[26],0,*->29-1,*[29],3 - Nevtralno[43],339,PROPN,Npmsn,flat:name
340,1967-1969,biti,_,_,_,_,_,343,AUX,Va-r3s-n,aux
341,1970-1976,včeraj,_,_,_,_,_,343,ADV,Rgp,advmod
342,1977-1984,ponoviti,_,_,_,_,_,43,VERB,Vmep-sm,parataxis
343,1985-1990,svoj,_,_,_,_,_,345,DET,Px-nsa,det
344,1991-1999,stališče,_,_,_,_,_,343,NOUN,Ncnsa,obj
345,2000-2001,",",_,_,_,_,_,348,PUNCT,Z,punct
346,2002-2004,da,_,_,_,_,_,348,SCONJ,Cs,mark
347,2005-2009,morati,_,_,_,_,_,345,VERB,Vmpr3s,acl
348,2010-2015,vlada,_,_,_,_,_,348,NOUN,Ncfsn,nsubj
349,2016-2020,zelo,_,_,_,_,_,351,ADV,Rgp,advmod
350,2021-2032,premišljeno,_,_,_,_,_,348,ADJ,Appnsn,xcomp
351,2033-2041,odločiti,_,_,_,_,_,348,VERB,Vmen,xcomp
352,2042-2043,",",_,_,_,_,_,360,PUNCT,Z,punct
353,2044-2050,kateri,_,_,_,_,_,356,DET,Pq-fsn,det
354,2051-2059,finančen,_,_,_,_,_,356,ADJ,Agpfsn,amod
355,2060-2071,institucija,_,_,_,_,_,360,NOUN,Ncfsn,nsubj
356,2072-2079,oziroma,_,_,_,_,_,359,CCONJ,Cc,cc
357,2080-2091,gospodarski,_,_,_,_,_,359,ADJ,Agpfsn,amod
358,2092-2098,družba,_,_,_,_,_,356,NOUN,Ncfsn,conj
359,2099-2103,morati,_,_,_,_,_,352,VERB,Vmpr3s,ccomp
360,2104-2110,ostati,_,_,_,_,_,360,VERB,Vmen,xcomp
361,2111-2112,v,_,_,_,_,_,363,ADP,Sl,case
362,2113-2118,last,_,_,_,_,_,361,NOUN,Ncfsl,obl
363,2119-2125,država,_,0,*->13-3,*[13],3 - Nevtralno,363,NOUN,Ncfsg,nmod
364,2126-2127,.,_,_,_,_,_,43,PUNCT,Z,punct
365,2128-2139,Tomazdmodic,_,_,_,_,_,364,PROPN,Npmsn,nmod
366,2140-2141,@,_,_,_,_,_,43,PUNCT,Z,punct
