idx,chars_idx,token,entity_type,sentiment,idk_1,idk_2,orig_sentiment,heads,upos,xpos,deprel
0,0-9,Ljubljana,LOC,0,*->1-1,*[1],3 - Nevtralno,3,PROPN,Npfsn,parataxis
1,10-11,-,_,_,_,_,_,1,PUNCT,Z,punct
2,12-19,obstajati,_,_,_,_,_,0,VERB,Vmpr3s,root
3,20-29,utemeljen,_,_,_,_,_,5,ADJ,Appmsnn,amod
4,30-33,sum,_,_,_,_,_,3,NOUN,Ncmsn,nsubj
5,34-35,",",_,_,_,_,_,29,PUNCT,Z,punct
6,36-38,da,_,_,_,_,_,29,SCONJ,Cs,mark
7,39-41,biti,_,_,_,_,_,29,AUX,Va-r3s-n,aux
8,42-47,bivši,_,_,_,_,_,10,ADJ,Agpnsn,amod
9,48-55,vodstvo,_,_,_,_,_,29,NOUN,Ncnsn,nsubj
10,56-63,Gradis,ORG[1],_,*->2-1,*[2],_,10,PROPN,Npmsg,nmod
11,64-69,Celje,ORG[1]|LOC[2],_,*->2-1|*->3-1,*[2]|*[3],_,11,PROPN,Npnsn,flat:name
12,70-71,",",_,_,_,_,_,18,PUNCT,Z,punct
13,72-74,ki,_,_,_,_,_,18,SCONJ,Cs,mark
14,75-77,biti,_,_,_,_,_,18,AUX,Va-r3s-n,aux
15,78-86,prejšnji,_,_,_,_,_,17,ADJ,Agpmsay,amod
16,87-92,mesec,_,_,_,_,_,18,NOUN,Ncmsan,obl
17,93-99,končati,_,_,*->2-2,*[2],_,10,VERB,Vmep-sm,acl
18,100-101,v,_,_,_,_,_,21,ADP,Sl,case
19,102-111,stečajen,_,_,_,_,_,21,ADJ,Agpmsl,amod
20,112-120,postopek,_,_,_,_,_,18,NOUN,Ncmsl,obl
21,121-122,",",_,_,_,_,_,18,PUNCT,Z,punct
22,123-126,pri,_,_,_,_,_,24,ADP,Sl,case
23,127-133,nakup,_,_,_,_,_,29,NOUN,Ncmsl,obl
24,134-143,ogromen,_,_,_,_,_,26,ADJ,Agpnsg,amod
25,144-153,zemljišče,_,_,_,_,_,24,NOUN,Ncnsg,nmod
26,154-156,na,_,_,_,_,_,28,ADP,Sl,case
27,157-167,Gorenjsko,LOC,_,*->4-1,*[4],_,26,PROPN,Npnsl,nmod
28,168-178,oškodovati,_,_,_,_,_,5,VERB,Vmep-sn,acl
29,179-185,družba,_,_,*->2-3,*[2],_,29,NOUN,Ncfsa,obj
30,186-188,za,_,_,_,_,_,33,ADP,Sa,case
31,189-198,precejšen,_,_,_,_,_,33,ADJ,Agpmsan,amod
32,199-205,znesek,_,_,_,_,_,30,NOUN,Ncmsan,nmod
33,206-207,.,_,_,_,_,_,29,PUNCT,Z,punct
34,208-209,v,_,_,_,_,_,36,ADP,Sa,case
35,210-217,kupčija,_,_,_,_,_,46,NOUN,Ncfsa,obl
36,218-220,biti,_,_,_,_,_,46,AUX,Va-r3s-n,aux
37,221-232,predsednica,_,_,*->22-1,*[22],_,46,NOUN,Ncfsg,obj
38,233-239,uprava,_,_,*->22-1,*[22],_,38,NOUN,Ncfsg,nmod
39,240-247,Gradis,ORG[3],_,*->22-1|*->2-4,*[22]|*[2],_,39,PROPN,Npmsg,nmod
40,248-253,Celje,ORG[3]|LOC[4],_,*->22-1|*->2-4|*->3-2,*[22]|*[2]|*[3],_,40,PROPN,Npnsn,flat:name
41,254-260,Lidija,PER[5],_,*->22-1,*[22],_,46,PROPN,Npfsn,nsubj
42,261-266,Žagar,PER[5],_,*->22-1,*[22],_,42,PROPN,Npfsn,flat:name
43,267-270,kot,_,_,_,_,_,45,SCONJ,Cs,case
44,271-281,posrednik,_,_,_,_,_,46,NOUN,Ncmsay,obl
45,282-291,vključiti,_,_,_,_,_,29,VERB,Vmep-sf,advcl
46,292-296,tudi,_,_,_,_,_,46,PART,Q,advmod
47,297-307,Christian,PER[6],_,*->5-1,*[5],_,46,PROPN,Npmsay,obj
48,308-314,Kovač,PER[6],_,*->5-1,*[5],_,48,PROPN,Npmsay,flat:name
49,315-316,",",_,_,_,_,_,54,PUNCT,Z,punct
50,317-322,posel,_,_,_,_,_,54,NOUN,Ncmsan,obj
51,323-325,pa,_,_,_,_,_,54,CCONJ,Cc,advmod
52,326-328,biti,_,_,_,_,_,54,AUX,Va-r3s-n,aux
53,329-339,financirati,_,_,_,_,_,46,VERB,Vmbp-sm,conj
54,340-343,KBM,ORG[7],_,*->6-1,*[6],_,54,PROPN,Npfsn,nsubj
55,344-351,Leasing,ORG[7],_,*->6-1,*[6],_,55,PROPN,Npmsn,nmod
56,352-355,pod,_,_,_,_,_,58,ADP,Si,case
57,356-364,vodstvo,_,_,_,_,_,54,NOUN,Ncnsi,obl
58,365-371,Boris,PER[8],0,*->7-1,*[7],3 - Nevtralno[44],58,PROPN,Npmsg,nmod
59,372-378,Cekov,PER[8],0,*->7-1,*[7],3 - Nevtralno[44],59,PROPN,Npmsg,flat:name
60,379-380,.,_,_,_,_,_,54,PUNCT,Z,punct
61,381-390,žagarjev,PER,_,*->22-2,*[22],_,67,ADJ,Aspfsn,root
62,391-394,naj,_,_,_,_,_,67,PART,Q,advmod
63,395-397,biti,_,_,_,_,_,67,AUX,Va-c,aux
64,398-402,pred,_,_,_,_,_,66,ADP,Si,case
65,403-408,čas,_,_,_,_,_,67,NOUN,Ncmsi,obl
66,409-417,izvedeti,_,_,_,_,_,54,VERB,Vmep-sf,conj
67,418-419,",",_,_,_,_,_,77,PUNCT,Z,punct
68,420-422,da,_,_,_,_,_,77,SCONJ,Cs,mark
69,423-425,biti,_,_,_,_,_,77,AUX,Va-r3s-n,aux
70,426-434,naprodaj,_,_,_,_,_,77,NOUN,Ncfsn,nsubj
71,435-440,okoli,_,_,_,_,_,73,ADV,Rgp,advmod
72,441-447,30.000,_,_,_,_,_,75,NUM,Mdc,nummod
73,448-458,kvadraten,_,_,_,_,_,75,ADJ,Agpmpg,amod
74,459-465,meter,_,_,_,_,_,77,NOUN,Ncmpg,obl
75,466-472,velik,_,_,_,_,_,77,ADJ,Agpnsn,amod
76,473-482,zemljišče,_,_,_,_,_,67,NOUN,Ncnsn,ccomp
77,483-484,v,_,_,_,_,_,80,ADP,Sl,case
78,485-495,katastrski,_,_,_,_,_,80,ADJ,Agpfsl,amod
79,496-502,občina,_,_,_,_,_,77,NOUN,Ncfsl,nmod
80,503-508,Hraše,LOC[9],0,*->8-1,*[8],3 - Nevtralno[45],80,PROPN,Npfsn,nmod
81,509-511,na,LOC[9],0,*->8-1,*[8],3 - Nevtralno[45],83,ADP,Sl,case
82,512-522,Gorenjsko,LOC[9]|LOC[10],0,*->8-1|*->4-2,*[8]|*[4],3 - Nevtralno[45],81,PROPN,Npnsl,nmod
83,523-524,.,_,_,_,_,_,77,PUNCT,Z,punct
84,525-527,po,_,_,_,_,_,86,ADP,Sl,case
85,528-536,naročilo,_,_,_,_,_,83,NOUN,Ncnsl,nmod
86,537-546,žagarjev,PER,_,*->22-3,*[22],_,86,ADJ,Aspfsg,amod
87,547-548,",",_,_,_,_,_,98,PUNCT,Z,punct
88,549-551,ki,_,_,_,_,_,98,SCONJ,Cs,mark
89,552-554,biti,_,_,_,_,_,98,AUX,Va-r3s-n,aux
90,555-558,pri,_,_,_,_,_,92,ADP,Sl,case
91,559-562,KBM,ORG[11],_,*->6-2,*[6],_,98,PROPN,Npfsl,obl
92,563-571,Leasing,ORG[11],_,*->6-2,*[6],_,92,PROPN,Npmsl,flat:name
93,572-577,konec,_,_,_,_,_,95,ADP,Sg,case
94,578-582,leto,_,_,_,_,_,98,NOUN,Ncnsg,obl
95,583-587,2007,_,_,_,_,_,95,NUM,Mdc,nummod
96,588-592,tudi,_,_,_,_,_,98,PART,Q,advmod
97,593-602,poskrbeti,_,_,_,_,_,86,VERB,Vmep-sf,acl
98,603-605,za,_,_,_,_,_,100,ADP,Sa,case
99,606-618,financiranje,_,_,_,_,_,98,NOUN,Ncnsa,obl
100,619-625,nakup,_,_,_,_,_,100,NOUN,Ncmsg,nmod
101,626-635,zemljišče,_,_,_,_,_,101,NOUN,Ncnsg,nmod
102,636-637,",",_,_,_,_,_,98,PUNCT,Z,punct
103,638-640,biti,_,_,_,_,_,111,AUX,Va-r3s-n,aux
104,641-646,Kovač,PER,_,*->5-2,*[5],_,111,PROPN,Npmsn,nsubj
105,647-649,od,_,_,_,_,_,107,ADP,Sg,case
106,650-656,Franc,PER[12],_,*->9-1,*[9],_,105,PROPN,Npmsg,nmod
107,657-662,Pelka,PER[12],_,*->9-1,*[9],_,107,PROPN,Npmsg,flat:name
108,663-664,z,_,_,_,_,_,110,ADP,Sg,case
109,665-670,Bleda,LOC,0,*->10-1,*[10],3 - Nevtralno,111,PROPN,Npmsg,obl
110,671-678,odkupiti,_,_,_,_,_,98,VERB,Vmep-sm,conj
111,679-688,zemljišče,_,_,_,_,_,111,NOUN,Ncnsa,obj
112,689-691,za,_,_,_,_,_,116,ADP,Sa,case
113,692-697,okoli,_,_,_,_,_,115,ADV,Rgp,advmod
114,698-703,štirje,_,_,_,_,_,116,NUM,Mlcmpa,nummod
115,704-712,milijon,_,_,_,_,_,112,NOUN,Ncmpa,nmod
116,713-718,evro,_,_,_,_,_,116,NOUN,Ncmpg,nmod
117,719-720,.,_,_,_,_,_,111,PUNCT,Z,punct
118,721-723,ta,_,_,_,_,_,122,DET,Pd-nsa,obj
119,724-727,jaz,_,_,_,_,_,122,PRON,Pp1-pd,obj
120,728-730,biti,_,_,_,_,_,122,AUX,Va-r3s-n,aux
121,731-738,potrditi,_,_,_,_,_,3,VERB,Vmep-sm,parataxis
122,739-745,njegov,_,0,*->9-2,*[9],3 - Nevtralno,124,DET,Ps3msnsm,det
123,746-749,sin,_,0,*->11-1,*[11],3 - Nevtralno[46],122,NOUN,Ncmsn,nsubj
124,750-754,Miha,PER[13],0,*->11-1,*[11],3 - Nevtralno[46],124,PROPN,Npmsn,nmod
125,755-760,Pelko,PER[13],0,*->11-1,*[11],3 - Nevtralno[46],125,PROPN,Npmsn,flat:name
126,761-762,",",_,_,_,_,_,131,PUNCT,Z,punct
127,763-765,ki,_,_,_,_,_,131,SCONJ,Cs,mark
128,766-768,biti,_,_,_,_,_,131,AUX,Va-r3s-n,aux
129,769-771,še,_,_,_,_,_,131,PART,Q,advmod
130,772-777,dejati,_,_,_,_,_,124,VERB,Vmep-sm,acl
131,778-779,:,_,_,_,_,_,137,PUNCT,Z,punct
132,780-781,"""",_,_,_,_,_,137,PUNCT,Z,punct
133,782-784,na,_,_,_,_,_,135,ADP,Sl,case
134,785-794,zemljišče,_,_,_,_,_,137,NOUN,Ncnsl,obl
135,795-797,biti,_,_,_,_,_,137,AUX,Va-r3s-n,aux
136,798-803,stati,_,_,_,_,_,3,VERB,Vmpp-sn,parataxis
137,804-808,tudi,_,_,_,_,_,137,PART,Q,advmod
138,809-818,skladišče,_,_,_,_,_,137,NOUN,Ncnsa,obj
139,819-820,",",_,_,_,_,_,147,PUNCT,Z,punct
140,821-824,pri,_,_,_,_,_,142,ADP,Sl,case
141,825-830,kar,_,_,_,_,_,147,PRON,Pr-nsl,obl
142,831-834,biti,_,_,_,_,_,147,AUX,Va-r1p-n,aux
143,835-837,se,_,_,_,_,_,147,PRON,Px------y,expl
144,838-839,z,_,_,_,_,_,146,ADP,Si,case
145,840-847,Kovač,PER,_,*->5-3,*[5],_,147,PROPN,Npmsi,obl
146,848-858,dogovoriti,_,_,_,_,_,139,VERB,Vmep-pm,acl
147,859-860,",",_,_,_,_,_,152,PUNCT,Z,punct
148,861-863,da,_,_,_,_,_,152,SCONJ,Cs,mark
149,864-866,on,_,_,_,_,_,152,PRON,Pp3msa--y,obj
150,867-871,biti,_,_,_,_,_,152,AUX,Va-f1p-n,aux
151,872-882,izprazniti,_,_,_,_,_,147,VERB,Vmep-pm,ccomp
152,883-884,v,_,_,_,_,_,154,ADP,Sl,case
153,885-889,leto,_,_,_,_,_,152,NOUN,Ncnsl,obl
154,890-893,dan,_,_,_,_,_,154,NOUN,Ncmpg,nmod
155,894-895,.,_,_,_,_,_,160,PUNCT,Z,punct
156,896-898,še,_,_,_,_,_,160,PART,Q,mark
157,899-905,preden,_,_,_,_,_,157,SCONJ,Cs,fixed
158,906-908,biti,_,_,_,_,_,160,AUX,Va-r3s-n,aux
159,909-917,preteči,_,_,_,_,_,152,VERB,Vmep-sn,advcl
160,918-926,enoleten,_,_,_,_,_,162,ADJ,Agpnsa,amod
161,927-934,obdobje,_,_,_,_,_,160,NOUN,Ncnsa,nsubj
162,935-936,",",_,_,_,_,_,160,PUNCT,Z,punct
163,937-939,biti,_,_,_,_,_,166,AUX,Va-r3p-n,aux
164,940-943,jaz,_,_,_,_,_,166,PRON,Pp1-pa,obj
165,944-953,poklicati,_,_,_,_,_,3,VERB,Vmep-pm,parataxis
166,954-956,iz,_,_,_,_,_,168,ADP,Sg,case
167,957-964,Gradis,ORG[14],_,*->2-5,*[2],_,166,PROPN,Npmsg,obl
168,965-970,Celje,ORG[14]|LOC[15],_,*->2-5|*->3-3,*[2]|*[3],_,168,PROPN,Npnsn,flat:name
169,971-973,in,_,_,_,_,_,171,CCONJ,Cc,cc
170,974-982,vprašati,_,_,*->2-6,*[2],_,166,VERB,Vmep-pm,conj
171,983-984,",",_,_,_,_,_,174,PUNCT,Z,punct
172,985-989,kdaj,_,_,_,_,_,174,ADV,Rgp,mark
173,990-1000,nameravati,_,_,_,_,_,171,VERB,Vmpr1p,ccomp
174,1001-1011,izprazniti,_,_,_,_,_,174,VERB,Vmen,xcomp
175,1012-1021,skladišče,_,_,_,_,_,175,NOUN,Ncnsa,obj
176,1022-1023,.,_,_,_,_,_,166,PUNCT,Z,punct
177,1024-1025,"""",_,_,_,_,_,185,PUNCT,Z,punct
178,1026-1027,v,_,_,_,_,_,181,ADP,Sl,case
179,1028-1037,naslednji,_,_,_,_,_,181,ADJ,Agpfsl,amod
180,1038-1042,faza,_,_,_,_,_,185,NOUN,Ncfsl,obl
181,1043-1045,biti,_,_,_,_,_,185,AUX,Va-r3s-n,aux
182,1046-1051,Kovač,PER,_,*->5-4,*[5],_,185,PROPN,Npmsn,nsubj
183,1052-1061,zemljišče,_,_,_,_,_,185,NOUN,Ncnsa,obj
184,1062-1068,prodati,_,_,_,_,_,3,VERB,Vmep-sm,parataxis
185,1069-1076,Gradis,ORG[16],_,*->2-7,*[2],_,185,PROPN,Npmsd,obj
186,1077-1082,Celje,ORG[16]|LOC[17],_,*->2-7|*->3-4,*[2]|*[3],_,186,PROPN,Npnsn,nmod
187,1083-1085,za,_,_,_,_,_,191,ADP,Sa,case
188,1086-1092,dober,_,_,_,_,_,191,ADJ,Agpmpg,amod
189,1093-1097,šest,_,_,_,_,_,191,NUM,Mlc-pa,nummod
190,1098-1107,milijon,_,_,_,_,_,185,NOUN,Ncmpg,obl
191,1108-1113,evro,_,_,_,_,_,191,NOUN,Ncmpg,nmod
192,1114-1115,",",_,_,_,_,_,200,PUNCT,Z,punct
193,1116-1117,z,_,_,_,_,_,195,ADP,Si,case
194,1118-1123,kar,_,_,_,_,_,200,PRON,Pr-nsi,obl
195,1124-1126,biti,_,_,_,_,_,200,AUX,Va-r3s-n,aux
196,1127-1130,kot,_,_,_,_,_,198,SCONJ,Cs,case
197,1131-1140,posrednik,_,_,_,_,_,200,NOUN,Ncmsn,obl
198,1141-1150,žagarjev,PER,_,*->22-4,*[22],_,198,ADJ,Aspfsg,amod
199,1151-1159,zaslužiti,_,_,_,_,_,191,VERB,Vmep-sm,acl
200,1160-1163,dva,_,_,_,_,_,202,NUM,Mlcmda,nummod
201,1164-1172,milijon,_,_,_,_,_,200,NOUN,Ncmda,obj
202,1173-1178,evro,_,_,_,_,_,202,NOUN,Ncmpg,nmod
203,1179-1180,.,_,_,_,_,_,210,PUNCT,Z,punct
204,1181-1187,čeprav,_,_,_,_,_,210,SCONJ,Cs,mark
205,1188-1190,biti,_,_,_,_,_,210,AUX,Va-r3s-n,aux
206,1191-1200,zemljišče,_,_,_,_,_,210,NOUN,Ncnsn,nsubj
207,1201-1203,po,_,_,_,_,_,209,ADP,Sl,case
208,1204-1211,pogodba,_,_,_,_,_,210,NOUN,Ncfsl,obl
209,1212-1218,preiti,_,_,_,_,_,200,VERB,Vmep-sn,advcl
210,1219-1221,na,_,_,_,_,_,212,ADP,Sa,case
211,1222-1228,Gradis,ORG[18],_,*->2-8,*[2],_,210,PROPN,Npmsan,obl
212,1229-1234,Celje,ORG[18]|LOC[19],_,*->2-8|*->3-5,*[2]|*[3],_,212,PROPN,Npnsa,nmod
213,1235-1236,",",_,_,_,_,_,210,PUNCT,Z,punct
214,1237-1239,biti,_,_,_,_,_,219,AUX,Va-r3s-n,cop
215,1240-1242,iz,_,_,_,_,_,218,ADP,Sg,case
216,1243-1252,zemljiški,_,_,_,_,_,218,ADJ,Agpfsg,amod
217,1253-1259,knjiga,_,_,_,_,_,219,NOUN,Ncfsg,obl
218,1260-1268,razviden,_,_,_,_,_,185,ADJ,Agpnsn,advcl
219,1269-1270,",",_,_,_,_,_,226,PUNCT,Z,punct
220,1271-1273,da,_,_,_,_,_,226,SCONJ,Cs,mark
221,1274-1276,biti,_,_,_,_,_,226,AUX,Va-r3s-n,cop
222,1277-1282,Kovač,PER,_,*->5-5,*[5],_,226,PROPN,Npmsn,nsubj
223,1283-1285,še,_,_,_,_,_,226,PART,Q,advmod
224,1286-1291,vedno,_,_,_,_,_,226,ADV,Rgp,advmod
225,1292-1303,zastavitelj,_,_,_,_,_,219,NOUN,Ncmsn,csubj
226,1304-1316,nepremičnina,_,_,_,_,_,226,NOUN,Ncfsg,nmod
227,1317-1320,pri,_,_,_,_,_,229,ADP,Sl,case
228,1321-1324,KBM,ORG[20],_,*->6-3,*[6],_,227,PROPN,Npfsl,nmod
229,1325-1333,Leasing,ORG[20],_,*->6-3,*[6],_,229,PROPN,Npmsl,nmod
230,1334-1335,.,_,_,_,_,_,226,PUNCT,Z,punct
231,1336-1344,stečajen,_,_,*->12-1,*[12],_,233,ADJ,Agpmsny,amod
232,1345-1355,upravitelj,_,_,*->12-1,*[12],_,238,NOUN,Ncmsn,nsubj
233,1356-1363,Gradis,ORG[21],_,*->12-1|*->2-9,*[12]|*[2],_,233,PROPN,Npmsg,nmod
234,1364-1369,Celje,ORG[21]|LOC[22],_,*->12-1|*->2-9|*->3-6,*[12]|*[2]|*[3],_,234,PROPN,Npnsn,nmod
235,1370-1375,Janez,PER[23],_,*->12-1,*[12],_,233,PROPN,Npmsn,nmod
236,1376-1381,Golob,PER[23],_,*->12-1,*[12],_,236,PROPN,Npmsn,flat:name
237,1382-1387,praviti,_,_,_,_,_,226,VERB,Vmbr3s,conj
238,1388-1389,",",_,_,_,_,_,244,PUNCT,Z,punct
239,1390-1392,da,_,_,_,_,_,244,SCONJ,Cs,mark
240,1393-1395,biti,_,_,_,_,_,244,AUX,Va-r3s-n,cop
241,1396-1397,z,_,_,_,_,_,243,ADP,Si,case
242,1398-1405,kupčija,_,_,_,_,_,244,NOUN,Ncfsi,obl
243,1406-1415,seznanjen,_,_,_,_,_,238,ADJ,Appmsnn,ccomp
244,1416-1417,",",_,_,_,_,_,244,PUNCT,Z,punct
245,1418-1424,drug,_,_,_,_,_,247,ADJ,Mlpmpg,amod
246,1425-1436,komentar,_,_,_,_,_,251,NOUN,Ncmpg,obj
247,1437-1439,pa,_,_,_,_,_,250,CCONJ,Cc,advmod
248,1440-1442,biti,_,_,_,_,_,250,AUX,Va-r3s-y,aux
249,1443-1448,želeti,_,_,*->12-2,*[12],_,244,VERB,Vmpp-sm,conj
250,1449-1455,dajati,_,_,_,_,_,250,VERB,Vmpn,xcomp
251,1456-1457,",",_,_,_,_,_,256,PUNCT,Z,punct
252,1458-1461,ker,_,_,_,_,_,256,SCONJ,Cs,mark
253,1462-1464,še,_,_,_,_,_,256,PART,Q,advmod
254,1465-1467,biti,_,_,_,_,_,256,AUX,Va-r3s-y,aux
255,1468-1476,raziskati,_,0,*->12-3,*[12],3 - Nevtralno,251,VERB,Vmep-sm,advcl
256,1477-1481,ves,_,_,_,_,_,258,DET,Pg-fpg,det
257,1482-1493,podrobnost,_,_,_,_,_,256,NOUN,Ncfpg,obj
258,1494-1495,.,_,_,_,_,_,256,PUNCT,Z,punct
259,1496-1498,po,_,_,_,_,_,261,ADP,Sl,case
260,1499-1510,zagotovilo,_,_,_,_,_,269,NOUN,Ncnpl,obl
261,1511-1520,žagarjev,PER,_,*->22-5,*[22],_,261,ADJ,Aspfsg,amod
262,1521-1523,biti,_,_,_,_,_,269,AUX,Va-r3s-n,aux
263,1524-1530,Gradis,ORG[24],_,*->2-10,*[2],_,269,PROPN,Npmsn,nsubj
264,1531-1536,Celje,ORG[24]|LOC[25],_,*->2-10|*->3-7,*[2]|*[3],_,264,PROPN,Npnsn,nmod
265,1537-1546,zemljišče,_,_,_,_,_,269,NOUN,Ncnsn,nsubj
266,1547-1548,v,_,_,_,_,_,268,ADP,Sl,case
267,1549-1555,Hraša,LOC,0,*->8-2,*[8],3 - Nevtralno,266,PROPN,Npfpl,nmod
268,1556-1561,kupiti,_,_,_,_,_,256,VERB,Vmep-sm,conj
269,1562-1571,popolnoma,_,_,_,_,_,271,ADV,Rgp,advmod
270,1572-1585,transparentno,_,_,_,_,_,269,ADV,Rgp,advmod
271,1586-1587,.,_,_,_,_,_,269,PUNCT,Z,punct
272,1588-1589,"""",_,_,_,_,_,279,PUNCT,Z,punct
273,1590-1595,zakaj,_,_,_,_,_,279,ADV,Rgp,advmod
274,1596-1598,biti,_,_,_,_,_,279,AUX,Va-c,aux
275,1599-1602,biti,_,_,_,_,_,279,AUX,Va-p-sm,cop
276,1603-1608,Kovač,PER,_,*->5-6,*[5],_,279,PROPN,Npmsn,nsubj
277,1609-1617,slamnat,_,_,_,_,_,279,ADJ,Agpfsn,amod
278,1618-1623,oseba,_,_,_,_,_,269,NOUN,Ncfsn,advcl
279,1624-1625,v,_,_,_,_,_,281,ADP,Sl,case
280,1626-1631,posel,_,_,_,_,_,279,NOUN,Ncmsl,nmod
281,1632-1633,",",_,_,_,_,_,279,PUNCT,Z,punct
282,1634-1636,ne,_,_,_,_,_,284,PART,Q,advmod
283,1637-1640,vedeti,_,_,*->22-6,*[22],_,279,VERB,Vmpr1s,conj
284,1641-1642,.,_,_,_,_,_,279,PUNCT,Z,punct
285,1643-1651,verjetno,_,_,_,_,_,292,ADV,Rgp,advmod
286,1652-1654,se,_,_,_,_,_,292,PRON,Px------y,expl
287,1655-1657,biti,_,_,_,_,_,292,AUX,Va-r3s-n,aux
288,1658-1659,z,_,_,_,_,_,290,ADP,Si,case
289,1660-1667,prodaja,_,_,_,_,_,292,NOUN,Ncfsi,obl
290,1668-1676,zemljišče,_,_,_,_,_,290,NOUN,Ncnpg,nmod
291,1677-1685,ukvarjati,_,_,_,_,_,3,VERB,Vmpp-sm,parataxis
292,1686-1688,še,_,_,_,_,_,292,PART,Q,advmod
293,1689-1692,kje,_,_,_,_,_,296,ADV,Rgp,advmod
294,1693-1694,v,_,_,_,_,_,296,ADP,Sl,case
295,1695-1704,Slovenija,LOC,0,*->13-1,*[13],3 - Nevtralno,292,PROPN,Npfsl,obl
296,1705-1706,.,_,_,_,_,_,292,PUNCT,Z,punct
297,1707-1708,v,_,_,_,_,_,299,ADP,Sl,case
298,1709-1713,čas,_,_,_,_,_,304,NOUN,Ncmsl,obl
299,1714-1722,razcvet,_,_,_,_,_,299,NOUN,Ncmsg,nmod
300,1723-1739,nepremičninski,_,_,_,_,_,302,ADJ,Agpmsg,amod
301,1740-1744,trg,_,_,_,_,_,300,NOUN,Ncmsg,nmod
302,1745-1747,biti,_,_,_,_,_,304,AUX,Va-r3s-n,aux
303,1748-1752,biti,_,_,_,_,_,292,VERB,Va-p-sn,parataxis
304,1753-1761,podoben,_,_,_,_,_,306,ADJ,Agpfpg,amod
305,1762-1773,priložnost,_,_,_,_,_,307,NOUN,Ncfpg,nmod
306,1774-1780,veliko,_,_,_,_,_,304,DET,Rgp,advmod
307,1781-1782,",",_,_,_,_,_,304,PUNCT,Z,punct
308,1783-1784,"""",_,_,_,_,_,310,PUNCT,Z,punct
309,1785-1792,razlagati,_,_,_,_,_,304,VERB,Vmpr3s,advcl
310,1793-1802,žagarjev,PER,_,*->22-7,*[22],_,310,ADJ,Aspfsn,nsubj
311,1803-1804,.,_,_,_,_,_,304,PUNCT,Z,punct
312,1805-1809,toda,_,_,_,_,_,317,CCONJ,Cc,cc
313,1810-1813,pri,_,_,_,_,_,315,ADP,Sl,case
314,1814-1817,ta,_,_,_,_,_,318,DET,Pd-nsl,obl
315,1818-1820,ne,_,_,_,_,_,317,PART,Q,advmod
316,1821-1824,iti,_,_,_,_,_,304,VERB,Vmbr3s,conj
317,1825-1836,spregledati,_,_,_,_,_,317,VERB,Vmen,csubj
318,1837-1847,pomemben,_,_,_,_,_,320,ADJ,Agpnsg,amod
319,1848-1855,dejstvo,_,_,_,_,_,318,NOUN,Ncnsg,obj
320,1856-1857,.,_,_,_,_,_,317,PUNCT,Z,punct
321,1858-1864,skupaj,_,_,_,_,_,324,ADV,Rgp,advmod
322,1865-1866,z,_,_,_,_,_,324,ADP,Si,case
323,1867-1872,Darja,PER[26],_,*->14-1,*[14],_,318,PROPN,Npfsi,obl
324,1873-1880,Slimšek,PER[26],_,*->14-1,*[14],_,324,PROPN,Npfsi,flat:name
325,1881-1883,biti,_,_,_,_,_,327,AUX,Va-r3s-n,aux
326,1884-1889,Kovač,PER,_,*->5-7,*[5],_,324,PROPN,Npmsn,flat:name
327,1890-1897,lastnik,_,_,*->5-8,*[5],_,327,NOUN,Ncmsn,flat:name
328,1898-1906,podjetje,_,0,*->5-8|*->20-1,*[5]|*[20],3 - Nevtralno[47],328,NOUN,Ncnsg,nmod
329,1907-1912,Omega,PER[27],0,*->5-8|*->20-1,*[5]|*[20],3 - Nevtralno[47],327,PROPN,Npmsn,nmod
330,1913-1919,Kovach,PER[27],0,*->5-8|*->20-1,*[5]|*[20],3 - Nevtralno[47],330,PROPN,Npmsn,flat:name
331,1920-1921,",",_,_,_,_,_,356,PUNCT,Z,punct
332,1922-1928,hkrati,_,_,_,_,_,356,ADV,Rgp,advmod
333,1929-1931,pa,_,_,_,_,_,341,CCONJ,Cc,advmod
334,1932-1934,biti,_,_,_,_,_,356,AUX,Va-r3s-n,aux
335,1935-1938,biti,_,_,_,_,_,341,AUX,Va-p-sm,cop
336,1939-1944,Kovač,PER,_,*->5-9,*[5],_,341,PROPN,Npmsn,nsubj
337,1945-1946,z,_,_,_,_,_,339,ADP,Si,case
338,1947-1956,Slimškov,PER,_,*->14-2,*[14],_,337,ADJ,Aspfsi,amod
339,1957-1961,tudi,_,_,_,_,_,341,PART,Q,advmod
340,1962-1971,solastnik,_,_,*->5-10,*[5],_,304,NOUN,Ncmsn,nsubj
341,1972-1980,podjetje,_,0,*->5-10|*->21-1,*[5]|*[21],3 - Nevtralno[48],341,NOUN,Ncnsg,nmod
342,1981-1986,delta,ORG[28],0,*->5-10|*->21-1,*[5]|*[21],3 - Nevtralno[48],342,PROPN,Npfsn,nmod
343,1987-1993,Kovach,ORG[28],0,*->5-10|*->21-1,*[5]|*[21],3 - Nevtralno[48],343,PROPN,Npmsn,nmod
344,1994-1995,",",_,_,_,_,_,356,PUNCT,Z,punct
345,1996-1999,pri,_,_,_,_,_,347,ADP,Sl,case
346,2000-2005,kar,_,_,_,_,_,356,PRON,Pr-nsl,obl
347,2006-2008,biti,_,_,_,_,_,356,AUX,Va-r3s-n,aux
348,2009-2013,pred,_,_,_,_,_,350,ADP,Si,case
349,2014-2019,čas,_,_,_,_,_,356,NOUN,Ncmsi,obl
350,2020-2022,iz,_,_,_,_,_,353,ADP,Sg,case
351,2023-2032,lastniški,_,_,_,_,_,353,ADJ,Agpfsg,amod
352,2033-2042,struktura,_,_,_,_,_,350,NOUN,Ncfsg,nmod
353,2043-2047,ta,_,_,_,_,_,355,DET,Pd-nsg,det
354,2048-2056,podjetje,_,_,_,_,_,353,NOUN,Ncnsg,nmod
355,2057-2065,izstopiti,_,_,_,_,_,341,VERB,Vmep-sm,acl
356,2066-2067,.,_,_,_,_,_,356,PUNCT,Z,punct
357,2068-2077,Slimškov,PER,_,*->14-3,*[14],_,362,ADJ,Aspfsn,nsubj
358,2078-2080,pa,_,_,_,_,_,362,CCONJ,Cc,advmod
359,2081-2083,biti,_,_,_,_,_,362,AUX,Va-r3s-n,aux
360,2084-2089,dober,_,_,_,_,_,362,ADJ,Agpfsn,amod
361,2090-2096,znanka,_,_,_,_,_,356,NOUN,Ncfsn,nsubj
362,2097-2106,žagarjev,PER,_,*->22-8,*[22],_,362,ADJ,Aspfsg,amod
363,2107-2108,",",_,_,_,_,_,362,PUNCT,Z,punct
364,2109-2112,saj,_,_,_,_,_,370,CCONJ,Cc,cc
365,2113-2115,biti,_,_,_,_,_,370,AUX,Va-r3s-n,aux
366,2116-2121,konec,_,_,_,_,_,368,ADP,Sg,case
367,2122-2126,leto,_,_,_,_,_,370,NOUN,Ncnsg,obl
368,2127-2131,2008,_,_,_,_,_,368,NUM,Mdc,nummod
369,2132-2142,sodelovati,_,_,*->14-4,*[14],_,362,VERB,Vmpp-sf,conj
370,2143-2146,pri,_,_,_,_,_,373,ADP,Sl,case
371,2147-2163,netransparenten,_,_,_,_,_,373,ADJ,Agpmsl,amod
372,2164-2172,prevzem,_,_,_,_,_,370,NOUN,Ncmsl,obl
373,2173-2180,Gradis,ORG[29],_,*->2-11,*[2],_,373,PROPN,Npmsg,nmod
374,2181-2186,Celje,ORG[29]|LOC[30],_,*->2-11|*->3-8,*[2]|*[3],_,374,PROPN,Npnsn,flat:name
375,2187-2188,.,_,_,_,_,_,370,PUNCT,Z,punct
376,2189-2194,preko,_,_,_,_,_,379,ADP,Sg,case
377,2195-2202,svoj,_,_,_,_,_,379,DET,Px-nsg,det
378,2203-2211,podjetje,_,_,*->15-1,*[15],_,370,NOUN,Ncnsg,obl
379,2212-2216,Blom,ORG,_,*->15-1,*[15],_,379,PROPN,Npmsn,nmod
380,2217-2219,biti,_,_,_,_,_,390,AUX,Va-r3s-n,aux
381,2220-2226,namreč,_,_,_,_,_,390,CCONJ,Cc,advmod
382,2227-2236,Slimškov,PER,_,*->14-5,*[14],_,384,ADJ,Aspmsg,amod
383,2237-2245,december,_,_,_,_,_,397,NOUN,Ncmsg,obl
384,2246-2250,2008,_,_,_,_,_,384,NUM,Mdc,nummod
385,2251-2252,(,_,_,_,_,_,390,PUNCT,Z,punct
386,2253-2257,Blom,ORG,_,*->15-2,*[15],_,384,PROPN,Npmsn,appos
387,2258-2260,biti,_,_,_,_,_,390,AUX,Va-r3s-n,aux
388,2261-2264,biti,_,_,_,_,_,390,AUX,Va-p-sm,cop
389,2265-2276,ustanovljen,_,_,_,_,_,370,ADJ,Appmsnn,advcl
390,2277-2280,dva,_,_,_,_,_,392,NUM,Mlcmdn,nummod
391,2281-2286,teden,_,_,_,_,_,390,NOUN,Ncmda,obl
392,2287-2291,pred,_,_,_,_,_,394,ADP,Si,case
393,2292-2299,nakup,_,_,_,_,_,392,NOUN,Ncmsi,nmod
394,2300-2306,delnica,_,_,_,_,_,394,NOUN,Ncfpg,nmod
395,2307-2308,),_,_,_,_,_,390,PUNCT,Z,punct
396,2309-2315,kupiti,_,_,_,_,_,390,VERB,Vmep-sf,csubj
397,2316-2322,enajst,_,_,_,_,_,399,NUM,Mlc-pa,nummod
398,2323-2332,odstotek,_,_,_,_,_,397,NOUN,Ncmpg,obj
399,2333-2339,delnica,_,_,_,_,_,399,NOUN,Ncfpg,nmod
400,2340-2347,Gradis,ORG[31],_,*->2-12,*[2],_,400,PROPN,Npmsg,nmod
401,2348-2353,Celje,ORG[31]|LOC[32],_,*->2-12|*->3-9,*[2]|*[3],_,401,PROPN,Npnsn,flat:name
402,2354-2355,.,_,_,_,_,_,397,PUNCT,Z,punct
403,2356-2359,dva,_,_,_,_,_,405,NUM,Mlcmdn,nummod
404,2360-2365,teden,_,_,_,_,_,411,NOUN,Ncmda,obl
405,2366-2368,po,_,_,_,_,_,407,ADP,Sl,case
406,2369-2380,ustanovitev,_,_,_,_,_,405,NOUN,Ncfsl,nmod
407,2381-2386,Blom,ORG,_,*->15-3,*[15],_,407,PROPN,Npfsg,nmod
408,2387-2389,pa,_,_,_,_,_,411,CCONJ,Cc,advmod
409,2390-2392,biti,_,_,_,_,_,411,AUX,Va-r3s-n,aux
410,2393-2397,biti,_,_,_,_,_,3,VERB,Va-p-sf,parataxis
411,2398-2401,med,_,_,_,_,_,416,ADP,Si,case
412,2402-2411,Slimškov,PER,2,*->14-6,*[14],2 - Negativno,416,ADJ,Aspfsi,amod
413,2412-2414,in,_,_,_,_,_,415,CCONJ,Cc,cc
414,2415-2422,Matej,PER[33],0,*->16-1,*[16],3 - Nevtralno[49],413,PROPN,Npmsi,conj
415,2423-2432,Kramer,PER[33],0,*->16-1,*[16],3 - Nevtralno[49],411,PROPN,Npmsi,obj
416,2433-2434,",",_,_,_,_,_,419,PUNCT,Z,punct
417,2435-2437,ki,_,_,_,_,_,419,SCONJ,Cs,mark
418,2438-2441,imeti,_,_,_,_,_,416,VERB,Vmpr3s-n,acl
419,2442-2446,prav,_,_,_,_,_,421,PART,Q,advmod
420,2447-2451,tako,_,_,_,_,_,419,ADV,Rgp,advmod
421,2452-2455,kot,_,_,_,_,_,425,SCONJ,Cs,case
422,2456-2465,žagarjev,PER,_,*->22-9,*[22],_,425,ADJ,Aspnsn,amod
423,2466-2472,stalen,_,_,_,_,_,425,ADJ,Agpnsa,amod
424,2473-2485,prebivališče,_,_,_,_,_,419,NOUN,Ncnsa,obj
425,2486-2487,v,_,_,_,_,_,427,ADP,Sl,case
426,2488-2495,Mozirje,LOC,0,*->17-1,*[17],3 - Nevtralno,425,PROPN,Npnsl,nmod
427,2496-2497,",",_,_,_,_,_,429,PUNCT,Z,punct
428,2498-2507,sklenjen,_,_,_,_,_,425,ADJ,Appfsn,amod
429,2508-2517,posojilen,_,_,_,_,_,431,ADJ,Agpfsn,amod
430,2518-2525,pogodba,_,_,_,_,_,429,NOUN,Ncfsn,nsubj
431,2526-2528,in,_,_,_,_,_,433,CCONJ,Cc,cc
432,2529-2537,sporazum,_,_,_,_,_,431,NOUN,Ncmsn,conj
433,2538-2539,o,_,_,_,_,_,435,ADP,Sl,case
434,2540-2551,zavarovanje,_,_,_,_,_,433,NOUN,Ncnsl,nmod
435,2552-2560,terjatev,_,_,_,_,_,435,NOUN,Ncfpg,nmod
436,2561-2562,z,_,_,_,_,_,438,ADP,Si,case
437,2563-2576,ustanovitev,_,_,_,_,_,436,NOUN,Ncfsi,nmod
438,2577-2585,zastaven,_,_,_,_,_,440,ADJ,Agpfsg,amod
439,2586-2593,pravica,_,_,_,_,_,438,NOUN,Ncfsg,nmod
440,2594-2596,na,_,_,_,_,_,443,ADP,Sl,case
441,2597-2609,stoodstoten,_,_,_,_,_,443,ADJ,Agpmsl,amod
442,2610-2616,delež,_,_,_,_,_,440,NOUN,Ncmsl,nmod
443,2617-2622,Blom,ORG,0,*->15-4,*[15],3 - Nevtralno,443,PROPN,Npmsg,nmod
444,2623-2624,.,_,_,_,_,_,429,PUNCT,Z,punct
445,2625-2627,ta,_,_,_,_,_,448,DET,Pd-nsn,nsubj
446,2628-2634,očitno,_,_,_,_,_,448,ADV,Rgp,advmod
447,2635-2641,pomeniti,_,_,_,_,_,3,VERB,Vmbr3s,parataxis
448,2642-2643,",",_,_,_,_,_,453,PUNCT,Z,punct
449,2644-2646,da,_,_,_,_,_,453,SCONJ,Cs,mark
450,2647-2652,Kovač,PER,_,*->5-11,*[5],_,453,PROPN,Npmsn,nsubj
451,2653-2655,biti,_,_,_,_,_,453,AUX,Va-r3s-y,cop
452,2656-2661,oseba,_,_,*->5-12,*[5],_,448,NOUN,Ncfsn,ccomp
453,2662-2663,",",_,_,_,_,_,458,PUNCT,Z,punct
454,2664-2666,ki,_,_,_,_,_,458,SCONJ,Cs,mark
455,2667-2669,se,_,_,_,_,_,458,PRON,Px------y,expl
456,2670-2678,verjetno,_,_,_,_,_,458,ADV,Rgp,advmod
457,2679-2686,ukvarjati,_,_,*->5-13,*[5],_,453,VERB,Vmpr3s,acl
458,2687-2688,z,_,_,_,_,_,460,ADP,Si,case
459,2689-2699,preprodaja,_,_,_,_,_,458,NOUN,Ncfsi,obl
460,2700-2708,zemljišče,_,_,_,_,_,460,NOUN,Ncnpg,nmod
461,2709-2710,",",_,_,_,_,_,464,PUNCT,Z,punct
462,2711-2714,kot,_,_,_,_,_,464,SCONJ,Cs,mark
463,2715-2722,razlagati,_,_,_,_,_,461,VERB,Vmpr3s,acl
464,2723-2732,žagarjev,PER,_,*->22-10,*[22],_,464,ADJ,Aspfsn,nsubj
465,2733-2734,",",_,_,_,_,_,468,PUNCT,Z,punct
466,2735-2740,ampak,_,_,_,_,_,468,CCONJ,Cc,cc
467,2741-2746,oseba,_,_,*->5-14,*[5],_,465,NOUN,Ncfsn,conj
468,2747-2748,",",_,_,_,_,_,474,PUNCT,Z,punct
469,2749-2751,ki,_,_,_,_,_,474,SCONJ,Cs,mark
470,2752-2754,on,_,_,*->5-15,*[5],_,474,PRON,Pp3msa--y,obj
471,2755-2757,biti,_,_,_,_,_,474,AUX,Va-r3s-n,aux
472,2758-2767,žagarjev,PER,_,*->22-11,*[22],_,474,ADJ,Aspfsn,nsubj
473,2768-2775,poznati,_,_,*->22-12,*[22],_,468,VERB,Vmpp-sf,acl
474,2776-2778,že,_,_,_,_,_,474,PART,Q,advmod
475,2779-2783,pred,_,_,_,_,_,477,ADP,Si,case
476,2784-2791,nakup,_,_,_,_,_,474,NOUN,Ncmsi,obl
477,2792-2801,zemljišče,_,_,_,_,_,477,NOUN,Ncnsg,nmod
478,2802-2804,in,_,_,_,_,_,482,CCONJ,Cc,cc
479,2805-2807,on,_,2,*->5-16,*[5],2 - Negativno,482,PRON,Pp3msa--y,obj
480,2808-2812,tudi,_,_,_,_,_,482,PART,Q,advmod
481,2813-2822,vključiti,_,2,*->22-13,*[22],2 - Negativno,474,VERB,Vmep-sf,conj
482,2823-2824,v,_,_,_,_,_,485,ADP,Sa,case
483,2825-2828,sam,_,_,_,_,_,485,ADJ,Agpmsan,amod
484,2829-2834,nakup,_,_,_,_,_,482,NOUN,Ncmsan,obl
485,2835-2844,zemljišče,_,_,_,_,_,485,NOUN,Ncnsg,nmod
486,2845-2846,.,_,_,_,_,_,3,PUNCT,Z,punct
487,2847-2849,na,_,_,_,_,_,489,ADP,Sa,case
488,2850-2859,vprašanje,_,_,_,_,_,482,NOUN,Ncnsa,obl
489,2860-2861,",",_,_,_,_,_,507,PUNCT,Z,punct
490,2862-2865,ali,_,_,_,_,_,507,ADV,Rgp,mark
491,2866-2868,biti,_,_,_,_,_,507,AUX,Va-r3s-n,aux
492,2869-2870,v,_,_,_,_,_,494,ADP,Sl,case
493,2871-2874,KBM,ORG[34],_,*->6-4,*[6],_,496,PROPN,Npfsl,nmod
494,2875-2883,Leasing,ORG[34],_,*->6-4,*[6],_,494,PROPN,Npmsl,nmod
495,2884-2892,običajen,_,_,_,_,_,497,ADJ,Agpfsn,amod
496,2893-2899,praks,_,_,_,_,_,489,NOUN,Ncfsn,acl
497,2900-2901,",",_,_,_,_,_,507,PUNCT,Z,punct
498,2902-2904,da,_,_,_,_,_,507,SCONJ,Cs,mark
499,2905-2910,lahko,_,_,_,_,_,507,ADV,Rgp,advmod
500,2911-2921,posameznik,_,_,_,_,_,507,NOUN,Ncmsn,nsubj
501,2922-2926,brez,_,_,_,_,_,504,ADP,Sg,case
502,2927-2933,velik,_,_,_,_,_,504,ADJ,Agcfpg,amod
503,2934-2942,referenca,_,_,_,_,_,501,NOUN,Ncfpg,nmod
504,2943-2945,in,_,_,_,_,_,506,CCONJ,Cc,cc
505,2946-2956,premoženje,_,_,_,_,_,504,NOUN,Ncnsg,conj
506,2957-2964,pridobiti,_,_,_,_,_,497,VERB,Vmer3s,acl
507,2965-2973,tolikšen,_,_,_,_,_,509,DET,Pd-npa,det
508,2974-2982,sredstvo,_,_,_,_,_,507,NOUN,Ncnpa,obj
509,2983-2984,",",_,_,_,_,_,507,PUNCT,Z,punct
510,2985-2987,in,_,_,_,_,_,514,CCONJ,Cc,cc
511,2988-2991,ali,_,_,_,_,_,514,CCONJ,Cc,cc
512,2992-2997,lahko,_,_,_,_,_,514,ADV,Rgp,advmod
513,2998-3006,zanikati,_,_,*->6-5,*[6],_,507,VERB,Vmer3p,conj
514,3007-3008,",",_,_,_,_,_,518,PUNCT,Z,punct
515,3009-3011,da,_,_,_,_,_,518,SCONJ,Cs,mark
516,3012-3014,biti,_,_,_,_,_,518,AUX,Va-r3p-n,aux
517,3015-3026,financirati,_,_,*->6-6,*[6],_,514,VERB,Vmbp-pm,ccomp
518,3027-3032,nakup,_,_,_,_,_,518,NOUN,Ncmsan,obj
519,3033-3042,zemljišče,_,_,_,_,_,519,NOUN,Ncnsg,nmod
520,3043-3044,",",_,_,_,_,_,528,PUNCT,Z,punct
521,3045-3048,ker,_,_,_,_,_,528,SCONJ,Cs,mark
522,3049-3051,biti,_,_,_,_,_,528,AUX,Va-r3s-n,aux
523,3052-3053,v,_,_,_,_,_,525,ADP,Sl,case
524,3054-3060,ozadje,_,_,_,_,_,528,NOUN,Ncnsl,obl
525,3061-3066,posel,_,_,_,_,_,525,NOUN,Ncmsg,nmod
526,3067-3077,pravzaprav,_,_,_,_,_,528,PART,Q,advmod
527,3078-3082,stati,_,_,_,_,_,518,VERB,Vmpp-sm,advcl
528,3083-3089,Gradis,ORG[35],2,*->2-13,*[2],2 - Negativno[50],528,PROPN,Npmsn,nsubj
529,3090-3095,Celje,ORG[35]|LOC[36],0,*->2-13|*->3-10,*[2]|*[3],2 - Negativno[50]|3 - Nevtralno[51],529,PROPN,Npnsn,nmod
530,3096-3097,",",_,_,_,_,_,528,PUNCT,Z,punct
531,3098-3099,v,_,_,_,_,_,533,ADP,Sl,case
532,3100-3103,KBM,ORG[37],_,*->6-7,*[6],_,536,PROPN,Npfsl,obl
533,3104-3112,Leasing,ORG[37],_,*->6-7,*[6],_,533,PROPN,Npmsl,nmod
534,3113-3117,biti,_,_,_,_,_,536,AUX,Va-r3p-y,aux
535,3118-3128,odgovoriti,_,_,_,_,_,518,VERB,Vmep-pm,conj
536,3129-3130,",",_,_,_,_,_,543,PUNCT,Z,punct
537,3131-3134,češ,_,_,_,_,_,543,PART,Q,mark
538,3135-3137,da,_,_,_,_,_,538,SCONJ,Cs,fixed
539,3138-3148,zakonodaja,_,_,_,_,_,543,NOUN,Ncfsn,nsubj
540,3149-3158,finančen,_,_,_,_,_,542,ADJ,Agpfpd,amod
541,3159-3166,družba,_,_,_,_,_,543,NOUN,Ncfpd,iobj
542,3167-3178,prepovedovati,_,_,_,_,_,536,VERB,Vmpr3s,ccomp
543,3179-3190,razkrivanje,_,_,_,_,_,543,NOUN,Ncnsa,obj
544,3191-3203,kakršnihkoli,_,_,_,_,_,546,DET,Pq-mpg,det
545,3204-3212,podatek,_,_,_,_,_,544,NOUN,Ncmpg,nmod
546,3213-3214,o,_,_,_,_,_,549,ADP,Sl,case
547,3215-3221,svoj,_,_,_,_,_,549,DET,Px-mpl,det
548,3222-3232,komitent,_,_,_,_,_,546,NOUN,Ncmpl,nmod
549,3233-3234,.,_,_,_,_,_,543,PUNCT,Z,punct
550,3235-3239,zato,_,_,_,_,_,561,CCONJ,Cc,cc
551,3240-3243,KBM,ORG[38],_,*->6-8,*[6],_,561,PROPN,Npfsn,nsubj
552,3244-3251,Leasing,ORG[38],_,*->6-8,*[6],_,554,ADJ,Aspmsnn,amod
553,3252-3259,pogodba,_,_,_,_,_,561,NOUN,Ncfpa,obj
554,3260-3261,",",_,_,_,_,_,556,PUNCT,Z,punct
555,3262-3271,sklenjen,_,_,_,_,_,554,ADJ,Appfpn,amod
556,3272-3273,z,_,_,_,_,_,559,ADP,Si,case
557,3274-3281,svoj,_,_,_,_,_,559,DET,Px-fpi,det
558,3282-3291,stranka,_,_,_,_,_,556,NOUN,Ncfpi,obl
559,3292-3293,",",_,_,_,_,_,556,PUNCT,Z,punct
560,3294-3300,varovati,_,_,*->6-9,*[6],_,549,VERB,Vmpr3s,acl
561,3301-3304,kot,_,_,_,_,_,564,SCONJ,Cs,case
562,3305-3313,posloven,_,_,_,_,_,564,ADJ,Agpfsa,amod
563,3314-3323,skrivnost,_,_,_,_,_,561,NOUN,Ncfsa,obl
564,3324-3325,.,_,_,_,_,_,552,PUNCT,Z,punct
565,3326-3331,sicer,_,_,_,_,_,572,PART,Q,advmod
566,3332-3334,pa,_,_,_,_,_,572,CCONJ,Cc,advmod
567,3335-3337,ta,_,_,_,_,_,572,DET,Pd-nsn,nsubj
568,3338-3340,biti,_,_,_,_,_,572,AUX,Va-r3s-y,cop
569,3341-3345,prvi,_,_,_,_,_,572,ADJ,Mlomsn,amod
570,3346-3355,nenavaden,_,_,_,_,_,572,ADJ,Agpmsnn,amod
571,3356-3361,posel,_,_,_,_,_,3,NOUN,Ncmsn,parataxis
572,3362-3365,KBM,ORG[39],_,*->6-10,*[6],_,572,PROPN,Npfsg,nmod
573,3366-3374,Leasing,ORG[39],_,*->6-10,*[6],_,573,PROPN,Npmsg,nmod
574,3375-3376,.,_,_,_,_,_,578,PUNCT,Z,punct
575,3377-3380,kot,_,_,_,_,_,578,SCONJ,Cs,mark
576,3381-3384,biti,_,_,_,_,_,578,AUX,Va-r1p-n,aux
577,3385-3393,poročati,_,_,_,_,_,572,VERB,Vmpp-pm,advcl
578,3394-3398,pred,_,_,_,_,_,580,ADP,Si,case
579,3399-3407,nedaven,_,_,_,_,_,578,ADJ,Agpnsi,obl
580,3408-3409,",",_,_,_,_,_,578,PUNCT,Z,punct
581,3410-3412,biti,_,_,_,_,_,609,AUX,Va-r3s-n,aux
582,3413-3416,KBM,ORG[40],_,*->6-11,*[6],_,609,PROPN,Npfsn,nsubj
583,3417-3424,Leasing,ORG[40],_,*->6-11,*[6],_,585,ADJ,Aspmsnn,amod
584,3425-3433,podjetje,_,_,_,_,_,572,NOUN,Ncnsl,nmod
585,3434-3436,BK,ORG[41],_,*->18-1,*[18],_,585,PROPN,Npmsn,nmod
586,3437-3443,Studia,ORG[41],_,*->18-1,*[18],_,586,PROPN,Npmsn,flat:name
587,3444-3446,za,_,_,_,_,_,589,ADP,Sa,case
588,3447-3454,gradnja,_,_,_,_,_,585,NOUN,Ncfsa,nmod
589,3455-3468,apartmajski,_,_,_,_,_,591,ADJ,Agpnsg,amod
590,3469-3476,naselje,_,_,_,_,_,589,NOUN,Ncnsg,nmod
591,3477-3478,v,_,_,_,_,_,594,ADP,Sl,case
592,3479-3488,moravski,LOC[42],0,*->19-1,*[19],3 - Nevtralno[52],594,ADJ,Agpfpl,amod
593,3489-3497,toplica,LOC[42],0,*->19-1,*[19],3 - Nevtralno[52],589,NOUN,Ncfpl,nmod
594,3498-3500,po,_,_,_,_,_,596,ADP,Sl,case
595,3501-3508,sistem,_,_,_,_,_,594,NOUN,Ncmsl,nmod
596,3509-3516,prodaja,_,_,_,_,_,596,NOUN,Ncfsg,nmod
597,3517-3519,in,_,_,_,_,_,600,CCONJ,Cc,cc
598,3520-3530,vnovičen,_,_,_,_,_,600,ADJ,Agpmsg,amod
599,3531-3537,najem,_,_,_,_,_,597,NOUN,Ncmsg,conj
600,3538-3539,(,_,_,_,_,_,602,PUNCT,Z,punct
601,3540-3544,sell,_,_,_,_,_,600,NOUN,Ncmsn,appos
602,3545-3548,and,_,_,_,_,_,602,X,Xf,flat:foreign
603,3549-3554,lease,_,_,_,_,_,602,X,Xf,flat:foreign
604,3555-3559,back,_,_,_,_,_,602,NOUN,Ncmsn,nmod
605,3560-3561,),_,_,_,_,_,602,PUNCT,Z,punct
606,3562-3564,za,_,_,_,_,_,608,ADP,Sa,case
607,3565-3574,zemljišče,_,_,_,_,_,609,NOUN,Ncnsa,obl
608,3575-3581,plačati,_,_,*->6-12,*[6],_,600,VERB,Vmep-sm,acl
609,3582-3586,"1,49",_,_,_,_,_,611,NUM,Mdc,nummod
610,3587-3595,milijon,_,_,_,_,_,609,NOUN,Ncmsg,obj
611,3596-3601,evro,_,_,_,_,_,611,NOUN,Ncmpg,nmod
612,3602-3603,",",_,_,_,_,_,619,PUNCT,Z,punct
613,3604-3606,pa,_,_,_,_,_,619,CCONJ,Cc,advmod
614,3607-3613,čeprav,_,_,_,_,_,619,SCONJ,Cs,mark
615,3614-3617,naj,_,_,_,_,_,619,PART,Q,advmod
616,3618-3620,biti,_,_,_,_,_,619,AUX,Va-c,aux
617,3621-3625,biti,_,_,_,_,_,619,AUX,Va-p-pm,cop
618,3626-3636,seznanjen,_,2,*->6-13,*[6],2 - Negativno,609,ADJ,Appmpn,advcl
619,3637-3638,z,_,_,_,_,_,621,ADP,Si,case
620,3639-3646,pogodba,_,_,_,_,_,619,NOUN,Ncfsi,obl
621,3647-3648,",",_,_,_,_,_,626,PUNCT,Z,punct
622,3649-3651,iz,_,_,_,_,_,624,ADP,Sg,case
623,3652-3658,kateri,_,_,_,_,_,626,DET,Pq-fsg,obl
624,3659-3661,biti,_,_,_,_,_,626,AUX,Va-r3s-n,cop
625,3662-3670,razviden,_,_,_,_,_,621,ADJ,Agpnsn,acl
626,3671-3672,",",_,_,_,_,_,634,PUNCT,Z,punct
627,3673-3675,da,_,_,_,_,_,634,SCONJ,Cs,mark
628,3676-3678,biti,_,_,_,_,_,634,AUX,Va-r3s-n,aux
629,3679-3681,BK,ORG[43],0,*->18-2,*[18],3 - Nevtralno[53],634,PROPN,Npmsn,nsubj
630,3682-3688,Studia,ORG[43],0,*->18-2,*[18],3 - Nevtralno[53],630,PROPN,Npmsn,flat:name
631,3689-3691,za,_,_,_,_,_,633,ADP,Sa,case
632,3692-3701,zemljišče,_,_,_,_,_,634,NOUN,Ncnsa,obl
633,3702-3709,plačati,_,_,_,_,_,626,VERB,Vmep-sn,csubj
634,3710-3712,le,_,_,_,_,_,634,PART,Q,advmod
635,3713-3720,385.065,_,_,_,_,_,637,NUM,Mdc,nummod
636,3721-3726,evro,_,_,_,_,_,634,NOUN,Ncmpg,obj
637,3727-3728,.,_,_,_,_,_,3,PUNCT,Z,punct
638,3729-3746,Sebastjan.moroz,_,_,_,_,_,637,PROPN,Npmpg,conj
639,3747-3748,@,_,_,_,_,_,3,PUNCT,Z,punct
