idx,chars_idx,token,entity_type,sentiment,idk_1,idk_2,orig_sentiment,heads,upos,xpos,deprel
0,0-6,Moskva,LOC,_,*->1-1,*[1],_,67,PROPN,Npfsn,parataxis
1,7-8,",",_,_,_,_,_,31,PUNCT,Z,punct
2,9-14,Minsk,LOC,_,*->2-1,*[2],_,10,PROPN,Npmsn,parataxis
3,15-16,-,_,_,_,_,_,3,PUNCT,Z,punct
4,17-23,Rusija,ORG,_,*->3-1,*[3],_,10,PROPN,Npfsn,nsubj
5,24-26,in,_,_,_,_,_,7,CCONJ,Cc,cc
6,27-37,Belorusija,ORG,_,*->4-1,*[4],_,5,PROPN,Npfsn,conj
7,38-41,biti,_,_,_,_,_,10,AUX,Va-r3d-n,aux
8,42-47,danes,_,_,_,_,_,10,ADV,Rgp,advmod
9,48-57,podpisati,_,_,_,_,_,67,VERB,Vmep-dm,advcl
10,58-65,dodaten,_,_,_,_,_,12,ADJ,Agpfsa,amod
11,66-73,pogodba,_,_,_,_,_,10,NOUN,Ncfsa,obj
12,74-75,k,_,_,_,_,_,14,ADP,Sd,case
13,76-85,sporazum,_,_,_,_,_,12,NOUN,Ncmsd,nmod
14,86-87,o,_,_,_,_,_,16,ADP,Sl,case
15,88-95,prenos,_,_,_,_,_,12,NOUN,Ncmsl,nmod
16,96-103,ruski,_,_,_,_,_,18,ADJ,Agpmsg,amod
17,104-109,plin,_,_,_,_,_,16,NOUN,Ncmsg,nmod
18,110-115,preko,_,_,_,_,_,21,ADP,Sg,case
19,116-127,beloruski,_,_,_,_,_,21,ADJ,Agpnsg,amod
20,128-135,ozemlje,_,_,_,_,_,18,NOUN,Ncnsg,nmod
21,136-138,na,_,_,_,_,_,23,ADP,Sa,case
22,139-144,zahod,LOC,_,*->5-1,*[5],_,21,NOUN,Ncmsan,nmod
23,145-146,.,_,_,_,_,_,47,PUNCT,Z,punct
24,147-148,z,_,_,_,_,_,26,ADP,Si,case
25,149-157,podpis,_,_,_,_,_,31,NOUN,Ncmsi,obl
26,158-165,pogodba,_,_,_,_,_,26,NOUN,Ncfsg,nmod
27,166-169,naj,_,_,_,_,_,31,PART,Q,advmod
28,170-172,biti,_,_,_,_,_,31,AUX,Va-c,aux
29,173-179,država,_,_,_,_,_,31,NOUN,Ncfsd,iobj
30,180-187,končati,_,_,_,_,_,10,VERB,Vmep-pm,parataxis
31,188-192,spor,_,_,_,_,_,31,NOUN,Ncmsan,obj
32,193-194,",",_,_,_,_,_,39,PUNCT,Z,punct
33,195-196,v,_,_,_,_,_,35,ADP,Sa,case
34,197-205,kateri,_,_,_,_,_,39,DET,Pq-msa,obl
35,206-209,biti,_,_,_,_,_,39,AUX,Va-r3d-n,aux
36,210-212,se,_,_,_,_,_,39,PRON,Px------y,expl
37,213-219,junij,_,_,_,_,_,39,NOUN,Ncmsg,obl
38,220-228,zaplesti,_,_,_,_,_,32,VERB,Vmep-dm,acl
39,229-235,zaradi,_,_,_,_,_,41,ADP,Sg,case
40,236-243,plačilo,_,_,_,_,_,39,NOUN,Ncnsg,obl
41,244-249,dolg,_,_,_,_,_,39,ADJ,Agpmsn,nsubj
42,250-255,glede,_,_,_,_,_,44,ADP,Sg,case
43,256-263,prenos,_,_,_,_,_,42,NOUN,Ncmsg,nmod
44,264-269,plin,_,_,_,_,_,44,NOUN,Ncmsg,nmod
45,270-271,",",_,_,_,_,_,39,PUNCT,Z,punct
46,272-280,poročati,_,_,_,_,_,31,VERB,Vmpr3p,parataxis
47,281-285,tuj,_,_,_,_,_,50,ADJ,Agpfpn,amod
48,286-294,tiskoven,_,_,_,_,_,50,ADJ,Agpfsg,amod
49,295-303,agencija,_,_,_,_,_,47,NOUN,Ncfpn,nsubj
50,304-305,.,_,_,_,_,_,47,PUNCT,Z,punct
51,306-311,ruski,_,_,_,_,_,54,ADJ,Agpmsny,amod
52,312-319,plinski,_,_,_,_,_,54,ADJ,Agpmsny,amod
53,320-330,monopolist,_,_,_,_,_,47,NOUN,Ncmsn,nsubj
54,331-338,Gazprom,ORG,_,*->6-1,*[6],_,54,PROPN,Npmsn,nmod
55,339-341,biti,_,_,_,_,_,67,AUX,Va-r3s-n,aux
56,342-344,po,_,_,_,_,_,58,ADP,Sl,case
57,345-352,beseda,_,_,_,_,_,67,NOUN,Ncfpl,obl
58,353-364,generalen,_,_,*->7-1,*[7],_,60,ADJ,Agpmsg,amod
59,365-375,direktor,_,_,*->7-1,*[7],_,58,NOUN,Ncmsg,nmod
60,376-387,beloruski,_,_,*->7-1|*->8-1,*[7]|*[8],_,63,ADJ,Agpnsg,amod
61,388-397,plinski,_,_,*->7-1|*->8-1,*[7]|*[8],_,63,ADJ,Agpnsg,amod
62,398-406,podjetje,_,_,*->7-1|*->8-1,*[7]|*[8],_,60,NOUN,Ncnsg,nmod
63,407-418,Beltransgaz,ORG,_,*->7-1|*->8-1,*[7]|*[8],_,63,PROPN,Npmsg,nmod
64,419-429,Vladimir,PER[1],_,*->7-1,*[7],_,64,PROPN,Npmsg,flat:name
65,430-438,Majorov,PER[1],_,*->7-1,*[7],_,65,ADJ,Aspmsg,amod
66,439-446,pristati,_,_,_,_,_,0,VERB,Vmep-sm,root
67,447-449,na,_,_,_,_,_,69,ADP,Sa,case
68,450-457,zahteva,_,_,_,_,_,67,NOUN,Ncfsa,obl
69,458-464,minski,ORG,_,*->2-2,*[2],_,69,ADJ,Agpnsg,amod
70,465-466,",",_,_,_,_,_,73,PUNCT,Z,punct
71,467-470,kar,_,_,_,_,_,73,PRON,Pr-nsn,nsubj
72,471-477,pomeniti,_,_,_,_,_,67,VERB,Vmbr3s,advcl
73,478-479,",",_,_,_,_,_,88,PUNCT,Z,punct
74,480-482,da,_,_,_,_,_,88,SCONJ,Cs,mark
75,483-485,biti,_,_,_,_,_,88,AUX,Va-f3s-n,aux
76,486-488,za,_,_,_,_,_,80,ADP,Sa,case
77,489-493,1000,_,_,_,_,_,80,NUM,Mdc,nummod
78,494-502,kubičen,_,_,_,_,_,80,ADJ,Agpmpg,amod
79,503-509,meter,_,_,_,_,_,88,NOUN,Ncmpg,obl
80,510-515,plin,_,_,_,_,_,80,NOUN,Ncmsg,nmod
81,516-517,",",_,_,_,_,_,83,PUNCT,Z,punct
82,518-529,prepeljan,_,_,_,_,_,81,ADJ,Appmpg,amod
83,530-532,na,_,_,_,_,_,86,ADP,Sa,case
84,533-536,100,_,_,_,_,_,86,NUM,Mdc,nummod
85,537-547,kilometer,_,_,_,_,_,83,NOUN,Ncmpg,obl
86,548-549,",",_,_,_,_,_,83,PUNCT,Z,punct
87,550-556,plačati,_,_,*->6-2,*[6],_,73,VERB,Vmep-sm,ccomp
88,557-561,"1,88",_,_,_,_,_,90,NUM,Mdc,nummod
89,562-569,dolar,_,_,_,_,_,88,NOUN,Ncmsg,obj
90,570-571,.,_,_,_,_,_,88,PUNCT,Z,punct
91,572-579,pogodba,_,_,_,_,_,67,NOUN,Ncfsn,nsubj
92,580-581,",",_,_,_,_,_,98,PUNCT,Z,punct
93,582-584,ki,_,_,_,_,_,98,SCONJ,Cs,mark
94,585-588,biti,_,_,_,_,_,98,AUX,Va-r3d-n,aux
95,589-591,on,_,_,_,_,_,98,PRON,Pp3fsa--y,obj
96,592-598,stran,_,_,_,_,_,98,NOUN,Ncfpn,nsubj
97,599-608,podpisati,_,_,_,_,_,92,VERB,Vmep-dm,acl
98,609-614,danes,_,_,_,_,_,98,ADV,Rgp,advmod
99,615-616,",",_,_,_,_,_,98,PUNCT,Z,punct
100,617-627,dopolnjevati,_,_,_,_,_,88,VERB,Vmpr3s,advcl
101,628-630,že,_,_,_,_,_,101,PART,Q,advmod
102,631-640,obstoječ,_,_,_,_,_,104,ADJ,Appfsa,amod
103,641-648,pogodba,_,_,_,_,_,101,NOUN,Ncfsa,obj
104,649-652,med,_,_,_,_,_,106,ADP,Si,case
105,653-666,Beltransgaz,ORG,0,*->8-2,*[8],3 - Nevtralno,104,PROPN,Npmsi,nmod
106,667-669,in,_,_,_,_,_,108,CCONJ,Cc,cc
107,670-679,Gazprom,ORG,_,*->6-3,*[6],_,106,PROPN,Npmsi,conj
108,680-681,o,_,_,_,_,_,110,ADP,Sl,case
109,682-689,prenos,_,_,_,_,_,108,NOUN,Ncmsl,nmod
110,690-695,plin,_,_,_,_,_,110,NOUN,Ncmsg,nmod
111,696-698,na,_,_,_,_,_,113,ADP,Sa,case
112,699-704,zahod,LOC,_,*->5-2,*[5],_,111,NOUN,Ncmsan,nmod
113,705-706,.,_,_,_,_,_,101,PUNCT,Z,punct
114,707-713,podpis,_,_,_,_,_,101,NOUN,Ncmsan,obj
115,714-721,pogodba,_,_,_,_,_,115,NOUN,Ncfsg,nmod
116,722-724,biti,_,_,_,_,_,120,AUX,Va-r3s-n,aux
117,725-730,poleg,_,_,_,_,_,119,ADP,Sg,case
118,731-739,Majorov,PER,0,*->7-2,*[7],3 - Nevtralno,120,ADJ,Aspfsg,obl
119,740-748,potrditi,_,_,_,_,_,101,VERB,Vmep-sf,conj
120,749-753,tudi,_,_,_,_,_,120,PART,Q,advmod
121,754-763,beloruski,_,_,_,_,_,123,ADJ,Agpfsn,amod
122,764-769,vlada,_,_,_,_,_,120,NOUN,Ncfsn,nsubj
123,770-771,",",_,_,_,_,_,132,PUNCT,Z,punct
124,772-778,medtem,_,_,_,_,_,132,ADV,Rgp,mark
125,779-781,ko,_,_,_,_,_,125,SCONJ,Cs,fixed
126,782-787,ruski,_,_,*->6-4,*[6],_,128,ADJ,Agpmsny,amod
127,788-794,gigant,_,_,*->6-4,*[6],_,132,NOUN,Ncmsn,nsubj
128,795-796,o,_,_,_,_,_,130,ADP,Sl,case
129,797-804,dogodek,_,_,_,_,_,132,NOUN,Ncmsl,obl
130,805-807,še,_,_,_,_,_,132,PART,Q,advmod
131,808-813,molčiti,_,_,_,_,_,120,VERB,Vmpr3s,advcl
132,814-815,.,_,_,_,_,_,120,PUNCT,Z,punct
133,816-821,Rusko,_,_,_,_,_,139,PROPN,Npnsn,parataxis
134,822-823,-,_,_,_,_,_,139,PUNCT,Z,punct
135,824-833,beloruski,_,_,_,_,_,137,ADJ,Agpmsny,amod
136,834-838,spor,_,_,_,_,_,139,NOUN,Ncmsn,nsubj
137,839-841,biti,_,_,_,_,_,139,AUX,Va-r3s-n,aux
138,842-851,izbruhniti,_,_,_,_,_,67,VERB,Vmep-sm,parataxis
139,852-857,konec,_,_,_,_,_,141,ADP,Sg,case
140,858-864,junij,_,_,_,_,_,139,NOUN,Ncmsg,obl
141,865-866,",",_,_,_,_,_,157,PUNCT,Z,punct
142,867-869,ko,_,_,_,_,_,157,SCONJ,Cs,mark
143,870-872,biti,_,_,_,_,_,157,AUX,Va-r3s-n,aux
144,873-879,Rusija,ORG,_,*->3-2,*[3],_,157,PROPN,Npfsn,nsubj
145,880-886,zaradi,_,_,_,_,_,147,ADP,Sg,case
146,887-892,spor,_,_,_,_,_,157,NOUN,Ncmsg,obl
147,893-894,o,_,_,_,_,_,149,ADP,Sl,case
148,895-902,plačilo,_,_,_,_,_,147,NOUN,Ncnsl,nmod
149,903-908,dolg,_,_,_,_,_,157,ADJ,Agpfsn,advcl
150,909-910,v,_,_,_,_,_,152,ADP,Sl,case
151,911-917,višina,_,_,_,_,_,157,NOUN,Ncfsl,obl
152,918-921,192,_,_,_,_,_,154,NUM,Mdc,nummod
153,922-931,milijon,_,_,_,_,_,152,NOUN,Ncmpg,nmod
154,932-940,dolar,_,_,_,_,_,154,NOUN,Ncmpg,nmod
155,941-951,Belorusija,ORG,_,*->4-2,*[4],_,155,PROPN,Npfsd,nmod
156,952-961,zmanjšati,_,_,_,_,_,139,VERB,Vmep-sf,advcl
157,962-968,dobava,_,_,_,_,_,157,NOUN,Ncfsa,obj
158,969-974,plin,_,_,_,_,_,158,NOUN,Ncmsg,nmod
159,975-977,za,_,_,_,_,_,162,ADP,Sa,case
160,978-980,15,_,_,_,_,_,162,NUM,Mdc,nummod
161,981-990,odstotek,_,_,_,_,_,159,NOUN,Ncmpg,nmod
162,991-992,.,_,_,_,_,_,157,PUNCT,Z,punct
163,993-996,ker,_,_,_,_,_,169,SCONJ,Cs,mark
164,997-1002,Minsk,ORG,_,*->2-3,*[2],_,169,PROPN,Npmsn,nsubj
165,1003-1008,dolg,_,_,_,_,_,169,ADJ,Agpfsn,nsubj
166,1009-1011,biti,_,_,_,_,_,169,AUX,Va-r3s-y,aux
167,1012-1017,takoj,_,_,_,_,_,169,ADV,Rgp,advmod
168,1018-1026,poplačati,_,_,_,_,_,157,VERB,Vmep-sm,advcl
169,1027-1028,",",_,_,_,_,_,169,PUNCT,Z,punct
170,1029-1031,biti,_,_,_,_,_,176,AUX,Va-r3s-n,aux
171,1032-1038,Moskva,ORG,2,*->1-2,*[1],2 - Negativno,176,PROPN,Npfsn,nsubj
172,1039-1045,dobava,_,_,_,_,_,176,NOUN,Ncfsa,obj
173,1046-1051,plin,_,_,_,_,_,173,NOUN,Ncmsg,nmod
174,1052-1061,postopoma,_,_,_,_,_,176,ADV,Rgp,advmod
175,1062-1071,zmanjšati,_,_,_,_,_,169,VERB,Vmep-sf,conj
176,1072-1074,za,_,_,_,_,_,179,ADP,Sa,case
177,1075-1077,60,_,_,_,_,_,179,NUM,Mdc,nummod
178,1078-1087,odstotek,_,_,_,_,_,176,NOUN,Ncmpg,obl
179,1088-1089,.,_,_,_,_,_,176,PUNCT,Z,punct
180,1090-1095,Minsk,ORG,_,*->2-4,*[2],_,184,PROPN,Npmsn,nsubj
181,1096-1098,biti,_,_,_,_,_,184,AUX,Va-r3s-n,aux
182,1099-1104,sicer,_,_,_,_,_,184,PART,Q,advmod
183,1105-1110,trditi,_,_,_,_,_,176,VERB,Vmpp-sm,conj
184,1111-1112,",",_,_,_,_,_,190,PUNCT,Z,punct
185,1113-1115,da,_,_,_,_,_,190,SCONJ,Cs,mark
186,1116-1120,tudi,_,_,_,_,_,190,PART,Q,advmod
187,1121-1128,Gazprom,ORG,_,*->6-5,*[6],_,190,PROPN,Npmsn,nsubj
188,1129-1139,Belorusija,ORG,_,*->4-3,*[4],_,190,PROPN,Npfsd,iobj
189,1140-1147,dolgovati,_,_,_,_,_,184,VERB,Vmpr3s,ccomp
190,1148-1153,denar,_,_,_,_,_,190,NOUN,Ncmsan,obj
191,1154-1155,-,_,_,_,_,_,190,PUNCT,Z,punct
192,1156-1158,za,_,_,_,_,_,194,ADP,Sa,case
193,1159-1165,prenos,_,_,_,_,_,204,NOUN,Ncmsan,obl
194,1166-1171,plin,_,_,_,_,_,194,NOUN,Ncmsg,nmod
195,1172-1177,preko,_,_,_,_,_,198,ADP,Sg,case
196,1178-1189,beloruski,_,_,_,_,_,198,ADJ,Agpnsg,amod
197,1190-1197,ozemlje,_,_,_,_,_,194,NOUN,Ncnsg,nmod
198,1198-1199,v,_,_,_,_,_,200,ADP,Sa,case
199,1200-1206,Evropa,LOC,0,*->5-3,*[5],3 - Nevtralno,198,PROPN,Npfsa,nmod
200,1207-1210,naj,_,_,_,_,_,204,PART,Q,advmod
201,1211-1213,biti,_,_,_,_,_,204,AUX,Va-c,aux
202,1214-1216,on,_,_,*->4-4,*[4],_,204,PRON,Pp3fsd--y,obj
203,1217-1225,dolgovati,_,_,*->6-6,*[6],_,190,VERB,Vmbp-sm,conj
204,1226-1229,260,_,_,_,_,_,206,NUM,Mdc,nummod
205,1230-1239,milijon,_,_,_,_,_,204,NOUN,Ncmpg,obj
206,1240-1248,dolar,_,_,_,_,_,206,NOUN,Ncmpg,nmod
207,1249-1250,.,_,_,_,_,_,204,PUNCT,Z,punct
208,1251-1252,v,_,_,_,_,_,210,ADP,Sl,case
209,1253-1258,spor,_,_,_,_,_,213,NOUN,Ncmsl,obl
210,1259-1261,biti,_,_,_,_,_,213,AUX,Va-r3s-n,aux
211,1262-1266,prvi,_,_,_,_,_,213,ADJ,Mlofsn,nsubj
212,1267-1276,popustiti,_,_,_,_,_,204,VERB,Vmep-sf,conj
213,1277-1287,Belorusija,ORG,_,*->4-5,*[4],_,213,PROPN,Npfsn,nsubj
214,1288-1289,",",_,_,_,_,_,218,PUNCT,Z,punct
215,1290-1292,ki,_,_,_,_,_,218,SCONJ,Cs,mark
216,1293-1295,biti,_,_,_,_,_,218,AUX,Va-r3s-n,aux
217,1296-1305,odplačati,_,_,*->4-6,*[4],_,214,VERB,Vmep-sf,acl
218,1306-1310,svoj,_,0,*->4-7,*[4],3 - Nevtralno,220,DET,Px-msa,det
219,1311-1314,del,_,_,_,_,_,218,NOUN,Ncmsan,obj
220,1315-1320,dolg,_,_,_,_,_,220,ADJ,Agpfsn,amod
221,1321-1322,",",_,_,_,_,_,218,PUNCT,Z,punct
222,1323-1330,Gazprom,ORG,2,*->6-7,*[6],2 - Negativno,227,PROPN,Npmsn,nsubj
223,1331-1333,pa,_,_,_,_,_,227,CCONJ,Cc,advmod
224,1334-1336,biti,_,_,_,_,_,227,AUX,Va-r3s-n,aux
225,1337-1343,Minsko,ORG,0,*->2-5,*[2],3 - Nevtralno,227,PROPN,Npmsd,iobj
226,1344-1350,plačati,_,_,_,_,_,213,VERB,Vmep-sm,advcl
227,1351-1354,228,_,_,_,_,_,229,NUM,Mdc,nummod
228,1355-1364,milijon,_,_,_,_,_,227,NOUN,Ncmpg,obj
229,1365-1373,dolar,_,_,_,_,_,229,NOUN,Ncmpg,nmod
230,1374-1375,.,_,_,_,_,_,227,PUNCT,Z,punct
231,1376-1385,beloruski,_,0,*->9-1,*[9],3 - Nevtralno[3],233,ADJ,Agpmsny,amod
232,1386-1396,predsednik,_,0,*->9-1,*[9],3 - Nevtralno[3],239,NOUN,Ncmsn,nsubj
233,1397-1407,Aleksander,PER[2],0,*->9-1,*[9],3 - Nevtralno[3],233,PROPN,Npmsn,nmod
234,1408-1417,Lukašenka,PER[2],0,*->9-1,*[9],3 - Nevtralno[3],234,PROPN,Npfsa,flat:name
235,1418-1420,biti,_,_,_,_,_,239,AUX,Va-r3s-n,aux
236,1421-1427,Rusija,ORG,_,*->3-3,*[3],_,239,PROPN,Npfsa,obj
237,1428-1432,zato,_,_,_,_,_,239,ADV,Rgp,advmod
238,1433-1439,pozvati,_,_,_,_,_,227,VERB,Vmep-sm,conj
239,1440-1441,",",_,_,_,_,_,242,PUNCT,Z,punct
240,1442-1445,naj,_,_,_,_,_,242,SCONJ,Cs,mark
241,1446-1451,plačati,_,_,*->3-4,*[3],_,239,VERB,Vmer3s,ccomp
242,1452-1454,še,_,_,_,_,_,242,PART,Q,advmod
243,1455-1464,preostal,_,_,_,_,_,245,ADJ,Appmsay,amod
244,1465-1468,del,_,_,_,_,_,242,NOUN,Ncmsan,obj
245,1469-1474,dolg,_,_,_,_,_,245,ADJ,Agpfsn,amod
246,1475-1476,.,_,_,_,_,_,239,PUNCT,Z,punct
247,1477-1482,ruski,_,_,_,_,_,251,ADJ,Agpnsn,amod
248,1483-1484,-,_,_,_,_,_,250,PUNCT,Z,punct
249,1485-1494,beloruski,_,_,_,_,_,248,ADJ,Agpmsay,conj
250,1495-1499,spor,_,_,_,_,_,254,NOUN,Ncmsan,obj
251,1500-1502,biti,_,_,_,_,_,254,AUX,Va-r3p-n,aux
252,1503-1510,pozorno,_,_,_,_,_,254,ADV,Rgp,advmod
253,1511-1521,spremljati,_,_,_,_,_,239,VERB,Vmpp-pm,ccomp
254,1522-1526,tudi,_,_,_,_,_,254,PART,Q,advmod
255,1527-1528,v,_,_,_,_,_,257,ADP,Sl,case
256,1529-1531,EU,ORG,0,*->10-1,*[10],3 - Nevtralno,254,PROPN,Npfsl,obl
257,1532-1533,.,_,_,_,_,_,254,PUNCT,Z,punct
258,1534-1537,več,_,_,_,_,_,261,DET,Rgc,det
259,1538-1547,evropski,_,_,_,_,_,261,ADJ,Agpfpg,amod
260,1548-1553,država,_,_,_,_,_,254,NOUN,Ncfpg,obj
261,1554-1555,",",_,_,_,_,_,254,PUNCT,Z,punct
262,1556-1559,med,_,_,_,_,_,264,ADP,Si,case
263,1560-1565,on,_,_,_,_,_,261,PRON,Pp3mpi,nmod
264,1566-1570,tudi,_,_,_,_,_,266,PART,Q,advmod
265,1571-1580,Slovenija,ORG,0,*->11-1,*[11],3 - Nevtralno,261,PROPN,Npfsn,appos
266,1581-1582,",",_,_,_,_,_,266,PUNCT,Z,punct
267,1583-1585,biti,_,_,_,_,_,280,AUX,Va-r3s-n,aux
268,1586-1592,zaradi,_,_,_,_,_,273,ADP,Sg,case
269,1593-1598,ruski,_,_,_,_,_,273,ADJ,Agpnsn,amod
270,1599-1600,-,_,_,_,_,_,272,PUNCT,Z,punct
271,1601-1613,ukrajinski,_,_,_,_,_,270,ADJ,Agpmsg,conj
272,1614-1619,spor,_,_,_,_,_,280,NOUN,Ncmsg,obl
273,1620-1621,v,_,_,_,_,_,275,ADP,Sl,case
274,1622-1629,začetek,_,_,_,_,_,280,NOUN,Ncmsl,obl
275,1630-1638,lanski,_,_,_,_,_,277,ADJ,Agpnsg,amod
276,1639-1643,leto,_,_,_,_,_,275,NOUN,Ncnsg,nmod
277,1644-1650,namreč,_,_,_,_,_,280,CCONJ,Cc,advmod
278,1651-1653,že,_,_,_,_,_,280,PART,Q,advmod
279,1654-1660,ostati,_,_,_,_,_,266,VERB,Vmep-sn,parataxis
280,1661-1665,brez,_,_,_,_,_,283,ADP,Sg,case
281,1666-1673,ruski,_,_,_,_,_,283,ADJ,Agpmsg,amod
282,1674-1679,plin,_,_,_,_,_,280,NOUN,Ncmsg,obl
283,1680-1681,.,_,_,_,_,_,292,PUNCT,Z,punct
284,1682-1690,nekateri,_,_,_,_,_,286,DET,Pi-fpn,det
285,1691-1697,država,_,_,_,_,_,292,NOUN,Ncfpn,nsubj
286,1698-1700,biti,_,_,_,_,_,292,AUX,Va-r3p-n,aux
287,1701-1705,biti,_,_,_,_,_,292,AUX,Va-p-pf,cop
288,1706-1712,zaradi,_,_,_,_,_,290,ADP,Sg,case
289,1713-1717,ta,_,_,_,_,_,292,DET,Pd-nsg,obl
290,1718-1723,resno,_,_,_,_,_,292,ADV,Rgp,advmod
291,1724-1733,prizadet,_,_,_,_,_,280,ADJ,Appfpn,conj
292,1734-1735,",",_,_,_,_,_,299,PUNCT,Z,punct
293,1736-1739,saj,_,_,_,_,_,299,CCONJ,Cc,cc
294,1740-1742,biti,_,_,_,_,_,299,AUX,Va-r3s-n,aux
295,1743-1749,Rusija,LOC,2,*->3-5,*[3],2 - Negativno,299,PROPN,Npfsn,nsubj
296,1750-1756,dobava,_,_,_,_,_,299,NOUN,Ncfsa,obj
297,1757-1762,plin,_,_,_,_,_,297,NOUN,Ncmsg,nmod
298,1763-1771,ustaviti,_,_,_,_,_,292,VERB,Vmep-sf,conj
299,1772-1777,sredi,_,_,_,_,_,301,ADP,Sg,case
300,1778-1782,zima,_,_,_,_,_,299,NOUN,Ncfsg,obl
