idx,chars_idx,token,entity_type,sentiment,idk_1,idk_2,orig_sentiment,heads,upos,xpos,deprel
0,0-9,Ljubljana,LOC,0,*->1-1,*[1],3 - Nevtralno,11,PROPN,Npfsn,parataxis
1,10-11,-,_,_,_,_,_,1,PUNCT,Z,punct
2,12-22,predsednik,_,_,*->2-1,*[2],_,11,NOUN,Ncmsn,nsubj
3,23-28,vlada,_,_,*->2-1,*[2],_,3,NOUN,Ncfsg,nmod
4,29-34,Borut,PER[1],_,*->2-1,*[2],_,3,PROPN,Npmsn,nmod
5,35-40,Pahor,PER[1],_,*->2-1,*[2],_,5,PROPN,Npmsn,flat:name
6,41-43,biti,_,_,_,_,_,11,AUX,Va-r3s-n,aux
7,44-46,za,_,_,_,_,_,9,ADP,Sa,case
8,47-52,danes,_,_,_,_,_,11,ADV,Rgp,advmod
9,53-61,popoldne,_,_,_,_,_,11,ADV,Rgp,advmod
10,62-69,sklicati,_,_,_,_,_,0,VERB,Vmep-sm,root
11,70-78,sestanek,_,_,_,_,_,11,NOUN,Ncmsan,obj
12,79-80,z,_,_,_,_,_,14,ADP,Si,case
13,81-93,predstavnik,_,_,_,_,_,12,NOUN,Ncmpi,nmod
14,94-104,gradben,_,_,_,_,_,16,ADJ,Agpmsg,amod
15,105-113,sektor,_,_,_,_,_,14,NOUN,Ncmsg,nmod
16,114-115,.,_,_,_,_,_,21,PUNCT,Z,punct
17,116-118,na,_,_,_,_,_,19,ADP,Sl,case
18,119-123,on,_,_,_,_,_,21,PRON,Pp3msl,obl
19,124-128,biti,_,_,_,_,_,21,AUX,Va-f3p-n,aux
20,129-140,predstaviti,_,_,_,_,_,11,VERB,Vmep-pm,parataxis
21,141-149,aktualen,_,_,_,_,_,23,ADJ,Agpfsa,amod
22,150-162,problematika,_,_,_,_,_,21,NOUN,Ncfsa,obj
23,163-165,in,_,_,_,_,_,26,CCONJ,Cc,cc
24,166-168,se,_,_,_,_,_,26,PRON,Px---d--y,expl
25,169-178,izmenjati,_,_,_,_,_,21,VERB,Vmpp-pm,conj
26,179-185,mnenje,_,_,_,_,_,26,NOUN,Ncnpa,obj
27,186-187,o,_,_,_,_,_,30,ADP,Sl,case
28,188-194,možen,_,_,_,_,_,30,ADJ,Agpmpl,amod
29,195-202,ukrep,_,_,_,_,_,27,NOUN,Ncmpl,nmod
30,203-205,na,_,_,_,_,_,33,ADP,Sl,case
31,206-209,ta,_,_,_,_,_,33,DET,Pd-nsl,det
32,210-218,področje,_,_,_,_,_,30,NOUN,Ncnsl,nmod
33,219-220,",",_,_,_,_,_,36,PUNCT,Z,punct
34,221-223,biti,_,_,_,_,_,36,AUX,Va-r3p-n,aux
35,224-233,sporočiti,_,_,_,_,_,11,VERB,Vmep-pm,parataxis
36,234-236,iz,_,_,_,_,_,38,ADP,Sg,case
37,237-245,kabinet,_,_,_,_,_,36,NOUN,Ncmsg,obl
38,246-257,predsednik,_,_,*->2-2,*[2],_,38,NOUN,Ncmsg,nmod
39,258-263,vlada,_,_,*->2-2,*[2],_,39,NOUN,Ncfsg,nmod
40,264-265,.,_,_,_,_,_,36,PUNCT,Z,punct
41,266-268,na,_,_,_,_,_,43,ADP,Sa,case
42,269-277,sestanek,_,_,_,_,_,45,NOUN,Ncmsan,obl
43,278-280,biti,_,_,_,_,_,45,AUX,Va-r3p-n,aux
44,281-291,povabljen,_,_,_,_,_,11,ADJ,Appmsny,parataxis
45,292-300,nekdanji,_,_,*->3-1,*[3],_,47,ADJ,Agpmsny,amod
46,301-309,minister,_,_,*->3-1,*[3],_,45,NOUN,Ncmsn,nsubj
47,310-312,za,_,_,*->3-1,*[3],_,49,ADP,Sa,case
48,313-325,gospodarstvo,_,_,*->3-1,*[3],_,47,NOUN,Ncnsa,nmod
49,326-331,Matej,PER[2],_,*->3-1,*[3],_,47,PROPN,Npmsn,nmod
50,332-340,Lahovnik,PER[2],_,*->3-1,*[3],_,50,PROPN,Npmsn,flat:name
51,341-342,",",_,_,_,_,_,53,PUNCT,Z,punct
52,343-351,minister,_,0,*->4-1,*[4],3 - Nevtralno[24],47,NOUN,Ncmsn,conj
53,352-354,za,_,0,*->4-1,*[4],3 - Nevtralno[24],55,ADP,Sa,case
54,355-361,okolje,_,0,*->4-1,*[4],3 - Nevtralno[24],53,NOUN,Ncnsa,nmod
55,362-364,in,_,0,*->4-1,*[4],3 - Nevtralno[24],57,CCONJ,Cc,cc
56,365-372,prostor,_,0,*->4-1,*[4],3 - Nevtralno[24],55,NOUN,Ncmsan,conj
57,373-377,roka,PER[3],0,*->4-1,*[4],3 - Nevtralno[24],57,NOUN,Ncfsa,nmod
58,378-384,Žarnić,PER[3],0,*->4-1,*[4],3 - Nevtralno[24],58,PROPN,Npmsn,nmod
59,385-386,",",_,_,_,_,_,61,PUNCT,Z,punct
60,387-395,minister,_,0,*->5-1,*[5],3 - Nevtralno[25],59,NOUN,Ncmsn,appos
61,396-398,za,_,0,*->5-1,*[5],3 - Nevtralno[25],63,ADP,Sa,case
62,399-406,finance,_,0,*->5-1,*[5],3 - Nevtralno[25],61,NOUN,Ncfpa,nmod
63,407-412,Franc,PER[4],0,*->5-1,*[5],3 - Nevtralno[25],61,PROPN,Npmsn,nmod
64,413-421,Križanič,PER[4],0,*->5-1,*[5],3 - Nevtralno[25],64,PROPN,Npmsn,flat:name
65,422-423,",",_,_,_,_,_,67,PUNCT,Z,punct
66,424-432,minister,_,0,*->6-1,*[6],3 - Nevtralno[26],61,NOUN,Ncmsn,conj
67,433-435,za,_,0,*->6-1,*[6],3 - Nevtralno[26],69,ADP,Sa,case
68,436-442,razvoj,_,0,*->6-1,*[6],3 - Nevtralno[26],67,NOUN,Ncmsan,nmod
69,443-445,in,_,0,*->6-1,*[6],3 - Nevtralno[26],72,CCONJ,Cc,cc
70,446-454,evropski,_,0,*->6-1,*[6],3 - Nevtralno[26],72,ADJ,Agpfpa,amod
71,455-461,zadeva,_,0,*->6-1,*[6],3 - Nevtralno[26],69,NOUN,Ncfpa,conj
72,462-467,Mitja,PER[5],0,*->6-1,*[6],3 - Nevtralno[26],67,PROPN,Npmsn,nmod
73,468-474,Gaspar,PER[5],0,*->6-1,*[6],3 - Nevtralno[26],73,PROPN,Npmsn,flat:name
74,475-477,in,_,_,_,_,_,76,CCONJ,Cc,cc
75,478-486,minister,_,0,*->7-1,*[7],3 - Nevtralno[27],67,NOUN,Ncmsn,conj
76,487-489,za,_,0,*->7-1,*[7],3 - Nevtralno[27],78,ADP,Sa,case
77,490-496,promet,_,0,*->7-1,*[7],3 - Nevtralno[27],76,NOUN,Ncmsan,nmod
78,497-504,Patrick,PER[6],0,*->7-1,*[7],3 - Nevtralno[27],76,PROPN,Npmsn,nmod
79,505-511,Vlačič,PER[6],0,*->7-1,*[7],3 - Nevtralno[27],79,PROPN,Npmsn,flat:name
80,512-513,",",_,_,_,_,_,84,PUNCT,Z,punct
81,514-516,biti,_,_,_,_,_,84,AUX,Va-r3p-n,aux
82,517-519,še,_,_,_,_,_,84,PART,Q,advmod
83,520-529,pojasniti,_,_,_,_,_,11,VERB,Vmep-pm,parataxis
84,530-531,v,_,_,_,_,_,86,ADP,Sl,case
85,532-540,kabinet,_,_,_,_,_,84,NOUN,Ncmsl,obl
86,541-552,predsednik,_,_,*->2-3,*[2],_,86,NOUN,Ncmsg,nmod
87,553-558,vlada,_,_,*->2-3,*[2],_,87,NOUN,Ncfsg,nmod
88,559-560,.,_,_,_,_,_,84,PUNCT,Z,punct
89,561-562,z,_,_,_,_,_,91,ADP,Sg,case
90,563-569,stran,_,_,_,_,_,84,NOUN,Ncfsg,obl
91,570-579,bančnik,_,_,_,_,_,91,NOUN,Ncmpg,nmod
92,580-582,biti,_,_,_,_,_,98,AUX,Va-r3p-n,aux
93,583-585,na,_,_,_,_,_,95,ADP,Sa,case
94,586-594,sestanek,_,_,_,_,_,98,NOUN,Ncmsan,obl
95,595-598,med,_,_,_,_,_,97,ADP,Si,case
96,599-605,drug,_,_,_,_,_,98,ADJ,Mlpnsi,obl
97,606-614,vabljen,_,_,_,_,_,84,ADJ,Appmsny,advcl
98,615-625,predsednik,_,0,*->8-1,*[8],3 - Nevtralno[28],98,NOUN,Ncmsn,nsubj
99,626-632,uprava,_,0,*->8-1,*[8],3 - Nevtralno[28],99,NOUN,Ncfsg,nmod
100,633-636,NLB,ORG,0,*->8-1|*->9-1,*[8]|*[9],3 - Nevtralno[28]|3 - Nevtralno[29],100,PROPN,Npfsg,nmod
101,637-641,Božo,PER[7],0,*->8-1,*[8],3 - Nevtralno[28],99,PROPN,Npmsn,nmod
102,642-649,Jašovič,PER[7],0,*->8-1,*[8],3 - Nevtralno[28],102,PROPN,Npmsn,flat:name
103,650-651,",",_,_,_,_,_,106,PUNCT,Z,punct
104,652-656,prvi,_,0,*->10-1,*[10],3 - Nevtralno[30],106,ADJ,Mlomsn,amod
105,657-660,mož,_,0,*->10-1,*[10],3 - Nevtralno[30],99,NOUN,Ncmsn,conj
106,661-665,NKBM,ORG,0,*->10-1|*->11-1,*[10]|*[11],3 - Nevtralno[30]|3 - Nevtralno[31],106,PROPN,Npfsg,nmod
107,666-672,Matjaž,PER[8],0,*->10-1,*[10],3 - Nevtralno[30],106,PROPN,Npmsn,nmod
108,673-680,Kovačič,PER[8],0,*->10-1,*[10],3 - Nevtralno[30],108,PROPN,Npmsn,flat:name
109,681-683,in,_,_,_,_,_,111,CCONJ,Cc,cc
110,684-694,predsednik,_,0,*->12-1,*[12],3 - Nevtralno[32],106,NOUN,Ncmsn,conj
111,695-701,uprava,_,0,*->12-1,*[12],3 - Nevtralno[32],111,NOUN,Ncfsg,nmod
112,702-705,SID,ORG[9],0,*->12-1|*->13-1,*[12]|*[13],3 - Nevtralno[32]|3 - Nevtralno[33],114,NOUN,Ncmsn,nmod
113,706-711,banka,ORG[9],0,*->12-1|*->13-1,*[12]|*[13],3 - Nevtralno[32]|3 - Nevtralno[33],112,NOUN,Ncfsg,nmod
114,712-717,Sibil,PER[10],0,*->12-1,*[12],3 - Nevtralno[32],114,PROPN,Npmsn,nmod
115,718-724,Svilan,PER[10],0,*->12-1,*[12],3 - Nevtralno[32],115,PROPN,Npmsn,flat:name
116,725-726,.,_,_,_,_,_,98,PUNCT,Z,punct
117,727-728,z,_,_,_,_,_,119,ADP,Sg,case
118,729-735,stran,_,_,_,_,_,124,NOUN,Ncfsg,obl
119,736-746,gradbinec,_,_,_,_,_,119,NOUN,Ncmpg,nmod
120,747-749,biti,_,_,_,_,_,124,AUX,Va-r3p-n,aux
121,750-752,na,_,_,_,_,_,123,ADP,Sa,case
122,753-761,sestanek,_,_,_,_,_,124,NOUN,Ncmsan,obl
123,762-772,povabljen,_,_,_,_,_,11,ADJ,Appmsny,parataxis
124,773-777,prvi,_,0,*->14-1,*[14],3 - Nevtralno[34],126,ADJ,Mlomsn,amod
125,778-781,mož,_,0,*->14-1,*[14],3 - Nevtralno[34],124,NOUN,Ncmsn,nsubj
126,782-785,SCT,LOC,0,*->14-1|*->15-1,*[14]|*[15],3 - Nevtralno[34]|3 - Nevtralno[35],126,PROPN,Npmsn,nmod
127,786-790,Ivan,PER[11],0,*->14-1,*[14],3 - Nevtralno[34],126,PROPN,Npmsn,nmod
128,791-796,Zidar,PER[11],0,*->14-1,*[14],3 - Nevtralno[34],128,PROPN,Npmsn,flat:name
129,797-798,",",_,_,_,_,_,131,PUNCT,Z,punct
130,799-810,predsednica,_,0,*->16-1,*[16],3 - Nevtralno[36],126,NOUN,Ncfsn,conj
131,811-817,uprava,_,0,*->16-1,*[16],3 - Nevtralno[36],131,NOUN,Ncfsg,nmod
132,818-825,Vegrada,ORG,0,*->16-1|*->17-1,*[16]|*[17],3 - Nevtralno[36]|3 - Nevtralno[37],132,PROPN,Npmsg,nmod
133,826-831,Hilda,PER[12],0,*->16-1,*[16],3 - Nevtralno[36],131,PROPN,Npfsn,nmod
134,832-838,Tovšak,PER[12],0,*->16-1,*[16],3 - Nevtralno[36],134,PROPN,Npfsn,flat:name
135,839-840,",",_,_,_,_,_,137,PUNCT,Z,punct
136,841-849,direktor,_,0,*->18-1,*[18],3 - Nevtralno[38],126,NOUN,Ncmsn,conj
137,850-856,družba,_,0,*->18-1,*[18],3 - Nevtralno[38],137,NOUN,Ncfsg,nmod
138,857-865,Primorje,ORG[13],0,*->18-1|*->19-1,*[18]|*[19],3 - Nevtralno[38]|3 - Nevtralno[39],138,PROPN,Npnsn,nmod
139,866-873,holding,ORG[13],0,*->18-1|*->19-1,*[18]|*[19],3 - Nevtralno[38]|3 - Nevtralno[39],139,PROPN,Npmsn,nmod
140,874-879,Dušan,PER[14],0,*->18-1,*[18],3 - Nevtralno[38],137,PROPN,Npmsn,nmod
141,880-888,Černigoj,PER[14],0,*->18-1,*[18],3 - Nevtralno[38],141,PROPN,Npmsn,flat:name
142,889-890,.,_,_,_,_,_,137,PUNCT,Z,punct
143,891-900,udeležiti,_,_,_,_,_,124,VERB,Vmep-pm,parataxis
144,901-903,pa,_,_,_,_,_,144,CCONJ,Cc,advmod
145,904-907,naj,_,_,_,_,_,144,PART,Q,advmod
146,908-910,biti,_,_,_,_,_,144,AUX,Va-c,aux
147,911-913,se,_,_,_,_,_,144,PRON,Px------y,expl
148,914-916,on,_,_,_,_,_,144,PRON,Pp3msa--y,obj
149,917-921,tudi,_,_,_,_,_,144,PART,Q,advmod
150,922-932,predsednik,_,0,*->20-1,*[20],3 - Nevtralno[40],144,NOUN,Ncmsn,nsubj
151,933-941,zbornica,_,0,*->20-1,*[20],3 - Nevtralno[40],151,NOUN,Ncfsg,nmod
152,942-944,za,_,0,*->20-1,*[20],3 - Nevtralno[40],154,ADP,Sa,case
153,945-957,gradbeništvo,_,0,*->20-1,*[20],3 - Nevtralno[40],152,NOUN,Ncnsa,nmod
154,958-960,in,_,0,*->20-1,*[20],3 - Nevtralno[40],156,CCONJ,Cc,cc
155,961-971,industrija,_,0,*->20-1,*[20],3 - Nevtralno[40],154,NOUN,Ncfsa,conj
156,972-982,gradben,_,0,*->20-1,*[20],3 - Nevtralno[40],158,ADJ,Agpmsg,amod
157,983-992,material,_,0,*->20-1,*[20],3 - Nevtralno[40],156,NOUN,Ncmsg,nmod
158,993-996,pri,_,0,*->20-1,*[20],3 - Nevtralno[40],161,ADP,Sl,case
159,997-1008,gospodarski,ORG[15],0,*->20-1|*->21-1,*[20]|*[21],3 - Nevtralno[40]|3 - Nevtralno[41],161,ADJ,Agpfsl,amod
160,1009-1017,zbornica,ORG[15],0,*->20-1|*->21-1,*[20]|*[21],3 - Nevtralno[40]|3 - Nevtralno[41],158,NOUN,Ncfsl,nmod
161,1018-1027,Slovenija,ORG[15]|LOC[16],0,*->20-1|*->21-1|*->22-1,*[20]|*[21]|*[22],3 - Nevtralno[40]|3 - Nevtralno[41],161,PROPN,Npfsg,nmod
162,1028-1034,Branko,PER[17],0,*->20-1,*[20],3 - Nevtralno[40],151,PROPN,Npmsn,nmod
163,1035-1040,Selak,PER[17],0,*->20-1,*[20],3 - Nevtralno[40],163,PROPN,Npmsn,flat:name
164,1041-1042,",",_,_,_,_,_,166,PUNCT,Z,punct
165,1043-1056,podpredsednik,_,0,*->23-1,*[23],3 - Nevtralno[42],151,NOUN,Ncmsn,conj
166,1057-1064,sekcija,_,0,*->23-1,*[23],3 - Nevtralno[42],166,NOUN,Ncfsg,nmod
167,1065-1075,gradbinec,_,0,*->23-1,*[23],3 - Nevtralno[42],167,NOUN,Ncmpg,nmod
168,1076-1079,pri,_,0,*->23-1,*[23],3 - Nevtralno[42],173,ADP,Sl,case
169,1080-1086,obrten,ORG[18],0,*->23-1|*->24-1,*[23]|*[24],3 - Nevtralno[42]|3 - Nevtralno[43],173,ADJ,Agpnsn,amod
170,1087-1088,-,ORG[18],0,*->23-1|*->24-1,*[23]|*[24],3 - Nevtralno[42]|3 - Nevtralno[43],172,PUNCT,Z,punct
171,1089-1100,podjetniški,ORG[18],0,*->23-1|*->24-1,*[23]|*[24],3 - Nevtralno[42]|3 - Nevtralno[43],170,ADJ,Agpfsl,conj
172,1101-1109,zbornica,ORG[18],0,*->23-1|*->24-1,*[23]|*[24],3 - Nevtralno[42]|3 - Nevtralno[43],168,NOUN,Ncfsl,nmod
173,1110-1119,Slovenija,ORG[18]|LOC[19],0,*->23-1|*->24-1|*->22-2,*[23]|*[24]|*[22],3 - Nevtralno[42]|3 - Nevtralno[43]|3 - Nevtralno[44],173,PROPN,Npfsg,nmod
174,1120-1125,Franc,PER[20],0,*->23-1,*[23],3 - Nevtralno[42],151,PROPN,Npmsn,nmod
175,1126-1133,Bukovec,PER[20],0,*->23-1,*[23],3 - Nevtralno[42],175,PROPN,Npmsn,flat:name
176,1134-1135,",",_,_,_,_,_,178,PUNCT,Z,punct
177,1136-1146,predsednik,_,0,*->25-1,*[25],3 - Nevtralno[45],151,NOUN,Ncmsn,conj
178,1147-1156,združenje,ORG[21],0,*->25-1|*->26-1,*[25]|*[26],3 - Nevtralno[45]|3 - Nevtralno[46],178,NOUN,Ncnsg,nmod
179,1157-1167,izvajalec,ORG[21],0,*->25-1|*->26-1,*[25]|*[26],3 - Nevtralno[45]|3 - Nevtralno[46],179,NOUN,Ncmpg,nmod
180,1168-1178,zaključen,ORG[21],0,*->25-1|*->26-1,*[25]|*[26],3 - Nevtralno[45]|3 - Nevtralno[46],182,ADJ,Agpnpg,amod
181,1179-1182,del,ORG[21],0,*->25-1|*->26-1,*[25]|*[26],3 - Nevtralno[45]|3 - Nevtralno[46],180,NOUN,Ncnpg,nmod
182,1183-1184,v,ORG[21],0,*->25-1|*->26-1,*[25]|*[26],3 - Nevtralno[45]|3 - Nevtralno[46],184,ADP,Sl,case
183,1185-1197,gradbeništvo,ORG[21],0,*->25-1|*->26-1,*[25]|*[26],3 - Nevtralno[45]|3 - Nevtralno[46],182,NOUN,Ncnsl,nmod
184,1198-1203,Mirko,PER[22],0,*->25-1,*[25],3 - Nevtralno[45],182,PROPN,Npmsn,nmod
185,1204-1209,Požar,PER[22],0,*->25-1,*[25],3 - Nevtralno[45],185,PROPN,Npmsn,flat:name
186,1210-1212,in,_,_,_,_,_,188,CCONJ,Cc,cc
187,1213-1218,drug,_,_,_,_,_,185,ADJ,Mlpmsny,conj
188,1219-1220,.,_,_,_,_,_,178,PUNCT,Z,punct
189,1221-1229,nekdanji,_,0,*->3-2,*[3],3 - Nevtralno[47],191,ADJ,Agpmsny,amod
190,1230-1238,minister,_,0,*->3-2,*[3],3 - Nevtralno[47],199,NOUN,Ncmsn,nsubj
191,1239-1241,za,_,0,*->3-2,*[3],3 - Nevtralno[47],193,ADP,Sa,case
192,1242-1254,gospodarstvo,_,0,*->3-2,*[3],3 - Nevtralno[47],191,NOUN,Ncnsa,nmod
193,1255-1260,Matej,PER[23],0,*->3-2,*[3],3 - Nevtralno[47],191,PROPN,Npmsn,nmod
194,1261-1269,Lahovnik,PER[23],0,*->3-2,*[3],3 - Nevtralno[47],194,PROPN,Npmsn,flat:name
195,1270-1272,biti,_,_,_,_,_,199,AUX,Va-r3s-n,aux
196,1273-1281,prejšnji,_,_,_,_,_,198,ADJ,Agpmsay,amod
197,1282-1287,teden,_,_,_,_,_,199,NOUN,Ncmsan,obl
198,1288-1297,napovedati,_,_,_,_,_,11,VERB,Vmep-sm,parataxis
199,1298-1299,",",_,_,_,_,_,205,PUNCT,Z,punct
200,1300-1302,da,_,_,_,_,_,205,SCONJ,Cs,mark
201,1303-1307,biti,_,_,_,_,_,205,AUX,Va-f3p-n,aux
202,1308-1310,na,_,_,_,_,_,204,ADP,Sl,case
203,1311-1319,sestanek,_,_,_,_,_,205,NOUN,Ncmsl,obl
204,1320-1332,spregovoriti,_,_,_,_,_,199,VERB,Vmep-pm,ccomp
205,1333-1337,tudi,_,_,_,_,_,205,PART,Q,advmod
206,1338-1339,o,_,_,_,_,_,208,ADP,Sl,case
207,1340-1345,vloga,_,_,_,_,_,205,NOUN,Ncfsl,obl
208,1346-1350,banka,_,_,_,_,_,208,NOUN,Ncfpg,nmod
209,1351-1353,in,_,_,_,_,_,211,CCONJ,Cc,cc
210,1354-1362,položaj,_,_,_,_,_,208,NOUN,Ncmsl,conj
211,1363-1373,zaposlen,_,_,_,_,_,211,ADJ,Appnpg,amod
212,1374-1375,v,_,_,_,_,_,214,ADP,Sl,case
213,1376-1388,gradbeništvo,_,_,_,_,_,211,NOUN,Ncnsl,nmod
214,1389-1392,ter,_,_,_,_,_,216,CCONJ,Cc,cc
215,1393-1402,poskušati,_,_,_,_,_,205,VERB,Vmpp-pm,conj
216,1403-1413,razjasniti,_,_,_,_,_,216,VERB,Vmen,xcomp
217,1414-1415,",",_,_,_,_,_,222,PUNCT,Z,punct
218,1416-1419,kaj,_,_,_,_,_,222,PRON,Pq-nsa,obj
219,1420-1422,biti,_,_,_,_,_,222,AUX,Va-r3s-n,cop
220,1423-1429,domač,_,_,_,_,_,222,ADJ,Agpfsn,amod
221,1430-1436,naloga,_,_,_,_,_,217,NOUN,Ncfsn,ccomp
222,1437-1444,vsak,_,_,_,_,_,225,DET,Pg-msg,det
223,1445-1456,posamezen,_,_,_,_,_,225,ADJ,Agpmsg,amod
224,1457-1464,akter,_,_,_,_,_,222,NOUN,Ncmsg,nmod
225,1465-1466,.,_,_,_,_,_,11,PUNCT,Z,punct
226,1467-1474,premier,_,_,*->2-4,*[2],_,233,NOUN,Ncmsn,nsubj
227,1475-1480,Pahor,PER,_,*->2-4,*[2],_,227,PROPN,Npmsn,nmod
228,1481-1483,biti,_,_,_,_,_,233,AUX,Va-r3s-n,aux
229,1484-1485,v,_,_,_,_,_,231,ADP,Sl,case
230,1486-1493,začetek,_,_,_,_,_,233,NOUN,Ncmsl,obl
231,1494-1500,mesec,_,_,_,_,_,231,NOUN,Ncmsg,nmod
232,1501-1509,poudariti,_,_,_,_,_,222,VERB,Vmep-sm,conj
233,1510-1511,",",_,_,_,_,_,236,PUNCT,Z,punct
234,1512-1514,da,_,_,_,_,_,236,SCONJ,Cs,mark
235,1515-1519,želeti,_,_,*->2-5,*[2],_,233,VERB,Vmpr3s,ccomp
236,1520-1522,na,_,_,_,_,_,238,ADP,Sl,case
237,1523-1531,srečanje,_,_,_,_,_,239,NOUN,Ncnsl,obl
238,1532-1541,preveriti,_,_,_,_,_,236,VERB,Vmen,xcomp
239,1542-1543,",",_,_,_,_,_,244,PUNCT,Z,punct
240,1544-1547,ali,_,_,_,_,_,244,ADV,Rgp,mark
241,1548-1553,morda,_,_,_,_,_,244,PART,Q,advmod
242,1554-1562,vendarle,_,_,_,_,_,244,CCONJ,Cc,advmod
243,1563-1572,obstajati,_,_,_,_,_,239,VERB,Vmpr3p,ccomp
244,1573-1578,možen,_,_,_,_,_,246,ADJ,Agpfpg,amod
245,1579-1585,pomoč,_,_,_,_,_,244,NOUN,Ncfpa,obj
246,1586-1596,gradben,_,_,_,_,_,248,ADJ,Agpmsd,amod
247,1597-1605,sektor,_,_,_,_,_,246,NOUN,Ncmsd,nmod
248,1606-1607,",",_,_,_,_,_,255,PUNCT,Z,punct
249,1608-1610,ne,_,_,_,_,_,255,PART,Q,mark
250,1611-1613,da,_,_,_,_,_,250,SCONJ,Cs,fixed
251,1614-1616,biti,_,_,_,_,_,255,AUX,Va-c,aux
252,1617-1618,z,_,_,_,_,_,254,ADP,Si,case
253,1619-1622,ta,_,_,_,_,_,255,DET,Pd-nsi,obl
254,1623-1631,ogroziti,_,_,_,_,_,244,VERB,Vmep-pm,advcl
255,1632-1637,tržen,_,_,_,_,_,257,ADJ,Agpfsa,amod
256,1638-1648,regulacija,_,_,_,_,_,255,NOUN,Ncfsa,obj
257,1649-1653,ta,_,_,_,_,_,259,DET,Pd-msg,det
258,1654-1662,sektor,_,_,_,_,_,257,NOUN,Ncmsg,nmod
259,1663-1664,.,_,_,_,_,_,263,PUNCT,Z,punct
260,1665-1668,kot,_,_,_,_,_,263,SCONJ,Cs,mark
261,1669-1671,biti,_,0,*->2-6,*[2],3 - Nevtralno[48],263,AUX,Va-r3s-n,aux
262,1672-1682,izpostaviti,_,0,*->2-6,*[2],3 - Nevtralno[48],255,VERB,Vmep-sm,advcl
263,1683-1684,",",_,_,_,_,_,263,PUNCT,Z,punct
264,1685-1687,biti,_,_,_,_,_,272,AUX,Va-r3s-n,aux
265,1688-1700,gradbeništvo,_,_,_,_,_,272,NOUN,Ncnsn,nsubj
266,1701-1702,v,_,_,_,_,_,268,ADP,Sl,case
267,1703-1708,leto,_,_,_,_,_,272,NOUN,Ncnpl,obl
268,1709-1713,2007,_,_,_,_,_,268,NUM,Mdc,nummod
269,1714-1716,in,_,_,_,_,_,271,CCONJ,Cc,cc
270,1717-1721,2008,_,_,_,_,_,269,NUM,Mdc,conj
271,1722-1732,pregrevati,_,_,_,_,_,263,VERB,Vmpp-sn,conj
272,1733-1744,gospodarski,_,_,_,_,_,274,ADJ,Agpfsa,amod
273,1745-1749,rast,_,_,_,_,_,272,NOUN,Ncfsa,obj
274,1750-1751,",",_,_,_,_,_,272,PUNCT,Z,punct
275,1752-1756,zdaj,_,_,_,_,_,278,ADV,Rgp,advmod
276,1757-1759,pa,_,_,_,_,_,278,CCONJ,Cc,advmod
277,1760-1768,zamrzevati,_,_,_,_,_,272,VERB,Vmpr3s,advcl
278,1769-1780,gospodarski,_,_,_,_,_,280,ADJ,Agpnsn,amod
279,1781-1790,okrevanje,_,_,_,_,_,278,NOUN,Ncnsn,nsubj
