idx,chars_idx,token,entity_type,sentiment,idk_1,idk_2,orig_sentiment,heads,upos,xpos,deprel
0,0-8,ameriški,ORG[1],_,*->10-1,*[10],_,3,ADJ,Agpfsn,amod
1,9-18,centralen,ORG[1],_,*->10-1,*[10],_,3,ADJ,Agpfsn,amod
2,19-24,banka,ORG[1],_,*->10-1,*[10],_,5,NOUN,Ncfsn,root
3,25-27,biti,_,_,_,_,_,5,AUX,Va-r3s-n,aux
4,28-35,znižati,_,_,_,_,_,0,VERB,Vmep-sf,root
5,36-44,obresten,_,_,_,_,_,7,ADJ,Agpfsa,amod
6,45-49,mera,_,_,_,_,_,5,NOUN,Ncfsa,obj
7,50-51,.,_,_,_,_,_,14,PUNCT,Z,punct
8,52-54,na,_,_,_,_,_,11,ADP,Sl,case
9,55-64,evropski,_,_,_,_,_,11,ADJ,Agpfpl,amod
10,65-71,borza,_,_,_,_,_,20,NOUN,Ncfpl,obl
11,72-74,pa,_,_,_,_,_,14,CCONJ,Cc,advmod
12,75-77,biti,_,_,_,_,_,14,AUX,Va-r3p-n,aux
13,78-83,imeti,_,_,_,_,_,5,VERB,Vmpp-pm,root
14,84-91,uspešen,_,_,_,_,_,16,ADJ,Agpmsan,amod
15,92-95,dan,_,_,_,_,_,14,NOUN,Ncmsan,obl
16,96-97,.,_,_,_,_,_,20,PUNCT,Z,punct
17,98-105,najbolj,_,_,_,_,_,20,ADV,Rgs,advmod
18,106-108,se,_,_,_,_,_,20,PRON,Px------y,expl
19,109-117,veseliti,_,_,_,_,_,5,VERB,Vmpr3p,parataxis
20,118-119,v,_,_,_,_,_,22,ADP,Sl,case
21,120-130,Budimpešta,LOC,_,*->1-1,*[1],_,20,PROPN,Npfsl,obl
22,131-132,",",_,_,_,_,_,28,PUNCT,Z,punct
23,133-137,kjer,_,_,_,_,_,28,SCONJ,Cs,mark
24,138-140,biti,_,_,_,_,_,28,AUX,Va-r3s-n,aux
25,141-147,borzen,_,_,_,_,_,27,ADJ,Agpmsny,amod
26,148-154,indeks,_,_,_,_,_,28,NOUN,Ncmsn,nsubj
27,155-163,poskočiti,_,_,_,_,_,22,VERB,Vmep-sm,acl
28,164-166,za,_,_,_,_,_,32,ADP,Sa,case
29,167-170,kar,_,_,_,_,_,31,ADV,Rgp,advmod
30,171-173,14,_,_,_,_,_,32,NUM,Mdc,nummod
31,174-183,odstotek,_,_,_,_,_,28,NOUN,Ncmpg,obl
32,184-185,.,_,_,_,_,_,28,PUNCT,Z,punct
33,186-191,odbor,_,0,*->9-1,*[9],3 - Nevtralno[6],56,NOUN,Ncmsn,nsubj
34,192-194,za,_,0,*->9-1,*[9],3 - Nevtralno[6],37,ADP,Sa,case
35,195-201,odprt,_,0,*->9-1,*[9],3 - Nevtralno[6],37,ADJ,Appmsay,amod
36,202-205,trg,_,0,*->9-1,*[9],3 - Nevtralno[6],34,NOUN,Ncmsan,nmod
37,206-214,ameriški,_,0,*->9-1|*->10-2,*[9]|*[10],3 - Nevtralno[6],40,ADJ,Agpfsg,amod
38,215-224,centralen,_,0,*->9-1|*->10-2,*[9]|*[10],3 - Nevtralno[6],40,ADJ,Agpfsg,amod
39,225-230,banka,_,0,*->9-1|*->10-2,*[9]|*[10],3 - Nevtralno[6],37,NOUN,Ncfsg,nmod
40,231-238,zvezen,ORG[2],0,*->9-1,*[9],3 - Nevtralno[6],42,ADJ,Agpfpg,amod
41,239-245,rezerva,ORG[2],0,*->9-1,*[9],3 - Nevtralno[6],40,NOUN,Ncfpg,nmod
42,246-250,fomc,ORG[2],0,*->9-1,*[9],3 - Nevtralno[6],28,PUNCT,Z,punct
43,251-253,biti,_,_,_,_,_,56,AUX,Va-r3s-n,aux
44,254-256,po,_,_,_,_,_,47,ADP,Sl,case
45,257-267,dvodneven,_,_,_,_,_,47,ADJ,Agpnsl,amod
46,268-277,zasedanje,_,_,_,_,_,56,NOUN,Ncnsl,obl
47,278-279,v,_,_,_,_,_,49,ADP,Sa,case
48,280-285,sreda,_,_,_,_,_,56,NOUN,Ncfsa,obl
49,286-287,v,_,_,_,_,_,51,ADP,Sl,case
50,288-294,sklad,_,_,_,_,_,56,NOUN,Ncmsl,obl
51,295-296,z,_,_,_,_,_,53,ADP,Si,case
52,297-306,napoved,_,_,_,_,_,51,NOUN,Ncfpi,nmod
53,307-309,in,_,_,_,_,_,55,CCONJ,Cc,cc
54,310-322,pričakovanje,_,_,_,_,_,53,NOUN,Ncnpi,conj
55,323-329,znižati,_,_,_,_,_,5,VERB,Vmep-sm,parataxis
56,330-337,ključen,_,_,_,_,_,59,ADJ,Agpfsa,amod
57,338-346,obresten,_,_,_,_,_,59,ADJ,Agpfsa,amod
58,347-351,mera,_,_,_,_,_,56,NOUN,Ncfsa,obj
59,352-353,",",_,_,_,_,_,69,PUNCT,Z,punct
60,354-356,po,_,_,_,_,_,62,ADP,Sl,case
61,357-363,kateri,_,_,_,_,_,69,DET,Pq-fsl,obl
62,364-366,se,_,_,_,_,_,69,PRON,Px---d--y,expl
63,367-372,banka,_,_,_,_,_,69,NOUN,Ncfpn,nsubj
64,373-376,med,_,_,_,_,_,66,ADP,Si,case
65,377-382,se,_,_,_,_,_,69,PRON,Px---i,obl
66,383-386,čez,_,_,_,_,_,68,ADP,Sa,case
67,387-390,noč,_,_,_,_,_,69,NOUN,Ncfsa,obl
68,391-399,posojati,_,_,_,_,_,59,VERB,Vmpr3p,acl
69,400-405,denar,_,_,_,_,_,69,NOUN,Ncmsan,obj
70,406-408,za,_,_,_,_,_,73,ADP,Sa,case
71,409-413,"0,50",_,_,_,_,_,73,NUM,Mdc,nummod
72,414-422,odstotek,_,_,_,_,_,70,NOUN,Ncmsg,nmod
73,423-425,na,_,_,_,_,_,75,ADP,Sa,case
74,426-434,odstotek,_,_,_,_,_,73,NOUN,Ncmsan,nmod
75,435-436,",",_,_,_,_,_,79,PUNCT,Z,punct
76,437-440,kar,_,_,_,_,_,79,PRON,Pr-nsn,nsubj
77,441-443,biti,_,_,_,_,_,79,AUX,Va-r3s-n,cop
78,444-452,nizko,_,_,_,_,_,75,ADJ,Agsfsn,acl
79,453-455,od,_,_,_,_,_,81,ADP,Sg,case
80,456-462,junij,_,_,_,_,_,79,NOUN,Ncmsg,nmod
81,463-467,2004,_,_,_,_,_,81,NUM,Mdc,nummod
82,468-469,.,_,_,_,_,_,79,PUNCT,Z,punct
83,470-474,prav,_,_,_,_,_,85,PART,Q,advmod
84,475-480,nizek,_,_,_,_,_,87,ADJ,Agpfpn,amod
85,481-489,obresten,_,_,_,_,_,87,ADJ,Agpfpn,amod
86,490-494,mera,_,_,_,_,_,95,NOUN,Ncfpn,nsubj
87,495-497,biti,_,_,_,_,_,95,AUX,Va-r3p-n,aux
88,498-499,v,_,_,_,_,_,90,ADP,Sl,case
89,500-503,ZDA,LOC,0,*->2-1,*[2],3 - Nevtralno,95,PROPN,Npfpl,obl
90,504-508,leto,_,_,_,_,_,95,NOUN,Ncnsg,obl
91,509-513,2003,_,_,_,_,_,91,NUM,Mdc,nummod
92,514-516,in,_,_,_,_,_,94,CCONJ,Cc,cc
93,517-521,2004,_,_,_,_,_,92,NUM,Mdc,conj
94,522-530,sprožiti,_,_,_,_,_,79,VERB,Vmep-pf,csubj
95,531-541,eksplozija,_,_,_,_,_,95,NOUN,Ncfsa,obj
96,542-544,na,_,_,_,_,_,98,ADP,Sl,case
97,545-549,trg,_,_,_,_,_,96,NOUN,Ncmsl,nmod
98,550-559,stanovanje,_,_,_,_,_,98,NOUN,Ncnpg,nmod
99,560-562,in,_,_,_,_,_,101,CCONJ,Cc,cc
100,563-566,hiša,_,_,_,_,_,99,NOUN,Ncfpg,conj
101,567-568,",",_,_,_,_,_,105,PUNCT,Z,punct
102,569-571,ki,_,_,_,_,_,105,SCONJ,Cs,mark
103,572-574,biti,_,_,_,_,_,105,AUX,Va-r3s-n,cop
104,575-584,odgovoren,_,_,_,_,_,101,ADJ,Agpfsn,acl
105,585-587,za,_,_,_,_,_,109,ADP,Sa,case
106,588-595,sedanji,_,_,_,_,_,109,ADJ,Agpfsa,amod
107,596-604,finančen,_,_,_,_,_,109,ADJ,Agpfsa,amod
108,605-610,kriza,_,_,_,_,_,105,NOUN,Ncfsa,obl
109,611-612,",",_,_,_,_,_,117,PUNCT,Z,punct
110,613-619,vendar,_,_,_,_,_,117,CCONJ,Cc,cc
111,620-622,pa,_,_,_,_,_,117,CCONJ,Cc,advmod
112,623-625,biti,_,_,_,_,_,117,AUX,Va-r3s-n,aux
113,626-630,biti,_,_,_,_,_,117,AUX,Va-p-sn,cop
114,631-639,znižanje,_,_,_,_,_,117,NOUN,Ncnsn,nsubj
115,640-647,obresti,_,_,_,_,_,115,NOUN,Ncfsg,nmod
116,648-656,potreben,_,_,_,_,_,105,ADJ,Agpnsn,conj
117,657-663,zaradi,_,_,_,_,_,121,ADP,Sg,case
118,664-675,pričakovan,_,_,_,_,_,121,ADJ,Appfsg,amod
119,676-687,gospodarski,_,_,_,_,_,121,ADJ,Agpfsg,amod
120,688-696,recesija,_,_,_,_,_,117,NOUN,Ncfsg,obl
121,697-698,.,_,_,_,_,_,117,PUNCT,Z,punct
122,699-706,podatek,_,_,_,_,_,132,NOUN,Ncmpn,nsubj
123,707-708,o,_,_,_,_,_,126,ADP,Sl,case
124,709-720,gospodarski,_,_,_,_,_,126,ADJ,Agpfsl,amod
125,721-726,rast,_,_,_,_,_,123,NOUN,Ncfsl,nmod
126,727-728,v,_,_,_,_,_,129,ADP,Sl,case
127,729-736,tretji,_,_,_,_,_,129,ADJ,Mlonsl,amod
128,737-747,četrtletje,_,_,_,_,_,126,NOUN,Ncnsl,nmod
129,748-753,letos,_,_,_,_,_,132,ADV,Rgp,advmod
130,754-758,biti,_,_,_,_,_,132,AUX,Va-f3p-n,cop
131,759-764,znan,_,_,_,_,_,5,ADJ,Appmpn,parataxis
132,765-766,v,_,_,_,_,_,134,ADP,Sa,case
133,767-774,četrtek,_,_,_,_,_,132,NOUN,Ncmsan,obl
134,775-776,.,_,_,_,_,_,132,PUNCT,Z,punct
135,777-786,spodbuden,_,_,_,_,_,132,ADJ,Agpnsn,nsubj
136,787-795,popoldne,_,_,_,_,_,140,ADV,Rgp,advmod
137,796-798,na,_,_,_,_,_,140,ADP,Sl,case
138,799-808,evropski,_,_,_,_,_,140,ADJ,Agpfpl,amod
139,809-815,borza,_,_,_,_,_,136,NOUN,Ncfpl,nmod
140,816-821,tečaj,_,_,_,_,_,140,NOUN,Ncmsn,nmod
141,822-826,evro,_,_,_,_,_,141,NOUN,Ncmsg,nmod
142,827-832,glede,_,_,_,_,_,145,ADV,Rgp,advmod
143,833-835,na,_,_,_,_,_,145,ADP,Sa,case
144,836-841,dolar,_,_,_,_,_,140,NOUN,Ncmsan,nmod
145,842-844,se,_,_,_,_,_,148,PRON,Px------y,expl
146,845-847,biti,_,_,_,_,_,148,AUX,Va-r3s-n,aux
147,848-854,zvišati,_,_,_,_,_,132,VERB,Vmep-sm,root
148,855-856,z,_,_,_,_,_,152,ADP,Sg,case
149,857-865,torkov,_,_,_,_,_,152,ADJ,Aspmpg,amod
150,866-872,"1,2526",_,_,_,_,_,152,NUM,Mdc,nummod
151,873-880,dolar,_,_,_,_,_,148,NOUN,Ncmsg,obl
152,881-883,na,_,_,_,_,_,155,ADP,Sa,case
153,884-890,"1,2770",_,_,_,_,_,155,NUM,Mdc,nummod
154,891-898,dolar,_,_,_,_,_,152,NOUN,Ncmsg,nmod
155,899-908,trgovanje,_,_,_,_,_,160,NOUN,Ncnsn,nsubj
156,909-911,na,_,_,_,_,_,159,ADP,Sl,case
157,912-921,evropski,_,_,_,_,_,159,ADJ,Agpfpl,amod
158,922-928,borza,_,_,_,_,_,160,NOUN,Ncfpl,obl
159,929-935,potekati,_,_,_,_,_,148,VERB,Vmpr3s,conj
160,936-937,v,_,_,_,_,_,162,ADP,Sl,case
161,938-946,znamenje,_,_,_,_,_,160,NOUN,Ncnsl,obl
162,947-952,rast,_,_,_,_,_,162,NOUN,Ncfsg,nmod
163,953-960,tečaj,_,_,_,_,_,163,NOUN,Ncmpg,nmod
164,961-962,.,_,_,_,_,_,160,PUNCT,Z,punct
165,963-965,na,_,_,_,_,_,168,ADP,Sl,case
166,966-975,londonski,_,_,_,_,_,168,ADJ,Agpfsl,amod
167,976-981,borz,_,_,_,_,_,178,NOUN,Ncfsl,obl
168,982-984,se,_,_,_,_,_,178,PRON,Px------y,expl
169,985-987,biti,_,_,_,_,_,178,AUX,Va-r3s-n,aux
170,988-994,indeks,_,_,_,_,_,178,NOUN,Ncmsn,nsubj
171,995-999,ftse,_,_,_,_,_,173,ADP,Sg,case
172,1000-1003,100,_,_,_,_,_,175,NUM,Mdc,nummod
173,1004-1009,okoli,_,_,_,_,_,175,ADV,Rgp,advmod
174,1010-1012,17,_,_,_,_,_,177,NUM,Mdc,nummod
175,1013-1014,.,_,_,_,_,_,175,PUNCT,Z,punct
176,1015-1018,ura,_,_,_,_,_,178,NOUN,Ncfsg,obl
177,1019-1025,zvišati,_,_,_,_,_,5,VERB,Vmep-sm,parataxis
178,1026-1028,za,_,_,_,_,_,181,ADP,Sa,case
179,1029-1033,"6,68",_,_,_,_,_,181,NUM,Mdc,nummod
180,1034-1042,odstotek,_,_,_,_,_,178,NOUN,Ncmsg,obl
181,1043-1044,",",_,_,_,_,_,185,PUNCT,Z,punct
182,1045-1047,na,_,_,_,_,_,185,ADP,Sa,case
183,1048-1055,"4188,78",_,_,_,_,_,185,NUM,Mdc,nummod
184,1056-1061,točka,_,_,_,_,_,181,NOUN,Ncfsg,appos
185,1062-1063,",",_,_,_,_,_,185,PUNCT,Z,punct
186,1064-1071,pariški,_,_,_,_,_,188,ADJ,Agpmsny,amod
187,1072-1075,cac,_,_,_,_,_,192,NOUN,Ncmsn,nsubj
188,1076-1078,40,_,_,_,_,_,188,NUM,Mdc,nummod
189,1079-1081,se,_,_,_,_,_,192,PRON,Px------y,expl
190,1082-1084,biti,_,_,_,_,_,192,AUX,Va-r3s-n,aux
191,1085-1091,zvišati,_,_,_,_,_,178,VERB,Vmep-sm,parataxis
192,1092-1094,za,_,_,_,_,_,195,ADP,Sa,case
193,1095-1099,"8,07",_,_,_,_,_,195,NUM,Mdc,nummod
194,1100-1108,odstotek,_,_,_,_,_,192,NOUN,Ncmsg,obl
195,1109-1110,",",_,_,_,_,_,199,PUNCT,Z,punct
196,1111-1113,na,_,_,_,_,_,199,ADP,Sa,case
197,1114-1121,"3366,22",_,_,_,_,_,199,NUM,Mdc,nummod
198,1122-1127,točka,_,_,_,_,_,195,NOUN,Ncfsg,appos
199,1128-1129,",",_,_,_,_,_,201,PUNCT,Z,punct
200,1130-1136,indeks,_,_,_,_,_,199,NOUN,Ncmsn,conj
201,1137-1140,DAX,_,_,_,_,_,201,PROPN,Npmsn,nmod
202,1141-1143,na,_,_,_,_,_,205,ADP,Sl,case
203,1144-1156,frankfurtski,_,_,_,_,_,205,ADJ,Agpfsl,amod
204,1157-1162,borz,_,_,_,_,_,201,NOUN,Ncfsl,nmod
205,1163-1165,za,_,_,_,_,_,208,ADP,Sa,case
206,1166-1170,"0,09",_,_,_,_,_,208,NUM,Mdc,nummod
207,1171-1179,odstotek,_,_,_,_,_,205,NOUN,Ncmsg,nmod
208,1180-1181,",",_,_,_,_,_,214,PUNCT,Z,punct
209,1182-1184,na,_,_,_,_,_,212,ADP,Sa,case
210,1185-1192,"4827,60",_,_,_,_,_,212,NUM,Mdc,nummod
211,1193-1198,točka,_,_,_,_,_,208,NOUN,Ncfsg,appos
212,1199-1200,",",_,_,_,_,_,212,PUNCT,Z,punct
213,1201-1204,ATX,_,_,_,_,_,212,NOUN,Ncmsn,nmod
214,1205-1207,na,_,_,_,_,_,217,ADP,Sl,case
215,1208-1216,dunajski,_,_,_,_,_,217,ADJ,Agpfsl,amod
216,1217-1222,borz,_,_,_,_,_,212,NOUN,Ncfsl,conj
217,1223-1225,za,_,_,_,_,_,220,ADP,Sa,case
218,1226-1230,"6,70",_,_,_,_,_,220,NUM,Mdc,nummod
219,1231-1239,odstotek,_,_,_,_,_,217,NOUN,Ncmsg,nmod
220,1240-1241,",",_,_,_,_,_,212,PUNCT,Z,punct
221,1242-1244,na,_,_,_,_,_,224,ADP,Sa,case
222,1245-1252,"1850,79",_,_,_,_,_,224,NUM,Mdc,nummod
223,1253-1258,točka,_,_,_,_,_,220,NOUN,Ncfsg,appos
224,1259-1260,",",_,_,_,_,_,224,PUNCT,Z,punct
225,1261-1267,indeks,_,_,_,_,_,224,NOUN,Ncmsn,conj
226,1268-1274,Mibtel,_,_,_,_,_,226,PROPN,Npmsn,nmod
227,1275-1277,na,_,_,_,_,_,230,ADP,Sl,case
228,1278-1286,milanski,_,_,_,_,_,230,ADJ,Agpfsl,amod
229,1287-1292,borz,_,_,_,_,_,227,NOUN,Ncfsl,nmod
230,1293-1295,pa,_,_,_,_,_,234,CCONJ,Cc,cc
231,1296-1298,za,_,_,_,_,_,234,ADP,Sa,case
232,1299-1303,"7,56",_,_,_,_,_,234,NUM,Mdc,nummod
233,1304-1312,odstotek,_,_,_,_,_,227,NOUN,Ncmsg,appos
234,1313-1314,",",_,_,_,_,_,238,PUNCT,Z,punct
235,1315-1317,na,_,_,_,_,_,238,ADP,Sa,case
236,1318-1324,15.739,_,_,_,_,_,238,NUM,Mdc,nummod
237,1325-1329,točka,_,_,_,_,_,234,NOUN,Ncfpg,appos
238,1330-1331,.,_,_,_,_,_,234,PUNCT,Z,punct
239,1332-1338,tečaj,_,_,_,_,_,234,NOUN,Ncmpn,conj
240,1339-1341,na,_,_,_,_,_,242,ADP,Sl,case
241,1342-1347,borz,_,_,_,_,_,240,NOUN,Ncfsl,nmod
242,1348-1349,v,_,_,_,_,_,244,ADP,Sl,case
243,1350-1360,Budimpešta,LOC,1,*->1-2,*[1],4 - Pozitivno,242,PROPN,Npfsl,nmod
244,1361-1363,biti,_,_,_,_,_,246,AUX,Va-r3p-n,aux
245,1364-1373,poskočiti,_,_,_,_,_,5,VERB,Vmep-pm,parataxis
246,1374-1379,potem,_,_,_,_,_,246,ADV,Rgp,mark
247,1380-1381,",",_,_,_,_,_,247,PUNCT,Z,punct
248,1382-1384,ko,_,_,_,_,_,247,SCONJ,Cs,fixed
249,1385-1387,biti,_,_,_,_,_,265,AUX,Va-r3p-n,aux
250,1388-1398,mednaroden,ORG[3],1,*->3-1,*[3],4 - Pozitivno[7],253,ADJ,Agpmsny,amod
251,1399-1406,denaren,ORG[3],1,*->3-1,*[3],4 - Pozitivno[7],253,ADJ,Agpmsny,amod
252,1407-1412,sklad,ORG[3],1,*->3-1,*[3],4 - Pozitivno[7],265,NOUN,Ncmsn,nsubj
253,1413-1416,IMF,ORG[3],1,*->3-1,*[3],4 - Pozitivno[7],253,PROPN,Npmsn,nmod
254,1417-1418,",",_,_,_,_,_,257,PUNCT,Z,punct
255,1419-1427,svetoven,ORG[4],1,*->4-1,*[4],4 - Pozitivno[8],257,ADJ,Agpfsn,amod
256,1428-1433,banka,ORG[4],1,*->4-1,*[4],4 - Pozitivno[8],253,NOUN,Ncfsn,conj
257,1434-1436,in,_,_,_,_,_,261,CCONJ,Cc,cc
258,1437-1439,EU,ORG,1,*->5-1,*[5],4 - Pozitivno,257,PROPN,Npfsn,conj
259,1440-1442,za,_,_,_,_,_,261,ADP,Sa,case
260,1443-1448,pomoč,_,_,_,_,_,257,NOUN,Ncfsa,nmod
261,1449-1460,madžarski,_,_,_,_,_,264,ADJ,Agpmsd,amod
262,1461-1471,finančen,_,_,_,_,_,264,ADJ,Agpmsd,amod
263,1472-1479,sistem,_,_,_,_,_,265,NOUN,Ncmsd,obj
264,1480-1488,nameniti,_,_,_,_,_,246,VERB,Vmep-pf,advcl
265,1489-1493,"25,1",_,_,_,_,_,267,NUM,Mdc,nummod
266,1494-1503,milijarda,_,_,_,_,_,265,NOUN,Ncfsg,obj
267,1504-1512,dolar,_,_,_,_,_,267,NOUN,Ncmpg,nmod
268,1513-1519,pomoč,_,_,_,_,_,268,NOUN,Ncfsg,nmod
269,1520-1521,.,_,_,_,_,_,265,PUNCT,Z,punct
270,1522-1528,indeks,_,_,_,_,_,276,NOUN,Ncmsn,nsubj
271,1529-1532,BUX,_,_,_,_,_,271,PROPN,Npmsg,nmod
272,1533-1535,biti,_,_,_,_,_,276,AUX,Va-r3s-n,aux
273,1536-1544,današnji,_,_,_,_,_,275,ADJ,Agpnsa,amod
274,1545-1554,trgovanje,_,_,_,_,_,276,NOUN,Ncnsa,obj
275,1555-1562,skleniti,_,_,_,_,_,5,VERB,Vmep-sm,parataxis
276,1563-1566,pri,_,_,_,_,_,279,ADP,Sl,case
277,1567-1576,"13.399,05",_,_,_,_,_,279,NUM,Mdc,nummod
278,1577-1582,točka,_,_,_,_,_,276,NOUN,Ncfsg,obl
279,1583-1584,",",_,_,_,_,_,307,PUNCT,Z,punct
280,1585-1588,kar,_,_,_,_,_,288,PRON,Pr-nsn,nmod
281,1589-1591,biti,_,_,_,_,_,288,AUX,Va-r3s-n,aux
282,1592-1597,"14,09",_,_,_,_,_,284,NUM,Mdc,nummod
283,1598-1606,odstotek,_,_,_,_,_,285,NOUN,Ncmsg,nmod
284,1607-1610,več,_,_,_,_,_,288,DET,Rgc,advmod
285,1611-1614,kot,_,_,_,_,_,285,SCONJ,Cs,fixed
286,1615-1616,v,_,_,_,_,_,288,ADP,Sa,case
287,1617-1622,torek,_,_,_,_,_,276,NOUN,Ncmsan,obl
288,1623-1624,.,_,_,_,_,_,276,PUNCT,Z,punct
289,1625-1631,Nikkei,_,_,_,_,_,307,PROPN,Npmsn,nsubj
290,1632-1636,prek,_,_,_,_,_,293,ADP,Sg,case
291,1637-1644,magičen,_,_,_,_,_,293,ADJ,Agpfsg,amod
292,1645-1649,meja,_,_,_,_,_,288,NOUN,Ncfsg,nmod
293,1650-1654,8000,_,_,_,_,_,295,NUM,Mdc,nummod
294,1655-1659,točka,_,_,_,_,_,293,NOUN,Ncfpg,nmod
295,1660-1672,industrijski,_,_,_,_,_,297,ADJ,Agpmsny,amod
296,1673-1679,indeks,_,_,_,_,_,290,NOUN,Ncmsn,nmod
297,1680-1683,Dow,_,_,_,_,_,297,PROPN,Npmsn,nmod
298,1684-1689,Jones,_,_,_,_,_,298,PROPN,Npmsn,flat:name
299,1690-1692,biti,_,_,_,_,_,307,AUX,Va-r3s-n,aux
300,1693-1698,prvič,_,_,_,_,_,307,ADV,Rgp,advmod
301,1699-1701,po,_,_,_,_,_,303,ADP,Sl,case
302,1702-1707,teden,_,_,_,_,_,307,NOUN,Ncmsl,obl
303,1708-1711,dan,_,_,_,_,_,303,NOUN,Ncmpg,nmod
304,1712-1721,trgovanje,_,_,_,_,_,307,NOUN,Ncnsa,obj
305,1722-1726,spet,_,_,_,_,_,307,ADV,Rgp,advmod
306,1727-1733,končati,_,_,_,_,_,288,VERB,Vmep-sm,acl
307,1734-1737,nad,_,_,_,_,_,310,ADP,Si,case
308,1738-1742,9000,_,_,_,_,_,310,NUM,Mdc,nummod
309,1743-1750,točka,_,_,_,_,_,307,NOUN,Ncfpi,obl
310,1751-1752,.,_,_,_,_,_,307,PUNCT,Z,punct
311,1753-1759,tečaj,_,_,_,_,_,276,NOUN,Ncmpi,obj
312,1760-1762,na,_,_,_,_,_,316,ADP,Sl,case
313,1763-1771,velik,_,_,_,_,_,316,ADJ,Agsfsl,amod
314,1772-1780,ameriški,_,_,_,_,_,316,ADJ,Agpfsl,amod
315,1781-1786,borz,_,_,_,_,_,307,NOUN,Ncfsl,obl
316,1787-1788,v,_,_,_,_,_,319,ADP,Sl,case
317,1789-1792,New,LOC[5],0,*->6-1,*[6],3 - Nevtralno[9],319,PROPN,Npmsn,nmod
318,1793-1798,York,LOC[5],0,*->6-1,*[6],3 - Nevtralno[9],316,PROPN,Npmsl,nmod
319,1799-1801,biti,_,_,_,_,_,385,AUX,Va-r3p-n,aux
320,1802-1804,na,_,_,_,_,_,322,ADP,Sl,case
321,1805-1812,začetek,_,_,_,_,_,312,NOUN,Ncmsl,nmod
322,1813-1823,današnji,_,_,_,_,_,324,ADJ,Agpnsg,amod
323,1824-1833,trgovanje,_,_,_,_,_,322,NOUN,Ncnsg,nmod
324,1834-1836,na,_,_,_,_,_,327,ADP,Sl,case
325,1837-1845,torkov,_,_,_,_,_,327,ADJ,Aspfpl,amod
326,1846-1852,raven,_,_,_,_,_,324,NOUN,Ncfpl,nmod
327,1853-1854,",",_,_,_,_,_,307,PUNCT,Z,punct
328,1855-1861,indeks,_,_,_,_,_,312,NOUN,Ncmsn,conj
329,1862-1865,Dow,_,_,_,_,_,329,PROPN,Npmsn,nmod
330,1866-1871,Jones,_,_,_,_,_,330,PROPN,Npmsn,flat:name
331,1872-1874,biti,_,_,_,_,_,385,AUX,Va-r3s-n,aux
332,1875-1878,biti,_,_,_,_,_,385,AUX,Va-p-sm,cop
333,1879-1882,pri,_,_,_,_,_,336,ADP,Sl,case
334,1883-1890,"9067,03",_,_,_,_,_,336,NUM,Mdc,nummod
335,1891-1896,točka,_,_,_,_,_,307,NOUN,Ncfsg,obl
336,1897-1898,",",_,_,_,_,_,339,PUNCT,Z,punct
337,1899-1902,kar,_,_,_,_,_,339,PRON,Pr-nsn,nsubj
338,1903-1905,biti,_,_,_,_,_,336,VERB,Va-r3s-n,acl
339,1906-1910,"0,02",_,_,_,_,_,341,NUM,Mdc,nummod
340,1911-1919,odstotek,_,_,_,_,_,342,NOUN,Ncmsg,nmod
341,1920-1923,več,_,_,_,_,_,345,DET,Rgc,advmod
342,1924-1927,kot,_,_,_,_,_,342,SCONJ,Cs,fixed
343,1928-1929,v,_,_,_,_,_,345,ADP,Sa,case
344,1930-1935,torek,_,_,_,_,_,339,NOUN,Ncmsan,obl
345,1936-1937,",",_,_,_,_,_,352,PUNCT,Z,punct
346,1938-1944,indeks,_,_,_,_,_,352,NOUN,Ncmsn,nsubj
347,1945-1951,Nasdaq,_,_,_,_,_,347,PROPN,Npmsn,nmod
348,1952-1954,pa,_,_,_,_,_,352,CCONJ,Cc,advmod
349,1955-1957,se,_,_,_,_,_,352,PRON,Px------y,expl
350,1958-1960,biti,_,_,_,_,_,352,AUX,Va-r3s-n,aux
351,1961-1967,znižati,_,_,_,_,_,5,VERB,Vmep-sm,parataxis
352,1968-1970,za,_,_,_,_,_,355,ADP,Sa,case
353,1971-1975,"0,12",_,_,_,_,_,355,NUM,Mdc,nummod
354,1976-1984,odstotek,_,_,_,_,_,352,NOUN,Ncmsg,obl
355,1985-1986,",",_,_,_,_,_,359,PUNCT,Z,punct
356,1987-1989,na,_,_,_,_,_,359,ADP,Sa,case
357,1990-1997,"1647,52",_,_,_,_,_,359,NUM,Mdc,nummod
358,1998-2003,točka,_,_,_,_,_,355,NOUN,Ncfsg,appos
359,2004-2005,.,_,_,_,_,_,359,PUNCT,Z,punct
360,2006-2008,po,_,_,_,_,_,363,ADP,Sl,case
361,2009-2016,torkov,_,_,_,_,_,363,ADJ,Aspfsl,amod
362,2017-2022,rast,_,_,_,_,_,370,NOUN,Ncfsl,obl
363,2023-2025,na,_,_,_,_,_,366,ADP,Sl,case
364,2026-2035,ameriški,_,_,_,_,_,366,ADJ,Agpfpl,amod
365,2036-2042,borza,_,_,_,_,_,363,NOUN,Ncfpl,nmod
366,2043-2045,biti,_,_,_,_,_,370,AUX,Va-r3p-n,aux
367,2046-2048,se,_,_,_,_,_,370,PRON,Px------y,expl
368,2049-2054,danes,_,_,_,_,_,370,ADV,Rgp,advmod
369,2055-2062,zvišati,_,_,_,_,_,5,VERB,Vmep-pm,parataxis
370,2063-2067,tudi,_,_,_,_,_,370,PART,Q,advmod
371,2068-2074,tečaj,_,_,_,_,_,370,NOUN,Ncmpn,nsubj
372,2075-2081,delnica,_,_,_,_,_,372,NOUN,Ncfpg,nmod
373,2082-2084,na,_,_,_,_,_,377,ADP,Sl,case
374,2085-2092,vodilen,_,_,_,_,_,377,ADJ,Agpfsl,amod
375,2093-2100,azijski,_,_,_,_,_,377,ADJ,Agpfsl,amod
376,2101-2106,borz,_,_,_,_,_,373,NOUN,Ncfsl,nmod
377,2107-2108,v,_,_,_,_,_,379,ADP,Sl,case
378,2109-2114,Tokio,LOC,0,*->7-1,*[7],3 - Nevtralno,377,PROPN,Npmsl,nmod
379,2115-2116,.,_,_,_,_,_,359,PUNCT,Z,punct
380,2117-2123,indeks,_,_,_,_,_,385,NOUN,Ncmsn,nsubj
381,2124-2130,Nikkei,_,_,_,_,_,381,PROPN,Npmsn,nmod
382,2131-2133,biti,_,_,_,_,_,385,AUX,Va-r3s-n,aux
383,2134-2140,vnovič,_,_,_,_,_,385,ADV,Rgp,advmod
384,2141-2148,porasel,_,_,_,_,_,5,ADJ,Appmsnn,parataxis
385,2149-2153,prek,_,_,_,_,_,389,ADP,Sg,case
386,2154-2164,psihološki,_,_,_,_,_,388,ADV,Rgp,advmod
387,2165-2173,pomemben,_,_,_,_,_,389,ADJ,Agpfsg,amod
388,2174-2178,meja,_,_,_,_,_,385,NOUN,Ncfsg,obl
389,2179-2183,8000,_,_,_,_,_,391,NUM,Mdc,nummod
390,2184-2188,točka,_,_,_,_,_,389,NOUN,Ncfpg,nmod
391,2189-2190,",",_,_,_,_,_,385,PUNCT,Z,punct
392,2191-2193,ob,_,_,_,_,_,394,ADP,Sl,case
393,2194-2199,konec,_,_,_,_,_,398,NOUN,Ncmsl,obl
394,2200-2209,trgovanje,_,_,_,_,_,394,NOUN,Ncnsg,nmod
395,2210-2212,se,_,_,_,_,_,398,PRON,Px------y,expl
396,2213-2215,biti,_,_,_,_,_,398,AUX,Va-r3s-n,aux
397,2216-2225,oblikovati,_,_,_,_,_,385,VERB,Vmpp-sm,parataxis
398,2226-2229,pri,_,_,_,_,_,401,ADP,Sl,case
399,2230-2237,"8211,90",_,_,_,_,_,401,NUM,Mdc,nummod
400,2238-2243,točka,_,_,_,_,_,398,NOUN,Ncfsg,obl
401,2244-2245,",",_,_,_,_,_,404,PUNCT,Z,punct
402,2246-2249,kar,_,_,_,_,_,404,PRON,Pr-nsn,nsubj
403,2250-2252,biti,_,_,_,_,_,401,VERB,Va-r3s-n,acl
404,2253-2259,"589,98",_,_,_,_,_,406,NUM,Mdc,nummod
405,2260-2265,točka,_,_,_,_,_,404,NOUN,Ncfsg,obl
406,2266-2273,oziroma,_,_,_,_,_,408,CCONJ,Cc,cc
407,2274-2278,"7,74",_,_,_,_,_,409,NUM,Mdc,nummod
408,2279-2287,odstotek,_,_,_,_,_,406,NOUN,Ncmsg,nmod
409,2288-2291,več,_,_,_,_,_,413,DET,Rgc,advmod
410,2292-2295,kot,_,_,_,_,_,410,SCONJ,Cs,fixed
411,2296-2297,v,_,_,_,_,_,413,ADP,Sa,case
412,2298-2303,torek,_,_,_,_,_,409,NOUN,Ncmsan,nmod
413,2304-2305,.,_,_,_,_,_,404,PUNCT,Z,punct
414,2306-2310,tudi,_,_,_,_,_,425,PART,Q,advmod
415,2311-2316,nafta,_,_,_,_,_,413,NOUN,Ncfsn,nmod
416,2317-2324,navzgor,_,_,_,_,_,416,ADV,Rgp,advmod
417,2325-2327,ob,_,_,_,_,_,419,ADP,Sl,case
418,2328-2333,rast,_,_,_,_,_,416,NOUN,Ncfsl,nmod
419,2334-2336,na,_,_,_,_,_,421,ADP,Sl,case
420,2337-2343,borza,_,_,_,_,_,419,NOUN,Ncfpl,nmod
421,2344-2346,se,_,_,_,_,_,425,PRON,Px------y,expl
422,2347-2349,biti,_,_,_,_,_,425,AUX,Va-r3s-n,aux
423,2350-2358,popoldne,_,_,_,_,_,425,ADV,Rgp,advmod
424,2359-2366,zvišati,_,_,_,_,_,413,VERB,Vmep-sf,acl
425,2367-2371,tudi,_,_,_,_,_,425,PART,Q,advmod
426,2372-2376,cena,_,_,_,_,_,425,NOUN,Ncfsn,nsubj
427,2377-2382,nafta,_,_,_,_,_,427,NOUN,Ncfsg,nmod
428,2383-2384,.,_,_,_,_,_,425,PUNCT,Z,punct
429,2385-2400,zahodnoteksaški,_,_,_,_,_,432,ADJ,Agpfsn,amod
430,2401-2406,lahek,_,_,_,_,_,432,ADJ,Agpfsn,amod
431,2407-2412,nafta,_,_,_,_,_,425,NOUN,Ncfsn,nsubj
432,2413-2415,za,_,_,_,_,_,434,ADP,Sa,case
433,2416-2422,dobava,_,_,_,_,_,432,NOUN,Ncfsa,nmod
434,2423-2424,v,_,_,_,_,_,436,ADP,Sl,case
435,2425-2433,december,_,_,_,_,_,434,NOUN,Ncmsl,nmod
436,2434-2436,se,_,_,_,_,_,442,PRON,Px------y,expl
437,2437-2439,biti,_,_,_,_,_,442,AUX,Va-r3s-n,aux
438,2440-2442,na,_,_,_,_,_,441,ADP,Sl,case
439,2443-2452,newyorški,_,_,_,_,_,441,ADJ,Agpfsl,amod
440,2453-2458,borz,_,_,_,_,_,442,NOUN,Ncfsl,obl
441,2459-2468,podražiti,_,_,_,_,_,425,VERB,Vmep-sf,conj
442,2469-2471,za,_,_,_,_,_,445,ADP,Sa,case
443,2472-2476,"5,56",_,_,_,_,_,445,NUM,Mdc,nummod
444,2477-2484,dolar,_,_,_,_,_,442,NOUN,Ncmsg,obl
445,2485-2486,",",_,_,_,_,_,449,PUNCT,Z,punct
446,2487-2489,na,_,_,_,_,_,449,ADP,Sa,case
447,2490-2495,"68,29",_,_,_,_,_,449,NUM,Mdc,nummod
448,2496-2503,dolar,_,_,_,_,_,445,NOUN,Ncmsg,appos
449,2504-2506,za,_,_,_,_,_,454,ADP,Sa,case
450,2507-2510,159,_,_,_,_,_,453,NUM,Mdc,nummod
451,2511-2512,-,_,_,_,_,_,453,PUNCT,Z,punct
452,2513-2520,litrski,_,_,_,_,_,454,ADJ,Agpmsay,amod
453,2521-2524,sod,_,_,_,_,_,449,NOUN,Ncmsan,nmod
454,2525-2526,.,_,_,_,_,_,442,PUNCT,Z,punct
455,2527-2529,ta,_,_,_,_,_,457,DET,Pd-fsn,det
456,2530-2535,nafta,_,_,_,_,_,461,NOUN,Ncfsn,nsubj
457,2536-2538,biti,_,_,_,_,_,461,AUX,Va-r3s-n,aux
458,2539-2546,torkov,_,_,_,_,_,460,ADJ,Aspnsa,amod
459,2547-2556,trgovanje,_,_,_,_,_,461,NOUN,Ncnsa,obj
460,2557-2565,skleniti,_,_,_,_,_,442,VERB,Vmep-sf,conj
461,2566-2569,pri,_,_,_,_,_,464,ADP,Sl,case
462,2570-2575,"62,73",_,_,_,_,_,464,NUM,Mdc,nummod
463,2576-2583,dolar,_,_,_,_,_,461,NOUN,Ncmsg,obl
464,2584-2585,",",_,_,_,_,_,470,PUNCT,Z,punct
465,2586-2589,kar,_,_,_,_,_,470,PRON,Pr-nsn,nsubj
466,2590-2592,biti,_,_,_,_,_,470,AUX,Va-r3s-n,cop
467,2593-2601,nizek,_,_,_,_,_,470,ADJ,Agsfsn,amod
468,2602-2611,zaključen,_,_,_,_,_,470,ADJ,Agpfsn,amod
469,2612-2616,cena,_,_,_,_,_,464,NOUN,Ncfsn,acl
470,2617-2619,od,_,_,_,_,_,472,ADP,Sg,case
471,2620-2624,maj,_,_,_,_,_,470,NOUN,Ncmsg,nmod
472,2625-2629,lani,_,_,_,_,_,472,ADV,Rgp,advmod
473,2630-2631,.,_,_,_,_,_,461,PUNCT,Z,punct
474,2632-2645,severnomorski,_,_,_,_,_,476,ADJ,Agpfsn,amod
475,2646-2651,nafta,_,_,_,_,_,470,NOUN,Ncfsn,nsubj
476,2652-2657,brent,_,_,_,_,_,476,PROPN,Npmsn,nmod
477,2658-2659,",",_,_,_,_,_,481,PUNCT,Z,punct
478,2660-2662,ki,_,_,_,_,_,481,SCONJ,Cs,mark
479,2663-2665,biti,_,_,_,_,_,481,AUX,Va-f3s-n,cop
480,2666-2676,dobavljen,_,_,_,_,_,476,ADJ,Appfsn,acl
481,2677-2678,v,_,_,_,_,_,483,ADP,Sl,case
482,2679-2687,december,_,_,_,_,_,481,NOUN,Ncmsl,obl
483,2688-2689,",",_,_,_,_,_,481,PUNCT,Z,punct
484,2690-2692,se,_,_,_,_,_,491,PRON,Px------y,expl
485,2693-2695,biti,_,_,_,_,_,491,AUX,Va-r3s-n,aux
486,2696-2701,danes,_,_,_,_,_,491,ADV,Rgp,advmod
487,2702-2704,na,_,_,_,_,_,490,ADP,Sl,case
488,2705-2714,londonski,_,_,_,_,_,490,ADJ,Agpfsl,amod
489,2715-2720,borz,_,_,_,_,_,491,NOUN,Ncfsl,obl
490,2721-2730,podražiti,_,_,_,_,_,461,VERB,Vmep-sf,conj
491,2731-2733,za,_,_,_,_,_,494,ADP,Sa,case
492,2734-2738,"3,59",_,_,_,_,_,494,NUM,Mdc,nummod
493,2739-2746,dolar,_,_,_,_,_,491,NOUN,Ncmsg,obl
494,2747-2748,",",_,_,_,_,_,498,PUNCT,Z,punct
495,2749-2751,na,_,_,_,_,_,498,ADP,Sa,case
496,2752-2757,"63,88",_,_,_,_,_,498,NUM,Mdc,nummod
497,2758-2765,dolar,_,_,_,_,_,494,NOUN,Ncmsg,appos
498,2766-2767,.,_,_,_,_,_,491,PUNCT,Z,punct
499,2768-2769,v,_,_,_,_,_,501,ADP,Sa,case
500,2770-2775,torek,_,_,_,_,_,504,NOUN,Ncmsan,obl
501,2776-2778,biti,_,_,_,_,_,504,AUX,Va-r3p-n,aux
502,2779-2781,se,_,_,_,_,_,504,PRON,Px---d--y,expl
503,2782-2791,oddahniti,_,_,_,_,_,491,VERB,Vmep-pm,advcl
504,2792-2793,v,_,_,_,_,_,506,ADP,Sa,case
505,2794-2799,torek,_,_,_,_,_,509,NOUN,Ncmsan,obl
506,2800-2802,biti,_,_,_,_,_,509,AUX,Va-r3p-n,aux
507,2803-2805,se,_,_,_,_,_,509,PRON,Px------y,expl
508,2806-2813,zvišati,_,_,_,_,_,504,VERB,Vmep-pf,conj
509,2814-2823,vrednost,_,_,_,_,_,509,NOUN,Ncfpn,nsubj
510,2824-2833,praktično,_,_,_,_,_,512,ADV,Rgp,advmod
511,2834-2838,ves,_,_,_,_,_,516,DET,Pg-mpg,det
512,2839-2851,pomemben,_,_,_,_,_,516,ADJ,Agcmpg,amod
513,2852-2861,ameriški,_,_,_,_,_,516,ADJ,Agpmpg,amod
514,2862-2869,borzen,_,_,_,_,_,516,ADJ,Agpmpg,amod
515,2870-2878,indeks,_,_,_,_,_,510,NOUN,Ncmpg,nmod
516,2879-2880,.,_,_,_,_,_,509,PUNCT,Z,punct
517,2881-2893,industrijski,_,_,_,_,_,519,ADJ,Agpmsny,amod
518,2894-2900,indeks,_,_,_,_,_,529,NOUN,Ncmsn,nsubj
519,2901-2904,Dow,_,_,_,_,_,519,PROPN,Npmsn,nmod
520,2905-2910,Jones,_,_,_,_,_,520,PROPN,Npmsn,flat:name
521,2911-2913,biti,_,_,_,_,_,529,AUX,Va-r3s-n,aux
522,2914-2919,prvič,_,_,_,_,_,529,ADV,Rgp,advmod
523,2920-2922,po,_,_,_,_,_,525,ADP,Sl,case
524,2923-2928,teden,_,_,_,_,_,529,NOUN,Ncmsl,obl
525,2929-2932,dan,_,_,_,_,_,525,NOUN,Ncmpg,nmod
526,2933-2942,trgovanje,_,_,_,_,_,529,NOUN,Ncnsa,obj
527,2943-2947,spet,_,_,_,_,_,529,ADV,Rgp,advmod
528,2948-2954,končati,_,_,_,_,_,509,VERB,Vmep-sm,conj
529,2955-2958,nad,_,_,_,_,_,532,ADP,Si,case
530,2959-2963,9000,_,_,_,_,_,532,NUM,Mdc,nummod
531,2964-2971,točka,_,_,_,_,_,529,NOUN,Ncfpi,obl
532,2972-2973,.,_,_,_,_,_,529,PUNCT,Z,punct
533,2974-2980,zvišati,_,_,_,_,_,529,VERB,Vmep-sm,parataxis
534,2981-2983,se,_,_,_,_,_,534,PRON,Px------y,expl
535,2984-2986,biti,_,_,_,_,_,534,AUX,Va-r3s-n,aux
536,2987-2989,za,_,_,_,_,_,539,ADP,Sa,case
537,2990-2996,"889,35",_,_,_,_,_,539,NUM,Mdc,nummod
538,2997-3002,točka,_,_,_,_,_,534,NOUN,Ncfsg,obl
539,3003-3010,oziroma,_,_,_,_,_,542,CCONJ,Cc,cc
540,3011-3015,"10,8",_,_,_,_,_,542,NUM,Mdc,nummod
541,3016-3024,odstotek,_,_,_,_,_,539,NOUN,Ncmsg,conj
542,3025-3026,.,_,_,_,_,_,529,PUNCT,Z,punct
543,3027-3037,tehnološki,_,_,_,_,_,545,ADJ,Agpmsny,amod
544,3038-3044,indeks,_,_,_,_,_,548,NOUN,Ncmsn,nsubj
545,3045-3051,Nasdaq,_,_,_,_,_,545,PROPN,Npmsn,nmod
546,3052-3054,biti,_,_,_,_,_,548,AUX,Va-r3s-n,cop
547,3055-3062,porasel,_,_,_,_,_,529,ADJ,Appmsnn,conj
548,3063-3065,za,_,_,_,_,_,551,ADP,Sa,case
549,3066-3072,"143,57",_,_,_,_,_,551,NUM,Mdc,nummod
550,3073-3078,točka,_,_,_,_,_,548,NOUN,Ncfsg,obl
551,3079-3086,oziroma,_,_,_,_,_,554,CCONJ,Cc,cc
552,3087-3091,"9,53",_,_,_,_,_,554,NUM,Mdc,nummod
553,3092-3100,odstotek,_,_,_,_,_,551,NOUN,Ncmsg,conj
554,3101-3102,",",_,_,_,_,_,558,PUNCT,Z,punct
555,3103-3105,na,_,_,_,_,_,558,ADP,Sa,case
556,3106-3113,"1649,47",_,_,_,_,_,558,NUM,Mdc,nummod
557,3114-3119,točka,_,_,_,_,_,551,NOUN,Ncfsg,appos
558,3120-3121,.,_,_,_,_,_,548,PUNCT,Z,punct
559,3122-3129,delnica,_,_,_,_,_,567,NOUN,Ncfpn,nsubj
560,3130-3140,svetoven,_,1,*->8-1,*[8],4 - Pozitivno[10],562,ADJ,Agpmsg,amod
561,3141-3153,proizvajalec,_,1,*->8-1,*[8],4 - Pozitivno[10],560,NOUN,Ncmsg,nmod
562,3154-3159,letalo,_,1,*->8-1,*[8],4 - Pozitivno[10],562,NOUN,Ncnpg,nmod
563,3160-3166,Boeing,ORG,1,*->8-1,*[8],4 - Pozitivno[10],563,PROPN,Npmsn,nmod
564,3167-3169,biti,_,_,_,_,_,567,AUX,Va-r3p-n,aux
565,3170-3172,se,_,_,_,_,_,567,PRON,Px------y,expl
566,3173-3181,dvigniti,_,_,_,_,_,558,VERB,Vmep-pf,acl
567,3182-3184,za,_,_,_,_,_,570,ADP,Sa,case
568,3185-3187,15,_,_,_,_,_,570,NUM,Mdc,nummod
569,3188-3197,odstotek,_,_,_,_,_,567,NOUN,Ncmpg,obl
570,3198-3199,",",_,_,_,_,_,578,PUNCT,Z,punct
571,3200-3205,potem,_,_,_,_,_,578,ADV,Rgp,mark
572,3206-3208,ko,_,_,_,_,_,572,SCONJ,Cs,fixed
573,3209-3211,biti,_,_,_,_,_,578,AUX,Va-r3p-n,aux
574,3212-3221,sindikat,_,_,_,_,_,578,NOUN,Ncmpn,nsubj
575,3222-3223,z,_,_,_,_,_,577,ADP,Si,case
576,3224-3235,delodajalec,_,_,_,_,_,578,NOUN,Ncmpi,obl
577,3236-3243,doseči,_,_,_,_,_,567,VERB,Vmep-pm,advcl
578,3244-3251,dogovor,_,_,_,_,_,578,NOUN,Ncmsan,obj
579,3252-3253,o,_,_,_,_,_,581,ADP,Sl,case
580,3254-3264,prenehanje,_,_,_,_,_,579,NOUN,Ncnsl,nmod
581,3265-3271,stavka,_,_,_,_,_,581,NOUN,Ncfsg,nmod
582,3272-3273,.,_,_,_,_,_,567,PUNCT,Z,punct
583,3274-3276,po,_,_,_,_,_,585,ADP,Sl,case
584,3277-3283,mnenje,_,_,_,_,_,592,NOUN,Ncnsl,obl
585,3284-3291,borzen,_,_,_,_,_,587,ADJ,Agpmpg,amod
586,3292-3302,analitik,_,_,_,_,_,585,NOUN,Ncmpg,nmod
587,3303-3305,biti,_,_,_,_,_,592,AUX,Va-r3s-n,aux
588,3306-3308,na,_,_,_,_,_,590,ADP,Sa,case
589,3309-3314,nakup,_,_,_,_,_,592,NOUN,Ncmsan,obl
590,3315-3321,delnica,_,_,_,_,_,590,NOUN,Ncfpg,nmod
591,3322-3330,vplivati,_,_,_,_,_,567,VERB,Vmpp-sn,conj
592,3331-3339,predvsem,_,_,_,_,_,592,PART,Q,advmod
593,3340-3352,pričakovanje,_,_,_,_,_,592,NOUN,Ncnsa,obj
594,3353-3364,vlagatelj,_,_,_,_,_,594,NOUN,Ncmpg,nmod
595,3365-3366,",",_,_,_,_,_,602,PUNCT,Z,punct
596,3367-3369,da,_,_,_,_,_,602,SCONJ,Cs,mark
597,3370-3372,biti,_,_,_,_,_,602,AUX,Va-f3s-n,aux
598,3373-3381,ameriški,_,1,*->10-3,*[10],4 - Pozitivno[11],601,ADJ,Agpfsn,amod
599,3382-3391,centralen,_,1,*->10-3,*[10],4 - Pozitivno[11],601,ADJ,Agpfsn,amod
600,3392-3397,banka,_,1,*->10-3,*[10],4 - Pozitivno[11],602,NOUN,Ncfsn,nsubj
601,3398-3405,znižati,_,_,_,_,_,594,VERB,Vmep-sf,acl
602,3406-3413,ključen,_,_,_,_,_,605,ADJ,Agpfsa,amod
603,3414-3422,obresten,_,_,_,_,_,605,ADJ,Agpfsa,amod
604,3423-3427,mera,_,_,_,_,_,602,NOUN,Ncfsa,obj
605,3428-3429,",",_,_,_,_,_,612,PUNCT,Z,punct
606,3430-3433,kar,_,_,_,_,_,612,PRON,Pr-nsn,nsubj
607,3434-3436,se,_,_,_,_,_,612,PRON,Px------y,expl
608,3437-3439,biti,_,_,_,_,_,612,AUX,Va-r3s-n,aux
609,3440-3445,danes,_,_,_,_,_,612,ADV,Rgp,advmod
610,3446-3450,tudi,_,_,_,_,_,612,PART,Q,advmod
611,3451-3458,zgoditi,_,_,_,_,_,605,VERB,Vmep-sn,acl
