idx,chars_idx,token,entity_type,sentiment,idk_1,idk_2,orig_sentiment,heads,upos,xpos,deprel
0,0-7,Maribor,LOC,_,*->1-1,*[1],_,14,PROPN,Npmsn,parataxis
1,8-9,-,_,_,_,_,_,1,PUNCT,Z,punct
2,10-14,svet,_,_,_,_,_,14,NOUN,Ncmsn,nsubj
3,15-30,univerziteten,ORG[1],_,*->11-1,*[11],_,6,ADJ,Agpmsg,amod
4,31-41,kliničen,ORG[1],_,*->11-1,*[11],_,6,ADJ,Agpmsg,amod
5,42-48,center,ORG[1],_,*->11-1,*[11],_,3,NOUN,Ncmsg,nmod
6,49-50,(,ORG[1],_,*->11-1,*[11],_,8,PUNCT,Z,punct
7,51-54,UKC,ORG[1],_,*->11-1,*[11],_,6,PROPN,Npmsn,appos
8,55-56,),ORG[1],_,*->11-1,*[11],_,8,PUNCT,Z,punct
9,57-64,Maribor,ORG[1]|LOC[2],_,*->11-1|*->1-2,*[11]|*[1],_,8,PROPN,Npmsn,nmod
10,65-67,se,_,_,_,_,_,14,PRON,Px------y,expl
11,68-70,biti,_,_,_,_,_,14,AUX,Va-r3s-n,aux
12,71-76,danes,_,_,_,_,_,14,ADV,Rgp,advmod
13,77-85,seznaniti,_,_,_,_,_,0,VERB,Vmep-sm,root
14,86-87,z,_,_,_,_,_,16,ADP,Si,case
15,88-97,poročilo,_,_,_,_,_,14,NOUN,Ncnsi,obl
16,98-99,o,_,_,_,_,_,18,ADP,Sl,case
17,100-110,poslovanje,_,_,_,_,_,16,NOUN,Ncnsl,nmod
18,111-117,center,_,_,_,_,_,18,NOUN,Ncmsg,nmod
19,118-119,v,_,_,_,_,_,23,ADP,Sl,case
20,120-125,prvi,_,_,_,_,_,23,ADJ,Mlompl,amod
21,126-133,devet,_,_,_,_,_,23,NUM,Mlc-pl,nummod
22,134-141,mesec,_,_,_,_,_,18,NOUN,Ncmpl,nmod
23,142-147,letos,_,_,_,_,_,23,ADV,Rgp,advmod
24,148-149,",",_,_,_,_,_,29,PUNCT,Z,punct
25,150-152,ko,_,_,_,_,_,29,SCONJ,Cs,mark
26,153-155,biti,_,_,_,_,_,29,AUX,Va-r3s-n,aux
27,156-159,UKC,ORG,_,*->11-2,*[11],_,29,PROPN,Npmsn,nsubj
28,160-167,beležiti,_,_,_,_,_,38,VERB,Vmpp-sm,advcl
29,168-175,880.000,_,_,_,_,_,31,NUM,Mdc,nummod
30,176-181,evro,_,_,_,_,_,29,NOUN,Ncmpg,obj
31,182-188,izguba,_,_,_,_,_,31,NOUN,Ncfsg,nmod
32,189-190,.,_,_,_,_,_,29,PUNCT,Z,punct
33,191-196,velik,_,_,_,_,_,35,ADJ,Agpmsan,amod
34,197-200,del,_,_,_,_,_,38,NOUN,Ncmsnn,nsubj
35,201-209,razprava,_,_,_,_,_,35,NOUN,Ncfsg,nmod
36,210-212,biti,_,_,_,_,_,38,AUX,Va-r3p-n,aux
37,213-221,nameniti,_,_,_,_,_,14,VERB,Vmep-pm,parataxis
38,222-233,varčevalen,_,_,_,_,_,40,ADJ,Agpmpd,amod
39,234-241,ukrep,_,_,_,_,_,38,NOUN,Ncmpd,obj
40,242-243,v,_,_,_,_,_,42,ADP,Sl,case
41,244-249,leto,_,_,_,_,_,40,NOUN,Ncnpl,nmod
42,250-254,2011,_,_,_,_,_,42,NUM,Mdc,nummod
43,255-257,in,_,_,_,_,_,45,CCONJ,Cc,cc
44,258-262,2012,_,_,_,_,_,43,NUM,Mdc,conj
45,263-264,.,_,_,_,_,_,38,PUNCT,Z,punct
46,265-267,od,_,_,_,_,_,48,ADP,Sg,case
47,268-275,vodstvo,_,_,_,_,_,51,NOUN,Ncnsg,obl
48,276-279,UKC,ORG,_,*->11-3,*[11],_,48,PROPN,Npmsg,nmod
49,280-284,svet,_,_,_,_,_,51,NOUN,Ncmsn,vocative
50,285-292,zahtevati,_,_,_,_,_,38,VERB,Vmbr3s,root
51,293-294,",",_,_,_,_,_,54,PUNCT,Z,punct
52,295-298,naj,_,_,_,_,_,54,SCONJ,Cs,mark
53,299-307,pripraviti,_,_,*->11-4,*[11],_,51,VERB,Vmer3s,ccomp
54,308-316,podroben,_,_,_,_,_,57,ADJ,Agpmsay,amod
55,317-327,varčevalen,_,_,_,_,_,57,ADJ,Agpmsay,amod
56,328-333,načrt,_,_,_,_,_,54,NOUN,Ncmsan,obj
57,334-336,za,_,_,_,_,_,60,ADP,Sa,case
58,337-346,prihodnji,_,_,_,_,_,60,ADJ,Agpnsa,amod
59,347-351,leto,_,_,_,_,_,57,NOUN,Ncnsa,nmod
60,352-353,.,_,_,_,_,_,54,PUNCT,Z,punct
61,354-357,UKC,ORG[3],_,*->11-5,*[11],_,65,PROPN,Npmsn,nsubj
62,358-365,Maribor,ORG[3]|LOC[4],_,*->11-5|*->1-3,*[11]|*[1],_,62,PROPN,Npmsn,nmod
63,366-368,biti,_,_,_,_,_,65,AUX,Va-r3s-n,aux
64,369-373,imeti,_,_,_,_,_,14,VERB,Vmpp-sm,parataxis
65,374-375,v,_,_,_,_,_,69,ADP,Sl,case
66,376-381,prvi,_,_,_,_,_,69,ADJ,Mlompl,amod
67,382-389,devet,_,_,_,_,_,69,NUM,Mlc-pl,nummod
68,390-397,mesec,_,_,_,_,_,65,NOUN,Ncmpl,obl
69,398-403,letos,_,_,_,_,_,72,ADV,Rgp,advmod
70,404-409,"129,8",_,_,_,_,_,72,NUM,Mdc,nummod
71,410-418,milijon,_,_,_,_,_,65,NOUN,Ncmsg,obl
72,419-424,evro,_,_,_,_,_,72,NOUN,Ncmpg,nmod
73,425-434,prihodek,_,_,_,_,_,73,NOUN,Ncmpg,nmod
74,435-437,in,_,_,_,_,_,77,CCONJ,Cc,cc
75,438-443,"130,7",_,_,_,_,_,77,NUM,Mdc,nummod
76,444-452,milijon,_,_,_,_,_,72,NOUN,Ncmsg,conj
77,453-458,evro,_,_,_,_,_,77,NOUN,Ncmpg,nmod
78,459-467,odhodek,_,_,_,_,_,78,NOUN,Ncmpg,nmod
79,468-469,.,_,_,_,_,_,65,PUNCT,Z,punct
80,470-478,rezultat,_,_,_,_,_,84,NOUN,Ncmsn,nsubj
81,479-481,biti,_,_,_,_,_,84,AUX,Va-r3s-n,cop
82,482-486,tako,_,_,_,_,_,84,ADV,Rgp,advmod
83,487-496,negativen,_,_,_,_,_,65,ADJ,Agpmsnn,conj
84,497-498,",",_,_,_,_,_,91,PUNCT,Z,punct
85,499-504,kljub,_,_,_,_,_,87,ADP,Sd,case
86,505-509,ta,_,_,_,_,_,91,DET,Pd-nsd,obl
87,510-512,pa,_,_,_,_,_,91,CCONJ,Cc,advmod
88,513-515,biti,_,_,_,_,_,91,AUX,Va-r3s-n,aux
89,516-525,relativno,_,_,_,_,_,91,ADV,Rgp,advmod
90,526-532,majhen,_,_,_,_,_,84,ADJ,Agcmsny,advcl
91,533-534,v,_,_,_,_,_,93,ADP,Sl,case
92,535-545,primerjava,_,_,_,_,_,91,NOUN,Ncfsl,obl
93,546-547,z,_,_,_,_,_,96,ADP,Si,case
94,548-558,negativen,_,_,_,_,_,96,ADJ,Agpmsi,amod
95,559-569,rezultat,_,_,_,_,_,93,NOUN,Ncmsi,nmod
96,570-571,v,_,_,_,_,_,100,ADP,Sl,case
97,572-581,letošnji,_,_,_,_,_,100,ADJ,Agpnsl,amod
98,582-587,prvi,_,_,_,_,_,100,ADJ,Mlonsl,amod
99,588-596,polletje,_,_,_,_,_,96,NOUN,Ncnsl,nmod
100,597-598,",",_,_,_,_,_,104,PUNCT,Z,punct
101,599-601,biti,_,_,_,_,_,104,AUX,Va-r3s-n,aux
102,602-607,danes,_,_,_,_,_,104,ADV,Rgp,advmod
103,608-617,poudariti,_,_,_,_,_,91,VERB,Vmep-sn,parataxis
104,618-625,vodstvo,_,_,_,_,_,104,NOUN,Ncnsn,nsubj
105,626-629,UKC,ORG[5],_,*->11-6,*[11],_,105,PROPN,Npfsg,nmod
106,630-637,Maribor,ORG[5]|LOC[6],_,*->11-6|*->1-4,*[11]|*[1],_,106,PROPN,Npmsn,nmod
107,638-639,.,_,_,_,_,_,104,PUNCT,Z,punct
108,640-648,trenutno,_,_,_,_,_,111,ADV,Rgp,advmod
109,649-655,center,_,_,*->11-7,*[11],_,111,NOUN,Ncmsn,nsubj
110,656-663,poslovati,_,_,_,_,_,104,VERB,Vmpr3s,conj
111,664-672,stabilen,_,_,_,_,_,111,ADJ,Agpnsn,obj
112,673-674,",",_,_,_,_,_,111,PUNCT,Z,punct
113,675-678,saj,_,_,_,_,_,118,CCONJ,Cc,cc
114,679-681,se,_,_,_,_,_,118,PRON,Px------y,expl
115,682-688,izguba,_,_,_,_,_,118,NOUN,Ncfsn,nsubj
116,689-691,biti,_,_,_,_,_,118,AUX,Va-r3s-y,aux
117,692-698,večati,_,_,_,_,_,111,VERB,Vmpp-sf,conj
118,699-700,",",_,_,_,_,_,121,PUNCT,Z,punct
119,701-703,biti,_,_,_,_,_,121,AUX,Va-r3s-n,aux
120,704-709,dejati,_,_,_,_,_,14,VERB,Vmep-sm,parataxis
121,710-718,direktor,_,_,*->2-1,*[2],_,121,NOUN,Ncmsn,nsubj
122,719-722,UKC,ORG[7],_,*->2-1|*->11-8,*[2]|*[11],_,122,PROPN,Npmsg,nmod
123,723-730,Maribor,ORG[7]|LOC[8],_,*->2-1|*->11-8|*->1-5,*[2]|*[11]|*[1],_,123,PROPN,Npmsn,nmod
124,731-737,Gregor,PER[9],_,*->2-1,*[2],_,122,PROPN,Npmsn,nmod
125,738-743,Pivec,PER[9],_,*->2-1,*[2],_,125,PROPN,Npmsn,flat:name
126,744-745,.,_,_,_,_,_,118,PUNCT,Z,punct
127,746-752,kakšen,_,_,_,_,_,130,DET,Pq-nsn,nsubj
128,753-755,biti,_,_,_,_,_,130,AUX,Va-f3s-n,cop
129,756-766,poslovanje,_,_,_,_,_,122,NOUN,Ncnsn,appos
130,767-777,kliničen,_,_,*->11-9,*[11],_,132,ADJ,Agpmsg,amod
131,778-784,center,_,_,*->11-9,*[11],_,130,NOUN,Ncmsg,nmod
132,785-790,konec,_,_,_,_,_,134,ADP,Sg,case
133,791-795,leto,_,_,_,_,_,132,NOUN,Ncnsg,nmod
134,796-797,",",_,_,_,_,_,130,PUNCT,Z,punct
135,798-800,biti,_,_,_,_,_,141,AUX,Va-r3s-n,cop
136,801-803,po,_,_,_,_,_,138,ADP,Sl,case
137,804-811,beseda,_,_,_,_,_,142,NOUN,Ncfpl,obl
138,812-819,vodstvo,_,_,_,_,_,138,NOUN,Ncnsg,nmod
139,820-826,center,_,_,_,_,_,139,NOUN,Ncmsg,nmod
140,827-832,težek,_,_,_,_,_,130,ADJ,Agpnsn,amod
141,833-843,napovedati,_,_,_,_,_,141,VERB,Vmen,csubj
142,844-845,.,_,_,_,_,_,141,PUNCT,Z,punct
143,846-848,ob,_,_,_,_,_,145,ADP,Sl,case
144,849-852,ta,_,_,_,_,_,146,DET,Pd-nsl,obl
145,853-861,navajati,_,_,*->11-10,*[11],_,141,VERB,Vmpr3p,csubj
146,862-863,",",_,_,_,_,_,158,PUNCT,Z,punct
147,864-866,da,_,_,_,_,_,158,SCONJ,Cs,mark
148,867-869,se,_,_,_,_,_,158,PRON,Px------y,expl
149,870-874,biti,_,_,_,_,_,158,AUX,Va-f3p-n,aux
150,875-881,pogoj,_,_,_,_,_,158,NOUN,Ncmpn,nsubj
151,882-892,poslovanje,_,_,_,_,_,151,NOUN,Ncnsg,nmod
152,893-896,UKC,ORG[10],_,*->11-11,*[11],_,152,PROPN,Npfsg,nmod
153,897-904,Maribor,ORG[10]|LOC[11],_,*->11-11|*->1-6,*[11]|*[1],_,152,PROPN,Npmsn,nmod
154,905-906,v,_,_,_,_,_,156,ADP,Sa,case
155,907-916,prihodnji,_,_,_,_,_,158,ADJ,Agpnsa,obl
156,917-919,še,_,_,_,_,_,158,PART,Q,advmod
157,920-932,poslabševati,_,_,_,_,_,146,VERB,Vmpp-pm,ccomp
158,933-934,",",_,_,_,_,_,158,PUNCT,Z,punct
159,935-938,saj,_,_,_,_,_,162,CCONJ,Cc,cc
160,939-943,biti,_,_,_,_,_,162,AUX,Va-f3p-n,aux
161,944-956,uveljavljen,_,_,_,_,_,158,ADJ,Appmpn,conj
162,957-959,še,_,_,_,_,_,162,PART,Q,advmod
163,960-967,dodaten,_,_,_,_,_,166,ADJ,Agpmpn,amod
164,968-981,restrikcijski,_,_,_,_,_,166,ADJ,Agpmpn,amod
165,982-988,ukrep,_,_,_,_,_,162,NOUN,Ncmpn,nsubj
166,989-991,iz,_,_,_,_,_,168,ADP,Sg,case
167,992-998,aneks,_,_,_,_,_,166,NOUN,Ncmsg,nmod
168,999-1002,trije,_,_,_,_,_,172,NUM,Mlcfpa,nummod
169,1003-1004,k,_,_,_,_,_,172,ADP,Sd,case
170,1005-1014,splošen,_,_,_,_,_,172,ADJ,Agpmsd,amod
171,1015-1023,dogovor,_,_,_,_,_,168,NOUN,Ncmsd,nmod
172,1024-1025,.,_,_,_,_,_,162,PUNCT,Z,punct
173,1026-1031,Pivec,PER,_,*->2-2,*[2],_,178,PROPN,Npmsn,nsubj
174,1032-1034,biti,_,_,_,_,_,178,AUX,Va-r3s-n,aux
175,1035-1038,med,_,_,_,_,_,177,ADP,Si,case
176,1039-1045,drug,_,_,_,_,_,178,ADJ,Mlpnsi,obl
177,1046-1056,izpostaviti,_,_,_,_,_,14,VERB,Vmep-sm,parataxis
178,1057-1063,težava,_,_,_,_,_,178,NOUN,Ncfpa,obj
179,1064-1065,z,_,_,_,_,_,181,ADP,Si,case
180,1066-1079,obvladovanje,_,_,_,_,_,179,NOUN,Ncnsi,nmod
181,1080-1091,materialen,_,_,_,_,_,183,ADJ,Agpmpg,amod
182,1092-1100,strošek,_,_,_,_,_,181,NOUN,Ncmpg,nmod
183,1101-1103,in,_,_,_,_,_,185,CCONJ,Cc,cc
184,1104-1112,področje,_,_,_,_,_,183,NOUN,Ncnsa,conj
185,1113-1128,laboratorijski,_,_,_,_,_,187,ADJ,Agpfpg,amod
186,1129-1137,storitev,_,_,_,_,_,185,NOUN,Ncfpg,nmod
187,1138-1139,.,_,_,_,_,_,178,PUNCT,Z,punct
188,1140-1142,za,_,_,_,_,_,190,ADP,Sa,case
189,1143-1150,slednji,_,_,_,_,_,198,ADJ,Agpnsa,obl
190,1151-1153,biti,_,_,_,_,_,198,AUX,Va-r3s-n,aux
191,1154-1160,center,_,_,*->11-12,*[11],_,198,NOUN,Ncmsn,nsubj
192,1161-1162,v,_,_,_,_,_,196,ADP,Sl,case
193,1163-1168,prvi,_,_,_,_,_,196,ADJ,Mlompl,amod
194,1169-1176,devet,_,_,_,_,_,196,NUM,Mlc-pl,nummod
195,1177-1184,mesec,_,_,_,_,_,198,NOUN,Ncmpl,obl
196,1185-1190,letos,_,_,_,_,_,198,ADV,Rgp,advmod
197,1191-1197,plačati,_,_,_,_,_,14,VERB,Vmep-sm,parataxis
198,1198-1201,"3,2",_,_,_,_,_,200,NUM,Mdc,nummod
199,1202-1210,milijon,_,_,_,_,_,198,NOUN,Ncmsg,obj
200,1211-1216,evro,_,_,_,_,_,200,NOUN,Ncmpg,nmod
201,1217-1218,",",_,_,_,_,_,204,PUNCT,Z,punct
202,1219-1222,kar,_,_,_,_,_,204,PRON,Pr-nsn,nsubj
203,1223-1234,predstavljati,_,_,_,_,_,201,VERB,Vmpr3s,acl
204,1235-1248,sedemodstoten,_,_,_,_,_,206,ADJ,Agpmsay,amod
205,1249-1255,porast,_,_,_,_,_,204,NOUN,Ncmsan,obj
206,1256-1257,",",_,_,_,_,_,204,PUNCT,Z,punct
207,1258-1261,iti,_,_,_,_,_,198,VERB,Vmbr3s,parataxis
208,1262-1264,pa,_,_,_,_,_,208,CCONJ,Cc,advmod
209,1265-1273,predvsem,_,_,_,_,_,208,PART,Q,advmod
210,1274-1276,za,_,_,_,_,_,212,ADP,Sa,case
211,1277-1285,storitev,_,_,_,_,_,208,NOUN,Ncfpa,obl
212,1286-1300,mikrobiološki,_,_,_,_,_,214,ADJ,Agpmpg,amod
213,1301-1314,laboratorij,_,_,_,_,_,212,NOUN,Ncmpg,nmod
214,1315-1316,.,_,_,_,_,_,204,PUNCT,Z,punct
215,1317-1318,v,_,_,_,_,_,217,ADP,Sl,case
216,1319-1324,zveza,_,_,_,_,_,222,NOUN,Ncfsl,obl
217,1325-1326,z,_,_,_,_,_,219,ADP,Si,case
218,1327-1330,ta,_,_,_,_,_,217,DET,Pd-nsi,nmod
219,1331-1333,biti,_,_,_,_,_,222,AUX,Va-r3s-n,aux
220,1334-1339,Pivec,PER,_,*->2-3,*[2],_,222,PROPN,Npmsn,nsubj
221,1340-1345,dejati,_,_,_,_,_,14,VERB,Vmep-sm,parataxis
222,1346-1347,",",_,_,_,_,_,225,PUNCT,Z,punct
223,1348-1350,da,_,_,_,_,_,225,SCONJ,Cs,mark
224,1351-1356,imeti,_,_,_,_,_,222,VERB,Vmpr1p-n,ccomp
225,1357-1358,v,_,_,_,_,_,227,ADP,Sl,case
226,1359-1368,Slovenija,ORG,_,*->3-1,*[3],_,225,PROPN,Npfsl,obl
227,1369-1371,na,_,_,_,_,_,230,ADP,Sl,case
228,1372-1375,ta,_,_,_,_,_,230,DET,Pd-nsl,det
229,1376-1384,področje,_,_,_,_,_,225,NOUN,Ncnsl,obl
230,1385-1386,"""",_,_,_,_,_,233,PUNCT,Z,punct
231,1387-1397,deformiran,_,_,_,_,_,233,ADJ,Appmsan,amod
232,1398-1401,trg,_,_,_,_,_,230,NOUN,Ncmsan,nmod
233,1402-1403,"""",_,_,_,_,_,233,PUNCT,Z,punct
234,1404-1405,",",_,_,_,_,_,237,PUNCT,Z,punct
235,1406-1409,saj,_,_,_,_,_,237,CCONJ,Cc,cc
236,1410-1415,imeti,_,_,_,_,_,225,VERB,Vmpr3d-n,conj
237,1416-1429,mikrobiološki,ORG[12],0,*->6-1,*[6],3 - Nevtralno[31],239,ADJ,Agpmsny,amod
238,1430-1438,inštitut,ORG[12],0,*->6-1,*[6],3 - Nevtralno[31],237,NOUN,Ncmsn,nsubj
239,1439-1440,v,_,_,_,_,_,241,ADP,Sl,case
240,1441-1450,Ljubljana,LOC,0,*->4-1,*[4],3 - Nevtralno,239,PROPN,Npfsl,nmod
241,1451-1453,in,_,_,_,_,_,243,CCONJ,Cc,cc
242,1454-1459,zavod,ORG[13],_,*->5-1,*[5],_,239,NOUN,Ncmsn,conj
243,1460-1462,za,ORG[13],_,*->5-1,*[5],_,246,ADP,Sa,case
244,1463-1474,zdravstven,ORG[13],_,*->5-1,*[5],_,246,ADJ,Agpnsa,amod
245,1475-1482,varstvo,ORG[13],_,*->5-1,*[5],_,243,NOUN,Ncnsa,nmod
246,1483-1490,Maribor,ORG[13]|LOC[14],_,*->5-1|*->1-7,*[5]|*[1],_,246,PROPN,Npmsn,nmod
247,1491-1498,izrazit,_,_,_,_,_,250,ADJ,Agpmsnn,amod
248,1499-1508,monopolen,_,_,_,_,_,250,ADJ,Agpmsny,amod
249,1509-1516,položaj,_,_,_,_,_,243,NOUN,Ncmsn,nmod
250,1517-1518,.,_,_,_,_,_,225,PUNCT,Z,punct
251,1519-1527,poudariti,_,_,*->2-4,*[2],_,14,VERB,Vmep-sm,parataxis
252,1528-1530,biti,_,_,_,_,_,252,AUX,Va-r3s-n,aux
253,1531-1532,",",_,_,_,_,_,259,PUNCT,Z,punct
254,1533-1535,da,_,_,_,_,_,259,SCONJ,Cs,mark
255,1536-1538,biti,_,_,_,_,_,259,AUX,Va-r3s-n,cop
256,1539-1542,UKC,ORG[15],_,*->11-13,*[11],_,259,PROPN,Npmsn,nsubj
257,1543-1550,Maribor,ORG[15]|LOC[16],_,*->11-13|*->1-8,*[11]|*[1],_,257,PROPN,Npmsn,nmod
258,1551-1559,sposoben,_,_,_,_,_,252,ADJ,Agpmsnn,ccomp
259,1560-1572,organizirati,_,_,_,_,_,259,VERB,Vmbn,ccomp
260,1573-1575,ta,_,_,_,_,_,262,DET,Pd-fsa,det
261,1576-1585,dejavnost,_,_,_,_,_,260,NOUN,Ncfsa,obj
262,1586-1589,sam,_,_,_,_,_,260,ADJ,Agpmsnn,obl
263,1590-1597,znotraj,_,_,_,_,_,266,ADP,Sg,case
264,1598-1609,centralen,_,_,_,_,_,266,ADJ,Agpmsg,amod
265,1610-1622,laboratorij,_,_,_,_,_,263,NOUN,Ncmsg,nmod
266,1623-1624,v,_,_,_,_,_,269,ADP,Sl,case
267,1625-1627,80,_,_,_,_,_,269,NUM,Mdc,nummod
268,1628-1637,odstotek,_,_,_,_,_,266,NOUN,Ncmpl,nmod
269,1638-1639,",",_,_,_,_,_,259,PUNCT,Z,punct
270,1640-1646,vendar,_,_,_,_,_,286,CCONJ,Cc,cc
271,1647-1653,zaradi,_,_,_,_,_,274,ADP,Sg,case
272,1654-1662,zunanji,_,_,_,_,_,274,ADJ,Agpfpg,amod
273,1663-1671,omejitev,_,_,_,_,_,260,NOUN,Ncfpg,obl
274,1672-1674,na,_,_,_,_,_,277,ADP,Sl,case
275,1675-1685,strokoven,_,_,_,_,_,277,ADJ,Agpnsl,amod
276,1686-1694,področje,_,_,_,_,_,274,NOUN,Ncnsl,nmod
277,1695-1697,oz,_,_,_,_,_,277,NOUN,Ncmsg,nmod
278,1698-1699,.,_,_,_,_,_,259,PUNCT,Z,punct
279,1700-1711,monopolen,_,_,_,_,_,281,ADJ,Agpmsg,amod
280,1712-1720,položaj,_,_,_,_,_,274,NOUN,Ncmsg,nmod
281,1721-1730,omenjen,_,_,_,_,_,283,ADJ,Appfpg,amod
282,1731-1741,institucija,_,_,_,_,_,281,NOUN,Ncfpg,nmod
283,1742-1746,ta,_,_,_,_,_,283,DET,Pd-nsg,nmod
284,1747-1749,ne,_,_,_,_,_,291,PART,Q,advmod
285,1750-1755,smeti,_,_,_,_,_,14,VERB,Vmpr3p,parataxis
286,1756-1757,.,_,_,_,_,_,286,PUNCT,Z,punct
287,1758-1762,meniti,_,_,*->2-5,*[2],_,14,VERB,Vmpr3s,parataxis
288,1763-1764,",",_,_,_,_,_,291,PUNCT,Z,punct
289,1765-1767,da,_,_,_,_,_,291,SCONJ,Cs,mark
290,1768-1770,biti,_,_,_,_,_,288,VERB,Va-r3s-n,ccomp
291,1771-1772,v,_,_,_,_,_,293,ADP,Sl,case
292,1773-1782,Slovenija,LOC,2,*->3-2,*[3],2 - Negativno,299,PROPN,Npfsl,obl
293,1783-1785,na,_,_,_,_,_,296,ADP,Sl,case
294,1786-1789,ta,_,_,_,_,_,296,DET,Pd-nsl,det
295,1790-1798,področje,_,_,_,_,_,299,NOUN,Ncnsl,obl
296,1799-1804,treba,_,_,_,_,_,291,ADV,Rgp,advmod
297,1805-1810,nekaj,_,_,_,_,_,299,PRON,Pi-nsa,obj
298,1811-1819,narediti,_,_,_,_,_,291,VERB,Vmen,csubj
299,1820-1821,",",_,_,_,_,_,291,PUNCT,Z,punct
300,1822-1825,saj,_,_,_,_,_,302,CCONJ,Cc,cc
301,1826-1829,iti,_,_,_,_,_,299,VERB,Vmbr3s,conj
302,1830-1832,za,_,_,_,_,_,305,ADP,Sa,case
303,1833-1839,velik,_,_,_,_,_,305,ADJ,Agpmpa,amod
304,1840-1846,znesek,_,_,_,_,_,302,NOUN,Ncmpa,obl
305,1847-1848,.,_,_,_,_,_,14,PUNCT,Z,punct
306,1849-1854,član,_,_,_,_,_,312,NOUN,Ncmpn,nsubj
307,1855-1860,svet,_,_,_,_,_,307,NOUN,Ncmsg,nmod
308,1861-1863,biti,_,_,_,_,_,312,AUX,Va-r3p-n,aux
309,1864-1870,precej,_,_,_,_,_,311,ADV,Rgp,advmod
310,1871-1875,čas,_,_,_,_,_,312,NOUN,Ncmsg,obl
311,1876-1888,razpravljati,_,_,_,_,_,14,VERB,Vmpp-pm,parataxis
312,1889-1890,o,_,_,_,_,_,315,ADP,Sl,case
313,1891-1902,varčevalen,_,_,_,_,_,315,ADJ,Agpmpl,amod
314,1903-1910,ukrep,_,_,_,_,_,312,NOUN,Ncmpl,obl
315,1911-1912,.,_,_,_,_,_,312,PUNCT,Z,punct
316,1913-1918,Lojza,PER[17],_,*->7-1,*[7],_,307,PROPN,Npmsn,nmod
317,1919-1928,Grobelnik,PER[17],_,*->7-1,*[7],_,317,PROPN,Npmsn,flat:name
318,1929-1931,biti,_,_,_,_,_,320,AUX,Va-r3s-n,aux
319,1932-1937,meniti,_,_,_,_,_,312,VERB,Vmpp-sm,conj
320,1938-1939,",",_,_,_,_,_,324,PUNCT,Z,punct
321,1940-1942,da,_,_,_,_,_,324,SCONJ,Cs,mark
322,1943-1945,biti,_,_,_,_,_,324,AUX,Va-c,aux
323,1946-1952,morati,_,_,_,_,_,320,VERB,Vmpp-sn,ccomp
324,1953-1960,vodstvo,_,_,_,_,_,329,NOUN,Ncnsn,nsubj
325,1961-1962,v,_,_,_,_,_,327,ADP,Sa,case
326,1963-1972,prihodnji,_,_,_,_,_,329,ADJ,Agpnsa,obl
327,1973-1976,več,_,_,_,_,_,329,DET,Rgc,advmod
328,1977-1986,varčevati,_,_,_,_,_,324,VERB,Vmpn,xcomp
329,1987-1989,na,_,_,_,_,_,331,ADP,Sl,case
330,1990-1998,področje,_,_,_,_,_,329,NOUN,Ncnsl,obl
331,1999-2013,nezdravstven,_,_,_,_,_,333,ADJ,Agpfpg,amod
332,2014-2022,storitev,_,_,_,_,_,331,NOUN,Ncfpg,nmod
333,2023-2024,.,_,_,_,_,_,324,PUNCT,Z,punct
334,2025-2029,prav,_,_,_,_,_,336,PART,Q,advmod
335,2030-2034,tako,_,_,_,_,_,338,ADV,Rgp,advmod
336,2035-2037,biti,_,_,_,_,_,338,AUX,Va-r3s-n,aux
337,2038-2046,zahtevati,_,0,*->7-2,*[7],3 - Nevtralno,312,VERB,Vmbp-sm,advcl
338,2047-2058,podroben,_,_,_,_,_,340,ADJ,Agcmsay,amod
339,2059-2064,načrt,_,_,_,_,_,338,NOUN,Ncmsan,obj
340,2065-2076,varčevalen,_,_,_,_,_,342,ADJ,Agpmpg,amod
341,2077-2084,ukrep,_,_,_,_,_,340,NOUN,Ncmpg,nmod
342,2085-2086,v,_,_,_,_,_,345,ADP,Sl,case
343,2087-2097,prihodnji,_,_,_,_,_,345,ADJ,Agpnsl,amod
344,2098-2102,leto,_,_,_,_,_,342,NOUN,Ncnsl,nmod
345,2103-2104,",",_,_,_,_,_,352,PUNCT,Z,punct
346,2105-2110,čemur,_,_,_,_,_,352,SCONJ,Cs,mark
347,2111-2113,biti,_,_,_,_,_,352,AUX,Va-r3p-n,aux
348,2114-2115,v,_,_,_,_,_,351,ADP,Sl,case
349,2116-2125,sprejet,_,_,_,_,_,351,ADJ,Appmsl,amod
350,2126-2132,sklep,_,_,_,_,_,352,NOUN,Ncmsl,obl
351,2133-2140,slediti,_,_,_,_,_,345,VERB,Vmpp-pm,acl
352,2141-2145,tudi,_,_,_,_,_,352,PART,Q,advmod
353,2146-2151,drug,_,_,_,_,_,355,ADJ,Mlpmpn,amod
354,2152-2157,član,_,_,_,_,_,352,NOUN,Ncmpn,nsubj
355,2158-2163,svet,_,_,_,_,_,355,NOUN,Ncmsg,nmod
356,2164-2170,zavod,_,_,*->5-2,*[5],_,356,NOUN,Ncmsg,nmod
357,2171-2172,.,_,_,_,_,_,338,PUNCT,Z,punct
358,2173-2178,pivec,PER,_,*->2-6,*[2],_,365,NOUN,Ncmsn,nsubj
359,2179-2186,rezerva,_,_,_,_,_,359,NOUN,Ncfsg,nmod
360,2187-2189,za,_,_,_,_,_,362,ADP,Sa,case
361,2190-2200,varčevanje,_,_,_,_,_,360,NOUN,Ncnsa,nmod
362,2201-2202,v,_,_,_,_,_,364,ADP,Sa,case
363,2203-2212,prihodnji,_,_,_,_,_,362,ADJ,Agpnsa,amod
364,2213-2217,videti,_,_,_,_,_,14,VERB,Vmbr3s,parataxis
365,2218-2226,predvsem,_,_,_,_,_,365,PART,Q,advmod
366,2227-2229,na,_,_,_,_,_,368,ADP,Sl,case
367,2230-2238,področje,_,_,_,_,_,365,NOUN,Ncnsl,obl
368,2239-2250,materialen,_,_,_,_,_,370,ADJ,Agpmpg,amod
369,2251-2259,strošek,_,_,_,_,_,368,NOUN,Ncmpg,nmod
370,2260-2261,(,_,_,_,_,_,372,PUNCT,Z,punct
371,2262-2270,zdravilo,_,_,_,_,_,370,NOUN,Ncnpn,appos
372,2271-2272,",",_,_,_,_,_,375,PUNCT,Z,punct
373,2273-2283,medicinski,_,_,_,_,_,375,ADJ,Agpfsn,amod
374,2284-2290,oprema,_,_,_,_,_,372,NOUN,Ncfsn,conj
375,2291-2293,in,_,_,_,_,_,377,CCONJ,Cc,cc
376,2294-2302,material,_,_,_,_,_,372,NOUN,Ncmsn,conj
377,2303-2304,),_,_,_,_,_,372,PUNCT,Z,punct
378,2305-2307,in,_,_,_,_,_,381,CCONJ,Cc,cc
379,2308-2310,na,_,_,_,_,_,381,ADP,Sl,case
380,2311-2319,področje,_,_,_,_,_,368,NOUN,Ncnsl,conj
381,2320-2326,poraba,_,_,_,_,_,381,NOUN,Ncfsg,nmod
382,2327-2337,energent,_,_,_,_,_,382,NOUN,Ncmpg,nmod
383,2338-2339,.,_,_,_,_,_,365,PUNCT,Z,punct
384,2340-2351,predsednica,_,0,*->8-1,*[8],3 - Nevtralno[32],400,NOUN,Ncfsn,nsubj
385,2352-2357,svet,_,0,*->8-1,*[8],3 - Nevtralno[32],385,NOUN,Ncmsg,nmod
386,2358-2364,zavod,_,0,*->8-1|*->5-3,*[8]|*[5],3 - Nevtralno[32],386,NOUN,Ncmsg,nmod
387,2365-2374,Marjetica,PER[18],0,*->8-1,*[8],3 - Nevtralno[32],385,PROPN,Npfsn,nmod
388,2375-2380,Mahna,PER[18],0,*->8-1,*[8],3 - Nevtralno[32],388,PROPN,Npfsn,flat:name
389,2381-2383,pa,_,_,_,_,_,400,CCONJ,Cc,advmod
390,2384-2386,biti,_,_,_,_,_,400,AUX,Va-r3s-n,aux
391,2387-2389,ob,_,_,_,_,_,394,ADP,Sl,case
392,2390-2397,večuren,_,_,_,_,_,394,ADJ,Agpfsl,amod
393,2398-2406,razprava,_,_,_,_,_,400,NOUN,Ncfsl,obl
394,2407-2409,in,_,_,_,_,_,396,CCONJ,Cc,cc
395,2410-2423,pojasnjevanje,_,_,_,_,_,394,NOUN,Ncnsl,conj
396,2424-2434,poslovanje,_,_,_,_,_,396,NOUN,Ncnsg,nmod
397,2435-2438,UKC,ORG[19],_,*->11-14,*[11],_,397,PROPN,Npfsg,nmod
398,2439-2446,Maribor,ORG[19]|LOC[20],_,*->11-14|*->1-9,*[11]|*[1],_,398,PROPN,Npmsn,nmod
399,2447-2453,dejati,_,_,_,_,_,14,VERB,Vmep-sf,parataxis
400,2454-2455,",",_,_,_,_,_,407,PUNCT,Z,punct
401,2456-2458,da,_,_,_,_,_,407,SCONJ,Cs,mark
402,2459-2461,biti,_,_,_,_,_,407,AUX,Va-r3s-n,cop
403,2462-2466,svet,_,_,_,_,_,407,NOUN,Ncmsn,nsubj
404,2467-2473,zavod,_,_,*->5-4,*[5],_,404,NOUN,Ncmsg,nmod
405,2474-2478,zelo,_,_,_,_,_,407,ADV,Rgp,advmod
406,2479-2485,omejen,_,_,_,_,_,400,ADJ,Appmsnn,ccomp
407,2486-2487,v,_,_,_,_,_,409,ADP,Sl,case
408,2488-2496,funkcija,_,_,_,_,_,407,NOUN,Ncfsl,obl
409,2497-2508,sodelovanje,_,_,_,_,_,409,NOUN,Ncnsg,nmod
410,2509-2512,pri,_,_,_,_,_,412,ADP,Sl,case
411,2513-2524,upravljanje,_,_,_,_,_,410,NOUN,Ncnsl,nmod
412,2525-2535,bolnišnica,_,_,_,_,_,412,NOUN,Ncfsg,nmod
413,2536-2537,",",_,_,_,_,_,431,PUNCT,Z,punct
414,2538-2541,ker,_,_,_,_,_,431,SCONJ,Cs,mark
415,2542-2544,biti,_,_,_,_,_,431,AUX,Va-r3s-n,cop
416,2545-2551,sistem,_,_,_,_,_,407,NOUN,Ncmsn,nsubj
417,2552-2564,financiranje,_,_,_,_,_,417,NOUN,Ncnsg,nmod
418,2565-2573,predvsem,_,_,_,_,_,431,PART,Q,advmod
419,2574-2580,javen,_,_,_,_,_,422,ADJ,Agpmpg,amod
420,2581-2593,zdravstven,_,_,_,_,_,422,ADJ,Agpmpg,amod
421,2594-2601,zavodov,_,_,_,_,_,417,NOUN,Ncmpg,nmod
422,2602-2603,",",_,_,_,_,_,426,PUNCT,Z,punct
423,2604-2606,še,_,_,_,_,_,426,PART,Q,advmod
424,2607-2614,posebej,_,_,_,_,_,426,ADV,Rgp,advmod
425,2615-2624,bolnišnica,_,_,_,_,_,422,NOUN,Ncfpg,appos
426,2625-2626,",",_,_,_,_,_,426,PUNCT,Z,punct
427,2627-2628,"""",_,_,_,_,_,431,PUNCT,Z,punct
428,2629-2633,tako,_,_,_,_,_,430,ADV,Rgp,advmod
429,2634-2643,strahotno,_,_,_,_,_,431,ADV,Rgp,advmod
430,2644-2657,zakompliciran,_,_,_,_,_,426,ADJ,Appmsnn,acl
431,2658-2659,"""",_,_,_,_,_,431,PUNCT,Z,punct
432,2660-2661,.,_,_,_,_,_,431,PUNCT,Z,punct
433,2662-2667,član,_,_,_,_,_,438,NOUN,Ncmpn,nsubj
434,2668-2673,svet,_,_,_,_,_,434,NOUN,Ncmsg,nmod
435,2674-2676,biti,_,_,_,_,_,438,AUX,Va-r3p-n,aux
436,2677-2679,se,_,_,_,_,_,438,PRON,Px------y,expl
437,2680-2689,dotakniti,_,_,_,_,_,14,VERB,Vmep-pm,parataxis
438,2690-2694,tudi,_,_,_,_,_,438,PART,Q,advmod
439,2695-2702,iskanje,_,_,_,_,_,438,NOUN,Ncnsg,obj
440,2703-2710,rešitev,_,_,_,_,_,440,NOUN,Ncfpg,nmod
441,2711-2713,za,_,_,_,_,_,444,ADP,Sa,case
442,2714-2719,javen,_,_,_,_,_,444,ADJ,Agpnsa,amod
443,2720-2728,naročiti,_,_,_,_,_,441,NOUN,Ncnsa,nmod
444,2729-2737,storitev,_,_,_,_,_,444,NOUN,Ncfpg,nmod
445,2738-2746,čiščenje,_,_,_,_,_,445,NOUN,Ncnsg,nmod
446,2747-2756,prostor,_,_,_,_,_,446,NOUN,Ncmpg,nmod
447,2757-2760,UKC,ORG[21],_,*->11-15,*[11],_,447,PROPN,Npfsg,nmod
448,2761-2768,Maribor,ORG[21]|LOC[22],_,*->11-15|*->1-10,*[11]|*[1],_,448,PROPN,Npmsn,nmod
449,2769-2771,in,_,_,_,_,_,451,CCONJ,Cc,cc
450,2772-2786,vzpostavljanje,_,_,_,_,_,447,NOUN,Ncnsg,conj
451,2787-2797,urgenten,_,_,_,_,_,453,ADJ,Agpmsg,amod
452,2798-2804,center,_,_,_,_,_,451,NOUN,Ncmsg,nmod
453,2805-2806,v,_,_,_,_,_,455,ADP,Sl,case
454,2807-2810,UKC,ORG[23],_,*->11-16,*[11],_,453,PROPN,Npfsl,nmod
455,2811-2818,Maribor,ORG[23]|LOC[24],_,*->11-16|*->1-11,*[11]|*[1],_,455,PROPN,Npmsn,nmod
456,2819-2820,",",_,_,_,_,_,468,PUNCT,Z,punct
457,2821-2824,pri,_,_,_,_,_,459,ADP,Sl,case
458,2825-2830,kar,_,_,_,_,_,468,PRON,Pr-nsl,obl
459,2831-2839,dogovor,_,_,_,_,_,468,NOUN,Ncmpn,nsubj
460,2840-2841,z,_,_,_,_,_,463,ADP,Si,case
461,2842-2854,zdravstven,ORG[25],_,*->9-1,*[9],_,463,ADJ,Agpmsi,amod
462,2855-2860,dom,ORG[25],_,*->9-1,*[9],_,460,NOUN,Ncmsi,nmod
463,2861-2863,dr,ORG[25],_,*->9-1|*->10-1,*[9]|*[10],_,463,PROPN,Npmsn,nmod
464,2864-2865,.,ORG[25],_,*->9-1|*->10-1,*[9]|*[10],_,456,PUNCT,Z,punct
465,2866-2872,Adolf,ORG[25]|PER[26],_,*->9-1|*->10-1,*[9]|*[10],_,464,PROPN,Npmsg,nmod
466,2873-2879,Drolc,ORG[25]|PER[26],_,*->9-1|*->10-1,*[9]|*[10],_,466,PROPN,Npmsg,nmod
467,2880-2888,potekati,_,_,_,_,_,438,VERB,Vmpr3p,advcl
468,2889-2890,o,_,_,_,_,_,470,ADP,Sl,case
469,2891-2902,združevanje,_,_,_,_,_,468,NOUN,Ncnsl,obl
470,2903-2908,služba,_,_,_,_,_,470,NOUN,Ncfpg,nmod
471,2909-2914,nujen,_,_,_,_,_,474,ADJ,Agpfsg,amod
472,2915-2925,medicinski,_,_,_,_,_,474,ADJ,Agpfsg,amod
473,2926-2932,pomoč,_,_,_,_,_,471,NOUN,Ncfsg,nmod
474,2933-2934,v,_,_,_,_,_,477,ADP,Sa,case
475,2935-2941,enoten,_,_,_,_,_,477,ADJ,Agpmsay,amod
476,2942-2948,center,_,_,_,_,_,471,NOUN,Ncmsan,nmod
477,2949-2952,pod,_,_,_,_,_,479,ADP,Si,case
478,2953-2961,okrilje,_,_,_,_,_,477,NOUN,Ncnsi,nmod
479,2962-2965,UKC,ORG[27],2,*->11-17,*[11],2 - Negativno[33],479,PROPN,Npmsg,nmod
480,2966-2973,Maribor,ORG[27]|LOC[28],0,*->11-17|*->1-12,*[11]|*[1],2 - Negativno[33]|3 - Nevtralno[34],480,PROPN,Npmsn,nmod
481,2974-2975,.,_,_,_,_,_,468,PUNCT,Z,punct
482,2976-2981,Pivec,PER,0,*->2-7,*[2],3 - Nevtralno,485,PROPN,Npmsn,nsubj
483,2982-2984,se,_,_,_,_,_,485,PRON,Px------y,expl
484,2985-2991,nadejati,_,_,_,_,_,468,VERB,Vmpr3s,conj
485,2992-2993,",",_,_,_,_,_,499,PUNCT,Z,punct
486,2994-2996,da,_,_,_,_,_,499,SCONJ,Cs,mark
487,2997-2999,biti,_,_,_,_,_,499,AUX,Va-c,aux
488,3000-3005,lahko,_,_,_,_,_,499,ADV,Rgp,advmod
489,3006-3014,urgenten,_,_,_,_,_,491,ADJ,Agpmsny,amod
490,3015-3021,center,_,_,_,_,_,499,NOUN,Ncmsnn,nsubj
491,3022-3023,",",_,_,_,_,_,495,PUNCT,Z,punct
492,3024-3026,ki,_,_,_,_,_,495,SCONJ,Cs,mark
493,3027-3029,on,_,_,_,_,_,495,PRON,Pp3msa--y,obj
494,3030-3037,podpirati,_,_,_,_,_,491,VERB,Vmpr3s,acl
495,3038-3042,tudi,_,_,_,_,_,495,PART,Q,advmod
496,3043-3054,ministrstvo,_,_,_,_,_,495,NOUN,Ncnsn,nsubj
497,3055-3056,",",_,_,_,_,_,495,PUNCT,Z,punct
498,3057-3068,vzpostaviti,_,_,_,_,_,485,VERB,Vmep-pm,ccomp
499,3069-3071,do,_,_,_,_,_,501,ADP,Sg,case
500,3072-3077,marec,_,_,_,_,_,499,NOUN,Ncmsg,obl
501,3078-3087,prihodnji,_,_,_,_,_,503,ADJ,Agpnsa,amod
502,3088-3092,leto,_,_,_,_,_,501,NOUN,Ncnsa,nmod
503,3093-3094,",",_,_,_,_,_,495,PUNCT,Z,punct
504,3095-3101,vendar,_,_,_,_,_,509,CCONJ,Cc,cc
505,3102-3104,pa,_,_,_,_,_,509,CCONJ,Cc,advmod
506,3105-3107,ta,_,_,_,_,_,509,DET,Pd-nsn,nsubj
507,3108-3110,ne,_,_,_,_,_,509,PART,Q,advmod
508,3111-3117,pomeniti,_,_,_,_,_,499,VERB,Vmbr3s,conj
509,3118-3122,tudi,_,_,_,_,_,509,PART,Q,advmod
510,3123-3133,dograditev,_,_,_,_,_,509,NOUN,Ncfsg,obj
511,3134-3144,urgenten,_,_,_,_,_,513,ADJ,Agpmsg,amod
512,3145-3151,center,_,_,_,_,_,511,NOUN,Ncmsg,nmod
513,3152-3153,",",_,_,_,_,_,509,PUNCT,Z,punct
514,3154-3157,saj,_,_,_,_,_,522,CCONJ,Cc,cc
515,3158-3162,biti,_,_,_,_,_,522,AUX,Va-f3p-n,cop
516,3163-3171,postopek,_,_,_,_,_,522,NOUN,Ncmpn,nsubj
517,3172-3173,v,_,_,_,_,_,519,ADP,Sl,case
518,3174-3179,zveza,_,_,_,_,_,517,NOUN,Ncfsl,nmod
519,3180-3181,z,_,_,_,_,_,521,ADP,Si,case
520,3182-3189,gradnja,_,_,_,_,_,519,NOUN,Ncfsi,nmod
521,3190-3204,dolgotrajen,_,_,_,_,_,509,ADJ,Agcmsny,conj
522,3205-3206,.,_,_,_,_,_,509,PUNCT,Z,punct
523,3207-3212,zavod,_,0,*->5-5,*[5],3 - Nevtralno,531,NOUN,Ncmsn,nsubj
524,3213-3215,se,_,_,_,_,_,531,PRON,Px------y,expl
525,3216-3218,biti,_,_,_,_,_,531,AUX,Va-r3s-n,aux
526,3219-3220,v,_,_,_,_,_,528,ADP,Sl,case
527,3221-3226,zveza,_,_,_,_,_,531,NOUN,Ncfsl,obl
528,3227-3228,z,_,_,_,_,_,530,ADP,Si,case
529,3229-3232,ta,_,_,_,_,_,531,DET,Pd-nsi,obl
530,3233-3241,seznaniti,_,_,_,_,_,522,VERB,Vmep-sm,conj
531,3242-3243,z,_,_,_,_,_,533,ADP,Si,case
532,3244-3258,nasprotovanje,_,_,_,_,_,531,NOUN,Ncnsi,obl
533,3259-3272,zdravstven,ORG[29],_,*->9-2,*[9],_,535,ADJ,Agpmsg,amod
534,3273-3277,dom,ORG[29],_,*->9-2,*[9],_,533,NOUN,Ncmsg,nmod
535,3278-3280,dr,ORG[29],0,*->9-2|*->10-2,*[9]|*[10],3 - Nevtralno[35],535,PROPN,Npmsn,nmod
536,3281-3282,.,ORG[29],0,*->9-2|*->10-2,*[9]|*[10],3 - Nevtralno[35],522,PUNCT,Z,punct
537,3283-3289,Adolf,ORG[29]|PER[30],0,*->9-2|*->10-2,*[9]|*[10],3 - Nevtralno[35],540,PROPN,Npmsg,nmod
538,3290-3296,Drolc,ORG[29]|PER[30],0,*->9-2|*->10-2,*[9]|*[10],3 - Nevtralno[35],538,PROPN,Npmsg,nmod
539,3297-3308,združevanje,_,_,_,_,_,535,NOUN,Ncnsd,conj
540,3309-3314,služba,_,_,_,_,_,540,NOUN,Ncfpg,nmod
541,3315-3316,",",_,_,_,_,_,548,PUNCT,Z,punct
542,3317-3320,saj,_,_,_,_,_,548,CCONJ,Cc,cc
543,3321-3323,biti,_,_,_,_,_,548,AUX,Va-c,aux
544,3324-3330,prenos,_,_,_,_,_,548,NOUN,Ncmsan,obj
545,3331-3334,ta,_,_,_,_,_,547,DET,Pd-fpg,det
546,3335-3345,dejavnost,_,_,_,_,_,545,NOUN,Ncfpg,nmod
547,3346-3353,pomeniti,_,_,_,_,_,531,VERB,Vmbp-sm,conj
548,3354-3363,precejšen,_,_,_,_,_,550,ADJ,Agpmsan,amod
549,3364-3369,poseg,_,_,_,_,_,548,NOUN,Ncmsan,obj
550,3370-3371,v,_,_,_,_,_,553,ADP,Sa,case
551,3372-3380,finančen,_,_,_,_,_,553,ADJ,Agpmpa,amod
552,3381-3387,vzvod,_,_,_,_,_,550,NOUN,Ncmpa,nmod
553,3388-3401,zdravstven,_,0,*->9-3,*[9],3 - Nevtralno[36],555,ADJ,Agpmsg,amod
554,3402-3406,dom,_,0,*->9-3,*[9],3 - Nevtralno[36],553,NOUN,Ncmsg,nmod
