idx,chars_idx,token,entity_type,sentiment,idk_1,idk_2,orig_sentiment,heads,upos,xpos,deprel
0,0-9,Ljubljana,LOC,0,*->1-1,*[1],3 - Nevtralno,37,PROPN,Npfsn,parataxis
1,10-11,-,_,_,_,_,_,1,PUNCT,Z,punct
2,12-21,škofijski,_,_,*->2-1,*[2],_,4,ADJ,Agpnsn,amod
3,22-30,podjetje,_,_,*->2-1,*[2],_,26,NOUN,Ncnsn,nsubj
4,31-38,Betnava,ORG,_,*->2-1,*[2],_,4,PROPN,Npfsn,nmod
5,39-40,",",_,_,_,_,_,9,PUNCT,Z,punct
6,41-43,ki,_,_,_,_,_,9,SCONJ,Cs,mark
7,44-46,biti,_,_,_,_,_,9,AUX,Va-r3s-n,aux
8,47-53,voditi,_,_,*->2-2,*[2],_,4,VERB,Vmpp-sn,acl
9,54-60,sporen,_,_,_,_,_,11,ADJ,Agpfsa,amod
10,61-68,naložba,_,_,_,_,_,9,NOUN,Ncfsa,obj
11,69-70,v,_,_,_,_,_,13,ADP,Sa,case
12,71-85,revitalizacija,_,_,_,_,_,11,NOUN,Ncfsa,nmod
13,86-99,istoimenski,_,_,_,_,_,16,ADJ,Agpmsg,amod
14,100-112,mariborski,_,_,_,_,_,16,ADJ,Agpmsg,amod
15,113-119,dvorec,_,_,_,_,_,13,NOUN,Ncmsg,nmod
16,120-121,",",_,_,_,_,_,9,PUNCT,Z,punct
17,122-125,vse,_,_,_,_,_,19,ADV,Rgp,advmod
18,126-131,blizu,_,_,_,_,_,26,ADV,Rgc,advmod
19,132-134,pa,_,_,_,_,_,24,CCONJ,Cc,cc
20,135-137,biti,_,_,_,_,_,26,AUX,Va-r3s-n,aux
21,138-142,tudi,_,_,_,_,_,26,PART,Q,advmod
22,143-153,stečajen,_,_,_,_,_,24,ADJ,Agpmsd,amod
23,154-162,postopek,_,_,_,_,_,9,NOUN,Ncmsd,iobj
24,163-164,",",_,_,_,_,_,9,PUNCT,Z,punct
25,165-168,imeti,_,_,_,_,_,0,VERB,Vmpr3s-n,root
26,169-175,nov,_,_,*->22-1,*[22],_,28,ADJ,Agpmsa,amod
27,176-186,direktor,_,_,*->22-1,*[22],_,26,NOUN,Ncmsay,obj
28,187-188,.,_,_,_,_,_,26,PUNCT,Z,punct
29,189-191,na,_,_,_,_,_,32,ADP,Sa,case
30,192-194,ta,_,_,_,_,_,32,DET,Pd-msa,det
31,195-202,položaj,_,_,_,_,_,37,NOUN,Ncmsan,obl
32,203-205,se,_,_,_,_,_,37,PRON,Px------y,expl
33,206-208,biti,_,_,_,_,_,37,AUX,Va-r3s-n,aux
34,209-217,prejšnji,_,_,_,_,_,36,ADJ,Agpmsay,amod
35,218-228,ponedeljek,_,_,_,_,_,37,NOUN,Ncmsan,obl
36,229-237,zavihteti,_,_,_,_,_,26,VERB,Vmep-sm,parataxis
37,238-243,Simon,PER[1],_,*->22-2,*[22],_,37,PROPN,Npmsn,nsubj
38,244-251,Zdolšek,PER[1],_,*->22-2,*[22],_,38,PROPN,Npmsn,flat:name
39,252-253,",",_,_,_,_,_,43,PUNCT,Z,punct
40,254-256,ki,_,_,_,_,_,43,SCONJ,Cs,mark
41,257-262,sicer,_,_,_,_,_,43,PART,Q,advmod
42,263-269,ostajati,_,_,_,_,_,38,VERB,Vmpr3s,acl
43,270-280,predsednik,_,_,*->22-3,*[22],_,43,NOUN,Ncmsn,nsubj
44,281-287,uprava,_,_,*->22-3,*[22],_,44,NOUN,Ncfsg,nmod
45,288-294,družba,_,_,*->22-3|*->5-1,*[22]|*[5],_,45,NOUN,Ncfsg,nmod
46,295-299,zvon,ORG[2],_,*->22-3|*->5-1,*[22]|*[5],_,46,NOUN,Ncmsn,nmod
47,300-303,en,ORG[2],_,*->22-3|*->5-1,*[22]|*[5],_,49,NUM,Mlpfsn,nummod
48,304-311,holding,ORG[2],_,*->22-3|*->5-1,*[22]|*[5],_,46,NOUN,Ncmsn,nmod
49,312-313,.,_,_,_,_,_,43,PUNCT,Z,punct
50,314-319,zame,_,_,*->5-2,*[5],_,56,PRON,Pp3fsa--b,obj
51,320-322,biti,_,_,_,_,_,56,AUX,Va-f3s-n,cop
52,323-324,v,_,_,_,_,_,55,ADP,Sl,case
53,325-330,nekaj,_,_,_,_,_,55,DET,Rgp,det
54,331-335,dan,_,_,_,_,_,56,NOUN,Ncmpl,obl
55,336-341,znan,_,_,_,_,_,37,ADJ,Appnsn,conj
56,342-343,",",_,_,_,_,_,60,PUNCT,Z,punct
57,344-347,ali,_,_,_,_,_,60,ADV,Rgp,mark
58,348-350,biti,_,_,_,_,_,60,AUX,Va-f3s-n,aux
59,351-358,končati,_,2,*->5-3,*[5],2 - Negativno,56,VERB,Vmep-sf,csubj
60,359-360,v,_,_,_,_,_,62,ADP,Sl,case
61,361-368,stečaj,_,_,_,_,_,60,NOUN,Ncmsl,obl
62,369-370,",",_,_,_,_,_,60,PUNCT,Z,punct
63,371-375,tudi,_,_,_,_,_,68,PART,Q,advmod
64,376-383,Betnava,ORG,_,*->2-3,*[2],_,68,PROPN,Npfsl,obj
65,384-386,pa,_,_,_,_,_,68,CCONJ,Cc,advmod
66,387-389,ne,_,_,_,_,_,68,PART,Q,advmod
67,390-394,kazati,_,_,_,_,_,56,VERB,Vmpr3s,parataxis
68,395-398,nič,_,_,_,_,_,70,PRON,Pz-nsa,nmod
69,399-404,dobro,_,_,_,_,_,68,ADV,Rgc,advmod
70,405-406,",",_,_,_,_,_,60,PUNCT,Z,punct
71,407-410,saj,_,_,_,_,_,73,CCONJ,Cc,cc
72,411-414,imeti,_,_,_,_,_,68,VERB,Vmpr3s-n,conj
73,415-418,več,_,_,_,_,_,76,DET,Rgc,advmod
74,419-422,kot,_,_,_,_,_,74,SCONJ,Cs,fixed
75,423-428,mesec,_,_,_,_,_,78,NOUN,Ncmsan,nmod
76,429-432,dan,_,_,_,_,_,76,NOUN,Ncmpg,nmod
77,433-442,blokiran,_,_,_,_,_,79,ADJ,Appmpa,amod
78,443-449,račun,_,_,_,_,_,73,NOUN,Ncmpa,obj
79,450-451,",",_,_,_,_,_,60,PUNCT,Z,punct
80,452-457,soočati,_,_,*->2-4,*[2],_,73,VERB,Vmpr3s,conj
81,458-460,pa,_,_,_,_,_,81,CCONJ,Cc,advmod
82,461-463,se,_,_,_,_,_,81,PRON,Px------y,expl
83,464-468,tudi,_,_,_,_,_,81,PART,Q,advmod
84,469-470,z,_,_,_,_,_,87,ADP,Si,case
85,471-481,milijonski,_,_,_,_,_,87,ADJ,Agpfsi,amod
86,482-487,tožba,_,_,_,_,_,81,NOUN,Ncfsi,obl
87,488-494,družba,_,0,*->3-1,*[3],3 - Nevtralno[20],87,NOUN,Ncfsg,nmod
88,495-499,prvi,ORG[3],0,*->3-1,*[3],3 - Nevtralno[20],90,ADJ,Mlomsn,amod
89,500-506,faktor,ORG[3],0,*->3-1,*[3],3 - Nevtralno[20],87,NOUN,Ncmsn,nmod
90,507-508,.,_,_,_,_,_,81,PUNCT,Z,punct
91,509-510,"""",_,_,_,_,_,100,PUNCT,Z,punct
92,511-519,soglasje,_,_,_,_,_,100,NOUN,Ncnsa,obj
93,520-521,k,_,_,_,_,_,95,ADP,Sd,case
94,522-532,imenovanje,_,_,_,_,_,93,NOUN,Ncnsd,nmod
95,533-535,za,_,_,_,_,_,97,ADP,Sa,case
96,536-546,direktor,_,_,_,_,_,95,NOUN,Ncmsay,nmod
97,547-554,Betnava,ORG,_,*->2-5,*[2],_,97,PROPN,Npfsg,nmod
98,555-558,biti,_,_,_,_,_,100,AUX,Va-r1s-n,aux
99,559-564,podati,_,_,*->22-4,*[22],_,26,VERB,Vmbp-sm,parataxis
100,565-567,na,_,_,_,_,_,102,ADP,Sa,case
101,568-575,prošnja,_,_,_,_,_,100,NOUN,Ncfsa,obl
102,576-587,družbenik,_,_,_,_,_,102,NOUN,Ncmpg,nmod
103,588-589,",",_,_,_,_,_,111,PUNCT,Z,punct
104,590-593,saj,_,_,_,_,_,111,CCONJ,Cc,cc
105,594-596,biti,_,_,_,_,_,111,AUX,Va-r3s-n,aux
106,597-606,dosedanji,_,2,*->4-1,*[4],2 - Negativno[21],108,ADJ,Agpfsn,amod
107,607-618,direktorica,_,2,*->4-1,*[4],2 - Negativno[21],111,NOUN,Ncfsn,nsubj
108,619-626,Dragica,PER[4],2,*->4-1,*[4],2 - Negativno[21],108,PROPN,Npfsn,nmod
109,627-634,Marinič,PER[4],2,*->4-1,*[4],2 - Negativno[21],109,PROPN,Npfsn,flat:name
110,635-644,odstopiti,_,_,_,_,_,100,VERB,Vmep-sf,conj
111,645-646,",",_,_,_,_,_,111,PUNCT,Z,punct
112,647-648,"""",_,_,_,_,_,117,PUNCT,Z,punct
113,649-652,jaz,_,_,_,_,_,117,PRON,Pp1-pd,obj
114,653-655,biti,_,_,_,_,_,117,AUX,Va-r3s-n,aux
115,656-662,včeraj,_,_,_,_,_,117,ADV,Rgp,advmod
116,663-671,pojasniti,_,_,_,_,_,26,VERB,Vmep-sm,parataxis
117,672-679,Zdolšek,PER,_,*->22-5,*[22],_,117,PROPN,Npmsn,nsubj
118,680-681,.,_,_,_,_,_,117,PUNCT,Z,punct
119,682-683,"""",_,_,_,_,_,126,PUNCT,Z,punct
120,684-685,v,_,_,_,_,_,124,ADP,Sl,case
121,686-696,nahkrajen,_,_,_,_,_,124,ADJ,Agsmsl,amod
122,697-703,možen,_,_,_,_,_,124,ADJ,Agpmsl,amod
123,704-708,čas,_,_,_,_,_,127,NOUN,Ncmsl,obl
124,709-712,biti,_,_,_,_,_,126,AUX,Va-f1s-n,aux
125,713-721,poskušati,_,_,*->22-6,*[22],_,117,VERB,Vmpp-sm,advcl
126,722-731,ugotoviti,_,_,_,_,_,126,VERB,Vmen,xcomp
127,732-738,stanje,_,_,_,_,_,127,NOUN,Ncnsa,obj
128,739-741,in,_,_,_,_,_,138,CCONJ,Cc,cc
129,742-743,v,_,_,_,_,_,131,ADP,Sl,case
130,744-750,sklad,_,_,_,_,_,138,NOUN,Ncmsl,obl
131,751-752,z,_,_,_,_,_,136,ADP,Si,case
132,753-754,(,_,_,_,_,_,134,PUNCT,Z,punct
133,755-764,pozitiven,_,_,_,_,_,136,ADJ,Agpfsi,amod
134,765-766,),_,_,_,_,_,134,PUNCT,Z,punct
135,767-777,zakonodaja,_,_,_,_,_,138,NOUN,Ncfsi,obl
136,778-782,tudi,_,_,_,_,_,138,PART,Q,advmod
137,783-791,ukrepati,_,_,_,_,_,127,VERB,Vmpn,conj
138,792-793,",",_,_,_,_,_,142,PUNCT,Z,punct
139,794-795,"""",_,_,_,_,_,142,PUNCT,Z,punct
140,796-798,biti,_,_,_,_,_,142,AUX,Va-r3s-n,aux
141,799-804,dodati,_,_,*->22-7,*[22],_,26,VERB,Vmep-sm,parataxis
142,805-806,.,_,_,_,_,_,142,PUNCT,Z,punct
143,807-810,več,_,_,_,_,_,145,DET,Rgc,det
144,811-818,Zdolšek,PER,0,*->22-8,*[22],3 - Nevtralno,147,PROPN,Npmsn,nsubj
145,819-821,biti,_,_,_,_,_,147,AUX,Va-r3s-y,aux
146,822-827,hoteti,_,_,_,_,_,26,VERB,Vmpp-sm,parataxis
147,828-836,povedati,_,_,_,_,_,147,VERB,Vmen,xcomp
148,837-838,",",_,_,_,_,_,155,PUNCT,Z,punct
149,839-841,po,_,_,_,_,_,152,ADP,Sl,case
150,842-851,neuraden,_,_,_,_,_,152,ADJ,Agpfpl,amod
151,852-864,informacija,_,_,_,_,_,155,NOUN,Ncfpl,obl
152,865-867,pa,_,_,_,_,_,155,CCONJ,Cc,advmod
153,868-870,biti,_,_,_,_,_,155,AUX,Va-r3s-n,cop
154,871-881,preživetje,_,_,_,_,_,148,NOUN,Ncnsn,nsubj
155,882-889,Betnava,ORG,_,*->2-6,*[2],_,155,PROPN,Npfsg,nmod
156,890-891,v,_,_,_,_,_,158,ADP,Sl,case
157,892-897,roka,_,_,_,_,_,155,NOUN,Ncfpl,nmod
158,898-905,upnik,_,_,_,_,_,158,NOUN,Ncmpg,nmod
159,906-907,",",_,_,_,_,_,164,PUNCT,Z,punct
160,908-910,ki,_,_,_,_,_,164,SCONJ,Cs,mark
161,911-913,biti,_,_,_,_,_,164,AUX,Va-c,aux
162,914-916,se,_,_,_,_,_,165,PRON,Px------y,expl
163,917-923,morati,_,_,_,_,_,159,VERB,Vmpp-pm,acl
164,924-933,strinjati,_,_,_,_,_,164,VERB,Vmpn,xcomp
165,934-935,z,_,_,_,_,_,167,ADP,Si,case
166,936-946,konverzija,_,_,_,_,_,165,NOUN,Ncfsi,obl
167,947-953,svoj,_,_,_,_,_,169,DET,Px-fpg,det
168,954-962,terjatev,_,_,_,_,_,167,NOUN,Ncfpg,nmod
169,963-964,v,_,_,_,_,_,171,ADP,Sa,case
170,965-972,kapital,_,_,_,_,_,169,NOUN,Ncmsan,nmod
171,973-974,.,_,_,_,_,_,164,PUNCT,Z,punct
172,975-983,trenutno,_,_,_,_,_,175,ADV,Rgp,advmod
173,984-986,biti,_,_,_,_,_,175,AUX,Va-r3p-n,aux
174,987-995,lastnik,_,_,_,_,_,147,NOUN,Ncmpn,nsubj
175,996-1004,podjetje,_,_,_,_,_,175,NOUN,Ncnsg,nmod
176,1005-1014,duhovnik,_,_,_,_,_,175,NOUN,Ncmpn,nmod
177,1015-1025,mariborski,_,_,*->21-1,*[21],_,179,ADJ,Agpfsg,amod
178,1026-1036,nadškofija,_,_,*->21-1,*[21],_,177,NOUN,Ncfsg,nmod
179,1037-1038,-,_,_,_,_,_,181,PUNCT,Z,punct
180,1039-1044,Janez,PER[5],0,*->6-1,*[6],3 - Nevtralno[22],177,PROPN,Npmsn,nmod
181,1045-1052,Lesnik,PER[5],0,*->6-1,*[6],3 - Nevtralno[22],181,PROPN,Npmsg,flat:name
182,1053-1054,",",_,_,_,_,_,184,PUNCT,Z,punct
183,1055-1062,Bernard,PER[6],0,*->7-1,*[7],3 - Nevtralno[23],181,PROPN,Npmsn,conj
184,1063-1069,Geršak,PER[6],0,*->7-1,*[7],3 - Nevtralno[23],184,PROPN,Npmsn,flat:name
185,1070-1071,",",_,_,_,_,_,187,PUNCT,Z,punct
186,1072-1077,Alojz,PER[7],0,*->8-1,*[8],3 - Nevtralno[24],184,PROPN,Npmsn,conj
187,1078-1086,Krašovec,PER[7],0,*->8-1,*[8],3 - Nevtralno[24],187,PROPN,Npmsn,flat:name
188,1087-1088,",",_,_,_,_,_,190,PUNCT,Z,punct
189,1089-1094,Anton,PER[8],0,*->9-1,*[9],3 - Nevtralno[25],177,PROPN,Npmsn,conj
190,1095-1099,Majc,PER[8],0,*->9-1,*[9],3 - Nevtralno[25],190,PROPN,Npmsn,flat:name
191,1100-1102,in,_,_,_,_,_,193,CCONJ,Cc,cc
192,1103-1108,Jožef,PER[9],0,*->10-1,*[10],3 - Nevtralno[26],190,PROPN,Npmsn,conj
193,1109-1117,Goličnik,PER[9],0,*->10-1,*[10],3 - Nevtralno[26],193,PROPN,Npmsn,flat:name
194,1118-1119,.,_,_,_,_,_,147,PUNCT,Z,punct
195,1120-1122,ta,_,_,_,_,_,200,DET,Pd-mpn,nsubj
196,1123-1125,biti,_,_,_,_,_,200,AUX,Va-r3p-n,aux
197,1126-1132,deleža,_,_,_,_,_,200,NOUN,Ncmpa,obj
198,1133-1140,Betnava,ORG,_,*->2-7,*[2],_,198,PROPN,Npfsg,nmod
199,1141-1147,kupiti,_,_,_,_,_,26,VERB,Vmep-pm,parataxis
200,1148-1152,šele,_,_,_,_,_,202,PART,Q,advmod
201,1153-1161,januar,_,_,_,_,_,200,NOUN,Ncmsg,obl
202,1162-1166,lani,_,_,_,_,_,202,ADV,Rgp,advmod
203,1167-1168,",",_,_,_,_,_,209,PUNCT,Z,punct
204,1169-1171,ko,_,_,_,_,_,209,SCONJ,Cs,mark
205,1172-1174,biti,_,_,_,_,_,209,AUX,Va-r3p-n,aux
206,1175-1185,lastništvo,_,_,_,_,_,209,NOUN,Ncnsg,obj
207,1186-1187,"""",_,_,_,_,_,209,PUNCT,Z,punct
208,1188-1196,odrešiti,_,_,_,_,_,200,VERB,Vmep-pm,advcl
209,1197-1198,"""",_,_,_,_,_,214,PUNCT,Z,punct
210,1199-1206,Andreja,PER[10],0,*->11-1,*[11],3 - Nevtralno[27],209,PROPN,Npmsay,obj
211,1207-1214,Mesarco,PER[10],0,*->11-1,*[11],3 - Nevtralno[27],211,PROPN,Npmsay,flat:name
212,1215-1216,",",_,_,_,_,_,214,PUNCT,Z,punct
213,1217-1223,Iztok,PER[11],0,*->12-1,*[12],3 - Nevtralno[28],211,PROPN,Npmsg,conj
214,1224-1233,Čegovnik,PER[11],0,*->12-1,*[12],3 - Nevtralno[28],214,PROPN,Npmsg,flat:name
215,1234-1235,",",_,_,_,_,_,217,PUNCT,Z,punct
216,1236-1241,zmaga,PER[12],_,*->13-1,*[13],_,211,NOUN,Ncfsn,conj
217,1242-1251,Potočnik,PER[12],_,*->13-1,*[13],_,217,PROPN,Npmsg,nmod
218,1252-1253,",",_,_,_,_,_,220,PUNCT,Z,punct
219,1254-1260,Danica,PER[13],0,*->14-1,*[14],3 - Nevtralno[29],211,PROPN,Npfsa,conj
220,1261-1269,Ozvaldič,PER[13],0,*->14-1,*[14],3 - Nevtralno[29],220,PROPN,Npfsg,flat:name
221,1270-1271,",",_,_,_,_,_,223,PUNCT,Z,punct
222,1272-1278,Franc,PER[14],0,*->15-1,*[15],3 - Nevtralno[30],211,PROPN,Npmsg,conj
223,1279-1288,Ješovnik,PER[14],0,*->15-1,*[15],3 - Nevtralno[30],223,PROPN,Npmsg,flat:name
224,1289-1291,in,_,_,_,_,_,226,CCONJ,Cc,cc
225,1292-1298,Anton,PER[15],_,*->16-1,*[16],_,211,PROPN,Npmsg,conj
226,1299-1305,Ekarta,PER[15],_,*->16-1,*[16],_,226,PROPN,Npmsg,flat:name
227,1306-1307,.,_,_,_,_,_,209,PUNCT,Z,punct
228,1308-1315,slednji,_,_,_,_,_,231,PROPN,Npmsn,nsubj
229,1316-1318,biti,_,_,_,_,_,231,AUX,Va-r3p-n,aux
230,1319-1332,ustanovitelj,_,_,_,_,_,200,NOUN,Ncmpn,advcl
231,1333-1340,Betnava,ORG,_,*->2-8,*[2],_,231,PROPN,Npfsg,nmod
232,1341-1343,in,_,_,_,_,_,238,CCONJ,Cc,cc
233,1344-1346,biti,_,_,_,_,_,238,AUX,Va-r3p-n,aux
234,1347-1351,leto,_,_,_,_,_,238,NOUN,Ncnsg,obl
235,1352-1356,2008,_,_,_,_,_,235,NUM,Mdc,nummod
236,1357-1362,vame,_,_,_,_,_,238,PRON,Pp3fsa--b,obj
237,1363-1370,vložiti,_,_,_,_,_,231,VERB,Vmep-pm,conj
238,1371-1375,vsak,_,_,_,_,_,242,DET,Pg-msa,det
239,1376-1378,po,_,_,_,_,_,242,ADP,Sa,case
240,1379-1386,380.000,_,_,_,_,_,242,NUM,Mdc,nummod
241,1387-1392,evro,_,_,_,_,_,238,NOUN,Ncmpg,obl
242,1393-1394,",",_,_,_,_,_,238,PUNCT,Z,punct
243,1395-1397,do,_,_,_,_,_,245,ADP,Sg,case
244,1398-1405,denar,_,_,_,_,_,248,NOUN,Ncmsg,obl
245,1406-1408,pa,_,_,_,_,_,248,CCONJ,Cc,advmod
246,1409-1411,biti,_,_,_,_,_,248,AUX,Va-r3p-n,aux
247,1412-1418,priti,_,_,_,_,_,26,VERB,Vmep-pm,parataxis
248,1419-1423,prav,_,_,_,_,_,251,PART,Q,advmod
249,1424-1425,z,_,_,_,_,_,251,ADP,Si,case
250,1426-1437,blagoslov,_,_,_,_,_,248,NOUN,Ncmsi,obl
251,1438-1448,nadškofija,_,_,*->21-2,*[21],_,251,NOUN,Ncfsg,nmod
252,1449-1456,oziroma,_,_,_,_,_,259,CCONJ,Cc,cc
253,1457-1459,biti,_,_,_,_,_,259,AUX,Va-r3s-n,aux
254,1460-1470,poroštven,_,_,_,_,_,256,ADJ,Agpfpa,amod
255,1471-1478,pogodba,_,_,_,_,_,259,NOUN,Ncfpa,obj
256,1479-1481,za,_,_,_,_,_,258,ADP,Sa,case
257,1482-1490,posojilo,_,_,_,_,_,256,NOUN,Ncnpa,nmod
258,1491-1499,podpisati,_,_,_,_,_,248,VERB,Vmep-sm,conj
259,1500-1508,takraten,_,0,*->17-1,*[17],3 - Nevtralno[31],262,ADJ,Agpmsny,amod
260,1509-1519,mariborski,_,0,*->17-1,*[17],3 - Nevtralno[31],262,ADJ,Agpmsny,amod
261,1520-1527,nadškof,_,0,*->17-1,*[17],3 - Nevtralno[31],259,NOUN,Ncmsn,nsubj
262,1528-1533,Franc,PER[16],0,*->17-1,*[17],3 - Nevtralno[31],262,PROPN,Npmsn,nmod
263,1534-1544,Kramberger,PER[16],0,*->17-1,*[17],3 - Nevtralno[31],263,PROPN,Npmsn,flat:name
264,1545-1546,.,_,_,_,_,_,248,PUNCT,Z,punct
265,1547-1548,"""",_,_,_,_,_,267,PUNCT,Z,punct
266,1549-1556,zaseben,_,_,*->2-9,*[2],_,269,ADJ,Agpnsn,amod
267,1557-1558,"""",_,_,*->2-9,*[2],_,267,PUNCT,Z,punct
268,1559-1567,podjetje,_,_,*->2-9,*[2],_,272,NOUN,Ncnsn,nsubj
269,1568-1570,biti,_,_,_,_,_,272,AUX,Va-r3s-n,aux
270,1571-1576,zatem,_,_,_,_,_,272,ADV,Rgp,advmod
271,1577-1583,priti,_,_,_,_,_,259,VERB,Vmep-sn,advcl
272,1584-1586,do,_,_,_,_,_,275,ADP,Sg,case
273,1587-1590,"1,7",_,_,_,_,_,275,NUM,Mdc,nummod
274,1591-1599,milijon,_,_,_,_,_,272,NOUN,Ncmsg,obl
275,1600-1605,evro,_,_,_,_,_,275,NOUN,Ncmpg,nmod
276,1606-1615,evropski,_,_,_,_,_,278,ADJ,Agpnpg,amod
277,1616-1624,sredstvo,_,_,_,_,_,276,NOUN,Ncnpg,nmod
278,1625-1626,",",_,_,_,_,_,272,PUNCT,Z,punct
279,1627-1633,vendar,_,_,_,_,_,284,CCONJ,Cc,cc
280,1634-1636,se,_,_,_,_,_,284,PRON,Px------y,expl
281,1637-1639,biti,_,_,_,_,_,284,AUX,Va-r3s-n,aux
282,1640-1647,pozno,_,_,_,_,_,284,ADV,Rgc,advmod
283,1648-1656,izkazati,_,_,_,_,_,272,VERB,Vmep-sn,conj
284,1657-1658,",",_,_,_,_,_,289,PUNCT,Z,punct
285,1659-1661,da,_,_,_,_,_,289,SCONJ,Cs,mark
286,1662-1664,biti,_,_,_,_,_,289,AUX,Va-r3s-n,aux
287,1665-1676,ministrstvo,_,_,_,_,_,289,NOUN,Ncnsd,iobj
288,1677-1686,izstaviti,_,_,*->2-10,*[2],_,284,VERB,Vmep-sn,csubj
289,1687-1693,račun,_,_,_,_,_,289,NOUN,Ncmpa,obj
290,1694-1696,za,_,_,_,_,_,292,ADP,Sa,case
291,1697-1701,delo,_,_,_,_,_,290,NOUN,Ncnpa,nmod
292,1702-1703,",",_,_,_,_,_,298,PUNCT,Z,punct
293,1704-1706,ki,_,_,_,_,_,298,SCONJ,Cs,mark
294,1707-1711,biti,_,_,_,_,_,298,AUX,Va-r3p-y,aux
295,1712-1716,biti,_,_,_,_,_,298,AUX,Va-p-pn,cop
296,1717-1723,nikoli,_,_,_,_,_,298,ADV,Rgp,advmod
297,1724-1734,opravljen,_,_,_,_,_,292,ADJ,Appnpn,acl
298,1735-1736,.,_,_,_,_,_,289,PUNCT,Z,punct
299,1737-1745,omenjen,_,_,_,_,_,301,ADJ,Appnpn,amod
300,1746-1754,sredstvo,_,_,_,_,_,314,NOUN,Ncnpn,nsubj
301,1755-1757,pa,_,_,_,_,_,314,CCONJ,Cc,advmod
302,1758-1760,biti,_,_,_,_,_,314,AUX,Va-r3p-n,aux
303,1761-1762,",",_,_,_,_,_,307,PUNCT,Z,punct
304,1763-1766,kot,_,_,_,_,_,307,SCONJ,Cs,mark
305,1767-1770,biti,_,_,_,_,_,307,AUX,Va-r1p-n,aux
306,1771-1779,razkriti,_,_,_,_,_,298,VERB,Vmep-pm,advcl
307,1780-1781,",",_,_,_,_,_,307,PUNCT,Z,punct
308,1782-1787,takoj,_,_,_,_,_,311,ADV,Rgp,advmod
309,1788-1790,po,_,_,_,_,_,311,ADP,Sl,case
310,1791-1798,prejem,_,_,_,_,_,314,NOUN,Ncmsl,obl
311,1799-1805,jeseni,_,_,_,_,_,314,ADV,Rgp,advmod
312,1806-1810,2009,_,_,_,_,_,312,NUM,Mdc,nummod
313,1811-1820,ponikniti,_,_,_,_,_,298,VERB,Vmep-sf,advcl
314,1821-1823,na,_,_,_,_,_,316,ADP,Sl,case
315,1824-1831,račun,_,_,_,_,_,314,NOUN,Ncmpl,obl
316,1832-1839,Vegrada,ORG,_,*->18-1,*[18],_,316,PROPN,Npmsg,nmod
317,1840-1841,",",_,_,_,_,_,321,PUNCT,Z,punct
318,1842-1844,ki,_,_,_,_,_,321,SCONJ,Cs,mark
319,1845-1847,biti,_,_,_,_,_,321,AUX,Va-r3s-n,aux
320,1848-1855,izvajati,_,_,*->18-2,*[18],_,317,VERB,Vmpp-sm,acl
321,1856-1864,gradben,_,_,_,_,_,323,ADJ,Agpnpa,amod
322,1865-1869,delo,_,_,_,_,_,321,NOUN,Ncnpa,obj
323,1870-1872,na,_,_,_,_,_,325,ADP,Sl,case
324,1873-1879,dvorec,_,_,_,_,_,323,NOUN,Ncmsl,nmod
325,1880-1882,in,_,_,_,_,_,328,CCONJ,Cc,cc
326,1883-1887,tudi,_,_,_,_,_,328,PART,Q,advmod
327,1888-1893,voditi,_,_,*->18-3,*[18],_,321,VERB,Vmpp-sm,conj
328,1894-1907,računovodstvo,_,_,_,_,_,328,NOUN,Ncnsa,obj
329,1908-1915,Betnava,ORG,_,*->2-11,*[2],_,329,PROPN,Npfsg,nmod
330,1916-1917,.,_,_,_,_,_,314,PUNCT,Z,punct
331,1918-1920,ta,_,_,*->2-12,*[2],_,334,DET,Pd-msn,det
332,1921-1931,evropski,_,_,_,_,_,334,ADJ,Agpmsg,amod
333,1932-1939,denar,_,_,_,_,_,342,NOUN,Ncmsg,obj
334,1940-1946,zaradi,_,_,_,_,_,337,ADP,Sg,case
335,1947-1957,pozno,_,_,_,_,_,337,ADJ,Agcmsg,amod
336,1958-1965,stečaj,_,_,_,_,_,342,NOUN,Ncmsg,obl
337,1966-1973,Vegrada,ORG,_,*->18-4,*[18],_,337,PROPN,Npmsg,nmod
338,1974-1976,biti,_,_,_,_,_,342,AUX,Va-r3s-y,aux
339,1977-1983,nikoli,_,_,_,_,_,342,ADV,Rgp,advmod
340,1984-1987,več,_,_,_,_,_,342,PART,Q,advmod
341,1988-1994,videti,_,_,*->2-13,*[2],_,26,VERB,Vmbp-sf,parataxis
342,1995-1996,",",_,_,_,_,_,342,PUNCT,Z,punct
343,1997-2001,isti,_,_,_,_,_,345,DET,Pi-msa,det
344,2002-2008,znesek,_,_,_,_,_,350,NOUN,Ncmsan,obj
345,2009-2011,pa,_,_,_,_,_,347,CCONJ,Cc,advmod
346,2012-2017,skušati,_,_,_,_,_,342,VERB,Vmpr3s,conj
347,2018-2020,od,_,_,_,_,_,349,ADP,Sg,case
348,2021-2024,on,_,_,*->2-14,*[2],_,350,PRON,Pp3fsg,obl
349,2025-2033,iztožiti,_,_,_,_,_,347,VERB,Vmen,xcomp
350,2034-2038,tudi,_,_,_,_,_,350,PART,Q,advmod
351,2039-2048,faktoring,_,_,_,_,_,350,NOUN,Ncmsn,nsubj
352,2049-2055,družba,_,_,_,_,_,350,NOUN,Ncfsn,nsubj
353,2056-2057,",",_,_,_,_,_,359,PUNCT,Z,punct
354,2058-2060,ki,_,_,_,_,_,359,SCONJ,Cs,mark
355,2061-2063,on,_,_,_,_,_,359,PRON,Pp3fsd--y,iobj
356,2064-2066,biti,_,_,_,_,_,359,AUX,Va-r3s-n,aux
357,2067-2073,Vegrad,ORG,_,*->18-5,*[18],_,359,PROPN,Npmsn,nsubj
358,2074-2082,odstopiti,_,_,_,_,_,353,VERB,Vmep-sm,acl
359,2083-2091,terjatev,_,_,_,_,_,359,NOUN,Ncfpg,obj
360,2092-2093,.,_,_,_,_,_,347,PUNCT,Z,punct
361,2094-2096,iz,_,_,_,_,_,364,ADP,Sg,case
362,2097-2105,interen,_,_,_,_,_,364,ADJ,Agpfpg,amod
363,2106-2112,listina,_,_,_,_,_,360,NOUN,Ncfpg,nmod
364,2113-2123,Nadškofija,ORG[17],_,*->21-3,*[21],_,364,PROPN,Npfsg,nmod
365,2124-2131,Maribor,ORG[17]|LOC[18],0,*->21-3|*->19-1,*[21]|*[19],3 - Nevtralno,365,PROPN,Npmsn,nmod
366,2132-2133,",",_,_,_,_,_,371,PUNCT,Z,punct
367,2134-2136,ki,_,_,_,_,_,371,SCONJ,Cs,mark
368,2137-2140,biti,_,_,_,_,_,371,AUX,Va-r1p-n,aux
369,2141-2144,on,_,_,_,_,_,371,PRON,Pp3mpa--y,obj
370,2145-2154,pridobiti,_,_,_,_,_,365,VERB,Vmep-pm,acl
371,2155-2156,",",_,_,_,_,_,371,PUNCT,Z,punct
372,2157-2159,biti,_,_,_,_,_,374,AUX,Va-r3s-n,cop
373,2160-2168,razviden,_,_,_,_,_,360,ADJ,Agpnsn,acl
374,2169-2170,",",_,_,_,_,_,384,PUNCT,Z,punct
375,2171-2173,da,_,_,_,_,_,384,SCONJ,Cs,mark
376,2174-2176,biti,_,_,_,_,_,384,AUX,Va-r3s-n,aux
377,2177-2182,njen,_,_,*->21-4,*[21],_,379,DET,Ps3nsnsf,det
378,2183-2190,vodstvo,_,_,_,_,_,384,NOUN,Ncnsn,nsubj
379,2191-2196,konec,_,_,_,_,_,381,ADP,Sg,case
380,2197-2201,leto,_,_,_,_,_,384,NOUN,Ncnsg,obl
381,2202-2206,2009,_,_,_,_,_,381,NUM,Mdc,nummod
382,2207-2213,Vegrad,ORG,_,*->18-6,*[18],_,382,PROPN,Npmsn,nmod
383,2214-2221,prositi,_,_,_,_,_,374,VERB,Vmpp-sn,csubj
384,2222-2223,",",_,_,_,_,_,389,PUNCT,Z,punct
385,2224-2226,da,_,_,_,_,_,389,SCONJ,Cs,mark
386,2227-2229,biti,_,_,_,_,_,389,AUX,Va-c,aux
387,2230-2232,ta,_,2,*->18-7,*[18],2 - Negativno,389,DET,Pd-msn,nsubj
388,2233-2240,odkupiti,_,_,_,_,_,384,VERB,Vmep-sm,ccomp
389,2241-2247,deleža,_,_,_,_,_,389,NOUN,Ncmpa,obj
390,2248-2252,vsaj,_,_,_,_,_,392,PART,Q,advmod
391,2253-2262,Potočnik,PER,_,*->13-2,*[13],_,390,PROPN,Npmsg,nmod
392,2263-2264,(,_,_,_,_,_,394,PUNCT,Z,punct
393,2265-2275,predsednik,_,0,*->13-3,*[13],3 - Nevtralno[32],392,NOUN,Ncmsn,appos
394,2276-2286,nadzoren,_,0,*->13-3,*[13],3 - Nevtralno[32],396,ADJ,Agpmsg,amod
395,2287-2292,svet,_,0,*->13-3,*[13],3 - Nevtralno[32],394,NOUN,Ncmsg,nmod
396,2293-2298,zvona,ORG[19],0,*->13-3|*->20-1,*[13]|*[20],3 - Nevtralno[32]|3 - Nevtralno[33],396,NOUN,Ncmsg,nmod
397,2299-2302,dva,ORG[19],0,*->13-3|*->20-1,*[13]|*[20],3 - Nevtralno[32]|3 - Nevtralno[33],399,NUM,Mlcmda,nummod
398,2303-2311,holdinga,ORG[19],0,*->13-3|*->20-1,*[13]|*[20],3 - Nevtralno[32]|3 - Nevtralno[33],397,NOUN,Ncmda,nmod
399,2312-2313,),_,_,_,_,_,394,PUNCT,Z,punct
400,2314-2316,in,_,_,_,_,_,402,CCONJ,Cc,cc
401,2317-2323,Ekarta,PER,_,*->16-2,*[16],_,397,PROPN,Npmsay,conj
402,2324-2325,(,_,_,_,_,_,404,PUNCT,Z,punct
403,2326-2331,vodja,_,0,*->16-3,*[16],3 - Nevtralno[34],402,NOUN,Ncmsn,appos
404,2332-2338,služba,_,0,*->16-3,*[16],3 - Nevtralno[34],404,NOUN,Ncfsg,nmod
405,2339-2341,za,_,0,*->16-3,*[16],3 - Nevtralno[34],407,ADP,Sa,case
406,2342-2353,investicija,_,0,*->16-3,*[16],3 - Nevtralno[34],405,NOUN,Ncfpa,nmod
407,2354-2356,in,_,0,*->16-3,*[16],3 - Nevtralno[34],409,CCONJ,Cc,cc
408,2357-2368,vzdrževanje,_,0,*->16-3,*[16],3 - Nevtralno[34],407,NOUN,Ncnpa,conj
409,2369-2370,v,_,0,*->16-3,*[16],3 - Nevtralno[34],411,ADP,Sl,case
410,2371-2381,nadškofija,_,0,*->16-3,*[16],3 - Nevtralno[34],409,NOUN,Ncfsl,nmod
411,2382-2383,),_,_,_,_,_,404,PUNCT,Z,punct
412,2384-2385,.,_,_,_,_,_,389,PUNCT,Z,punct
413,2386-2392,vseeno,_,_,_,_,_,418,ADV,Rgp,advmod
414,2393-2395,se,_,_,_,_,_,418,PRON,Px------y,expl
415,2396-2398,biti,_,_,_,_,_,418,AUX,Va-r3s-n,aux
416,2399-2406,dogovor,_,_,_,_,_,418,NOUN,Ncmsn,nsubj
417,2407-2416,izjaloviti,_,_,_,_,_,26,VERB,Vmep-sm,parataxis
418,2417-2418,",",_,_,_,_,_,418,PUNCT,Z,punct
419,2419-2429,nadškofija,_,_,*->21-5,*[21],_,418,NOUN,Ncfsn,nsubj
420,2430-2431,",",_,_,_,_,_,424,PUNCT,Z,punct
421,2432-2434,ki,_,_,_,_,_,424,SCONJ,Cs,mark
422,2435-2437,biti,_,_,_,_,_,424,AUX,Va-r3s-n,aux
423,2438-2444,morati,_,_,*->21-6,*[21],_,420,VERB,Vmpp-sf,acl
424,2445-2446,v,_,_,_,_,_,426,ADP,Sl,case
425,2447-2452,ime,_,_,_,_,_,428,NOUN,Ncnsl,obl
426,2453-2460,Betnava,ORG,2,*->2-15,*[2],2 - Negativno,426,PROPN,Npfsg,nmod
427,2461-2467,vrniti,_,_,_,_,_,424,VERB,Vmen,xcomp
428,2468-2476,evropski,_,_,_,_,_,430,ADJ,Agpnpa,amod
429,2477-2485,sredstvo,_,_,_,_,_,428,NOUN,Ncnpa,obj
430,2486-2487,",",_,_,_,_,_,424,PUNCT,Z,punct
431,2488-2490,pa,_,_,_,_,_,435,CCONJ,Cc,advmod
432,2491-2493,biti,_,_,_,_,_,435,AUX,Va-r3s-n,aux
433,2494-2495,"""",_,_,_,_,_,435,PUNCT,Z,punct
434,2496-2501,najti,_,2,*->21-7,*[21],2 - Negativno,428,VERB,Vmep-sf,conj
435,2502-2503,"""",_,_,_,_,_,435,PUNCT,Z,punct
436,2504-2509,drug,_,_,_,_,_,438,ADJ,Mlpmpa,amod
437,2510-2515,kupec,_,_,_,_,_,435,NOUN,Ncmpa,obj
438,2516-2517,.,_,_,_,_,_,26,PUNCT,Z,punct
439,2518-2529,Tomazdmodic,_,_,_,_,_,438,PROPN,Npmsn,nmod
440,2530-2531,@,_,_,_,_,_,26,PUNCT,Z,punct
