idx,chars_idx,token,entity_type,sentiment,idk_1,idk_2,orig_sentiment,heads,upos,xpos,deprel
0,0-10,Ajdovščina,LOC,0,*->1-1,*[1],3 - Nevtralno,13,PROPN,Npfsn,parataxis
1,11-12,-,_,_,_,_,_,1,PUNCT,Z,punct
2,13-25,koordinacija,_,_,_,_,_,13,NOUN,Ncfsn,nsubj
3,26-36,sindikat,_,_,_,_,_,3,NOUN,Ncmpg,nmod
4,37-38,v,_,_,_,_,_,6,ADP,Sl,case
5,39-47,Primorje,ORG,_,*->2-1,*[2],_,3,PROPN,Npnsl,nmod
6,48-53,kljub,_,_,_,_,_,8,ADP,Sd,case
7,54-63,napoved,_,_,_,_,_,13,NOUN,Ncfpd,obl
8,64-66,od,_,_,_,_,_,10,ADP,Sg,case
9,67-73,uprava,_,_,_,_,_,8,NOUN,Ncfsg,nmod
10,74-76,še,_,_,_,_,_,13,PART,Q,advmod
11,77-79,biti,_,_,_,_,_,13,AUX,Va-r3s-y,aux
12,80-86,dobiti,_,_,_,_,_,0,VERB,Vmep-sf,root
13,87-95,potrditi,_,_,_,_,_,13,VERB,Vmep-sf,advcl
14,96-97,",",_,_,_,_,_,19,PUNCT,Z,punct
15,98-100,da,_,_,_,_,_,19,SCONJ,Cs,mark
16,101-103,biti,_,_,_,_,_,19,AUX,Va-r3s-n,aux
17,104-107,biti,_,_,_,_,_,19,AUX,Va-p-sm,cop
18,108-115,nakazan,_,_,_,_,_,14,ADJ,Appmsnn,ccomp
19,116-121,denar,_,_,_,_,_,19,NOUN,Ncmsn,nsubj
20,122-124,za,_,_,_,_,_,23,ADP,Sa,case
21,125-133,zaostal,_,_,_,_,_,23,ADJ,Appfpa,amod
22,134-139,plača,_,_,_,_,_,20,NOUN,Ncfpa,nmod
23,140-141,",",_,_,_,_,_,28,PUNCT,Z,punct
24,142-145,kar,_,_,_,_,_,28,PRON,Pr-nsa,obj
25,146-147,v,_,_,_,_,_,27,ADP,Sl,case
26,148-160,koordinacija,_,_,_,_,_,28,NOUN,Ncfsl,obl
27,161-169,razumeti,_,_,_,_,_,19,VERB,Vmbr3p,advcl
28,170-171,",",_,_,_,_,_,33,PUNCT,Z,punct
29,172-175,kot,_,_,_,_,_,33,SCONJ,Cs,mark
30,176-178,da,_,_,_,_,_,33,SCONJ,Cs,mark
31,179-186,denar,_,_,_,_,_,33,NOUN,Ncmsg,nsubj
32,187-189,biti,_,_,_,_,_,28,VERB,Va-r3s-y,advcl
33,190-191,",",_,_,_,_,_,33,PUNCT,Z,punct
34,192-194,biti,_,_,_,_,_,36,AUX,Va-r3s-n,aux
35,195-202,povedati,_,_,_,_,_,13,VERB,Vmep-sm,parataxis
36,203-214,sindikalist,_,_,*->3-1,*[3],_,36,NOUN,Ncmsn,nsubj
37,215-220,Bojan,PER[1],_,*->3-1,*[3],_,37,PROPN,Npmsn,nmod
38,221-227,Kramar,PER[1],_,*->3-1,*[3],_,38,PROPN,Npmsn,flat:name
39,228-229,.,_,_,_,_,_,36,PUNCT,Z,punct
40,230-234,tako,_,_,_,_,_,44,ADV,Rgp,advmod
41,235-237,biti,_,_,_,_,_,44,AUX,Va-r3p-n,aux
42,238-247,sindikat,_,_,_,_,_,44,NOUN,Ncmpn,nsubj
43,248-256,potrditi,_,_,_,_,_,36,VERB,Vmep-pm,advcl
44,257-262,sklep,_,_,_,_,_,44,NOUN,Ncmsan,obj
45,263-264,",",_,_,_,_,_,54,PUNCT,Z,punct
46,265-267,da,_,_,_,_,_,54,SCONJ,Cs,mark
47,268-269,v,_,_,_,_,_,49,ADP,Sa,case
48,270-280,ponedeljek,_,_,_,_,_,55,NOUN,Ncmsan,obl
49,281-283,ob,_,_,_,_,_,51,ADP,Sl,case
50,284-285,7,_,_,_,_,_,55,NUM,Mdc,obl
51,286-287,.,_,_,_,_,_,54,PUNCT,Z,punct
52,288-291,ura,_,_,_,_,_,55,NOUN,Ncfsl,obl
53,292-299,začeti,_,_,_,_,_,45,VERB,Vmer3p,acl
54,300-308,stavkati,_,_,_,_,_,54,VERB,Vmpn,xcomp
55,309-310,.,_,_,_,_,_,54,PUNCT,Z,punct
56,311-312,v,_,_,_,_,_,58,ADP,Sl,case
57,313-319,uprava,_,_,_,_,_,62,NOUN,Ncfsl,obl
58,320-326,zadeva,_,_,_,_,_,62,NOUN,Ncfpn,nsubj
59,327-335,zaenkrat,_,_,_,_,_,62,ADV,Rgp,advmod
60,336-338,ne,_,_,_,_,_,62,PART,Q,advmod
61,339-350,komentirati,_,_,_,_,_,54,VERB,Vmbr3p,conj
62,351-352,.,_,_,_,_,_,62,PUNCT,Z,punct
63,353-356,med,_,_,_,_,_,65,ADP,Si,case
64,357-366,sestanek,_,_,_,_,_,62,NOUN,Ncmsi,obl
65,367-379,koordinacija,_,_,_,_,_,65,NOUN,Ncfsg,nmod
66,380-390,sindikat,_,_,_,_,_,66,NOUN,Ncmpg,nmod
67,391-392,",",_,_,_,_,_,72,PUNCT,Z,punct
68,393-395,ki,_,_,_,_,_,72,SCONJ,Cs,mark
69,396-398,se,_,_,_,_,_,72,PRON,Px------y,expl
70,399-401,biti,_,_,_,_,_,72,AUX,Va-r3s-n,aux
71,402-407,začeti,_,_,_,_,_,67,VERB,Vmep-sm,acl
72,408-410,ob,_,_,_,_,_,74,ADP,Sl,case
73,411-413,14,_,_,_,_,_,72,NUM,Mdc,obl
74,414-415,.,_,_,_,_,_,76,PUNCT,Z,punct
75,416-419,ura,_,_,_,_,_,72,NOUN,Ncfsl,obl
76,420-421,",",_,_,_,_,_,72,PUNCT,Z,punct
77,422-425,on,_,_,_,_,_,84,PRON,Pp3mpd--y,obj
78,426-428,biti,_,_,_,_,_,84,AUX,Va-r3s-n,aux
79,429-437,tiskoven,_,_,_,_,_,81,ADJ,Agpfsn,amod
80,438-450,predstavnica,_,_,_,_,_,84,NOUN,Ncfsn,nsubj
81,451-457,družba,_,_,*->2-2,*[2],_,81,NOUN,Ncfsg,nmod
82,458-463,sicer,_,_,_,_,_,84,PART,Q,advmod
83,464-470,priti,_,_,_,_,_,13,VERB,Vmep-sf,parataxis
84,471-479,sporočiti,_,_,_,_,_,84,VERB,Vmen,xcomp
85,480-481,",",_,_,_,_,_,94,PUNCT,Z,punct
86,482-484,da,_,_,_,_,_,94,SCONJ,Cs,mark
87,485-487,biti,_,_,_,_,_,94,AUX,Va-f3s-n,aux
88,488-494,uprava,_,_,_,_,_,94,NOUN,Ncfsn,nsubj
89,495-505,sindikat,_,_,_,_,_,94,NOUN,Ncmpd,iobj
90,506-516,kasno,_,_,_,_,_,94,ADV,Rgs,advmod
91,517-519,do,_,_,_,_,_,93,ADP,Sg,case
92,520-525,15.30,_,_,_,_,_,94,NUM,Mdc,obl
93,526-530,dati,_,_,_,_,_,85,VERB,Vmep-sf,ccomp
94,531-536,pisno,_,_,_,_,_,96,ADJ,Agpnsa,amod
95,537-545,potrdilo,_,_,_,_,_,94,NOUN,Ncnsa,obj
96,546-547,",",_,_,_,_,_,101,PUNCT,Z,punct
97,548-550,da,_,_,_,_,_,101,SCONJ,Cs,mark
98,551-553,biti,_,_,_,_,_,101,AUX,Va-r3s-n,aux
99,554-559,denar,_,_,_,_,_,101,NOUN,Ncmsn,nsubj
100,560-566,priti,_,_,_,_,_,96,VERB,Vmep-sm,acl
101,567-569,in,_,_,_,_,_,109,CCONJ,Cc,cc
102,570-572,da,_,_,_,_,_,109,SCONJ,Cs,mark
103,573-575,biti,_,_,_,_,_,109,AUX,Va-r3s-n,cop
104,576-578,na,_,_,_,_,_,106,ADP,Sl,case
105,579-585,račun,_,_,_,_,_,109,NOUN,Ncmsl,obl
106,586-594,cesten,ORG[2],0,*->4-1,*[4],3 - Nevtralno[16],108,ADJ,Agpnsg,amod
107,595-603,podjetje,ORG[2],0,*->4-1,*[4],3 - Nevtralno[16],106,NOUN,Ncnsg,nmod
108,604-608,nov,ORG[2]|LOC[3],0,*->4-1|*->5-1,*[4]|*[5],3 - Nevtralno[16]|3 - Nevtralno[17],101,ADJ,Agpfsn,conj
109,609-615,Gorica,ORG[2]|LOC[3],0,*->4-1|*->5-1,*[4]|*[5],3 - Nevtralno[16]|3 - Nevtralno[17],109,PROPN,Npfsn,nsubj
110,616-617,",",_,_,_,_,_,115,PUNCT,Z,punct
111,618-621,kar,_,_,_,_,_,115,PRON,Pr-nsn,nsubj
112,622-625,naj,_,_,_,_,_,115,PART,Q,advmod
113,626-628,biti,_,_,_,_,_,115,AUX,Va-c,aux
114,629-642,predstavljati,_,_,_,_,_,110,VERB,Vmpp-sn,acl
115,643-653,zagotovilo,_,_,_,_,_,115,NOUN,Ncnsa,obj
116,654-655,",",_,_,_,_,_,122,PUNCT,Z,punct
117,656-658,da,_,_,_,_,_,122,SCONJ,Cs,mark
118,659-663,biti,_,_,_,_,_,122,AUX,Va-f3p-n,cop
119,664-672,sredstvo,_,_,_,_,_,122,NOUN,Ncnpn,nsubj
120,673-677,nato,_,_,_,_,_,122,ADV,Rgp,advmod
121,678-689,prenakazan,_,_,_,_,_,116,ADJ,Appnpn,acl
122,690-698,delavec,_,_,_,_,_,122,NOUN,Ncmpd,obj
123,699-700,",",_,_,_,_,_,122,PUNCT,Z,punct
124,701-703,biti,_,_,_,_,_,126,AUX,Va-r3s-n,aux
125,704-712,pojasniti,_,_,_,_,_,13,VERB,Vmep-sm,parataxis
126,713-721,sekretar,_,_,*->3-2,*[3],_,126,NOUN,Ncmsn,nsubj
127,722-727,zveza,ORG[4],0,*->3-2|*->17-1,*[3]|*[17],3 - Nevtralno[18],127,NOUN,Ncfsg,nmod
128,728-737,svoboden,ORG[4],0,*->3-2|*->17-1,*[3]|*[17],3 - Nevtralno[18],130,ADJ,Agpmpg,amod
129,738-748,sindikat,ORG[4],0,*->3-2|*->17-1,*[3]|*[17],3 - Nevtralno[18],128,NOUN,Ncmpg,nmod
130,749-758,Slovenija,ORG[4]|LOC[5],0,*->3-2|*->17-1|*->6-1,*[3]|*[17]|*[6],3 - Nevtralno[18],130,PROPN,Npfsg,nmod
131,759-761,za,ORG[4],0,*->3-2|*->17-1,*[3]|*[17],3 - Nevtralno[18],133,ADP,Sa,case
132,762-771,Primorska,ORG[4]|LOC[6],0,*->3-2|*->17-1|*->7-1,*[3]|*[17]|*[7],3 - Nevtralno[18]|3 - Nevtralno[19],130,PROPN,Npfsa,nmod
133,772-774,in,ORG[4],0,*->3-2|*->17-1,*[3]|*[17],3 - Nevtralno[18],135,CCONJ,Cc,cc
134,775-785,Notranjska,ORG[4]|LOC[7],0,*->3-2|*->17-1|*->8-1,*[3]|*[17]|*[8],3 - Nevtralno[18]|3 - Nevtralno[20],133,PROPN,Npfsa,conj
135,786-792,Kramar,PER,_,*->3-2,*[3],_,135,PROPN,Npfsn,flat:name
136,793-794,.,_,_,_,_,_,122,PUNCT,Z,punct
137,795-799,biti,_,_,_,_,_,141,AUX,Va-f3p-n,aux
138,800-810,zaposlen,_,_,_,_,_,141,ADJ,Appmpd,obj
139,811-816,danes,_,_,_,_,_,141,ADV,Rgp,advmod
140,817-825,nakazati,_,_,_,_,_,13,VERB,Vmep-pm,parataxis
141,826-831,denar,_,_,_,_,_,141,NOUN,Ncmsan,obj
142,832-833,?,_,_,_,_,_,141,PUNCT,Z,punct
143,834-835,"""",_,_,_,_,_,145,PUNCT,Z,punct
144,836-844,potrditi,_,_,_,_,_,141,VERB,Vmep-sf,parataxis
145,845-850,biti,_,_,_,_,_,162,AUX,Va-r1p-y,aux
146,851-858,prejeti,_,_,_,_,_,141,VERB,Vmep-pm,conj
147,859-860,",",_,_,_,_,_,153,PUNCT,Z,punct
148,861-864,kar,_,_,_,_,_,153,PRON,Pr-nsa,obj
149,865-866,v,_,_,_,_,_,152,ADP,Sl,case
150,867-877,stavkoven,_,_,_,_,_,152,ADJ,Agpmsl,amod
151,878-884,odbor,_,_,_,_,_,153,NOUN,Ncmsl,obl
152,885-893,razumeti,_,_,_,_,_,147,VERB,Vmbr1p,ccomp
153,894-895,",",_,_,_,_,_,158,PUNCT,Z,punct
154,896-899,kot,_,_,_,_,_,158,SCONJ,Cs,mark
155,900-902,da,_,_,_,_,_,158,SCONJ,Cs,mark
156,903-910,denar,_,_,_,_,_,158,NOUN,Ncmsg,nsubj
157,911-913,biti,_,_,_,_,_,153,VERB,Va-r3s-y,advcl
158,914-915,",",_,_,_,_,_,158,PUNCT,Z,punct
159,916-917,"""",_,_,_,_,_,162,PUNCT,Z,punct
160,918-920,biti,_,_,_,_,_,162,AUX,Va-r3s-n,aux
161,921-931,nadaljevati,_,_,_,_,_,13,VERB,Vmpp-sm,parataxis
162,932-938,Kramar,PER,_,*->3-3,*[3],_,162,PROPN,Npmsn,nsubj
163,939-940,.,_,_,_,_,_,162,PUNCT,Z,punct
164,941-951,posledično,_,_,_,_,_,179,ADV,Rgp,advmod
165,952-956,biti,_,_,_,_,_,179,AUX,Va-f3p-n,aux
166,957-958,v,_,_,_,_,_,168,ADP,Sl,case
167,959-965,sklad,_,_,_,_,_,179,NOUN,Ncmsl,obl
168,966-967,z,_,_,_,_,_,172,ADP,Si,case
169,968-970,že,_,_,_,_,_,179,PART,Q,advmod
170,971-981,sprejet,_,_,_,_,_,172,ADJ,Appmpi,amod
171,982-988,sklep,_,_,_,_,_,168,NOUN,Ncmpi,nmod
172,989-990,v,_,_,_,_,_,174,ADP,Sa,case
173,991-1001,ponedeljek,_,_,_,_,_,172,NOUN,Ncmsan,nmod
174,1002-1004,ob,_,_,_,_,_,176,ADP,Sl,case
175,1005-1006,7,_,_,_,_,_,178,NUM,Mdc,nummod
176,1007-1008,.,_,_,_,_,_,174,PUNCT,Z,nmod
177,1009-1012,ura,_,_,_,_,_,179,NOUN,Ncfsl,obl
178,1013-1019,začeti,_,_,_,_,_,13,VERB,Vmep-pm,parataxis
179,1020-1026,stavka,_,_,_,_,_,179,NOUN,Ncfsa,obj
180,1027-1028,.,_,_,_,_,_,179,PUNCT,Z,punct
181,1029-1034,glede,_,_,_,_,_,185,ADV,Rgp,advmod
182,1035-1037,na,_,_,_,_,_,185,ADP,Sa,case
183,1038-1046,posloven,_,_,_,_,_,185,ADJ,Agpmsay,amod
184,1047-1050,čas,_,_,_,_,_,194,NOUN,Ncmsan,obl
185,1051-1055,banka,_,_,_,_,_,185,NOUN,Ncfpg,nmod
186,1056-1058,se,_,_,_,_,_,194,PRON,Px------y,expl
187,1059-1061,do,_,_,_,_,_,189,ADP,Sg,case
188,1062-1072,ponedeljka,_,_,_,_,_,194,NOUN,Ncmsg,obl
189,1073-1079,namreč,_,_,_,_,_,193,CCONJ,Cc,advmod
190,1080-1086,očitno,_,_,_,_,_,193,ADV,Rgp,advmod
191,1087-1089,ne,_,_,_,_,_,193,PART,Q,advmod
192,1090-1094,moči,_,_,_,_,_,179,VERB,Vmpr3s,conj
193,1095-1102,zgoditi,_,_,_,_,_,193,VERB,Vmen,xcomp
194,1103-1106,nič,_,_,_,_,_,194,PRON,Pz-nsa,obj
195,1107-1113,nov,_,_,_,_,_,194,ADJ,Agpnsg,obj
196,1114-1115,",",_,_,_,_,_,200,PUNCT,Z,punct
197,1116-1118,biti,_,_,_,_,_,200,AUX,Va-r3s-n,aux
198,1119-1121,še,_,_,_,_,_,200,PART,Q,advmod
199,1122-1129,navesti,_,_,_,_,_,13,VERB,Vmep-sm,parataxis
200,1130-1136,Kramar,PER,_,*->3-4,*[3],_,200,PROPN,Npmsn,nsubj
201,1137-1138,",",_,_,_,_,_,206,PUNCT,Z,punct
202,1139-1141,ki,_,_,_,_,_,206,SCONJ,Cs,mark
203,1142-1144,pa,_,_,_,_,_,206,CCONJ,Cc,advmod
204,1145-1147,biti,_,_,_,_,_,206,AUX,Va-r3s-n,aux
205,1148-1156,dopustiti,_,0,*->3-5,*[3],3 - Nevtralno,201,VERB,Vmep-sm,acl
206,1157-1164,možnost,_,_,_,_,_,206,NOUN,Ncfsa,obj
207,1165-1166,",",_,_,_,_,_,213,PUNCT,Z,punct
208,1167-1169,da,_,_,_,_,_,213,SCONJ,Cs,mark
209,1170-1172,se,_,_,_,_,_,213,PRON,Px------y,expl
210,1173-1181,morebiti,_,_,_,_,_,213,ADV,Rgp,advmod
211,1182-1185,kaj,_,_,_,_,_,213,PRON,Pq-nsa,obj
212,1186-1194,spremeniti,_,_,_,_,_,207,VERB,Vmer3s,acl
213,1195-1196,v,_,_,_,_,_,215,ADP,Sa,case
214,1197-1207,ponedeljek,_,_,_,_,_,213,NOUN,Ncmsan,obl
215,1208-1209,v,_,_,_,_,_,217,ADP,Sl,case
216,1210-1214,čas,_,_,_,_,_,213,NOUN,Ncmsl,obl
217,1215-1224,izvajanje,_,_,_,_,_,217,NOUN,Ncnsg,nmod
218,1225-1231,stavka,_,_,_,_,_,218,NOUN,Ncfsg,nmod
219,1232-1233,.,_,_,_,_,_,13,PUNCT,Z,punct
220,1234-1239,vodja,_,_,*->9-1,*[9],_,230,NOUN,Ncmsn,nsubj
221,1240-1247,odnos,_,_,*->9-1,*[9],_,221,NOUN,Ncmpg,nmod
222,1248-1249,z,_,_,*->9-1,*[9],_,224,ADP,Si,case
223,1250-1259,javnost,_,_,*->9-1,*[9],_,222,NOUN,Ncfpi,nmod
224,1260-1261,v,_,_,*->9-1,*[9],_,226,ADP,Sl,case
225,1262-1270,Primorje,ORG,_,*->9-1|*->2-3,*[9]|*[2],_,224,PROPN,Npnsl,nmod
226,1271-1276,Ivan,PER[8],_,*->9-1,*[9],_,226,PROPN,Npfsg,nmod
227,1277-1283,Bratož,PER[8],_,*->9-1,*[9],_,227,PROPN,Npfsn,flat:name
228,1284-1286,biti,_,_,_,_,_,230,AUX,Va-r3s-n,aux
229,1287-1295,povedati,_,_,_,_,_,13,VERB,Vmep-sf,parataxis
230,1296-1297,",",_,_,_,_,_,237,PUNCT,Z,punct
231,1298-1300,da,_,_,_,_,_,237,SCONJ,Cs,mark
232,1301-1307,zadeva,_,_,_,_,_,237,NOUN,Ncfpn,nsubj
233,1308-1316,zaenkrat,_,_,_,_,_,238,ADV,Rgp,advmod
234,1317-1319,še,_,_,_,_,_,237,PART,Q,advmod
235,1320-1322,ne,_,_,_,_,_,237,PART,Q,advmod
236,1323-1327,moči,_,_,*->9-2,*[9],_,230,VERB,Vmpr3s,ccomp
237,1328-1339,komentirati,_,_,_,_,_,237,VERB,Vmbn,xcomp
238,1340-1341,",",_,_,_,_,_,237,PUNCT,Z,punct
239,1342-1346,prav,_,_,_,_,_,241,PART,Q,advmod
240,1347-1351,tako,_,_,_,_,_,244,ADV,Rgp,advmod
241,1352-1354,pa,_,_,_,_,_,244,CCONJ,Cc,advmod
242,1355-1357,biti,_,_,_,_,_,244,AUX,Va-r3s-y,aux
243,1358-1368,odgovoriti,_,2,*->9-3,*[9],2 - Negativno,230,VERB,Vmep-sf,advcl
244,1369-1371,na,_,_,_,_,_,246,ADP,Sa,case
245,1372-1381,vprašanje,_,_,_,_,_,244,NOUN,Ncnsa,obl
246,1382-1383,",",_,_,_,_,_,252,PUNCT,Z,punct
247,1384-1387,ali,_,_,_,_,_,252,ADV,Rgp,mark
248,1388-1392,biti,_,_,_,_,_,252,AUX,Va-f3p-n,aux
249,1393-1398,danes,_,_,_,_,_,252,ADV,Rgp,advmod
250,1399-1409,zaposlen,_,_,_,_,_,252,ADJ,Appmpd,iobj
251,1410-1418,nakazati,_,_,_,_,_,246,VERB,Vmep-pm,acl
252,1419-1424,denar,_,_,_,_,_,252,NOUN,Ncmsan,obj
253,1425-1426,.,_,_,_,_,_,244,PUNCT,Z,punct
254,1427-1436,sindikat,_,_,_,_,_,256,NOUN,Ncmpn,nsubj
255,1437-1444,terjati,_,_,_,_,_,13,VERB,Vmpr3p,parataxis
256,1445-1454,izplačilo,_,_,_,_,_,256,NOUN,Ncnsa,obj
257,1455-1462,razlika,_,_,_,_,_,257,NOUN,Ncfsg,nmod
258,1463-1473,marčevski,_,_,_,_,_,260,ADJ,Agpfpg,amod
259,1474-1478,plača,_,_,_,_,_,258,NOUN,Ncfpg,nmod
260,1479-1481,in,_,_,_,_,_,262,CCONJ,Cc,cc
261,1482-1491,poravnava,_,_,_,_,_,258,NOUN,Ncfsa,conj
262,1492-1502,prispevek,_,_,_,_,_,262,NOUN,Ncmpg,nmod
263,1503-1505,za,_,_,_,_,_,266,ADP,Sa,case
264,1506-1514,socialen,_,_,_,_,_,266,ADJ,Agpfsa,amod
265,1515-1522,varnost,_,_,_,_,_,263,NOUN,Ncfsa,nmod
266,1523-1533,zaposlen,_,_,_,_,_,266,ADJ,Appmpg,amod
267,1534-1536,za,_,_,_,_,_,271,ADP,Sa,case
268,1537-1543,zadnji,_,_,_,_,_,271,ADJ,Agpmpa,amod
269,1544-1547,trije,_,_,_,_,_,271,NUM,Mlcmpa,nummod
270,1548-1554,mesec,_,_,_,_,_,267,NOUN,Ncmpa,nmod
271,1555-1556,.,_,_,_,_,_,13,PUNCT,Z,punct
272,1557-1563,uprava,_,_,_,_,_,280,NOUN,Ncfsn,nsubj
273,1564-1572,Primorje,ORG,_,*->2-4,*[2],_,273,PROPN,Npnsg,nmod
274,1573-1575,biti,_,_,_,_,_,280,AUX,Va-r3s-n,aux
275,1576-1581,sicer,_,_,_,_,_,280,PART,Q,advmod
276,1582-1583,v,_,_,_,_,_,278,ADP,Sa,case
277,1584-1589,sreda,_,_,_,_,_,280,NOUN,Ncfsa,obl
278,1590-1603,sindikalist,_,_,_,_,_,280,NOUN,Ncmpd,iobj
279,1604-1615,predstaviti,_,_,_,_,_,13,VERB,Vmep-sf,parataxis
280,1616-1621,načrt,_,_,_,_,_,280,NOUN,Ncmsan,obj
281,1622-1624,za,_,_,_,_,_,283,ADP,Sa,case
282,1625-1634,poplačilo,_,_,_,_,_,281,NOUN,Ncnsa,nmod
283,1635-1645,obveznost,_,_,_,_,_,283,NOUN,Ncfsg,nmod
284,1646-1647,z,_,_,_,_,_,286,ADP,Sg,case
285,1648-1655,naslov,_,_,_,_,_,284,NOUN,Ncmsg,nmod
286,1656-1660,plača,_,_,_,_,_,286,NOUN,Ncfpg,nmod
287,1661-1663,in,_,_,_,_,_,289,CCONJ,Cc,cc
288,1664-1674,prispevek,_,_,_,_,_,287,NOUN,Ncmpg,conj
289,1675-1678,ter,_,_,_,_,_,294,CCONJ,Cc,cc
290,1679-1680,z,_,_,_,_,_,292,ADP,Si,case
291,1681-1684,ta,_,_,_,_,_,294,DET,Pd-nsi,det
292,1685-1690,delno,_,_,_,_,_,294,ADJ,Agpfsa,amod
293,1691-1701,izpolnitev,_,_,_,_,_,283,NOUN,Ncfsa,conj
294,1702-1712,stavkoven,_,_,_,_,_,296,ADJ,Agpfpg,amod
295,1713-1719,zahteva,_,_,_,_,_,294,NOUN,Ncfpg,nmod
296,1720-1721,.,_,_,_,_,_,280,PUNCT,Z,punct
297,1722-1724,še,_,_,_,_,_,309,PART,Q,advmod
298,1725-1731,zadnji,_,_,*->2-5,*[2],_,302,ADJ,Agpnsa,amod
299,1732-1738,velik,_,_,*->2-5,*[2],_,302,ADJ,Agpnsa,amod
300,1739-1747,gradben,_,_,*->2-5,*[2],_,302,ADJ,Agpnsa,amod
301,1748-1756,podjetje,_,_,*->2-5,*[2],_,309,NOUN,Ncnsa,obl
302,1757-1760,pri,_,_,*->2-5,*[2],_,304,ADP,Sl,case
303,1761-1764,jaz,_,_,*->2-5,*[2],_,302,PRON,Pp1-pl,nmod
304,1765-1769,nov,_,_,_,_,_,306,ADJ,Agpfsn,amod
305,1770-1776,uprava,_,_,_,_,_,309,NOUN,Ncfsn,nsubj
306,1777-1785,Primorje,ORG,_,*->2-6,*[2],_,306,PROPN,Npnsg,nmod
307,1786-1788,biti,_,_,_,_,_,309,AUX,Va-r3s-n,aux
308,1789-1799,napovedati,_,_,_,_,_,13,VERB,Vmep-sf,parataxis
309,1800-1801,",",_,_,_,_,_,317,PUNCT,Z,punct
310,1802-1804,da,_,_,_,_,_,317,SCONJ,Cs,mark
311,1805-1808,naj,_,_,_,_,_,317,PART,Q,advmod
312,1809-1811,biti,_,_,_,_,_,317,AUX,Va-c,aux
313,1812-1817,denar,_,_,_,_,_,317,NOUN,Ncmsan,obj
314,1818-1820,za,_,_,_,_,_,316,ADP,Sa,case
315,1821-1826,plača,_,_,_,_,_,314,NOUN,Ncfpa,nmod
316,1827-1836,prispevati,_,_,_,_,_,309,VERB,Vmbp-sm,ccomp
317,1837-1846,strateški,_,_,_,_,_,319,ADJ,Agpmsny,amod
318,1847-1854,partner,_,_,_,_,_,317,NOUN,Ncmsn,nsubj
319,1855-1856,",",_,_,_,_,_,324,PUNCT,Z,punct
320,1857-1858,z,_,_,_,_,_,322,ADP,Si,case
321,1859-1866,kateri,_,_,_,_,_,324,DET,Pq-msi,obl
322,1867-1869,se,_,_,_,_,_,324,PRON,Px------y,expl
323,1870-1881,dogovarjati,_,_,_,_,_,319,VERB,Vmpr3p,acl
324,1882-1884,za,_,_,_,_,_,329,ADP,Sa,case
325,1885-1887,30,_,_,_,_,_,328,NUM,Mdc,nummod
326,1888-1889,-,_,_,_,_,_,328,PUNCT,Z,punct
327,1890-1900,milijonski,_,_,_,_,_,329,ADJ,Agpfsa,amod
328,1901-1917,dokapitalizacija,_,_,_,_,_,324,NOUN,Ncfsa,obl
329,1918-1919,.,_,_,_,_,_,317,PUNCT,Z,punct
330,1920-1923,med,_,_,_,_,_,333,ADP,Si,case
331,1924-1936,prednosten,_,_,_,_,_,333,ADJ,Agpfpi,amod
332,1937-1945,naloga,_,_,_,_,_,329,NOUN,Ncfpi,nmod
333,1946-1950,nov,_,_,_,_,_,335,ADJ,Agpfsg,amod
334,1951-1957,uprava,_,_,_,_,_,333,NOUN,Ncfsg,nmod
335,1958-1959,",",_,_,_,_,_,339,PUNCT,Z,punct
336,1960-1962,ki,_,_,_,_,_,339,SCONJ,Cs,mark
337,1963-1965,on,_,_,_,_,_,339,PRON,Pp3fsa--y,obj
338,1966-1970,voditi,_,_,_,_,_,335,VERB,Vmpr3s,acl
339,1971-1976,Darko,PER[9],_,*->10-1,*[10],_,339,PROPN,Npmsn,nsubj
340,1977-1985,Valenčič,PER[9],_,*->10-1,*[10],_,340,PROPN,Npmsn,flat:name
341,1986-1987,",",_,_,_,_,_,339,PUNCT,Z,punct
342,1988-1989,v,_,_,_,_,_,344,ADP,Sl,case
343,1990-1994,on,_,_,_,_,_,348,PRON,Pp3fsl,nmod
344,1995-1997,pa,_,_,_,_,_,348,CCONJ,Cc,advmod
345,1998-2001,biti,_,_,_,_,_,348,AUX,Va-r3d-n,aux
346,2002-2006,tudi,_,_,_,_,_,339,PART,Q,advmod
347,2007-2013,Štefan,PER[10],0,*->11-1,*[11],3 - Nevtralno[21],340,PROPN,Npmsn,conj
348,2014-2018,Činč,PER[10],0,*->11-1,*[11],3 - Nevtralno[21],348,PROPN,Npmsn,flat:name
349,2019-2021,in,_,_,_,_,_,351,CCONJ,Cc,cc
350,2022-2032,Sebastijan,PER[11],0,*->12-1,*[12],3 - Nevtralno[22],348,PROPN,Npmsn,conj
351,2033-2043,Trajkovski,PER[11],0,*->12-1,*[12],3 - Nevtralno[22],351,PROPN,Npmsn,flat:name
352,2044-2045,",",_,_,_,_,_,339,PUNCT,Z,punct
353,2046-2048,biti,_,_,_,_,_,357,AUX,Va-r3s-n,cop
354,2049-2054,sicer,_,_,_,_,_,357,PART,Q,advmod
355,2055-2063,predvsem,_,_,_,_,_,357,PART,Q,advmod
356,2064-2075,zagotovitev,_,_,_,_,_,348,NOUN,Ncfsn,acl
357,2076-2086,nemoten,_,_,_,_,_,359,ADJ,Agpnsg,amod
358,2087-2091,delo,_,_,_,_,_,357,NOUN,Ncnsg,nmod
359,2092-2094,na,_,_,_,_,_,362,ADP,Sl,case
360,2095-2099,ves,_,_,_,_,_,362,DET,Pg-npl,det
361,2100-2110,gradbišče,_,_,_,_,_,359,NOUN,Ncnpl,nmod
362,2111-2115,doma,_,_,_,_,_,362,ADV,Rgp,advmod
363,2116-2118,in,_,_,_,_,_,366,CCONJ,Cc,cc
364,2119-2120,v,_,_,_,_,_,366,ADP,Sl,case
365,2121-2127,tujina,_,_,_,_,_,362,NOUN,Ncfsl,nmod
366,2128-2131,ter,_,_,_,_,_,368,CCONJ,Cc,cc
367,2132-2142,pridobitev,_,_,_,_,_,366,NOUN,Ncfsa,conj
368,2143-2148,nov,_,_,_,_,_,370,ADJ,Agpnpg,amod
369,2149-2156,naročiti,_,_,_,_,_,368,NOUN,Ncnpg,nmod
370,2157-2158,",",_,_,_,_,_,374,PUNCT,Z,punct
371,2159-2167,predvsem,_,_,_,_,_,374,PART,Q,advmod
372,2168-2169,v,_,_,_,_,_,374,ADP,Sl,case
373,2170-2176,tujina,_,_,_,_,_,370,NOUN,Ncfsl,appos
374,2177-2178,.,_,_,_,_,_,357,PUNCT,Z,punct
375,2179-2187,Primorje,ORG,_,*->2-7,*[2],_,374,PROPN,Npnsn,nmod
376,2188-2190,biti,_,_,_,_,_,379,AUX,Va-r3s-n,aux
377,2191-2193,še,_,_,_,_,_,374,PART,Q,advmod
378,2194-2200,zadnji,_,_,*->2-8,*[2],_,382,ADJ,Agpnsa,amod
379,2201-2207,velik,_,_,*->2-8,*[2],_,382,ADJ,Agpnsa,amod
380,2208-2216,gradben,_,_,*->2-8,*[2],_,382,ADJ,Agpnsa,amod
381,2217-2225,podjetje,_,_,*->2-8,*[2],_,374,NOUN,Ncnsa,appos
382,2226-2227,v,_,_,*->2-8,*[2],_,384,ADP,Sl,case
383,2228-2237,Slovenija,LOC,0,*->2-8|*->6-2,*[2]|*[6],3 - Nevtralno,382,PROPN,Npfsl,nmod
384,2238-2239,.,_,_,_,_,_,374,PUNCT,Z,punct
385,2240-2246,zaradi,_,_,_,_,_,388,ADP,Sg,case
386,2247-2253,velik,_,_,_,_,_,388,ADJ,Agpfsg,amod
387,2254-2259,kriza,_,_,_,_,_,395,NOUN,Ncfsg,obl
388,2260-2261,v,_,_,_,_,_,390,ADP,Sl,case
389,2262-2274,gradbeništvo,_,_,_,_,_,388,NOUN,Ncnsl,nmod
390,2275-2277,biti,_,_,_,_,_,395,AUX,Va-r3s-n,aux
391,2278-2282,tudi,_,_,_,_,_,395,PART,Q,advmod
392,2283-2291,ajdovski,_,_,*->2-9,*[2],_,394,ADJ,Agpfsn,amod
393,2292-2298,družba,_,_,*->2-9,*[2],_,395,NOUN,Ncfsn,nsubj
394,2299-2304,zaiti,_,_,_,_,_,379,VERB,Vmep-sf,acl
395,2305-2306,v,_,_,_,_,_,397,ADP,Sa,case
396,2307-2313,težava,_,_,_,_,_,395,NOUN,Ncfpa,obl
397,2314-2315,.,_,_,_,_,_,395,PUNCT,Z,punct
398,2316-2323,agonija,_,_,_,_,_,404,NOUN,Ncfsa,obj
399,2324-2326,biti,_,_,_,_,_,401,AUX,Va-r3p-n,aux
400,2327-2336,poskušati,_,_,*->2-10,*[2],_,13,VERB,Vmpp-pm,parataxis
401,2337-2339,že,_,_,_,_,_,401,PART,Q,advmod
402,2340-2344,lani,_,_,_,_,_,404,ADV,Rgp,advmod
403,2345-2355,preprečiti,_,_,_,_,_,401,VERB,Vmen,xcomp
404,2356-2357,z,_,_,_,_,_,406,ADP,Si,case
405,2358-2367,zamenjava,_,_,_,_,_,404,NOUN,Ncfsi,obl
406,2368-2377,upraven,_,_,_,_,_,408,ADJ,Agpmsg,amod
407,2378-2384,odbor,_,_,_,_,_,406,NOUN,Ncmsg,nmod
408,2385-2386,",",_,_,_,_,_,417,PUNCT,Z,punct
409,2387-2394,vodenje,_,_,_,_,_,417,NOUN,Ncnsa,obj
410,2395-2397,pa,_,_,_,_,_,417,CCONJ,Cc,advmod
411,2398-2400,biti,_,_,_,_,_,417,AUX,Va-r3s-n,aux
412,2401-2403,po,_,_,_,_,_,414,ADP,Sl,case
413,2404-2411,odstop,_,_,_,_,_,417,NOUN,Ncmsl,obl
414,2412-2418,Dušan,PER[12],2,*->13-1,*[13],2 - Negativno[23],414,PROPN,Npmsg,nmod
415,2419-2427,Črnigo,PER[12],2,*->13-1,*[13],2 - Negativno[23],415,PROPN,Npmsg,flat:name
416,2428-2436,prevzeti,_,_,_,_,_,404,VERB,Vmep-sf,advcl
417,2437-2444,Marjan,PER[13],_,*->14-1,*[14],_,417,PROPN,Npmsn,nsubj
418,2445-2450,Novak,PER[13],_,*->14-1,*[14],_,418,PROPN,Npfsn,flat:name
419,2451-2452,",",_,_,_,_,_,423,PUNCT,Z,punct
420,2453-2455,po,_,_,_,_,_,423,ADP,Sl,case
421,2456-2462,njen,_,2,*->14-2,*[14],2 - Negativno,423,DET,Ps3mslsf,det
422,2463-2470,odstop,_,_,_,_,_,426,NOUN,Ncmsl,appos
423,2471-2473,pa,_,_,_,_,_,426,CCONJ,Cc,cc
424,2474-2476,še,_,_,_,_,_,426,PART,Q,advmod
425,2477-2482,Darko,PER[14],_,*->10-2,*[10],_,418,PROPN,Npmsn,conj
426,2483-2491,Valenčič,PER[14],_,*->10-2,*[10],_,426,PROPN,Npmsn,flat:name
427,2492-2493,.,_,_,_,_,_,417,PUNCT,Z,punct
428,2494-2496,ta,_,0,*->10-3,*[10],3 - Nevtralno,432,DET,Pd-msn,nsubj
429,2497-2500,naj,_,_,_,_,_,432,PART,Q,advmod
430,2501-2503,biti,_,_,_,_,_,432,AUX,Va-c,aux
431,2504-2512,poskrbeti,_,_,_,_,_,426,VERB,Vmep-sm,acl
432,2513-2515,za,_,_,_,_,_,434,ADP,Sa,case
433,2516-2532,dokapitalizacija,_,_,_,_,_,432,NOUN,Ncfsa,obl
434,2533-2539,družba,_,_,_,_,_,434,NOUN,Ncfsg,nmod
435,2540-2541,",",_,_,_,_,_,448,PUNCT,Z,punct
436,2542-2543,v,_,_,_,_,_,438,ADP,Sa,case
437,2544-2550,kateri,_,_,_,_,_,448,DET,Pq-fsa,obl
438,2551-2554,naj,_,_,_,_,_,448,PART,Q,advmod
439,2555-2557,biti,_,_,_,_,_,448,AUX,Va-c,aux
440,2558-2567,strateški,_,_,_,_,_,442,ADJ,Agpmsny,amod
441,2568-2575,partner,_,_,_,_,_,448,NOUN,Ncmsn,nsubj
442,2576-2580,Icon,ORG[15],0,*->15-1,*[15],3 - Nevtralno[24],442,PROPN,Npmsn,nmod
443,2581-2588,Capital,ORG[15],0,*->15-1,*[15],3 - Nevtralno[24],445,PROPN,Npmsn,nmod
444,2589-2594,Group,ORG[15],0,*->15-1,*[15],3 - Nevtralno[24],442,PROPN,Npmsn,nmod
445,2595-2597,iz,_,_,_,_,_,447,ADP,Sg,case
446,2598-2605,Atlanta,LOC,0,*->16-1,*[16],3 - Nevtralno,448,PROPN,Npfsg,obl
447,2606-2612,vložiti,_,_,_,_,_,435,VERB,Vmep-sm,acl
448,2613-2615,30,_,_,_,_,_,450,NUM,Mdc,nummod
449,2616-2625,milijon,_,_,_,_,_,448,NOUN,Ncmpg,obj
450,2626-2631,evro,_,_,_,_,_,450,NOUN,Ncmpg,nmod
451,2632-2633,.,_,_,_,_,_,432,PUNCT,Z,punct
452,2634-2640,stavka,_,_,_,_,_,458,NOUN,Ncfsn,nsubj
453,2641-2651,zaposlen,_,_,_,_,_,453,ADJ,Appmpg,amod
454,2652-2654,biti,_,_,_,_,_,458,AUX,Va-c,aux
455,2655-2659,zato,_,_,_,_,_,458,ADV,Rgp,advmod
456,2660-2665,lahko,_,_,_,_,_,458,ADV,Rgp,advmod
457,2666-2674,pomeniti,_,_,_,_,_,432,VERB,Vmbp-sf,conj
458,2675-2681,zadnji,_,_,_,_,_,460,ADJ,Agpmsay,amod
459,2682-2690,kamenček,_,_,_,_,_,458,NOUN,Ncmsan,obj
460,2691-2692,v,_,_,_,_,_,462,ADP,Sl,case
461,2693-2700,mozaik,_,_,_,_,_,460,NOUN,Ncmsl,nmod
462,2701-2705,pred,_,_,_,_,_,464,ADP,Si,case
463,2706-2714,stečaj,_,_,_,_,_,462,NOUN,Ncmsi,nmod
464,2715-2723,Primorje,ORG,2,*->2-11,*[2],2 - Negativno,464,PROPN,Npnsg,nmod
