idx,chars_idx,token,entity_type,sentiment,idk_1,idk_2,orig_sentiment,heads,upos,xpos,deprel
0,0-8,Portorož,LOC,_,*->1-1,*[1],_,5,PROPN,Npmsn,parataxis
1,9-10,-,_,_,_,_,_,1,PUNCT,Z,punct
2,11-16,danes,_,_,_,_,_,5,ADV,Rgp,advmod
3,17-19,se,_,_,_,_,_,5,PRON,Px------y,expl
4,20-26,izteči,_,_,_,_,_,0,VERB,Vmer3s,root
5,27-30,rok,_,_,_,_,_,5,NOUN,Ncmsn,nsubj
6,31-33,za,_,_,_,_,_,8,ADP,Sa,case
7,34-40,oddaja,_,_,_,_,_,6,NOUN,Ncfsa,nmod
8,41-47,ponudba,_,_,_,_,_,8,NOUN,Ncfpg,nmod
9,48-50,za,_,_,_,_,_,11,ADP,Sa,case
10,51-56,nakup,_,_,_,_,_,9,NOUN,Ncmsan,nmod
11,57-59,61,_,_,_,_,_,14,NUM,Mdc,nummod
12,60-61,-,_,_,_,_,_,14,PUNCT,Z,punct
13,62-72,odstoten,_,_,_,_,_,15,ADJ,Agpmsg,amod
14,73-79,delež,_,_,_,_,_,11,NOUN,Ncmsg,nmod
15,80-89,Aerodrom,ORG[1],_,*->5-1,*[5],_,15,PROPN,Npmsg,nmod
16,90-98,Portorož,ORG[1]|LOC[2],_,*->5-1|*->1-2,*[5]|*[1],_,16,PROPN,Npmsn,nmod
17,99-100,",",_,_,_,_,_,21,PUNCT,Z,punct
18,101-103,ki,_,_,_,_,_,21,SCONJ,Cs,mark
19,104-106,on,_,_,_,_,_,21,PRON,Pp3msa--y,obj
20,107-116,prodajati,_,_,_,_,_,15,VERB,Vmpr3p,acl
21,117-125,Aeroder,ORG[3],_,*->6-1,*[6],_,21,PROPN,Npmsn,nsubj
22,126-135,Ljubljana,ORG[3]|LOC[4],_,*->6-1|*->2-1,*[6]|*[2],_,22,PROPN,Npfsn,nmod
23,136-137,",",_,_,_,_,_,25,PUNCT,Z,punct
24,138-142,Luka,ORG[5],0,*->7-1,*[7],3 - Nevtralno[20],22,PROPN,Npmsn,conj
25,143-148,Koper,ORG[5]|LOC[6],0,*->7-1|*->3-1,*[7]|*[3],3 - Nevtralno[20]|3 - Nevtralno[21],25,PROPN,Npmsn,flat:name
26,149-151,in,_,_,_,_,_,28,CCONJ,Cc,cc
27,152-161,Istrabenz,ORG,0,*->4-1,*[4],3 - Nevtralno,22,PROPN,Npmsn,conj
28,162-163,.,_,_,_,_,_,21,PUNCT,Z,punct
29,164-166,po,_,_,_,_,_,32,ADP,Sl,case
30,167-176,neuraden,_,_,_,_,_,32,ADJ,Agpfpl,amod
31,177-189,informacija,_,_,_,_,_,37,NOUN,Ncfpl,obl
32,190-192,biti,_,_,_,_,_,37,AUX,Va-f3s-n,aux
33,193-200,ponudba,_,_,_,_,_,37,NOUN,Ncfsa,obj
34,201-207,skoraj,_,_,_,_,_,36,PART,Q,advmod
35,208-216,zagotovo,_,_,_,_,_,37,ADV,Rgp,advmod
36,217-222,oddati,_,_,_,_,_,5,VERB,Vmep-sm,parataxis
37,223-228,Boris,PER[7],_,*->8-1,*[8],_,37,PROPN,Npmsn,nsubj
38,229-234,Biček,PER[7],_,*->8-1,*[8],_,38,PROPN,Npmsn,flat:name
39,235-236,",",_,_,_,_,_,41,PUNCT,Z,punct
40,237-244,lastnik,_,_,*->8-2,*[8],_,38,NOUN,Ncmsn,appos
41,245-253,agencija,_,0,*->8-2|*->10-1,*[8]|*[10],3 - Nevtralno[22],41,NOUN,Ncfsg,nmod
42,254-259,Renee,ORG,0,*->8-2|*->10-1,*[8]|*[10],3 - Nevtralno[22],42,PROPN,Npmsn,nmod
43,260-261,",",_,_,_,_,_,51,PUNCT,Z,punct
44,262-264,ki,_,_,_,_,_,51,SCONJ,Cs,mark
45,265-266,v,_,_,_,_,_,47,ADP,Sa,case
46,267-276,Slovenija,LOC,0,*->9-1,*[9],3 - Nevtralno,51,PROPN,Npfsa,obl
47,277-279,že,_,_,_,_,_,51,PART,Q,advmod
48,280-285,vrsta,_,_,_,_,_,51,NOUN,Ncfsa,obl
49,286-289,leto,_,_,_,_,_,49,NOUN,Ncnpg,nmod
50,290-294,voziti,_,_,*->8-3,*[8],_,42,VERB,Vmpr3s,acl
51,295-303,premožen,_,_,_,_,_,54,ADJ,Agpmpa,amod
52,304-309,ruski,_,_,_,_,_,54,ADJ,Agpmpa,amod
53,310-315,gost,_,_,_,_,_,51,NOUN,Ncmpa,obj
54,316-317,.,_,_,_,_,_,57,PUNCT,Z,punct
55,318-321,ali,_,_,_,_,_,57,ADV,Rgp,mark
56,322-326,držati,_,_,_,_,_,51,VERB,Vmpr3s,csubj
57,327-328,",",_,_,_,_,_,61,PUNCT,Z,punct
58,329-331,da,_,_,_,_,_,61,SCONJ,Cs,mark
59,332-334,biti,_,_,_,_,_,61,AUX,Va-f3s-n,aux
60,335-340,oddati,_,_,*->8-4,*[8],_,57,VERB,Vmep-sm,ccomp
61,341-348,ponudba,_,_,_,_,_,61,NOUN,Ncfsa,obj
62,349-351,in,_,_,_,_,_,68,CCONJ,Cc,cc
63,352-357,zakaj,_,_,_,_,_,68,ADV,Rgp,advmod
64,358-360,on,_,_,*->8-5,*[8],_,68,PRON,Pp3msa--y,obj
65,361-371,portoroški,_,_,*->5-2,*[5],_,67,ADJ,Agpnsn,amod
66,372-381,letališče,_,_,*->5-2,*[5],_,68,NOUN,Ncnsn,nsubj
67,382-388,zanimati,_,_,_,_,_,61,VERB,Vmpr3s,conj
68,389-390,",",_,_,_,_,_,61,PUNCT,Z,punct
69,391-394,biti,_,_,_,_,_,71,AUX,Va-r1p-n,aux
70,395-405,povprašati,_,_,_,_,_,5,VERB,Vmep-pm,parataxis
71,406-410,tudi,_,_,_,_,_,71,PART,Q,advmod
72,411-416,Bička,PER,_,*->8-6,*[8],_,71,PROPN,Npmsay,obj
73,417-418,",",_,_,_,_,_,81,PUNCT,Z,punct
74,419-421,ki,_,_,_,_,_,81,SCONJ,Cs,mark
75,422-424,pa,_,_,_,_,_,81,CCONJ,Cc,advmod
76,425-427,na,_,_,_,_,_,79,ADP,Sa,case
77,428-432,naš,_,_,_,_,_,79,DET,Ps1npap,det
78,433-442,vprašanje,_,_,_,_,_,81,NOUN,Ncnpa,obl
79,443-445,biti,_,_,_,_,_,81,AUX,Va-r3s-y,aux
80,446-455,odgovoriti,_,_,*->8-7,*[8],_,73,VERB,Vmep-sm,acl
81,456-457,",",_,_,_,_,_,81,PUNCT,Z,punct
82,458-461,saj,_,_,_,_,_,86,CCONJ,Cc,cc
83,462-465,biti,_,_,_,_,_,86,AUX,Va-r1p-n,aux
84,466-468,on,_,_,*->8-8,*[8],_,86,PRON,Pp3msa--y,obj
85,469-474,ujeti,_,_,_,_,_,81,VERB,Vmep-pm,conj
86,475-477,na,_,_,_,_,_,88,ADP,Sl,case
87,478-487,letališče,_,_,_,_,_,86,NOUN,Ncnsl,obl
88,488-493,nekje,_,_,_,_,_,91,ADV,Rgp,advmod
89,494-495,v,_,_,_,_,_,91,ADP,Sl,case
90,496-502,tujina,_,_,_,_,_,88,NOUN,Ncfsl,nmod
91,503-504,.,_,_,_,_,_,86,PUNCT,Z,punct
92,505-513,sporočiti,_,_,*->8-9,*[8],_,5,VERB,Vmep-sm,parataxis
93,514-517,jaz,_,_,_,_,_,93,PRON,Pp1-pd,obj
94,518-520,biti,_,_,_,_,_,93,AUX,Va-r3s-n,aux
95,521-523,le,_,_,_,_,_,93,PART,Q,advmod
96,524-525,",",_,_,_,_,_,100,PUNCT,Z,punct
97,526-528,da,_,_,_,_,_,100,SCONJ,Cs,mark
98,529-531,biti,_,_,*->8-10,*[8],_,100,AUX,Va-f3s-n,cop
99,532-541,dosegljiv,_,_,_,_,_,93,ADJ,Agpmsnn,ccomp
100,542-543,v,_,_,_,_,_,102,ADP,Sa,case
101,544-554,ponedeljek,_,_,_,_,_,100,NOUN,Ncmsan,obl
102,555-556,.,_,_,_,_,_,93,PUNCT,Z,punct
103,557-562,Biček,PER,_,*->8-11,*[8],_,108,PROPN,Npmsn,nsubj
104,563-565,biti,_,_,_,_,_,108,AUX,Va-r3s-n,aux
105,566-570,pred,_,_,_,_,_,107,ADP,Si,case
106,571-578,kratek,_,_,_,_,_,108,ADJ,Agpnsi,obl
107,579-588,ustanoviti,_,_,*->8-12,*[8],_,5,VERB,Vmep-sm,parataxis
108,589-597,letalski,_,_,_,_,_,110,ADJ,Agpfsa,amod
109,598-604,družba,_,_,_,_,_,108,NOUN,Ncfsa,obj
110,605-607,in,_,_,_,_,_,125,CCONJ,Cc,cc
111,608-612,zdaj,_,_,_,_,_,125,ADV,Rgp,advmod
112,613-614,z,_,_,_,_,_,115,ADP,Si,case
113,615-632,turbopropelerski,_,_,_,_,_,115,ADJ,Agpnsi,amod
114,633-640,letalo,_,_,_,_,_,125,NOUN,Ncnsi,obl
115,641-642,",",_,_,_,_,_,118,PUNCT,Z,punct
116,643-645,ki,_,_,_,_,_,118,SCONJ,Cs,mark
117,646-653,sprejeti,_,_,_,_,_,115,VERB,Vmer3s,acl
118,654-656,do,_,_,_,_,_,121,ADP,Sg,case
119,657-661,osem,_,_,_,_,_,121,NUM,Mlc-pa,nummod
120,662-670,potnik,_,_,_,_,_,118,NOUN,Ncmpg,obl
121,671-672,",",_,_,_,_,_,118,PUNCT,Z,punct
122,673-678,ruski,_,_,_,_,_,124,ADJ,Agpmpa,amod
123,679-684,gost,_,_,_,_,_,125,NOUN,Ncmpa,obj
124,685-689,voziti,_,_,*->8-13,*[8],_,108,VERB,Vmpr3s,conj
125,690-692,po,_,_,_,_,_,129,ADP,Sl,case
126,693-702,različen,_,_,_,_,_,129,ADJ,Agpnpl,amod
127,703-712,evropski,_,_,_,_,_,129,ADJ,Agpnpl,amod
128,713-719,mesto,_,_,_,_,_,125,NOUN,Ncnpl,obl
129,720-721,.,_,_,_,_,_,125,PUNCT,Z,punct
130,722-732,velikokrat,_,_,_,_,_,136,ADV,Rgp,advmod
131,733-739,poleti,_,_,_,_,_,136,ADV,Rgp,advmod
132,740-744,prav,_,_,_,_,_,136,PART,Q,advmod
133,745-747,iz,_,_,_,_,_,136,ADP,Sg,case
134,748-760,portoroški,_,_,*->5-3,*[5],_,136,ADJ,Agpnsg,amod
135,761-770,letališče,_,_,*->5-3,*[5],_,125,NOUN,Ncnsg,obl
136,771-773,in,_,_,_,_,_,142,CCONJ,Cc,cc
137,774-780,najbrž,_,_,_,_,_,142,PART,Q,advmod
138,781-783,se,_,_,_,_,_,142,PRON,Px------y,expl
139,784-786,biti,_,_,_,_,_,142,AUX,Va-r3s-n,aux
140,787-789,tu,_,_,_,_,_,142,ADV,Rgp,advmod
141,790-798,poroditi,_,_,_,_,_,125,VERB,Vmep-sf,conj
142,799-804,ideja,_,_,_,_,_,142,NOUN,Ncfsn,nsubj
143,805-806,",",_,_,_,_,_,150,PUNCT,Z,punct
144,807-809,da,_,_,_,_,_,150,SCONJ,Cs,mark
145,810-812,biti,_,_,_,_,_,150,AUX,Va-c,aux
146,813-815,on,_,_,*->5-4,*[5],_,150,PRON,Pp3msa--y,obj
147,816-821,morda,_,_,_,_,_,150,PART,Q,advmod
148,822-826,tudi,_,_,_,_,_,150,PART,Q,advmod
149,827-832,kupiti,_,_,*->8-14,*[8],_,143,VERB,Vmep-sm,acl
150,833-834,.,_,_,_,_,_,5,PUNCT,Z,punct
151,835-836,"""",_,_,_,_,_,157,PUNCT,Z,punct
152,837-845,piranski,_,_,_,_,_,154,ADJ,Agpfsn,amod
153,846-852,občina,_,_,_,_,_,157,NOUN,Ncfsn,nsubj
154,853-855,se,_,_,_,_,_,157,PRON,Px---d--y,expl
155,856-864,zagotovo,_,_,_,_,_,157,ADV,Rgp,advmod
156,865-869,želeti,_,_,_,_,_,5,VERB,Vmpr3s,parataxis
157,870-871,",",_,_,_,_,_,162,PUNCT,Z,punct
158,872-874,da,_,_,_,_,_,162,SCONJ,Cs,mark
159,875-877,biti,_,_,_,_,_,162,AUX,Va-c,aux
160,878-887,letališče,_,_,*->5-5,*[5],_,162,NOUN,Ncnsn,nsubj
161,888-894,dobiti,_,_,_,_,_,157,VERB,Vmep-sn,ccomp
162,895-901,nek,_,_,_,_,_,165,DET,Pi-msa,det
163,902-913,strateški,_,_,_,_,_,165,ADJ,Agpmsg,amod
164,914-922,lastnik,_,_,_,_,_,162,NOUN,Ncmsay,obj
165,923-925,iz,_,_,_,_,_,167,ADP,Sg,case
166,926-932,branže,_,_,_,_,_,165,NOUN,Ncmsg,nmod
167,933-934,",",_,_,_,_,_,176,PUNCT,Z,punct
168,935-937,ki,_,_,_,_,_,176,SCONJ,Cs,mark
169,938-940,biti,_,_,_,_,_,176,AUX,Va-c,aux
170,941-944,pri,_,_,_,_,_,172,ADP,Sl,case
171,945-952,razvoj,_,_,_,_,_,176,NOUN,Ncmsl,obl
172,953-955,in,_,_,_,_,_,174,CCONJ,Cc,cc
173,956-967,upravljanje,_,_,_,_,_,172,NOUN,Ncnsl,conj
174,968-977,letališče,_,_,*->5-6,*[5],_,174,NOUN,Ncnsg,nmod
175,978-987,upoštevati,_,_,_,_,_,167,VERB,Vmbp-sm,acl
176,988-992,tudi,_,_,_,_,_,176,PART,Q,advmod
177,993-1000,potreba,_,_,_,_,_,176,NOUN,Ncfpa,obj
178,1001-1006,kraj,_,_,_,_,_,178,NOUN,Ncmsg,nmod
179,1007-1009,in,_,_,_,_,_,185,CCONJ,Cc,cc
180,1010-1021,tukajšnji,_,_,_,_,_,185,ADJ,Agpnsg,amod
181,1022-1034,turističen,_,_,_,_,_,185,ADJ,Agpnsg,amod
182,1035-1037,in,_,_,_,_,_,184,CCONJ,Cc,cc
183,1038-1049,preostal,_,_,_,_,_,182,ADJ,Appnsg,conj
184,1050-1062,gospodarstvo,_,_,_,_,_,179,NOUN,Ncnsg,nmod
185,1063-1064,",",_,_,_,_,_,176,PUNCT,Z,punct
186,1065-1066,"""",_,_,_,_,_,189,PUNCT,Z,punct
187,1067-1069,biti,_,_,_,_,_,189,AUX,Va-r3s-n,aux
188,1070-1075,dejati,_,_,_,_,_,5,VERB,Vmep-sm,parataxis
189,1076-1081,vodja,_,_,*->11-1,*[11],_,189,NOUN,Ncmsn,nsubj
190,1082-1090,kabinet,_,_,*->11-1,*[11],_,190,NOUN,Ncmsg,nmod
191,1091-1101,piranski,_,_,*->11-1,*[11],_,193,ADJ,Agpmsg,amod
192,1102-1108,župan,_,_,*->11-1,*[11],_,191,NOUN,Ncmsg,nmod
193,1109-1117,Dimitrij,PER[8],_,*->11-1,*[11],_,190,PROPN,Npmsn,nmod
194,1118-1124,Šamšal,PER[8],_,*->11-1,*[11],_,194,PROPN,Npmsn,flat:name
195,1125-1126,.,_,_,_,_,_,189,PUNCT,Z,punct
196,1127-1135,piranski,_,_,_,_,_,198,ADJ,Agpfsn,amod
197,1136-1142,občina,_,_,_,_,_,199,NOUN,Ncfsn,nsubj
198,1143-1146,imeti,_,_,_,_,_,5,VERB,Vmpr3s-n,parataxis
199,1147-1153,namreč,_,_,_,_,_,199,CCONJ,Cc,advmod
200,1154-1156,28,_,_,_,_,_,203,NUM,Mdc,nummod
201,1157-1158,-,_,_,_,_,_,203,PUNCT,Z,punct
202,1159-1167,odstoten,_,_,_,_,_,204,ADJ,Agpmsay,amod
203,1168-1173,delež,_,_,_,_,_,199,NOUN,Ncmsan,obj
204,1174-1175,v,_,_,_,_,_,206,ADP,Sl,case
205,1176-1185,Aerodrom,ORG[9],_,*->5-7,*[5],_,204,PROPN,Npmsl,nmod
206,1186-1194,Portorož,ORG[9]|LOC[10],_,*->5-7|*->1-3,*[5]|*[1],_,206,PROPN,Npmsn,nmod
207,1195-1197,in,_,_,_,_,_,211,CCONJ,Cc,cc
208,1198-1201,kot,_,_,_,_,_,211,SCONJ,Cs,mark
209,1202-1204,biti,_,_,_,_,_,211,AUX,Va-r3s-n,aux
210,1205-1212,zatrditi,_,_,_,_,_,199,VERB,Vmep-sm,advcl
211,1213-1219,Šamšal,PER,1,*->11-2,*[11],4 - Pozitivno,211,PROPN,Npmsn,nsubj
212,1220-1221,",",_,_,_,_,_,211,PUNCT,Z,punct
213,1222-1226,ta,_,_,_,_,_,215,DET,Pd-msg,det
214,1227-1233,delež,_,_,_,_,_,219,NOUN,Ncmsay,obj
215,1234-1241,nikakor,_,_,_,_,_,218,ADV,Rgp,advmod
216,1242-1244,ne,_,_,_,_,_,218,PART,Q,advmod
217,1245-1252,misliti,_,_,_,_,_,212,VERB,Vmpr3p,acl
218,1253-1260,prodati,_,_,_,_,_,218,VERB,Vmen,xcomp
219,1261-1262,",",_,_,_,_,_,222,PUNCT,Z,punct
220,1263-1271,kvečjemu,_,_,_,_,_,222,SCONJ,Cs,mark
221,1272-1283,razmišljati,_,_,_,_,_,219,VERB,Vmpr3p,advcl
222,1284-1285,",",_,_,_,_,_,227,PUNCT,Z,punct
223,1286-1290,kako,_,_,_,_,_,227,ADV,Rgp,advmod
224,1291-1293,biti,_,_,_,_,_,227,AUX,Va-c,aux
225,1294-1296,on,_,_,_,_,_,227,PRON,Pp3msa--y,obj
226,1297-1305,povečati,_,_,_,_,_,219,VERB,Vmep-pm,ccomp
227,1306-1307,.,_,_,_,_,_,218,PUNCT,Z,punct
228,1308-1316,piranski,_,0,*->12-1,*[12],3 - Nevtralno[23],230,ADJ,Agpmsny,amod
229,1317-1322,župan,_,0,*->12-1,*[12],3 - Nevtralno[23],235,NOUN,Ncmsn,nsubj
230,1323-1328,Peter,PER[11],0,*->12-1,*[12],3 - Nevtralno[23],230,PROPN,Npmsn,nmod
231,1329-1336,Bossman,PER[11],0,*->12-1,*[12],3 - Nevtralno[23],231,PROPN,Npmsn,flat:name
232,1337-1339,biti,_,_,_,_,_,235,AUX,Va-r3s-n,cop
233,1340-1346,namreč,_,_,_,_,_,235,CCONJ,Cc,advmod
234,1347-1356,prepričan,_,_,_,_,_,5,ADJ,Appmsnn,parataxis
235,1357-1358,",",_,_,_,_,_,238,PUNCT,Z,punct
236,1359-1361,da,_,_,_,_,_,238,SCONJ,Cs,mark
237,1362-1366,morati,_,_,_,_,_,235,VERB,Vmpr3s,ccomp
238,1367-1372,imeti,_,_,_,_,_,238,VERB,Vmpn,xcomp
239,1373-1379,občina,_,_,_,_,_,239,NOUN,Ncfsn,nsubj
240,1380-1385,vpliv,_,_,_,_,_,239,NOUN,Ncmsan,obj
241,1386-1389,pri,_,_,_,_,_,243,ADP,Sl,case
242,1390-1401,upravljanje,_,_,_,_,_,241,NOUN,Ncnsl,nmod
243,1402-1406,tako,_,_,_,_,_,245,ADV,Rgp,advmod
244,1407-1415,pomemben,_,_,_,_,_,246,ADJ,Agpfsg,amod
245,1416-1430,infrastruktura,_,_,_,_,_,243,NOUN,Ncfsg,nmod
246,1431-1432,.,_,_,_,_,_,235,PUNCT,Z,punct
247,1433-1434,v,_,_,_,_,_,249,ADP,Sl,case
248,1435-1444,Aerodrom,ORG[12],_,*->6-2,*[6],_,246,PROPN,Npmsl,nmod
249,1445-1454,Ljubljana,ORG[12]|LOC[13],_,*->6-2|*->2-2,*[6]|*[2],_,249,PROPN,Npfsn,nmod
250,1455-1457,biti,_,_,_,_,_,253,AUX,Va-r3p-n,aux
251,1458-1461,jaz,_,_,_,_,_,253,PRON,Pp1-pd,obj
252,1462-1471,pojasniti,_,_,_,_,_,5,VERB,Vmep-pm,parataxis
253,1472-1473,",",_,_,_,_,_,264,PUNCT,Z,punct
254,1474-1476,da,_,_,_,_,_,264,SCONJ,Cs,mark
255,1477-1484,njihov,_,_,*->6-3,*[6],_,258,DET,Ps3npnp,det
256,1485-1494,naložben,_,_,_,_,_,258,ADJ,Agpnpn,amod
257,1495-1507,pričakovanje,_,_,_,_,_,264,NOUN,Ncnpn,nsubj
258,1508-1509,v,_,_,_,_,_,260,ADP,Sl,case
259,1510-1519,Aerodrom,ORG[14],_,*->5-8,*[5],_,258,PROPN,Npmsl,nmod
260,1520-1528,Portorož,ORG[14]|LOC[15],_,*->5-8|*->1-4,*[5]|*[1],_,260,PROPN,Npmsn,nmod
261,1529-1533,biti,_,_,_,_,_,264,AUX,Va-r3p-y,aux
262,1534-1538,biti,_,_,_,_,_,264,AUX,Va-p-pn,cop
263,1539-1549,izpolnjen,_,_,_,_,_,253,ADJ,Appnpn,ccomp
264,1550-1551,",",_,_,_,_,_,264,PUNCT,Z,punct
265,1552-1556,zato,_,_,_,_,_,269,CCONJ,Cc,cc
266,1557-1559,biti,_,_,_,_,_,269,AUX,Va-r3p-n,aux
267,1560-1562,se,_,_,_,_,_,269,PRON,Px------y,expl
268,1563-1571,odločiti,_,_,*->6-4,*[6],_,264,VERB,Vmep-pm,conj
269,1572-1573,",",_,_,_,_,_,275,PUNCT,Z,punct
270,1574-1576,da,_,_,_,_,_,275,SCONJ,Cs,mark
271,1577-1581,biti,_,_,_,_,_,275,AUX,Va-f3p-n,aux
272,1582-1584,na,_,_,_,_,_,274,ADP,Sl,case
273,1585-1589,trg,_,_,_,_,_,275,NOUN,Ncmsl,obl
274,1590-1599,preveriti,_,_,*->6-5,*[6],_,269,VERB,Vmep-pm,ccomp
275,1600-1607,interes,_,_,_,_,_,275,NOUN,Ncmsan,obj
276,1608-1610,za,_,_,_,_,_,278,ADP,Sa,case
277,1611-1616,nakup,_,_,_,_,_,276,NOUN,Ncmsan,nmod
278,1617-1629,portoroški,_,_,*->5-9,*[5],_,280,ADJ,Agpnsg,amod
279,1630-1639,letališče,_,_,*->5-9,*[5],_,278,NOUN,Ncnsg,nmod
280,1640-1641,.,_,_,_,_,_,269,PUNCT,Z,punct
281,1642-1643,v,_,_,_,_,_,283,ADP,Sl,case
282,1644-1653,Aerodrom,ORG[16],0,*->6-6,*[6],3 - Nevtralno[24],289,PROPN,Npmsl,obl
283,1654-1663,Ljubljana,ORG[16]|LOC[17],0,*->6-6|*->2-3,*[6]|*[2],3 - Nevtralno[24]|3 - Nevtralno[25],283,PROPN,Npfsn,nmod
284,1664-1666,biti,_,_,_,_,_,289,AUX,Va-r3p-n,aux
285,1667-1668,o,_,_,_,_,_,287,ADP,Sl,case
286,1669-1676,prodaja,_,_,_,_,_,289,NOUN,Ncfsl,obl
287,1677-1682,sicer,_,_,_,_,_,289,PART,Q,advmod
288,1683-1694,razmišljati,_,_,_,_,_,275,VERB,Vmpp-pm,conj
289,1695-1697,že,_,_,_,_,_,289,PART,Q,advmod
290,1698-1702,pred,_,_,_,_,_,292,ADP,Si,case
291,1703-1707,leto,_,_,_,_,_,289,NOUN,Ncnpi,obl
292,1708-1709,",",_,_,_,_,_,300,PUNCT,Z,punct
293,1710-1712,ko,_,_,_,_,_,300,SCONJ,Cs,mark
294,1713-1715,biti,_,_,_,_,_,300,AUX,Va-r3s-n,aux
295,1716-1718,na,_,_,_,_,_,297,ADP,Sa,case
296,1719-1723,čelo,_,_,_,_,_,300,NOUN,Ncnsa,obl
297,1724-1736,portoroški,_,_,*->5-10,*[5],_,299,ADJ,Agpnsg,amod
298,1737-1746,letališče,_,_,*->5-10,*[5],_,297,NOUN,Ncnsg,nmod
299,1747-1753,priti,_,_,_,_,_,292,VERB,Vmep-sm,acl
300,1754-1760,Robert,PER[18],_,*->13-1,*[13],_,300,PROPN,Npmsn,nsubj
301,1761-1767,Kranjc,PER[18],_,*->13-1,*[13],_,301,PROPN,Npmsn,flat:name
302,1768-1769,",",_,_,_,_,_,305,PUNCT,Z,punct
303,1770-1778,nekdanji,_,0,*->13-2,*[13],3 - Nevtralno[26],305,ADJ,Agpmsny,amod
304,1779-1790,kriminalist,_,0,*->13-2,*[13],3 - Nevtralno[26],301,NOUN,Ncmsn,appos
305,1791-1795,brez,_,_,_,_,_,308,ADP,Sg,case
306,1796-1808,menedžerski,_,_,_,_,_,308,ADJ,Agpfpg,amod
307,1809-1817,izkušnja,_,_,_,_,_,305,NOUN,Ncfpg,nmod
308,1818-1819,.,_,_,_,_,_,300,PUNCT,Z,punct
309,1820-1829,letališče,_,_,*->5-11,*[5],_,313,NOUN,Ncnsn,nsubj
310,1830-1835,sicer,_,_,_,_,_,313,PART,Q,advmod
311,1836-1840,zdaj,_,_,_,_,_,313,ADV,Rgp,advmod
312,1841-1848,poslovati,_,_,_,_,_,305,VERB,Vmpr3s,acl
313,1849-1858,pozitiven,_,_,_,_,_,313,ADV,Rgp,advmod
314,1859-1860,",",_,_,_,_,_,313,PUNCT,Z,punct
315,1861-1863,še,_,_,_,_,_,319,PART,Q,advmod
316,1864-1869,vedno,_,_,_,_,_,319,ADV,Rgp,advmod
317,1870-1872,pa,_,_,_,_,_,319,CCONJ,Cc,advmod
318,1873-1879,čakati,_,_,*->5-12,*[5],_,313,VERB,Vmpr3p,advcl
319,1880-1882,na,_,_,_,_,_,321,ADP,Sa,case
320,1883-1893,dovoljenje,_,_,_,_,_,319,NOUN,Ncnsa,obl
321,1894-1895,",",_,_,_,_,_,327,PUNCT,Z,punct
322,1896-1898,da,_,_,_,_,_,327,SCONJ,Cs,mark
323,1899-1901,biti,_,_,_,_,_,327,AUX,Va-c,aux
324,1902-1913,pristajalen,_,_,_,_,_,326,ADJ,Agpfsa,amod
325,1914-1919,steza,_,_,_,_,_,327,NOUN,Ncfsa,obj
326,1920-1930,podaljšati,_,_,*->5-13,*[5],_,321,VERB,Vmep-pm,acl
327,1931-1933,za,_,_,_,_,_,330,ADP,Sa,case
328,1934-1937,200,_,_,_,_,_,330,NUM,Mdc,nummod
329,1938-1944,meter,_,_,_,_,_,327,NOUN,Ncmpg,obl
330,1945-1946,.,_,_,_,_,_,319,PUNCT,Z,punct
331,1947-1953,reden,_,_,_,_,_,333,ADJ,Agpfpg,amod
332,1954-1959,linija,_,_,_,_,_,336,NOUN,Ncfpg,obj
333,1960-1970,portoroški,_,1,*->5-14,*[5],4 - Pozitivno[27],335,ADJ,Agpnsn,amod
334,1971-1980,letališče,_,1,*->5-14,*[5],4 - Pozitivno[27],336,NOUN,Ncnsn,nsubj
335,1981-1985,imeti,_,_,_,_,_,319,VERB,Vmpr3s-y,conj
336,1986-1987,",",_,_,_,_,_,336,PUNCT,Z,punct
337,1988-1991,saj,_,_,_,_,_,349,CCONJ,Cc,cc
338,1992-1994,biti,_,_,_,_,_,349,AUX,Va-r3p-n,aux
339,1995-2003,dogovor,_,_,_,_,_,349,NOUN,Ncmpn,nsubj
340,2004-2005,z,_,_,_,_,_,343,ADP,Si,case
341,2006-2013,srbski,_,0,*->17-1,*[17],3 - Nevtralno[28],343,ADJ,Agpmpg,amod
342,2014-2019,Jat,ORG,0,*->17-1,*[17],3 - Nevtralno[28],340,PROPN,Npmsi,nmod
343,2020-2022,in,_,_,_,_,_,346,CCONJ,Cc,cc
344,2023-2031,poskusen,_,_,_,_,_,346,ADJ,Agpnpi,amod
345,2032-2036,leto,_,_,_,_,_,343,NOUN,Ncnpi,conj
346,2037-2038,v,_,_,_,_,_,348,ADP,Sa,case
347,2039-2046,Beograd,LOC,0,*->14-1,*[14],3 - Nevtralno,346,PROPN,Npmsan,nmod
348,2047-2052,pasti,_,_,_,_,_,336,VERB,Vmep-pm,conj
349,2053-2054,v,_,_,_,_,_,351,ADP,Sa,case
350,2055-2059,voda,_,_,_,_,_,349,NOUN,Ncfsa,obl
351,2060-2061,.,_,_,_,_,_,336,PUNCT,Z,punct
352,2062-2073,podaljšanje,_,_,_,_,_,358,NOUN,Ncnsa,obj
353,2074-2083,letališki,_,_,_,_,_,355,ADJ,Agpfsg,amod
354,2084-2089,steza,_,_,_,_,_,353,NOUN,Ncfsg,nmod
355,2090-2092,pa,_,_,_,_,_,358,CCONJ,Cc,advmod
356,2093-2095,biti,_,_,_,_,_,358,AUX,Va-c,aux
357,2096-2107,potrebovati,_,_,_,_,_,5,VERB,Vmpp-pm,parataxis
358,2108-2112,tudi,_,_,_,_,_,358,PART,Q,advmod
359,2113-2124,potencialen,_,_,_,_,_,362,ADJ,Agpmsay,amod
360,2125-2130,ruski,_,_,_,_,_,362,ADJ,Agpmsay,amod
361,2131-2140,petičnež,_,_,_,_,_,358,NOUN,Ncmsan,obj
362,2141-2142,.,_,_,_,_,_,349,PUNCT,Z,punct
363,2143-2148,ruski,_,_,*->15-1,*[15],_,365,ADJ,Agpmsny,amod
364,2149-2156,mogotec,_,_,*->15-1,*[15],_,358,NOUN,Ncmsn,nsubj
365,2157-2164,Aleksej,PER[19],_,*->15-1,*[15],_,365,PROPN,Npmsn,nmod
366,2165-2171,Miller,PER[19],_,*->15-1,*[15],_,366,PROPN,Npmsn,flat:name
367,2172-2173,",",_,_,_,_,_,374,PUNCT,Z,punct
368,2174-2176,ki,_,_,_,_,_,374,SCONJ,Cs,mark
369,2177-2179,se,_,_,_,_,_,374,PRON,Px------y,expl
370,2180-2182,biti,_,_,_,_,_,374,AUX,Va-r3s-n,aux
371,2183-2187,pred,_,_,_,_,_,373,ADP,Si,case
372,2188-2195,kratek,_,_,_,_,_,374,ADJ,Agpnsi,obl
373,2196-2204,udeležiti,_,_,*->15-2,*[15],_,365,VERB,Vmep-sm,acl
374,2205-2215,evropski,_,_,_,_,_,377,ADJ,Agpmsg,amod
375,2216-2226,posloven,_,_,_,_,_,377,ADJ,Agpmsg,amod
376,2227-2235,kongres,_,_,_,_,_,374,NOUN,Ncmsg,obj
377,2236-2237,v,_,_,_,_,_,379,ADP,Sl,case
378,2238-2247,Portorož,LOC,_,*->1-5,*[1],_,377,PROPN,Npmsl,nmod
379,2248-2249,",",_,_,_,_,_,374,PUNCT,Z,punct
380,2250-2252,biti,_,_,_,_,_,382,AUX,Va-r3s-n,aux
381,2253-2258,morati,_,0,*->15-3,*[15],3 - Nevtralno,5,VERB,Vmpp-sm,parataxis
382,2259-2260,z,_,_,_,_,_,385,ADP,Si,case
383,2261-2267,svoj,_,_,_,_,_,385,DET,Px-nsi,det
384,2268-2275,letalo,_,_,_,_,_,386,NOUN,Ncnsi,obl
385,2276-2284,pristati,_,_,_,_,_,382,VERB,Vmen,xcomp
386,2285-2286,v,_,_,_,_,_,388,ADP,Sl,case
387,2287-2292,Trst,LOC,0,*->16-1,*[16],3 - Nevtralno,386,PROPN,Npmsl,obl
388,2293-2297,prav,_,_,_,_,_,386,PART,Q,advmod
389,2298-2302,zato,_,_,_,_,_,398,ADV,Rgp,mark
390,2303-2304,",",_,_,_,_,_,390,PUNCT,Z,punct
391,2305-2308,ker,_,_,_,_,_,390,SCONJ,Cs,fixed
392,2309-2314,steza,_,_,_,_,_,398,NOUN,Ncfsn,nsubj
393,2315-2316,v,_,_,_,_,_,395,ADP,Sl,case
394,2317-2326,Portorož,LOC,0,*->1-6,*[1],3 - Nevtralno,393,PROPN,Npmsl,nmod
395,2327-2329,biti,_,_,_,_,_,398,AUX,Va-r3s-y,aux
396,2330-2334,biti,_,_,_,_,_,398,AUX,Va-p-sf,cop
397,2335-2343,ustrezen,_,_,_,_,_,386,ADJ,Agpfsn,advcl
398,2344-2345,.,_,_,_,_,_,5,PUNCT,Z,punct
399,2346-2364,Tatjanactactacovica,_,_,_,_,_,398,PROPN,Npfsn,nsubj
400,2365-2366,@,_,_,_,_,_,5,PUNCT,Z,punct
