idx,chars_idx,token,entity_type,sentiment,idk_1,idk_2,orig_sentiment,heads,upos,xpos,deprel
0,0-3,vse,_,_,_,_,_,3,ADV,Rgp,advmod
1,4-6,do,_,_,_,_,_,3,ADP,Sg,case
2,7-14,nedelje,_,_,_,_,_,5,NOUN,Ncfsg,obl
3,15-18,jaz,_,_,_,_,_,5,PRON,Pp1-pa,obj
4,19-23,čakati,_,_,_,_,_,26,VERB,Vmpr3s,advcl
5,24-36,spremenljiv,_,_,_,_,_,7,ADJ,Agpnsn,amod
6,37-42,vreme,_,_,_,_,_,5,NOUN,Ncnsn,nsubj
7,43-44,.,_,_,_,_,_,12,PUNCT,Z,punct
8,45-48,med,_,_,_,_,_,10,ADP,Si,case
9,49-55,konec,_,_,_,_,_,12,NOUN,Ncmsi,obl
10,56-61,teden,_,_,_,_,_,10,NOUN,Ncmsg,nmod
11,62-64,biti,_,_,_,_,_,5,VERB,Va-f3s-n,root
12,65-68,več,_,_,_,_,_,14,DET,Rgc,det
13,69-74,sonce,_,_,_,_,_,12,NOUN,Ncnsg,nsubj
14,75-76,.,_,_,_,_,_,12,PUNCT,Z,punct
15,77-79,na,_,_,_,_,_,17,ADP,Sl,case
16,80-90,Primorsko,LOC,_,*->17-1,*[17],_,12,PROPN,Npnsl,obl
17,91-93,do,_,_,_,_,_,20,ADP,Sg,case
18,94-96,29,_,_,_,_,_,20,NUM,Mdc,nummod
19,97-104,stopinja,_,_,_,_,_,17,NOUN,Ncfpg,nmod
20,105-112,Celzija,_,_,_,_,_,20,PROPN,Npfsg,nmod
21,113-114,.,_,_,_,_,_,12,PUNCT,Z,punct
22,115-117,iz,_,_,_,_,_,25,ADP,Sg,case
23,118-125,zalit,_,_,_,_,_,25,ADJ,Appfpg,amod
24,126-131,klet,_,_,_,_,_,26,NOUN,Ncfpg,obl
25,132-138,črpati,_,_,_,_,_,0,VERB,Vmpr3p,root
26,139-143,voda,_,_,_,_,_,26,NOUN,Ncfsa,obj
27,144-145,:,_,_,_,_,_,39,PUNCT,Z,punct
28,146-148,po,_,_,_,_,_,30,ADP,Sl,case
29,149-157,podatek,_,_,_,_,_,39,NOUN,Ncmpl,obl
30,158-164,uprava,ORG[1],0,*->1-1,*[1],3 - Nevtralno[9],30,NOUN,Ncfsg,nmod
31,165-167,RS,ORG[1],0,*->1-1,*[1],3 - Nevtralno[9],31,PROPN,Npfsg,nmod
32,168-170,za,ORG[1],0,*->1-1,*[1],3 - Nevtralno[9],34,ADP,Sa,case
33,171-178,zaščita,ORG[1],0,*->1-1,*[1],3 - Nevtralno[9],39,NOUN,Ncfsa,obl
34,179-181,in,ORG[1],0,*->1-1,*[1],3 - Nevtralno[9],36,CCONJ,Cc,cc
35,182-191,reševanje,ORG[1],0,*->1-1,*[1],3 - Nevtralno[9],34,NOUN,Ncnsa,conj
36,192-198,naliv,_,_,_,_,_,39,NOUN,Ncmpn,nsubj
37,199-201,že,_,_,_,_,_,39,PART,Q,advmod
38,202-212,povzročati,_,_,_,_,_,26,VERB,Vmpr3p,advcl
39,213-219,težava,_,_,_,_,_,39,NOUN,Ncfpa,obj
40,220-221,.,_,_,_,_,_,39,PUNCT,Z,punct
41,222-223,v,_,_,_,_,_,43,ADP,Sl,case
42,224-233,Ljutomer,LOC,0,*->2-1,*[2],3 - Nevtralno,46,PROPN,Npmsl,obl
43,234-236,biti,_,_,_,_,_,46,AUX,Va-r3s-n,aux
44,237-241,voda,_,_,_,_,_,46,NOUN,Ncfsn,nsubj
45,242-248,zaliti,_,_,_,_,_,39,VERB,Vmep-sf,advcl
46,249-257,trgovina,_,0,*->3-1,*[3],3 - Nevtralno[10],46,NOUN,Ncfsa,obj
47,258-262,Lidl,ORG,0,*->3-1,*[3],3 - Nevtralno[10],47,PROPN,Npmsn,nmod
48,263-264,.,_,_,_,_,_,46,PUNCT,Z,punct
49,265-272,Gasilec,_,_,_,_,_,53,PROPN,Npmpn,nsubj
50,273-275,biti,_,_,_,_,_,53,AUX,Va-r3p-n,aux
51,276-280,voda,_,_,_,_,_,54,NOUN,Ncfsa,obj
52,281-287,morati,_,_,_,_,_,46,VERB,Vmpp-pm,conj
53,288-294,črpati,_,_,_,_,_,53,VERB,Vmpn,xcomp
54,295-299,tudi,_,_,_,_,_,54,PART,Q,advmod
55,300-301,v,_,_,_,_,_,57,ADP,Sl,case
56,302-308,Apače,LOC,0,*->4-1,*[4],3 - Nevtralno,54,PROPN,Npfpl,obl
57,309-310,",",_,_,_,_,_,60,PUNCT,Z,punct
58,311-313,na,_,_,_,_,_,60,ADP,Sl,case
59,314-319,Ptuj,LOC,0,*->5-1,*[5],3 - Nevtralno,57,PROPN,Npmsl,conj
60,320-322,in,_,_,_,_,_,63,CCONJ,Cc,cc
61,323-324,v,_,_,_,_,_,63,ADP,Sl,case
62,325-331,Ormož,LOC,0,*->6-1,*[6],3 - Nevtralno,57,PROPN,Npmsl,conj
63,332-333,.,_,_,_,_,_,63,PUNCT,Z,punct
64,334-338,malo,_,_,_,_,_,68,DET,Rgp,det
65,339-343,pred,_,_,_,_,_,68,ADP,Si,case
66,344-350,četrti,_,_,_,_,_,68,ADJ,Mlofsi,amod
67,351-354,ura,_,_,_,_,_,73,NOUN,Ncfsi,nmod
68,355-363,popoldan,_,_,_,_,_,68,ADV,Rgp,advmod
69,364-366,biti,_,_,_,_,_,77,AUX,Va-r3s-n,aux
70,367-368,v,_,_,_,_,_,73,ADP,Sl,case
71,369-375,svet,LOC[2],0,*->7-1,*[7],3 - Nevtralno[11],73,ADJ,Agpmsl,amod
72,376-382,Jurij,LOC[2],0,*->7-1,*[7],3 - Nevtralno[11],77,PROPN,Npmsl,obl
73,383-385,ob,LOC[2],0,*->7-1,*[7],3 - Nevtralno[11],75,ADP,Sl,case
74,386-394,Ščavnica,LOC[2],0,*->7-1,*[7],3 - Nevtralno[11],73,PROPN,Npfsl,nmod
75,395-399,voda,_,_,_,_,_,77,NOUN,Ncfsn,nsubj
76,400-406,zaliti,_,_,_,_,_,46,VERB,Vmep-sf,conj
77,407-419,stanovanjski,_,_,_,_,_,79,ADJ,Agpfsa,amod
78,420-424,hiša,_,_,_,_,_,77,NOUN,Ncfsa,obj
79,425-426,.,_,_,_,_,_,77,PUNCT,Z,punct
80,427-433,kleten,_,_,_,_,_,82,ADJ,Agpmpa,amod
81,434-442,prostor,_,_,_,_,_,77,NOUN,Ncmpa,obj
82,443-447,hiša,_,_,_,_,_,82,NOUN,Ncfsg,nmod
83,448-450,biti,_,_,_,_,_,88,AUX,Va-r3s-n,aux
84,451-453,ob,_,_,_,_,_,87,ADP,Sl,case
85,454-460,tretji,_,_,_,_,_,87,ADJ,Mlofsl,amod
86,461-464,ura,_,_,_,_,_,88,NOUN,Ncfsl,obl
87,465-471,zaliti,_,_,_,_,_,77,VERB,Vmep-sn,root
88,472-473,v,_,_,_,_,_,90,ADP,Sl,case
89,474-479,kraj,_,_,_,_,_,88,NOUN,Ncmsl,obl
90,480-486,Podvrhh,LOC,0,*->8-1,*[8],3 - Nevtralno,90,PROPN,Npmsn,nmod
91,487-488,v,_,_,_,_,_,93,ADP,Sl,case
92,489-495,občina,LOC[3],0,*->9-1,*[9],3 - Nevtralno[12],91,NOUN,Ncfsl,nmod
93,496-503,Sevnica,LOC[3],0,*->9-1,*[9],3 - Nevtralno[12],93,PROPN,Npfsn,nmod
94,504-505,.,_,_,_,_,_,88,PUNCT,Z,punct
95,506-510,malo,_,_,_,_,_,97,DET,Rgp,advmod
96,511-518,kasno,_,_,_,_,_,100,ADV,Rgc,advmod
97,519-521,biti,_,_,_,_,_,99,AUX,Va-r3p-n,aux
98,522-528,morati,_,_,_,_,_,88,VERB,Vmpp-pm,root
99,529-540,posredovati,_,_,_,_,_,99,VERB,Vmbn,xcomp
100,541-548,gasilec,_,_,_,_,_,100,NOUN,Ncmpn,nsubj
101,549-555,zaradi,_,_,_,_,_,103,ADP,Sg,case
102,556-565,zamašitev,_,_,_,_,_,100,NOUN,Ncfsg,obl
103,566-576,obcesten,_,_,_,_,_,105,ADJ,Agpmsg,amod
104,577-582,jašek,_,_,_,_,_,103,NOUN,Ncmsg,nmod
105,583-585,in,_,_,_,_,_,107,CCONJ,Cc,cc
106,586-596,nevarnost,_,_,_,_,_,105,NOUN,Ncfsg,conj
107,597-602,vdor,_,_,_,_,_,107,NOUN,Ncmsg,nmod
108,603-611,meteoren,_,_,_,_,_,110,ADJ,Agpfsg,amod
109,612-616,voda,_,_,_,_,_,108,NOUN,Ncfsg,nmod
110,617-618,v,_,_,_,_,_,113,ADP,Sa,case
111,619-630,gospodarski,_,_,_,_,_,113,ADJ,Agpmsay,amod
112,631-637,objekt,_,_,_,_,_,107,NOUN,Ncmsan,nmod
113,638-642,tudi,_,_,_,_,_,131,PART,Q,advmod
114,643-644,v,_,_,_,_,_,116,ADP,Sl,case
115,645-650,kraj,_,_,_,_,_,131,NOUN,Ncmsl,obl
116,651-659,Stržišče,LOC,0,*->10-1,*[10],3 - Nevtralno,116,PROPN,Npnsn,nmod
117,660-661,.,_,_,_,_,_,99,PUNCT,Z,punct
118,662-670,dopoldan,_,_,_,_,_,131,ADV,Rgp,advmod
119,671-673,biti,_,_,_,_,_,131,AUX,Va-r3s-n,aux
120,674-675,v,_,_,_,_,_,122,ADP,Sl,case
121,676-683,naselje,_,_,_,_,_,131,NOUN,Ncnsl,obl
122,684-692,Hruševje,LOC,0,*->11-1,*[11],3 - Nevtralno,122,PROPN,Npnsn,nmod
123,693-694,v,_,_,_,_,_,125,ADP,Sl,case
124,695-701,občina,LOC[4],0,*->12-1,*[12],3 - Nevtralno[13],131,NOUN,Ncfsl,obl
125,702-710,Postojna,LOC[4],0,*->12-1,*[12],3 - Nevtralno[13],125,PROPN,Npfsn,nmod
126,711-717,zaradi,_,_,_,_,_,130,ADP,Sg,case
127,718-726,zamašen,_,_,_,_,_,130,ADJ,Appfsg,amod
128,727-735,meteoren,_,_,_,_,_,130,ADJ,Agpfsg,amod
129,736-748,kanalizacija,_,_,_,_,_,131,NOUN,Ncfsg,obl
130,749-758,poplaviti,_,_,_,_,_,5,VERB,Vmep-sn,parataxis
131,759-768,pritličje,_,_,_,_,_,131,NOUN,Ncnsa,obj
132,769-781,stanovanjski,_,_,_,_,_,134,ADJ,Agpfsg,amod
133,782-786,hiša,_,_,_,_,_,132,NOUN,Ncfsg,nmod
134,787-788,.,_,_,_,_,_,131,PUNCT,Z,punct
135,789-793,klet,_,_,_,_,_,141,NOUN,Ncfsn,nsubj
136,794-796,pa,_,_,_,_,_,141,CCONJ,Cc,advmod
137,797-799,biti,_,_,_,_,_,141,AUX,Va-r3s-n,aux
138,800-802,že,_,_,_,_,_,141,PART,Q,advmod
139,803-810,zjutraj,_,_,_,_,_,141,ADV,Rgp,advmod
140,811-817,zaliti,_,_,_,_,_,131,VERB,Vmep-sn,parataxis
141,818-819,v,_,_,_,_,_,144,ADP,Sl,case
142,820-826,murski,LOC[5],0,*->13-1,*[13],3 - Nevtralno[14],144,ADJ,Agpfsl,amod
143,827-833,Sobota,LOC[5],0,*->13-1,*[13],3 - Nevtralno[14],141,PROPN,Npfsl,obl
144,834-835,v,_,_,_,_,_,147,ADP,Sl,case
145,836-846,Cankarjev,LOC[6],0,*->14-1,*[14],3 - Nevtralno[15],147,ADJ,Aspfsl,amod
146,847-852,ulica,LOC[6],0,*->14-1,*[14],3 - Nevtralno[15],141,NOUN,Ncfsl,obl
147,853-854,",",_,_,_,_,_,151,PUNCT,Z,punct
148,855-859,kjer,_,_,_,_,_,151,SCONJ,Cs,mark
149,860-862,biti,_,_,_,_,_,151,AUX,Va-r3p-n,aux
150,863-869,morati,_,_,_,_,_,147,VERB,Vmpp-pm,acl
151,870-877,gasilec,_,_,_,_,_,151,NOUN,Ncmpn,nsubj
152,878-886,izčrpati,_,_,_,_,_,151,VERB,Vmen,xcomp
153,887-892,okoli,_,_,_,_,_,156,ADV,Rgp,advmod
154,893-897,3000,_,_,_,_,_,156,NUM,Mdc,nummod
155,898-904,liter,_,_,_,_,_,153,NOUN,Ncmpg,obj
156,905-909,voda,_,_,_,_,_,156,NOUN,Ncfsg,nmod
157,910-911,.,_,_,_,_,_,131,PUNCT,Z,punct
158,912-913,"""",_,_,_,_,_,164,PUNCT,Z,punct
159,914-917,moj,_,_,_,_,_,163,DET,Ps1msns,det
160,918-921,bog,_,_,_,_,_,164,NOUN,Ncmsn,nsubj
161,922-928,kakšen,_,_,_,_,_,163,DET,Pq-fsn,det
162,929-933,toč,_,_,_,_,_,164,NOUN,Ncfsn,nsubj
163,934-936,biti,_,_,_,_,_,141,VERB,Va-r3s-n,advcl
164,937-942,proti,_,_,_,_,_,166,ADP,Sd,case
165,943-948,Celje,LOC,_,*->15-1,*[15],_,164,PROPN,Npnsd,obl
166,949-950,",",_,_,_,_,_,171,PUNCT,Z,punct
167,951-954,nič,_,_,_,_,_,171,PRON,Pz-nsn,nsubj
168,955-957,se,_,_,_,_,_,171,PRON,Px------y,expl
169,958-960,ne,_,_,_,_,_,171,PART,Q,advmod
170,961-965,videti,_,_,_,_,_,164,VERB,Vmbr3s,csubj
171,966-967,!,_,_,_,_,_,171,PUNCT,Z,punct
172,968-969,"""",_,_,_,_,_,179,PUNCT,Z,punct
173,970-972,biti,_,_,_,_,_,179,AUX,Va-r3s-n,aux
174,973-975,na,_,_,_,_,_,177,ADP,Sl,case
175,976-982,svoj,_,_,_,_,_,177,DET,Px-msl,det
176,983-991,facebook,_,_,_,_,_,179,NOUN,Ncmsl,obl
177,992-999,profilo,_,_,_,_,_,179,NOUN,Ncmsl,obl
178,1000-1008,zapisati,_,_,_,_,_,171,VERB,Vmep-sf,parataxis
179,1009-1012,en,_,_,_,_,_,179,NUM,Mlpfsn,nsubj
180,1013-1018,izmed,_,_,_,_,_,183,ADP,Sg,case
181,1019-1029,slovenski,_,_,_,_,_,183,ADJ,Agpfpg,amod
182,1030-1034,pevka,_,_,_,_,_,180,NOUN,Ncfpg,nmod
183,1035-1036,.,_,_,_,_,_,179,PUNCT,Z,punct
184,1037-1039,po,_,_,_,_,_,186,ADP,Sl,case
185,1040-1048,podatek,_,_,_,_,_,180,NOUN,Ncmpl,nmod
186,1049-1057,agencija,ORG[7],_,*->18-1,*[18],_,186,NOUN,Ncfsg,nmod
187,1058-1060,RS,ORG[7],_,*->18-1,*[18],_,187,PROPN,Npfsg,nmod
188,1061-1063,za,ORG[7],_,*->18-1,*[18],_,190,ADP,Sa,case
189,1064-1070,okolje,ORG[7],_,*->18-1,*[18],_,188,NOUN,Ncnsa,nmod
190,1071-1072,",",_,_,_,_,_,171,PUNCT,Z,punct
191,1073-1075,biti,_,_,_,_,_,216,AUX,Va-r3s-n,aux
192,1076-1084,trenutno,_,_,_,_,_,195,ADV,Rgp,advmod
193,1085-1086,v,_,_,_,_,_,195,ADP,Sl,case
194,1087-1092,Celje,LOC,0,*->15-2,*[15],3 - Nevtralno,197,PROPN,Npnsl,nmod
195,1093-1095,18,_,_,_,_,_,197,NUM,Mdc,nummod
196,1096-1103,stopinja,_,_,_,_,_,179,NOUN,Ncfpg,nsubj
197,1104-1106,in,_,_,_,_,_,199,CCONJ,Cc,cc
198,1107-1111,grm,_,_,_,_,_,197,NOUN,Ncmpn,conj
199,1112-1113,.,_,_,_,_,_,179,PUNCT,Z,punct
200,1114-1121,nevihta,_,_,_,_,_,216,NOUN,Ncfpn,nsubj
201,1122-1124,biti,_,_,_,_,_,216,AUX,Va-r3p-n,aux
202,1125-1129,tudi,_,_,_,_,_,204,PART,Q,advmod
203,1130-1136,drugod,_,_,_,_,_,206,ADV,Rgp,advmod
204,1137-1139,po,_,_,_,_,_,206,ADP,Sl,case
205,1140-1149,Slovenija,LOC,0,*->16-1,*[16],3 - Nevtralno,197,PROPN,Npfsl,nmod
206,1150-1151,",",_,_,_,_,_,216,PUNCT,Z,punct
207,1152-1154,po,_,_,_,_,_,209,ADP,Sl,case
208,1155-1163,podatek,_,_,_,_,_,216,NOUN,Ncmpl,obl
209,1164-1168,ARSA,ORG,_,*->18-2,*[18],_,209,PROPN,Npfsg,nmod
210,1169-1171,pa,_,_,_,_,_,216,CCONJ,Cc,advmod
211,1172-1175,naj,_,_,_,_,_,216,PART,Q,advmod
212,1176-1178,biti,_,_,_,_,_,216,AUX,Va-c,aux
213,1179-1184,proti,_,_,_,_,_,215,ADP,Sd,case
214,1185-1191,večer,_,_,_,_,_,216,NOUN,Ncmsd,obl
215,1192-1200,ponehati,_,_,_,_,_,206,VERB,Vmep-pf,acl
216,1201-1202,.,_,_,_,_,_,216,PUNCT,Z,punct
217,1203-1210,nevihta,_,_,_,_,_,216,NOUN,Ncfpn,nsubj
218,1211-1215,tudi,_,_,_,_,_,216,PART,Q,advmod
219,1216-1221,jutri,_,_,_,_,_,216,ADV,Rgp,advmod
220,1222-1223,",",_,_,_,_,_,220,PUNCT,Z,punct
221,1224-1233,malenkost,_,_,_,_,_,229,NOUN,Ncfsn,nsubj
222,1234-1241,toplo,_,_,_,_,_,229,ADV,Rgc,advmod
223,1242-1244,biti,_,_,_,_,_,229,AUX,Va-f3s-n,aux
224,1245-1250,jutri,_,_,_,_,_,229,ADV,Rgp,advmod
225,1251-1253,biti,_,_,_,_,_,229,AUX,Va-f3s-n,cop
226,1254-1261,zjutraj,_,_,_,_,_,229,ADV,Rgp,advmod
227,1262-1268,deloma,_,_,_,_,_,229,ADV,Rgp,advmod
228,1269-1274,jasen,_,_,_,_,_,216,ADJ,Agpnsn,conj
229,1275-1276,",",_,_,_,_,_,234,PUNCT,Z,punct
230,1277-1280,čez,_,_,_,_,_,232,ADP,Sa,case
231,1281-1284,dan,_,_,_,_,_,234,NOUN,Ncmsan,obl
232,1285-1287,pa,_,_,_,_,_,234,CCONJ,Cc,advmod
233,1288-1290,biti,_,_,_,_,_,229,VERB,Va-f3s-n,advcl
234,1291-1294,več,_,_,_,_,_,236,DET,Rgc,det
235,1295-1305,oblačnost,_,_,_,_,_,234,NOUN,Ncfpg,nsubj
236,1306-1307,",",_,_,_,_,_,234,PUNCT,Z,punct
237,1308-1316,popoldne,_,_,_,_,_,240,ADV,Rgp,advmod
238,1317-1321,biti,_,_,_,_,_,240,AUX,Va-f3p-n,aux
239,1322-1329,nastati,_,_,_,_,_,229,VERB,Vmep-pf,advcl
240,1330-1338,krajeven,_,_,_,_,_,242,ADJ,Agpfpn,amod
241,1339-1344,ploh,_,_,_,_,_,240,NOUN,Ncfpn,nsubj
242,1345-1347,in,_,_,_,_,_,245,CCONJ,Cc,cc
243,1348-1357,posamezen,_,_,_,_,_,245,ADJ,Agpfpn,amod
244,1358-1365,nevihta,_,_,_,_,_,242,NOUN,Ncfpn,conj
245,1366-1367,.,_,_,_,_,_,240,PUNCT,Z,punct
246,1368-1374,kakšen,_,_,_,_,_,248,DET,Pq-fsn,det
247,1375-1383,stopinja,_,_,_,_,_,250,NOUN,Ncfsa,obj
248,1384-1391,toplo,_,_,_,_,_,250,ADV,Rgc,advmod
249,1392-1394,biti,_,_,_,_,_,240,VERB,Va-f3s-n,advcl
250,1395-1398,kot,_,_,_,_,_,252,SCONJ,Cs,case
251,1399-1404,danes,_,_,_,_,_,250,ADV,Rgp,advmod
252,1405-1406,",",_,_,_,_,_,250,PUNCT,Z,punct
253,1407-1409,na,_,_,_,_,_,255,ADP,Sl,case
254,1410-1420,Primorsko,LOC,_,*->17-2,*[17],_,252,PROPN,Npnsl,nmod
255,1421-1427,mogoče,_,_,_,_,_,257,ADV,Rgp,advmod
256,1428-1431,dva,_,_,_,_,_,250,NUM,Mlcfda,nummod
257,1432-1433,.,_,_,_,_,_,255,PUNCT,Z,punct
258,1434-1442,nizek,_,_,_,_,_,261,ADJ,Agsfpa,amod
259,1443-1451,jutranji,_,_,_,_,_,261,ADJ,Agpfpa,amod
260,1452-1463,temperatura,_,_,_,_,_,257,NOUN,Ncfpa,conj
261,1464-1468,biti,_,_,_,_,_,284,AUX,Va-f3p-n,cop
262,1469-1471,od,_,_,_,_,_,264,ADP,Sg,case
263,1472-1473,9,_,_,_,_,_,266,NUM,Mdc,nummod
264,1474-1476,do,_,_,_,_,_,266,ADP,Sg,case
265,1477-1479,16,_,_,_,_,_,261,NUM,Mdc,nummod
266,1480-1481,",",_,_,_,_,_,268,PUNCT,Z,punct
267,1482-1490,visok,_,_,_,_,_,266,ADJ,Agsfsg,conj
268,1491-1497,dneven,_,_,_,_,_,264,ADJ,Agpfsg,conj
269,1498-1500,od,_,_,_,_,_,271,ADP,Sg,case
270,1501-1503,19,_,_,_,_,_,269,NUM,Mdc,nummod
271,1504-1506,do,_,_,_,_,_,273,ADP,Sg,case
272,1507-1509,23,_,_,_,_,_,269,NUM,Mdc,nummod
273,1510-1511,",",_,_,_,_,_,273,PUNCT,Z,punct
274,1512-1514,na,_,_,_,_,_,276,ADP,Sl,case
275,1515-1525,Primorsko,LOC,_,*->17-3,*[17],_,269,PROPN,Npnsl,nmod
276,1526-1528,do,_,_,_,_,_,279,ADP,Sg,case
277,1529-1531,27,_,_,_,_,_,279,NUM,Mdc,nummod
278,1532-1539,stopinja,_,_,_,_,_,284,NOUN,Ncfpg,obl
279,1540-1547,Celzija,_,_,_,_,_,279,PROPN,Npfsg,nmod
280,1548-1549,.,_,_,_,_,_,276,PUNCT,Z,punct
281,1550-1555,konec,_,_,_,_,_,283,ADP,Sg,case
282,1556-1561,teden,_,_,_,_,_,284,NOUN,Ncmsg,obl
283,1562-1565,lep,_,_,_,_,_,269,ADJ,Agpmsnn,acl
284,1566-1567,",",_,_,_,_,_,284,PUNCT,Z,punct
285,1568-1575,nevihta,_,_,_,_,_,288,NOUN,Ncfpn,nsubj
286,1576-1580,biti,_,_,_,_,_,288,AUX,Va-r3p-y,cop
287,1581-1591,izključen,_,_,_,_,_,284,ADJ,Appfpn,advcl
288,1592-1593,v,_,_,_,_,_,290,ADP,Sa,case
289,1594-1599,petek,_,_,_,_,_,284,NOUN,Ncmsan,obl
290,1600-1602,in,_,_,_,_,_,292,CCONJ,Cc,cc
291,1603-1609,sobota,_,_,_,_,_,290,NOUN,Ncfsa,conj
292,1610-1612,biti,_,_,_,_,_,295,AUX,Va-f3s-n,cop
293,1613-1618,delno,_,_,_,_,_,295,ADV,Rgp,advmod
294,1619-1624,jasen,_,_,_,_,_,284,ADJ,Agpnsn,conj
295,1625-1627,in,_,_,_,_,_,297,CCONJ,Cc,cc
296,1628-1632,suh,_,_,_,_,_,295,ADJ,Agpnsn,conj
297,1633-1634,.,_,_,_,_,_,288,PUNCT,Z,punct
298,1635-1636,"""",_,_,_,_,_,306,PUNCT,Z,punct
299,1637-1641,tudi,_,_,_,_,_,306,PART,Q,advmod
300,1642-1645,med,_,_,_,_,_,302,ADP,Si,case
301,1646-1652,konec,_,_,_,_,_,306,NOUN,Ncmsi,obl
302,1653-1658,teden,_,_,_,_,_,302,NOUN,Ncmsg,nmod
303,1659-1661,biti,_,_,_,_,_,306,AUX,Va-f3s-n,cop
304,1662-1667,vreme,_,_,_,_,_,306,NOUN,Ncnsn,nsubj
305,1668-1675,podoben,_,_,_,_,_,295,ADJ,Agpnsn,conj
306,1676-1677,.,_,_,_,_,_,306,PUNCT,Z,punct
307,1678-1680,na,_,_,_,_,_,309,ADP,Sl,case
308,1681-1691,Primorsko,LOC,0,*->17-4,*[17],3 - Nevtralno,312,PROPN,Npnsl,obl
309,1692-1694,se,_,_,_,_,_,312,PRON,Px------y,expl
310,1695-1697,biti,_,_,_,_,_,312,AUX,Va-f3s-n,aux
311,1698-1704,ogreti,_,_,_,_,_,306,VERB,Vmep-sn,parataxis
312,1705-1707,do,_,_,_,_,_,315,ADP,Sg,case
313,1708-1710,28,_,_,_,_,_,315,NUM,Mdc,nummod
314,1711-1718,stopinja,_,_,_,_,_,312,NOUN,Ncfpg,obl
315,1719-1720,",",_,_,_,_,_,318,PUNCT,Z,punct
316,1721-1722,v,_,_,_,_,_,318,ADP,Sl,case
317,1723-1734,notranjost,_,_,_,_,_,327,NOUN,Ncfsl,obl
318,1735-1737,za,_,_,_,_,_,321,ADP,Sa,case
319,1738-1744,kakšen,_,_,_,_,_,321,DET,Pq-fsa,det
320,1745-1753,stopinja,_,_,_,_,_,322,NOUN,Ncfsa,nmod
321,1754-1758,manj,_,_,_,_,_,318,DET,Rgc,conj
322,1759-1760,.,_,_,_,_,_,312,PUNCT,Z,punct
323,1761-1766,lahko,_,_,_,_,_,327,ADV,Rgp,advmod
324,1767-1769,se,_,_,_,_,_,327,PRON,Px------y,expl
325,1770-1772,še,_,_,_,_,_,327,PART,Q,advmod
326,1773-1779,pojaviti,_,_,_,_,_,312,VERB,Vmer3s,parataxis
327,1780-1786,kakšen,_,_,_,_,_,329,DET,Pq-fsn,det
328,1787-1794,nevihta,_,_,_,_,_,327,NOUN,Ncfsn,nsubj
329,1795-1796,.,_,_,_,_,_,312,PUNCT,Z,punct
330,1797-1798,"""",_,_,_,_,_,338,PUNCT,Z,punct
331,1799-1801,po,_,_,_,_,_,333,ADP,Sl,case
332,1802-1809,beseda,_,_,_,_,_,338,NOUN,Ncfpl,obl
333,1810-1819,dežuren,_,_,_,_,_,335,ADJ,Agpmsg,amod
334,1820-1831,meteorolog,_,_,_,_,_,333,NOUN,Ncmsg,nmod
335,1832-1834,se,_,_,_,_,_,338,PRON,Px------y,expl
336,1835-1840,lahko,_,_,_,_,_,338,ADV,Rgp,advmod
337,1841-1849,pojaviti,_,_,_,_,_,327,VERB,Vmer3p,advcl
338,1850-1854,tudi,_,_,_,_,_,338,PART,Q,advmod
339,1855-1862,nevihta,_,_,_,_,_,338,NOUN,Ncfpn,nsubj
340,1863-1864,",",_,_,_,_,_,347,PUNCT,Z,punct
341,1865-1867,ob,_,_,_,_,_,344,ADP,Sl,case
342,1868-1877,močen,_,_,_,_,_,344,ADJ,Agcfpl,amod
343,1878-1886,nevihta,_,_,_,_,_,347,NOUN,Ncfpl,obl
344,1887-1889,pa,_,_,_,_,_,347,CCONJ,Cc,advmod
345,1890-1892,biti,_,_,_,_,_,347,AUX,Va-r3s-y,cop
346,1893-1903,izključen,_,_,_,_,_,338,ADJ,Appfsn,advcl
347,1904-1908,niti,_,_,_,_,_,347,PART,Q,advmod
348,1909-1913,toč,_,_,_,_,_,347,NOUN,Ncfsn,nsubj
349,1914-1915,.,_,_,_,_,_,338,PUNCT,Z,punct
350,1916-1922,vendar,_,_,_,_,_,357,CCONJ,Cc,cc
351,1923-1926,naj,_,_,_,_,_,357,PART,Q,advmod
352,1927-1929,ta,_,_,_,_,_,357,DET,Pd-fsn,nsubj
353,1930-1932,ne,_,_,_,_,_,357,PART,Q,advmod
354,1933-1935,biti,_,_,_,_,_,357,AUX,Va-c,aux
355,1936-1940,biti,_,_,_,_,_,357,AUX,Va-p-sf,cop
356,1941-1950,pretiran,_,_,_,_,_,347,ADJ,Appfsn,conj
357,1951-1952,.,_,_,_,_,_,347,PUNCT,Z,punct
358,1953-1963,ponedeljek,_,_,_,_,_,368,NOUN,Ncmsan,obl
359,1964-1973,hladen,_,_,_,_,_,359,ADJ,Agcmsny,amod
360,1974-1975,"""",_,_,_,_,_,360,PUNCT,Z,punct
361,1976-1977,v,_,_,_,_,_,363,ADP,Sl,case
362,1978-1982,noč,_,_,_,_,_,368,NOUN,Ncfsl,obl
363,1983-1985,na,_,_,_,_,_,365,ADP,Sa,case
364,1986-1996,ponedeljek,_,_,_,_,_,363,NOUN,Ncmsan,nmod
365,1997-2000,jaz,_,_,_,_,_,368,PRON,Pp1-pa,obj
366,2001-2003,biti,_,_,_,_,_,368,AUX,Va-f3s-n,aux
367,2004-2010,preiti,_,_,_,_,_,5,VERB,Vmep-sf,parataxis
368,2011-2017,fronta,_,_,_,_,_,368,NOUN,Ncfsn,nsubj
369,2018-2019,",",_,_,_,_,_,373,PUNCT,Z,punct
370,2020-2022,ki,_,_,_,_,_,373,SCONJ,Cs,mark
371,2023-2025,biti,_,_,_,_,_,373,AUX,Va-f3s-n,aux
372,2026-2034,prinesti,_,_,_,_,_,369,VERB,Vmep-sf,acl
373,2035-2043,nekoliko,_,_,_,_,_,375,ADV,Rgp,advmod
374,2044-2053,hladen,_,_,_,_,_,376,ADJ,Agcnsa,amod
375,2054-2059,vreme,_,_,_,_,_,373,NOUN,Ncnsa,obj
376,2060-2061,",",_,_,_,_,_,382,PUNCT,Z,punct
377,2062-2064,ki,_,_,_,_,_,382,SCONJ,Cs,mark
378,2065-2067,pa,_,_,_,_,_,382,CCONJ,Cc,advmod
379,2068-2070,ne,_,_,_,_,_,382,PART,Q,advmod
380,2071-2073,biti,_,_,_,_,_,382,AUX,Va-f3s-n,aux
381,2074-2083,vztrajati,_,_,_,_,_,376,VERB,Vmpp-sn,acl
382,2084-2089,dolg,_,_,_,_,_,382,ADJ,Agpnsn,xcomp
383,2090-2091,.,_,_,_,_,_,373,PUNCT,Z,punct
384,2092-2096,spet,_,_,_,_,_,388,ADV,Rgp,advmod
385,2097-2099,se,_,_,_,_,_,388,PRON,Px------y,expl
386,2100-2102,biti,_,_,_,_,_,388,AUX,Va-f3s-n,aux
387,2103-2110,segreti,_,_,_,_,_,5,VERB,Vmep-sn,parataxis
388,2111-2112,",",_,_,_,_,_,394,PUNCT,Z,punct
389,2113-2119,vendar,_,_,_,_,_,394,CCONJ,Cc,cc
390,2120-2122,ne,_,_,_,_,_,394,PART,Q,cc:preconj
391,2123-2125,do,_,_,_,_,_,391,ADP,Sg,case
392,2126-2128,30,_,_,_,_,_,394,NUM,Mdc,nummod
393,2129-2136,stopinja,_,_,_,_,_,388,NOUN,Ncfpg,obl
394,2137-2138,.,_,_,_,_,_,388,PUNCT,Z,punct
395,2139-2140,"""",_,_,_,_,_,397,PUNCT,Z,punct
396,2141-2152,zanimivost,_,_,_,_,_,388,NOUN,Ncfsg,nsubj
397,2153-2155,po,_,_,_,_,_,399,ADP,Sl,case
398,2156-2164,podatek,_,_,_,_,_,397,NOUN,Ncmpl,nmod
399,2165-2173,agencija,ORG[8],_,*->18-3,*[18],_,399,NOUN,Ncfsg,nmod
400,2174-2176,RS,ORG[8],_,*->18-3,*[18],_,400,PROPN,Npfsg,nmod
401,2177-2179,za,ORG[8],_,*->18-3,*[18],_,403,ADP,Sa,case
402,2180-2186,okolje,ORG[8],_,*->18-3,*[18],_,401,NOUN,Ncnsa,nmod
403,2187-2188,(,_,_,_,_,_,405,PUNCT,Z,punct
404,2189-2193,Arso,ORG,0,*->18-4,*[18],3 - Nevtralno,403,PROPN,Npmsn,appos
405,2194-2195,),_,_,_,_,_,405,PUNCT,Z,punct
406,2196-2198,biti,_,_,_,_,_,423,AUX,Va-r3s-n,aux
407,2199-2203,leto,_,_,_,_,_,423,NOUN,Ncnsg,obl
408,2204-2208,1969,_,_,_,_,_,408,NUM,Mdc,nummod
409,2209-2211,na,_,_,_,_,_,412,ADP,Sa,case
410,2212-2220,današnji,_,_,_,_,_,412,ADJ,Agpmsay,amod
411,2221-2224,dan,_,_,_,_,_,423,NOUN,Ncmsan,obl
412,2225-2233,sneženje,_,_,_,_,_,423,NOUN,Ncnsa,obj
413,2234-2236,na,_,_,_,_,_,415,ADP,Sl,case
414,2237-2246,Kredarica,LOC,0,*->19-1,*[19],3 - Nevtralno,413,PROPN,Npfsl,nmod
415,2247-2248,",",_,_,_,_,_,419,PUNCT,Z,punct
416,2249-2251,ki,_,_,_,_,_,419,SCONJ,Cs,mark
417,2252-2254,biti,_,_,_,_,_,419,AUX,Va-r3s-n,aux
418,2255-2264,vztrajati,_,_,_,_,_,415,VERB,Vmpp-sn,acl
419,2265-2268,trije,_,_,_,_,_,421,NUM,Mlcmpa,nummod
420,2269-2272,dan,_,_,_,_,_,419,NOUN,Ncmpa,obl
421,2273-2274,",",_,_,_,_,_,419,PUNCT,Z,punct
422,2275-2283,ponehati,_,_,_,_,_,403,VERB,Vmep-sn,acl
423,2284-2285,.,_,_,_,_,_,423,PUNCT,Z,punct
424,2286-2293,zjutraj,_,_,_,_,_,427,ADV,Rgp,advmod
425,2294-2296,biti,_,_,_,_,_,427,AUX,Va-r3p-n,aux
426,2297-2305,izmeriti,_,_,_,_,_,423,VERB,Vmep-pm,conj
427,2306-2308,30,_,_,_,_,_,429,NUM,Mdc,nummod
428,2309-2320,centimeter,_,_,_,_,_,430,NOUN,Ncmpg,nmod
429,2321-2327,debel,_,_,_,_,_,432,ADJ,Agpfsa,amod
430,2328-2334,snežen,_,_,_,_,_,432,ADJ,Agpfsa,amod
431,2335-2340,odeja,_,_,_,_,_,427,NOUN,Ncfsa,obj
432,2341-2342,",",_,_,_,_,_,435,PUNCT,Z,punct
433,2343-2346,kar,_,_,_,_,_,435,PRON,Pr-nsn,nsubj
434,2347-2349,biti,_,_,_,_,_,432,VERB,Va-r3s-n,acl
435,2350-2356,največ,_,_,_,_,_,438,DET,Rgs,det
436,2357-2358,v,_,_,_,_,_,438,ADP,Sl,case
437,2359-2366,avgust,_,_,_,_,_,435,NOUN,Ncmsl,obl
438,2367-2369,od,_,_,_,_,_,440,ADP,Sg,case
439,2370-2377,začetek,_,_,_,_,_,438,NOUN,Ncmsg,nmod
440,2378-2385,meritev,_,_,_,_,_,440,NOUN,Ncfpg,nmod
441,2386-2390,leto,_,_,_,_,_,441,NOUN,Ncnsg,nmod
442,2391-2395,1955,_,_,_,_,_,442,NUM,Mdc,nummod
