idx,chars_idx,token,entity_type,sentiment,idk_1,idk_2,orig_sentiment,heads,upos,xpos,deprel
0,0-7,ključen,_,_,_,_,_,2,ADJ,Agpfsa,amod
1,8-14,beseda,_,_,_,_,_,10,NOUN,Ncfsa,obj
2,15-18,pri,_,_,_,_,_,4,ADP,Sl,case
3,19-29,imenovanje,_,_,_,_,_,2,NOUN,Ncnsl,nmod
4,30-35,nov,_,_,_,_,_,6,ADJ,Agpmpg,amod
5,36-47,nadzornik,_,_,_,_,_,4,NOUN,Ncmpg,nmod
6,48-56,Telekom,ORG[1],_,*->18-1,*[18],_,6,PROPN,Npmsg,nmod
7,57-66,Slovenija,ORG[1]|LOC[2],_,*->18-1|*->7-1,*[18]|*[7],_,7,PROPN,Npfsg,flat:name
8,67-75,utegniti,_,_,_,_,_,0,VERB,Vmbr3p,root
9,76-81,imeti,_,_,_,_,_,9,VERB,Vmpn,xcomp
10,82-88,zlasti,_,_,_,_,_,10,PART,Q,advmod
11,89-95,družba,_,_,_,_,_,10,NOUN,Ncfsg,obj
12,96-101,blizu,_,_,_,_,_,14,ADP,Sg,case
13,102-108,Darija,PER[3],_,*->5-1,*[5],_,12,PROPN,Npmsg,nmod
14,109-114,južen,PER[3],_,*->5-1,*[5],_,14,PROPN,Npfsg,flat:name
15,115-116,",",_,_,_,_,_,19,PUNCT,Z,punct
16,117-119,ki,_,_,_,_,_,19,SCONJ,Cs,mark
17,120-124,biti,_,_,_,_,_,19,AUX,Va-f3p-n,aux
18,125-136,obvladovati,_,_,_,_,_,14,VERB,Vmpp-pf,acl
19,137-140,kar,_,_,_,_,_,21,ADV,Rgp,advmod
20,141-149,četrtina,_,_,_,_,_,19,NOUN,Ncfsa,obj
21,150-154,ves,_,_,_,_,_,23,DET,Pg-mpg,det
22,155-161,glas,_,_,_,_,_,21,NOUN,Ncmpg,nmod
23,162-163,",",_,_,_,_,_,32,PUNCT,Z,punct
24,164-170,medtem,_,_,_,_,_,32,ADV,Rgp,mark
25,171-173,ko,_,_,_,_,_,25,SCONJ,Cs,fixed
26,174-176,biti,_,_,_,_,_,32,AUX,Va-f3s-n,aux
27,177-180,med,_,_,_,_,_,30,ADP,Si,case
28,181-190,državen,_,_,_,_,_,30,ADJ,Agpmpi,amod
29,191-199,lastnik,_,_,_,_,_,32,NOUN,Ncmpi,obl
30,200-205,lahko,_,_,_,_,_,32,ADV,Rgp,advmod
31,206-215,glasovati,_,_,_,_,_,19,VERB,Vmbp-sf,advcl
32,216-221,zgolj,_,_,_,_,_,32,PART,Q,advmod
33,222-225,NLB,ORG,_,*->17-1,*[17],_,32,PROPN,Npfsa,obj
34,226-227,.,_,_,_,_,_,32,PUNCT,Z,punct
35,228-233,slab,_,_,_,_,_,38,ADJ,Agpmdn,amod
36,234-237,dva,_,_,_,_,_,38,NUM,Mlcmdn,nummod
37,238-243,teden,_,_,_,_,_,34,NOUN,Ncmdn,appos
38,244-248,pred,_,_,_,_,_,40,ADP,Si,case
39,249-258,skupščina,_,_,_,_,_,38,NOUN,Ncfsi,nmod
40,259-267,Telekom,ORG[4],_,*->18-2,*[18],_,40,PROPN,Npmsg,nmod
41,268-277,Slovenija,ORG[4]|LOC[5],_,*->18-2|*->7-2,*[18]|*[7],_,41,PROPN,Npfsg,flat:name
42,278-279,",",_,_,_,_,_,48,PUNCT,Z,punct
43,280-282,na,_,_,_,_,_,45,ADP,Sl,case
44,283-289,kateri,_,_,_,_,_,48,DET,Pq-fsl,obl
45,290-294,biti,_,_,_,_,_,48,AUX,Va-f3p-n,aux
46,295-305,delničar,_,_,_,_,_,48,NOUN,Ncmpn,nsubj
47,306-314,odločati,_,_,_,_,_,38,VERB,Vmpp-pm,acl
48,315-316,o,_,_,_,_,_,50,ADP,Sl,case
49,317-326,zamenjava,_,_,_,_,_,48,NOUN,Ncfsl,obl
50,327-336,celoten,_,_,_,_,_,53,ADJ,Agpmsg,amod
51,337-347,nadzoren,_,_,_,_,_,53,ADJ,Agpmsg,amod
52,348-353,svet,_,_,_,_,_,50,NOUN,Ncmsg,nmod
53,354-355,",",_,_,_,_,_,48,PUNCT,Z,punct
54,356-358,biti,_,_,_,_,_,68,AUX,Va-r3s-n,aux
55,359-367,direktor,_,_,*->2-1,*[2],_,68,NOUN,Ncmsn,nsubj
56,368-376,agencija,ORG[6],_,*->2-1|*->8-1,*[2]|*[8],_,56,NOUN,Ncfsg,nmod
57,377-379,za,ORG[6],_,*->2-1|*->8-1,*[2]|*[8],_,59,ADP,Sa,case
58,380-383,trg,ORG[6],_,*->2-1|*->8-1,*[2]|*[8],_,57,NOUN,Ncmsan,nmod
59,384-395,vrednosten,ORG[6],_,*->2-1|*->8-1,*[2]|*[8],_,61,ADJ,Agpmpg,amod
60,396-404,papir,ORG[6],_,*->2-1|*->8-1,*[2]|*[8],_,59,NOUN,Ncmpg,nmod
61,405-406,(,_,_,*->2-1,*[2],_,63,PUNCT,Z,punct
62,407-411,ATVP,ORG,_,*->2-1|*->8-2,*[2]|*[8],_,61,PROPN,Npmsn,appos
63,412-413,),_,_,*->2-1,*[2],_,63,PUNCT,Z,punct
64,414-420,Damjan,PER[7],_,*->2-1,*[2],_,68,PROPN,Npmsn,nsubj
65,421-427,Žugelj,PER[7],_,*->2-1,*[2],_,65,PROPN,Npmsn,nmod
66,428-434,država,_,_,*->7-3,*[7],_,65,NOUN,Ncfsd,nmod
67,435-439,vzeti,_,_,_,_,_,9,VERB,Vmep-sm,root
68,440-450,glasovalen,_,_,_,_,_,70,ADJ,Agpfpa,amod
69,451-458,pravica,_,_,_,_,_,68,NOUN,Ncfpa,obj
70,459-460,v,_,_,_,_,_,73,ADP,Sl,case
71,461-472,nacionalen,_,_,_,_,_,73,ADJ,Agpmsl,amod
72,473-483,operater,_,_,_,_,_,70,NOUN,Ncmsl,nmod
73,484-485,.,_,_,_,_,_,68,PUNCT,Z,punct
74,486-492,zaradi,_,_,_,_,_,76,ADP,Sg,case
75,493-500,kršitev,_,_,_,_,_,68,NOUN,Ncfsg,obl
76,501-507,zakon,_,_,_,_,_,76,NOUN,Ncmsg,nmod
77,508-509,o,_,_,_,_,_,79,ADP,Sl,case
78,510-519,prevzem,_,_,_,_,_,77,NOUN,Ncmpl,nmod
79,520-522,biti,_,_,_,_,_,86,AUX,Va-r3p-n,aux
80,523-527,brez,_,_,_,_,_,83,ADP,Sg,case
81,528-539,glasovalen,_,_,_,_,_,83,ADJ,Agpfpg,amod
82,540-546,pravica,_,_,_,_,_,86,NOUN,Ncfpg,obl
83,547-552,poleg,_,_,_,_,_,85,ADP,Sg,case
84,553-559,država,_,_,*->7-4,*[7],_,86,NOUN,Ncfsg,obl
85,560-566,ostati,_,_,_,_,_,68,VERB,Vmep-pm,conj
86,567-571,tudi,_,_,_,_,_,86,PART,Q,advmod
87,572-582,kapitalski,ORG[8],_,*->6-1,*[6],_,89,ADJ,Agpfsn,amod
88,583-589,družba,ORG[8],_,*->6-1,*[6],_,86,NOUN,Ncfsn,nsubj
89,590-591,(,_,_,_,_,_,91,PUNCT,Z,punct
90,592-595,kad,ORG,2,*->6-2,*[6],2 - Negativno,89,NOUN,Ncmsn,appos
91,596-597,),_,_,_,_,_,91,PUNCT,Z,punct
92,598-599,",",_,_,_,_,_,96,PUNCT,Z,punct
93,600-609,slovenski,ORG[9],_,*->15-1,*[15],_,96,ADJ,Agpfsn,amod
94,610-622,odškodninski,ORG[9],_,*->15-1,*[15],_,96,ADJ,Agpfsn,amod
95,623-629,družba,ORG[9],_,*->15-1,*[15],_,89,NOUN,Ncfsn,conj
96,630-631,(,_,_,_,_,_,98,PUNCT,Z,punct
97,632-635,sod,ORG,_,*->15-2,*[15],_,96,NOUN,Ncmsn,appos
98,636-637,),_,_,_,_,_,98,PUNCT,Z,punct
99,638-639,",",_,_,_,_,_,101,PUNCT,Z,punct
100,640-644,NKBM,ORG,2,*->12-1,*[12],2 - Negativno,89,PROPN,Npfsn,conj
101,645-646,",",_,_,_,_,_,103,PUNCT,Z,punct
102,647-660,zavarovalnica,ORG[10],_,*->1-1,*[1],_,101,NOUN,Ncfsn,conj
103,661-668,Triglav,ORG[10]|LOC[11],_,*->1-1|*->10-1,*[1]|*[10],_,103,PROPN,Npmsn,nmod
104,669-670,",",_,_,_,_,_,106,PUNCT,Z,punct
105,671-676,sklad,ORG[12],2,*->19-1,*[19],2 - Negativno[29],104,NOUN,Ncmsn,conj
106,677-679,za,ORG[12],2,*->19-1,*[19],2 - Negativno[29],108,ADP,Sa,case
107,680-692,financiranje,ORG[12],2,*->19-1,*[19],2 - Negativno[29],106,NOUN,Ncnsa,nmod
108,693-703,razgradnja,ORG[12],2,*->19-1,*[19],2 - Negativno[29],108,NOUN,Ncfsg,nmod
109,704-707,nek,ORG[12],2,*->19-1,*[19],2 - Negativno[29],113,ADJ,Agpmsnn,amod
110,708-710,in,_,_,_,_,_,112,CCONJ,Cc,cc
111,711-719,Aeroder,ORG[13],2,*->14-1,*[14],2 - Negativno[30],110,PROPN,Npmsn,conj
112,720-729,Ljubljana,ORG[13]|LOC[14],0,*->14-1|*->20-1,*[14]|*[20],2 - Negativno[30]|3 - Nevtralno[31],109,PROPN,Npfsn,nmod
113,730-731,",",_,_,_,_,_,116,PUNCT,Z,punct
114,732-734,ki,_,_,_,_,_,116,SCONJ,Cs,mark
115,735-740,imeti,_,_,_,_,_,113,VERB,Vmpr3p-n,acl
116,741-747,skupaj,_,_,_,_,_,116,ADV,Rgp,advmod
117,748-749,v,_,_,_,_,_,119,ADP,Sl,case
118,750-755,last,_,_,_,_,_,116,NOUN,Ncfsl,obl
119,756-758,73,_,_,_,_,_,121,NUM,Mdc,nummod
120,759-768,odstotek,_,_,_,_,_,119,NOUN,Ncmpg,nmod
121,769-777,Telekom,ORG,_,*->18-3,*[18],_,121,PROPN,Npmsg,nmod
122,778-779,.,_,_,_,_,_,116,PUNCT,Z,punct
123,780-786,Žugelj,PER,_,*->2-2,*[2],_,129,PROPN,Npmsn,nsubj
124,787-789,pa,_,_,_,_,_,129,CCONJ,Cc,advmod
125,790-801,glasovalen,_,_,_,_,_,127,ADJ,Agpfpg,amod
126,802-808,pravica,_,_,_,_,_,129,NOUN,Ncfpg,obj
127,809-811,biti,_,_,_,_,_,129,AUX,Va-r3s-y,aux
128,812-816,vzeti,_,_,_,_,_,9,VERB,Vmep-sm,parataxis
129,817-820,NLB,ORG,_,*->17-2,*[17],_,129,PROPN,Npfsg,obj
130,821-822,",",_,_,_,_,_,137,PUNCT,Z,punct
131,823-825,ki,_,_,_,_,_,137,SCONJ,Cs,mark
132,826-828,on,_,_,*->17-3,*[17],_,137,PRON,Pp3fsg--y,obj
133,829-835,očitno,_,_,_,_,_,137,ADV,Rgp,advmod
134,836-840,niti,_,_,_,_,_,137,PART,Q,advmod
135,841-843,biti,_,_,_,_,_,137,AUX,Va-r3s-y,aux
136,844-852,vključiti,_,2,*->2-3,*[2],2 - Negativno,130,VERB,Vmep-sm,acl
137,853-854,v,_,_,_,_,_,139,ADP,Sa,case
138,855-863,postopek,_,_,_,_,_,137,NOUN,Ncmsan,obl
139,864-871,nadzor,_,_,_,_,_,139,NOUN,Ncmsg,nmod
140,872-873,",",_,_,_,_,_,169,PUNCT,Z,punct
141,874-880,čeprav,_,_,_,_,_,191,SCONJ,Cs,mark
142,881-883,biti,_,_,*->17-4,*[17],_,149,AUX,Va-r3s-n,cop
143,884-885,v,_,_,_,_,_,146,ADP,Sl,case
144,886-894,večinski,_,_,_,_,_,146,ADJ,Agpfsl,amod
145,895-900,last,_,_,_,_,_,137,NOUN,Ncfsl,obl
146,901-907,država,_,_,*->7-5,*[7],_,146,NOUN,Ncfsg,nmod
147,908-909,.,_,_,_,_,_,137,PUNCT,Z,punct
148,910-914,izid,_,_,_,_,_,169,NOUN,Ncmsn,nsubj
149,915-924,skupščina,_,_,_,_,_,149,NOUN,Ncfsg,nmod
150,925-926,",",_,_,_,_,_,152,PUNCT,Z,punct
151,927-937,napovedan,_,_,_,_,_,150,ADJ,Appfsg,amod
152,938-940,za,_,_,_,_,_,154,ADP,Sa,case
153,941-942,6,_,_,_,_,_,152,NUM,Mdc,obl
154,943-944,.,_,_,_,_,_,149,PUNCT,Z,punct
155,945-952,februar,_,_,_,_,_,146,NOUN,Ncmsa,conj
156,953-954,",",_,_,_,_,_,152,PUNCT,Z,punct
157,955-957,in,_,_,_,_,_,159,CCONJ,Cc,cc
158,958-968,imenovanje,_,_,_,_,_,149,NOUN,Ncnsa,conj
159,969-974,nov,_,_,_,_,_,161,ADJ,Agpmpg,amod
160,975-981,član,_,_,_,_,_,159,NOUN,Ncmpg,nmod
161,982-992,nadzoren,_,_,_,_,_,163,ADJ,Agpmsg,amod
162,993-998,svet,_,_,_,_,_,161,NOUN,Ncmsg,nmod
163,999-1001,biti,_,_,_,_,_,169,AUX,Va-f3s-n,cop
164,1002-1006,tako,_,_,_,_,_,169,ADV,Rgp,advmod
165,1007-1010,ves,_,_,_,_,_,169,DET,Pg-nsn,obl
166,1011-1013,do,_,_,_,_,_,168,ADP,Sg,case
167,1014-1022,zadnji,_,_,_,_,_,169,ADJ,Agpmsg,obl
168,1023-1031,negotov,_,_,_,_,_,129,ADJ,Agpnsn,conj
169,1032-1033,.,_,_,_,_,_,169,PUNCT,Z,punct
170,1034-1037,en,_,_,_,_,_,178,NUM,Mlpfsa,obj
171,1038-1040,od,_,_,_,_,_,174,ADP,Sg,case
172,1041-1049,ključen,_,_,_,_,_,174,ADJ,Agpfpg,amod
173,1050-1054,vloga,_,_,_,_,_,171,NOUN,Ncfpg,nmod
174,1055-1057,na,_,_,_,_,_,176,ADP,Sl,case
175,1058-1067,skupščina,_,_,_,_,_,174,NOUN,Ncfsl,nmod
176,1068-1074,utegniti,_,_,_,_,_,169,VERB,Vmbr3s,conj
177,1075-1080,imeti,_,_,_,_,_,177,VERB,Vmpn,xcomp
178,1081-1093,beloKranjski,_,_,_,_,_,180,ADJ,Agpmsny,amod
179,1094-1103,poslovnež,_,_,*->5-2,*[5],_,178,NOUN,Ncmsn,nsubj
180,1104-1108,Dari,PER[15],_,*->5-2,*[5],_,180,PROPN,Npmsn,nmod
181,1109-1114,Južna,PER[15],_,*->5-2,*[5],_,181,PROPN,Npfsn,nmod
182,1115-1116,",",_,_,_,_,_,191,PUNCT,Z,punct
183,1117-1119,ki,_,_,_,_,_,191,SCONJ,Cs,mark
184,1120-1122,biti,_,_,_,_,_,191,AUX,Va-r3s-n,aux
185,1123-1125,že,_,_,_,_,_,191,PART,Q,advmod
186,1126-1128,na,_,_,_,_,_,189,ADP,Sl,case
187,1129-1135,zadnji,_,_,_,_,_,189,ADJ,Agpfsl,amod
188,1136-1145,skupščina,_,_,_,_,_,191,NOUN,Ncfsl,obl
189,1146-1151,vlada,_,_,_,_,_,191,NOUN,Ncfsa,obj
190,1152-1157,rešiti,_,_,*->5-3,*[5],_,180,VERB,Vmep-sm,acl
191,1158-1160,iz,_,_,_,_,_,193,ADP,Sg,case
192,1161-1167,zagata,_,_,_,_,_,191,NOUN,Ncfsg,obl
193,1168-1170,in,_,_,_,_,_,203,CCONJ,Cc,cc
194,1171-1178,namesto,_,_,_,_,_,196,ADP,Sg,case
195,1179-1185,država,_,_,*->7-6,*[7],_,203,NOUN,Ncfsg,obl
196,1186-1188,za,_,_,_,_,_,198,ADP,Sa,case
197,1189-1196,vodenje,_,_,_,_,_,203,NOUN,Ncnsa,obl
198,1197-1207,Telekomov,ORG,_,*->18-4,*[18],_,200,ADJ,Aspfsg,amod
199,1208-1217,skupščina,_,_,_,_,_,198,NOUN,Ncfsg,nmod
200,1218-1221,kar,_,_,_,_,_,202,ADV,Rgp,advmod
201,1222-1225,sam,_,_,*->5-4,*[5],_,203,ADJ,Agpmsnn,obl
202,1226-1235,predlagati,_,_,_,_,_,191,VERB,Vmbp-sm,conj
203,1236-1244,Francija,PER[16],0,*->4-1,*[4],3 - Nevtralno[32],203,PROPN,Npmsay,obj
204,1245-1251,Matoz,PER[16],0,*->4-1,*[4],3 - Nevtralno[32],204,PROPN,Npmsay,flat:name
205,1252-1253,.,_,_,_,_,_,203,PUNCT,Z,punct
206,1254-1259,glede,_,_,_,_,_,210,ADV,Rgp,advmod
207,1260-1262,na,_,_,_,_,_,210,ADP,Sa,case
208,1263-1271,pretekel,_,_,_,_,_,210,ADJ,Appfsa,amod
209,1272-1280,udeležba,_,_,_,_,_,217,NOUN,Ncfsa,obl
210,1281-1291,nedržaven,_,_,_,_,_,212,ADJ,Agpmpg,amod
211,1292-1301,lastnik,_,_,_,_,_,210,NOUN,Ncmpg,nmod
212,1302-1304,na,_,_,_,_,_,214,ADP,Sl,case
213,1305-1315,skupščina,_,_,_,_,_,212,NOUN,Ncfpl,nmod
214,1316-1324,Telekom,ORG,_,*->18-5,*[18],_,214,PROPN,Npmsg,nmod
215,1325-1329,biti,_,_,_,_,_,217,AUX,Va-f3p-n,aux
216,1330-1335,imeti,_,_,_,_,_,9,VERB,Vmpp-pf,parataxis
217,1336-1342,družba,_,_,_,_,_,217,NOUN,Ncfpa,obj
218,1343-1348,blizu,_,_,_,_,_,223,ADP,Sg,case
219,1349-1354,južen,PER,_,*->5-5,*[5],_,223,ADJ,Agpfsg,amod
220,1355-1358,kar,_,_,_,_,_,222,ADV,Rgp,advmod
221,1359-1364,okoli,_,_,_,_,_,223,ADV,Rgp,advmod
222,1365-1373,četrtina,_,_,_,_,_,217,NOUN,Ncfsa,obl
223,1374-1375,",",_,_,_,_,_,217,PUNCT,Z,punct
224,1376-1382,skupaj,_,_,_,_,_,229,ADV,Rgp,advmod
225,1383-1384,z,_,_,_,_,_,227,ADP,Si,case
226,1385-1388,NLB,ORG,0,*->17-5,*[17],3 - Nevtralno,223,PROPN,Npfsi,nmod
227,1389-1391,pa,_,_,_,_,_,229,CCONJ,Cc,cc
228,1392-1400,tretjina,_,_,_,_,_,223,NOUN,Ncfsa,conj
229,1401-1405,ves,_,_,_,_,_,231,DET,Pg-mpg,det
230,1406-1412,glas,_,_,_,_,_,229,NOUN,Ncmpg,nmod
231,1413-1414,.,_,_,_,_,_,217,PUNCT,Z,punct
232,1415-1416,»,_,_,_,_,_,235,PUNCT,Z,punct
233,1417-1419,ne,_,_,_,_,_,235,PART,Q,advmod
234,1420-1423,vedeti,_,_,_,_,_,217,VERB,Vmpr1s,advcl
235,1424-1428,niti,_,_,_,_,_,235,PART,Q,advmod
236,1429-1430,",",_,_,_,_,_,240,PUNCT,Z,punct
237,1431-1434,kdo,_,_,_,_,_,241,PRON,Pq-msn,nsubj
238,1435-1437,biti,_,_,_,_,_,240,AUX,Va-r3p-n,cop
239,1438-1448,predlagan,_,_,_,_,_,241,ADJ,Appmpn,amod
240,1449-1454,član,_,_,_,_,_,235,NOUN,Ncmpn,nsubj
241,1455-1457,za,_,_,_,_,_,244,ADP,Sa,case
242,1458-1466,nadzoren,_,_,_,_,_,244,ADJ,Agpmsay,amod
243,1467-1471,svet,_,_,_,_,_,241,NOUN,Ncmsan,nmod
244,1472-1473,",",_,_,_,_,_,252,PUNCT,Z,punct
245,1474-1477,saj,_,_,_,_,_,252,CCONJ,Cc,cc
246,1478-1480,se,_,_,_,_,_,252,PRON,Px------y,expl
247,1481-1482,z,_,_,_,_,_,249,ADP,Si,case
248,1483-1486,ta,_,_,_,_,_,252,DET,Pd-nsi,obl
249,1487-1489,še,_,_,_,_,_,252,PART,Q,advmod
250,1490-1495,biti,_,_,*->5-6,*[5],_,252,AUX,Va-r1s-y,aux
251,1496-1504,ukvarjati,_,_,_,_,_,235,VERB,Vmpp-sm,conj
252,1505-1506,",",_,_,_,_,_,252,PUNCT,Z,punct
253,1507-1508,«,_,_,_,_,_,257,PUNCT,Z,punct
254,1509-1512,jaz,_,_,_,_,_,267,PRON,Pp1-pd,obj
255,1513-1515,biti,_,_,_,_,_,257,AUX,Va-r3s-n,aux
256,1516-1523,povedati,_,_,_,_,_,9,VERB,Vmep-sm,parataxis
257,1524-1529,južen,PER,_,*->5-7,*[5],_,257,ADJ,Agpfsn,nsubj
258,1530-1532,in,_,_,_,_,_,260,CCONJ,Cc,cc
259,1533-1538,dodati,_,_,*->5-8,*[5],_,257,VERB,Vmep-sm,conj
260,1539-1540,:,_,_,_,_,_,235,PUNCT,Z,punct
261,1541-1542,»,_,_,_,_,_,267,PUNCT,Z,punct
262,1543-1552,naslednji,_,_,_,_,_,264,ADJ,Agpmsay,amod
263,1553-1558,teden,_,_,_,_,_,267,NOUN,Ncmsan,obl
264,1559-1561,se,_,_,_,_,_,267,PRON,Px------y,expl
265,1562-1565,biti,_,_,_,_,_,267,AUX,Va-f1s-n,aux
266,1566-1573,odločiti,_,_,*->5-9,*[5],_,9,VERB,Vmep-sm,parataxis
267,1574-1575,",",_,_,_,_,_,275,PUNCT,Z,punct
268,1576-1579,ali,_,_,_,_,_,275,ADV,Rgp,mark
269,1580-1582,se,_,_,_,_,_,275,PRON,Px------y,expl
270,1583-1586,biti,_,_,_,_,_,275,AUX,Va-f1s-n,aux
271,1587-1589,na,_,_,_,_,_,273,ADP,Sa,case
272,1590-1599,skupščina,_,_,_,_,_,275,NOUN,Ncfsa,obl
273,1600-1605,sploh,_,_,_,_,_,275,PART,Q,advmod
274,1606-1614,prijaviti,_,0,*->5-10,*[5],3 - Nevtralno,267,VERB,Vmep-sm,ccomp
275,1615-1616,.,_,_,_,_,_,9,PUNCT,Z,punct
276,1617-1618,«,_,_,_,_,_,267,PUNCT,Z,punct
277,1619-1624,okoli,_,_,_,_,_,279,ADV,Rgp,advmod
278,1625-1627,20,_,_,_,_,_,280,NUM,Mdc,nummod
279,1628-1637,odstotek,_,_,_,_,_,275,NOUN,Ncmpg,obj
280,1638-1644,glas,_,_,_,_,_,280,NOUN,Ncmpg,nmod
281,1645-1649,biti,_,_,_,_,_,285,AUX,Va-f3p-n,aux
282,1650-1652,na,_,_,_,_,_,284,ADP,Sl,case
283,1653-1662,skupščina,_,_,_,_,_,285,NOUN,Ncfsl,obl
284,1663-1668,imeti,_,_,_,_,_,9,VERB,Vmpp-pm,parataxis
285,1669-1677,vzajemen,_,_,_,_,_,287,ADJ,Agpmpn,amod
286,1678-1684,sklad,_,_,_,_,_,285,NOUN,Ncmpn,nsubj
287,1685-1686,",",_,_,_,_,_,291,PUNCT,Z,punct
288,1687-1689,ki,_,_,_,_,_,291,SCONJ,Cs,mark
289,1690-1693,on,_,_,_,_,_,291,PRON,Pp3mpa--y,obj
290,1694-1702,upravljati,_,_,_,_,_,287,VERB,Vmpr3s,acl
291,1703-1710,skupina,ORG[17],0,*->23-1,*[23],3 - Nevtralno[33],291,NOUN,Ncfsn,nsubj
292,1711-1713,KD,ORG[17],0,*->23-1,*[23],3 - Nevtralno[33],292,PROPN,Npmsn,nmod
293,1714-1719,Group,ORG[17],0,*->23-1,*[23],3 - Nevtralno[33],292,PROPN,Npmsn,nmod
294,1720-1721,",",_,_,_,_,_,291,PUNCT,Z,punct
295,1722-1726,prav,_,_,_,_,_,297,PART,Q,advmod
296,1727-1735,tolikšen,_,_,_,_,_,298,DET,Pd-msn,det
297,1736-1741,delež,_,_,_,_,_,301,NOUN,Ncmsn,nsubj
298,1742-1744,pa,_,_,_,_,_,301,CCONJ,Cc,advmod
299,1745-1747,biti,_,_,_,_,_,301,AUX,Va-f3s-n,aux
300,1748-1756,pripasti,_,_,_,_,_,285,VERB,Vmep-sm,advcl
301,1757-1769,pokojninski,_,_,_,_,_,303,ADJ,Agpmpd,amod
302,1770-1777,sklad,_,_,_,_,_,301,NOUN,Ncmpd,obj
303,1778-1779,",",_,_,_,_,_,307,PUNCT,Z,punct
304,1780-1782,ki,_,_,_,_,_,307,SCONJ,Cs,mark
305,1783-1786,on,_,_,_,_,_,307,PRON,Pp3mpa--y,obj
306,1787-1795,upravljati,_,_,_,_,_,303,VERB,Vmpr3s,acl
307,1796-1801,moder,ORG[18],0,*->21-1,*[21],3 - Nevtralno[34],309,ADJ,Agpfsn,amod
308,1802-1815,zavarovalnica,ORG[18],0,*->21-1,*[21],3 - Nevtralno[34],307,NOUN,Ncfsn,nsubj
309,1816-1817,.,_,_,_,_,_,301,PUNCT,Z,punct
310,1818-1826,pomemben,_,_,_,_,_,312,ADJ,Agpfsa,amod
311,1827-1832,vloga,_,_,_,_,_,315,NOUN,Ncfsa,obj
312,1833-1841,utegniti,_,_,_,_,_,9,VERB,Vmbr3p,parataxis
313,1842-1848,tokrat,_,_,_,_,_,315,ADV,Rgp,advmod
314,1849-1854,imeti,_,_,_,_,_,313,VERB,Vmpn,xcomp
315,1855-1859,tudi,_,_,_,_,_,315,PART,Q,advmod
316,1860-1870,vlagatelj,_,_,_,_,_,315,NOUN,Ncmpn,nsubj
317,1871-1872,",",_,_,_,_,_,321,PUNCT,Z,punct
318,1873-1875,ki,_,_,_,_,_,321,SCONJ,Cs,mark
319,1876-1878,se,_,_,_,_,_,321,PRON,Px------y,expl
320,1879-1887,skrivati,_,_,_,_,_,317,VERB,Vmpr3p,acl
321,1888-1890,za,_,_,_,_,_,324,ADP,Si,case
322,1891-1903,fiduciaren,_,_,_,_,_,324,ADJ,Agpmpi,amod
323,1904-1910,račun,_,_,_,_,_,321,NOUN,Ncmpi,obl
324,1911-1916,tuj,_,_,_,_,_,326,ADJ,Agpfpg,amod
325,1917-1921,banka,_,_,_,_,_,324,NOUN,Ncfpg,nmod
326,1922-1923,",",_,_,_,_,_,336,PUNCT,Z,punct
327,1924-1930,čeprav,_,_,_,_,_,336,SCONJ,Cs,mark
328,1931-1933,biti,_,_,_,_,_,336,AUX,Va-r3p-n,aux
329,1934-1936,se,_,_,_,_,_,336,PRON,Px------y,expl
330,1937-1939,ta,_,_,_,_,_,336,DET,Pd-mpn,nsubj
331,1940-1941,v,_,_,_,_,_,333,ADP,Sl,case
332,1942-1953,preteklost,_,_,_,_,_,336,NOUN,Ncfsl,obl
333,1954-1956,le,_,_,_,_,_,336,PART,Q,advmod
334,1957-1962,redko,_,_,_,_,_,336,ADV,Rgp,advmod
335,1963-1974,udeleževati,_,_,_,_,_,321,VERB,Vmpp-pm,advcl
336,1975-1983,skupščina,_,_,_,_,_,336,NOUN,Ncfpg,obj
337,1984-1985,.,_,_,_,_,_,336,PUNCT,Z,punct
338,1986-1989,ker,_,_,_,_,_,359,SCONJ,Cs,mark
339,1990-1994,zdaj,_,_,_,_,_,359,ADV,Rgp,advmod
340,1995-1997,že,_,_,_,_,_,359,PART,Q,advmod
341,1998-2006,nekdanji,_,_,_,_,_,343,ADJ,Agpfsn,amod
342,2007-2015,agencija,ORG[19],_,*->16-1,*[16],_,359,NOUN,Ncfsn,nsubj
343,2016-2018,za,ORG[19],_,*->16-1,*[16],_,345,ADP,Sa,case
344,2019-2030,upravljanje,ORG[19],_,*->16-1,*[16],_,343,NOUN,Ncnsa,nmod
345,2031-2042,kapitalski,ORG[19],_,*->16-1,*[16],_,347,ADJ,Agpfpg,amod
346,2043-2049,naložba,ORG[19],_,*->16-1,*[16],_,345,NOUN,Ncfpg,nmod
347,2050-2056,država,ORG[19],_,*->16-1,*[16],_,347,NOUN,Ncfsg,nmod
348,2057-2058,(,_,_,_,_,_,350,PUNCT,Z,punct
349,2059-2063,AUKN,ORG,_,*->16-2,*[16],_,348,PROPN,Npfsn,appos
350,2064-2065,),_,_,_,_,_,350,PUNCT,Z,punct
351,2066-2069,pri,_,_,_,_,_,353,ADP,Sl,case
352,2070-2077,zahteva,_,_,_,_,_,359,NOUN,Ncfsl,obl
353,2078-2080,za,_,_,_,_,_,355,ADP,Sa,case
354,2081-2086,sklic,_,_,_,_,_,353,NOUN,Ncmsan,nmod
355,2087-2096,skupščina,_,_,_,_,_,355,NOUN,Ncfsg,nmod
356,2097-2105,Telekom,ORG,_,*->18-6,*[18],_,356,PROPN,Npmsg,nmod
357,2106-2108,biti,_,_,_,_,_,359,AUX,Va-r3s-y,aux
358,2109-2117,opravilo,_,_,_,_,_,336,VERB,Vmep-sf,conj
359,2118-2132,nominacijski,_,_,_,_,_,361,ADJ,Agpmsg,amod
360,2133-2141,postopek,_,_,_,_,_,359,NOUN,Ncmsg,obj
361,2142-2144,za,_,_,_,_,_,364,ADP,Sa,case
362,2145-2149,nov,_,_,_,_,_,364,ADJ,Agpmpa,amod
363,2150-2160,nadzornik,_,_,_,_,_,361,NOUN,Ncmpa,nmod
364,2161-2162,",",_,_,_,_,_,359,PUNCT,Z,punct
365,2163-2165,biti,_,_,_,_,_,369,AUX,Va-r3s-n,aux
366,2166-2168,ti,_,_,_,_,_,369,PRON,Pp2-sa--y,obj
367,2169-2177,naknadno,_,_,_,_,_,370,ADV,Rgp,advmod
368,2178-2183,začeti,_,_,_,_,_,9,VERB,Vmep-sm,parataxis
369,2184-2194,opravljati,_,_,_,_,_,369,VERB,Vmpn,xcomp
370,2195-2198,kar,_,_,_,_,_,372,ADV,Rgp,advmod
371,2199-2202,sod,ORG,0,*->15-3,*[15],3 - Nevtralno,370,NOUN,Ncmsan,obj
372,2203-2204,.,_,_,_,_,_,369,PUNCT,Z,punct
373,2205-2209,toda,_,_,_,_,_,377,CCONJ,Cc,cc
374,2210-2212,ta,_,_,_,_,_,377,DET,Pd-nsn,nsubj
375,2213-2215,se,_,_,_,_,_,378,PRON,Px------y,expl
376,2216-2222,utegniti,_,_,_,_,_,369,VERB,Vmbr3s,conj
377,2223-2231,izkazati,_,_,_,_,_,377,VERB,Vmen,xcomp
378,2232-2234,za,_,_,_,_,_,381,ADP,Sa,case
379,2235-2241,jalov,_,_,_,_,_,381,ADJ,Agpnsa,amod
380,2242-2246,delo,_,_,_,_,_,378,NOUN,Ncnsa,obl
381,2247-2248,",",_,_,_,_,_,369,PUNCT,Z,punct
382,2249-2252,saj,_,_,_,_,_,386,CCONJ,Cc,cc
383,2253-2261,zaseben,_,_,_,_,_,385,ADJ,Agpmpd,amod
384,2262-2271,lastnik,_,_,_,_,_,388,NOUN,Ncmpd,iobj
385,2272-2274,biti,_,_,_,_,_,377,VERB,Va-r3s-y,conj
386,2275-2280,treba,_,_,_,_,_,386,ADV,Rgp,advmod
387,2281-2291,upoštevati,_,_,_,_,_,386,VERB,Vmbn,csubj
388,2292-2298,zakon,_,_,_,_,_,388,NOUN,Ncmsg,obj
389,2299-2300,o,_,_,_,_,_,391,ADP,Sl,case
390,2301-2312,upravljanje,_,_,_,_,_,389,NOUN,Ncnsl,nmod
391,2313-2324,kapitalski,_,_,_,_,_,393,ADJ,Agpfpg,amod
392,2325-2331,naložba,_,_,_,_,_,391,NOUN,Ncfpg,nmod
393,2332-2338,država,_,_,*->7-7,*[7],_,393,NOUN,Ncfsg,nmod
394,2339-2340,.,_,_,_,_,_,386,PUNCT,Z,punct
395,2341-2343,za,_,_,_,_,_,397,ADP,Sa,case
396,2344-2348,zdaj,_,_,_,_,_,401,ADV,Rgp,advmod
397,2349-2353,tako,_,_,_,_,_,401,ADV,Rgp,advmod
398,2354-2356,biti,_,_,_,_,_,400,AUX,Va-r3s-y,cop
399,2357-2363,mogoč,_,_,_,_,_,386,ADJ,Agpnsn,csubj
400,2364-2374,izključiti,_,_,_,_,_,400,VERB,Vmen,csubj
401,2375-2376,",",_,_,_,_,_,412,PUNCT,Z,punct
402,2377-2379,da,_,_,_,_,_,412,SCONJ,Cs,mark
403,2380-2384,biti,_,_,_,_,_,412,AUX,Va-f3p-n,aux
404,2385-2391,vladen,_,_,_,_,_,406,ADJ,Agpmpn,amod
405,2392-2401,kandidat,_,_,_,_,_,412,NOUN,Ncmpn,nsubj
406,2402-2407,mesto,_,_,_,_,_,406,NOUN,Ncnsg,nmod
407,2408-2409,v,_,_,_,_,_,410,ADP,Sl,case
408,2410-2419,nadzoren,_,_,_,_,_,410,ADJ,Agpmsl,amod
409,2420-2425,svet,_,_,_,_,_,412,NOUN,Ncmsl,obl
410,2426-2434,Telekom,ORG,_,*->18-7,*[18],_,410,PROPN,Npmsg,nmod
411,2435-2442,zasesti,_,_,_,_,_,401,VERB,Vmep-pm,ccomp
412,2443-2447,prav,_,_,_,_,_,415,PART,Q,advmod
413,2448-2454,zaradi,_,_,_,_,_,415,ADP,Sg,case
414,2455-2462,odvzem,_,_,_,_,_,412,NOUN,Ncmsg,obl
415,2463-2474,glasovalen,_,_,_,_,_,417,ADJ,Agpfpg,amod
416,2475-2481,pravica,_,_,_,_,_,415,NOUN,Ncfpg,nmod
417,2482-2488,država,_,_,*->7-8,*[7],_,412,NOUN,Ncfsd,obj
418,2489-2490,.,_,_,_,_,_,412,PUNCT,Z,punct
419,2491-2494,pri,_,_,_,_,_,421,ADP,Sl,case
420,2495-2504,nekateri,_,_,_,_,_,424,DET,Pi-mpl,obl
421,2505-2507,se,_,_,_,_,_,424,PRON,Px------y,expl
422,2508-2513,sicer,_,_,_,_,_,424,PART,Q,advmod
423,2514-2524,pojavljati,_,_,_,_,_,400,VERB,Vmpr3p,parataxis
424,2525-2529,tudi,_,_,_,_,_,424,PART,Q,advmod
425,2530-2539,vprašanje,_,_,_,_,_,424,NOUN,Ncnpn,nsubj
426,2540-2541,o,_,_,_,_,_,429,ADP,Sl,case
427,2542-2548,etičen,_,_,_,_,_,429,ADJ,Agpfsl,amod
428,2549-2558,spornost,_,_,_,_,_,426,NOUN,Ncfsl,nmod
429,2559-2560,.,_,_,_,_,_,424,PUNCT,Z,punct
430,2561-2564,med,_,_,_,_,_,433,ADP,Si,case
431,2565-2577,predlagan,_,_,_,_,_,433,ADJ,Appmpi,amod
432,2578-2587,kandidat,_,_,_,_,_,426,NOUN,Ncmpi,nmod
433,2588-2590,biti,_,_,_,_,_,463,AUX,Va-r3s-n,aux
434,2591-2597,namreč,_,_,_,_,_,424,CCONJ,Cc,advmod
435,2598-2602,tudi,_,_,_,_,_,424,PART,Q,advmod
436,2603-2609,Matjaž,PER[20],_,*->13-1,*[13],_,424,PROPN,Npmsn,nsubj
437,2610-2618,Savodnik,PER[20],_,*->13-1,*[13],_,437,PROPN,Npmsn,flat:name
438,2619-2620,",",_,_,_,_,_,444,PUNCT,Z,punct
439,2621-2623,ki,_,_,_,_,_,444,SCONJ,Cs,mark
440,2624-2626,biti,_,_,_,_,_,444,AUX,Va-r3s-n,aux
441,2627-2628,v,_,_,_,_,_,443,ADP,Sl,case
442,2629-2640,preteklost,_,_,_,_,_,444,NOUN,Ncfsl,obl
443,2641-2646,voditi,_,_,*->13-2,*[13],_,437,VERB,Vmpp-sm,acl
444,2647-2655,Tušmobil,ORG,0,*->3-1,*[3],3 - Nevtralno,444,PROPN,Npmsan,obj
445,2656-2657,",",_,_,_,_,_,444,PUNCT,Z,punct
446,2658-2662,nato,_,_,_,_,_,449,ADV,Rgp,advmod
447,2663-2665,pa,_,_,_,_,_,449,CCONJ,Cc,advmod
448,2666-2674,svetovati,_,0,*->13-3,*[13],3 - Nevtralno,424,VERB,Vmbp-sm,advcl
449,2675-2686,generalen,_,_,_,_,_,451,ADJ,Agpmsd,amod
450,2687-2697,direktor,_,_,_,_,_,449,NOUN,Ncmsd,obj
451,2698-2703,ravno,_,_,_,_,_,453,PART,Q,advmod
452,2704-2708,tako,_,_,_,_,_,454,ADV,Rgp,advmod
453,2709-2722,konkurenčen,_,_,_,_,_,455,ADJ,Agpmsg,amod
454,2723-2724,T,ORG[21],0,*->24-1,*[24],3 - Nevtralno[35],451,PROPN,Npmsn,nmod
455,2725-2726,-,ORG[21],0,*->24-1,*[24],3 - Nevtralno[35],457,PUNCT,Z,punct
456,2727-2728,2,ORG[21],0,*->24-1,*[24],3 - Nevtralno[35],455,NUM,Mdc,nummod
457,2729-2730,.,_,_,_,_,_,449,PUNCT,Z,punct
458,2731-2733,za,_,_,_,_,_,460,ADP,Sa,case
459,2734-2744,nadzornik,_,_,_,_,_,463,NOUN,Ncmsay,obl
460,2745-2753,Telekom,ORG,0,*->18-8,*[18],3 - Nevtralno,460,PROPN,Npmsg,nmod
461,2754-2756,biti,_,_,_,_,_,463,AUX,Va-r3s-n,cop
462,2757-2766,predlagan,_,_,_,_,_,9,ADJ,Appmsnn,parataxis
463,2767-2771,tudi,_,_,_,_,_,463,PART,Q,advmod
464,2772-2780,nekdanji,_,_,*->22-1,*[22],_,466,ADJ,Agpmsny,amod
465,2781-2791,predsednik,_,_,*->22-1,*[22],_,463,NOUN,Ncmsn,nsubj
466,2792-2798,uprava,_,_,*->22-1,*[22],_,466,NOUN,Ncfsg,nmod
467,2799-2812,zavarovalnica,ORG[22],0,*->22-1|*->11-1,*[22]|*[11],3 - Nevtralno[36],467,NOUN,Ncfsg,nmod
468,2813-2818,Tilia,ORG[22],0,*->22-1|*->11-1,*[22]|*[11],3 - Nevtralno[36],468,PROPN,Npmsn,nmod
469,2819-2824,Adolf,PER[23],_,*->22-1,*[22],_,466,PROPN,Npmsn,nmod
470,2825-2830,Zupan,PER[23],_,*->22-1,*[22],_,470,PROPN,Npmsn,flat:name
471,2831-2832,",",_,_,_,_,_,481,PUNCT,Z,punct
472,2833-2835,ki,_,_,_,_,_,481,SCONJ,Cs,mark
473,2836-2838,biti,_,_,_,_,_,481,AUX,Va-r3s-n,aux
474,2839-2842,biti,_,_,_,_,_,481,AUX,Va-p-sm,cop
475,2843-2847,pred,_,_,_,_,_,477,ADP,Si,case
476,2848-2852,leto,_,_,_,_,_,481,NOUN,Ncnpi,obl
477,2853-2855,na,_,_,_,_,_,480,ADP,Sl,case
478,2856-2860,prvi,_,_,_,_,_,480,ADJ,Mlofsl,amod
479,2861-2868,stopnja,_,_,_,_,_,481,NOUN,Ncfsl,obl
480,2869-2876,obsojen,_,_,*->22-2,*[22],_,466,ADJ,Appmsnn,acl
481,2877-2883,zaradi,_,_,_,_,_,483,ADP,Sg,case
482,2884-2895,ponarejanje,_,_,_,_,_,481,NOUN,Ncnsg,obl
483,2896-2902,listina,_,_,_,_,_,483,NOUN,Ncfpg,nmod
484,2903-2904,",",_,_,_,_,_,481,PUNCT,Z,punct
485,2905-2919,prvostopenjski,_,_,_,_,_,487,ADJ,Agpnsn,amod
486,2920-2927,sodišče,_,_,_,_,_,491,NOUN,Ncnsn,nsubj
487,2928-2930,pa,_,_,_,_,_,491,CCONJ,Cc,advmod
488,2931-2933,on,_,2,*->22-3,*[22],2 - Negativno,491,PRON,Pp3msd--y,obj
489,2934-2936,biti,_,_,_,_,_,491,AUX,Va-r3s-n,aux
490,2937-2945,naložiti,_,_,_,_,_,463,VERB,Vmep-sn,parataxis
491,2946-2948,za,_,_,_,_,_,495,ADP,Sa,case
492,2949-2956,450.000,_,_,_,_,_,495,NUM,Mdc,nummod
493,2957-2966,takraten,_,_,_,_,_,495,ADJ,Agpmpg,amod
494,2967-2975,tolar,_,_,_,_,_,491,NOUN,Ncmpg,obl
495,2976-2981,kazen,_,_,_,_,_,495,NOUN,Ncfsg,nmod
496,2982-2983,.,_,_,_,_,_,491,PUNCT,Z,punct
497,2984-2986,biti,_,_,_,_,_,501,AUX,Va-f3s-n,aux
498,2987-2991,ATVP,ORG,0,*->8-3,*[8],3 - Nevtralno,501,PROPN,Npmsn,nsubj
499,2992-2998,država,_,_,*->7-9,*[7],_,501,NOUN,Ncfsl,obj
500,2999-3004,vzeti,_,_,_,_,_,491,VERB,Vmep-sf,advcl
501,3005-3009,tudi,_,_,_,_,_,501,PART,Q,advmod
502,3010-3017,glas,_,_,_,_,_,501,NOUN,Ncmpa,obj
503,3018-3019,v,_,_,_,_,_,505,ADP,Sl,case
504,3020-3033,zavarovalnica,ORG[24],_,*->1-2,*[1],_,503,NOUN,Ncfsl,nmod
505,3034-3041,Triglav,ORG[24]|LOC[25],_,*->1-2|*->10-2,*[1]|*[10],_,505,PROPN,Npmsn,nmod
506,3042-3043,?,_,_,_,_,_,501,PUNCT,Z,punct
507,3044-3050,država,_,_,*->7-10,*[7],_,509,NOUN,Ncfsl,obj
508,3051-3056,groziti,_,_,_,_,_,501,VERB,Vmpr3s,conj
509,3057-3061,tudi,_,_,_,_,_,509,PART,Q,advmod
510,3062-3068,izguba,_,_,_,_,_,509,NOUN,Ncfsn,nsubj
511,3069-3080,glasovalen,_,_,_,_,_,513,ADJ,Agpfpg,amod
512,3081-3087,pravica,_,_,_,_,_,511,NOUN,Ncfpg,nmod
513,3088-3089,v,_,_,_,_,_,515,ADP,Sl,case
514,3090-3103,zavarovalnica,ORG[26],_,*->1-3,*[1],_,513,NOUN,Ncfsl,nmod
515,3104-3111,Triglav,ORG[26]|LOC[27],0,*->1-3|*->10-3,*[1]|*[10],3 - Nevtralno,515,PROPN,Npmsn,nmod
516,3112-3113,",",_,_,_,_,_,529,PUNCT,Z,punct
517,3114-3118,kjer,_,_,_,_,_,529,SCONJ,Cs,mark
518,3119-3123,biti,_,_,_,_,_,529,AUX,Va-f3p-n,aux
519,3124-3134,delničar,_,_,_,_,_,523,NOUN,Ncmpn,nsubj
520,3135-3137,14,_,_,_,_,_,520,NUM,Mdc,nummod
521,3138-3139,.,_,_,_,_,_,509,PUNCT,Z,punct
522,3140-3149,februar,_,_,_,_,_,529,NOUN,Ncmsg,obl
523,3150-3152,na,_,_,_,_,_,525,ADP,Sa,case
524,3153-3160,zahteva,_,_,_,_,_,529,NOUN,Ncfsa,obl
525,3161-3165,AUKN,ORG,0,*->16-3,*[16],3 - Nevtralno,525,PROPN,Npfsg,nmod
526,3166-3170,prav,_,_,_,_,_,528,PART,Q,advmod
527,3171-3175,tako,_,_,_,_,_,529,ADV,Rgp,advmod
528,3176-3184,odločati,_,_,_,_,_,511,VERB,Vmpp-pm,acl
529,3185-3186,o,_,_,_,_,_,531,ADP,Sl,case
530,3187-3196,zamenjava,_,_,_,_,_,529,NOUN,Ncfsl,obl
531,3197-3206,celoten,_,_,_,_,_,534,ADJ,Agpmsg,amod
532,3207-3217,nadzoren,_,_,_,_,_,534,ADJ,Agpmsg,amod
533,3218-3223,svet,_,_,_,_,_,531,NOUN,Ncmsg,nmod
534,3224-3225,.,_,_,_,_,_,529,PUNCT,Z,punct
535,3226-3228,če,_,_,_,_,_,542,SCONJ,Cs,mark
536,3229-3231,biti,_,_,_,_,_,542,AUX,Va-c,aux
537,3232-3238,država,_,_,*->7-11,*[7],_,542,NOUN,Ncfsn,nsubj
538,3239-3243,tudi,_,_,_,_,_,542,PART,Q,advmod
539,3244-3245,v,_,_,_,_,_,541,ADP,Sl,case
540,3246-3254,Triglav,ORG,_,*->1-4,*[1],_,542,PROPN,Npmsl,obl
541,3255-3263,izgubiti,_,_,_,_,_,547,VERB,Vmep-sf,advcl
542,3264-3274,glasovalen,_,_,_,_,_,544,ADJ,Agpfpa,amod
543,3275-3282,pravica,_,_,_,_,_,542,NOUN,Ncfpa,obj
544,3283-3284,",",_,_,_,_,_,542,PUNCT,Z,punct
545,3285-3287,biti,_,_,_,_,_,547,AUX,Va-c,aux
546,3288-3293,imeti,_,_,*->9-1,*[9],_,9,VERB,Vmpp-sf,parataxis
547,3294-3301,ključen,_,_,_,_,_,549,ADJ,Agpfsa,amod
548,3302-3308,beseda,_,_,_,_,_,547,NOUN,Ncfsa,obj
549,3309-3312,pri,_,_,_,_,_,551,ADP,Sl,case
550,3313-3323,imenovanje,_,_,_,_,_,549,NOUN,Ncnsl,nmod
551,3324-3329,nov,_,_,_,_,_,553,ADJ,Agpmpg,amod
552,3330-3341,nadzornik,_,_,_,_,_,551,NOUN,Ncmpg,nmod
553,3342-3349,švedski,_,0,*->9-2,*[9],3 - Nevtralno[37],555,ADJ,Agpfsn,amod
554,3350-3356,družba,_,0,*->9-2,*[9],3 - Nevtralno[37],547,NOUN,Ncfsn,nsubj
555,3357-3359,za,_,0,*->9-2,*[9],3 - Nevtralno[37],557,ADP,Sa,case
556,3360-3371,upravljanje,_,0,*->9-2,*[9],3 - Nevtralno[37],555,NOUN,Ncnsa,nmod
557,3372-3376,East,ORG[28],0,*->9-2,*[9],3 - Nevtralno[37],559,PROPN,Npmsn,nmod
558,3377-3384,Capital,ORG[28],0,*->9-2,*[9],3 - Nevtralno[37],557,PROPN,Npmsn,nmod
559,3385-3386,",",_,_,_,_,_,567,PUNCT,Z,punct
560,3387-3389,ki,_,_,_,_,_,567,SCONJ,Cs,mark
561,3390-3392,biti,_,_,_,_,_,567,AUX,Va-r3s-n,cop
562,3393-3395,za,_,_,_,_,_,564,ADP,Sa,case
563,3396-3402,država,_,2,*->7-12,*[7],2 - Negativno,567,NOUN,Ncfsa,obl
564,3403-3408,drug,_,_,_,_,_,567,ADJ,Mlpfsn,amod
565,3409-3417,velik,_,_,_,_,_,567,ADJ,Agsfsn,amod
566,3418-3426,lastnica,_,_,_,_,_,557,NOUN,Ncfsn,acl
567,3427-3435,Triglav,ORG,0,*->1-5,*[1],3 - Nevtralno,567,PROPN,Npmsg,nmod
