idx,chars_idx,token,entity_type,sentiment,idk_1,idk_2,orig_sentiment,heads,upos,xpos,deprel
0,0-8,vodafon,ORG,_,*->1-1,*[1],_,13,NOUN,Ncfpn,nsubj
1,9-11,biti,_,_,_,_,_,13,AUX,Va-f3s-n,aux
2,12-14,na,_,_,_,_,_,4,ADP,Sl,case
3,15-20,trg,_,_,_,_,_,13,NOUN,Ncmpl,obl
4,21-22,",",_,_,_,_,_,8,PUNCT,Z,punct
5,23-27,kjer,_,_,_,_,_,8,SCONJ,Cs,mark
6,28-34,skupaj,_,_,_,_,_,8,ADV,Rgp,advmod
7,35-39,živeti,_,_,_,_,_,4,VERB,Vmpr3s,acl
8,40-43,"1,4",_,_,_,_,_,10,NUM,Mdc,nummod
9,44-53,milijarda,_,_,_,_,_,8,NOUN,Ncfsg,obj
10,54-59,človek,_,_,_,_,_,10,NOUN,Ncmpg,nmod
11,60-61,",",_,_,_,_,_,8,PUNCT,Z,punct
12,62-70,prodajati,_,_,_,_,_,19,VERB,Vmpp-sm,advcl
13,71-77,applov,ORG,_,*->2-1,*[2],_,15,ADJ,Aspmsnn,amod
14,78-84,iphona,_,_,_,_,_,13,NOUN,Ncmsn,nsubj
15,85-93,Vodafona,ORG,_,*->1-2,*[1],_,15,PROPN,Npfsn,nmod
16,94-96,se,_,_,_,_,_,19,PRON,Px------y,expl
17,97-99,biti,_,_,_,_,_,19,AUX,Va-r3s-n,aux
18,100-107,pogoditi,_,_,_,_,_,0,VERB,Vmep-sm,root
19,108-109,z,_,_,_,_,_,21,ADP,Si,case
20,110-116,applom,ORG,_,*->2-2,*[2],_,19,NOUN,Ncmsi,obl
21,117-119,za,_,_,_,_,_,23,ADP,Sa,case
22,120-127,prodaja,_,_,_,_,_,21,NOUN,Ncfsa,nmod
23,128-137,njihov,_,_,*->2-3,*[2],_,26,DET,Ps3msgp,det
24,138-147,mobilen,_,_,_,_,_,26,ADJ,Agpmsg,amod
25,148-156,telefon,_,_,_,_,_,23,NOUN,Ncmsg,nmod
26,157-163,iphona,_,_,_,_,_,26,NOUN,Ncmsn,nmod
27,164-166,in,_,_,_,_,_,31,CCONJ,Cc,cc
28,167-169,on,_,_,_,_,_,31,PRON,Pp3msa--y,obj
29,170-172,biti,_,_,_,_,_,31,AUX,Va-f3s-n,aux
30,173-180,ponuditi,_,_,*->1-3,*[1],_,19,VERB,Vmep-sm,conj
31,181-187,svoj,_,_,*->1-4,*[1],_,33,DET,Px-mpd,det
32,188-199,uporabnik,_,_,_,_,_,31,NOUN,Ncmpd,obj
33,200-201,v,_,_,_,_,_,35,ADP,Sl,case
34,202-212,Avstralija,LOC,0,*->3-1,*[3],3 - Nevtralno,33,PROPN,Npfsl,nmod
35,213-214,",",_,_,_,_,_,37,PUNCT,Z,punct
36,215-221,Indija,LOC,_,*->4-1,*[4],_,35,PROPN,Npfsl,conj
37,222-223,",",_,_,_,_,_,39,PUNCT,Z,punct
38,224-231,Italija,LOC,_,*->5-1,*[5],_,35,PROPN,Npfsl,conj
39,232-233,",",_,_,_,_,_,42,PUNCT,Z,punct
40,234-236,na,_,_,_,_,_,42,ADP,Sl,case
41,237-243,Češko,LOC,0,*->6-1,*[6],3 - Nevtralno,35,PROPN,Npnsl,conj
42,244-245,",",_,_,_,_,_,45,PUNCT,Z,punct
43,246-247,v,_,_,_,_,_,45,ADP,Sl,case
44,248-254,Egipt,LOC,0,*->7-1,*[7],3 - Nevtralno,35,PROPN,Npmsl,conj
45,255-256,",",_,_,_,_,_,47,PUNCT,Z,punct
46,257-263,Grčija,LOC,0,*->8-1,*[8],3 - Nevtralno,35,PROPN,Npfsl,conj
47,264-265,",",_,_,_,_,_,50,PUNCT,Z,punct
48,266-268,na,_,_,_,_,_,50,ADP,Sl,case
49,269-281,Portugalsko,LOC,0,*->9-1,*[9],3 - Nevtralno,35,PROPN,Npnsl,conj
50,282-283,",",_,_,_,_,_,54,PUNCT,Z,punct
51,284-285,v,_,_,_,_,_,54,ADP,Sl,case
52,286-290,nov,LOC[1],0,*->10-1,*[10],3 - Nevtralno[8],54,ADJ,Agpfsl,amod
53,291-300,Zelandija,LOC[1],0,*->10-1,*[10],3 - Nevtralno[8],35,PROPN,Npfsl,conj
54,301-302,",",_,_,_,_,_,57,PUNCT,Z,punct
55,303-315,južnoafriški,LOC[2],0,*->11-1,*[11],3 - Nevtralno[9],57,ADJ,Agpfsl,amod
56,316-325,republika,LOC[2],0,*->11-1,*[11],3 - Nevtralno[9],35,NOUN,Ncfsl,conj
57,326-328,in,_,_,_,_,_,59,CCONJ,Cc,cc
58,329-336,Turčija,LOC,0,*->12-1,*[12],3 - Nevtralno,35,PROPN,Npfsl,conj
59,337-338,",",_,_,_,_,_,64,PUNCT,Z,punct
60,339-340,v,_,_,_,_,_,62,ADP,Sl,case
61,341-348,kateri,_,_,_,_,_,64,DET,Pq-mpl,obl
62,349-355,skupaj,_,_,_,_,_,64,ADV,Rgp,advmod
63,356-360,živeti,_,_,_,_,_,59,VERB,Vmpr3s,acl
64,361-364,"1,4",_,_,_,_,_,66,NUM,Mdc,nummod
65,365-374,milijarda,_,_,_,_,_,64,NOUN,Ncfsg,nsubj
66,375-386,prebivalec,_,_,_,_,_,66,NOUN,Ncmpg,nmod
67,387-388,.,_,_,_,_,_,64,PUNCT,Z,punct
68,389-390,v,_,_,_,_,_,70,ADP,Sl,case
69,391-398,Italija,LOC,0,*->5-2,*[5],3 - Nevtralno,75,PROPN,Npfsl,obl
70,399-401,on,_,_,_,_,_,75,PRON,Pp3msa--y,obj
71,402-404,biti,_,_,_,_,_,75,AUX,Va-f3s-n,aux
72,405-406,v,_,_,_,_,_,74,ADP,Sl,case
73,407-414,ponudba,_,_,_,_,_,75,NOUN,Ncfsl,obl
74,415-420,imeti,_,_,_,_,_,13,VERB,Vmpp-sf,parataxis
75,421-425,tudi,_,_,_,_,_,75,PART,Q,advmod
76,426-433,Telecom,ORG[3],0,*->13-1,*[13],3 - Nevtralno[10],78,PROPN,Npmsn,nmod
77,434-440,Italia,ORG[3],0,*->13-1,*[13],3 - Nevtralno[10],75,PROPN,Npfsn,nsubj
78,441-442,",",_,_,_,_,_,81,PUNCT,Z,punct
79,443-446,kar,_,_,_,_,_,81,PRON,Pr-nsn,nsubj
80,447-449,biti,_,_,_,_,_,75,VERB,Va-r3s-n,advcl
81,450-455,prvič,_,_,_,_,_,81,ADV,Rgp,advmod
82,456-457,",",_,_,_,_,_,87,PUNCT,Z,punct
83,458-460,da,_,_,_,_,_,87,SCONJ,Cs,mark
84,461-466,Apple,ORG,_,*->2-4,*[2],_,87,PROPN,Npmsn,nsubj
85,467-469,biti,_,_,_,_,_,87,AUX,Va-r3s-y,aux
86,470-477,skleniti,_,_,_,_,_,81,VERB,Vmep-sm,csubj
87,478-489,ekskluziven,_,_,_,_,_,89,ADJ,Agpfsg,amod
88,490-497,pogodba,_,_,_,_,_,87,NOUN,Ncfsg,obj
89,498-499,z,_,_,_,_,_,93,ADP,Si,case
90,500-502,le,_,_,_,_,_,87,PART,Q,advmod
91,503-507,en,_,_,_,_,_,93,NUM,Mlpmsi,nummod
92,508-519,operater,_,_,_,_,_,89,NOUN,Ncmsi,nmod
93,520-521,v,_,_,_,_,_,95,ADP,Sl,case
94,522-528,država,_,_,_,_,_,93,NOUN,Ncfsl,nmod
95,529-530,.,_,_,_,_,_,87,PUNCT,Z,punct
96,531-538,pogodba,_,_,_,_,_,98,NOUN,Ncfsn,nsubj
97,539-547,pomemben,_,_,_,_,_,75,ADJ,Agpfsn,parataxis
98,548-552,tako,_,_,_,_,_,101,CCONJ,Cc,cc:preconj
99,553-555,za,_,_,_,_,_,101,ADP,Sa,case
100,556-564,Vodafona,ORG,_,*->1-5,*[1],_,98,PROPN,Npfpa,obl
101,565-566,",",_,_,_,_,_,111,PUNCT,Z,punct
102,567-570,kot,_,_,_,_,_,105,SCONJ,Cs,case
103,571-573,za,_,_,_,_,_,105,ADP,Sa,case
104,574-579,Apple,ORG,_,*->2-5,*[2],_,106,PROPN,Npmsan,nmod
105,580-587,pogodba,_,_,_,_,_,111,NOUN,Ncfsn,nsubj
106,588-590,biti,_,_,_,_,_,111,AUX,Va-r3s-n,cop
107,591-593,za,_,_,_,_,_,109,ADP,Sa,case
108,594-602,Vodafona,ORG,_,*->1-6,*[1],_,111,PROPN,Npfpa,obl
109,603-607,zelo,_,_,_,_,_,111,ADV,Rgp,advmod
110,608-616,pomemben,_,_,_,_,_,101,ADJ,Agpfsn,acl
111,617-618,",",_,_,_,_,_,111,PUNCT,Z,punct
112,619-622,saj,_,_,_,_,_,119,CCONJ,Cc,cc
113,623-625,biti,_,_,_,_,_,119,AUX,Va-r3p-n,aux
114,626-628,on,_,_,_,_,_,119,PRON,Pp3msa--y,obj
115,629-631,do,_,_,_,_,_,117,ADP,Sg,case
116,632-636,zdaj,_,_,_,_,_,119,ADV,Rgp,advmod
117,637-642,lahko,_,_,_,_,_,119,ADV,Rgp,advmod
118,643-652,prodajati,_,_,*->1-7,*[1],_,111,VERB,Vmpp-pm,conj
119,653-657,samo,_,_,_,_,_,119,PART,Q,advmod
120,658-659,v,_,_,_,_,_,123,ADP,Sl,case
121,660-669,združen,LOC[4],_,*->14-1,*[14],_,123,ADJ,Appnsl,amod
122,670-680,kraljestvo,LOC[4],_,*->14-1,*[14],_,119,NOUN,Ncnsl,obl
123,681-682,",",_,_,_,_,_,127,PUNCT,Z,punct
124,683-685,ki,_,_,_,_,_,127,SCONJ,Cs,mark
125,686-688,pa,_,_,_,_,_,127,CCONJ,Cc,advmod
126,689-694,šteti,_,_,_,_,_,123,VERB,Vmpr3s,acl
127,695-696,"""",_,_,_,_,_,127,PUNCT,Z,punct
128,697-699,le,_,_,_,_,_,127,PART,Q,advmod
129,700-701,"""",_,_,_,_,_,132,PUNCT,Z,punct
130,702-704,61,_,_,_,_,_,132,NUM,Mdc,nummod
131,705-714,milijon,_,_,_,_,_,127,NOUN,Ncmpg,obj
132,715-720,človek,_,_,_,_,_,132,NOUN,Ncmpg,nmod
133,721-722,.,_,_,_,_,_,127,PUNCT,Z,punct
134,723-727,samo,_,_,_,_,_,145,PART,Q,advmod
135,728-729,v,_,_,_,_,_,137,ADP,Sl,case
136,730-736,Indija,LOC,_,*->4-2,*[4],_,145,PROPN,Npfsl,obl
137,737-739,biti,_,_,_,_,_,145,AUX,Va-r3p-n,aux
138,740-747,mobilen,_,_,_,_,_,140,ADJ,Agpmpn,amod
139,748-758,operater,_,_,_,_,_,145,NOUN,Ncmpn,nsubj
140,759-760,v,_,_,_,_,_,144,ADP,Sa,case
141,761-767,zadnji,_,_,_,_,_,144,ADJ,Agpnsa,amod
142,768-771,pol,_,_,_,_,_,144,DET,Rgp,det
143,772-776,leto,_,_,_,_,_,145,NOUN,Ncnsg,obl
144,777-786,pridobiti,_,_,_,_,_,157,VERB,Vmep-pm,conj
145,787-791,osem,_,_,_,_,_,147,NUM,Mlc-pa,nummod
146,792-801,milijon,_,_,_,_,_,145,NOUN,Ncmpg,obj
147,802-807,nov,_,_,_,_,_,149,ADJ,Agpmpg,amod
148,808-818,naročnik,_,_,_,_,_,147,NOUN,Ncmpg,nmod
149,819-820,",",_,_,_,_,_,157,PUNCT,Z,punct
150,821-824,kar,_,_,_,_,_,157,PRON,Pr-nsn,nsubj
151,825-827,po,_,_,_,_,_,153,ADP,Sl,case
152,828-836,hitrost,_,_,_,_,_,157,NOUN,Ncfsl,obl
153,837-842,rast,_,_,_,_,_,153,NOUN,Ncfsg,nmod
154,843-847,trg,_,_,_,_,_,154,NOUN,Ncmsg,nmod
155,848-854,Indija,ORG,1,*->4-3,*[4],4 - Pozitivno,157,PROPN,Npfsa,obj
156,855-864,postavljati,_,_,_,_,_,132,VERB,Vmpr3s,acl
157,865-867,na,_,_,_,_,_,160,ADP,Sa,case
158,868-872,prvi,_,_,_,_,_,160,ADJ,Mlonsa,amod
159,873-878,mesto,_,_,_,_,_,157,NOUN,Ncnsa,obl
160,879-880,",",_,_,_,_,_,157,PUNCT,Z,punct
161,881-887,poročati,_,_,_,_,_,145,VERB,Vmpr3s,conj
162,888-897,Bloomberg,ORG,0,*->23-1,*[23],3 - Nevtralno,162,PROPN,Npmsn,nsubj
163,898-899,.,_,_,_,_,_,157,PUNCT,Z,punct
164,900-902,za,_,_,_,_,_,166,ADP,Sa,case
165,903-908,Apple,ORG,_,*->2-6,*[2],_,172,PROPN,Npmsan,obl
166,909-911,pa,_,_,_,_,_,172,CCONJ,Cc,advmod
167,912-914,biti,_,_,_,_,_,172,AUX,Va-r3s-n,aux
168,915-926,sodelovanje,_,_,_,_,_,172,NOUN,Ncnsa,obj
169,927-928,z,_,_,_,_,_,171,ADP,Si,case
170,929-938,vodafon,ORG,1,*->1-8,*[1],4 - Pozitivno,169,NOUN,Ncmsi,nmod
171,939-942,del,_,_,_,_,_,162,NOUN,Ncmsn,nsubj
172,943-949,načrt,_,_,_,_,_,172,NOUN,Ncmsg,nmod
173,950-952,za,_,_,_,_,_,175,ADP,Sa,case
174,953-962,povečanje,_,_,_,_,_,173,NOUN,Ncnsa,nmod
175,963-970,prodaja,_,_,_,_,_,175,NOUN,Ncfsg,nmod
176,971-976,zunaj,_,_,_,_,_,179,ADP,Sg,case
177,977-986,združen,LOC[5],_,*->15-1,*[15],_,179,ADJ,Appfpg,amod
178,987-992,država,LOC[5],_,*->15-1,*[15],_,176,NOUN,Ncfpg,nmod
179,993-994,.,_,_,_,_,_,172,PUNCT,Z,punct
180,995-1002,kasno,_,_,_,_,_,192,ADV,Rgc,advmod
181,1003-1008,letos,_,_,_,_,_,183,ADV,Rgp,advmod
182,1009-1013,nov,_,_,_,_,_,184,ADJ,Agpfsn,amod
183,1014-1021,verzija,_,_,_,_,_,192,NOUN,Ncfsn,nsubj
184,1022-1028,iphon,_,_,_,_,_,184,NOUN,Ncmsg,nmod
185,1029-1031,do,_,_,_,_,_,187,ADP,Sg,case
186,1032-1036,zdaj,_,_,_,_,_,192,ADV,Rgp,advmod
187,1037-1039,biti,_,_,_,_,_,192,AUX,Va-r3s-n,aux
188,1040-1045,Apple,ORG,_,*->2-7,*[2],_,192,PROPN,Npmsn,nsubj
189,1046-1052,iphona,_,_,_,_,_,192,NOUN,Ncmsan,obj
190,1053-1059,uradno,_,_,_,_,_,192,ADV,Rgp,advmod
191,1060-1068,prodajati,_,_,_,_,_,172,VERB,Vmpp-sm,conj
192,1069-1071,le,_,_,_,_,_,192,PART,Q,advmod
193,1072-1073,v,_,_,_,_,_,195,ADP,Sl,case
194,1074-1077,ZDA,LOC,_,*->15-2,*[15],_,192,PROPN,Npfpl,obl
195,1078-1079,",",_,_,_,_,_,198,PUNCT,Z,punct
196,1080-1086,velik,LOC[6],0,*->14-2,*[14],3 - Nevtralno[11],198,ADJ,Agpfsl,amod
197,1087-1096,Britanija,LOC[6],0,*->14-2,*[14],3 - Nevtralno[11],195,PROPN,Npfsl,conj
198,1097-1098,",",_,_,_,_,_,200,PUNCT,Z,punct
199,1099-1107,Francija,LOC,0,*->16-1,*[16],3 - Nevtralno,195,PROPN,Npfsl,conj
200,1108-1109,",",_,_,_,_,_,202,PUNCT,Z,punct
201,1110-1117,Nemčija,LOC,0,*->17-1,*[17],3 - Nevtralno,195,PROPN,Npfsl,conj
202,1118-1119,",",_,_,_,_,_,204,PUNCT,Z,punct
203,1120-1128,Avstrija,LOC,0,*->18-1,*[18],3 - Nevtralno,195,PROPN,Npfsl,conj
204,1129-1131,in,_,_,_,_,_,207,CCONJ,Cc,cc
205,1132-1134,na,_,_,_,_,_,207,ADP,Sl,case
206,1135-1141,Irsko,LOC,0,*->19-1,*[19],3 - Nevtralno,195,PROPN,Npnsl,conj
207,1142-1143,",",_,_,_,_,_,213,PUNCT,Z,punct
208,1144-1150,kupiti,_,_,_,_,_,213,VERB,Vmen,csubj
209,1151-1153,pa,_,_,_,_,_,213,CCONJ,Cc,advmod
210,1154-1156,on,_,_,_,_,_,209,PRON,Pp3msa--y,obj
211,1157-1159,biti,_,_,_,_,_,213,AUX,Va-r3s-n,cop
212,1160-1166,mogoč,_,_,_,_,_,192,ADJ,Agpnsn,conj
213,1167-1171,tudi,_,_,_,_,_,213,PART,Q,advmod
214,1172-1173,v,_,_,_,_,_,216,ADP,Sl,case
215,1174-1183,Slovenija,LOC,0,*->20-1,*[20],3 - Nevtralno,213,PROPN,Npfsl,obl
216,1184-1187,pri,_,_,_,_,_,218,ADP,Sl,case
217,1188-1197,Tušmobil,ORG,0,*->21-1,*[21],3 - Nevtralno,216,PROPN,Npmsl,nmod
218,1198-1199,",",_,_,_,_,_,222,PUNCT,Z,punct
219,1200-1202,ki,_,_,_,_,_,222,SCONJ,Cs,mark
220,1203-1205,pa,_,_,_,_,_,222,CCONJ,Cc,advmod
221,1206-1210,imeti,_,_,_,_,_,218,VERB,Vmpr3s-y,acl
222,1211-1218,pogodba,_,_,_,_,_,222,NOUN,Ncfsg,obj
223,1219-1220,z,_,_,_,_,_,225,ADP,Si,case
224,1221-1227,applom,ORG,_,*->2-8,*[2],_,223,NOUN,Ncmsi,nmod
225,1228-1229,.,_,_,_,_,_,213,PUNCT,Z,punct
226,1230-1231,v,_,_,_,_,_,229,ADP,Sl,case
227,1232-1237,drug,_,_,_,_,_,229,ADJ,Mlpfsl,amod
228,1238-1246,polovica,_,_,_,_,_,236,NOUN,Ncfsl,obl
229,1247-1251,leto,_,_,_,_,_,229,NOUN,Ncnsg,nmod
230,1252-1255,naj,_,_,_,_,_,235,PART,Q,advmod
231,1256-1258,biti,_,_,_,_,_,235,AUX,Va-c,aux
232,1259-1264,Apple,ORG,1,*->2-9,*[2],4 - Pozitivno,235,PROPN,Npmsn,nsubj
233,1265-1269,tudi,_,_,_,_,_,235,PART,Q,advmod
234,1270-1275,začeti,_,_,_,_,_,213,VERB,Vmep-sm,csubj
235,1276-1285,prodajati,_,_,_,_,_,235,VERB,Vmpn,xcomp
236,1286-1290,nov,_,_,_,_,_,238,ADJ,Agpfsa,amod
237,1291-1298,verzija,_,_,_,_,_,236,NOUN,Ncfsa,obj
238,1299-1305,iphona,_,_,_,_,_,238,NOUN,Ncmsn,nmod
239,1306-1307,",",_,_,_,_,_,235,PUNCT,Z,punct
240,1308-1315,najprej,_,_,_,_,_,238,ADV,Rgs,advmod
241,1316-1322,seveda,_,_,_,_,_,241,PART,Q,fixed
242,1323-1324,v,_,_,_,_,_,244,ADP,Sl,case
243,1325-1328,ZDA,LOC,0,*->15-3,*[15],3 - Nevtralno,238,PROPN,Npfpl,nmod
244,1329-1334,preko,_,_,_,_,_,247,ADP,Sg,case
245,1335-1342,svoj,_,_,_,_,_,247,DET,Px-msg,det
246,1343-1352,partner,_,_,_,_,_,238,NOUN,Ncmsg,appos
247,1353-1355,at,ORG[7],0,*->22-1,*[22],3 - Nevtralno[12],247,X,Xf,nmod
248,1356-1357,&,ORG[7],0,*->22-1,*[22],3 - Nevtralno[12],248,X,Xf,flat:foreign
249,1358-1359,T,ORG[7],0,*->22-1,*[22],3 - Nevtralno[12],248,NOUN,Ncmsn,nmod
250,1360-1361,.,_,_,_,_,_,235,PUNCT,Z,punct
251,1362-1365,nov,_,_,_,_,_,253,ADJ,Agpmsan,amod
252,1366-1372,aparat,_,_,_,_,_,247,NOUN,Ncmsan,conj
253,1373-1375,biti,_,_,_,_,_,255,AUX,Va-f3s-n,cop
254,1376-1378,3G,_,_,_,_,_,253,PROPN,Npmsn,nmod
255,1379-1380,",",_,_,_,_,_,258,PUNCT,Z,punct
256,1381-1384,kar,_,_,_,_,_,258,PRON,Pr-nsn,nsubj
257,1385-1391,pomeniti,_,_,_,_,_,255,VERB,Vmbr3s,acl
258,1392-1393,",",_,_,_,_,_,262,PUNCT,Z,punct
259,1394-1396,da,_,_,_,_,_,262,SCONJ,Cs,mark
260,1397-1399,biti,_,_,_,_,_,262,AUX,Va-f3s-n,cop
261,1400-1409,povezljiv,_,_,_,_,_,258,ADJ,Agpmsnn,ccomp
262,1410-1411,z,_,_,_,_,_,264,ADP,Si,case
263,1412-1416,umts,_,_,_,_,_,262,NOUN,Ncmsi,obl
264,1417-1419,in,_,_,_,_,_,268,CCONJ,Cc,cc
265,1420-1424,zato,_,_,_,_,_,268,ADV,Rgp,advmod
266,1425-1429,bolj,_,_,_,_,_,268,ADV,Rgc,advmod
267,1430-1437,zanimiv,_,_,_,_,_,262,ADJ,Agpmsnn,conj
268,1438-1440,za,_,_,_,_,_,271,ADP,Sa,case
269,1441-1449,evropski,_,_,_,_,_,271,ADJ,Agpmsay,amod
270,1450-1453,trg,_,_,_,_,_,268,NOUN,Ncmsan,obl
271,1454-1455,",",_,_,_,_,_,280,PUNCT,Z,punct
272,1456-1460,kjer,_,_,_,_,_,280,SCONJ,Cs,mark
273,1461-1463,biti,_,_,_,_,_,280,AUX,Va-r3s-n,cop
274,1464-1467,pri,_,_,_,_,_,277,ADP,Sl,case
275,1468-1476,pameten,_,_,_,_,_,277,ADJ,Agpmpl,amod
276,1477-1486,telefon,_,_,_,_,_,280,NOUN,Ncmpl,obl
277,1487-1489,ta,_,_,_,_,_,280,DET,Pd-nsa,nsubj
278,1490-1492,že,_,_,_,_,_,280,PART,Q,advmod
279,1493-1501,standard,_,_,_,_,_,271,NOUN,Ncmsn,acl
