idx,chars_idx,token,entity_type,sentiment,idk_1,idk_2,orig_sentiment,heads,upos,xpos,deprel
0,0-9,slovenski,_,_,_,_,_,2,ADJ,Agpnpn,amod
1,10-23,gospodinjstvo,_,_,_,_,_,7,NOUN,Ncnpn,root
2,24-26,biti,_,_,_,_,_,7,AUX,Va-r3p-n,aux
3,27-28,v,_,_,_,_,_,5,ADP,Sl,case
4,29-33,leto,_,_,_,_,_,7,NOUN,Ncnsl,obl
5,34-38,2005,_,_,_,_,_,5,NUM,Mdc,nummod
6,39-47,nameniti,_,_,_,_,_,0,VERB,Vmep-pf,root
7,48-52,"28,8",_,_,_,_,_,9,NUM,Mdc,nummod
8,53-61,odstotek,_,_,_,_,_,7,NOUN,Ncmsg,obj
9,62-64,za,_,_,_,_,_,11,ADP,Sa,case
10,65-75,stanovanje,_,_,_,_,_,9,NOUN,Ncnsa,nmod
11,76-78,in,_,_,_,_,_,14,CCONJ,Cc,cc
12,79-83,"19,1",_,_,_,_,_,14,NUM,Mdc,nummod
13,84-92,odstotek,_,_,_,_,_,11,NOUN,Ncmsg,conj
14,93-95,za,_,_,_,_,_,16,ADP,Sa,case
15,96-101,hrana,_,_,_,_,_,14,NOUN,Ncfsa,nmod
16,102-103,",",_,_,_,_,_,18,PUNCT,Z,punct
17,104-110,pijača,_,_,_,_,_,16,NOUN,Ncfsa,conj
18,111-113,in,_,_,_,_,_,21,CCONJ,Cc,cc
19,114-121,tobačen,_,_,_,_,_,21,ADJ,Agpmpa,amod
20,122-129,izdelek,_,_,_,_,_,11,NOUN,Ncmpa,conj
21,130-131,",",_,_,_,_,_,39,PUNCT,Z,punct
22,132-135,kar,_,_,_,_,_,57,PRON,Pr-nsn,nsubj
23,136-138,biti,_,_,_,_,_,39,AUX,Va-r3s-n,aux
24,139-143,manj,_,_,_,_,_,28,DET,Rgc,advmod
25,144-146,od,_,_,_,_,_,28,ADP,Sg,case
26,147-157,evropski,_,_,_,_,_,28,ADJ,Agpnsg,amod
27,158-167,povprečje,_,_,_,_,_,39,NOUN,Ncnsg,obl
28,168-181,gospodinjstvo,_,_,_,_,_,28,NOUN,Ncnsg,nmod
29,182-183,v,_,_,_,_,_,31,ADP,Sl,case
30,184-186,EU,ORG,_,*->1-1,*[1],_,28,PROPN,Npfsl,nmod
31,187-189,biti,_,_,_,_,_,39,AUX,Va-r3p-n,aux
32,190-194,leto,_,_,_,_,_,39,NOUN,Ncnsg,obl
33,195-199,2005,_,_,_,_,_,33,NUM,Mdc,nummod
34,200-204,"33,1",_,_,_,_,_,36,NUM,Mdc,nummod
35,205-213,odstotek,_,_,_,_,_,33,NOUN,Ncmsg,nmod
36,214-221,svoj,_,_,_,_,_,38,DET,Px-msg,det
37,222-231,proračun,_,_,_,_,_,36,NOUN,Ncmsg,nmod
38,232-240,porabiti,_,_,_,_,_,7,VERB,Vmep-pf,root
39,241-243,za,_,_,_,_,_,41,ADP,Sa,case
40,244-251,strošek,_,_,_,_,_,39,NOUN,Ncmpa,obl
41,252-260,povezan,_,_,_,_,_,41,ADJ,Appfsg,amod
42,261-262,z,_,_,_,_,_,44,ADP,Si,case
43,263-274,stanovanje,_,_,_,_,_,42,NOUN,Ncnsi,nmod
44,275-276,",",_,_,_,_,_,47,PUNCT,Z,punct
45,277-281,"19,4",_,_,_,_,_,47,NUM,Mdc,nummod
46,282-290,odstotek,_,_,_,_,_,44,NOUN,Ncmsg,appos
47,291-293,pa,_,_,_,_,_,50,CCONJ,Cc,cc
48,294-296,za,_,_,_,_,_,50,ADP,Sa,case
49,297-302,hrana,_,_,_,_,_,44,NOUN,Ncfsa,conj
50,303-304,",",_,_,_,_,_,52,PUNCT,Z,punct
51,305-311,pijača,_,_,_,_,_,50,NOUN,Ncfsa,conj
52,312-314,in,_,_,_,_,_,55,CCONJ,Cc,cc
53,315-322,tobačen,_,_,_,_,_,55,ADJ,Agpmpa,amod
54,323-330,izdelek,_,_,_,_,_,50,NOUN,Ncmpa,conj
55,331-332,",",_,_,_,_,_,57,PUNCT,Z,punct
56,333-339,kazati,_,_,_,_,_,7,VERB,Vmpr3p,parataxis
57,340-349,rezultat,_,_,_,_,_,57,NOUN,Ncmpn,nsubj
58,350-359,raziskava,_,_,_,_,_,58,NOUN,Ncfsg,nmod
59,360-370,evropski,_,_,_,_,_,62,ADJ,Agpmsg,amod
60,371-384,statističen,_,0,*->2-1,*[2],3 - Nevtralno[3],62,ADJ,Agpmsg,amod
61,385-390,urad,_,0,*->2-1,*[2],3 - Nevtralno[3],59,NOUN,Ncmsg,nmod
62,391-399,Eurostat,ORG,0,*->2-1,*[2],3 - Nevtralno[3],62,PROPN,Npmsn,nmod
63,400-401,.,_,_,_,_,_,57,PUNCT,Z,punct
64,402-403,v,_,_,_,_,_,66,ADP,Sl,case
65,404-413,Slovenija,LOC,0,*->3-1,*[3],3 - Nevtralno,71,PROPN,Npfsl,obl
66,414-416,biti,_,_,_,_,_,71,AUX,Va-r3p-n,aux
67,417-430,gospodinjstvo,_,_,_,_,_,71,NOUN,Ncnpg,nsubj
68,431-433,za,_,_,_,_,_,70,ADP,Sa,case
69,434-444,stanovanje,_,_,_,_,_,68,NOUN,Ncnpa,nmod
70,445-453,nameniti,_,_,_,_,_,57,VERB,Vmep-pf,parataxis
71,454-458,"28,8",_,_,_,_,_,73,NUM,Mdc,nummod
72,459-467,odstotek,_,_,_,_,_,71,NOUN,Ncmsg,obj
73,468-469,",",_,_,_,_,_,76,PUNCT,Z,punct
74,470-472,za,_,_,_,_,_,76,ADP,Sa,case
75,473-478,hrana,_,_,_,_,_,73,NOUN,Ncfsa,appos
76,479-480,",",_,_,_,_,_,78,PUNCT,Z,punct
77,481-487,pijača,_,_,_,_,_,76,NOUN,Ncfsa,conj
78,488-490,in,_,_,_,_,_,81,CCONJ,Cc,cc
79,491-498,tobačen,_,_,_,_,_,81,ADJ,Agpmpa,amod
80,499-506,izdelek,_,_,_,_,_,76,NOUN,Ncmpa,conj
81,507-509,pa,_,_,_,_,_,84,CCONJ,Cc,cc
82,510-514,"19,1",_,_,_,_,_,84,NUM,Mdc,nummod
83,515-523,odstotek,_,_,_,_,_,73,NOUN,Ncmsg,conj
84,524-525,.,_,_,_,_,_,84,PUNCT,Z,punct
85,526-532,visok,_,_,_,_,_,87,ADJ,Agpfsg,amod
86,533-537,cena,_,_,_,_,_,84,NOUN,Ncfsg,conj
87,538-543,hrana,_,_,_,_,_,87,NOUN,Ncfsg,nmod
88,544-546,in,_,_,_,_,_,90,CCONJ,Cc,cc
89,547-552,nafta,_,_,_,_,_,88,NOUN,Ncfsg,conj
90,553-554,",",_,_,_,_,_,93,PUNCT,Z,punct
91,555-557,ki,_,_,_,_,_,93,SCONJ,Cs,mark
92,558-566,vplivati,_,_,_,_,_,87,VERB,Vmpr3p,acl
93,567-571,tako,_,_,_,_,_,96,ADV,Rgp,advmod
94,572-574,na,_,_,_,_,_,96,ADP,Sa,case
95,575-584,povečanje,_,_,_,_,_,93,NOUN,Ncnsa,obl
96,585-591,poraba,_,_,_,_,_,96,NOUN,Ncfsg,nmod
97,592-605,gospodinjstvo,_,_,_,_,_,97,NOUN,Ncnpg,nmod
98,606-608,za,_,_,_,_,_,100,ADP,Sa,case
99,609-614,hrana,_,_,_,_,_,98,NOUN,Ncfsa,nmod
100,615-617,in,_,_,_,_,_,102,CCONJ,Cc,cc
101,618-624,pijača,_,_,_,_,_,100,NOUN,Ncfsa,conj
102,625-628,kot,_,_,_,_,_,105,SCONJ,Cs,case
103,629-631,na,_,_,_,_,_,105,ADP,Sa,case
104,632-643,povečevanje,_,_,_,_,_,102,NOUN,Ncnsa,nmod
105,644-652,strošek,_,_,_,_,_,105,NOUN,Ncmpg,nmod
106,653-654,",",_,_,_,_,_,108,PUNCT,Z,punct
107,655-664,povezan,_,_,_,_,_,106,ADJ,Appmpg,amod
108,665-666,z,_,_,_,_,_,110,ADP,Si,case
109,667-678,stanovanje,_,_,_,_,_,108,NOUN,Ncnsi,obl
110,679-680,",",_,_,_,_,_,93,PUNCT,Z,punct
111,681-685,biti,_,_,_,_,_,113,AUX,Va-f3p-n,cop
112,686-689,en,_,_,_,_,_,57,NUM,Mlpfsn,nsubj
113,690-692,od,_,_,_,_,_,118,ADP,Sg,case
114,693-702,osrednji,_,_,_,_,_,118,ADJ,Agpnpg,amod
115,703-706,ta,_,_,_,_,_,118,DET,Pd-nsg,det
116,707-714,drug,_,_,_,_,_,118,ADJ,Mlpnsg,amod
117,715-723,srečanje,_,_,_,_,_,113,NOUN,Ncnsg,nmod
118,724-733,evropski,_,_,_,_,_,120,ADJ,Agpmpg,amod
119,734-744,voditelj,_,_,_,_,_,118,NOUN,Ncmpg,nmod
120,745-746,v,_,_,_,_,_,122,ADP,Sl,case
121,747-751,čas,_,_,_,_,_,113,NOUN,Ncmsl,nmod
122,752-763,slovenski,_,_,_,_,_,124,ADJ,Agpnsg,amod
123,764-777,predsedovanje,_,_,_,_,_,118,NOUN,Ncnsg,nmod
124,778-780,EU,ORG,_,*->1-2,*[1],_,124,PROPN,Npfsg,nmod
125,781-786,danes,_,_,_,_,_,113,ADV,Rgp,advmod
126,787-789,in,_,_,_,_,_,129,CCONJ,Cc,cc
127,790-791,v,_,_,_,_,_,129,ADP,Sa,case
128,792-797,petek,_,_,_,_,_,126,NOUN,Ncmsan,conj
129,798-799,v,_,_,_,_,_,131,ADP,Sl,case
130,800-807,Bruselj,LOC,0,*->4-1,*[4],3 - Nevtralno,129,PROPN,Npmsl,nmod
131,808-809,.,_,_,_,_,_,129,PUNCT,Z,punct
132,810-811,v,_,_,_,_,_,134,ADP,Sl,case
133,812-814,EU,ORG,_,*->1-3,*[1],_,129,PROPN,Npfsl,nmod
134,815-817,za,_,_,_,_,_,136,ADP,Sa,case
135,818-824,prevoz,_,_,_,_,_,137,NOUN,Ncmsan,obl
136,825-833,porabiti,_,_,_,_,_,7,VERB,Vmer1p,parataxis
137,834-838,"11,9",_,_,_,_,_,139,NUM,Mdc,nummod
138,839-847,odstotek,_,_,_,_,_,137,NOUN,Ncmsg,obj
139,848-862,gospodinjski,_,_,_,_,_,141,ADJ,Agpmsg,amod
140,863-872,proračun,_,_,_,_,_,139,NOUN,Ncmsg,nmod
141,873-882,preostal,_,_,_,_,_,143,ADJ,Appmsny,amod
142,883-886,del,_,_,_,_,_,139,NOUN,Ncmsan,nmod
143,887-896,proračun,_,_,_,_,_,143,NOUN,Ncmsg,nmod
144,897-899,biti,_,_,_,_,_,149,AUX,Va-r3p-n,aux
145,900-913,gospodinjstvo,_,_,_,_,_,149,NOUN,Ncnsg,obj
146,914-915,v,_,_,_,_,_,148,ADP,Sl,case
147,916-935,sedemindvajseterici,_,_,_,_,_,149,ADJ,Mlofsl,obl
148,936-944,nameniti,_,_,_,_,_,137,VERB,Vmep-pm,conj
149,945-947,za,_,_,_,_,_,151,ADP,Sa,case
150,948-954,prevoz,_,_,_,_,_,149,NOUN,Ncmsan,obl
151,955-956,(,_,_,_,_,_,154,PUNCT,Z,punct
152,957-961,"11,9",_,_,_,_,_,154,NUM,Mdc,nummod
153,962-970,odstotek,_,_,_,_,_,151,NOUN,Ncmsg,appos
154,971-972,),_,_,_,_,_,154,PUNCT,Z,punct
155,973-974,",",_,_,_,_,_,157,PUNCT,Z,punct
156,975-985,rekreacija,_,_,_,_,_,151,NOUN,Ncfsa,conj
157,986-988,in,_,_,_,_,_,159,CCONJ,Cc,cc
158,989-996,kultura,_,_,_,_,_,151,NOUN,Ncfsa,conj
159,997-998,(,_,_,_,_,_,162,PUNCT,Z,punct
160,999-1002,"8,4",_,_,_,_,_,162,NUM,Mdc,nummod
161,1003-1011,odstotek,_,_,_,_,_,159,NOUN,Ncmsg,appos
162,1012-1013,),_,_,_,_,_,162,PUNCT,Z,punct
163,1014-1015,",",_,_,_,_,_,165,PUNCT,Z,punct
164,1016-1024,oblačilo,_,_,_,_,_,151,NOUN,Ncnpa,conj
165,1025-1027,in,_,_,_,_,_,167,CCONJ,Cc,cc
166,1028-1034,obutev,_,_,_,_,_,151,NOUN,Ncfsa,conj
167,1035-1036,(,_,_,_,_,_,170,PUNCT,Z,punct
168,1037-1040,"5,7",_,_,_,_,_,170,NUM,Mdc,nummod
169,1041-1049,odstotek,_,_,_,_,_,167,NOUN,Ncmsg,appos
170,1050-1051,),_,_,_,_,_,170,PUNCT,Z,punct
171,1052-1053,",",_,_,_,_,_,176,PUNCT,Z,punct
172,1054-1063,gostinski,_,_,_,_,_,176,ADJ,Agpfpa,amod
173,1064-1066,in,_,_,_,_,_,175,CCONJ,Cc,cc
174,1067-1079,nastanitven,_,_,_,_,_,173,ADJ,Agpfpa,conj
175,1080-1088,storitev,_,_,_,_,_,151,NOUN,Ncfpa,conj
176,1089-1090,(,_,_,_,_,_,179,PUNCT,Z,punct
177,1091-1094,"5,3",_,_,_,_,_,179,NUM,Mdc,nummod
178,1095-1103,odstotek,_,_,_,_,_,176,NOUN,Ncmsg,appos
179,1104-1105,),_,_,_,_,_,179,PUNCT,Z,punct
180,1106-1107,",",_,_,_,_,_,182,PUNCT,Z,punct
181,1108-1115,zdravje,_,_,_,_,_,176,NOUN,Ncnsa,conj
182,1116-1117,(,_,_,_,_,_,185,PUNCT,Z,punct
183,1118-1121,"3,4",_,_,_,_,_,185,NUM,Mdc,nummod
184,1122-1130,odstotek,_,_,_,_,_,176,NOUN,Ncmsg,appos
185,1131-1132,),_,_,_,_,_,185,PUNCT,Z,punct
186,1133-1134,",",_,_,_,_,_,188,PUNCT,Z,punct
187,1135-1147,komunikacija,_,_,_,_,_,176,NOUN,Ncfsg,conj
188,1148-1149,(,_,_,_,_,_,191,PUNCT,Z,punct
189,1150-1153,"3,3",_,_,_,_,_,191,NUM,Mdc,nummod
190,1154-1162,odstotek,_,_,_,_,_,185,NOUN,Ncmsg,appos
191,1163-1164,),_,_,_,_,_,191,PUNCT,Z,punct
192,1165-1168,ter,_,_,_,_,_,194,CCONJ,Cc,cc
193,1169-1182,izobraževanje,_,_,_,_,_,151,NOUN,Ncnsa,conj
194,1183-1184,(,_,_,_,_,_,197,PUNCT,Z,punct
195,1185-1188,"1,0",_,_,_,_,_,197,NUM,Mdc,nummod
196,1189-1197,odstotek,_,_,_,_,_,194,NOUN,Ncmsg,appos
197,1198-1199,),_,_,_,_,_,197,PUNCT,Z,punct
198,1200-1201,.,_,_,_,_,_,191,PUNCT,Z,punct
199,1202-1209,najbolj,_,_,_,_,_,204,ADV,Rgs,advmod
200,1210-1212,se,_,_,_,_,_,204,PRON,Px------y,expl
201,1213-1221,urejanje,_,_,_,_,_,204,NOUN,Ncnsd,obj
202,1222-1232,stanovanje,_,_,_,_,_,202,NOUN,Ncnsg,nmod
203,1233-1242,posvečati,_,_,_,_,_,7,VERB,Vmpr3p,parataxis
204,1243-1250,Bolgari,_,_,_,_,_,204,PROPN,Npmpn,nsubj
205,1251-1253,za,_,_,_,_,_,207,ADP,Sa,case
206,1254-1259,nakup,_,_,_,_,_,205,NOUN,Ncmsan,nmod
207,1260-1261,",",_,_,_,_,_,209,PUNCT,Z,punct
208,1262-1273,opremljanje,_,_,_,_,_,207,NOUN,Ncnsa,conj
209,1274-1275,",",_,_,_,_,_,211,PUNCT,Z,punct
210,1276-1287,vzdrževanje,_,_,_,_,_,207,NOUN,Ncnsa,conj
211,1288-1290,in,_,_,_,_,_,214,CCONJ,Cc,cc
212,1291-1297,ostal,_,_,_,_,_,214,ADJ,Appmpa,amod
213,1298-1305,strošek,_,_,_,_,_,207,NOUN,Ncmpa,conj
214,1306-1307,",",_,_,_,_,_,216,PUNCT,Z,punct
215,1308-1316,povezan,_,_,_,_,_,205,ADJ,Appfpn,amod
216,1317-1318,z,_,_,_,_,_,218,ADP,Si,case
217,1319-1330,stanovanje,_,_,_,_,_,216,NOUN,Ncnsi,obl
218,1331-1332,",",_,_,_,_,_,204,PUNCT,Z,punct
219,1333-1335,biti,_,_,_,_,_,228,AUX,Va-r3p-n,aux
220,1336-1339,med,_,_,_,_,_,222,ADP,Si,case
221,1340-1349,članica,_,_,_,_,_,228,NOUN,Ncfpi,obl
222,1350-1352,EU,ORG,_,*->1-4,*[1],_,222,PROPN,Npfsg,nmod
223,1353-1361,velik,_,_,_,_,_,225,ADJ,Agsmsny,amod
224,1362-1365,del,_,_,_,_,_,228,NOUN,Ncmsan,obj
225,1366-1380,gospodinjski,_,_,_,_,_,227,ADJ,Agpmsg,amod
226,1381-1390,proračun,_,_,_,_,_,225,NOUN,Ncmsg,nmod
227,1391-1399,nameniti,_,_,_,_,_,204,VERB,Vmep-pm,parataxis
228,1400-1401,v,_,_,_,_,_,230,ADP,Sl,case
229,1402-1411,Bolgarija,LOC,_,*->5-1,*[5],_,228,PROPN,Npfsl,obl
230,1412-1413,(,_,_,_,_,_,233,PUNCT,Z,punct
231,1414-1418,"37,7",_,_,_,_,_,233,NUM,Mdc,nummod
232,1419-1427,odstotek,_,_,_,_,_,230,NOUN,Ncmsg,appos
233,1428-1429,),_,_,_,_,_,233,PUNCT,Z,punct
234,1430-1431,",",_,_,_,_,_,233,PUNCT,Z,punct
235,1432-1433,v,_,_,_,_,_,237,ADP,Sl,case
236,1434-1445,Luksemburg,LOC,_,*->6-1,*[6],_,228,PROPN,Npmsl,obl
237,1446-1447,(,_,_,_,_,_,240,PUNCT,Z,punct
238,1448-1452,"37,2",_,_,_,_,_,240,NUM,Mdc,nummod
239,1453-1461,odstotek,_,_,_,_,_,237,NOUN,Ncmsg,appos
240,1462-1463,),_,_,_,_,_,240,PUNCT,Z,punct
241,1464-1465,",",_,_,_,_,_,240,PUNCT,Z,punct
242,1466-1467,v,_,_,_,_,_,245,ADP,Sl,case
243,1468-1474,velik,LOC[1],_,*->7-1,*[7],_,245,ADJ,Agpfsl,amod
244,1475-1484,Britanija,LOC[1],_,*->7-1,*[7],_,237,PROPN,Npfsl,conj
245,1485-1486,(,_,_,_,_,_,248,PUNCT,Z,punct
246,1487-1491,"36,1",_,_,_,_,_,248,NUM,Mdc,nummod
247,1492-1500,odstotek,_,_,_,_,_,245,NOUN,Ncmsg,appos
248,1501-1502,),_,_,_,_,_,248,PUNCT,Z,punct
249,1503-1506,ter,_,_,_,_,_,252,CCONJ,Cc,cc
250,1507-1509,na,_,_,_,_,_,252,ADP,Sl,case
251,1510-1517,Dansko,LOC,0,*->8-1,*[8],3 - Nevtralno,245,PROPN,Npnsl,conj
252,1518-1520,in,_,_,_,_,_,254,CCONJ,Cc,cc
253,1521-1529,Poljsko,LOC,0,*->9-1,*[9],3 - Nevtralno,252,PROPN,Npnsl,conj
254,1530-1531,(,_,_,_,_,_,258,PUNCT,Z,punct
255,1532-1534,po,_,_,_,_,_,258,ADP,Sl,case
256,1535-1539,"36,0",_,_,_,_,_,258,NUM,Mdc,nummod
257,1540-1548,odstotek,_,_,_,_,_,254,NOUN,Ncmsg,appos
258,1549-1550,),_,_,_,_,_,258,PUNCT,Z,punct
259,1551-1552,",",_,_,_,_,_,258,PUNCT,Z,punct
260,1553-1560,najmanj,_,_,_,_,_,264,ADV,Rgs,advmod
261,1561-1563,pa,_,_,_,_,_,261,CCONJ,Cc,fixed
262,1564-1565,v,_,_,_,_,_,264,ADP,Sl,case
263,1566-1574,Romunija,LOC,_,*->10-1,*[10],_,252,PROPN,Npfsl,conj
264,1575-1576,(,_,_,_,_,_,267,PUNCT,Z,punct
265,1577-1581,"19,4",_,_,_,_,_,267,NUM,Mdc,nummod
266,1582-1590,odstotek,_,_,_,_,_,264,NOUN,Ncmsg,appos
267,1591-1592,),_,_,_,_,_,267,PUNCT,Z,punct
268,1593-1594,",",_,_,_,_,_,267,PUNCT,Z,punct
269,1595-1597,na,_,_,_,_,_,271,ADP,Sl,case
270,1598-1603,Malti,LOC,0,*->11-1,*[11],3 - Nevtralno,264,PROPN,Npfsl,conj
271,1604-1605,(,_,_,_,_,_,274,PUNCT,Z,punct
272,1606-1610,"19,8",_,_,_,_,_,274,NUM,Mdc,nummod
273,1611-1619,odstotek,_,_,_,_,_,271,NOUN,Ncmsg,appos
274,1620-1621,),_,_,_,_,_,274,PUNCT,Z,punct
275,1622-1623,",",_,_,_,_,_,274,PUNCT,Z,punct
276,1624-1625,v,_,_,_,_,_,278,ADP,Sl,case
277,1626-1633,Latvija,LOC,_,*->12-1,*[12],_,271,PROPN,Npfsl,conj
278,1634-1635,(,_,_,_,_,_,281,PUNCT,Z,punct
279,1636-1640,"22,3",_,_,_,_,_,281,NUM,Mdc,nummod
280,1641-1649,odstotek,_,_,_,_,_,271,NOUN,Ncmsg,appos
281,1650-1651,),_,_,_,_,_,281,PUNCT,Z,punct
282,1652-1654,in,_,_,_,_,_,284,CCONJ,Cc,cc
283,1655-1660,Litva,LOC,_,*->13-1,*[13],_,278,PROPN,Npfsg,conj
284,1661-1662,(,_,_,_,_,_,287,PUNCT,Z,punct
285,1663-1667,"23,1",_,_,_,_,_,287,NUM,Mdc,nummod
286,1668-1676,odstotek,_,_,_,_,_,284,NOUN,Ncmsg,appos
287,1677-1678,),_,_,_,_,_,287,PUNCT,Z,punct
288,1679-1680,.,_,_,_,_,_,281,PUNCT,Z,punct
289,1681-1687,Romuni,_,_,_,_,_,291,PROPN,Npmpn,nsubj
290,1688-1696,porabiti,_,_,_,_,_,7,VERB,Vmer3p,parataxis
291,1697-1703,največ,_,_,_,_,_,294,DET,Rgs,det
292,1704-1706,za,_,_,_,_,_,294,ADP,Sa,case
293,1707-1712,hrana,_,_,_,_,_,291,NOUN,Ncfsa,obl
294,1713-1715,in,_,_,_,_,_,296,CCONJ,Cc,cc
295,1716-1722,pijača,_,_,_,_,_,294,NOUN,Ncfsa,conj
296,1723-1725,za,_,_,_,_,_,298,ADP,Sa,case
297,1726-1731,hrana,_,_,_,_,_,296,NOUN,Ncfsa,nmod
298,1732-1733,",",_,_,_,_,_,300,PUNCT,Z,punct
299,1734-1740,pijača,_,_,_,_,_,298,NOUN,Ncfsa,conj
300,1741-1742,(,_,_,_,_,_,305,PUNCT,Z,punct
301,1743-1756,brezalkoholen,_,_,_,_,_,305,ADJ,Agpfpn,amod
302,1757-1759,in,_,_,_,_,_,304,CCONJ,Cc,cc
303,1760-1769,alkoholen,_,_,_,_,_,302,ADJ,Agpfpa,conj
304,1770-1776,pijača,_,_,_,_,_,298,NOUN,Ncfpa,appos
305,1777-1778,),_,_,_,_,_,305,PUNCT,Z,punct
306,1779-1781,in,_,_,_,_,_,313,CCONJ,Cc,cc
307,1782-1789,tobačen,_,_,_,_,_,309,ADJ,Agpmpa,amod
308,1790-1797,izdelek,_,_,_,_,_,305,NOUN,Ncmpa,conj
309,1798-1800,biti,_,_,_,_,_,313,AUX,Va-r3p-n,aux
310,1801-1807,največ,_,_,_,_,_,312,DET,Rgs,det
311,1808-1815,denar,_,_,_,_,_,313,NOUN,Ncmsg,obj
312,1816-1824,nameniti,_,_,_,_,_,291,VERB,Vmep-pf,conj
313,1825-1838,gospodinjstvo,_,_,_,_,_,313,NOUN,Ncnsg,obj
314,1839-1840,v,_,_,_,_,_,316,ADP,Sl,case
315,1841-1849,Romunija,LOC,_,*->10-2,*[10],_,314,PROPN,Npfsl,nmod
316,1850-1851,(,_,_,_,_,_,319,PUNCT,Z,punct
317,1852-1854,50,_,_,_,_,_,319,NUM,Mdc,nummod
318,1855-1864,odstotek,_,_,_,_,_,316,NOUN,Ncmpg,appos
319,1865-1866,),_,_,_,_,_,319,PUNCT,Z,punct
320,1867-1868,",",_,_,_,_,_,322,PUNCT,Z,punct
321,1869-1874,Litva,LOC,_,*->13-2,*[13],_,316,PROPN,Npfsl,conj
322,1875-1876,(,_,_,_,_,_,325,PUNCT,Z,punct
323,1877-1881,"37,3",_,_,_,_,_,325,NUM,Mdc,nummod
324,1882-1890,odstotek,_,_,_,_,_,316,NOUN,Ncmsg,appos
325,1891-1892,),_,_,_,_,_,325,PUNCT,Z,punct
326,1893-1894,",",_,_,_,_,_,328,PUNCT,Z,punct
327,1895-1904,Bolgarija,LOC,0,*->5-2,*[5],3 - Nevtralno,316,PROPN,Npfsl,conj
328,1905-1906,(,_,_,_,_,_,331,PUNCT,Z,punct
329,1907-1911,"35,3",_,_,_,_,_,331,NUM,Mdc,nummod
330,1912-1920,odstotek,_,_,_,_,_,316,NOUN,Ncmsg,appos
331,1921-1922,),_,_,_,_,_,331,PUNCT,Z,punct
332,1923-1925,in,_,_,_,_,_,334,CCONJ,Cc,cc
333,1926-1933,Latvija,LOC,0,*->12-2,*[12],3 - Nevtralno,316,PROPN,Npfsl,conj
334,1934-1935,(,_,_,_,_,_,337,PUNCT,Z,punct
335,1936-1940,"32,3",_,_,_,_,_,337,NUM,Mdc,nummod
336,1941-1949,odstotek,_,_,_,_,_,334,NOUN,Ncmsg,appos
337,1950-1951,),_,_,_,_,_,337,PUNCT,Z,punct
338,1952-1953,.,_,_,_,_,_,7,PUNCT,Z,punct
339,1954-1967,gospodinjstvo,_,_,_,_,_,334,NOUN,Ncnsg,conj
340,1968-1969,v,_,_,_,_,_,343,ADP,Sl,case
341,1970-1979,nizek,_,_,_,_,_,343,ADJ,Agsnsl,amod
342,1980-1988,kvintilo,_,_,_,_,_,340,NOUN,Ncnsl,nmod
343,1989-1990,-,_,_,_,_,_,347,PUNCT,Z,punct
344,1991-1998,skupina,_,_,_,_,_,347,NOUN,Ncfsn,nmod
345,1999-2001,20,_,_,_,_,_,347,NUM,Mdc,nummod
346,2002-2011,odstotek,_,_,_,_,_,343,NOUN,Ncmpg,appos
347,2012-2025,gospodinjstvo,_,_,_,_,_,347,NOUN,Ncnpg,nmod
348,2026-2027,z,_,_,_,_,_,352,ADP,Si,case
349,2028-2037,nizek,_,_,_,_,_,352,ADJ,Agsmsi,amod
350,2038-2052,razpoložljiv,_,_,_,_,_,352,ADJ,Agpmsi,amod
351,2053-2061,dohodek,_,_,_,_,_,348,NOUN,Ncmsi,nmod
352,2062-2063,-,_,_,_,_,_,347,PUNCT,Z,punct
353,2064-2066,biti,_,_,_,_,_,362,AUX,Va-r3s-n,aux
354,2067-2069,za,_,_,_,_,_,356,ADP,Sa,case
355,2070-2075,hrana,_,_,_,_,_,347,NOUN,Ncfsa,nmod
356,2076-2077,",",_,_,_,_,_,358,PUNCT,Z,punct
357,2078-2084,pijača,_,_,_,_,_,356,NOUN,Ncfsa,conj
358,2085-2087,in,_,_,_,_,_,361,CCONJ,Cc,cc
359,2088-2095,tobačen,_,_,_,_,_,361,ADJ,Agpmpa,amod
360,2096-2103,izdelek,_,_,_,_,_,356,NOUN,Ncmpa,conj
361,2104-2112,nameniti,_,_,_,_,_,347,VERB,Vmep-sf,acl
362,2113-2118,velik,_,_,_,_,_,365,ADJ,Agcmsay,amod
363,2119-2128,relativen,_,_,_,_,_,365,ADJ,Agpmsay,amod
364,2129-2134,delež,_,_,_,_,_,362,NOUN,Ncmsan,obj
365,2135-2144,proračun,_,_,_,_,_,365,NOUN,Ncmsg,nmod
366,2145-2148,kot,_,_,_,_,_,368,SCONJ,Cs,case
367,2149-2156,skupina,_,_,_,_,_,365,NOUN,Ncfsn,obl
368,2157-2159,20,_,_,_,_,_,370,NUM,Mdc,nummod
369,2160-2169,odstotek,_,_,_,_,_,368,NOUN,Ncmpg,nmod
370,2170-2183,gospodinjstvo,_,_,_,_,_,370,NOUN,Ncnpg,nmod
371,2184-2185,z,_,_,_,_,_,375,ADP,Si,case
372,2186-2195,visok,_,_,_,_,_,375,ADJ,Agsmsi,amod
373,2196-2210,razpoložljiv,_,_,_,_,_,375,ADJ,Agpmsi,amod
374,2211-2219,dohodek,_,_,_,_,_,371,NOUN,Ncmsi,nmod
375,2220-2221,(,_,_,_,_,_,378,PUNCT,Z,punct
376,2222-2226,"25,3",_,_,_,_,_,378,NUM,Mdc,nummod
377,2227-2235,odstotek,_,_,_,_,_,371,NOUN,Ncmsg,appos
378,2236-2237,v,_,_,_,_,_,380,ADP,Sl,case
379,2238-2248,primerjava,_,_,_,_,_,378,NOUN,Ncfsl,nmod
380,2249-2250,z,_,_,_,_,_,383,ADP,Si,case
381,2251-2255,"15,0",_,_,_,_,_,383,NUM,Mdc,nummod
382,2256-2264,odstotek,_,_,_,_,_,380,NOUN,Ncmsg,nmod
383,2265-2266,),_,_,_,_,_,378,PUNCT,Z,punct
384,2267-2268,.,_,_,_,_,_,378,PUNCT,Z,punct
385,2269-2275,majhen,_,_,_,_,_,378,ADJ,Agcfsn,nmod
386,2276-2278,biti,_,_,_,_,_,412,AUX,Va-r3s-n,aux
387,2279-2283,biti,_,_,_,_,_,412,AUX,Va-p-sf,aux
388,2284-2291,razlika,_,_,_,_,_,386,NOUN,Ncfsn,nsubj
389,2292-2295,med,_,_,_,_,_,394,ADP,Si,case
390,2296-2309,reven,_,_,_,_,_,394,ADJ,Agsnpi,amod
391,2310-2312,in,_,_,_,_,_,393,CCONJ,Cc,cc
392,2313-2327,bogat,_,_,_,_,_,391,ADJ,Agsnpi,conj
393,2328-2341,gospodinjstvo,_,_,_,_,_,389,NOUN,Ncnpi,nmod
394,2342-2345,pri,_,_,_,_,_,396,ADP,Sl,case
395,2346-2352,poraba,_,_,_,_,_,394,NOUN,Ncfsl,nmod
396,2353-2355,za,_,_,_,_,_,398,ADP,Sa,case
397,2356-2366,stanovanje,_,_,_,_,_,396,NOUN,Ncnsa,nmod
398,2367-2368,(,_,_,_,_,_,401,PUNCT,Z,punct
399,2369-2373,"36,6",_,_,_,_,_,401,NUM,Mdc,nummod
400,2374-2382,odstotek,_,_,_,_,_,398,NOUN,Ncmsg,appos
401,2383-2384,v,_,_,_,_,_,403,ADP,Sl,case
402,2385-2395,primerjava,_,_,_,_,_,401,NOUN,Ncfsl,nmod
403,2396-2397,z,_,_,_,_,_,406,ADP,Si,case
404,2398-2402,"31,1",_,_,_,_,_,406,NUM,Mdc,nummod
405,2403-2411,odstotek,_,_,_,_,_,403,NOUN,Ncmsg,nmod
406,2412-2413,),_,_,_,_,_,401,PUNCT,Z,punct
407,2414-2415,.,_,_,_,_,_,401,PUNCT,Z,punct
408,2416-2418,za,_,_,_,_,_,411,ADP,Sa,case
409,2419-2428,alkoholen,_,_,_,_,_,411,ADJ,Agpfpa,amod
410,2429-2435,pijača,_,_,_,_,_,412,NOUN,Ncfpa,obl
411,2436-2440,dati,_,_,_,_,_,386,VERB,Vmer3p,parataxis
412,2441-2447,največ,_,_,_,_,_,414,DET,Rgs,det
413,2448-2452,Irca,_,_,_,_,_,422,PROPN,Npmpn,nsubj
414,2453-2455,za,_,_,_,_,_,417,ADP,Sa,case
415,2456-2465,alkoholen,_,_,_,_,_,417,ADJ,Agpfpa,amod
416,2466-2472,pijača,_,_,_,_,_,414,NOUN,Ncfpa,nmod
417,2473-2481,velik,_,_,_,_,_,419,ADJ,Agsmsay,amod
418,2482-2485,del,_,_,_,_,_,422,NOUN,Ncmsan,obj
419,2486-2500,gospodinjski,_,_,_,_,_,421,ADJ,Agpmsg,amod
420,2501-2510,proračun,_,_,_,_,_,419,NOUN,Ncmsg,nmod
421,2511-2519,nameniti,_,_,_,_,_,412,VERB,Vmer3p,conj
422,2520-2533,gospodinjstvo,_,_,_,_,_,422,NOUN,Ncnsg,obj
423,2534-2536,na,_,_,_,_,_,425,ADP,Sl,case
424,2537-2543,Irsko,LOC,0,*->14-1,*[14],3 - Nevtralno,423,PROPN,Npnsl,nmod
425,2544-2545,(,_,_,_,_,_,428,PUNCT,Z,punct
426,2546-2549,"4,1",_,_,_,_,_,428,NUM,Mdc,nummod
427,2550-2558,odstotek,_,_,_,_,_,425,NOUN,Ncmsg,appos
428,2559-2560,),_,_,_,_,_,428,PUNCT,Z,punct
429,2561-2562,",",_,_,_,_,_,428,PUNCT,Z,punct
430,2563-2570,najmanj,_,_,_,_,_,433,ADV,Rgs,advmod
431,2571-2573,pa,_,_,_,_,_,433,CCONJ,Cc,advmod
432,2574-2581,ciprski,_,_,_,_,_,436,ADJ,Agpnpn,amod
433,2582-2584,in,_,_,_,_,_,435,CCONJ,Cc,cc
434,2585-2590,grški,_,_,_,_,_,433,ADJ,Agpnpn,conj
435,2591-2604,gospodinjstvo,_,_,_,_,_,422,NOUN,Ncnpn,nsubj
436,2605-2606,(,_,_,_,_,_,439,PUNCT,Z,punct
437,2607-2610,"0,5",_,_,_,_,_,439,NUM,Mdc,nummod
438,2611-2613,oz,_,_,_,_,_,436,NOUN,Ncmsn,appos
439,2614-2615,.,_,_,_,_,_,442,PUNCT,Z,punct
440,2616-2619,"0,6",_,_,_,_,_,442,NUM,Mdc,nummod
441,2620-2628,odstotek,_,_,_,_,_,436,NOUN,Ncmsg,appos
442,2629-2630,),_,_,_,_,_,439,PUNCT,Z,punct
443,2631-2632,.,_,_,_,_,_,428,PUNCT,Z,punct
444,2633-2639,poraba,_,_,_,_,_,463,NOUN,Ncfsn,nsubj
445,2640-2650,slovenski,_,_,_,_,_,447,ADJ,Agpnpg,amod
446,2651-2664,gospodinjstvo,_,_,_,_,_,445,NOUN,Ncnpg,nmod
447,2665-2667,za,_,_,_,_,_,450,ADP,Sa,case
448,2668-2677,alkoholen,_,_,_,_,_,450,ADJ,Agpfpa,amod
449,2678-2684,pijača,_,_,_,_,_,447,NOUN,Ncfpa,nmod
450,2685-2687,biti,_,_,_,_,_,463,AUX,Va-r3s-n,aux
451,2688-2689,z,_,_,_,_,_,454,ADP,Si,case
452,2690-2693,"1,2",_,_,_,_,_,454,NUM,Mdc,nummod
453,2694-2702,odstotek,_,_,_,_,_,455,NOUN,Ncmsg,obl
454,2703-2708,enak,_,_,_,_,_,7,DET,Pi-fsn,parataxis
455,2709-2718,povprečje,_,_,_,_,_,455,NOUN,Ncnsd,nmod
456,2719-2738,sedemindvajseterica,_,_,_,_,_,456,NOUN,Ncfsg,nmod
457,2739-2740,.,_,_,_,_,_,455,PUNCT,Z,punct
458,2741-2743,za,_,_,_,_,_,460,ADP,Sa,case
459,2744-2748,meso,_,_,_,_,_,463,NOUN,Ncnsa,obl
460,2749-2755,največ,_,_,_,_,_,462,DET,Rgs,det
461,2756-2763,denar,_,_,_,_,_,463,NOUN,Ncmsg,obj
462,2764-2772,nameniti,_,_,_,_,_,455,VERB,Vmer3p,acl
463,2773-2774,v,_,_,_,_,_,465,ADP,Sl,case
464,2775-2783,Romunija,LOC,0,*->10-3,*[10],3 - Nevtralno,463,PROPN,Npfsl,obl
465,2784-2785,(,_,_,_,_,_,468,PUNCT,Z,punct
466,2786-2790,"11,8",_,_,_,_,_,468,NUM,Mdc,nummod
467,2791-2799,odstotek,_,_,_,_,_,465,NOUN,Ncmsg,appos
468,2800-2801,),_,_,_,_,_,468,PUNCT,Z,punct
469,2802-2804,in,_,_,_,_,_,472,CCONJ,Cc,cc
470,2805-2806,v,_,_,_,_,_,472,ADP,Sl,case
471,2807-2812,Litva,LOC,0,*->13-3,*[13],3 - Nevtralno,465,PROPN,Npfsl,conj
472,2813-2814,(,_,_,_,_,_,475,PUNCT,Z,punct
473,2815-2819,"10,0",_,_,_,_,_,475,NUM,Mdc,nummod
474,2820-2828,odstotek,_,_,_,_,_,472,NOUN,Ncmsg,appos
475,2829-2830,),_,_,_,_,_,475,PUNCT,Z,punct
476,2831-2832,",",_,_,_,_,_,475,PUNCT,Z,punct
477,2833-2840,najmanj,_,_,_,_,_,481,ADV,Rgs,advmod
478,2841-2843,pa,_,_,_,_,_,475,CCONJ,Cc,advmod
479,2844-2846,na,_,_,_,_,_,481,ADP,Sl,case
480,2847-2855,Švedsko,LOC,0,*->15-1,*[15],3 - Nevtralno,472,PROPN,Npnsl,appos
481,2856-2857,(,_,_,_,_,_,484,PUNCT,Z,punct
482,2858-2861,"1,9",_,_,_,_,_,484,NUM,Mdc,nummod
483,2862-2870,odstotek,_,_,_,_,_,481,NOUN,Ncmsg,appos
484,2871-2872,),_,_,_,_,_,484,PUNCT,Z,punct
485,2873-2876,ter,_,_,_,_,_,488,CCONJ,Cc,cc
486,2877-2879,na,_,_,_,_,_,488,ADP,Sl,case
487,2880-2891,nizozemski,LOC,0,*->16-1,*[16],3 - Nevtralno,492,ADJ,Agpnsl,amod
488,2892-2893,",",_,_,_,_,_,492,PUNCT,Z,punct
489,2894-2895,v,_,_,_,_,_,492,ADP,Sl,case
490,2896-2902,velik,LOC[2],0,*->7-2,*[7],3 - Nevtralno[4],492,ADJ,Agpfsl,amod
491,2903-2912,Britanija,LOC[2],0,*->7-2,*[7],3 - Nevtralno[4],481,PROPN,Npfsl,conj
492,2913-2915,in,_,_,_,_,_,495,CCONJ,Cc,cc
493,2916-2917,v,_,_,_,_,_,495,ADP,Sl,case
494,2918-2929,Luksemburg,LOC,0,*->6-2,*[6],3 - Nevtralno,492,PROPN,Npmsl,conj
495,2930-2931,(,_,_,_,_,_,498,PUNCT,Z,punct
496,2932-2935,"2,2",_,_,_,_,_,498,NUM,Mdc,nummod
497,2936-2944,odstotek,_,_,_,_,_,495,NOUN,Ncmsg,appos
498,2945-2946,),_,_,_,_,_,498,PUNCT,Z,punct
499,2947-2948,.,_,_,_,_,_,492,PUNCT,Z,punct
500,2949-2958,slovenski,_,_,_,_,_,502,ADJ,Agpnpn,amod
501,2959-2972,gospodinjstvo,_,_,_,_,_,505,NOUN,Ncnpn,nsubj
502,2973-2975,za,_,_,_,_,_,504,ADP,Sa,case
503,2976-2980,meso,_,_,_,_,_,502,NOUN,Ncnsa,nmod
504,2981-2989,nameniti,_,_,_,_,_,488,VERB,Vmer3p,acl
505,2990-2993,"4,1",_,_,_,_,_,507,NUM,Mdc,nummod
506,2994-3002,odstotek,_,_,_,_,_,505,NOUN,Ncmsg,obj
507,3003-3004,",",_,_,_,_,_,505,PUNCT,Z,punct
508,3005-3008,kar,_,_,_,_,_,527,PRON,Pr-nsn,nsubj
509,3009-3011,biti,_,_,_,_,_,527,AUX,Va-r3s-n,aux
510,3012-3014,le,_,_,_,_,_,505,PART,Q,advmod
511,3015-3017,za,_,_,_,_,_,515,ADP,Sa,case
512,3018-3021,"0,3",_,_,_,_,_,515,NUM,Mdc,nummod
513,3022-3030,odstoten,_,_,_,_,_,515,ADJ,Agpfsg,amod
514,3031-3036,točka,_,_,_,_,_,516,NOUN,Ncfpg,nmod
515,3037-3040,več,_,_,_,_,_,507,DET,Rgc,advmod
516,3041-3044,kot,_,_,_,_,_,518,SCONJ,Cs,case
517,3045-3054,povprečje,_,_,_,_,_,516,NOUN,Ncnsa,obl
518,3055-3057,EU,ORG,_,*->1-5,*[1],_,518,PROPN,Npfsg,nmod
519,3058-3059,.,_,_,_,_,_,505,PUNCT,Z,punct
520,3060-3066,največ,_,_,_,_,_,523,DET,Rgs,det
521,3067-3069,za,_,_,_,_,_,523,ADP,Sa,case
522,3070-3076,obiska,_,_,_,_,_,527,NOUN,Ncmpa,obl
523,3077-3088,restavracija,_,_,_,_,_,523,NOUN,Ncfpg,nmod
524,3089-3091,in,_,_,_,_,_,526,CCONJ,Cc,cc
525,3092-3098,kavarna,_,_,_,_,_,524,NOUN,Ncfpg,conj
526,3099-3107,porabiti,_,_,_,_,_,505,VERB,Vmer3p,conj
527,3108-3118,Portugalec,_,_,_,_,_,527,PROPN,Npmpn,nsubj
528,3119-3121,za,_,_,_,_,_,530,ADP,Sa,case
529,3122-3128,obiska,_,_,_,_,_,528,NOUN,Ncmpa,nmod
530,3129-3140,restavracija,_,_,_,_,_,530,NOUN,Ncfpg,nmod
531,3141-3143,in,_,_,_,_,_,533,CCONJ,Cc,cc
532,3144-3150,kavarna,_,_,_,_,_,531,NOUN,Ncfpg,conj
533,3151-3157,največ,_,_,_,_,_,535,DET,Rgs,advmod
534,3158-3166,nameniti,_,_,_,_,_,527,VERB,Vmer3p,conj
535,3167-3178,portugalski,_,_,_,_,_,535,ADJ,Agpnpn,nsubj
536,3179-3180,(,_,_,_,_,_,539,PUNCT,Z,punct
537,3181-3184,"9,6",_,_,_,_,_,539,NUM,Mdc,nummod
538,3185-3193,odstotek,_,_,_,_,_,536,NOUN,Ncmsg,appos
539,3194-3195,),_,_,_,_,_,539,PUNCT,Z,punct
540,3196-3198,in,_,_,_,_,_,543,CCONJ,Cc,cc
541,3199-3206,španski,_,_,_,_,_,543,ADJ,Agpnpa,amod
542,3207-3220,gospodinjstvo,_,_,_,_,_,536,NOUN,Ncnpa,conj
543,3221-3222,(,_,_,_,_,_,546,PUNCT,Z,punct
544,3223-3226,"8,4",_,_,_,_,_,546,NUM,Mdc,nummod
545,3227-3235,odstotek,_,_,_,_,_,543,NOUN,Ncmsg,appos
546,3236-3237,),_,_,_,_,_,546,PUNCT,Z,punct
547,3238-3239,",",_,_,_,_,_,546,PUNCT,Z,punct
548,3240-3247,najmanj,_,_,_,_,_,551,ADV,Rgs,advmod
549,3248-3250,pa,_,_,_,_,_,551,CCONJ,Cc,advmod
550,3251-3259,romunski,_,_,_,_,_,543,ADJ,Agpfsn,amod
551,3260-3261,(,_,_,_,_,_,554,PUNCT,Z,punct
552,3262-3265,"0,5",_,_,_,_,_,554,NUM,Mdc,nummod
553,3266-3274,odstotek,_,_,_,_,_,551,NOUN,Ncmsg,appos
554,3275-3276,),_,_,_,_,_,554,PUNCT,Z,punct
555,3277-3278,",",_,_,_,_,_,554,PUNCT,Z,punct
556,3279-3288,madžarski,_,_,_,_,_,551,ADJ,Agpfsn,conj
557,3289-3290,(,_,_,_,_,_,560,PUNCT,Z,punct
558,3291-3294,"1,0",_,_,_,_,_,560,NUM,Mdc,nummod
559,3295-3303,odstotek,_,_,_,_,_,557,NOUN,Ncmsg,appos
560,3304-3305,),_,_,_,_,_,560,PUNCT,Z,punct
561,3306-3309,ter,_,_,_,_,_,566,CCONJ,Cc,cc
562,3310-3317,poljski,_,_,_,_,_,566,ADJ,Agpnpa,amod
563,3318-3320,in,_,_,_,_,_,565,CCONJ,Cc,cc
564,3321-3329,slovaški,_,_,_,_,_,563,ADJ,Agpnpa,conj
565,3330-3343,gospodinjstvo,_,_,_,_,_,557,NOUN,Ncnpa,conj
566,3344-3345,(,_,_,_,_,_,569,PUNCT,Z,punct
567,3346-3349,"1,2",_,_,_,_,_,569,NUM,Mdc,nummod
568,3350-3358,odstotek,_,_,_,_,_,566,NOUN,Ncmsg,appos
569,3359-3360,),_,_,_,_,_,569,PUNCT,Z,punct
570,3361-3362,.,_,_,_,_,_,578,PUNCT,Z,punct
571,3363-3372,slovenski,_,_,_,_,_,573,ADJ,Agpnpn,amod
572,3373-3386,gospodinjstvo,_,_,_,_,_,578,NOUN,Ncnpn,nsubj
573,3387-3389,za,_,_,_,_,_,575,ADP,Sa,case
574,3390-3396,obiska,_,_,_,_,_,573,NOUN,Ncmpa,nmod
575,3397-3407,gostinski,_,_,_,_,_,577,ADJ,Agpmpg,amod
576,3408-3415,lokal,_,_,_,_,_,575,NOUN,Ncmpg,nmod
577,3416-3424,nameniti,_,_,_,_,_,551,VERB,Vmer3p,acl
578,3425-3428,"2,4",_,_,_,_,_,580,NUM,Mdc,nummod
579,3429-3437,odstotek,_,_,_,_,_,578,NOUN,Ncmsg,obj
580,3438-3452,gospodinjski,_,_,_,_,_,582,ADJ,Agpmsg,amod
581,3453-3462,proračun,_,_,_,_,_,580,NOUN,Ncmsg,nmod
582,3463-3464,",",_,_,_,_,_,585,PUNCT,Z,punct
583,3465-3468,kar,_,_,_,_,_,585,PRON,Pr-nsn,nsubj
584,3469-3471,biti,_,_,_,_,_,580,VERB,Va-r3s-n,acl
585,3472-3474,za,_,_,_,_,_,589,ADP,Sa,case
586,3475-3478,"1,5",_,_,_,_,_,589,NUM,Mdc,nummod
587,3479-3487,odstoten,_,_,_,_,_,589,ADJ,Agpfsg,amod
588,3488-3493,točka,_,_,_,_,_,585,NOUN,Ncfpg,obl
589,3494-3498,manj,_,_,_,_,_,585,DET,Rgc,advmod
590,3499-3501,od,_,_,_,_,_,592,ADP,Sg,case
591,3502-3511,povprečje,_,_,_,_,_,589,NOUN,Ncnsg,nmod
592,3512-3514,EU,ORG,0,*->1-6,*[1],3 - Nevtralno,592,PROPN,Npfsg,nmod
