idx,chars_idx,token,entity_type,sentiment,idk_1,idk_2,orig_sentiment,heads,upos,xpos,deprel
0,0-4,eden,_,_,_,_,_,9,NUM,Mlpmsn,nsubj
1,5-7,od,_,_,_,_,_,6,ADP,Sg,case
2,8-12,dva,_,_,_,_,_,6,NUM,Mlcmdg,nummod
3,13-23,francoski,_,_,_,_,_,6,ADJ,Agpmdg,amod
4,24-37,avtomobilski,_,_,_,_,_,6,ADJ,Agpmdg,amod
5,38-46,gigant,_,_,_,_,_,1,NOUN,Ncmdg,nmod
6,47-49,biti,_,_,_,_,_,9,AUX,Va-r3s-n,aux
7,50-54,lani,_,_,_,_,_,9,ADV,Rgp,advmod
8,55-64,zabeležiti,_,_,_,_,_,0,VERB,Vmep-sm,root
9,65-68,kar,_,_,_,_,_,11,ADV,Rgp,advmod
10,69-72,343,_,_,_,_,_,12,NUM,Mdc,nummod
11,73-82,milijon,_,_,_,_,_,9,NOUN,Ncmpg,obj
12,83-88,evro,_,_,_,_,_,12,NOUN,Ncmpg,nmod
13,89-95,izguba,_,_,_,_,_,12,NOUN,Ncfsg,nmod
14,96-97,",",_,_,_,_,_,19,PUNCT,Z,punct
15,98-102,črn,_,_,_,_,_,17,ADJ,Agpmpa,amod
16,103-107,čas,_,_,_,_,_,19,NOUN,Ncmpa,obl
17,108-110,pa,_,_,_,_,_,19,CCONJ,Cc,advmod
18,111-123,napovedovati,_,_,_,_,_,9,VERB,Vmpr3p,parataxis
19,124-128,tudi,_,_,_,_,_,19,PART,Q,advmod
20,129-131,za,_,_,_,_,_,22,ADP,Sa,case
21,132-137,letos,_,_,_,_,_,19,ADV,Rgp,advmod
22,138-139,.,_,_,_,_,_,19,PUNCT,Z,punct
23,140-144,brez,_,_,_,_,_,25,ADP,Sg,case
24,145-149,delo,_,_,_,_,_,27,NOUN,Ncnsg,obl
25,150-152,biti,_,_,_,_,_,27,AUX,Va-f3s-n,aux
26,153-159,ostati,_,_,_,_,_,19,VERB,Vmep-sn,conj
27,160-162,11,_,_,_,_,_,30,NUM,Mdc,nummod
28,163-168,tisoč,_,_,_,_,_,28,NUM,Mlc-pa,flat
29,169-174,človek,_,_,_,_,_,27,NOUN,Ncmpg,nsubj
30,175-176,.,_,_,_,_,_,27,PUNCT,Z,punct
31,177-178,v,_,_,_,_,_,33,ADP,Sl,case
32,179-187,koncern,_,_,*->1-1,*[1],_,39,NOUN,Ncmsl,obl
33,188-191,PSA,ORG[1],_,*->1-1,*[1],_,33,NOUN,Ncmsg,nmod
34,192-199,Peugeot,ORG[1]|ORG[2],_,*->1-1|*->15-1,*[1]|*[15],_,34,PROPN,Npmsn,nmod
35,200-201,-,ORG[1],_,*->1-1,*[1],_,37,PUNCT,Z,punct
36,202-209,Citroen,ORG[1]|ORG[3],_,*->1-1|*->16-1,*[1]|*[16],_,35,PROPN,Npmsn,conj
37,210-212,biti,_,_,_,_,_,39,AUX,Va-r3p-n,aux
38,213-218,imeti,_,_,_,_,_,9,VERB,Vmpp-pm,parataxis
39,219-223,lani,_,_,_,_,_,39,ADV,Rgp,advmod
40,224-227,kar,_,_,_,_,_,42,ADV,Rgp,advmod
41,228-231,343,_,_,_,_,_,43,NUM,Mdc,nummod
42,232-241,milijon,_,_,_,_,_,39,NOUN,Ncmpg,obj
43,242-247,evro,_,_,_,_,_,43,NOUN,Ncmpg,nmod
44,248-254,izguba,_,_,_,_,_,43,NOUN,Ncfsg,nmod
45,255-256,.,_,_,_,_,_,39,PUNCT,Z,punct
46,257-266,francoski,_,_,*->1-2,*[1],_,49,ADJ,Agpmsny,amod
47,267-279,avtomobilski,_,_,*->1-2,*[1],_,49,ADJ,Agpmsny,amod
48,280-287,koncern,_,_,*->1-2,*[1],_,55,NOUN,Ncmsn,nsubj
49,288-291,PSA,ORG[4],_,*->1-2,*[1],_,49,NOUN,Ncmsg,nmod
50,292-299,Peugeot,ORG[4]|ORG[5],_,*->1-2|*->15-2,*[1]|*[15],_,50,PROPN,Npmsn,nmod
51,300-301,-,ORG[4],_,*->1-2,*[1],_,53,PUNCT,Z,punct
52,302-309,Citroen,ORG[4]|ORG[6],_,*->1-2|*->16-2,*[1]|*[16],_,51,PROPN,Npmsn,conj
53,310-312,biti,_,_,_,_,_,55,AUX,Va-r3s-n,aux
54,313-317,imeti,_,_,_,_,_,39,VERB,Vmpp-sm,parataxis
55,318-322,lani,_,_,_,_,_,55,ADV,Rgp,advmod
56,323-326,kar,_,_,_,_,_,58,ADV,Rgp,advmod
57,327-330,343,_,_,_,_,_,59,NUM,Mdc,nummod
58,331-340,milijon,_,_,_,_,_,55,NOUN,Ncmpg,obl
59,341-346,evro,_,_,_,_,_,59,NOUN,Ncmpg,nmod
60,347-353,izguba,_,_,_,_,_,60,NOUN,Ncfsg,nmod
61,354-355,",",_,_,_,_,_,67,PUNCT,Z,punct
62,356-368,nadaljevanje,_,_,_,_,_,67,NOUN,Ncnsa,obj
63,369-375,slab,_,_,_,_,_,65,ADJ,Agpmpg,amod
64,376-381,čas,_,_,_,_,_,63,NOUN,Ncmpg,nmod
65,382-384,pa,_,_,_,_,_,67,CCONJ,Cc,advmod
66,385-394,pričakovati,_,_,*->1-3,*[1],_,55,VERB,Vmpr3s,parataxis
67,395-399,tudi,_,_,_,_,_,67,PART,Q,advmod
68,400-401,v,_,_,_,_,_,71,ADP,Sl,case
69,402-405,ta,_,_,_,_,_,71,DET,Pd-nsl,det
70,406-410,leto,_,_,_,_,_,67,NOUN,Ncnsl,obl
71,411-412,.,_,_,_,_,_,67,PUNCT,Z,punct
72,413-417,zato,_,_,_,_,_,74,CCONJ,Cc,cc
73,418-428,nameravati,_,_,*->1-4,*[1],_,67,VERB,Vmpr3p,conj
74,429-436,ukiniti,_,_,_,_,_,74,VERB,Vmen,xcomp
75,437-440,kar,_,_,_,_,_,77,ADV,Rgp,advmod
76,441-443,11,_,_,_,_,_,80,NUM,Mdc,nummod
77,444-449,tisoč,_,_,_,_,_,77,NUM,Mlc-pa,flat
78,450-458,deloven,_,_,_,_,_,80,ADJ,Agpnpg,amod
79,459-463,mesto,_,_,_,_,_,75,NOUN,Ncnpg,obj
80,464-465,.,_,_,_,_,_,74,PUNCT,Z,punct
81,466-471,slika,_,_,_,_,_,86,NOUN,Ncfsn,nsubj
82,472-474,biti,_,_,_,_,_,86,AUX,Va-r3s-n,aux
83,475-479,biti,_,_,_,_,_,86,AUX,Va-p-sf,cop
84,480-489,popolnoma,_,_,_,_,_,86,ADV,Rgp,advmod
85,490-498,drugačen,_,_,_,_,_,67,ADJ,Agpfsn,conj
86,499-503,leto,_,_,_,_,_,86,NOUN,Ncnsg,obl
87,504-508,2007,_,_,_,_,_,87,NUM,Mdc,nummod
88,509-510,",",_,_,_,_,_,92,PUNCT,Z,punct
89,511-513,ko,_,_,_,_,_,92,SCONJ,Cs,mark
90,514-516,biti,_,_,_,_,_,92,AUX,Va-r3p-n,aux
91,517-522,imeti,_,_,*->1-5,*[1],_,86,VERB,Vmpp-pm,advcl
92,523-526,kar,_,_,_,_,_,94,ADV,Rgp,advmod
93,527-530,885,_,_,_,_,_,95,NUM,Mdc,nummod
94,531-540,milijon,_,_,_,_,_,92,NOUN,Ncmpg,obj
95,541-546,evro,_,_,_,_,_,95,NOUN,Ncmpg,nmod
96,547-554,profit,_,_,_,_,_,96,NOUN,Ncmsg,nmod
97,555-556,.,_,_,_,_,_,92,PUNCT,Z,punct
98,557-564,Renault,ORG,_,*->2-1,*[2],_,104,PROPN,Npmsn,nsubj
99,565-567,biti,_,_,_,_,_,104,AUX,Va-f3s-n,aux
100,568-575,podatek,_,_,_,_,_,104,NOUN,Ncmpa,obj
101,576-577,o,_,_,_,_,_,103,ADP,Sl,case
102,578-588,poslovanje,_,_,_,_,_,101,NOUN,Ncnsl,nmod
103,589-599,predstaviti,_,_,_,_,_,86,VERB,Vmep-sm,parataxis
104,600-601,v,_,_,_,_,_,106,ADP,Sa,case
105,602-609,četrtek,_,_,_,_,_,104,NOUN,Ncmsan,obl
106,610-611,.,_,_,_,_,_,104,PUNCT,Z,punct
107,612-618,glaven,_,_,*->3-1,*[3],_,110,ADJ,Agpmsny,amod
108,619-626,izvršen,_,_,*->3-1,*[3],_,110,ADJ,Agpmsny,amod
109,627-635,direktor,_,_,*->3-1,*[3],_,104,NOUN,Ncmsn,nsubj
110,636-645,Christian,PER[7],_,*->3-1,*[3],_,110,PROPN,Npmsn,nmod
111,646-653,Streiff,PER[7],_,*->3-1,*[3],_,111,PROPN,Npmsn,flat:name
112,654-656,biti,_,_,_,_,_,114,AUX,Va-r3s-n,aux
113,657-666,napovedati,_,_,_,_,_,104,VERB,Vmep-sm,conj
114,667-668,",",_,_,_,_,_,126,PUNCT,Z,punct
115,669-671,da,_,_,_,_,_,126,SCONJ,Cs,mark
116,672-676,biti,_,_,_,_,_,126,AUX,Va-f3p-n,aux
117,677-689,avtomobilski,_,_,_,_,_,119,ADJ,Agpmpn,amod
118,690-694,trg,_,_,_,_,_,126,NOUN,Ncmpn,nsubj
119,695-696,v,_,_,_,_,_,122,ADP,Sl,case
120,697-704,zahoden,_,2,*->17-1,*[17],2 - Negativno[18],122,ADJ,Agpfsl,amod
121,705-711,Evropa,LOC,2,*->17-1,*[17],2 - Negativno[18],126,PROPN,Npfsl,obl
122,712-713,v,_,_,_,_,_,124,ADP,Sl,case
123,714-718,leto,_,_,_,_,_,126,NOUN,Ncnsl,obl
124,719-723,2009,_,_,_,_,_,124,NUM,Mdc,nummod
125,724-734,zabeležiti,_,_,_,_,_,114,VERB,Vmep-pm,ccomp
126,735-737,20,_,_,_,_,_,129,NUM,Mdc,nummod
127,738-739,-,_,_,_,_,_,129,PUNCT,Z,punct
128,740-748,odstoten,_,_,_,_,_,130,ADJ,Agpmsan,amod
129,749-754,padec,_,_,_,_,_,126,NOUN,Ncmsan,obj
130,755-758,ter,_,_,_,_,_,136,CCONJ,Cc,cc
131,759-761,se,_,_,_,_,_,136,PRON,Px------y,expl
132,762-766,nato,_,_,_,_,_,136,ADV,Rgp,advmod
133,767-771,leto,_,_,_,_,_,136,NOUN,Ncnsg,obl
134,772-776,2010,_,_,_,_,_,134,NUM,Mdc,nummod
135,777-784,umiriti,_,_,_,_,_,126,VERB,Vmep-pm,conj
136,785-786,.,_,_,_,_,_,126,PUNCT,Z,punct
137,787-794,posebej,_,_,_,_,_,139,ADV,Rgp,advmod
138,795-802,težavno,_,_,_,_,_,144,ADV,Rgp,advmod
139,803-805,biti,_,_,_,_,_,144,AUX,Va-f3s-n,aux
140,806-810,prvi,_,_,_,_,_,142,ADJ,Mlonsa,amod
141,811-821,četrtletje,_,_,_,_,_,136,NOUN,Ncnsa,obj
142,822-823,",",_,_,_,_,_,144,PUNCT,Z,punct
143,824-834,predvidevati,_,_,*->3-2,*[3],_,9,VERB,Vmpr3s,parataxis
144,835-836,",",_,_,_,_,_,150,PUNCT,Z,punct
145,837-843,zaradi,_,_,_,_,_,147,ADP,Sg,case
146,844-849,kar,_,_,_,_,_,150,PRON,Pr-nsg,obl
147,850-852,se,_,_,_,_,_,155,PRON,Px------y,expl
148,853-855,biti,_,_,_,_,_,150,AUX,Va-r3s-n,aux
149,856-862,morati,_,_,_,_,_,144,VERB,Vmpp-sf,ccomp
150,863-870,skupina,_,_,*->1-6,*[1],_,150,NOUN,Ncfsn,nsubj
151,871-873,po,_,_,_,_,_,154,ADP,Sl,case
152,874-882,njegov,_,0,*->3-3,*[3],3 - Nevtralno,154,DET,Ps3fplsm,det
153,883-890,beseda,_,_,_,_,_,155,NOUN,Ncfpl,obl
154,891-899,odločiti,_,_,_,_,_,150,VERB,Vmen,xcomp
155,900-902,za,_,_,_,_,_,159,ADP,Sa,case
156,903-909,doslej,_,_,_,_,_,158,ADV,Rgp,advmod
157,910-918,neviden,_,_,_,_,_,159,ADJ,Agpmpa,amod
158,919-925,ukrep,_,_,_,_,_,155,NOUN,Ncmpa,obl
159,926-927,.,_,_,_,_,_,150,PUNCT,Z,punct
160,928-931,med,_,_,_,_,_,162,ADP,Si,case
161,932-938,drug,_,_,_,_,_,164,ADJ,Mlpnsi,obl
162,939-949,nameravati,_,_,_,_,_,150,VERB,Vmpr3p,conj
163,950-957,zvišati,_,_,_,_,_,163,VERB,Vmpn,xcomp
164,958-962,cena,_,_,_,_,_,164,NOUN,Ncfpa,obj
165,963-964,",",_,_,_,_,_,163,PUNCT,Z,punct
166,965-967,za,_,_,_,_,_,168,ADP,Sa,case
167,968-974,petina,_,_,_,_,_,169,NOUN,Ncfsa,obl
168,975-984,zmanjšati,_,_,_,_,_,164,VERB,Vmen,conj
169,985-996,proizvodnja,_,_,_,_,_,169,NOUN,Ncfsa,obj
170,997-1008,avtomobil,_,_,_,_,_,170,NOUN,Ncmpg,nmod
171,1009-1011,in,_,_,_,_,_,173,CCONJ,Cc,cc
172,1012-1021,zmanjšati,_,_,_,_,_,169,VERB,Vmen,conj
173,1022-1029,število,_,_,_,_,_,173,NOUN,Ncnsa,obj
174,1030-1040,zaposlen,_,_,_,_,_,174,ADJ,Appmpg,amod
175,1041-1042,.,_,_,_,_,_,169,PUNCT,Z,punct
176,1043-1052,francoski,_,1,*->4-1,*[4],4 - Pozitivno[19],178,ADJ,Agpmsny,amod
177,1053-1063,predsednik,_,1,*->4-1,*[4],4 - Pozitivno[19],194,NOUN,Ncmsn,nsubj
178,1064-1071,Nicolas,PER[8],1,*->4-1,*[4],4 - Pozitivno[19],178,PROPN,Npmsn,nmod
179,1072-1079,Sarkozy,PER[8],1,*->4-1,*[4],4 - Pozitivno[19],179,PROPN,Npmsn,flat:name
180,1080-1082,biti,_,_,_,_,_,194,AUX,Va-r3s-n,aux
181,1083-1084,z,_,_,_,_,_,183,ADP,Si,case
182,1085-1092,namen,_,_,_,_,_,164,NOUN,Ncmsi,obl
183,1093-1094,",",_,_,_,_,_,187,PUNCT,Z,punct
184,1095-1097,da,_,_,_,_,_,187,SCONJ,Cs,mark
185,1098-1100,biti,_,_,_,_,_,187,AUX,Va-c,aux
186,1101-1111,preprečiti,_,_,_,_,_,183,VERB,Vmep-pm,acl
187,1112-1119,selitev,_,_,_,_,_,187,NOUN,Ncfsa,obj
188,1120-1132,avtomobilski,_,_,_,_,_,190,ADJ,Agpfsg,amod
189,1133-1144,proizvodnja,_,_,_,_,_,188,NOUN,Ncfsg,nmod
190,1145-1146,",",_,_,_,_,_,187,PUNCT,Z,punct
191,1147-1155,prejšnji,_,_,_,_,_,193,ADJ,Agpmsay,amod
192,1156-1161,teden,_,_,_,_,_,194,NOUN,Ncmsan,obl
193,1162-1171,napovedati,_,_,_,_,_,9,VERB,Vmep-sm,parataxis
194,1172-1181,sprejetje,_,_,_,_,_,194,NOUN,Ncnsa,obj
195,1182-1188,načrt,_,_,_,_,_,195,NOUN,Ncmsg,nmod
196,1189-1196,podpora,_,_,_,_,_,196,NOUN,Ncfsg,nmod
197,1197-1209,avtomobilski,_,_,_,_,_,199,ADJ,Agpfsd,amod
198,1210-1220,industrija,_,_,_,_,_,196,NOUN,Ncfsd,nmod
199,1221-1222,.,_,_,_,_,_,194,PUNCT,Z,punct
200,1223-1224,v,_,_,_,_,_,202,ADP,Sa,case
201,1225-1235,ponedeljek,_,_,_,_,_,206,NOUN,Ncmsan,obl
202,1236-1238,biti,_,_,_,_,_,206,AUX,Va-r3s-n,aux
203,1239-1243,nato,_,_,_,_,_,206,ADV,Rgp,advmod
204,1244-1249,vlada,_,_,_,_,_,206,NOUN,Ncfsn,nsubj
205,1250-1261,predstaviti,_,_,_,_,_,194,VERB,Vmep-sf,conj
206,1262-1267,paket,_,_,_,_,_,206,NOUN,Ncmsan,obj
207,1268-1269,v,_,_,_,_,_,209,ADP,Sl,case
208,1270-1279,vrednost,_,_,_,_,_,207,NOUN,Ncfsl,nmod
209,1280-1283,"6,5",_,_,_,_,_,211,NUM,Mdc,nummod
210,1284-1293,milijarda,_,_,_,_,_,209,NOUN,Ncfsg,nmod
211,1294-1299,evro,_,_,_,_,_,211,NOUN,Ncmpg,nmod
212,1300-1301,",",_,_,_,_,_,227,PUNCT,Z,punct
213,1302-1303,v,_,_,_,_,_,215,ADP,Sl,case
214,1304-1310,sklop,_,_,_,_,_,227,NOUN,Ncmsl,obl
215,1311-1319,kateri,_,_,_,_,_,215,DET,Pq-msg,nmod
216,1320-1325,biti,_,_,_,_,_,227,AUX,Va-f3d-n,aux
217,1326-1329,oba,_,_,_,_,_,221,DET,Pg-mdn,det
218,1330-1336,glaven,_,_,_,_,_,221,ADJ,Agpmdn,amod
219,1337-1349,avtomobilski,_,_,_,_,_,221,ADJ,Agpmdn,amod
220,1350-1362,proizvajalec,_,_,_,_,_,227,NOUN,Ncmdn,nsubj
221,1363-1366,PSA,ORG[9],_,*->1-7,*[1],_,221,NOUN,Ncmdn,nmod
222,1367-1374,Peugeot,ORG[9]|ORG[10],_,*->1-7|*->15-3,*[1]|*[15],_,221,PROPN,Npmsn,nmod
223,1375-1382,Citroen,ORG[9]|ORG[11],_,*->1-7|*->16-3,*[1]|*[16],_,223,PROPN,Npmsn,flat:name
224,1383-1385,in,_,_,_,_,_,226,CCONJ,Cc,cc
225,1386-1393,Renault,ORG,_,*->2-2,*[2],_,224,PROPN,Npmsn,conj
226,1394-1401,prejeti,_,_,_,_,_,212,VERB,Vmep-dm,acl
227,1402-1404,po,_,_,_,_,_,230,ADP,Sa,case
228,1405-1408,trije,_,_,_,_,_,230,NUM,Mlcfpa,nummod
229,1409-1418,milijarda,_,_,_,_,_,227,NOUN,Ncfpa,obl
230,1419-1424,evro,_,_,_,_,_,230,NOUN,Ncmpg,nmod
231,1425-1433,posojilo,_,_,_,_,_,231,NOUN,Ncnsg,nmod
232,1434-1435,.,_,_,_,_,_,227,PUNCT,Z,punct
233,1436-1438,ta,_,_,_,_,_,238,DET,Pd-nsn,nsubj
234,1439-1441,pa,_,_,_,_,_,238,CCONJ,Cc,advmod
235,1442-1444,ne,_,_,_,_,_,238,PART,Q,advmod
236,1445-1447,biti,_,_,_,_,_,238,AUX,Va-f3s-n,aux
237,1448-1456,doleteti,_,_,_,_,_,9,VERB,Vmep-sn,parataxis
238,1457-1467,francoski,_,_,_,_,_,240,ADJ,Agpmpg,amod
239,1468-1476,delavec,_,_,_,_,_,238,NOUN,Ncmpg,obj
240,1477-1478,.,_,_,_,_,_,238,PUNCT,Z,punct
241,1479-1484,vlada,_,_,_,_,_,249,NOUN,Ncfsn,nsubj
242,1485-1486,v,_,_,_,_,_,244,ADP,Sl,case
243,1487-1493,Pariz,LOC,0,*->5-1,*[5],3 - Nevtralno,242,PROPN,Npmsl,nmod
244,1494-1496,biti,_,_,_,_,_,249,AUX,Va-r3s-n,aux
245,1497-1503,namreč,_,_,_,_,_,249,CCONJ,Cc,advmod
246,1504-1517,proizvajalec,_,_,_,_,_,249,NOUN,Ncmpd,iobj
247,1518-1529,avtomobil,_,_,_,_,_,247,NOUN,Ncmpg,nmod
248,1530-1538,nameniti,_,_,_,_,_,238,VERB,Vmep-sf,conj
249,1539-1542,"6,5",_,_,_,_,_,251,NUM,Mdc,nummod
250,1543-1552,milijarda,_,_,_,_,_,249,NOUN,Ncfsg,obj
251,1553-1558,evro,_,_,_,_,_,251,NOUN,Ncmpg,nmod
252,1559-1565,pomoč,_,_,_,_,_,252,NOUN,Ncfsg,nmod
253,1566-1567,",",_,_,_,_,_,262,PUNCT,Z,punct
254,1568-1570,od,_,_,_,_,_,256,ADP,Sg,case
255,1571-1576,kar,_,_,_,_,_,262,PRON,Pr-nsg,obl
256,1577-1579,biti,_,_,_,_,_,262,AUX,Va-r3s-n,aux
257,1580-1588,koncern,_,_,*->1-8,*[1],_,262,NOUN,Ncmsd,iobj
258,1589-1596,Peugeot,ORG[12]|ORG[13],_,*->1-8|*->15-4,*[1]|*[15],_,258,PROPN,Npmsn,nmod
259,1597-1598,-,ORG[12],_,*->1-8,*[1],_,261,PUNCT,Z,punct
260,1599-1606,Citroen,ORG[12]|ORG[14],_,*->1-8|*->16-4,*[1]|*[16],_,259,PROPN,Npmsn,conj
261,1607-1615,pripasti,_,_,_,_,_,253,VERB,Vmep-sn,acl
262,1616-1619,trije,_,_,_,_,_,264,NUM,Mlcfpa,nummod
263,1620-1629,milijarda,_,_,_,_,_,262,NOUN,Ncfpa,obj
264,1630-1631,",",_,_,_,_,_,262,PUNCT,Z,punct
265,1632-1638,ostati,_,_,_,_,_,262,VERB,Vmep-sn,conj
266,1639-1641,pa,_,_,_,_,_,269,CCONJ,Cc,advmod
267,1642-1644,biti,_,_,_,_,_,269,AUX,Va-r3s-n,aux
268,1645-1650,dobiti,_,_,_,_,_,266,VERB,Vmep-sm,conj
269,1651-1657,njihov,_,_,*->1-9,*[1],_,271,DET,Ps3msap,det
270,1658-1663,rival,_,_,*->2-3,*[2],_,269,NOUN,Ncmsan,nsubj
271,1664-1671,Renault,ORG,_,*->2-3,*[2],_,271,PROPN,Npmsn,nmod
272,1672-1673,.,_,_,_,_,_,266,PUNCT,Z,punct
273,1674-1675,v,_,_,_,_,_,275,ADP,Sa,case
274,1676-1682,zamena,_,_,_,_,_,282,NOUN,Ncfsa,obl
275,1683-1685,pa,_,_,_,_,_,281,CCONJ,Cc,advmod
276,1686-1687,v,_,_,_,_,_,279,ADP,Sl,case
277,1688-1696,njihov,_,2,*->2-4,*[2],2 - Negativno,279,DET,Ps3fplp,det
278,1697-1705,tovarna,_,_,_,_,_,282,NOUN,Ncfpl,obl
279,1706-1708,ne,_,_,_,_,_,281,PART,Q,advmod
280,1709-1714,smeti,_,_,_,_,_,266,VERB,Vmpr3p,conj
281,1715-1724,odpuščati,_,_,_,_,_,281,VERB,Vmpn,xcomp
282,1725-1735,francoski,_,_,_,_,_,284,ADJ,Agpmpg,amod
283,1736-1744,delavec,_,_,_,_,_,282,NOUN,Ncmpg,obj
284,1745-1746,.,_,_,_,_,_,266,PUNCT,Z,punct
285,1747-1754,Peugeot,ORG,_,*->15-5,*[15],_,291,PROPN,Npmsn,nsubj
286,1755-1760,sicer,_,_,_,_,_,291,PART,Q,advmod
287,1761-1762,v,_,_,_,_,_,290,ADP,Sl,case
288,1763-1770,domač,_,_,_,_,_,290,ADJ,Agpfpl,amod
289,1771-1779,tovarna,_,_,_,_,_,291,NOUN,Ncfpl,obl
290,1780-1789,proizvesti,_,_,_,_,_,281,VERB,Vmer3s,conj
291,1790-1792,le,_,_,_,_,_,291,PART,Q,advmod
292,1793-1798,okrog,_,_,_,_,_,294,ADV,Rgp,advmod
293,1799-1801,40,_,_,_,_,_,295,NUM,Mdc,nummod
294,1802-1811,odstotek,_,_,_,_,_,291,NOUN,Ncmpg,obj
295,1812-1818,svoj,_,_,*->15-6,*[15],_,297,DET,Px-npg,det
296,1819-1824,vozilo,_,_,_,_,_,295,NOUN,Ncnpg,nmod
297,1825-1826,.,_,_,_,_,_,291,PUNCT,Z,punct
298,1827-1834,tovarna,_,_,_,_,_,300,NOUN,Ncfsg,obj
299,1835-1838,imeti,_,_,*->15-7,*[15],_,291,VERB,Vmpr3s-n,conj
300,1839-1843,tudi,_,_,_,_,_,300,PART,Q,advmod
301,1844-1845,v,_,_,_,_,_,303,ADP,Sl,case
302,1846-1853,Španija,LOC,0,*->6-1,*[6],3 - Nevtralno,300,PROPN,Npfsl,obl
303,1854-1855,",",_,_,_,_,_,306,PUNCT,Z,punct
304,1856-1858,na,_,_,_,_,_,306,ADP,Sl,case
305,1859-1865,Češko,LOC,0,*->7-1,*[7],3 - Nevtralno,303,PROPN,Npnsl,conj
306,1866-1867,",",_,_,_,_,_,308,PUNCT,Z,punct
307,1868-1877,Slovaško,LOC,0,*->8-1,*[8],3 - Nevtralno,303,PROPN,Npnsl,conj
308,1878-1879,",",_,_,_,_,_,311,PUNCT,Z,punct
309,1880-1881,v,_,_,_,_,_,311,ADP,Sl,case
310,1882-1889,Italija,LOC,0,*->9-1,*[9],3 - Nevtralno,303,PROPN,Npfsl,conj
311,1890-1892,in,_,_,_,_,_,314,CCONJ,Cc,cc
312,1893-1895,na,_,_,_,_,_,314,ADP,Sl,case
313,1896-1908,Portugalsko,LOC,0,*->10-1,*[10],3 - Nevtralno,303,PROPN,Npnsl,conj
314,1909-1912,ter,_,_,_,_,_,317,CCONJ,Cc,cc
315,1913-1914,v,_,_,_,_,_,317,ADP,Sl,case
316,1915-1922,Turčija,LOC,0,*->11-1,*[11],3 - Nevtralno,303,PROPN,Npfsl,conj
317,1923-1924,",",_,_,_,_,_,320,PUNCT,Z,punct
318,1925-1927,na,_,_,_,_,_,320,ADP,Sl,case
319,1928-1937,Kitajsko,LOC,0,*->12-1,*[12],3 - Nevtralno,317,PROPN,Npnsl,conj
320,1938-1939,",",_,_,_,_,_,323,PUNCT,Z,punct
321,1940-1941,v,_,_,_,_,_,323,ADP,Sl,case
322,1942-1951,Argentina,LOC,0,*->13-1,*[13],3 - Nevtralno,320,PROPN,Npfsl,conj
323,1952-1954,in,_,_,_,_,_,325,CCONJ,Cc,cc
324,1955-1964,Brazilija,LOC,0,*->14-1,*[14],3 - Nevtralno,323,PROPN,Npfsl,conj
325,1965-1966,.,_,_,_,_,_,311,PUNCT,Z,punct
326,1967-1974,Koncern,_,2,*->1-10,*[1],2 - Negativno[20],335,PROPN,Npmsn,nsubj
327,1975-1982,Peugeot,ORG[15]|ORG[16],2,*->1-10|*->15-8,*[1]|*[15],2 - Negativno[20],327,PROPN,Npmsn,nmod
328,1983-1984,-,ORG[15],2,*->1-10,*[1],2 - Negativno[20],330,PUNCT,Z,punct
329,1985-1992,Citroen,ORG[15]|ORG[17],2,*->1-10|*->16-5,*[1]|*[16],2 - Negativno[20]|2 - Negativno[21],328,PROPN,Npmsn,conj
330,1993-1995,biti,_,_,_,_,_,335,AUX,Va-r3s-n,aux
331,1996-2001,konec,_,_,_,_,_,333,ADP,Sg,case
332,2002-2006,leto,_,_,_,_,_,335,NOUN,Ncnsg,obl
333,2007-2011,2007,_,_,_,_,_,333,NUM,Mdc,nummod
334,2012-2022,zaposlovati,_,_,_,_,_,320,VERB,Vmpp-sm,acl
335,2023-2030,207.850,_,_,_,_,_,337,NUM,Mdc,nummod
336,2031-2039,delavec,_,_,_,_,_,335,NOUN,Ncmpg,obj
337,2040-2041,.,_,_,_,_,_,320,PUNCT,Z,punct
338,2042-2052,dobavitelj,_,_,*->18-1,*[18],_,335,NOUN,Ncmsn,nsubj
339,2053-2058,del,_,_,*->18-1,*[18],_,339,NOUN,Ncmpg,nmod
340,2059-2067,Faurecia,ORG,_,*->18-1,*[18],_,340,PROPN,Npmsg,nmod
341,2068-2069,",",_,_,_,_,_,354,PUNCT,Z,punct
342,2070-2072,ki,_,_,_,_,_,354,SCONJ,Cs,mark
343,2073-2075,biti,_,_,*->18-2,*[18],_,347,AUX,Va-r3s-n,cop
344,2076-2077,v,_,_,_,_,_,347,ADP,Sl,case
345,2078-2086,večinski,_,_,_,_,_,347,ADJ,Agpfsl,amod
346,2087-2092,last,_,_,_,_,_,354,NOUN,Ncfsl,obl
347,2093-2101,peugeota,ORG,2,*->15-9,*[15],2 - Negativno,347,NOUN,Ncmsg,nmod
348,2102-2103,",",_,_,_,_,_,354,PUNCT,Z,punct
349,2104-2106,biti,_,_,_,_,_,354,AUX,Va-r3s-n,aux
350,2107-2112,danes,_,_,_,_,_,354,ADV,Rgp,advmod
351,2113-2117,prav,_,_,_,_,_,353,PART,Q,advmod
352,2118-2122,tako,_,_,_,_,_,354,ADV,Rgp,advmod
353,2123-2130,najaviti,_,_,_,_,_,339,VERB,Vmep-sm,acl
354,2131-2137,izguba,_,_,_,_,_,354,NOUN,Ncfsa,obj
355,2138-2139,",",_,_,_,_,_,354,PUNCT,Z,punct
356,2140-2142,in,_,_,_,_,_,362,CCONJ,Cc,cc
357,2143-2148,sicer,_,_,_,_,_,354,PART,Q,advmod
358,2149-2150,v,_,_,_,_,_,360,ADP,Sl,case
359,2151-2157,višina,_,_,_,_,_,354,NOUN,Ncfsl,obl
360,2158-2161,547,_,_,_,_,_,362,NUM,Mdc,nummod
361,2162-2171,milijon,_,_,_,_,_,360,NOUN,Ncmpg,nmod
362,2172-2177,evro,_,_,_,_,_,362,NOUN,Ncmpg,nmod
363,2178-2179,.,_,_,_,_,_,354,PUNCT,Z,punct
364,2180-2184,zato,_,_,_,_,_,367,CCONJ,Cc,cc
365,2185-2187,biti,_,2,*->18-3,*[18],2 - Negativno[22],367,AUX,Va-f3s-n,aux
366,2188-2194,prositi,_,2,*->18-3,*[18],2 - Negativno[22],354,VERB,Vmpp-sm,conj
367,2195-2197,za,_,_,_,_,_,370,ADP,Sa,case
368,2198-2206,finančen,_,_,_,_,_,370,ADJ,Agpfsa,amod
369,2207-2212,pomoč,_,_,_,_,_,367,NOUN,Ncfsa,obl
