idx,chars_idx,token,entity_type,sentiment,idk_1,idk_2,orig_sentiment,heads,upos,xpos,deprel
0,0-2,do,_,_,_,_,_,2,ADP,Sg,case
1,3-8,konec,_,_,_,_,_,13,NOUN,Ncmsg,obl
2,9-13,leto,_,_,_,_,_,2,NOUN,Ncnsg,nmod
3,14-15,v,_,_,_,_,_,5,ADP,Sl,case
4,16-25,Ljubljana,LOC,_,*->1-1,*[1],_,2,PROPN,Npfsl,nmod
5,26-28,še,_,_,_,_,_,13,PART,Q,advmod
6,29-32,več,_,_,_,_,_,9,DET,Rgc,det
7,33-43,enosmeren,_,_,_,_,_,9,ADJ,Agpfpg,amod
8,44-48,ulica,_,_,_,_,_,13,NOUN,Ncfpg,nsubj
9,49-50,.,_,_,_,_,_,13,PUNCT,Z,punct
10,51-61,izboljšava,_,_,_,_,_,13,NOUN,Ncfpn,nsubj
11,62-66,biti,_,_,_,_,_,13,AUX,Va-f3p-n,cop
12,67-76,namenjen,_,_,_,_,_,0,ADJ,Appfpn,root
13,77-85,predvsem,_,_,_,_,_,13,PART,Q,advmod
14,86-97,stanovalec,_,_,_,_,_,13,NOUN,Ncmpd,obj
15,98-100,za,_,_,_,_,_,17,ADP,Sa,case
16,101-107,uredba,_,_,_,_,_,15,NOUN,Ncfsa,nmod
17,108-118,enosmeren,_,_,_,_,_,19,ADJ,Agpfpg,amod
18,119-123,cesta,_,_,_,_,_,17,NOUN,Ncfpg,nmod
19,124-126,na,_,_,_,_,_,21,ADP,Sl,case
20,127-134,obrobje,_,_,_,_,_,19,NOUN,Ncnsl,nmod
21,135-142,središče,_,_,_,_,_,21,NOUN,Ncnpg,nmod
22,143-146,biti,_,_,_,_,_,25,AUX,Va-r1p-n,aux
23,147-149,se,_,_,_,_,_,25,PRON,Px------y,expl
24,150-158,odločiti,_,_,_,_,_,13,VERB,Vmep-pm,parataxis
25,159-165,zaradi,_,_,_,_,_,27,ADP,Sg,case
26,166-174,pritisk,_,_,_,_,_,25,NOUN,Ncmsg,obl
27,175-185,mirujoč,_,_,_,_,_,29,ADJ,Appmsg,amod
28,186-193,promet,_,_,_,_,_,27,NOUN,Ncmsg,nmod
29,194-195,",",_,_,_,_,_,25,PUNCT,Z,punct
30,196-198,biti,_,_,_,_,_,36,AUX,Va-r3s-n,aux
31,199-201,na,_,_,_,_,_,35,ADP,Sl,case
32,202-210,današnji,_,_,_,_,_,35,ADJ,Agpfsl,amod
33,211-221,novinarski,_,_,_,_,_,35,ADJ,Agpfsl,amod
34,222-232,konferenca,_,_,_,_,_,36,NOUN,Ncfsl,obl
35,233-240,povedati,_,_,_,_,_,13,VERB,Vmep-sm,parataxis
36,241-252,ljubljanski,_,_,*->2-1,*[2],_,38,ADJ,Agpmsny,amod
37,253-258,župan,_,_,*->2-1,*[2],_,36,NOUN,Ncmsn,nsubj
38,259-264,Zoran,PER[1],_,*->2-1,*[2],_,38,PROPN,Npmsn,nmod
39,265-273,Janković,PER[1],_,*->2-1,*[2],_,39,PROPN,Npmsn,flat:name
40,274-275,.,_,_,_,_,_,36,PUNCT,Z,punct
41,276-280,foto,_,_,_,_,_,60,PROPN,Npmsn,parataxis
42,281-282,:,_,_,_,_,_,42,PUNCT,Z,punct
43,283-289,Andrej,PER[2],0,*->19-1,*[19],3 - Nevtralno[14],60,PROPN,Npmsn,nsubj
44,290-294,križ,PER[2],0,*->19-1,*[19],3 - Nevtralno[14],44,NOUN,Ncmsn,flat:name
45,295-300,leten,_,_,_,_,_,47,ADJ,Agpfsn,amod
46,301-312,dovolilnica,_,_,_,_,_,60,NOUN,Ncfsn,nsubj
47,313-315,za,_,_,_,_,_,49,ADP,Sa,case
48,316-326,stanovalec,_,_,_,_,_,47,NOUN,Ncmpa,nmod
49,327-329,biti,_,_,_,_,_,60,AUX,Va-f3s-n,aux
50,330-333,100,_,_,_,_,_,52,NUM,Mdc,nummod
51,334-339,evro,_,_,_,_,_,60,NOUN,Ncmpg,obl
52,340-341,v,_,_,_,_,_,54,ADP,Sl,case
53,342-348,Prule,LOC,_,*->3-1,*[3],_,52,PROPN,Npfpl,nmod
54,349-351,in,_,_,_,_,_,57,CCONJ,Cc,cc
55,352-359,spodnji,LOC[3],0,*->4-1,*[4],3 - Nevtralno[15],57,ADJ,Agpfsl,amod
56,360-365,Šiška,LOC[3],0,*->4-1,*[4],3 - Nevtralno[15],54,PROPN,Npfsl,conj
57,366-368,biti,_,_,_,_,_,60,AUX,Va-r3p-n,aux
58,369-371,že,_,_,_,_,_,60,PART,Q,advmod
59,372-379,urediti,_,_,_,_,_,36,VERB,Vmep-pm,parataxis
60,380-386,sistem,_,_,_,_,_,60,NOUN,Ncmsan,obj
61,387-397,enosmeren,_,_,_,_,_,63,ADJ,Agpfpg,amod
62,398-402,ulica,_,_,_,_,_,61,NOUN,Ncfpg,nmod
63,403-404,.,_,_,_,_,_,60,PUNCT,Z,punct
64,405-406,z,_,_,_,_,_,81,ADP,Si,case
65,407-410,ta,_,_,_,_,_,68,DET,Pd-nsi,obl
66,411-413,biti,_,_,_,_,_,68,AUX,Va-r3p-n,aux
67,414-423,pridobiti,_,_,_,_,_,60,VERB,Vmep-pm,parataxis
68,424-429,1.200,_,_,_,_,_,72,NUM,Mdc,nummod
69,430-435,nov,_,_,_,_,_,72,ADJ,Agpnpg,amod
70,436-445,parkiren,_,_,_,_,_,72,ADJ,Agpnpg,amod
71,446-450,mesto,_,_,_,_,_,68,NOUN,Ncnpg,obj
72,451-452,",",_,_,_,_,_,76,PUNCT,Z,punct
73,453-455,ki,_,_,_,_,_,76,SCONJ,Cs,mark
74,456-458,biti,_,_,_,_,_,76,AUX,Va-r3p-n,cop
75,459-469,opremljen,_,_,_,_,_,72,ADJ,Appnpn,acl
76,470-471,z,_,_,_,_,_,78,ADP,Si,case
77,472-481,parkomat,_,_,_,_,_,76,NOUN,Ncmpi,obl
78,482-483,",",_,_,_,_,_,81,PUNCT,Z,punct
79,484-486,za,_,_,_,_,_,81,ADP,Sa,case
80,487-490,ves,_,_,_,_,_,78,DET,Pg-nsa,conj
81,491-492,",",_,_,_,_,_,85,PUNCT,Z,punct
82,493-498,razen,_,_,_,_,_,85,ADP,Sg,case
83,499-501,za,_,_,_,_,_,85,ADP,Sa,case
84,502-512,stanovalec,_,_,_,_,_,78,NOUN,Ncmpa,conj
85,513-514,.,_,_,_,_,_,81,PUNCT,Z,punct
86,515-520,glede,_,_,_,_,_,88,ADP,Sg,case
87,521-532,stanovalec,_,_,_,_,_,90,NOUN,Ncmpg,obl
88,533-535,biti,_,_,_,_,_,90,AUX,Va-f3s-n,aux
89,536-543,odločati,_,_,_,_,_,81,VERB,Vmpp-sm,acl
90,544-546,še,_,_,_,_,_,90,PART,Q,advmod
91,547-553,mesten,_,_,_,_,_,93,ADJ,Agpmsny,amod
92,554-558,svet,_,_,_,_,_,90,NOUN,Ncmsn,nsubj
93,559-560,.,_,_,_,_,_,90,PUNCT,Z,punct
94,561-562,»,_,_,_,_,_,96,PUNCT,Z,punct
95,563-567,upati,_,_,_,_,_,90,VERB,Vmpr1s,conj
96,568-569,",",_,_,_,_,_,104,PUNCT,Z,punct
97,570-572,da,_,_,_,_,_,104,SCONJ,Cs,mark
98,573-575,biti,_,_,_,_,_,104,AUX,Va-f3s-n,cop
99,576-578,na,_,_,_,_,_,101,ADP,Sl,case
100,579-583,seja,_,_,_,_,_,104,NOUN,Ncfsl,obl
101,584-592,mesten,_,_,_,_,_,103,ADJ,Agpmsg,amod
102,593-598,svet,_,_,_,_,_,101,NOUN,Ncmsg,nmod
103,599-607,potrjen,_,_,_,_,_,96,ADJ,Appnsn,ccomp
104,608-609,",",_,_,_,_,_,109,PUNCT,Z,punct
105,610-612,da,_,_,_,_,_,109,SCONJ,Cs,mark
106,613-617,biti,_,_,_,_,_,109,AUX,Va-f3p-n,aux
107,618-628,stanovalec,_,_,_,_,_,109,NOUN,Ncmpn,nsubj
108,629-635,dobiti,_,_,_,_,_,104,VERB,Vmep-pm,csubj
109,636-641,leten,_,_,_,_,_,111,ADJ,Agpfsa,amod
110,642-653,dovolilnica,_,_,_,_,_,109,NOUN,Ncfsa,obj
111,654-656,za,_,_,_,_,_,114,ADP,Sa,case
112,657-660,100,_,_,_,_,_,114,NUM,Mdc,nummod
113,661-666,evro,_,_,_,_,_,111,NOUN,Ncmpg,nmod
114,667-668,",",_,_,_,_,_,109,PUNCT,Z,punct
115,669-670,«,_,_,_,_,_,118,PUNCT,Z,punct
116,671-673,biti,_,_,_,_,_,118,AUX,Va-r3s-n,aux
117,674-681,povedati,_,_,_,_,_,36,VERB,Vmep-sm,parataxis
118,682-690,Janković,PER,_,*->2-2,*[2],_,118,PROPN,Npmsn,nsubj
119,691-692,.,_,_,_,_,_,109,PUNCT,Z,punct
120,693-694,"""",_,_,_,_,_,125,PUNCT,Z,punct
121,695-701,dneven,_,_,_,_,_,123,ADJ,Agpmpn,amod
122,702-710,migrant,_,_,_,_,_,125,NOUN,Ncmpn,nsubj
123,711-715,raje,_,_,_,_,_,125,ADV,Rgc,advmod
124,716-722,iskati,_,_,_,_,_,118,VERB,Vmpp-pm,advcl
125,723-730,prostor,_,_,_,_,_,125,NOUN,Ncmsan,obj
126,731-737,blizu,_,_,_,_,_,128,ADJ,Agcmsd,amod
127,738-744,center,_,_,_,_,_,125,NOUN,Ncmsd,obj
128,745-746,"""",_,_,_,_,_,133,PUNCT,Z,punct
129,747-750,kot,_,_,_,_,_,133,SCONJ,Cs,mark
130,751-753,biti,_,_,_,_,_,133,AUX,Va-r3s-n,aux
131,754-756,še,_,_,_,_,_,133,PART,Q,advmod
132,757-762,dejati,_,_,_,_,_,125,VERB,Vmep-sm,advcl
133,763-768,župan,_,_,*->2-3,*[2],_,133,NOUN,Ncmsn,nsubj
134,769-773,biti,_,_,_,_,_,142,AUX,Va-f3p-n,aux
135,774-775,z,_,_,_,_,_,138,ADP,Si,case
136,776-780,tak,_,_,_,_,_,138,DET,Pd-fsi,det
137,781-791,ureditev,_,_,_,_,_,142,NOUN,Ncfsi,obl
138,792-794,po,_,_,_,_,_,141,ADP,Sl,case
139,795-803,njegov,_,_,_,_,_,141,DET,Ps3nslsm,det
140,804-810,mnenje,_,_,_,_,_,142,NOUN,Ncnsl,obl
141,811-820,pridobiti,_,_,_,_,_,133,VERB,Vmep-pm,conj
142,821-829,predvsem,_,_,_,_,_,142,PART,Q,advmod
143,830-840,stanovalec,_,_,_,_,_,142,NOUN,Ncmpn,nsubj
144,841-842,",",_,_,_,_,_,142,PUNCT,Z,punct
145,843-846,saj,_,_,_,_,_,151,CCONJ,Cc,cc
146,847-851,biti,_,_,_,_,_,151,AUX,Va-f3p-n,aux
147,852-858,dneven,_,_,_,_,_,149,ADJ,Agpmpn,amod
148,859-867,migrant,_,_,_,_,_,151,NOUN,Ncmpn,nsubj
149,868-872,raje,_,_,_,_,_,151,ADV,Rgc,advmod
150,873-879,iskati,_,_,_,_,_,142,VERB,Vmpp-pm,conj
151,880-887,prostor,_,_,_,_,_,151,NOUN,Ncmsan,obj
152,888-894,blizu,_,_,_,_,_,154,ADJ,Agcmsd,amod
153,895-901,center,_,_,_,_,_,151,NOUN,Ncmsd,iobj
154,902-903,.,_,_,_,_,_,125,PUNCT,Z,punct
155,904-905,»,_,_,_,_,_,157,PUNCT,Z,punct
156,906-911,meniti,_,_,*->2-4,*[2],_,125,VERB,Vmpr1s,conj
157,912-913,",",_,_,_,_,_,164,PUNCT,Z,punct
158,914-916,da,_,_,_,_,_,164,SCONJ,Cs,mark
159,917-921,biti,_,_,_,_,_,164,AUX,Va-f3p-n,aux
160,922-926,tako,_,_,_,_,_,164,ADV,Rgp,advmod
161,927-937,stanovalec,_,_,_,_,_,164,NOUN,Ncmpn,nsubj
162,938-944,končno,_,_,_,_,_,164,ADV,Rgp,advmod
163,945-951,dobiti,_,_,_,_,_,157,VERB,Vmep-pm,ccomp
164,952-962,priložnost,_,_,_,_,_,164,NOUN,Ncfsa,obj
165,963-964,",",_,_,_,_,_,168,PUNCT,Z,punct
166,965-967,da,_,_,_,_,_,168,SCONJ,Cs,mark
167,968-973,imeti,_,_,_,_,_,165,VERB,Vmpr3p-n,acl
168,974-978,vsak,_,_,_,_,_,170,DET,Pg-msa,det
169,979-982,dan,_,_,_,_,_,171,NOUN,Ncmsan,nmod
170,983-995,zagotovljen,_,_,_,_,_,173,ADJ,Appnsa,amod
171,996-1004,parkiren,_,_,_,_,_,173,ADJ,Agpnsa,amod
172,1005-1011,mesto,_,_,_,_,_,168,NOUN,Ncnsd,obj
173,1012-1013,",",_,_,_,_,_,168,PUNCT,Z,punct
174,1014-1015,«,_,_,_,_,_,177,PUNCT,Z,punct
175,1016-1018,biti,_,_,*->2-5,*[2],_,177,AUX,Va-r3s-n,aux
176,1019-1024,dodati,_,_,*->2-5,*[2],_,36,VERB,Vmep-sm,parataxis
177,1025-1026,.,_,_,_,_,_,177,PUNCT,Z,punct
178,1027-1033,dovolj,_,_,_,_,_,181,DET,Rgp,det
179,1034-1043,parkiren,_,_,_,_,_,181,ADJ,Agpnpg,amod
180,1044-1048,mesto,_,_,_,_,_,177,NOUN,Ncnpg,obj
181,1049-1051,za,_,_,_,_,_,184,ADP,Sa,case
182,1052-1055,ves,_,_,_,_,_,184,DET,Pg-msa,det
183,1056-1061,župan,_,_,*->2-6,*[2],_,181,NOUN,Ncmsn,nmod
184,1062-1064,biti,_,_,_,_,_,199,AUX,Va-r3s-n,aux
185,1065-1067,na,_,_,_,_,_,187,ADP,Sa,case
186,1068-1074,očitek,_,_,_,_,_,177,NOUN,Ncmpa,obl
187,1075-1076,",",_,_,_,_,_,193,PUNCT,Z,punct
188,1077-1079,da,_,_,_,_,_,193,SCONJ,Cs,mark
189,1080-1088,nekateri,_,_,_,_,_,191,DET,Pi-mpn,det
190,1089-1099,stanovalec,_,_,_,_,_,193,NOUN,Ncmpn,nsubj
191,1100-1104,biti,_,_,_,_,_,193,AUX,Va-r3p-y,cop
192,1105-1115,zadovoljen,_,_,_,_,_,187,ADJ,Agpmpn,acl
193,1116-1117,z,_,_,_,_,_,195,ADP,Si,case
194,1118-1128,ureditev,_,_,_,_,_,193,NOUN,Ncfsi,obl
195,1129-1139,enosmeren,_,_,_,_,_,197,ADJ,Agpfpg,amod
196,1140-1144,ulica,_,_,_,_,_,195,NOUN,Ncfpg,nmod
197,1145-1146,",",_,_,_,_,_,193,PUNCT,Z,punct
198,1147-1156,odgovoriti,_,_,*->2-7,*[2],_,177,VERB,Vmep-sm,advcl
199,1157-1158,",",_,_,_,_,_,208,PUNCT,Z,punct
200,1159-1161,da,_,_,_,_,_,208,SCONJ,Cs,mark
201,1162-1164,biti,_,_,_,_,_,208,AUX,Va-r3p-n,aux
202,1165-1167,ta,_,_,_,_,_,205,DET,Pd-mpn,det
203,1168-1172,isti,_,_,_,_,_,205,DET,Pi-mpn,det
204,1173-1183,stanovalec,_,_,_,_,_,208,NOUN,Ncmpn,nsubj
205,1184-1188,pred,_,_,_,_,_,207,ADP,Si,case
206,1189-1192,ta,_,_,_,_,_,208,DET,Pd-nsi,obl
207,1193-1199,pisati,_,_,_,_,_,199,VERB,Vmpp-pm,ccomp
208,1200-1202,na,_,_,_,_,_,210,ADP,Sa,case
209,1203-1209,občina,_,_,_,_,_,208,NOUN,Ncfsa,obl
210,1210-1215,pismo,_,_,_,_,_,210,NOUN,Ncnsg,nmod
211,1216-1218,in,_,_,_,_,_,213,CCONJ,Cc,cc
212,1219-1225,dopisa,_,_,_,_,_,211,NOUN,Ncmpa,conj
213,1226-1227,",",_,_,_,_,_,218,PUNCT,Z,punct
214,1228-1230,da,_,_,_,_,_,218,SCONJ,Cs,mark
215,1231-1233,biti,_,_,_,_,_,218,AUX,Va-c,aux
216,1234-1236,se,_,_,_,_,_,218,PRON,Px------y,expl
217,1237-1245,zgraditi,_,_,_,_,_,213,VERB,Vmep-sf,acl
218,1246-1250,nov,_,_,_,_,_,221,ADJ,Agpnpn,amod
219,1251-1259,parkiren,_,_,_,_,_,221,ADJ,Agpnpn,amod
220,1260-1265,mesto,_,_,_,_,_,218,NOUN,Ncnpn,nsubj
221,1266-1267,",",_,_,_,_,_,218,PUNCT,Z,punct
222,1268-1271,saj,_,_,_,_,_,228,CCONJ,Cc,cc
223,1272-1274,biti,_,_,_,_,_,228,AUX,Va-r3p-n,aux
224,1275-1278,on,_,_,_,_,_,228,PRON,Pp3mpd--y,obj
225,1279-1282,ves,_,_,_,_,_,227,DET,Pg-fpa,det
226,1283-1288,ulica,_,_,_,_,_,228,NOUN,Ncfpa,obj
227,1289-1299,zapakirati,_,_,_,_,_,218,VERB,Vmpp-pm,conj
228,1300-1306,dneven,_,_,_,_,_,230,ADJ,Agpmpn,amod
229,1307-1315,migrant,_,_,_,_,_,228,NOUN,Ncmpn,nsubj
230,1316-1317,.,_,_,_,_,_,228,PUNCT,Z,punct
231,1318-1319,»,_,_,_,_,_,233,PUNCT,Z,punct
232,1320-1329,prepričan,_,_,_,_,_,228,ADJ,Appmsnn,parataxis
233,1330-1333,biti,_,_,*->2-8,*[2],_,233,AUX,Va-r1s-n,cop
234,1334-1335,",",_,_,_,_,_,238,PUNCT,Z,punct
235,1336-1338,da,_,_,_,_,_,238,SCONJ,Cs,mark
236,1339-1343,biti,_,_,_,_,_,238,AUX,Va-f3p-n,aux
237,1344-1349,imeti,_,_,_,_,_,233,VERB,Vmpp-pm,ccomp
238,1350-1353,ves,_,_,_,_,_,242,DET,Pg-mpn,det
239,1354-1360,dovolj,_,_,_,_,_,242,DET,Rgp,det
240,1361-1370,parkiren,_,_,_,_,_,242,ADJ,Agpnpg,amod
241,1371-1375,mesto,_,_,_,_,_,238,NOUN,Ncnpg,obj
242,1376-1377,",",_,_,_,_,_,247,PUNCT,Z,punct
243,1378-1380,ko,_,_,_,_,_,247,SCONJ,Cs,mark
244,1381-1389,ureditev,_,_,_,_,_,247,NOUN,Ncfsn,nsubj
245,1390-1399,popolnoma,_,_,_,_,_,247,ADV,Rgp,advmod
246,1400-1406,zaživeti,_,_,_,_,_,242,VERB,Vmer3s,acl
247,1407-1408,.,_,_,_,_,_,228,PUNCT,Z,punct
248,1409-1419,pričakovati,_,_,*->2-9,*[2],_,233,VERB,Vmpr1s,parataxis
249,1420-1421,",",_,_,_,_,_,255,PUNCT,Z,punct
250,1422-1424,da,_,_,_,_,_,255,SCONJ,Cs,mark
251,1425-1427,se,_,_,_,_,_,255,PRON,Px------y,expl
252,1428-1430,biti,_,_,_,_,_,255,AUX,Va-f3s-n,aux
253,1431-1436,stvar,_,_,_,_,_,255,NOUN,Ncfsn,nsubj
254,1437-1444,urediti,_,_,_,_,_,249,VERB,Vmep-sf,ccomp
255,1445-1446,v,_,_,_,_,_,258,ADP,Sl,case
256,1447-1452,nekaj,_,_,_,_,_,258,DET,Rgp,det
257,1453-1460,mesec,_,_,_,_,_,255,NOUN,Ncmpl,obl
258,1461-1462,",",_,_,_,_,_,255,PUNCT,Z,punct
259,1463-1464,«,_,_,_,_,_,263,PUNCT,Z,punct
260,1465-1467,biti,_,_,_,_,_,263,AUX,Va-r3s-n,aux
261,1468-1470,še,_,_,_,_,_,263,PART,Q,advmod
262,1471-1478,povedati,_,_,_,_,_,36,VERB,Vmep-sm,parataxis
263,1479-1490,ljubljanski,_,1,*->2-10,*[2],4 - Pozitivno[16],265,ADJ,Agpmsny,amod
264,1491-1496,župan,_,1,*->2-10,*[2],4 - Pozitivno[16],263,NOUN,Ncmsn,nsubj
265,1497-1498,.,_,_,_,_,_,255,PUNCT,Z,punct
266,1499-1502,kje,_,_,_,_,_,276,ADV,Rgp,advmod
267,1503-1507,biti,_,_,_,_,_,276,AUX,Va-f3p-n,aux
268,1508-1515,urejen,_,_,_,_,_,271,ADJ,Appfpa,amod
269,1516-1525,enosmeren,_,_,_,_,_,271,ADJ,Agpfpa,amod
270,1526-1531,ulica,_,_,_,_,_,276,NOUN,Ncfpn,nsubj
271,1532-1534,do,_,_,_,_,_,273,ADP,Sg,case
272,1535-1540,konec,_,_,_,_,_,277,NOUN,Ncmsg,obl
273,1541-1551,letošnji,_,_,_,_,_,275,ADJ,Agpnsg,amod
274,1552-1556,leto,_,_,_,_,_,273,NOUN,Ncnsg,nmod
275,1557-1567,nameravati,_,_,_,_,_,263,VERB,Vmpr3p,advcl
276,1568-1575,urediti,_,_,_,_,_,276,VERB,Vmen,xcomp
277,1576-1585,enosmeren,_,_,_,_,_,279,ADJ,Agpfpa,amod
278,1586-1591,ulica,_,_,_,_,_,277,NOUN,Ncfpa,obj
279,1592-1594,na,_,_,_,_,_,282,ADP,Sl,case
280,1595-1601,južen,_,_,_,_,_,282,ADJ,Agpmsl,amod
281,1602-1606,del,_,_,_,_,_,279,NOUN,Ncmsl,nmod
282,1607-1616,Bežigrad,LOC,_,*->5-1,*[5],_,282,PROPN,Npmsg,nmod
283,1617-1618,(,_,_,_,_,_,287,PUNCT,Z,punct
284,1619-1622,med,_,_,_,_,_,287,ADP,Si,case
285,1623-1630,parmov,LOC[4],0,*->6-1,*[6],3 - Nevtralno[17],287,ADJ,Aspfsi,amod
286,1631-1636,ulica,LOC[4],0,*->6-1,*[6],3 - Nevtralno[17],283,NOUN,Ncfsi,appos
287,1637-1638,",",_,_,_,_,_,289,PUNCT,Z,punct
288,1639-1644,ulica,_,_,_,_,_,282,NOUN,Ncfsa,conj
289,1645-1653,Bežigrad,LOC,0,*->5-2,*[5],3 - Nevtralno,289,PROPN,Npmsn,nmod
290,1654-1655,",",_,_,_,_,_,293,PUNCT,Z,punct
291,1656-1664,dunajski,LOC[5],0,*->7-1,*[7],3 - Nevtralno[18],293,ADJ,Agpfsa,amod
292,1665-1670,cesta,LOC[5],0,*->7-1,*[7],3 - Nevtralno[18],282,NOUN,Ncfsa,conj
293,1671-1673,in,_,_,_,_,_,296,CCONJ,Cc,cc
294,1674-1684,železniški,_,_,_,_,_,296,ADJ,Agpfsa,amod
295,1685-1690,proga,_,_,_,_,_,282,NOUN,Ncfsa,conj
296,1691-1700,Ljubljana,LOC,_,*->1-2,*[1],_,296,PROPN,Npfsn,nmod
297,1701-1702,-,_,_,_,_,_,299,PUNCT,Z,punct
298,1703-1711,Jesenice,LOC,0,*->8-1,*[8],3 - Nevtralno,297,PROPN,Npfpn,conj
299,1712-1713,),_,_,_,_,_,299,PUNCT,Z,punct
300,1714-1715,",",_,_,_,_,_,299,PUNCT,Z,punct
301,1716-1718,na,_,_,_,_,_,304,ADP,Sl,case
302,1719-1727,severen,_,_,_,_,_,304,ADJ,Agpnsl,amod
303,1728-1732,del,_,_,_,_,_,297,NOUN,Ncnsl,appos
304,1733-1744,Kodeljev,LOC,0,*->9-1,*[9],3 - Nevtralno,304,ADJ,Aspmsg,amod
305,1745-1746,(,_,_,_,_,_,308,PUNCT,Z,punct
306,1747-1750,med,_,_,_,_,_,308,ADP,Si,case
307,1751-1762,Ljubljanica,_,_,_,_,_,304,PROPN,Npfsi,conj
308,1763-1764,",",_,_,_,_,_,310,PUNCT,Z,punct
309,1765-1770,ulica,_,_,_,_,_,305,NOUN,Ncfsi,conj
310,1771-1773,na,LOC[6],0,*->10-1,*[10],3 - Nevtralno[19],312,ADP,Sl,case
311,1774-1778,peč,LOC[6],0,*->10-1,*[10],3 - Nevtralno[19],308,NOUN,Ncfsl,conj
312,1779-1780,",",_,_,_,_,_,315,PUNCT,Z,punct
313,1781-1790,Povšetov,LOC[7],0,*->11-1,*[11],3 - Nevtralno[20],315,ADJ,Aspfsa,amod
314,1791-1796,ulica,LOC[7],0,*->11-1,*[11],3 - Nevtralno[20],308,NOUN,Ncfsa,conj
315,1797-1799,in,_,_,_,_,_,318,CCONJ,Cc,cc
316,1800-1810,železniški,_,_,_,_,_,318,ADJ,Agpfsa,amod
317,1811-1816,proga,_,_,_,_,_,308,NOUN,Ncfsa,conj
318,1817-1826,Ljubljana,LOC,0,*->1-3,*[1],3 - Nevtralno,318,PROPN,Npfsn,nmod
319,1827-1828,-,_,_,_,_,_,321,PUNCT,Z,punct
320,1829-1836,Metlika,LOC,0,*->12-1,*[12],3 - Nevtralno,319,PROPN,Npfsn,conj
321,1837-1838,),_,_,_,_,_,321,PUNCT,Z,punct
322,1839-1840,",",_,_,_,_,_,328,PUNCT,Z,punct
323,1841-1843,na,_,_,_,_,_,325,ADP,Sl,case
324,1844-1850,Prule,LOC,0,*->3-2,*[3],3 - Nevtralno,319,PROPN,Npfsl,nmod
325,1851-1852,(,_,_,_,_,_,328,PUNCT,Z,punct
326,1853-1856,med,_,_,_,_,_,328,ADP,Si,case
327,1857-1868,Ljubljanica,_,_,_,_,_,325,PROPN,Npfsi,conj
328,1869-1870,",",_,_,_,_,_,331,PUNCT,Z,punct
329,1871-1880,karlovški,LOC[8],0,*->13-1,*[13],3 - Nevtralno[21],331,ADJ,Agpfsi,amod
330,1881-1886,cesta,LOC[8],0,*->13-1,*[13],3 - Nevtralno[21],325,NOUN,Ncfsi,conj
331,1887-1889,in,_,_,_,_,_,334,CCONJ,Cc,cc
332,1890-1901,Gruberjev,_,_,_,_,_,334,ADJ,Aspmsi,amod
333,1902-1910,prekop,_,_,_,_,_,325,NOUN,Ncmsi,conj
334,1911-1912,),_,_,_,_,_,328,PUNCT,Z,punct
335,1913-1915,in,_,_,_,_,_,337,CCONJ,Cc,cc
336,1916-1921,Mirj,LOC,_,*->14-1,*[14],_,328,PROPN,Npmsl,conj
337,1922-1923,(,_,_,_,_,_,341,PUNCT,Z,punct
338,1924-1927,med,_,_,_,_,_,341,ADP,Si,case
339,1928-1935,tržaški,LOC[9],0,*->15-1,*[15],3 - Nevtralno[22],341,ADJ,Agpfsi,amod
340,1936-1941,cesta,LOC[9],0,*->15-1,*[15],3 - Nevtralno[22],337,NOUN,Ncfsi,appos
341,1942-1943,",",_,_,_,_,_,344,PUNCT,Z,punct
342,1944-1954,Groharjev,LOC[10],_,*->16-1,*[16],_,344,ADJ,Aspfsi,amod
343,1955-1960,cesta,LOC[10],_,*->16-1,*[16],_,341,NOUN,Ncfsi,conj
344,1961-1962,",",_,_,_,_,_,346,PUNCT,Z,punct
345,1963-1973,Gradaščica,_,_,_,_,_,341,PROPN,Npfsa,conj
346,1974-1976,in,_,_,_,_,_,349,CCONJ,Cc,cc
347,1977-1986,jadranski,LOC[11],0,*->17-1,*[17],3 - Nevtralno[23],349,ADJ,Agpfsi,amod
348,1987-1992,ulica,LOC[11],0,*->17-1,*[17],3 - Nevtralno[23],341,NOUN,Ncfsi,conj
349,1993-1996,ter,_,_,_,_,_,352,CCONJ,Cc,cc
350,1997-2000,med,_,_,_,_,_,352,ADP,Si,case
351,2001-2006,ulica,_,_,_,_,_,341,NOUN,Ncfsi,conj
352,2007-2012,Mirja,LOC,0,*->14-2,*[14],3 - Nevtralno,352,PROPN,Npfsn,nmod
353,2013-2014,",",_,_,_,_,_,356,PUNCT,Z,punct
354,2015-2024,barjanski,LOC[12],0,*->18-1,*[18],3 - Nevtralno[24],356,ADJ,Agpfsi,amod
355,2025-2030,cesta,LOC[12],0,*->18-1,*[18],3 - Nevtralno[24],352,NOUN,Ncfsi,conj
356,2031-2032,",",_,_,_,_,_,358,PUNCT,Z,punct
357,2033-2043,Gradaščica,_,_,_,_,_,353,PROPN,Npfsa,conj
358,2044-2046,in,_,_,_,_,_,361,CCONJ,Cc,cc
359,2047-2057,Groharjev,LOC[13],0,*->16-2,*[16],3 - Nevtralno[25],361,ADJ,Aspfsi,amod
360,2058-2063,cesta,LOC[13],0,*->16-2,*[16],3 - Nevtralno[25],356,NOUN,Ncfsa,conj
361,2064-2065,),_,_,_,_,_,356,PUNCT,Z,punct
362,2066-2067,.,_,_,_,_,_,341,PUNCT,Z,punct
363,2068-2069,z,_,_,_,_,_,365,ADP,Si,case
364,2070-2076,klik,_,_,_,_,_,370,NOUN,Ncmsi,obl
365,2077-2079,na,_,_,_,_,_,367,ADP,Sa,case
366,2080-2085,slika,_,_,_,_,_,365,NOUN,Ncfsa,nmod
367,2086-2088,se,_,_,_,_,_,370,PRON,Px---d--y,expl
368,2089-2094,lahko,_,_,_,_,_,370,ADV,Rgp,advmod
369,2095-2103,ogledati,_,_,_,_,_,352,VERB,Vmer2p,acl
370,2104-2108,nov,_,_,_,_,_,372,ADJ,Agpfsa,amod
371,2109-2117,ureditev,_,_,_,_,_,370,NOUN,Ncfsa,obj
372,2118-2129,enosmeren,_,_,_,_,_,374,ADJ,Agpmsg,amod
373,2130-2137,promet,_,_,_,_,_,372,NOUN,Ncmsg,nmod
