idx,chars_idx,token,entity_type,sentiment,idk_1,idk_2,orig_sentiment,heads,upos,xpos,deprel
0,0-9,slovenski,_,_,_,_,_,2,ADJ,Agpmdn,amod
1,10-19,športnik,_,_,_,_,_,8,NOUN,Ncmdn,nsubj
2,20-24,leto,_,_,_,_,_,2,NOUN,Ncnsg,nmod
3,25-28,kot,_,_,_,_,_,6,SCONJ,Cs,case
4,29-37,blagoven,_,_,_,_,_,6,ADJ,Agpfdn,amod
5,38-44,znamka,_,_,_,_,_,2,NOUN,Ncfdn,nmod
6,45-48,biti,_,_,_,_,_,8,AUX,Va-r3d-n,aux
7,49-56,postati,_,_,_,_,_,0,VERB,Vmep-dm,root
8,57-66,smučarski,_,_,*->1-1,*[1],_,10,ADJ,Agpfsn,amod
9,67-75,tekačica,_,_,*->1-1,*[1],_,8,NOUN,Ncfsn,nsubj
10,76-78,in,_,_,_,_,_,12,CCONJ,Cc,cc
11,79-85,boksar,_,_,*->2-1,*[2],_,10,NOUN,Ncmsn,conj
12,86-95,smučarski,_,_,*->1-2,*[1],_,14,ADJ,Agpfsn,amod
13,96-104,tekačica,_,_,*->1-2,*[1],_,12,NOUN,Ncfsn,nmod
14,105-110,Peter,PER[1],_,*->1-2,*[1],_,14,PROPN,Npfsn,nmod
15,111-117,Majdič,PER[1],_,*->1-2,*[1],_,15,PROPN,Npfsn,flat:name
16,118-124,drugič,_,_,_,_,_,18,ADV,Rgp,advmod
17,125-132,zapored,_,_,_,_,_,26,ADV,Rgp,advmod
18,133-135,in,_,_,_,_,_,20,CCONJ,Cc,cc
19,136-142,boksar,_,_,*->2-2,*[2],_,10,NOUN,Ncmsn,conj
20,143-148,Dejan,PER[2],_,*->2-2,*[2],_,20,PROPN,Npmsn,nmod
21,149-154,Zavec,PER[2],_,*->2-2,*[2],_,21,PROPN,Npmsn,flat:name
22,155-158,biti,_,_,_,_,_,26,AUX,Va-r3d-n,cop
23,159-168,dober,_,_,_,_,_,26,ADJ,Agsmdn,amod
24,169-178,slovenski,_,_,_,_,_,26,ADJ,Agpmdn,amod
25,179-188,športnik,_,_,_,_,_,8,NOUN,Ncmdn,nsubj
26,189-193,leto,_,_,_,_,_,26,NOUN,Ncnsg,nmod
27,194-197,kot,_,_,_,_,_,30,SCONJ,Cs,case
28,198-206,blagoven,_,_,_,_,_,30,ADJ,Agpfdn,amod
29,207-213,znamka,_,_,_,_,_,26,NOUN,Ncfdn,obl
30,214-216,po,_,_,_,_,_,32,ADP,Sl,case
31,217-227,kriterij,_,_,_,_,_,30,NOUN,Ncmpl,nmod
32,228-230,in,_,_,_,_,_,34,CCONJ,Cc,cc
33,231-237,anket,_,_,_,_,_,32,NOUN,Ncfsl,conj
34,238-245,Mediana,ORG,_,*->3-1,*[3],_,34,PROPN,Npfsg,nmod
35,246-247,",",_,_,_,_,_,38,PUNCT,Z,punct
36,248-250,biti,_,_,_,_,_,38,AUX,Va-r3p-n,aux
37,251-261,razglasiti,_,_,_,_,_,8,VERB,Vmep-pm,parataxis
38,262-266,prvi,_,_,_,_,_,40,ADJ,Mlomsa,amod
39,267-270,dan,_,_,_,_,_,38,NOUN,Ncmsan,obl
40,271-272,7,_,_,_,_,_,40,NUM,Mdc,nummod
41,273-274,.,_,_,_,_,_,38,PUNCT,Z,punct
42,275-285,mednaroden,_,_,_,_,_,44,ADJ,Agpfsg,amod
43,286-296,konferenca,_,_,_,_,_,38,NOUN,Ncfsg,obj
44,297-298,o,_,_,_,_,_,47,ADP,Sl,case
45,299-307,športen,_,_,_,_,_,47,ADJ,Agpmsl,amod
46,308-318,marketing,_,_,_,_,_,44,NOUN,Ncmsl,nmod
47,319-325,Sporto,_,_,_,_,_,47,PROPN,Npfsn,nmod
48,326-327,",",_,_,_,_,_,55,PUNCT,Z,punct
49,328-330,ki,_,_,_,_,_,55,SCONJ,Cs,mark
50,331-333,se,_,_,_,_,_,55,PRON,Px------y,expl
51,334-336,biti,_,_,_,_,_,55,AUX,Va-f3s-n,aux
52,337-338,v,_,_,_,_,_,54,ADP,Sa,case
53,339-344,torek,_,_,_,_,_,55,NOUN,Ncmsan,obl
54,345-352,končati,_,_,_,_,_,47,VERB,Vmep-sf,acl
55,353-354,v,_,_,_,_,_,57,ADP,Sl,case
56,355-364,Portorož,LOC,0,*->4-1,*[4],3 - Nevtralno,55,PROPN,Npmsl,obl
57,365-366,.,_,_,_,_,_,55,PUNCT,Z,punct
58,367-370,med,_,_,_,_,_,60,ADP,Si,case
59,371-378,ekipa,_,_,_,_,_,63,NOUN,Ncfpi,obl
60,379-381,biti,_,_,_,_,_,63,AUX,Va-r3p-n,aux
61,382-388,drugič,_,_,_,_,_,63,ADV,Rgp,advmod
62,389-393,prvi,_,_,_,_,_,65,ADJ,Mlompn,amod
63,394-398,tudi,_,_,_,_,_,63,PART,Q,advmod
64,399-409,odbojkar,_,_,*->6-1,*[6],_,38,NOUN,Ncmpn,nsubj
65,410-412,iz,_,_,*->6-1,*[6],_,67,ADP,Sg,case
66,413-418,Bleda,LOC,0,*->6-1|*->5-1,*[6]|*[5],3 - Nevtralno,65,PROPN,Npnsg,nmod
67,419-420,",",_,_,_,_,_,69,PUNCT,Z,punct
68,421-426,ekipa,_,_,*->6-2,*[6],_,65,NOUN,Ncfsn,conj
69,427-430,ACH,ORG[3],_,*->6-2,*[6],_,69,PROPN,Npfsg,nmod
70,431-437,Volley,ORG[3],_,*->6-2,*[6],_,70,PROPN,Npfsn,nmod
71,438-439,.,_,_,_,_,_,65,PUNCT,Z,punct
72,440-444,lani,_,_,_,_,_,74,ADV,Rgp,advmod
73,445-452,slaviti,_,_,_,_,_,8,VERB,Vmpp-sf,parataxis
74,453-462,majdičev,PER,_,*->1-3,*[1],_,74,ADJ,Aspfsn,nsubj
75,463-464,",",_,_,_,_,_,77,PUNCT,Z,punct
76,465-471,Kozmus,PER,_,*->7-1,*[7],_,75,PROPN,Npmsn,conj
77,472-474,in,_,_,_,_,_,80,CCONJ,Cc,cc
78,475-480,Union,ORG[4],_,*->8-1,*[8],_,80,PROPN,Npmsn,nmod
79,481-489,Olimpija,ORG[4],_,*->8-1,*[8],_,87,PROPN,Npfsn,nsubj
80,490-491,v,_,_,_,_,_,82,ADP,Sl,case
81,492-498,sklop,_,_,_,_,_,80,NOUN,Ncmsl,nmod
82,499-509,konferenca,_,_,_,_,_,82,NOUN,Ncfsg,nmod
83,510-512,biti,_,_,_,_,_,87,AUX,Va-r3p-n,aux
84,513-520,četrtič,_,_,_,_,_,87,ADV,Rgp,advmod
85,521-528,zapored,_,_,_,_,_,87,ADV,Rgp,advmod
86,529-537,povedati,_,_,_,_,_,74,VERB,Vmep-pm,conj
87,538-539,",",_,_,_,_,_,107,PUNCT,Z,punct
88,540-546,kateri,_,_,_,_,_,91,DET,Pq-mpn,det
89,547-556,slovenski,_,_,_,_,_,91,ADJ,Agpmpn,amod
90,557-566,športnik,_,_,_,_,_,107,NOUN,Ncmpn,nsubj
91,567-568,",",_,_,_,_,_,93,PUNCT,Z,punct
92,569-578,športnica,_,_,_,_,_,91,NOUN,Ncfpn,conj
93,579-581,in,_,_,_,_,_,96,CCONJ,Cc,cc
94,582-589,športen,_,_,_,_,_,96,ADJ,Agpmpn,amod
95,590-595,klub,_,_,_,_,_,91,NOUN,Ncmpn,conj
96,596-598,biti,_,_,_,_,_,96,AUX,Va-r3p-n,cop
97,599-600,v,_,_,_,_,_,100,ADP,Sl,case
98,601-604,ta,_,_,_,_,_,100,DET,Pd-nsl,det
99,605-609,leto,_,_,_,_,_,107,NOUN,Ncnsl,obl
100,610-621,močen,_,_,_,_,_,103,ADJ,Agsfsg,amod
101,622-630,blagoven,_,_,_,_,_,103,ADJ,Agpfsg,amod
102,631-637,znamka,_,_,_,_,_,100,NOUN,Ncfsg,nmod
103,638-639,.,_,_,_,_,_,87,PUNCT,Z,punct
104,640-644,lani,_,_,_,_,_,107,ADV,Rgp,advmod
105,645-647,biti,_,_,_,_,_,107,AUX,Va-r3p-n,aux
106,648-655,slaviti,_,_,_,_,_,8,VERB,Vmpp-pm,parataxis
107,656-661,Peter,PER[5],_,*->1-4,*[1],_,107,PROPN,Npmsay,obj
108,662-668,Majdič,PER[5],_,*->1-4,*[1],_,108,PROPN,Npmsay,flat:name
109,669-670,",",_,_,_,_,_,111,PUNCT,Z,punct
110,671-676,atlet,_,_,*->7-2,*[7],_,108,NOUN,Ncmsn,appos
111,677-683,Primož,PER[6],_,*->7-2,*[7],_,111,PROPN,Npmsn,nmod
112,684-690,Kozmus,PER[6],_,*->7-2,*[7],_,112,PROPN,Npmsn,flat:name
113,691-693,in,_,_,_,_,_,115,CCONJ,Cc,cc
114,694-704,košarkar,_,_,*->8-2,*[8],_,108,NOUN,Ncmpn,conj
115,705-710,Union,ORG[7],_,*->8-2,*[8],_,117,PROPN,Npmsn,nmod
116,711-719,Olimpija,ORG[7],_,*->8-2,*[8],_,115,PROPN,Npfsg,nmod
117,720-721,.,_,_,_,_,_,107,PUNCT,Z,punct
118,722-725,pri,_,_,_,_,_,120,ADP,Sl,case
119,726-735,raziskava,_,_,_,_,_,107,NOUN,Ncfsl,obl
120,736-737,",",_,_,_,_,_,124,PUNCT,Z,punct
121,738-740,ki,_,_,_,_,_,124,SCONJ,Cs,mark
122,741-743,on,_,_,_,_,_,124,PRON,Pp3fsa--y,obj
123,744-754,pripravljati,_,_,_,_,_,120,VERB,Vmpr3s,acl
124,755-762,Median,ORG,_,*->3-2,*[3],_,124,PROPN,Npfsn,nsubj
125,763-764,v,_,_,_,_,_,127,ADP,Sl,case
126,765-776,sodelovanje,_,_,_,_,_,124,NOUN,Ncnsl,obl
127,777-778,z,_,_,_,_,_,129,ADP,Si,case
128,779-793,organizator,_,_,_,_,_,127,NOUN,Ncmsi,nmod
129,794-804,konferenca,_,_,_,_,_,129,NOUN,Ncfsg,nmod
130,805-806,",",_,_,_,_,_,124,PUNCT,Z,punct
131,807-809,se,_,_,_,_,_,134,PRON,Px------y,expl
132,810-812,ne,_,_,_,_,_,134,PART,Q,advmod
133,813-823,upoštevati,_,_,_,_,_,8,VERB,Vmbr3p,parataxis
134,824-829,zgolj,_,_,_,_,_,134,PART,Q,advmod
135,830-837,dosežek,_,_,_,_,_,134,NOUN,Ncmpn,nsubj
136,838-840,na,_,_,_,_,_,139,ADP,Sl,case
137,841-849,športen,_,_,_,_,_,139,ADJ,Agpnsl,amod
138,850-858,področje,_,_,_,_,_,136,NOUN,Ncnsl,nmod
139,859-860,",",_,_,_,_,_,134,PUNCT,Z,punct
140,861-867,temveč,_,_,_,_,_,143,CCONJ,Cc,cc
141,868-872,tudi,_,_,_,_,_,141,PART,Q,fixed
142,873-881,element,_,_,_,_,_,136,NOUN,Ncmpn,conj
143,882-883,",",_,_,_,_,_,147,PUNCT,Z,punct
144,884-886,ki,_,_,_,_,_,147,SCONJ,Cs,mark
145,887-889,biti,_,_,_,_,_,147,AUX,Va-r3p-n,cop
146,890-896,vezan,_,_,_,_,_,143,ADJ,Appmpn,acl
147,897-899,na,_,_,_,_,_,149,ADP,Sa,case
148,900-908,osebnost,_,_,_,_,_,147,NOUN,Ncfsa,obl
149,909-910,",",_,_,_,_,_,151,PUNCT,Z,punct
150,911-924,prepoznavnost,_,_,_,_,_,149,NOUN,Ncfsa,conj
151,925-934,športnik,_,_,_,_,_,151,NOUN,Ncmsg,nmod
152,935-936,",",_,_,_,_,_,154,PUNCT,Z,punct
153,937-946,športnica,_,_,_,_,_,152,NOUN,Ncfsg,conj
154,947-954,oziroma,_,_,_,_,_,157,CCONJ,Cc,cc
155,955-964,športen,_,_,_,_,_,157,ADJ,Agpmsg,amod
156,965-970,klub,_,_,_,_,_,152,NOUN,Ncmsg,conj
157,971-972,.,_,_,_,_,_,134,PUNCT,Z,punct
158,973-976,med,_,_,_,_,_,160,ADP,Si,case
159,977-985,peterica,_,_,_,_,_,162,NOUN,Ncfsi,obl
160,986-990,tudi,_,_,_,_,_,162,PART,Q,advmod
161,991-996,Pegan,PER,_,*->9-1,*[9],_,157,PROPN,Npmsn,appos
162,997-999,in,_,_,_,_,_,164,CCONJ,Cc,cc
163,1000-1007,Kopitar,PER,_,*->10-1,*[10],_,162,PROPN,Npmsn,conj
164,1008-1013,izmed,_,_,_,_,_,169,ADP,Sg,case
165,1014-1019,okrog,_,_,_,_,_,167,ADV,Rgp,advmod
166,1020-1022,60,_,_,_,_,_,169,NUM,Mdc,nummod
167,1023-1033,slovenski,_,_,_,_,_,169,ADJ,Agpmpg,amod
168,1034-1044,športnik,_,_,_,_,_,164,NOUN,Ncmpg,nmod
169,1045-1047,in,_,_,_,_,_,171,CCONJ,Cc,cc
170,1048-1056,športnica,_,_,_,_,_,169,NOUN,Ncfpg,conj
171,1057-1060,ter,_,_,_,_,_,177,CCONJ,Cc,cc
172,1061-1070,približno,_,_,_,_,_,174,ADV,Rgp,advmod
173,1071-1073,20,_,_,_,_,_,177,NUM,Mdc,nummod
174,1074-1084,slovenski,_,_,_,_,_,177,ADJ,Agpmpg,amod
175,1085-1093,športen,_,_,_,_,_,177,ADJ,Agpmpg,amod
176,1094-1100,klub,_,_,_,_,_,169,NOUN,Ncmpg,conj
177,1101-1102,",",_,_,_,_,_,182,PUNCT,Z,punct
178,1103-1105,ki,_,_,_,_,_,182,SCONJ,Cs,mark
179,1106-1108,biti,_,_,_,_,_,182,AUX,Va-r3p-n,aux
180,1109-1112,on,_,_,_,_,_,182,PRON,Pp3mpa--y,obj
181,1113-1119,zajeti,_,_,_,_,_,177,VERB,Vmep-pm,acl
182,1120-1121,v,_,_,_,_,_,184,ADP,Sa,case
183,1122-1131,raziskava,_,_,_,_,_,182,NOUN,Ncfsa,obl
184,1132-1133,",",_,_,_,_,_,182,PUNCT,Z,punct
185,1134-1136,se,_,_,_,_,_,193,PRON,Px------y,expl
186,1137-1139,biti,_,_,_,_,_,193,AUX,Va-r3s-n,aux
187,1140-1143,med,_,_,_,_,_,192,ADP,Si,case
188,1144-1146,po,_,_,_,_,_,192,ADP,Sa,case
189,1147-1150,pet,_,_,_,_,_,192,NUM,Mlc-pa,nummod
190,1151-1160,letošnji,_,_,_,_,_,192,ADJ,Agpmpg,amod
191,1161-1171,finalist,_,_,_,_,_,193,NOUN,Ncmpg,obl
192,1172-1180,uvrstiti,_,_,_,_,_,8,VERB,Vmep-sn,parataxis
193,1181-1184,pri,_,_,_,_,_,195,ADP,Sl,case
194,1185-1195,športnik,_,_,_,_,_,193,NOUN,Ncmpl,obl
195,1196-1201,Aljaž,PER[8],1,*->9-2,*[9],4 - Pozitivno[28],195,PROPN,Npmsn,nmod
196,1202-1207,Pegan,PER[8],1,*->9-2,*[9],4 - Pozitivno[28],196,PROPN,Npmsn,flat:name
197,1208-1209,",",_,_,_,_,_,199,PUNCT,Z,punct
198,1210-1214,Anže,PER[9],1,*->10-2,*[10],4 - Pozitivno[29],196,PROPN,Npmsn,conj
199,1215-1222,Kopitar,PER[9],1,*->10-2,*[10],4 - Pozitivno[29],199,PROPN,Npmsn,flat:name
200,1223-1224,",",_,_,_,_,_,202,PUNCT,Z,punct
201,1225-1230,Dejan,PER[10],1,*->2-3,*[2],4 - Pozitivno[30],196,PROPN,Npmsn,conj
202,1231-1236,Zavec,PER[10],1,*->2-3,*[2],4 - Pozitivno[30],202,PROPN,Npmsn,flat:name
203,1237-1238,",",_,_,_,_,_,205,PUNCT,Z,punct
204,1239-1245,Primož,PER[11],1,*->7-3,*[7],4 - Pozitivno[31],196,PROPN,Npmsn,conj
205,1246-1252,Kozmus,PER[11],1,*->7-3,*[7],4 - Pozitivno[31],205,PROPN,Npmsn,flat:name
206,1253-1255,in,_,_,_,_,_,208,CCONJ,Cc,cc
207,1256-1261,Samir,PER[12],1,*->11-1,*[11],4 - Pozitivno[32],196,PROPN,Npmsn,conj
208,1262-1272,Handanović,PER[12],1,*->11-1,*[11],4 - Pozitivno[32],208,PROPN,Npmsn,flat:name
209,1273-1274,",",_,_,_,_,_,205,PUNCT,Z,punct
210,1275-1278,pri,_,_,_,_,_,212,ADP,Sl,case
211,1279-1289,športnica,_,_,_,_,_,208,NOUN,Ncfpl,nmod
212,1290-1298,Katarina,PER[13],1,*->12-1,*[12],4 - Pozitivno[33],208,PROPN,Npfsn,nmod
213,1299-1308,Srebotnik,PER[13],1,*->12-1,*[12],4 - Pozitivno[33],213,PROPN,Npfsn,flat:name
214,1309-1310,",",_,_,_,_,_,216,PUNCT,Z,punct
215,1311-1316,Peter,PER[14],1,*->1-5,*[1],4 - Pozitivno[34],213,PROPN,Npfsn,conj
216,1317-1323,Majdič,PER[14],1,*->1-5,*[1],4 - Pozitivno[34],216,PROPN,Npfsn,flat:name
217,1324-1325,",",_,_,_,_,_,219,PUNCT,Z,punct
218,1326-1330,Sara,PER[15],1,*->13-1,*[13],4 - Pozitivno[35],213,PROPN,Npfsn,conj
219,1331-1339,Isakovič,PER[15],1,*->13-1,*[13],4 - Pozitivno[35],219,PROPN,Npfsn,flat:name
220,1340-1341,",",_,_,_,_,_,222,PUNCT,Z,punct
221,1342-1346,Tina,PER[16],1,*->14-1,*[14],4 - Pozitivno[36],213,PROPN,Npfsn,conj
222,1347-1351,Maza,PER[16],1,*->14-1,*[14],4 - Pozitivno[36],222,PROPN,Npfsn,flat:name
223,1352-1354,in,_,_,_,_,_,225,CCONJ,Cc,cc
224,1355-1360,Urška,PER[17],1,*->15-1,*[15],4 - Pozitivno[37],196,PROPN,Npfsn,conj
225,1361-1367,Žolnir,PER[17],1,*->15-1,*[15],4 - Pozitivno[37],225,PROPN,Npfsn,flat:name
226,1368-1369,",",_,_,_,_,_,231,PUNCT,Z,punct
227,1370-1373,pri,_,_,_,_,_,229,ADP,Sl,case
228,1374-1380,klub,_,_,_,_,_,232,NOUN,Ncmpl,appos
229,1381-1383,pa,_,_,_,_,_,231,CCONJ,Cc,cc
230,1384-1390,Acroni,ORG[18],1,*->16-1,*[16],4 - Pozitivno[38],225,PROPN,Npmsn,appos
231,1391-1399,Jesenice,ORG[18]|LOC[19],0,*->16-1|*->23-1,*[16]|*[23],4 - Pozitivno[38]|3 - Nevtralno[39],231,PROPN,Npfpn,nmod
232,1400-1401,",",_,_,_,_,_,235,PUNCT,Z,punct
233,1402-1407,Union,ORG[20],1,*->8-3,*[8],4 - Pozitivno[40],235,PROPN,Npmsn,nmod
234,1408-1416,Olimpija,ORG[20],1,*->8-3,*[8],4 - Pozitivno[40],232,PROPN,Npfsn,conj
235,1417-1418,",",_,_,_,_,_,237,PUNCT,Z,punct
236,1419-1421,NK,ORG[21],1,*->17-1,*[17],4 - Pozitivno[41],238,PROPN,Npmsn,nmod
237,1422-1429,Maribor,ORG[21]|LOC[22],0,*->17-1|*->22-1,*[17]|*[22],4 - Pozitivno[41]|3 - Nevtralno[42],235,PROPN,Npmsn,conj
238,1430-1431,",",_,_,_,_,_,240,PUNCT,Z,punct
239,1432-1435,ACH,ORG[23],1,*->6-3,*[6],4 - Pozitivno[43],238,PROPN,Npmsn,nmod
240,1436-1442,Volley,ORG[23],1,*->6-3,*[6],4 - Pozitivno[43],240,PROPN,Npmsn,nmod
241,1443-1445,in,_,_,_,_,_,244,CCONJ,Cc,cc
242,1446-1451,Celje,ORG[24]|LOC[25],0,*->18-1|*->19-1,*[18]|*[19],4 - Pozitivno[44]|3 - Nevtralno[45],244,PROPN,Npnsn,nmod
243,1452-1461,pivovarna,ORG[24]|ORG[26],0,*->18-1|*->21-1,*[18]|*[21],4 - Pozitivno[44]|3 - Nevtralno[46],241,NOUN,Ncfsn,conj
244,1462-1467,Laško,ORG[24]|ORG[26]|LOC[27],0,*->18-1|*->21-1|*->20-1,*[18]|*[21]|*[20],4 - Pozitivno[44]|3 - Nevtralno[46]|3 - Nevtralno[47],244,PROPN,Npnsn,nmod
245,1468-1469,.,_,_,_,_,_,231,PUNCT,Z,punct
246,1470-1482,raziskovalec,_,_,_,_,_,244,NOUN,Ncmpn,nmod
247,1483-1490,Mediana,ORG,_,*->3-3,*[3],_,247,PROPN,Npfsg,nmod
248,1491-1492,",",_,_,_,_,_,250,PUNCT,Z,punct
249,1493-1502,inštitut,_,0,*->3-4,*[3],3 - Nevtralno[48],248,NOUN,Ncmsg,conj
250,1503-1505,za,_,0,*->3-4,*[3],3 - Nevtralno[48],252,ADP,Sa,case
251,1506-1518,raziskovanje,_,0,*->3-4,*[3],3 - Nevtralno[48],250,NOUN,Ncnsa,nmod
252,1519-1523,trg,_,0,*->3-4,*[3],3 - Nevtralno[48],252,NOUN,Ncmsg,nmod
253,1524-1526,in,_,0,*->3-4,*[3],3 - Nevtralno[48],255,CCONJ,Cc,cc
254,1527-1534,medij,_,0,*->3-4,*[3],3 - Nevtralno[48],253,NOUN,Ncmpg,conj
255,1535-1536,",",_,_,_,_,_,250,PUNCT,Z,punct
256,1537-1539,biti,_,_,_,_,_,263,AUX,Va-r3p-n,aux
257,1540-1548,vrednost,_,_,_,_,_,263,NOUN,Ncfsa,obj
258,1549-1557,blagoven,_,_,_,_,_,260,ADJ,Agpfsg,amod
259,1558-1564,znamka,_,_,_,_,_,258,NOUN,Ncfsg,nmod
260,1565-1576,posamezen,_,_,_,_,_,262,ADJ,Agpmsg,amod
261,1577-1586,športnik,_,_,_,_,_,260,NOUN,Ncmsg,nmod
262,1587-1597,izračunati,_,_,_,_,_,8,VERB,Vmep-pm,parataxis
263,1598-1600,na,_,_,_,_,_,265,ADP,Sl,case
264,1601-1608,podlaga,_,_,_,_,_,263,NOUN,Ncfsl,obl
265,1609-1619,naslednji,_,_,_,_,_,267,ADJ,Agpmpg,amod
266,1620-1630,kriterij,_,_,_,_,_,265,NOUN,Ncmpg,nmod
267,1631-1632,:,_,_,_,_,_,269,PUNCT,Z,punct
268,1633-1647,prepoznavnost,_,_,_,_,_,265,NOUN,Ncfsg,nmod
269,1648-1657,športnik,_,_,_,_,_,269,NOUN,Ncmsg,nmod
270,1658-1659,",",_,_,_,_,_,273,PUNCT,Z,punct
271,1660-1671,tekmovalen,_,_,_,_,_,273,ADJ,Agpmpg,amod
272,1672-1680,dosežek,_,_,_,_,_,270,NOUN,Ncmpg,conj
273,1681-1682,",",_,_,_,_,_,275,PUNCT,Z,punct
274,1683-1694,vrhunskost,_,_,_,_,_,270,NOUN,Ncfsg,conj
275,1695-1696,v,_,_,_,_,_,278,ADP,Sl,case
276,1697-1705,svetoven,_,_,_,_,_,278,ADJ,Agpfsl,amod
277,1706-1716,konkurenca,_,_,_,_,_,275,NOUN,Ncfsl,nmod
278,1717-1718,",",_,_,_,_,_,280,PUNCT,Z,punct
279,1719-1731,zadovoljstvo,_,_,_,_,_,270,NOUN,Ncnsg,conj
280,1732-1733,z,_,_,_,_,_,283,ADP,Si,case
281,1734-1743,njihov,_,_,_,_,_,283,DET,Ps3mpip,det
282,1744-1753,rezultat,_,_,_,_,_,280,NOUN,Ncmpi,nmod
283,1754-1757,ali,_,_,_,_,_,285,CCONJ,Cc,cc
284,1758-1772,nezadovoljstvo,_,_,_,_,_,283,NOUN,Ncnsg,conj
285,1773-1778,kljub,_,_,_,_,_,288,ADP,Sd,case
286,1779-1789,relativen,_,_,_,_,_,288,ADJ,Agpmpd,amod
287,1790-1797,uspeh,_,_,_,_,_,285,NOUN,Ncmpd,nmod
288,1798-1799,",",_,_,_,_,_,290,PUNCT,Z,punct
289,1800-1805,ocena,_,_,_,_,_,288,NOUN,Ncfpa,conj
290,1806-1815,osebnost,_,_,_,_,_,290,NOUN,Ncfsg,nmod
291,1816-1820,prek,_,_,_,_,_,294,ADP,Sg,case
292,1821-1827,javen,_,_,_,_,_,294,ADJ,Agpmpg,amod
293,1828-1836,nastop,_,_,_,_,_,290,NOUN,Ncmpg,nmod
294,1837-1839,in,_,_,_,_,_,297,CCONJ,Cc,cc
295,1840-1843,kot,_,_,_,_,_,297,SCONJ,Cs,case
296,1844-1848,tema,_,_,_,_,_,294,NOUN,Ncfpn,conj
297,1849-1859,vsakdanji,_,_,_,_,_,299,ADJ,Agpmpg,amod
298,1860-1869,pogovor,_,_,_,_,_,297,NOUN,Ncmpg,nmod
299,1870-1873,med,_,_,_,_,_,301,ADP,Si,case
300,1874-1880,človek,_,_,_,_,_,299,NOUN,Ncmpi,nmod
301,1881-1882,",",_,_,_,_,_,309,PUNCT,Z,punct
302,1883-1884,v,_,_,_,_,_,304,ADP,Sl,case
303,1885-1892,primer,_,_,_,_,_,299,NOUN,Ncmsl,nmod
304,1893-1899,klub,_,_,_,_,_,304,NOUN,Ncmpg,nmod
305,1900-1902,pa,_,_,_,_,_,309,CCONJ,Cc,advmod
306,1903-1907,tudi,_,_,_,_,_,309,PART,Q,advmod
307,1908-1917,navijaški,_,_,_,_,_,309,ADJ,Agpfpn,amod
308,1918-1927,vrednost,_,_,_,_,_,304,NOUN,Ncfpn,conj
