idx,chars_idx,token,entity_type,sentiment,idk_1,idk_2,orig_sentiment,heads,upos,xpos,deprel
0,0-7,najbolj,_,_,_,_,_,2,ADV,Rgs,advmod
1,8-18,razširjen,_,_,_,_,_,42,ADJ,Appnsn,obl
2,19-21,biti,_,_,_,_,_,2,AUX,Va-r3s-n,cop
3,22-34,podkupovanje,_,_,_,_,_,2,NOUN,Ncnsn,nsubj
4,35-44,uradnik,_,_,_,_,_,4,NOUN,Ncmpg,nmod
5,45-46,v,_,_,_,_,_,7,ADP,Sl,case
6,47-50,Bih,LOC,_,*->1-1,*[1],_,5,PROPN,Npfsl,nmod
7,51-52,",",_,_,_,_,_,14,PUNCT,Z,punct
8,53-57,kjer,_,_,_,_,_,14,SCONJ,Cs,mark
9,58-60,se,_,_,_,_,_,14,PRON,Px------y,expl
10,61-63,biti,_,_,_,_,_,14,AUX,Va-r3s-n,aux
11,64-65,z,_,_,_,_,_,13,ADP,Si,case
12,66-70,on,_,_,_,_,_,14,PRON,Pp3msi,obl
13,71-78,srečati,_,_,_,_,_,4,VERB,Vmep-sn,acl
14,79-84,nekaj,_,_,_,_,_,16,DET,Rgp,advmod
15,85-88,več,_,_,_,_,_,19,DET,Rgc,advmod
16,89-92,kot,_,_,_,_,_,16,SCONJ,Cs,fixed
17,93-95,20,_,_,_,_,_,19,NUM,Mdc,nummod
18,96-105,odstotek,_,_,_,_,_,14,NOUN,Ncmpg,nsubj
19,106-118,prebivalstvo,_,_,_,_,_,19,NOUN,Ncnsg,nmod
20,119-120,",",_,_,_,_,_,14,PUNCT,Z,punct
21,121-122,z,_,_,_,_,_,24,ADP,Si,case
22,123-127,"19,3",_,_,_,_,_,24,NUM,Mdc,nummod
23,128-136,odstotek,_,_,_,_,_,27,NOUN,Ncmsg,obl
24,137-139,pa,_,_,_,_,_,27,CCONJ,Cc,advmod
25,140-142,on,_,_,_,_,_,27,PRON,Pp3fsd--y,obj
26,143-148,slediti,_,_,_,_,_,2,VERB,Vmpr3s,parataxis
27,149-157,Albanija,LOC,_,*->2-1,*[2],_,27,PROPN,Npfsn,nsubj
28,158-164,dober,_,_,_,_,_,31,ADJ,Agpmpg,amod
29,165-167,12,_,_,_,_,_,31,NUM,Mdc,nummod
30,168-177,odstotek,_,_,_,_,_,28,NOUN,Ncmpg,nmod
31,178-189,prebivalec,_,_,_,_,_,31,NOUN,Ncmpg,nmod
32,190-195,država,_,_,_,_,_,32,NOUN,Ncfpg,nmod
33,196-205,zahoden,_,_,_,_,_,35,ADJ,Agpmsg,amod
34,206-213,Balkan,LOC,_,*->3-1,*[3],_,33,PROPN,Npmsg,nmod
35,214-216,biti,_,_,_,_,_,42,AUX,Va-r3s-n,aux
36,217-218,v,_,_,_,_,_,39,ADP,Sl,case
37,219-228,pretekel,_,_,_,_,_,39,ADJ,Appnsl,amod
38,229-233,leto,_,_,_,_,_,42,NOUN,Ncnsl,obl
39,234-238,vsaj,_,_,_,_,_,42,PART,Q,advmod
40,239-245,enkrat,_,_,_,_,_,42,ADV,Rgp,advmod
41,246-250,dati,_,_,_,_,_,0,VERB,Vmep-sn,root
42,251-261,podkupnina,_,_,_,_,_,42,NOUN,Ncfsa,obj
43,262-270,državen,_,_,_,_,_,45,ADJ,Agpmpd,amod
44,271-280,uradnik,_,_,_,_,_,42,NOUN,Ncmpd,iobj
45,281-282,",",_,_,_,_,_,47,PUNCT,Z,punct
46,283-293,razkrivati,_,_,_,_,_,42,VERB,Vmpr3p,conj
47,294-299,danes,_,_,_,_,_,49,ADV,Rgp,advmod
48,300-310,objavljen,_,_,_,_,_,50,ADJ,Appmpn,amod
49,311-320,rezultat,_,_,_,_,_,47,NOUN,Ncmpn,nsubj
50,321-330,raziskava,_,_,_,_,_,50,NOUN,Ncfsg,nmod
51,331-336,urada,ORG[1],_,*->5-1,*[5],_,51,NOUN,Ncmsg,nmod
52,337-339,ZN,ORG[1]|ORG[2],0,*->5-1|*->4-1,*[5]|*[4],3 - Nevtralno,52,PROPN,Npmsg,nmod
53,340-342,za,ORG[1],_,*->5-1,*[5],_,55,ADP,Sa,case
54,343-348,droga,ORG[1],_,*->5-1,*[5],_,52,NOUN,Ncfpa,nmod
55,349-351,in,ORG[1],_,*->5-1,*[5],_,57,CCONJ,Cc,cc
56,352-360,kriminal,ORG[1],_,*->5-1,*[5],_,55,NOUN,Ncmsan,conj
57,361-362,(,_,_,_,_,_,59,PUNCT,Z,punct
58,363-368,Unodc,ORG,0,*->5-2,*[5],3 - Nevtralno,55,PROPN,Npmsn,appos
59,369-370,),_,_,_,_,_,59,PUNCT,Z,punct
60,371-373,in,_,_,_,_,_,63,CCONJ,Cc,cc
61,374-382,evropski,ORG[3],0,*->6-1,*[6],3 - Nevtralno[7],63,ADJ,Agpfsg,amod
62,383-391,komisija,ORG[3],0,*->6-1,*[6],3 - Nevtralno[7],55,NOUN,Ncfsg,conj
63,392-393,.,_,_,_,_,_,59,PUNCT,Z,punct
64,394-400,znesek,_,_,_,_,_,71,NOUN,Ncmsn,nsubj
65,401-410,povprečen,_,_,_,_,_,67,ADJ,Agpfsg,amod
66,411-421,podkupnina,_,_,_,_,_,65,NOUN,Ncfsg,nmod
67,422-424,pa,_,_,_,_,_,71,CCONJ,Cc,advmod
68,425-427,biti,_,_,_,_,_,71,AUX,Va-r3s-n,aux
69,428-432,lani,_,_,_,_,_,71,ADV,Rgp,advmod
70,433-439,znašati,_,_,_,_,_,47,VERB,Vmpp-sm,parataxis
71,440-443,257,_,_,_,_,_,73,NUM,Mdc,nummod
72,444-449,evro,_,_,_,_,_,71,NOUN,Ncmpg,obl
73,450-451,.,_,_,_,_,_,71,PUNCT,Z,punct
74,452-453,v,_,_,_,_,_,76,ADP,Sl,case
75,454-463,raziskava,_,_,_,_,_,78,NOUN,Ncfsl,obl
76,464-466,biti,_,_,_,_,_,78,AUX,Va-r3s-n,aux
77,467-477,sodelovati,_,_,_,_,_,71,VERB,Vmpp-sn,parataxis
78,478-480,28,_,_,_,_,_,81,NUM,Mdc,nummod
79,481-486,tisoč,_,_,_,_,_,79,NUM,Mlc-pa,flat
80,487-491,oseba,_,_,_,_,_,71,NOUN,Ncfpg,obj
81,492-494,iz,_,_,_,_,_,83,ADP,Sg,case
82,495-503,Albanija,LOC,_,*->2-2,*[2],_,81,PROPN,Npfsg,nmod
83,504-505,",",_,_,_,_,_,85,PUNCT,Z,punct
84,506-511,Bosna,LOC[4],_,*->1-2,*[1],_,83,PROPN,Npfsg,conj
85,512-514,in,LOC[4],_,*->1-2,*[1],_,87,CCONJ,Cc,cc
86,515-526,Hercegovine,LOC[4],_,*->1-2,*[1],_,83,PROPN,Npfsg,conj
87,527-528,",",_,_,_,_,_,90,PUNCT,Z,punct
88,529-533,črn,LOC[5],_,*->7-1,*[7],_,90,ADJ,Agpfsg,amod
89,534-538,gora,LOC[5],_,*->7-1,*[7],_,83,NOUN,Ncfsg,conj
90,539-540,",",_,_,_,_,_,92,PUNCT,Z,punct
91,541-548,Hrvaška,LOC,_,*->8-1,*[8],_,83,PROPN,Npfsg,conj
92,549-550,",",_,_,_,_,_,94,PUNCT,Z,punct
93,551-557,Kosovo,LOC,_,*->9-1,*[9],_,83,PROPN,Npnsg,conj
94,558-559,",",_,_,_,_,_,96,PUNCT,Z,punct
95,560-570,Makedonija,LOC,_,*->10-1,*[10],_,83,PROPN,Npfsg,conj
96,571-573,in,_,_,_,_,_,98,CCONJ,Cc,cc
97,574-580,Srbija,LOC,_,*->11-1,*[11],_,83,PROPN,Npfsg,conj
98,581-582,.,_,_,_,_,_,78,PUNCT,Z,punct
99,583-587,eden,_,_,_,_,_,78,NUM,Mlpmsn,nsubj
100,588-590,od,_,_,_,_,_,103,ADP,Sg,case
101,591-599,ključen,_,_,_,_,_,103,ADJ,Agpmpg,amod
102,600-610,zaključek,_,_,_,_,_,100,NOUN,Ncmpg,nmod
103,611-612,",",_,_,_,_,_,108,PUNCT,Z,punct
104,613-615,do,_,_,_,_,_,106,ADP,Sg,case
105,616-624,kateri,_,_,_,_,_,108,DET,Pq-msg,obl
106,625-627,biti,_,_,_,_,_,108,AUX,Va-r3p-n,aux
107,628-634,priti,_,_,_,_,_,103,VERB,Vmep-pm,acl
108,635-647,raziskovalec,_,_,_,_,_,108,NOUN,Ncmpn,nsubj
109,648-649,",",_,_,_,_,_,108,PUNCT,Z,punct
110,650-652,pa,_,_,_,_,_,123,CCONJ,Cc,advmod
111,653-655,biti,_,_,_,_,_,123,AUX,Va-r3s-n,cop
112,656-657,",",_,_,_,_,_,123,PUNCT,Z,punct
113,658-660,da,_,_,_,_,_,123,SCONJ,Cs,mark
114,661-663,biti,_,_,_,_,_,123,AUX,Va-r3s-n,cop
115,664-673,korupcija,_,_,_,_,_,123,NOUN,Ncfsn,nsubj
116,674-679,poleg,_,_,_,_,_,118,ADP,Sg,case
117,680-688,revščina,_,_,_,_,_,123,NOUN,Ncfsg,obl
118,689-691,in,_,_,_,_,_,121,CCONJ,Cc,cc
119,692-698,visok,_,_,_,_,_,121,ADJ,Agpfsg,amod
120,699-704,raven,_,_,_,_,_,118,NOUN,Ncfsg,conj
121,705-719,nezaposlenost,_,_,_,_,_,121,NOUN,Ncfsg,nmod
122,720-724,eden,_,_,_,_,_,108,NUM,Mlpmsn,conj
123,725-727,od,_,_,_,_,_,126,ADP,Sg,case
124,728-740,revesen,_,_,_,_,_,126,ADJ,Agsmpg,amod
125,741-750,problem,_,_,_,_,_,123,NOUN,Ncmpg,nmod
126,751-752,",",_,_,_,_,_,129,PUNCT,Z,punct
127,753-755,ki,_,_,_,_,_,129,SCONJ,Cs,mark
128,756-763,pestiti,_,_,_,_,_,126,VERB,Vmpr3p,acl
129,764-771,zahoden,_,_,_,_,_,131,ADJ,Agpmsay,amod
130,772-778,Balkan,LOC,2,*->3-2,*[3],2 - Negativno,129,PROPN,Npmsan,obj
131,779-780,.,_,_,_,_,_,123,PUNCT,Z,punct
132,781-788,najbolj,_,_,_,_,_,134,ADV,Rgs,advmod
133,789-799,razširjen,_,_,_,_,_,123,ADJ,Appnsn,amod
134,800-802,biti,_,_,_,_,_,134,AUX,Va-r3s-n,cop
135,803-815,podkupovanje,_,_,_,_,_,134,NOUN,Ncnsn,nsubj
136,816-825,uradnik,_,_,_,_,_,136,NOUN,Ncmpg,nmod
137,826-827,v,_,_,_,_,_,139,ADP,Sl,case
138,828-831,Bih,LOC,_,*->1-3,*[1],_,137,PROPN,Npfsl,nmod
139,832-833,",",_,_,_,_,_,146,PUNCT,Z,punct
140,834-838,kjer,_,2,*->1-4,*[1],2 - Negativno,146,SCONJ,Cs,mark
141,839-841,se,_,_,_,_,_,146,PRON,Px------y,expl
142,842-844,biti,_,_,_,_,_,146,AUX,Va-r3s-n,aux
143,845-846,z,_,_,_,_,_,145,ADP,Si,case
144,847-851,on,_,_,_,_,_,146,PRON,Pp3msi,obl
145,852-859,srečati,_,_,_,_,_,139,VERB,Vmep-sn,acl
146,860-865,nekaj,_,_,_,_,_,148,DET,Rgp,advmod
147,866-869,več,_,_,_,_,_,151,DET,Rgc,advmod
148,870-873,kot,_,_,_,_,_,148,SCONJ,Cs,fixed
149,874-876,20,_,_,_,_,_,151,NUM,Mdc,nummod
150,877-886,odstotek,_,_,_,_,_,146,NOUN,Ncmpg,nsubj
151,887-899,prebivalstvo,_,_,_,_,_,151,NOUN,Ncnsg,nmod
152,900-901,",",_,_,_,_,_,146,PUNCT,Z,punct
153,902-903,z,_,_,_,_,_,156,ADP,Si,case
154,904-908,"19,3",_,_,_,_,_,156,NUM,Mdc,nummod
155,909-917,odstotek,_,_,_,_,_,159,NOUN,Ncmsg,obl
156,918-920,pa,_,_,_,_,_,159,CCONJ,Cc,advmod
157,921-923,on,_,_,_,_,_,159,PRON,Pp3fsd--y,obj
158,924-929,slediti,_,_,_,_,_,134,VERB,Vmpr3s,advcl
159,930-938,Albanija,LOC,_,*->2-3,*[2],_,159,PROPN,Npfsn,nsubj
160,939-940,.,_,_,_,_,_,159,PUNCT,Z,punct
161,941-950,povprečen,_,_,_,_,_,163,ADJ,Agpfsn,amod
162,951-961,podkupnina,_,_,_,_,_,166,NOUN,Ncfsn,nsubj
163,962-963,v,_,_,_,_,_,165,ADP,Sl,case
164,964-972,Albanija,LOC,_,*->2-4,*[2],_,163,PROPN,Npfsl,nmod
165,973-978,znašati,_,_,_,_,_,159,VERB,Vmpr3s,advcl
166,979-982,103,_,_,_,_,_,168,NUM,Mdc,nummod
167,983-987,evro,_,_,_,_,_,172,NOUN,Ncmpa,obl
168,988-995,najmanj,_,_,_,_,_,172,ADV,Rgs,advmod
169,996-998,biti,_,_,_,_,_,172,AUX,Va-r3p-n,cop
170,999-1009,podkupnina,_,_,_,_,_,172,NOUN,Ncfpn,nsubj
171,1010-1022,priljubljen,_,_,_,_,_,166,ADJ,Agpfpn,conj
172,1023-1024,v,_,_,_,_,_,174,ADP,Sl,case
173,1025-1035,Makedonija,LOC,_,*->10-2,*[10],_,172,PROPN,Npfsl,obl
174,1036-1037,",",_,_,_,_,_,187,PUNCT,Z,punct
175,1038-1042,kjer,_,_,*->10-3,*[10],_,187,SCONJ,Cs,mark
176,1043-1045,se,_,_,_,_,_,187,PRON,Px------y,expl
177,1046-1048,biti,_,_,_,_,_,187,AUX,Va-r3s-n,aux
178,1049-1050,k,_,_,_,_,_,181,ADP,Sd,case
179,1051-1055,ta,_,_,_,_,_,181,DET,Pd-msd,det
180,1056-1062,način,_,_,_,_,_,187,NOUN,Ncmsd,obl
181,1063-1074,sodelovanje,_,_,_,_,_,181,NOUN,Ncnsg,nmod
182,1075-1076,z,_,_,_,_,_,185,ADP,Si,case
183,1077-1086,državen,_,_,_,_,_,185,ADJ,Agpmpi,amod
184,1087-1095,uradnik,_,_,_,_,_,182,NOUN,Ncmpi,nmod
185,1096-1100,lani,_,_,_,_,_,187,ADV,Rgp,advmod
186,1101-1108,zateči,_,_,_,_,_,174,VERB,Vmep-sn,acl
187,1109-1112,"6,2",_,_,_,_,_,189,NUM,Mdc,nummod
188,1113-1121,odstotek,_,_,_,_,_,187,NOUN,Ncmsg,obj
189,1122-1134,prebivalstvo,_,_,_,_,_,189,NOUN,Ncnsg,nmod
190,1135-1136,.,_,_,_,_,_,187,PUNCT,Z,punct
191,1137-1138,v,_,_,_,_,_,193,ADP,Sl,case
192,1139-1145,Srbija,LOC,_,*->11-2,*[11],_,196,PROPN,Npfsl,obl
193,1146-1148,biti,_,_,_,_,_,196,AUX,Va-r3s-n,aux
194,1149-1153,lani,_,_,_,_,_,196,ADV,Rgp,advmod
195,1154-1165,podkupovati,_,_,_,_,_,172,VERB,Vmpp-sn,advcl
196,1166-1169,"9,3",_,_,_,_,_,196,NUM,Mdc,nsubj
197,1170-1171,",",_,_,_,_,_,201,PUNCT,Z,punct
198,1172-1173,v,_,_,_,_,_,201,ADP,Sl,case
199,1174-1178,črn,LOC[6],2,*->7-2,*[7],2 - Negativno[8],201,ADJ,Agpfsl,amod
200,1179-1183,gora,LOC[6],2,*->7-2,*[7],2 - Negativno[8],196,NOUN,Ncfsl,obl
201,1184-1187,"9,7",_,_,_,_,_,201,NUM,Mdc,nummod
202,1188-1189,",",_,_,_,_,_,196,PUNCT,Z,punct
203,1190-1192,na,_,_,_,_,_,205,ADP,Sl,case
204,1193-1200,Kosovo,LOC,2,*->9-2,*[9],2 - Negativno,201,PROPN,Npnsl,conj
205,1201-1203,in,_,_,_,_,_,208,CCONJ,Cc,cc
206,1204-1206,na,_,_,_,_,_,208,ADP,Sl,case
207,1207-1215,Hrvaško,LOC,2,*->8-2,*[8],2 - Negativno,205,PROPN,Npnsl,conj
208,1216-1218,pa,_,_,_,_,_,208,CCONJ,Cc,cc
209,1219-1223,malo,_,_,_,_,_,211,DET,Rgp,advmod
210,1224-1227,več,_,_,_,_,_,214,DET,Rgc,advmod
211,1228-1231,kot,_,_,_,_,_,211,SCONJ,Cs,fixed
212,1232-1234,11,_,_,_,_,_,214,NUM,Mdc,nummod
213,1235-1244,odstotek,_,_,_,_,_,220,NOUN,Ncmpg,obj
214,1245-1256,prebivalec,_,_,_,_,_,214,NOUN,Ncmpg,nmod
215,1257-1258,.,_,_,_,_,_,214,PUNCT,Z,punct
216,1259-1267,drugačen,_,_,_,_,_,218,ADJ,Agpfsa,amod
217,1268-1273,slika,_,_,_,_,_,220,NOUN,Ncfsa,obj
218,1274-1276,pa,_,_,_,_,_,220,CCONJ,Cc,advmod
219,1277-1287,razkrivati,_,_,_,_,_,196,VERB,Vmpr3p,parataxis
220,1288-1295,podatek,_,_,_,_,_,220,NOUN,Ncmpn,nsubj
221,1296-1297,o,_,_,_,_,_,223,ADP,Sl,case
222,1298-1305,znesek,_,_,_,_,_,221,NOUN,Ncmpl,nmod
223,1306-1315,podkupnina,_,_,_,_,_,223,NOUN,Ncfpg,nmod
224,1316-1317,.,_,_,_,_,_,220,PUNCT,Z,punct
225,1318-1320,ta,_,_,_,_,_,230,DET,Pd-mpn,nsubj
226,1321-1323,biti,_,_,_,_,_,230,AUX,Va-r3p-n,aux
227,1324-1328,biti,_,_,_,_,_,230,AUX,Va-p-pm,cop
228,1329-1333,lani,_,_,_,_,_,230,ADV,Rgp,advmod
229,1334-1342,visok,_,_,_,_,_,220,ADJ,Agsmpn,advcl
230,1343-1344,v,_,_,_,_,_,232,ADP,Sl,case
231,1345-1355,Makedonija,LOC,2,*->10-4,*[10],2 - Negativno,230,PROPN,Npfsl,obl
232,1356-1357,",",_,_,_,_,_,238,PUNCT,Z,punct
233,1358-1362,kjer,_,_,_,_,_,238,SCONJ,Cs,mark
234,1363-1365,biti,_,_,_,_,_,238,AUX,Va-r3p-n,aux
235,1366-1367,v,_,_,_,_,_,237,ADP,Sl,case
236,1368-1377,povprečje,_,_,_,_,_,238,NOUN,Ncnsl,obl
237,1378-1385,znašati,_,_,_,_,_,232,VERB,Vmpp-pm,acl
238,1386-1391,1.212,_,_,_,_,_,240,NUM,Mdc,nummod
239,1392-1397,evro,_,_,_,_,_,238,NOUN,Ncmpg,obj
240,1398-1399,",",_,_,_,_,_,242,PUNCT,Z,punct
241,1400-1408,nizek,_,_,_,_,_,240,ADJ,Agsmpn,amod
242,1409-1411,pa,_,_,_,_,_,242,CCONJ,Cc,advmod
243,1412-1413,v,_,_,_,_,_,245,ADP,Sl,case
244,1414-1422,Albanija,LOC,2,*->2-5,*[2],2 - Negativno,242,PROPN,Npfsl,obl
245,1423-1424,",",_,_,_,_,_,256,PUNCT,Z,punct
246,1425-1429,kjer,_,_,_,_,_,256,SCONJ,Cs,mark
247,1430-1432,biti,_,_,_,_,_,256,AUX,Va-r3p-n,aux
248,1433-1435,se,_,_,_,_,_,256,PRON,Px---d--y,expl
249,1436-1444,uradnik,_,_,_,_,_,256,NOUN,Ncmpn,nsubj
250,1445-1447,na,_,_,_,_,_,253,ADP,Sa,case
251,1448-1450,ta,_,_,_,_,_,253,DET,Pd-msa,det
252,1451-1456,način,_,_,_,_,_,256,NOUN,Ncmsan,obl
253,1457-1458,v,_,_,_,_,_,255,ADP,Sl,case
254,1459-1468,povprečje,_,_,_,_,_,256,NOUN,Ncnsl,obl
255,1469-1479,prislužiti,_,_,_,_,_,245,VERB,Vmep-pm,acl
256,1480-1488,dodaten,_,_,_,_,_,259,ADJ,Agpmpg,amod
257,1489-1492,103,_,_,_,_,_,259,NUM,Mdc,nummod
258,1493-1497,evro,_,_,_,_,_,256,NOUN,Ncmsg,obj
259,1498-1499,.,_,_,_,_,_,242,PUNCT,Z,punct
260,1500-1507,zanimiv,_,_,_,_,_,242,ADJ,Agpmsnn,parataxis
261,1508-1510,biti,_,_,_,_,_,261,AUX,Va-r3s-n,cop
262,1511-1515,tudi,_,_,_,_,_,261,PART,Q,advmod
263,1516-1523,podatek,_,_,_,_,_,261,NOUN,Ncmsn,nsubj
264,1524-1525,",",_,_,_,_,_,276,PUNCT,Z,punct
265,1526-1528,da,_,_,_,_,_,276,SCONJ,Cs,mark
266,1529-1531,biti,_,_,_,_,_,276,AUX,Va-r3p-n,aux
267,1532-1541,povprečen,_,_,_,_,_,269,ADJ,Agpfpn,amod
268,1542-1552,podkupnina,_,_,_,_,_,276,NOUN,Ncfpn,nsubj
269,1553-1554,v,_,_,_,_,_,271,ADP,Sl,case
270,1555-1561,Srbija,LOC,2,*->11-3,*[11],2 - Negativno,276,PROPN,Npfsl,obl
271,1562-1563,z,_,_,_,_,_,274,ADP,Si,case
272,1564-1567,349,_,_,_,_,_,274,NUM,Mdc,nummod
273,1568-1572,evro,_,_,_,_,_,276,NOUN,Ncmpi,obl
274,1573-1577,lani,_,_,_,_,_,276,ADV,Rgp,advmod
275,1578-1587,presegati,_,_,_,_,_,264,VERB,Vmpp-pf,acl
276,1588-1594,znesek,_,_,_,_,_,276,NOUN,Ncmsan,obj
277,1595-1604,povprečen,_,_,_,_,_,279,ADJ,Agpfsg,amod
278,1605-1610,plača,_,_,_,_,_,277,NOUN,Ncfsg,nmod
279,1611-1612,.,_,_,_,_,_,261,PUNCT,Z,punct
280,1613-1622,rezultat,_,_,_,_,_,283,NOUN,Ncmpn,nsubj
281,1623-1632,raziskava,_,_,_,_,_,281,NOUN,Ncfsg,nmod
282,1633-1643,razkrivati,_,_,_,_,_,261,VERB,Vmpr3p,csubj
283,1644-1646,še,_,_,_,_,_,283,PART,Q,advmod
284,1647-1648,",",_,_,_,_,_,293,PUNCT,Z,punct
285,1649-1651,da,_,_,_,_,_,293,SCONJ,Cs,mark
286,1652-1654,biti,_,_,_,_,_,293,AUX,Va-r3p-n,cop
287,1655-1658,med,_,_,_,_,_,292,ADP,Si,case
288,1659-1666,najbolj,_,_,_,_,_,290,ADV,Rgs,advmod
289,1667-1680,podkupljiv,_,_,_,_,_,292,ADJ,Agpmpi,amod
290,1681-1688,javen,_,_,_,_,_,292,ADJ,Agpmpi,amod
291,1689-1699,uslužbenec,_,_,_,_,_,283,NOUN,Ncmpi,obl
292,1700-1709,zdravnik,_,_,_,_,_,292,NOUN,Ncmpi,nmod
293,1710-1711,",",_,_,_,_,_,296,PUNCT,Z,punct
294,1712-1722,medicinski,_,_,_,_,_,296,ADJ,Agpfpn,amod
295,1723-1729,sestra,_,_,_,_,_,293,NOUN,Ncfpn,conj
296,1730-1732,in,_,_,_,_,_,298,CCONJ,Cc,cc
297,1733-1742,policist,_,_,_,_,_,293,NOUN,Ncmpn,conj
