idx,chars_idx,token,entity_type,sentiment,idk_1,idk_2,orig_sentiment,heads,upos,xpos,deprel
0,0-2,če,_,_,_,_,_,3,SCONJ,Cs,mark
1,3-7,biti,_,_,_,_,_,3,AUX,Va-f1p-n,aux
2,8-19,nadaljevati,_,_,_,_,_,9,VERB,Vmpp-pm,advcl
3,20-21,z,_,_,_,_,_,6,ADP,Si,case
4,22-32,trenuten,_,_,_,_,_,6,ADJ,Agpmpi,amod
5,33-39,ukrep,_,_,_,_,_,3,NOUN,Ncmpi,obl
6,40-41,",",_,_,_,_,_,3,PUNCT,Z,punct
7,42-45,jaz,_,_,_,_,_,9,PRON,Pp1-pa,obj
8,46-52,čakati,_,_,_,_,_,0,VERB,Vmpr3p,root
9,53-61,bankrot,_,_,_,_,_,9,NOUN,Ncmpn,nsubj
10,62-67,država,_,_,_,_,_,10,NOUN,Ncfpg,nmod
11,68-69,.,_,_,_,_,_,18,PUNCT,Z,punct
12,70-71,v,_,_,_,_,_,15,ADP,Sl,case
13,72-81,naslednji,_,_,_,_,_,15,ADJ,Agpfsl,amod
14,82-86,faza,_,_,_,_,_,18,NOUN,Ncfsl,obl
15,87-89,ne,_,_,_,_,_,18,PART,Q,advmod
16,90-92,biti,_,_,_,_,_,18,AUX,Va-f3s-n,aux
17,93-98,pasti,_,_,_,_,_,9,VERB,Vmep-sm,parataxis
18,99-101,le,_,_,_,_,_,18,PART,Q,advmod
19,102-106,evro,_,_,_,_,_,18,NOUN,Ncmsn,nsubj
20,107-108,",",_,_,_,_,_,25,PUNCT,Z,punct
21,109-115,temveč,_,_,_,_,_,25,CCONJ,Cc,cc
22,116-123,celoten,_,_,_,_,_,25,ADJ,Agpfsn,amod
23,124-132,evropski,ORG[1],_,*->1-1,*[1],_,25,ADJ,Agpfsn,amod
24,133-138,unija,ORG[1],_,*->1-1,*[1],_,20,NOUN,Ncfsn,conj
25,139-140,",",_,_,_,_,_,27,PUNCT,Z,punct
26,141-145,meniti,_,_,_,_,_,9,VERB,Vmpr3s,parataxis
27,146-150,eden,_,_,_,_,_,31,NUM,Mlpmsn,nummod
28,151-160,velik,_,_,*->2-1,*[2],_,31,ADJ,Agsmpg,amod
29,161-168,nemški,_,_,*->2-1,*[2],_,31,ADJ,Agpmpg,amod
30,169-180,ekonomist,_,_,*->2-1,*[2],_,27,NOUN,Ncmpg,obj
31,181-187,Stefan,PER[2],_,*->2-1,*[2],_,31,PROPN,Npmsn,nmod
32,188-195,Homburg,PER[2],_,*->2-1,*[2],_,32,PROPN,Npmsn,nmod
33,196-197,.,_,_,_,_,_,27,PUNCT,Z,punct
34,198-199,"""",_,_,_,_,_,38,PUNCT,Z,punct
35,200-202,če,_,_,_,_,_,38,SCONJ,Cs,mark
36,203-207,biti,_,_,_,_,_,38,AUX,Va-f1p-n,aux
37,208-219,nadaljevati,_,_,_,_,_,27,VERB,Vmpp-pm,advcl
38,220-221,z,_,_,_,_,_,41,ADP,Si,case
39,222-232,trenuten,_,_,_,_,_,41,ADJ,Agpmpi,amod
40,233-239,ukrep,_,_,_,_,_,38,NOUN,Ncmpi,obl
41,240-241,",",_,_,_,_,_,38,PUNCT,Z,punct
42,242-245,jaz,_,_,_,_,_,44,PRON,Pp1-pa,obj
43,246-252,čakati,_,_,_,_,_,9,VERB,Vmpr3p,parataxis
44,253-261,bankrot,_,_,_,_,_,44,NOUN,Ncmpn,nsubj
45,262-267,država,_,_,_,_,_,45,NOUN,Ncfpg,nmod
46,268-269,.,_,_,_,_,_,38,PUNCT,Z,punct
47,270-271,v,_,_,_,_,_,50,ADP,Sl,case
48,272-281,naslednji,_,_,_,_,_,50,ADJ,Agpfsl,amod
49,282-286,faza,_,_,_,_,_,53,NOUN,Ncfsl,obl
50,287-289,ne,_,_,_,_,_,53,PART,Q,advmod
51,290-292,biti,_,_,_,_,_,53,AUX,Va-f3s-n,aux
52,293-298,pasti,_,_,_,_,_,44,VERB,Vmep-sm,conj
53,299-301,le,_,_,_,_,_,53,PART,Q,advmod
54,302-306,evro,_,_,_,_,_,53,NOUN,Ncmsn,nsubj
55,307-308,",",_,_,_,_,_,60,PUNCT,Z,punct
56,309-315,temveč,_,_,_,_,_,60,CCONJ,Cc,cc
57,316-323,celoten,_,_,_,_,_,60,ADJ,Agpfsn,amod
58,324-332,evropski,ORG[3],_,*->1-2,*[1],_,60,ADJ,Agpfsn,amod
59,333-338,unija,ORG[3],_,*->1-2,*[1],_,55,NOUN,Ncfsn,conj
60,339-340,",",_,_,_,_,_,53,PUNCT,Z,punct
61,341-342,"""",_,_,_,_,_,71,PUNCT,Z,punct
62,343-345,biti,_,_,_,_,_,71,AUX,Va-r3s-n,aux
63,346-347,v,_,_,_,_,_,65,ADP,Sl,case
64,348-358,intervju,_,_,_,_,_,71,NOUN,Ncmsl,obl
65,359-361,za,_,_,_,_,_,69,ADP,Sa,case
66,362-368,nemški,_,_,_,_,_,69,ADJ,Agpmsay,amod
67,369-375,dneven,_,_,_,_,_,69,ADJ,Agpmsay,amod
68,376-383,časopis,_,_,_,_,_,65,NOUN,Ncmsan,nmod
69,384-391,Spiegel,_,_,_,_,_,69,PROPN,Npmsn,nmod
70,392-397,dejati,_,_,_,_,_,53,VERB,Vmep-sm,advcl
71,398-402,eden,_,_,_,_,_,75,NUM,Mlpmsn,nummod
72,403-417,učiken,_,_,*->2-2,*[2],_,75,ADJ,Agsmpg,amod
73,418-425,nemški,_,_,*->2-2,*[2],_,75,ADJ,Agpmpg,amod
74,426-437,ekonomist,_,_,*->2-2,*[2],_,71,NOUN,Ncmpg,nsubj
75,438-444,Stefan,PER[4],_,*->2-2,*[2],_,75,PROPN,Npmsn,nmod
76,445-452,Homburg,PER[4],_,*->2-2,*[2],_,76,PROPN,Npmsn,flat:name
77,453-454,(,_,_,_,_,_,80,PUNCT,Z,punct
78,455-457,na,_,_,_,_,_,80,ADP,Sl,case
79,458-463,slika,_,_,_,_,_,76,NOUN,Ncfsl,appos
80,464-465,),_,_,_,_,_,80,PUNCT,Z,punct
81,466-467,.,_,_,_,_,_,71,PUNCT,Z,punct
82,468-469,"""",_,_,_,_,_,88,PUNCT,Z,punct
83,470-476,Grčija,ORG,_,*->3-1,*[3],_,88,PROPN,Npfsn,nsubj
84,477-483,nikoli,_,_,_,_,_,89,ADV,Rgp,advmod
85,484-486,ne,_,_,_,_,_,88,PART,Q,advmod
86,487-489,biti,_,_,_,_,_,88,AUX,Va-f3s-n,cop
87,490-498,sposoben,_,_,_,_,_,9,ADJ,Agpfsn,parataxis
88,499-505,vrniti,_,_,_,_,_,88,VERB,Vmen,ccomp
89,506-508,do,_,_,_,_,_,93,ADP,Sg,case
90,509-514,sedaj,_,_,_,_,_,92,ADV,Rgp,advmod
91,515-527,izposojen,_,_,_,_,_,93,ADJ,Appmsg,amod
92,528-535,denar,_,_,_,_,_,89,NOUN,Ncmsg,obl
93,536-537,.,_,_,_,_,_,88,PUNCT,Z,punct
94,538-539,"""",_,_,_,_,_,71,PUNCT,Z,punct
95,540-541,',_,_,_,_,_,101,PUNCT,Z,punct
96,542-554,vključevanje,_,_,_,_,_,101,NOUN,Ncnsn,nsubj
97,555-563,zaseben,_,_,_,_,_,99,ADJ,Agpmpg,amod
98,564-571,upnik,_,_,_,_,_,97,NOUN,Ncmpg,nmod
99,572-574,ne,_,_,_,_,_,101,PART,Q,advmod
100,575-579,moči,_,_,_,_,_,9,VERB,Vmpr3s,parataxis
101,580-584,biti,_,_,_,_,_,103,AUX,Va-n,cop
102,585-597,prostovoljen,_,_,_,_,_,101,ADJ,Agpnsn,xcomp
103,598-599,',_,_,_,_,_,101,PUNCT,Z,punct
104,600-602,na,_,_,_,_,_,106,ADP,Sa,case
105,603-612,vprašanje,_,_,_,_,_,103,NOUN,Ncnsa,obl
106,613-614,o,_,_,_,_,_,108,ADP,Sl,case
107,615-627,vključevanje,_,_,_,_,_,106,NOUN,Ncnsl,nmod
108,628-636,zaseben,_,_,_,_,_,110,ADJ,Agpmpg,amod
109,637-644,upnik,_,_,_,_,_,108,NOUN,Ncmpg,nmod
110,645-647,biti,_,_,_,_,_,113,AUX,Va-r3s-n,aux
111,648-655,Homburg,PER,_,*->2-3,*[2],_,113,PROPN,Npmsn,nsubj
112,656-661,dejati,_,_,_,_,_,101,VERB,Vmep-sm,root
113,662-663,",",_,_,_,_,_,120,PUNCT,Z,punct
114,664-666,da,_,_,_,_,_,120,SCONJ,Cs,mark
115,667-672,banka,_,_,_,_,_,120,NOUN,Ncfpn,nsubj
116,673-676,pri,_,_,_,_,_,118,ADP,Sl,case
117,677-685,vlaganje,_,_,_,_,_,121,NOUN,Ncnsl,obl
118,686-688,ne,_,_,_,_,_,120,PART,Q,advmod
119,689-695,moči,_,_,_,_,_,113,VERB,Vmpr3p,ccomp
120,696-706,sodelovati,_,_,_,_,_,120,VERB,Vmpn,xcomp
121,707-719,prostovoljno,_,_,_,_,_,121,ADV,Rgp,advmod
122,720-721,",",_,_,_,_,_,120,PUNCT,Z,punct
123,722-725,saj,_,_,_,_,_,128,CCONJ,Cc,cc
124,726-728,biti,_,_,_,_,_,128,AUX,Va-r3p-n,cop
125,729-736,njihov,_,_,_,_,_,127,DET,Ps3fpnp,det
126,737-743,uprava,_,_,_,_,_,128,NOUN,Ncfpn,nsubj
127,744-752,zavezan,_,_,_,_,_,121,ADJ,Appfpn,conj
128,753-754,k,_,_,_,_,_,130,ADP,Sd,case
129,755-767,zasledovanje,_,_,_,_,_,128,NOUN,Ncnsd,obl
130,768-777,zaseben,_,_,_,_,_,132,ADJ,Agpmsg,amod
131,778-786,interes,_,_,_,_,_,130,NOUN,Ncmsg,nmod
132,787-789,in,_,_,_,_,_,136,CCONJ,Cc,cc
133,790-792,ne,_,_,_,_,_,136,PART,Q,advmod
134,793-800,javen,_,_,_,_,_,136,ADJ,Agpnsg,amod
135,801-808,dober,_,_,_,_,_,132,ADJ,Agpnsg,conj
136,809-810,.,_,_,_,_,_,128,PUNCT,Z,punct
137,811-818,dogovor,_,_,_,_,_,153,NOUN,Ncmsn,nsubj
138,819-825,nemški,_,_,*->4-1,*[4],_,140,ADJ,Agpfsg,amod
139,826-835,kanclerka,_,_,*->4-1,*[4],_,138,NOUN,Ncfsg,nmod
140,836-842,Angele,PER[5],_,*->4-1,*[4],_,140,PROPN,Npfsg,nmod
141,843-848,Merkl,PER[5],_,*->4-1,*[4],_,141,PROPN,Npmsg,flat:name
142,849-851,in,_,_,_,_,_,145,CCONJ,Cc,cc
143,852-863,francoski,_,2,*->5-1,*[5],2 - Negativno[8],145,ADJ,Agpmsg,amod
144,864-875,predsednik,_,2,*->5-1,*[5],2 - Negativno[8],140,NOUN,Ncmsg,conj
145,876-884,Nicolas,PER[6],2,*->5-1,*[5],2 - Negativno[8],145,PROPN,Npmsg,nmod
146,885-894,Sarkozy,PER[6],2,*->5-1,*[5],2 - Negativno[8],146,PROPN,Npmsg,flat:name
147,895-896,o,_,_,_,_,_,149,ADP,Sl,case
148,897-907,vključitev,_,_,_,_,_,153,NOUN,Ncfsl,obl
149,908-916,zaseben,_,_,_,_,_,151,ADJ,Agpmpg,amod
150,917-924,upnik,_,_,_,_,_,149,NOUN,Ncmpg,nmod
151,925-927,biti,_,_,_,_,_,153,AUX,Va-r3s-n,aux
152,928-935,označiti,_,_,*->2-4,*[2],_,9,VERB,Vmep-sm,parataxis
153,936-938,za,_,_,_,_,_,156,ADP,Sa,case
154,939-940,"""",_,_,_,_,_,156,PUNCT,Z,punct
155,941-950,predstava,_,_,_,_,_,153,NOUN,Ncfsa,obl
156,951-952,",",_,_,_,_,_,161,PUNCT,Z,punct
157,953-959,kateri,_,_,_,_,_,159,DET,Pq-msg,nmod
158,960-965,namen,_,_,_,_,_,161,NOUN,Ncmsn,nsubj
159,966-968,biti,_,_,_,_,_,161,AUX,Va-r3s-n,cop
160,969-978,pomiritev,_,_,_,_,_,156,NOUN,Ncfsn,acl
161,979-985,nemški,_,_,_,_,_,163,ADJ,Agpfsg,amod
162,986-994,javnost,_,_,_,_,_,161,NOUN,Ncfsg,nmod
163,995-996,"""",_,_,_,_,_,161,PUNCT,Z,punct
164,997-998,.,_,_,_,_,_,153,PUNCT,Z,punct
165,999-1006,prvoten,_,_,_,_,_,167,ADJ,Agpmsny,amod
166,1007-1014,predlog,_,_,_,_,_,161,NOUN,Ncmsn,conj
167,1015-1023,Merklov,PER,2,*->4-2,*[4],2 - Negativno,167,ADJ,Aspfsg,amod
168,1024-1025,o,_,_,_,_,_,171,ADP,Sl,case
169,1026-1033,obvezen,_,_,_,_,_,171,ADJ,Agpfsl,amod
170,1034-1042,udeležba,_,_,_,_,_,167,NOUN,Ncfsl,nmod
171,1043-1051,zaseben,_,_,_,_,_,173,ADJ,Agpmpg,amod
172,1052-1063,vlagatelj,_,_,_,_,_,171,NOUN,Ncmpg,nmod
173,1064-1065,",",_,_,_,_,_,161,PUNCT,Z,punct
174,1066-1068,biti,_,_,_,_,_,179,AUX,Va-r3s-n,cop
175,1069-1071,po,_,_,_,_,_,177,ADP,Sl,case
176,1072-1078,mnenje,_,_,_,_,_,179,NOUN,Ncnsl,obl
177,1079-1087,Homburg,PER,_,*->2-5,*[2],_,179,PROPN,Npfsn,nsubj
178,1088-1098,neprimeren,_,_,_,_,_,167,ADJ,Agpmsnn,acl
179,1099-1100,",",_,_,_,_,_,179,PUNCT,Z,punct
180,1101-1104,saj,_,_,_,_,_,197,CCONJ,Cc,cc
181,1105-1107,po,_,_,_,_,_,184,ADP,Sl,case
182,1108-1116,njegov,_,_,*->2-6,*[2],_,184,DET,Ps3nslsm,det
183,1117-1123,mnenje,_,_,_,_,_,197,NOUN,Ncnsl,obl
184,1124-1125,"""",_,_,_,_,_,186,PUNCT,Z,punct
185,1126-1137,vodovodar,_,_,_,_,_,184,NOUN,Ncmsg,nmod
186,1138-1139,",",_,_,_,_,_,191,PUNCT,Z,punct
187,1140-1148,kateri,_,_,_,_,_,189,DET,Pq-msg,nmod
188,1149-1156,stranka,_,_,_,_,_,191,NOUN,Ncfpg,nsubj
189,1157-1159,ne,_,_,_,_,_,191,PART,Q,advmod
190,1160-1169,poravnati,_,_,_,_,_,186,VERB,Vmer3p,acl
191,1170-1180,obveznost,_,_,_,_,_,191,NOUN,Ncfsg,obj
192,1181-1182,",",_,_,_,_,_,191,PUNCT,Z,punct
193,1183-1193,kreditor,_,_,_,_,_,197,NOUN,Ncmpn,nsubj
194,1194-1200,nikoli,_,_,_,_,_,198,ADV,Rgp,advmod
195,1201-1203,ne,_,_,_,_,_,197,PART,Q,advmod
196,1204-1212,pomagati,_,_,_,_,_,179,VERB,Vmbr3p,conj
197,1213-1219,rešiti,_,_,_,_,_,197,VERB,Vmen,xcomp
198,1220-1224,pred,_,_,_,_,_,200,ADP,Si,case
199,1225-1234,bankrot,_,_,_,_,_,198,NOUN,Ncmsi,obl
200,1235-1236,.,_,_,_,_,_,197,PUNCT,Z,punct
201,1237-1244,njihov,_,_,_,_,_,203,DET,Ps3fsnp,det
202,1245-1252,možnost,_,_,_,_,_,205,NOUN,Ncfsn,nsubj
203,1253-1255,biti,_,_,_,_,_,205,AUX,Va-r3s-n,cop
204,1256-1261,odpis,_,_,_,_,_,197,NOUN,Ncmsn,nsubj
205,1262-1267,dolg,_,_,_,_,_,205,ADJ,Agpfsn,amod
206,1268-1270,in,_,_,_,_,_,208,CCONJ,Cc,cc
207,1271-1282,premišljeno,_,_,_,_,_,206,ADJ,Appnsn,conj
208,1283-1292,odločanje,_,_,_,_,_,205,NOUN,Ncnsn,conj
209,1293-1294,o,_,_,_,_,_,211,ADP,Sl,case
210,1295-1298,ta,_,_,_,_,_,209,DET,Pd-nsl,nmod
211,1299-1300,",",_,_,_,_,_,216,PUNCT,Z,punct
212,1301-1305,kdo,_,_,_,_,_,216,PRON,Pq-msd,iobj
213,1306-1310,biti,_,_,_,_,_,216,AUX,Va-f3p-n,aux
214,1311-1317,naprej,_,_,_,_,_,216,ADV,Rgp,advmod
215,1318-1326,posojati,_,_,_,_,_,211,VERB,Vmpp-pm,acl
216,1327-1332,denar,_,_,_,_,_,216,NOUN,Ncmsan,obj
217,1333-1334,.,_,_,_,_,_,205,PUNCT,Z,punct
218,1335-1336,"""",_,_,_,_,_,221,PUNCT,Z,punct
219,1337-1342,tržen,_,_,_,_,_,221,ADJ,Agpnsn,amod
220,1343-1355,gospodarstvo,_,_,_,_,_,216,NOUN,Ncnsn,nsubj
221,1356-1357,",",_,_,_,_,_,216,PUNCT,Z,punct
222,1358-1364,dodajati,_,_,_,_,_,221,VERB,Vmpr3s,acl
223,1365-1372,Homburg,PER,_,*->2-7,*[2],_,223,PROPN,Npmsn,nsubj
224,1373-1374,",",_,_,_,_,_,227,PUNCT,Z,punct
225,1375-1377,ne,_,_,_,_,_,227,PART,Q,advmod
226,1378-1382,moči,_,_,_,_,_,223,VERB,Vmpr3s,advcl
227,1383-1391,delovati,_,_,_,_,_,227,VERB,Vmpn,xcomp
228,1392-1396,brez,_,_,_,_,_,230,ADP,Sg,case
229,1397-1406,institut,_,_,_,_,_,228,NOUN,Ncmsg,obl
230,1407-1413,oseben,_,_,_,_,_,232,ADJ,Agpfsg,amod
231,1414-1426,odgovornost,_,_,_,_,_,230,NOUN,Ncfsg,nmod
232,1427-1439,posameznik,_,_,_,_,_,232,NOUN,Ncmpg,nmod
233,1440-1441,.,_,_,_,_,_,223,PUNCT,Z,punct
234,1442-1443,',_,_,_,_,_,238,PUNCT,Z,punct
235,1444-1453,reševalen,_,_,_,_,_,237,ADJ,Agpmpn,amod
236,1454-1460,paket,_,_,_,_,_,238,NOUN,Ncmpn,nsubj
237,1461-1467,rušiti,_,_,_,_,_,227,VERB,Vmpr3p,advcl
238,1468-1476,finančen,_,_,_,_,_,240,ADJ,Agpmpa,amod
239,1477-1481,trg,_,_,_,_,_,238,NOUN,Ncmpa,obj
240,1482-1483,.,_,_,_,_,_,9,PUNCT,Z,punct
241,1484-1485,',_,_,_,_,_,238,PUNCT,Z,punct
242,1486-1487,"""",_,_,_,_,_,249,PUNCT,Z,punct
243,1488-1493,grški,_,_,_,_,_,245,ADJ,Agpfsn,amod
244,1494-1499,vlada,_,_,_,_,_,249,NOUN,Ncfsn,nsubj
245,1500-1501,z,_,_,_,_,_,247,ADP,Si,case
246,1502-1511,program,_,_,_,_,_,249,NOUN,Ncmsi,obl
247,1512-1522,varčevanje,_,_,_,_,_,247,NOUN,Ncnsg,nmod
248,1523-1531,ustvarjati,_,_,_,_,_,238,VERB,Vmpr3s,conj
249,1532-1539,napačen,_,_,_,_,_,251,ADJ,Agpfpa,amod
250,1540-1548,spodbuda,_,_,_,_,_,249,NOUN,Ncfpa,obj
251,1549-1550,",",_,_,_,_,_,254,PUNCT,Z,punct
252,1551-1553,ki,_,_,_,_,_,254,SCONJ,Cs,mark
253,1554-1564,povečevati,_,_,_,_,_,251,VERB,Vmpr3p,acl
254,1565-1571,težava,_,_,_,_,_,254,NOUN,Ncfpa,obj
255,1572-1574,na,_,_,_,_,_,258,ADP,Sl,case
256,1575-1584,finančen,_,_,_,_,_,258,ADJ,Agpmpl,amod
257,1585-1590,trg,_,_,_,_,_,255,NOUN,Ncmpl,nmod
258,1591-1592,",",_,_,_,_,_,254,PUNCT,Z,punct
259,1593-1594,"""",_,_,_,_,_,262,PUNCT,Z,punct
260,1595-1597,biti,_,_,_,_,_,262,AUX,Va-r3s-n,aux
261,1598-1608,nadaljevati,_,_,_,_,_,249,VERB,Vmpp-sm,parataxis
262,1609-1616,Homburg,PER,_,*->2-8,*[2],_,262,PROPN,Npmsn,nsubj
263,1617-1618,.,_,_,_,_,_,262,PUNCT,Z,punct
264,1619-1625,borzen,_,_,_,_,_,266,ADJ,Agpmpn,amod
265,1626-1636,špekulant,_,_,_,_,_,283,NOUN,Ncmpn,nsubj
266,1637-1639,se,_,_,_,_,_,283,PRON,Px------y,expl
267,1640-1644,biti,_,_,_,_,_,283,AUX,Va-f3p-n,aux
268,1645-1647,po,_,_,_,_,_,271,ADP,Sl,case
269,1648-1656,njegov,_,_,*->2-9,*[2],_,271,DET,Ps3nslsm,det
270,1657-1663,mnenje,_,_,_,_,_,283,NOUN,Ncnsl,obl
271,1664-1665,",",_,_,_,_,_,281,PUNCT,Z,punct
272,1666-1668,po,_,_,_,_,_,274,ADP,Sl,case
273,1669-1672,ta,_,_,_,_,_,281,DET,Pd-nsl,obl
274,1673-1675,ko,_,_,_,_,_,281,SCONJ,Cs,mark
275,1676-1680,biti,_,_,_,_,_,281,AUX,Va-f3p-n,aux
276,1681-1686,grški,_,_,_,_,_,278,ADJ,Agpfpa,amod
277,1687-1696,obveznica,_,_,_,_,_,281,NOUN,Ncfpn,obj
278,1697-1698,v,_,_,_,_,_,280,ADP,Sl,case
279,1699-1705,celota,_,_,_,_,_,281,NOUN,Ncfsl,obl
280,1706-1715,poplačan,_,_,_,_,_,271,ADJ,Appfpn,acl
281,1716-1717,",",_,_,_,_,_,281,PUNCT,Z,punct
282,1718-1726,usmeriti,_,_,_,_,_,262,VERB,Vmep-pm,conj
283,1727-1729,na,_,_,_,_,_,286,ADP,Sa,case
284,1730-1735,drug,_,_,_,_,_,286,ADJ,Mlpfsa,amod
285,1736-1742,država,_,_,_,_,_,283,NOUN,Ncfsa,obl
286,1743-1744,",",_,_,_,_,_,283,PUNCT,Z,punct
287,1745-1753,verjetno,_,_,_,_,_,286,ADV,Rgp,advmod
288,1754-1756,na,_,_,_,_,_,290,ADP,Sa,case
289,1757-1768,Portugalska,ORG,_,*->6-1,*[6],_,283,PROPN,Npfsa,obl
290,1769-1770,.,_,_,_,_,_,294,PUNCT,Z,punct
291,1771-1773,če,_,_,_,_,_,294,SCONJ,Cs,mark
292,1774-1776,biti,_,_,_,_,_,294,AUX,Va-c,aux
293,1777-1784,utrpeti,_,_,_,_,_,290,VERB,Vmep-pm,acl
294,1785-1791,izguba,_,_,_,_,_,294,NOUN,Ncfpa,obj
295,1792-1793,v,_,_,_,_,_,297,ADP,Sl,case
296,1794-1800,Grčija,ORG,_,*->3-2,*[3],_,295,PROPN,Npfsl,nmod
297,1801-1802,",",_,_,_,_,_,294,PUNCT,Z,punct
298,1803-1805,pa,_,_,_,_,_,305,CCONJ,Cc,advmod
299,1806-1808,biti,_,_,_,_,_,305,AUX,Va-c,aux
300,1809-1819,špekulant,_,_,_,_,_,305,NOUN,Ncmpn,nsubj
301,1820-1822,ta,_,_,_,_,_,304,DET,Pd-msa,det
302,1823-1831,posloven,_,_,_,_,_,304,ADJ,Agpmsay,amod
303,1832-1837,model,_,_,_,_,_,305,NOUN,Ncmsan,obj
304,1838-1846,opustiti,_,_,_,_,_,9,VERB,Vmep-pm,parataxis
305,1847-1848,.,_,_,_,_,_,305,PUNCT,Z,punct
306,1849-1850,o,_,_,_,_,_,309,ADP,Sl,case
307,1851-1858,ostal,_,_,_,_,_,309,ADJ,Appfpl,amod
308,1859-1867,članica,_,_,_,_,_,305,NOUN,Ncfpl,obl
309,1868-1876,evropski,ORG[7],_,*->1-3,*[1],_,311,ADJ,Agpfsg,amod
310,1877-1882,unija,ORG[7],_,*->1-3,*[1],_,309,NOUN,Ncfsg,nmod
311,1883-1884,(,_,_,_,_,_,313,PUNCT,Z,punct
312,1885-1887,EU,ORG,0,*->1-4,*[1],3 - Nevtralno,311,PROPN,Npfsn,appos
313,1888-1889,),_,_,_,_,_,313,PUNCT,Z,punct
314,1890-1891,v,_,_,_,_,_,316,ADP,Sl,case
315,1892-1899,težava,_,_,_,_,_,309,NOUN,Ncfpl,nmod
316,1900-1901,-,_,_,_,_,_,318,PUNCT,Z,punct
317,1902-1907,Irska,ORG,2,*->7-1,*[7],2 - Negativno,316,PROPN,Npfsl,conj
318,1908-1909,",",_,_,_,_,_,320,PUNCT,Z,punct
319,1910-1921,Portugalska,ORG,2,*->6-2,*[6],2 - Negativno,316,PROPN,Npfsl,conj
320,1922-1924,in,_,_,_,_,_,322,CCONJ,Cc,cc
321,1925-1932,Španija,ORG,2,*->8-1,*[8],2 - Negativno,316,PROPN,Npfsl,conj
322,1933-1934,-,_,_,_,_,_,326,PUNCT,Z,punct
323,1935-1937,biti,_,_,_,_,_,326,AUX,Va-r3s-n,aux
324,1938-1945,Homburg,PER,_,*->2-10,*[2],_,326,PROPN,Npmsn,nsubj
325,1946-1951,dejati,_,_,_,_,_,305,VERB,Vmep-sm,conj
326,1952-1953,",",_,_,_,_,_,332,PUNCT,Z,punct
327,1954-1956,da,_,_,_,_,_,332,SCONJ,Cs,mark
328,1957-1959,biti,_,_,_,_,_,332,AUX,Va-r3p-n,aux
329,1960-1967,najprej,_,_,_,_,_,332,ADV,Rgs,advmod
330,1968-1974,država,_,_,_,_,_,332,NOUN,Ncfpn,nsubj
331,1975-1983,reševati,_,_,_,_,_,326,VERB,Vmpp-pf,ccomp
332,1984-1989,banka,_,_,_,_,_,332,NOUN,Ncfpn,nsubj
333,1990-1991,",",_,_,_,_,_,332,PUNCT,Z,punct
334,1992-1996,zdaj,_,_,_,_,_,341,ADV,Rgp,advmod
335,1997-1999,pa,_,_,_,_,_,341,CCONJ,Cc,advmod
336,2000-2002,biti,_,_,_,_,_,341,AUX,Va-r3p-n,aux
337,2003-2004,v,_,_,_,_,_,339,ADP,Sl,case
338,2005-2012,težava,_,_,_,_,_,341,NOUN,Ncfpl,obl
339,2013-2019,država,_,_,_,_,_,339,NOUN,Ncfsg,nmod
340,2020-2024,sam,_,_,_,_,_,326,ADJ,Agpfsn,parataxis
341,2025-2026,.,_,_,_,_,_,332,PUNCT,Z,punct
342,2027-2036,reševalen,_,_,_,_,_,344,ADJ,Agpmpn,amod
343,2037-2043,paket,_,_,_,_,_,347,NOUN,Ncmpn,nsubj
344,2044-2046,biti,_,_,_,_,_,347,AUX,Va-r3p-n,aux
345,2047-2051,samo,_,_,_,_,_,347,PART,Q,advmod
346,2052-2062,spodbuditi,_,_,_,_,_,341,VERB,Vmep-pm,conj
347,2063-2074,gospodarski,_,_,_,_,_,349,ADJ,Agpfsa,amod
348,2075-2080,kriza,_,_,_,_,_,347,NOUN,Ncfsa,obj
349,2081-2082,.,_,_,_,_,_,341,PUNCT,Z,punct
350,2083-2085,če,_,_,_,_,_,355,SCONJ,Cs,mark
351,2086-2088,biti,_,_,_,_,_,355,AUX,Va-c,aux
352,2089-2095,lanski,_,_,_,_,_,354,ADJ,Agpnsa,amod
353,2096-2100,leto,_,_,_,_,_,355,NOUN,Ncnsa,obl
354,2101-2109,sprejeti,_,_,_,_,_,347,VERB,Vmep-pm,advcl
355,2110-2117,predlog,_,_,_,_,_,355,NOUN,Ncmsan,obj
356,2118-2127,lizbonski,_,_,_,_,_,358,ADJ,Agpfsg,amod
357,2128-2135,pogodba,_,_,_,_,_,356,NOUN,Ncfsg,nmod
358,2136-2137,",",_,_,_,_,_,361,PUNCT,Z,punct
359,2138-2140,ki,_,_,_,_,_,361,SCONJ,Cs,mark
360,2141-2152,prepovedovati,_,_,_,_,_,358,VERB,Vmpr3s,acl
361,2153-2161,finančen,_,_,_,_,_,363,ADJ,Agpfsa,amod
362,2162-2169,podpora,_,_,_,_,_,361,NOUN,Ncfsa,obj
363,2170-2172,in,_,_,_,_,_,365,CCONJ,Cc,cc
364,2173-2178,pomoč,_,_,_,_,_,363,NOUN,Ncfsa,conj
365,2179-2180,",",_,_,_,_,_,355,PUNCT,Z,punct
366,2181-2183,biti,_,_,_,_,_,369,AUX,Va-c,aux
367,2184-2190,Grčija,ORG,2,*->3-3,*[3],2 - Negativno,369,PROPN,Npfsn,nsubj
368,2191-2207,prestrukturirati,_,_,_,_,_,355,VERB,Vmbp-sf,conj
369,2208-2212,dolg,_,_,_,_,_,369,ADJ,Agpmsan,obj
370,2213-2214,",",_,_,_,_,_,380,PUNCT,Z,punct
371,2215-2219,tako,_,_,_,_,_,380,ADV,Rgp,mark
372,2220-2223,kot,_,_,_,_,_,372,SCONJ,Cs,fixed
373,2224-2226,biti,_,_,_,_,_,380,AUX,Va-r3p-n,aux
374,2227-2229,ta,_,_,_,_,_,380,DET,Pd-nsa,obj
375,2230-2231,v,_,_,_,_,_,379,ADP,Sl,case
376,2232-2239,zadnji,_,_,_,_,_,379,ADJ,Agpnpl,amod
377,2240-2250,petnajst,_,_,_,_,_,379,NUM,Mlc-pl,nummod
378,2251-2256,leto,_,_,_,_,_,380,NOUN,Ncnpl,obl
379,2257-2264,storiti,_,_,_,_,_,369,VERB,Vmep-pm,advcl
380,2265-2272,Urugvaj,LOC,0,*->9-1,*[9],3 - Nevtralno,380,PROPN,Npfsn,nsubj
381,2273-2274,",",_,_,_,_,_,383,PUNCT,Z,punct
382,2275-2281,Rusija,LOC,0,*->10-1,*[10],3 - Nevtralno,381,PROPN,Npfsn,conj
383,2282-2283,",",_,_,_,_,_,385,PUNCT,Z,punct
384,2284-2293,Argentina,LOC,0,*->11-1,*[11],3 - Nevtralno,381,PROPN,Npfsn,conj
385,2294-2296,in,_,_,_,_,_,388,CCONJ,Cc,cc
386,2297-2302,drug,_,_,_,_,_,388,ADJ,Mlpfpn,amod
387,2303-2309,država,_,_,_,_,_,381,NOUN,Ncfpn,conj
388,2310-2311,.,_,_,_,_,_,369,PUNCT,Z,punct
389,2312-2319,Homburg,PER,_,*->2-11,*[2],_,391,PROPN,Npmsn,nsubj
390,2320-2330,investirati,_,_,_,_,_,380,VERB,Vmbp-sm,conj
391,2331-2332,v,_,_,_,_,_,394,ADP,Sa,case
392,2333-2338,grški,_,_,_,_,_,394,ADJ,Agpfpa,amod
393,2339-2348,obveznica,_,_,_,_,_,398,NOUN,Ncfpa,obl
394,2349-2356,Homburg,PER,_,*->2-12,*[2],_,394,PROPN,Npmsn,nmod
395,2357-2358,v,_,_,_,_,_,397,ADP,Sl,case
396,2359-2369,intervju,_,_,_,_,_,398,NOUN,Ncmsl,obl
397,2370-2379,kritizirati,_,_,_,_,_,391,VERB,Vmpr3s,conj
398,2380-2386,poteza,_,_,_,_,_,398,NOUN,Ncfpa,obj
399,2387-2393,nemški,_,_,_,_,_,404,ADJ,Agpfsg,amod
400,2394-2396,in,_,_,_,_,_,402,CCONJ,Cc,cc
401,2397-2403,drug,_,_,_,_,_,400,ADJ,Mlpfpg,conj
402,2404-2413,evropski,_,_,_,_,_,404,ADJ,Agpfpg,amod
403,2414-2418,vlad,_,_,_,_,_,399,NOUN,Ncfpg,nmod
404,2419-2420,.,_,_,_,_,_,391,PUNCT,Z,punct
405,2421-2427,dodajati,_,_,*->2-13,*[2],_,9,VERB,Vmpr3s,parataxis
406,2428-2429,",",_,_,_,_,_,424,PUNCT,Z,punct
407,2430-2432,da,_,_,_,_,_,424,SCONJ,Cs,mark
408,2433-2435,biti,_,_,_,_,_,424,AUX,Va-r3p-n,cop
409,2436-2444,govorica,_,_,_,_,_,424,NOUN,Ncfpn,nsubj
410,2445-2446,o,_,_,_,_,_,412,ADP,Sl,case
411,2447-2450,ta,_,_,_,_,_,410,DET,Pd-nsl,nmod
412,2451-2452,",",_,_,_,_,_,415,PUNCT,Z,punct
413,2453-2457,kako,_,_,_,_,_,415,ADV,Rgp,advmod
414,2458-2465,obširen,_,_,_,_,_,412,ADJ,Agpfpn,acl
415,2466-2468,biti,_,_,_,_,_,415,AUX,Va-r3p-n,cop
416,2469-2478,posledica,_,_,_,_,_,415,NOUN,Ncfpn,nsubj
417,2479-2486,grški,_,_,_,_,_,419,ADJ,Agpmsg,amod
418,2487-2495,bankrota,_,_,_,_,_,417,NOUN,Ncmsg,nmod
419,2496-2497,",",_,_,_,_,_,415,PUNCT,Z,punct
420,2498-2500,po,_,_,_,_,_,423,ADP,Sl,case
421,2501-2509,njegov,_,0,*->2-14,*[2],3 - Nevtralno,423,DET,Ps3nslsm,det
422,2510-2516,mnenje,_,_,_,_,_,424,NOUN,Ncnsl,obl
423,2517-2530,prenapihnjen,_,_,_,_,_,406,ADJ,Appfpn,ccomp
424,2531-2532,.,_,_,_,_,_,9,PUNCT,Z,punct
