idx,chars_idx,token,entity_type,sentiment,idk_1,idk_2,orig_sentiment,heads,upos,xpos,deprel
0,0-8,trenuten,_,_,_,_,_,3,ADJ,Agpmsny,amod
1,9-19,sanacijski,_,_,_,_,_,3,ADJ,Agpmsny,amod
2,20-27,program,_,_,_,_,_,7,NOUN,Ncmsn,nsubj
3,28-30,za,_,_,_,_,_,5,ADP,Sa,case
4,31-37,Grčija,ORG,_,*->2-1,*[2],_,3,PROPN,Npfsa,nmod
5,38-40,biti,_,_,_,_,_,7,AUX,Va-r3s-n,cop
6,41-51,nezadosten,_,_,_,_,_,0,ADJ,Agpmsnn,root
7,52-53,",",_,_,_,_,_,11,PUNCT,Z,punct
8,54-58,zato,_,_,_,_,_,11,CCONJ,Cc,cc
9,59-61,biti,_,_,_,_,_,11,AUX,Va-f3s-n,cop
10,62-67,nujen,_,_,_,_,_,7,ADJ,Agpfsn,conj
11,68-75,njegov,_,_,_,_,_,13,DET,Ps3fsnsm,det
12,76-88,prilagoditev,_,_,_,_,_,11,NOUN,Ncfsn,nsubj
13,89-90,",",_,_,_,_,_,11,PUNCT,Z,punct
14,91-97,meniti,_,_,_,_,_,7,VERB,Vmpr3p,parataxis
15,98-99,v,_,_,_,_,_,19,ADP,Sl,case
16,100-111,mednaroden,ORG[1],_,*->1-1,*[1],_,19,ADJ,Agpmsl,amod
17,112-120,denaren,ORG[1],_,*->1-1,*[1],_,19,ADJ,Agpmsl,amod
18,121-127,sklad,ORG[1],_,*->1-1,*[1],_,15,NOUN,Ncmsl,obl
19,128-138,mednaroden,ORG[2],_,*->1-2,*[1],_,22,ADJ,Agpmsay,amod
20,139-146,denaren,ORG[2],_,*->1-2,*[1],_,22,ADJ,Agpmsay,amod
21,147-152,sklad,ORG[2],_,*->1-2,*[1],_,15,NOUN,Ncmsan,obj
22,153-154,(,_,_,_,_,_,24,PUNCT,Z,punct
23,155-158,MDS,ORG,_,*->1-3,*[1],_,22,PROPN,Npmsn,appos
24,159-160,),_,_,_,_,_,24,PUNCT,Z,punct
25,161-162,",",_,_,_,_,_,24,PUNCT,Z,punct
26,163-167,voditi,_,_,_,_,_,7,VERB,Vmpr3s,parataxis
27,168-170,on,_,_,*->1-4,*[1],_,27,PRON,Pp3msa--y,obj
28,171-180,Christine,PER[3],0,*->6-1,*[6],3 - Nevtralno[8],27,PROPN,Npfsn,nsubj
29,181-188,Lagarda,PER[3],0,*->6-1,*[6],3 - Nevtralno[8],29,PROPN,Npfsn,flat:name
30,189-190,(,_,_,_,_,_,33,PUNCT,Z,punct
31,191-193,na,_,_,_,_,_,33,ADP,Sl,case
32,194-199,slika,_,_,_,_,_,29,NOUN,Ncfsl,appos
33,200-201,),_,_,_,_,_,33,PUNCT,Z,punct
34,202-203,",",_,_,_,_,_,33,PUNCT,Z,punct
35,204-212,izgubljati,_,_,_,_,_,7,VERB,Vmpr3s,parataxis
36,213-221,zaupanje,_,_,_,_,_,36,NOUN,Ncnsa,obj
37,222-223,v,_,_,_,_,_,39,ADP,Sa,case
38,224-234,sposobnost,_,_,_,_,_,37,NOUN,Ncfsa,nmod
39,235-241,Grčija,ORG,_,*->2-2,*[2],_,39,PROPN,Npfsg,nmod
40,242-243,",",_,_,_,_,_,45,PUNCT,Z,punct
41,244-246,da,_,_,_,_,_,45,SCONJ,Cs,mark
42,247-249,biti,_,_,_,_,_,45,AUX,Va-c,aux
43,250-255,lahko,_,_,_,_,_,45,ADV,Rgp,advmod
44,256-264,očistiti,_,_,*->2-3,*[2],_,39,VERB,Vmep-sf,acl
45,265-270,svoj,_,_,*->2-4,*[2],_,48,DET,Px-fpa,det
46,271-276,javen,_,_,_,_,_,48,ADJ,Agpfpa,amod
47,277-284,finance,_,_,_,_,_,45,NOUN,Ncfpa,obj
48,285-287,in,_,_,_,_,_,50,CCONJ,Cc,cc
49,288-297,odplačati,_,_,*->2-5,*[2],_,45,VERB,Vmep-sf,conj
50,298-305,ogromen,_,_,_,_,_,53,ADJ,Agpmsan,amod
51,306-311,javen,_,_,_,_,_,53,ADJ,Agpmsay,amod
52,312-316,dolg,_,_,_,_,_,50,ADJ,Agpmsan,obj
53,317-318,",",_,_,_,_,_,45,PUNCT,Z,punct
54,319-325,poročati,_,_,_,_,_,45,VERB,Vmpr3s,conj
55,326-332,nemški,_,_,*->7-1,*[7],_,57,ADJ,Agpfsn,amod
56,333-339,revija,_,_,*->7-1,*[7],_,55,NOUN,Ncfsn,nsubj
57,340-343,der,ORG[4],_,*->7-1,*[7],_,59,X,Xf,nmod
58,344-351,Spiegel,ORG[4],_,*->7-1,*[7],_,57,PROPN,Npmsn,nmod
59,352-353,.,_,_,_,_,_,55,PUNCT,Z,punct
60,354-360,revija,_,_,*->7-2,*[7],_,55,NOUN,Ncfsn,nsubj
61,361-362,",",_,_,_,_,_,65,PUNCT,Z,punct
62,363-369,kateri,_,_,*->7-3,*[7],_,64,DET,Pq-fsg,nmod
63,370-377,pisanje,_,_,_,_,_,65,NOUN,Ncnsa,obj
64,378-387,povzemati,_,_,_,_,_,61,VERB,Vmpr3p,acl
65,388-392,tuj,_,_,_,_,_,68,ADJ,Agpfpa,amod
66,393-401,tiskoven,_,_,_,_,_,68,ADJ,Agpfpa,amod
67,402-410,agencija,_,_,_,_,_,65,NOUN,Ncfpn,obj
68,411-412,",",_,_,_,_,_,65,PUNCT,Z,punct
69,413-415,se,_,_,_,_,_,73,PRON,Px------y,expl
70,416-419,pri,_,_,_,_,_,72,ADP,Sl,case
71,420-423,ta,_,_,_,_,_,73,DET,Pd-nsl,obl
72,424-432,sklicevati,_,_,_,_,_,7,VERB,Vmpr3s,parataxis
73,433-435,na,_,_,_,_,_,76,ADP,Sa,case
74,436-443,interen,_,_,_,_,_,76,ADJ,Agpmsay,amod
75,444-452,dokument,_,_,_,_,_,73,NOUN,Ncmsan,obl
76,453-459,sklad,_,_,_,_,_,76,NOUN,Ncmsg,nmod
77,460-461,.,_,_,_,_,_,73,PUNCT,Z,punct
78,462-465,MDS,ORG,_,*->1-5,*[1],_,82,NOUN,Ncmsn,nsubj
79,466-469,naj,_,_,_,_,_,82,PART,Q,advmod
80,470-472,biti,_,_,_,_,_,82,AUX,Va-c,aux
81,473-483,ugotavljati,_,_,_,_,_,7,VERB,Vmpp-sm,parataxis
82,484-485,",",_,_,_,_,_,91,PUNCT,Z,punct
83,486-488,da,_,_,_,_,_,91,SCONJ,Cs,mark
84,489-491,biti,_,_,_,_,_,91,AUX,Va-r3s-n,cop
85,492-500,trenuten,_,_,_,_,_,88,ADJ,Agpmsny,amod
86,501-508,rešilen,_,_,_,_,_,88,ADJ,Agpmsny,amod
87,509-516,program,_,_,_,_,_,91,NOUN,Ncmsn,nsubj
88,517-519,za,_,_,_,_,_,90,ADP,Sa,case
89,520-526,Grčija,ORG,_,*->2-6,*[2],_,88,PROPN,Npfsa,nmod
90,527-537,nezadosten,_,_,_,_,_,82,ADJ,Agpmsnn,ccomp
91,538-539,",",_,_,_,_,_,91,PUNCT,Z,punct
92,540-544,zato,_,_,_,_,_,98,CCONJ,Cc,cc
93,545-547,biti,_,_,_,_,_,98,AUX,Va-f3s-n,cop
94,548-550,za,_,_,_,_,_,96,ADP,Sa,case
95,551-558,rešitev,_,_,_,_,_,98,NOUN,Ncfsa,obl
96,559-565,država,_,_,*->2-7,*[2],_,96,NOUN,Ncfsg,nmod
97,566-571,nujen,_,_,_,_,_,91,ADJ,Agpnsn,conj
98,572-579,njegov,_,_,_,_,_,100,DET,Ps3nsasm,det
99,580-592,prilagajanje,_,_,_,_,_,98,NOUN,Ncnsa,obj
100,593-594,.,_,_,_,_,_,98,PUNCT,Z,punct
101,595-603,možnost,_,_,_,_,_,98,NOUN,Ncfpn,nsubj
102,604-607,naj,_,_,_,_,_,108,PART,Q,advmod
103,608-610,biti,_,_,_,_,_,108,AUX,Va-c,aux
104,611-615,biti,_,_,_,_,_,108,AUX,Va-p-pf,cop
105,616-619,trije,_,_,_,_,_,102,NUM,Mlcfpn,nummod
106,620-621,:,_,_,_,_,_,108,PUNCT,Z,punct
107,622-626,prvi,_,_,_,_,_,106,ADJ,Mlofsn,amod
108,627-629,biti,_,_,_,_,_,108,AUX,Va-r3p-n,cop
109,630-634,nov,_,_,_,_,_,112,ADJ,Agpmpn,amod
110,635-645,varčevalen,_,_,_,_,_,112,ADJ,Agpmpn,amod
111,646-652,ukrep,_,_,_,_,_,118,NOUN,Ncmpn,nsubj
112,653-657,Aten,ORG,_,*->3-1,*[3],_,112,PROPN,Npfsg,nmod
113,658-659,",",_,_,_,_,_,117,PUNCT,Z,punct
114,660-665,drug,_,_,_,_,_,117,ADJ,Mlpfsn,amod
115,666-671,velik,_,_,_,_,_,117,ADJ,Agcmsny,amod
116,672-677,odpis,_,_,_,_,_,118,NOUN,Ncmsn,nsubj
117,678-683,dolg,_,_,_,_,_,108,ADJ,Agpfsn,acl
118,684-685,z,_,_,_,_,_,120,ADP,Sg,case
119,686-692,stran,_,_,_,_,_,118,NOUN,Ncfsg,obl
120,693-701,zaseben,_,_,_,_,_,122,ADJ,Agpmpg,amod
121,702-709,upnik,_,_,_,_,_,120,NOUN,Ncmpg,nmod
122,710-711,",",_,_,_,_,_,118,PUNCT,Z,punct
123,712-718,tretji,_,_,_,_,_,120,ADJ,Mlofsn,amod
124,719-721,pa,_,_,_,_,_,124,CCONJ,Cc,advmod
125,722-729,dodaten,_,_,_,_,_,128,ADJ,Agpfsn,amod
126,730-738,finančen,_,_,_,_,_,128,ADJ,Agpfsn,amod
127,739-744,pomoč,_,_,_,_,_,124,NOUN,Ncfsn,nsubj
128,745-750,država,_,_,_,_,_,128,NOUN,Ncfpg,nmod
129,751-752,z,_,_,_,_,_,131,ADP,Si,case
130,753-758,evro,_,_,_,_,_,129,NOUN,Ncmsi,nmod
131,759-760,.,_,_,_,_,_,124,PUNCT,Z,punct
132,761-767,trojka,_,_,_,_,_,128,NOUN,Ncfsn,nmod
133,768-773,sredi,_,_,_,_,_,135,ADP,Sg,case
134,774-782,januar,_,_,_,_,_,133,NOUN,Ncmsg,nmod
135,783-790,ponovno,_,_,_,_,_,138,ADV,Rgp,advmod
136,791-792,v,_,_,_,_,_,138,ADP,Sa,case
137,793-798,Atene,ORG,_,*->3-2,*[3],_,133,PROPN,Npfpa,nmod
138,799-811,strokovnjak,_,_,_,_,_,133,NOUN,Ncmpn,nmod
139,812-818,sklad,_,_,_,_,_,139,NOUN,Ncmsg,nmod
140,819-821,biti,_,_,_,_,_,144,AUX,Va-r3p-n,aux
141,822-824,ob,_,_,_,_,_,144,ADP,Sl,case
142,825-828,ta,_,_,_,_,_,144,DET,Pd-nsl,nmod
143,829-837,kritičen,_,_,_,_,_,154,ADJ,Agpmpl,obl
144,838-840,do,_,_,_,_,_,146,ADP,Sg,case
145,841-851,počasnost,_,_,_,_,_,144,NOUN,Ncfsg,nmod
146,852-864,strukturen,_,_,_,_,_,148,ADJ,Agpnsg,amod
147,865-877,prilagajanje,_,_,_,_,_,146,NOUN,Ncnsg,nmod
148,878-884,Grčija,ORG,_,*->2-8,*[2],_,148,PROPN,Npfsg,nmod
149,885-886,.,_,_,_,_,_,144,PUNCT,Z,punct
150,887-895,predvsem,_,_,_,_,_,154,PART,Q,advmod
151,896-901,Atene,ORG,_,*->3-3,*[3],_,154,PROPN,Npfpn,nsubj
152,902-904,ne,_,_,_,_,_,154,PART,Q,advmod
153,905-916,napredovati,_,_,_,_,_,7,VERB,Vmpr3p,parataxis
154,917-923,dovolj,_,_,_,_,_,156,DET,Rgp,advmod
155,924-929,hitro,_,_,_,_,_,158,ADV,Rgp,advmod
156,930-933,pri,_,_,_,_,_,158,ADP,Sl,case
157,934-938,boj,_,_,_,_,_,154,NOUN,Ncmsl,obl
158,939-944,proti,_,_,_,_,_,160,ADP,Sd,case
159,945-955,izogibanje,_,_,_,_,_,158,NOUN,Ncnsd,nmod
160,956-966,plačevanje,_,_,_,_,_,160,NOUN,Ncnsg,nmod
161,967-973,davek,_,_,_,_,_,161,NOUN,Ncmpg,nmod
162,974-977,ter,_,_,_,_,_,165,CCONJ,Cc,cc
163,978-981,pri,_,_,_,_,_,165,ADP,Sl,case
164,982-995,privatizacija,_,_,_,_,_,160,NOUN,Ncfsl,conj
165,996-997,.,_,_,_,_,_,154,PUNCT,Z,punct
166,998-1001,MDS,ORG,0,*->1-6,*[1],3 - Nevtralno,165,NOUN,Ncmsn,nmod
167,1002-1008,skupaj,_,_,_,_,_,178,ADV,Rgp,advmod
168,1009-1010,z,_,_,_,_,_,172,ADP,Si,case
169,1011-1019,evropski,ORG[5],_,*->4-1,*[4],_,172,ADJ,Agpfsi,amod
170,1020-1029,centralen,ORG[5],_,*->4-1,*[4],_,172,ADJ,Agpfsi,amod
171,1030-1035,banka,ORG[5],_,*->4-1,*[4],_,178,NOUN,Ncfsi,obl
172,1036-1037,(,_,_,_,_,_,174,PUNCT,Z,punct
173,1038-1041,ECB,ORG,0,*->4-2,*[4],3 - Nevtralno,172,PROPN,Npmsn,appos
174,1042-1043,),_,_,_,_,_,174,PUNCT,Z,punct
175,1044-1046,in,_,_,_,_,_,177,CCONJ,Cc,cc
176,1047-1049,EU,ORG,0,*->8-1,*[8],3 - Nevtralno,172,PROPN,Npfsi,conj
177,1050-1059,sestavljati,_,_,_,_,_,165,VERB,Vmpr3s,acl
178,1060-1063,t.i,_,_,_,_,_,178,NUM,Mdc,obl
179,1064-1065,.,_,_,_,_,_,178,PUNCT,Z,punct
180,1066-1072,trojka,_,_,_,_,_,178,NOUN,Ncfsa,obj
181,1073-1074,",",_,_,_,_,_,188,PUNCT,Z,punct
182,1075-1077,ki,_,_,_,_,_,188,SCONJ,Cs,mark
183,1078-1080,se,_,_,_,_,_,188,PRON,Px------y,expl
184,1081-1086,sredi,_,_,_,_,_,186,ADP,Sg,case
185,1087-1095,januar,_,_,_,_,_,188,NOUN,Ncmsg,obl
186,1096-1101,znova,_,_,_,_,_,188,ADV,Rgp,advmod
187,1102-1107,vračati,_,_,_,_,_,181,VERB,Vmpr3s,acl
188,1108-1109,v,_,_,_,_,_,190,ADP,Sa,case
189,1110-1115,Atene,LOC,_,*->3-4,*[3],_,188,PROPN,Npfpa,obl
190,1116-1117,.,_,_,_,_,_,178,PUNCT,Z,punct
191,1118-1121,tam,_,_,*->3-5,*[3],_,198,ADV,Rgp,advmod
192,1122-1126,biti,_,_,_,_,_,198,AUX,Va-f3p-n,aux
193,1127-1139,strokovnjak,_,_,_,_,_,198,NOUN,Ncmpn,nsubj
194,1140-1144,ves,_,_,_,_,_,197,DET,Pg-fpg,det
195,1145-1149,trije,_,_,_,_,_,197,NUM,Mlcfpg,nummod
196,1150-1160,institucija,_,_,_,_,_,194,NOUN,Ncfpg,nmod
197,1161-1171,pregledati,_,_,_,_,_,7,VERB,Vmep-pm,parataxis
198,1172-1180,napredek,_,_,_,_,_,198,NOUN,Ncmsan,obj
199,1181-1187,država,_,_,_,_,_,199,NOUN,Ncfsg,nmod
200,1188-1191,pri,_,_,_,_,_,202,ADP,Sl,case
201,1192-1205,izpolnjevanje,_,_,_,_,_,199,NOUN,Ncnsl,nmod
202,1206-1219,zastavljen,_,_,_,_,_,204,ADJ,Appmsg,amod
203,1220-1228,program,_,_,_,_,_,202,NOUN,Ncmsg,nmod
204,1229-1237,sprememba,_,_,_,_,_,204,NOUN,Ncfpg,nmod
205,1238-1239,",",_,_,_,_,_,212,PUNCT,Z,punct
206,1240-1241,k,_,_,_,_,_,208,ADP,Sd,case
207,1242-1249,kateri,_,_,_,_,_,212,DET,Pq-mpd,obl
208,1250-1252,se,_,_,_,_,_,212,PRON,Px------y,expl
209,1253-1255,biti,_,_,_,_,_,212,AUX,Va-r3s-n,aux
210,1256-1262,Grčija,ORG,_,*->2-9,*[2],_,212,PROPN,Npfsn,nsubj
211,1263-1271,zavezati,_,_,_,_,_,205,VERB,Vmpp-sf,acl
212,1272-1273,v,_,_,_,_,_,214,ADP,Sa,case
213,1274-1280,zamena,_,_,_,_,_,212,NOUN,Ncfsa,obl
214,1281-1283,za,_,_,_,_,_,217,ADP,Sa,case
215,1284-1287,110,_,_,_,_,_,217,NUM,Mdc,nummod
216,1288-1296,milijarda,_,_,_,_,_,214,NOUN,Ncfpg,nmod
217,1297-1302,evro,_,_,_,_,_,217,NOUN,Ncmpg,nmod
218,1303-1309,vreden,_,_,_,_,_,220,ADJ,Agpnsa,amod
219,1310-1318,posojilo,_,_,_,_,_,212,NOUN,Ncnsa,obj
220,1319-1320,.,_,_,_,_,_,7,PUNCT,Z,punct
221,1321-1327,tokrat,_,_,_,_,_,228,ADV,Rgp,advmod
222,1328-1333,sicer,_,_,_,_,_,228,PART,Q,advmod
223,1334-1337,pod,_,_,_,_,_,225,ADP,Si,case
224,1338-1348,vprašanje,_,_,_,_,_,228,NOUN,Ncnsi,obl
225,1349-1351,ne,_,_,_,_,_,228,PART,Q,advmod
226,1352-1354,biti,_,_,_,_,_,228,AUX,Va-f3s-n,cop
227,1355-1364,izplačilo,_,_,_,_,_,7,NOUN,Ncnsn,parataxis
228,1365-1369,nov,_,_,_,_,_,230,ADJ,Agpfsg,amod
229,1370-1376,tranše,_,_,_,_,_,228,NOUN,Ncfsg,nmod
230,1377-1387,omenjen,_,_,_,_,_,232,ADJ,Appnsg,amod
231,1388-1396,posojilo,_,_,_,_,_,230,NOUN,Ncnsg,nmod
232,1397-1398,",",_,_,_,_,_,212,PUNCT,Z,punct
233,1399-1402,pač,_,_,_,_,_,239,PART,Q,mark
234,1403-1405,pa,_,_,_,_,_,239,CCONJ,Cc,advmod
235,1406-1408,se,_,_,_,_,_,239,PRON,Px------y,expl
236,1409-1411,biti,_,_,_,_,_,239,AUX,Va-f3s-n,aux
237,1412-1419,pogovor,_,_,_,_,_,239,NOUN,Ncmsn,nsubj
238,1420-1431,osredotočiti,_,_,_,_,_,228,VERB,Vmep-sm,acl
239,1432-1434,na,_,_,_,_,_,243,ADP,Sa,case
240,1435-1440,drug,_,_,_,_,_,243,ADJ,Mlpmsay,amod
241,1441-1448,rešilen,_,_,_,_,_,243,ADJ,Agpmsay,amod
242,1449-1454,paket,_,_,_,_,_,239,NOUN,Ncmsan,obl
243,1455-1457,za,_,_,_,_,_,245,ADP,Sa,case
244,1458-1464,Grčija,ORG,_,*->2-10,*[2],_,243,PROPN,Npfsa,nmod
245,1465-1466,",",_,_,_,_,_,249,PUNCT,Z,punct
246,1467-1469,ki,_,_,_,_,_,249,SCONJ,Cs,mark
247,1470-1472,biti,_,_,_,_,_,249,AUX,Va-r3s-n,cop
248,1473-1479,vreden,_,_,_,_,_,245,ADJ,Agpmsnn,acl
249,1480-1483,130,_,_,_,_,_,251,NUM,Mdc,nummod
250,1484-1492,milijarda,_,_,_,_,_,249,NOUN,Ncfpg,obj
251,1493-1498,evro,_,_,_,_,_,251,NOUN,Ncmpg,nmod
252,1499-1500,.,_,_,_,_,_,239,PUNCT,Z,punct
253,1501-1502,v,_,_,_,_,_,255,ADP,Sl,case
254,1503-1507,on,_,_,_,_,_,257,PRON,Pp3msl,obl
255,1508-1512,biti,_,_,_,_,_,257,AUX,Va-f3p-n,aux
256,1513-1523,sodelovati,_,_,_,_,_,239,VERB,Vmpp-pm,advcl
257,1524-1528,tudi,_,_,_,_,_,257,PART,Q,advmod
258,1529-1536,zaseben,_,_,_,_,_,260,ADJ,Agpmpn,amod
259,1537-1543,upnik,_,_,_,_,_,257,NOUN,Ncmpn,nsubj
260,1544-1545,",",_,_,_,_,_,267,PUNCT,Z,punct
261,1546-1547,z,_,_,_,_,_,263,ADP,Si,case
262,1548-1556,kateri,_,_,_,_,_,267,DET,Pq-fpi,obl
263,1557-1559,se,_,_,_,_,_,267,PRON,Px------y,expl
264,1560-1565,Atene,ORG,2,*->3-6,*[3],2 - Negativno,267,PROPN,Npfpn,nsubj
265,1566-1574,trenutno,_,_,_,_,_,267,ADV,Rgp,advmod
266,1575-1583,pogajati,_,_,_,_,_,260,VERB,Vmpr3p,acl
267,1584-1585,o,_,_,_,_,_,269,ADP,Sl,case
268,1586-1593,pogoj,_,_,_,_,_,267,NOUN,Ncmpl,obl
269,1594-1596,za,_,_,_,_,_,271,ADP,Sa,case
270,1597-1602,odpis,_,_,_,_,_,269,NOUN,Ncmsan,nmod
271,1603-1608,dolg,_,_,_,_,_,271,ADJ,Agpfsn,acl
272,1609-1610,v,_,_,_,_,_,274,ADP,Sl,case
273,1611-1617,višina,_,_,_,_,_,272,NOUN,Ncfsl,obl
274,1618-1620,50,_,_,_,_,_,276,NUM,Mdc,nummod
275,1621-1630,odstotek,_,_,_,_,_,274,NOUN,Ncmpg,nmod
276,1631-1632,.,_,_,_,_,_,257,PUNCT,Z,punct
277,1633-1639,Grčija,ORG,_,*->2-11,*[2],_,279,PROPN,Npfsn,nsubj
278,1640-1643,up,_,_,_,_,_,257,VERB,Vmpr3s,conj
279,1644-1645,",",_,_,_,_,_,284,PUNCT,Z,punct
280,1646-1648,da,_,_,_,_,_,284,SCONJ,Cs,mark
281,1649-1653,biti,_,_,_,_,_,284,AUX,Va-f3p-n,cop
282,1654-1663,pogajanje,_,_,_,_,_,284,NOUN,Ncnpn,nsubj
283,1664-1674,zaključen,_,_,_,_,_,279,ADJ,Appnpn,ccomp
284,1675-1677,do,_,_,_,_,_,286,ADP,Sg,case
285,1678-1683,konec,_,_,_,_,_,284,NOUN,Ncmsg,obl
286,1684-1690,mesec,_,_,_,_,_,286,NOUN,Ncmsg,nmod
287,1691-1692,",",_,_,_,_,_,284,PUNCT,Z,punct
288,1693-1695,biti,_,_,_,_,_,295,AUX,Va-r3s-n,aux
289,1696-1698,za,_,_,_,_,_,293,ADP,Sa,case
290,1699-1705,nemški,_,_,_,_,_,293,ADJ,Agpfsa,amod
291,1706-1714,tiskoven,_,_,_,_,_,293,ADJ,Agpfsa,amod
292,1715-1723,agencija,_,_,_,_,_,295,NOUN,Ncfsa,obl
293,1724-1727,dpa,_,_,_,_,_,295,PROPN,Npmsn,nsubj
294,1728-1733,dejati,_,_,_,_,_,279,VERB,Vmep-sm,ccomp
295,1734-1737,vir,_,_,_,_,_,295,NOUN,Ncmsn,nsubj
296,1738-1740,iz,_,_,_,_,_,300,ADP,Sg,case
297,1741-1748,grški,_,_,_,_,_,300,ADJ,Agpnsg,amod
298,1749-1759,finančen,_,_,_,_,_,300,ADJ,Agpnsg,amod
299,1760-1771,ministrstvo,_,_,_,_,_,296,NOUN,Ncnsg,nmod
300,1772-1773,.,_,_,_,_,_,295,PUNCT,Z,punct
301,1774-1779,Fuest,PER,_,*->5-1,*[5],_,295,PROPN,Npmsn,parataxis
302,1780-1781,:,_,_,_,_,_,307,PUNCT,Z,punct
303,1782-1783,v,_,_,_,_,_,305,ADP,Sl,case
304,1784-1790,Grčija,ORG,_,*->2-12,*[2],_,307,PROPN,Npfsl,obl
305,1791-1793,biti,_,_,_,_,_,307,AUX,Va-f3s-n,cop
306,1794-1802,potreben,_,_,_,_,_,295,ADJ,Agpmsnn,conj
307,1803-1806,več,_,_,_,_,_,313,DET,Rgc,advmod
308,1807-1810,kot,_,_,_,_,_,308,SCONJ,Cs,fixed
309,1811-1813,50,_,_,_,_,_,312,NUM,Mdc,nummod
310,1814-1815,-,_,_,_,_,_,312,PUNCT,Z,punct
311,1816-1824,odstoten,_,_,_,_,_,313,ADJ,Agpmsan,amod
312,1825-1830,odpis,_,_,_,_,_,322,NOUN,Ncmsan,obj
313,1831-1836,dolg,_,_,_,_,_,317,ADJ,Agpfsn,amod
314,1837-1842,grški,_,_,_,_,_,317,ADJ,Agpmpn,amod
315,1843-1850,zaseben,_,_,_,_,_,317,ADJ,Agpmpn,amod
316,1851-1857,upnik,_,_,_,_,_,307,NOUN,Ncmpn,nsubj
317,1858-1860,in,_,_,_,_,_,321,CCONJ,Cc,cc
318,1861-1866,banka,_,_,_,_,_,317,NOUN,Ncfpn,conj
319,1867-1871,biti,_,_,_,_,_,321,AUX,Va-f3p-n,aux
320,1872-1878,morati,_,_,_,_,_,307,VERB,Vmpp-pm,advcl
321,1879-1887,odpisati,_,_,_,_,_,321,VERB,Vmen,xcomp
322,1888-1891,več,_,_,_,_,_,326,DET,Rgc,advmod
323,1892-1895,kot,_,_,_,_,_,323,SCONJ,Cs,fixed
324,1896-1898,50,_,_,_,_,_,326,NUM,Mdc,nummod
325,1899-1908,odstotek,_,_,_,_,_,322,NOUN,Ncmpg,obj
326,1909-1915,dolg,_,_,_,_,_,326,NOUN,Ncmpg,nmod
327,1916-1917,",",_,_,_,_,_,334,PUNCT,Z,punct
328,1918-1920,da,_,_,_,_,_,334,SCONJ,Cs,mark
329,1921-1923,biti,_,_,_,_,_,334,AUX,Va-c,aux
330,1924-1926,se,_,_,_,_,_,334,PRON,Px------y,expl
331,1927-1933,država,_,_,*->2-13,*[2],_,334,NOUN,Ncfsn,nsubj
332,1934-1939,lahko,_,_,_,_,_,334,ADV,Rgp,advmod
333,1940-1946,izviti,_,_,_,_,_,322,VERB,Vmep-sf,advcl
334,1947-1949,iz,_,_,_,_,_,338,ADP,Sg,case
335,1950-1958,globok,_,_,_,_,_,338,ADJ,Agpfpg,amod
336,1959-1968,finančen,_,_,_,_,_,338,ADJ,Agpfpg,amod
337,1969-1974,težava,_,_,_,_,_,334,NOUN,Ncfpg,obl
338,1975-1976,",",_,_,_,_,_,334,PUNCT,Z,punct
339,1977-1979,biti,_,_,_,_,_,344,AUX,Va-r3s-n,aux
340,1980-1982,po,_,_,_,_,_,342,ADP,Sl,case
341,1983-1992,poročanje,_,_,_,_,_,344,NOUN,Ncnsl,obl
342,1993-2001,Reuters,ORG,0,*->9-1,*[9],3 - Nevtralno,342,PROPN,Npmsg,nmod
343,2002-2008,oceniti,_,_,_,_,_,7,VERB,Vmep-sm,parataxis
344,2009-2016,Clemens,PER[6],_,*->5-2,*[5],_,344,PROPN,Npmsn,nsubj
345,2017-2022,Fuest,PER[6],_,*->5-2,*[5],_,345,PROPN,Npmsn,flat:name
346,2023-2024,",",_,_,_,_,_,349,PUNCT,Z,punct
347,2025-2036,gospodarski,_,_,*->5-3,*[5],_,349,ADJ,Agpmsny,amod
348,2037-2047,svetovalec,_,_,*->5-3,*[5],_,345,NOUN,Ncmsn,appos
349,2048-2056,nemški,_,_,*->5-3,*[5],_,352,ADJ,Agpmsg,amod
350,2057-2067,finančen,_,_,*->5-3,*[5],_,352,ADJ,Agpmsg,amod
351,2068-2076,minister,_,_,*->5-3,*[5],_,349,NOUN,Ncmsg,nmod
352,2077-2086,Wolfgang,PER[7],0,*->5-3|*->10-1,*[5]|*[10],3 - Nevtralno[9],352,PROPN,Npmsg,nmod
353,2087-2095,Schwubl,PER[7],0,*->5-3|*->10-1,*[5]|*[10],3 - Nevtralno[9],353,PROPN,Npmsg,flat:name
354,2096-2097,.,_,_,_,_,_,344,PUNCT,Z,punct
355,2098-2099,"""",_,_,_,_,_,360,PUNCT,Z,punct
356,2100-2102,50,_,_,_,_,_,359,NUM,Mdc,nummod
357,2103-2104,-,_,_,_,_,_,359,PUNCT,Z,punct
358,2105-2113,odstoten,_,_,_,_,_,360,ADJ,Agpmsay,amod
359,2114-2119,odpis,_,_,_,_,_,352,NOUN,Ncmsan,conj
360,2120-2126,dolg,_,_,_,_,_,360,NOUN,Ncmpg,nmod
361,2127-2129,biti,_,_,_,_,_,364,AUX,Va-r3s-n,aux
362,2130-2133,biti,_,_,_,_,_,364,AUX,Va-p-sm,cop
363,2134-2143,predviden,_,_,_,_,_,7,ADJ,Appmsnn,parataxis
364,2144-2150,skupaj,_,_,_,_,_,364,ADV,Rgp,advmod
365,2151-2152,z,_,_,_,_,_,367,ADP,Si,case
366,2153-2162,program,_,_,_,_,_,364,NOUN,Ncmsi,obl
367,2163-2173,dolgoročen,_,_,_,_,_,369,ADJ,Agpfsg,amod
368,2174-2187,konsolidacija,_,_,_,_,_,367,NOUN,Ncfsg,nmod
369,2188-2189,",",_,_,_,_,_,372,PUNCT,Z,punct
370,2190-2192,ki,_,_,_,_,_,372,SCONJ,Cs,mark
371,2193-2203,predvidevati,_,_,_,_,_,369,VERB,Vmpr3s,acl
372,2204-2212,znižanje,_,_,_,_,_,372,NOUN,Ncnsa,obj
373,2213-2218,dolg,_,_,_,_,_,373,ADJ,Agpfsn,amod
374,2219-2221,na,_,_,_,_,_,377,ADP,Sa,case
375,2222-2225,120,_,_,_,_,_,377,NUM,Mdc,nummod
376,2226-2235,odstotek,_,_,_,_,_,373,NOUN,Ncmpg,nmod
377,2236-2239,BDP,_,_,_,_,_,377,NOUN,Ncmsg,nmod
378,2240-2242,do,_,_,_,_,_,380,ADP,Sg,case
379,2243-2247,leto,_,_,_,_,_,377,NOUN,Ncnsg,nmod
380,2248-2252,2020,_,_,_,_,_,380,NUM,Mdc,nummod
381,2253-2254,.,_,_,_,_,_,360,PUNCT,Z,punct
382,2255-2261,vendar,_,_,_,_,_,388,CCONJ,Cc,cc
383,2262-2264,pa,_,_,_,_,_,388,CCONJ,Cc,advmod
384,2265-2271,takšen,_,_,_,_,_,386,DET,Pd-msa,det
385,2272-2277,odpis,_,_,_,_,_,388,NOUN,Ncmsn,nsubj
386,2278-2280,ne,_,_,_,_,_,388,PART,Q,advmod
387,2281-2283,biti,_,_,_,_,_,372,VERB,Va-f3s-n,conj
388,2284-2290,dovolj,_,_,_,_,_,388,DET,Rgp,advmod
389,2291-2292,",",_,_,_,_,_,388,PUNCT,Z,punct
390,2293-2296,saj,_,_,_,_,_,395,CCONJ,Cc,cc
391,2297-2299,biti,_,_,_,_,_,395,AUX,Va-r3s-n,aux
392,2300-2305,grški,_,_,_,_,_,394,ADJ,Agpmsny,amod
393,2306-2310,dolg,_,_,_,_,_,395,ADJ,Agpmsan,nsubj
394,2311-2317,znašati,_,_,_,_,_,388,VERB,Vmpp-sm,conj
395,2318-2321,120,_,_,_,_,_,397,NUM,Mdc,nummod
396,2322-2331,odstotek,_,_,_,_,_,395,NOUN,Ncmpg,nsubj
397,2332-2335,BDP,_,_,_,_,_,397,NOUN,Ncmsg,nmod
398,2336-2338,že,_,_,_,_,_,395,PART,Q,advmod
399,2339-2341,ob,_,_,_,_,_,401,ADP,Sl,case
400,2342-2349,začetek,_,_,_,_,_,395,NOUN,Ncmsl,obl
401,2350-2355,kriza,_,_,_,_,_,401,NOUN,Ncfsg,nmod
402,2356-2357,.,_,_,_,_,_,388,PUNCT,Z,punct
403,2358-2362,zato,_,_,_,_,_,405,CCONJ,Cc,cc
404,2363-2367,morati,_,_,_,_,_,395,VERB,Vmpr3s,conj
405,2368-2372,biti,_,_,_,_,_,412,AUX,Va-n,cop
406,2373-2378,odpis,_,_,_,_,_,412,NOUN,Ncmsn,nsubj
407,2379-2382,več,_,_,_,_,_,412,DET,Rgc,advmod
408,2383-2386,kot,_,_,_,_,_,408,SCONJ,Cs,fixed
409,2387-2389,50,_,_,_,_,_,412,NUM,Mdc,nummod
410,2390-2391,-,_,_,_,_,_,412,PUNCT,Z,punct
411,2392-2400,odstoten,_,_,_,_,_,405,ADJ,Agpmsnn,xcomp
412,2401-2402,",",_,_,_,_,_,412,PUNCT,Z,punct
413,2403-2404,"""",_,_,_,_,_,415,PUNCT,Z,punct
414,2405-2409,meniti,_,_,_,_,_,412,VERB,Vmpr3s,conj
415,2410-2415,Fuest,PER,_,*->5-4,*[5],_,415,PROPN,Npmsn,nsubj
416,2416-2417,.,_,_,_,_,_,395,PUNCT,Z,punct
417,2418-2419,"""",_,_,_,_,_,425,PUNCT,Z,punct
418,2420-2422,po,_,_,_,_,_,421,ADP,Sl,case
419,2423-2428,moj,_,_,*->5-5,*[5],_,421,DET,Ps1nsls,det
420,2429-2435,mnenje,_,_,_,_,_,425,NOUN,Ncnsl,obl
421,2436-2438,biti,_,_,_,_,_,425,AUX,Va-r3s-n,aux
422,2439-2445,Grčija,ORG,_,*->2-14,*[2],_,425,PROPN,Npfsn,nsubj
423,2446-2448,že,_,_,_,_,_,425,PART,Q,advmod
424,2449-2461,bankrotirati,_,_,_,_,_,415,VERB,Vmbp-sf,advcl
425,2462-2463,.,_,_,_,_,_,425,PUNCT,Z,punct
426,2464-2470,misliti,_,_,*->5-6,*[5],_,425,VERB,Vmpr1s,conj
427,2471-2472,",",_,_,_,_,_,431,PUNCT,Z,punct
428,2473-2475,da,_,_,_,_,_,431,SCONJ,Cs,mark
429,2476-2478,biti,_,_,_,_,_,431,AUX,Va-c,aux
430,2479-2483,biti,_,_,_,_,_,427,VERB,Va-p-sn,ccomp
431,2484-2492,dobro,_,_,_,_,_,431,ADV,Rgs,advmod
432,2493-2494,",",_,_,_,_,_,437,PUNCT,Z,punct
433,2495-2497,da,_,_,_,_,_,437,SCONJ,Cs,mark
434,2498-2500,biti,_,_,_,_,_,437,AUX,Va-c,aux
435,2501-2508,iskreno,_,_,_,_,_,437,ADV,Rgp,advmod
436,2509-2517,priznati,_,_,_,_,_,431,VERB,Vmep-pm,csubj
437,2518-2519,",",_,_,_,_,_,443,PUNCT,Z,punct
438,2520-2522,da,_,_,_,_,_,443,SCONJ,Cs,mark
439,2523-2529,Grčija,ORG,2,*->2-15,*[2],2 - Negativno,443,PROPN,Npfsn,nsubj
440,2530-2532,ne,_,_,_,_,_,443,PART,Q,advmod
441,2533-2535,biti,_,_,_,_,_,443,AUX,Va-f3s-n,aux
442,2536-2541,moči,_,_,_,_,_,437,VERB,Vmpp-sf,ccomp
443,2542-2551,poplačati,_,_,_,_,_,443,VERB,Vmen,xcomp
444,2552-2558,dolg,_,_,_,_,_,444,NOUN,Ncmpg,obj
445,2559-2560,",",_,_,_,_,_,443,PUNCT,Z,punct
446,2561-2562,"""",_,_,_,_,_,449,PUNCT,Z,punct
447,2563-2565,biti,_,0,*->5-7,*[5],3 - Nevtralno[10],449,AUX,Va-r3s-n,aux
448,2566-2571,dodati,_,0,*->5-7,*[5],3 - Nevtralno[10],7,VERB,Vmep-sm,parataxis
