idx,chars_idx,token,entity_type,sentiment,idk_1,idk_2,orig_sentiment,heads,upos,xpos,deprel
0,0-7,izreden,_,_,_,_,_,2,ADJ,Agpmsny,amod
1,8-15,kongres,_,_,_,_,_,10,NOUN,Ncmsn,nsubj
2,16-23,stranka,_,_,*->6-1,*[6],_,2,NOUN,Ncfsg,nmod
3,24-29,Desus,ORG,_,*->6-1,*[6],_,3,PROPN,Npmsn,nmod
4,30-32,po,_,_,_,_,_,7,ADP,Sl,case
5,33-37,ves,_,_,_,_,_,7,DET,Pg-fsl,det
6,38-49,verjetnost,_,_,_,_,_,10,NOUN,Ncfsl,obl
7,50-52,ne,_,_,_,_,_,10,PART,Q,advmod
8,53-55,biti,_,_,_,_,_,10,AUX,Va-f3s-n,cop
9,56-63,sklican,_,_,_,_,_,0,ADJ,Appmsnn,root
10,64-65,",",_,_,_,_,_,16,PUNCT,Z,punct
11,66-69,saj,_,_,_,_,_,16,CCONJ,Cc,cc
12,70-72,biti,_,_,_,_,_,16,AUX,Va-c,aux
13,73-75,se,_,_,_,_,_,17,PRON,Px------y,expl
14,76-80,zame,_,_,_,_,_,17,PRON,Pp3msa--b,obj
15,81-87,morati,_,_,_,_,_,10,VERB,Vmpp-pm,conj
16,88-98,opredeliti,_,_,_,_,_,16,VERB,Vmen,xcomp
17,99-103,vsaj,_,_,_,_,_,17,PART,Q,advmod
18,104-110,štirje,_,_,_,_,_,20,NUM,Mlcmpn,nummod
19,111-117,odbor,_,_,_,_,_,17,NOUN,Ncmpn,nsubj
20,118-120,od,_,_,_,_,_,23,ADP,Sg,case
21,121-128,deset,_,_,_,_,_,23,NUM,Mlc-pg,nummod
22,129-135,pobuda,_,_,_,_,_,20,NOUN,Ncfsa,nmod
23,136-147,novomeški,_,_,_,_,_,26,ADJ,Agpmsg,amod
24,148-161,pokrajinski,_,_,_,_,_,26,ADJ,Agpmsg,amod
25,162-168,odbor,_,_,_,_,_,23,NOUN,Ncmsg,nmod
26,169-174,Desus,ORG,_,*->6-2,*[6],_,26,PROPN,Npmsn,nmod
27,175-177,za,_,_,_,_,_,29,ADP,Sa,case
28,178-183,sklic,_,_,_,_,_,23,NOUN,Ncmsan,nmod
29,184-193,izreden,_,_,_,_,_,31,ADJ,Agpmsg,amod
30,194-202,kongres,_,_,_,_,_,29,NOUN,Ncmsg,nmod
31,203-210,stranka,_,_,*->6-3,*[6],_,31,NOUN,Ncfsg,nmod
32,211-212,",",_,_,_,_,_,37,PUNCT,Z,punct
33,213-215,na,_,_,_,_,_,35,ADP,Sl,case
34,216-223,kateri,_,_,_,_,_,37,DET,Pq-msl,obl
35,224-226,biti,_,_,_,_,_,37,AUX,Va-c,aux
36,227-236,zamenjati,_,_,_,_,_,32,VERB,Vmep-pm,acl
37,237-248,predsednik,_,_,*->3-1,*[3],_,37,NOUN,Ncmsay,obj
38,249-256,stranka,_,_,*->3-1|*->6-4,*[3]|*[6],_,38,NOUN,Ncfsg,nmod
39,257-262,Karla,PER[1],_,*->3-1,*[3],_,39,PROPN,Npmsg,nmod
40,263-270,Erjavc,PER[1],_,*->3-1,*[3],_,40,PROPN,Npmsg,flat:name
41,271-272,",",_,_,_,_,_,37,PUNCT,Z,punct
42,273-275,biti,_,_,_,_,_,45,AUX,Va-r3p-n,aux
43,276-282,doslej,_,_,_,_,_,45,ADV,Rgp,advmod
44,283-290,podpreti,_,_,_,_,_,10,VERB,Vmep-pm,parataxis
45,291-293,le,_,_,_,_,_,45,PART,Q,advmod
46,294-295,v,_,_,_,_,_,49,ADP,Sl,case
47,296-306,gorenjski,_,_,_,_,_,49,ADJ,Agpmsl,amod
48,307-313,odbor,_,_,_,_,_,45,NOUN,Ncmsl,obl
49,314-315,.,_,_,_,_,_,45,PUNCT,Z,punct
50,316-317,v,_,_,_,_,_,52,ADP,Sl,case
51,318-324,odbor,_,_,_,_,_,49,NOUN,Ncmsl,nmod
52,325-330,Desus,ORG,_,*->6-5,*[6],_,52,PROPN,Npmsn,nmod
53,331-338,severen,LOC[2],_,*->1-1,*[1],_,55,ADJ,Agpfsg,amod
54,339-348,Primorska,LOC[2],_,*->1-1,*[1],_,53,PROPN,Npfsg,nmod
55,349-351,pa,_,_,_,_,_,59,CCONJ,Cc,advmod
56,352-354,biti,_,_,_,_,_,59,AUX,Va-r3p-n,aux
57,355-360,danes,_,_,_,_,_,59,ADV,Rgp,advmod
58,361-370,zahtevati,_,_,_,_,_,10,VERB,Vmbp-pm,parataxis
59,371-372,",",_,_,_,_,_,71,PUNCT,Z,punct
60,373-375,da,_,_,_,_,_,71,SCONJ,Cs,mark
61,376-378,za,_,_,_,_,_,63,ADP,Sa,case
62,379-382,čas,_,_,_,_,_,71,NOUN,Ncmsan,obl
63,383-384,",",_,_,_,_,_,71,PUNCT,Z,punct
64,385-387,ko,_,_,_,_,_,71,SCONJ,Cs,mark
65,388-390,biti,_,_,_,_,_,71,AUX,Va-r3s-n,aux
66,391-398,Erjavec,PER,_,*->3-2,*[3],_,71,PROPN,Npmsn,nsubj
67,399-406,zunanji,_,_,*->3-3,*[3],_,69,ADJ,Agpmsny,amod
68,407-415,minister,_,_,*->3-3,*[3],_,67,NOUN,Ncmsn,appos
69,416-417,",",_,_,_,_,_,69,PUNCT,Z,punct
70,418-427,imenovati,_,_,_,_,_,59,VERB,Vmbr3p,advcl
71,428-437,njegov,_,_,*->3-4,*[3],_,73,DET,Ps3msasm,det
72,438-448,namestnik,_,_,_,_,_,71,NOUN,Ncmsay,obj
73,449-450,.,_,_,_,_,_,71,PUNCT,Z,punct
74,451-461,predsednik,_,_,*->4-1,*[4],_,71,NOUN,Ncmsn,nsubj
75,462-475,pokrajinski,ORG[3],_,*->4-1|*->5-1,*[4]|*[5],_,77,ADJ,Agpmsg,amod
76,476-482,odbor,ORG[3],_,*->4-1|*->5-1,*[4]|*[5],_,75,NOUN,Ncmsg,nmod
77,483-484,(,ORG[3],_,*->4-1|*->5-1,*[4]|*[5],_,86,PUNCT,Z,punct
78,485-487,po,ORG[3],_,*->4-1|*->5-1,*[4]|*[5],_,82,ADP,Sl,case
79,488-489,),ORG[3],_,*->4-1|*->5-1,*[4]|*[5],_,82,PUNCT,Z,punct
80,490-497,severen,ORG[3]|LOC[4],0,*->4-1|*->5-1|*->1-2,*[4]|*[5]|*[1],3 - Nevtralno[17],82,ADJ,Agpfsg,amod
81,498-507,Primorska,ORG[3]|LOC[4],0,*->4-1|*->5-1|*->1-2,*[4]|*[5]|*[1],3 - Nevtralno[17],77,PROPN,Npfsg,nmod
82,508-513,Bojan,PER[5],_,*->4-1,*[4],_,75,PROPN,Npmsn,nmod
83,514-521,Bratina,PER[5],_,*->4-1,*[4],_,83,PROPN,Npmsn,flat:name
84,522-524,biti,_,_,_,_,_,86,AUX,Va-r3s-n,aux
85,525-532,povedati,_,_,_,_,_,10,VERB,Vmep-sm,parataxis
86,533-534,",",_,_,_,_,_,100,PUNCT,Z,punct
87,535-537,da,_,_,_,_,_,93,SCONJ,Cs,mark
88,538-540,od,_,_,_,_,_,91,ADP,Sg,case
89,541-550,izvršen,_,_,_,_,_,91,ADJ,Agpmsg,amod
90,551-557,odbor,_,_,_,_,_,93,NOUN,Ncmsg,obl
91,558-565,stranka,_,_,*->6-6,*[6],_,91,NOUN,Ncfsg,nmod
92,566-575,zahtevati,_,_,_,_,_,86,VERB,Vmbr3p,ccomp
93,576-577,",",_,_,_,_,_,100,PUNCT,Z,punct
94,578-580,da,_,_,_,_,_,100,SCONJ,Cs,mark
95,581-590,morebiten,_,_,_,_,_,98,ADJ,Agpmsny,amod
96,591-599,Erjavčev,PER,_,*->3-5,*[3],_,98,ADJ,Aspmsnn,amod
97,600-609,namestnik,_,_,_,_,_,100,NOUN,Ncmsn,nsubj
98,610-617,stranka,_,_,*->6-7,*[6],_,100,NOUN,Ncfsa,obj
99,618-622,voditi,_,_,_,_,_,93,VERB,Vmpr3s,ccomp
100,623-624,z,_,_,_,_,_,103,ADP,Si,case
101,625-630,ves,_,_,_,_,_,103,DET,Pg-mpi,det
102,631-642,pooblastiti,_,_,_,_,_,100,NOUN,Ncnpi,obl
103,643-644,",",_,_,_,_,_,100,PUNCT,Z,punct
104,645-651,hkrati,_,_,_,_,_,108,ADV,Rgp,advmod
105,652-654,pa,_,_,_,_,_,108,CCONJ,Cc,advmod
106,655-657,biti,_,_,_,_,_,108,AUX,Va-r3p-n,aux
107,658-668,predlagati,_,_,*->5-2,*[5],_,10,VERB,Vmbp-pm,parataxis
108,669-670,",",_,_,_,_,_,114,PUNCT,Z,punct
109,671-673,da,_,_,_,_,_,114,SCONJ,Cs,mark
110,674-679,reden,_,_,_,_,_,112,ADJ,Agpmsay,amod
111,680-687,kongres,_,_,_,_,_,114,NOUN,Ncmsan,obj
112,688-695,stranka,_,_,*->6-8,*[6],_,112,NOUN,Ncfsg,nmod
113,696-704,sklicati,_,_,_,_,_,108,VERB,Vmer3p,ccomp
114,705-710,takoj,_,_,_,_,_,117,ADV,Rgp,advmod
115,711-712,v,_,_,_,_,_,117,ADP,Sl,case
116,713-720,začetek,_,_,_,_,_,114,NOUN,Ncmsl,obl
117,721-732,prihodnji,_,_,_,_,_,119,ADJ,Agpnsg,amod
118,733-737,leto,_,_,_,_,_,117,NOUN,Ncnsg,nmod
119,738-739,",",_,_,_,_,_,114,PUNCT,Z,punct
120,740-742,biti,_,_,_,_,_,123,AUX,Va-r3s-n,aux
121,743-745,še,_,_,_,_,_,123,PART,Q,advmod
122,746-751,dejati,_,0,*->4-2,*[4],3 - Nevtralno,10,VERB,Vmep-sm,parataxis
123,752-753,.,_,_,_,_,_,123,PUNCT,Z,punct
124,754-760,pobuda,_,_,_,_,_,123,NOUN,Ncfsl,obj
125,761-763,za,_,_,_,_,_,127,ADP,Sa,case
126,764-769,sklic,_,_,_,_,_,125,NOUN,Ncmsan,nmod
127,770-779,izreden,_,_,_,_,_,129,ADJ,Agpmsg,amod
128,780-788,kongres,_,_,_,_,_,127,NOUN,Ncmsg,nmod
129,789-796,stranka,_,_,*->6-9,*[6],_,129,NOUN,Ncfsg,nmod
130,797-799,pa,_,_,_,_,_,134,CCONJ,Cc,advmod
131,800-802,se,_,_,_,_,_,134,PRON,Px------y,expl
132,803-807,biti,_,_,_,_,_,134,AUX,Va-r3p-y,aux
133,808-818,pridružiti,_,2,*->5-3,*[5],2 - Negativno,10,VERB,Vmep-pm,parataxis
134,819-820,.,_,_,_,_,_,134,PUNCT,Z,punct
135,821-824,šef,_,_,_,_,_,144,NOUN,Ncmsn,nsubj
136,825-838,ljubljanski,_,_,_,_,_,138,ADJ,Agpmsg,amod
137,839-845,odbor,_,_,_,_,_,136,NOUN,Ncmsg,nmod
138,846-847,z,_,_,_,_,_,140,ADP,Si,case
139,848-855,stanje,_,_,_,_,_,138,NOUN,Ncnsi,nmod
140,856-857,v,_,_,_,_,_,142,ADP,Sl,case
141,858-867,Slovenija,LOC,_,*->2-1,*[2],_,140,PROPN,Npfsl,nmod
142,868-870,biti,_,_,_,_,_,144,AUX,Va-r3s-y,cop
143,871-880,seznanjen,_,_,_,_,_,10,ADJ,Appmsnn,parataxis
144,881-882,v,_,_,_,_,_,148,ADP,Sl,case
145,883-885,po,ORG[6],0,*->7-1,*[7],3 - Nevtralno[18],148,ADP,Sl,case
146,886-891,južen,ORG[6]|LOC[7],0,*->7-1|*->8-1,*[7]|*[8],3 - Nevtralno[18]|3 - Nevtralno[19],148,ADJ,Agpfsg,amod
147,892-901,Primorska,ORG[6]|LOC[7],0,*->7-1|*->8-1,*[7]|*[8],3 - Nevtralno[18]|3 - Nevtralno[19],144,PROPN,Npfsg,obl
148,902-904,se,_,_,_,_,_,157,PRON,Px------y,expl
149,905-907,do,_,_,_,_,_,151,ADP,Sg,case
150,908-916,predlog,_,_,_,_,_,157,NOUN,Ncmsg,obl
151,917-928,dolenjski,_,_,_,_,_,153,ADJ,Agpmsg,amod
152,929-935,odbor,_,_,_,_,_,151,NOUN,Ncmsg,nmod
153,936-944,verjetno,_,_,_,_,_,157,ADV,Rgp,advmod
154,945-947,ne,_,_,_,_,_,157,PART,Q,advmod
155,948-952,biti,_,_,_,_,_,157,AUX,Va-f3p-n,aux
156,953-966,opredeljevati,_,_,_,_,_,144,VERB,Vmpp-pm,csubj
157,967-969,oz,_,_,_,_,_,157,NOUN,Ncmsg,obj
158,970-971,.,_,_,_,_,_,157,PUNCT,Z,punct
159,972-974,ne,_,_,_,_,_,162,PART,Q,advmod
160,975-979,biti,_,_,_,_,_,162,AUX,Va-f3p-n,aux
161,980-990,prispevati,_,_,_,_,_,10,VERB,Vmbp-pm,parataxis
162,991-996,glas,_,_,_,_,_,162,NOUN,Ncmsg,obj
163,997-999,za,_,_,_,_,_,165,ADP,Sa,case
164,1000-1005,sklic,_,_,_,_,_,163,NOUN,Ncmsan,nmod
165,1006-1015,izreden,_,_,_,_,_,167,ADJ,Agpmsg,amod
166,1016-1024,kongres,_,_,_,_,_,165,NOUN,Ncmsg,nmod
167,1025-1032,stranka,_,_,_,_,_,167,NOUN,Ncfsg,nmod
168,1033-1034,.,_,_,_,_,_,162,PUNCT,Z,punct
169,1035-1043,ostrej,_,_,_,_,_,171,ADJ,Agcmpn,nsubj
170,1044-1046,biti,_,_,_,_,_,162,VERB,Va-r3p-n,advcl
171,1047-1049,na,_,_,_,_,_,173,ADP,Sl,case
172,1050-1055,Ptuj,LOC,0,*->9-1,*[9],3 - Nevtralno,171,PROPN,Npmsl,obl
173,1056-1057,",",_,_,_,_,_,181,PUNCT,Z,punct
174,1058-1062,kjer,_,_,_,_,_,181,SCONJ,Cs,mark
175,1063-1065,po,_,_,_,_,_,177,ADP,Sl,case
176,1066-1073,beseda,_,_,_,_,_,181,NOUN,Ncfpl,obl
177,1074-1085,predsednik,_,0,*->10-1,*[10],3 - Nevtralno[20],177,NOUN,Ncmsg,nmod
178,1086-1093,Gorazda,PER[8],0,*->10-1,*[10],3 - Nevtralno[20],178,PROPN,Npmsg,nmod
179,1094-1100,Žmavc,PER[8],0,*->10-1,*[10],3 - Nevtralno[20],179,PROPN,Npmsg,flat:name
180,1101-1111,ocenjevati,_,_,_,_,_,173,VERB,Vmpr3p,acl
181,1112-1113,",",_,_,_,_,_,187,PUNCT,Z,punct
182,1114-1116,da,_,_,_,_,_,187,SCONJ,Cs,mark
183,1117-1119,biti,_,_,_,_,_,187,AUX,Va-r3s-n,cop
184,1120-1128,omenjen,_,_,_,_,_,186,ADJ,Appfsn,amod
185,1129-1135,pobud,_,_,_,_,_,187,NOUN,Ncfsn,nsubj
186,1136-1146,neprimeren,_,_,_,_,_,181,ADJ,Agpfsn,ccomp
187,1147-1149,in,_,_,_,_,_,194,CCONJ,Cc,cc
188,1150-1152,da,_,_,_,_,_,194,SCONJ,Cs,mark
189,1153-1155,za,_,_,_,_,_,191,ADP,Sa,case
190,1156-1161,sklic,_,_,_,_,_,194,NOUN,Ncmsan,obl
191,1162-1171,izreden,_,_,_,_,_,193,ADJ,Agpmsg,amod
192,1172-1180,kongres,_,_,_,_,_,191,NOUN,Ncmsg,nmod
193,1181-1183,biti,_,_,_,_,_,187,VERB,Va-r3s-y,conj
194,1184-1191,potreba,_,_,_,_,_,194,NOUN,Ncfsg,nsubj
195,1192-1193,.,_,_,_,_,_,187,PUNCT,Z,punct
196,1194-1198,tudi,_,_,_,_,_,200,PART,Q,advmod
197,1199-1200,v,_,_,_,_,_,199,ADP,Sl,case
198,1201-1206,Celje,LOC,0,*->11-1,*[11],3 - Nevtralno,200,PROPN,Npnsl,obl
199,1207-1213,meniti,_,_,_,_,_,194,VERB,Vmpr3p,csubj
200,1214-1215,",",_,_,_,_,_,210,PUNCT,Z,punct
201,1216-1218,da,_,_,_,_,_,210,SCONJ,Cs,mark
202,1219-1228,dolenjski,_,_,_,_,_,204,ADJ,Agpfsn,amod
203,1229-1235,pobud,_,_,_,_,_,210,NOUN,Ncfsn,nsubj
204,1236-1237,v,_,_,_,_,_,207,ADP,Sl,case
205,1238-1241,ta,_,_,_,_,_,207,DET,Pd-msl,det
206,1242-1246,čas,_,_,_,_,_,210,NOUN,Ncmsl,obl
207,1247-1249,ne,_,_,_,_,_,210,PART,Q,advmod
208,1250-1252,biti,_,_,_,_,_,210,AUX,Va-c,aux
209,1253-1258,imeti,_,_,_,_,_,200,VERB,Vmpp-sf,ccomp
210,1259-1269,pozitiven,_,_,_,_,_,212,ADJ,Agpmpg,amod
211,1270-1277,učinek,_,_,_,_,_,210,NOUN,Ncmpg,obj
212,1278-1279,.,_,_,_,_,_,210,PUNCT,Z,punct
213,1280-1286,sklic,_,_,_,_,_,218,NOUN,Ncmsl,obj
214,1287-1296,izreden,_,_,_,_,_,216,ADJ,Agpmsg,amod
215,1297-1305,kongres,_,_,_,_,_,214,NOUN,Ncmsg,nmod
216,1306-1310,tako,_,_,_,_,_,218,ADV,Rgp,advmod
217,1311-1323,nasprotovati,_,_,_,_,_,210,VERB,Vmpr3p,conj
218,1324-1326,in,_,_,_,_,_,220,CCONJ,Cc,cc
219,1327-1334,praviti,_,_,_,_,_,218,VERB,Vmbr3p,conj
220,1335-1336,",",_,_,_,_,_,225,PUNCT,Z,punct
221,1337-1339,da,_,_,_,_,_,225,SCONJ,Cs,mark
222,1340-1342,biti,_,_,_,_,_,225,AUX,Va-c,aux
223,1343-1349,zadeva,_,_,_,_,_,226,NOUN,Ncfpa,obj
224,1350-1356,morati,_,_,_,_,_,220,VERB,Vmpp-pm,ccomp
225,1357-1364,urediti,_,_,_,_,_,225,VERB,Vmen,xcomp
226,1365-1372,znotraj,_,_,_,_,_,228,ADP,Sg,case
227,1373-1380,stranka,_,_,*->6-10,*[6],_,226,NOUN,Ncfsg,obl
228,1381-1382,",",_,_,_,_,_,225,PUNCT,Z,punct
229,1383-1385,biti,_,_,_,_,_,231,AUX,Va-r3s-n,aux
230,1386-1394,poudariti,_,_,_,_,_,10,VERB,Vmep-sm,parataxis
231,1395-1405,predsednik,_,0,*->12-1,*[12],3 - Nevtralno[21],231,NOUN,Ncmsn,nsubj
232,1406-1415,celjski,ORG[9],0,*->12-1|*->21-1,*[12]|*[21],3 - Nevtralno[21]|3 - Nevtralno[22],232,ADJ,Agpnsg,amod
233,1416-1418,po,ORG[9],0,*->12-1|*->21-1,*[12]|*[21],3 - Nevtralno[21]|3 - Nevtralno[22],235,ADP,Sl,case
234,1419-1424,Peter,PER[10],0,*->12-1,*[12],3 - Nevtralno[21],232,PROPN,Npmsn,nmod
235,1425-1431,Habjan,PER[10],0,*->12-1,*[12],3 - Nevtralno[21],235,PROPN,Npmsn,flat:name
236,1432-1433,.,_,_,_,_,_,231,PUNCT,Z,punct
237,1434-1444,predsednik,_,_,*->13-1,*[13],_,245,NOUN,Ncmsn,nsubj
238,1445-1458,ljubljanski,ORG[11],0,*->13-1|*->20-1,*[13]|*[20],3 - Nevtralno[23],241,ADJ,Agpnsg,amod
239,1459-1461,po,ORG[11],0,*->13-1|*->20-1,*[13]|*[20],3 - Nevtralno[23],241,ADP,Sl,case
240,1462-1467,Pavel,PER[12],_,*->13-1,*[13],_,238,PROPN,Npmsn,nmod
241,1468-1474,Brglez,PER[12],_,*->13-1,*[13],_,241,PROPN,Npmsn,flat:name
242,1475-1477,biti,_,_,_,_,_,245,AUX,Va-r3s-n,aux
243,1478-1483,danes,_,_,_,_,_,245,ADV,Rgp,advmod
244,1484-1491,povedati,_,_,_,_,_,10,VERB,Vmep-sm,parataxis
245,1492-1493,",",_,_,_,_,_,253,PUNCT,Z,punct
246,1494-1496,da,_,_,_,_,_,253,SCONJ,Cs,mark
247,1497-1498,z,_,_,_,_,_,249,ADP,Si,case
248,1499-1506,stanje,_,_,_,_,_,253,NOUN,Ncnsi,obl
249,1507-1508,v,_,_,_,_,_,251,ADP,Sl,case
250,1509-1518,Slovenija,LOC,0,*->2-2,*[2],3 - Nevtralno,249,PROPN,Npfsl,nmod
251,1519-1521,biti,_,_,_,_,_,253,AUX,Va-r3s-y,cop
252,1522-1531,seznanjen,_,_,*->13-2,*[13],_,245,ADJ,Appmsnn,ccomp
253,1532-1533,",",_,_,_,_,_,253,PUNCT,Z,punct
254,1534-1537,saj,_,_,_,_,_,258,CCONJ,Cc,cc
255,1538-1540,se,_,_,_,_,_,258,PRON,Px------y,expl
256,1541-1549,trenutno,_,_,_,_,_,258,ADV,Rgp,advmod
257,1550-1554,muditi,_,2,*->13-3,*[13],2 - Negativno,253,VERB,Vmpr3s,conj
258,1555-1556,v,_,_,_,_,_,260,ADP,Sl,case
259,1557-1563,tujina,_,_,_,_,_,258,NOUN,Ncfsl,obl
260,1564-1565,.,_,_,_,_,_,253,PUNCT,Z,punct
261,1566-1568,biti,_,_,_,_,_,272,AUX,Va-r3s-n,aux
262,1569-1571,pa,_,_,_,_,_,272,CCONJ,Cc,advmod
263,1572-1583,predsednica,_,0,*->14-1,*[14],3 - Nevtralno[24],272,NOUN,Ncfsn,nsubj
264,1584-1597,ljubljanski,_,0,*->14-1,*[14],3 - Nevtralno[24],267,ADJ,Agpmsg,amod
265,1598-1606,mesten,_,0,*->14-1,*[14],3 - Nevtralno[24],267,ADJ,Agpmsg,amod
266,1607-1613,odbor,_,0,*->14-1,*[14],3 - Nevtralno[24],264,NOUN,Ncmsg,nmod
267,1614-1619,Desus,ORG,0,*->14-1|*->6-11,*[14]|*[6],3 - Nevtralno[24],264,PROPN,Npmsn,nmod
268,1620-1624,Meta,PER[13],0,*->14-1,*[14],3 - Nevtralno[24],268,PROPN,Npmsn,flat:name
269,1625-1630,Vesel,PER[13],0,*->14-1,*[14],3 - Nevtralno[24],268,PROPN,Npmsn,nmod
270,1631-1642,Valentinčič,PER[13],0,*->14-1,*[14],3 - Nevtralno[24],270,PROPN,Npmsn,flat:name
271,1643-1651,potrditi,_,_,_,_,_,10,VERB,Vmep-sf,parataxis
272,1652-1653,",",_,_,_,_,_,282,PUNCT,Z,punct
273,1654-1656,da,_,_,_,_,_,282,SCONJ,Cs,mark
274,1657-1659,do,_,_,_,_,_,276,ADP,Sg,case
275,1660-1668,sestanka,_,_,_,_,_,282,NOUN,Ncmsg,obl
276,1669-1671,na,_,_,_,_,_,279,ADP,Sa,case
277,1672-1680,omenjen,_,_,_,_,_,279,ADJ,Appfsa,amod
278,1681-1685,tema,_,_,_,_,_,282,NOUN,Ncfsa,obl
279,1686-1688,še,_,_,_,_,_,282,PART,Q,advmod
280,1689-1691,biti,_,_,_,_,_,282,AUX,Va-r3s-y,aux
281,1692-1698,priti,_,_,_,_,_,272,VERB,Vmep-sn,ccomp
282,1699-1700,",",_,_,_,_,_,282,PUNCT,Z,punct
283,1701-1702,v,_,_,_,_,_,287,ADP,Sl,case
284,1703-1715,ljubljanski,_,_,_,_,_,287,ADJ,Agpmsl,amod
285,1716-1723,mesten,_,_,_,_,_,287,ADJ,Agpmsl,amod
286,1724-1730,odbor,_,_,_,_,_,289,NOUN,Ncmsl,obl
287,1731-1733,pa,_,_,_,_,_,289,CCONJ,Cc,advmod
288,1734-1740,meniti,_,_,_,_,_,272,VERB,Vmpr3p,root
289,1741-1742,",",_,_,_,_,_,295,PUNCT,Z,punct
290,1743-1745,da,_,_,_,_,_,295,SCONJ,Cs,mark
291,1746-1748,biti,_,_,_,_,_,295,AUX,Va-r3s-n,cop
292,1749-1756,izreden,_,_,_,_,_,294,ADJ,Agpmsny,amod
293,1757-1764,kongres,_,_,_,_,_,295,NOUN,Ncmsn,nsubj
294,1765-1773,namenjen,_,_,_,_,_,289,ADJ,Appmsnn,ccomp
295,1774-1782,izreden,_,_,_,_,_,297,ADJ,Agpfpd,amod
296,1783-1791,razmera,_,_,_,_,_,295,NOUN,Ncfpd,obj
297,1792-1793,",",_,_,_,_,_,295,PUNCT,Z,punct
298,1794-1796,do,_,_,_,_,_,300,ADP,Sg,case
299,1797-1803,takrat,_,_,_,_,_,305,ADV,Rgp,advmod
300,1804-1806,pa,_,_,_,_,_,302,CCONJ,Cc,advmod
301,1807-1809,biti,_,_,_,_,_,289,VERB,Va-r3s-n,advcl
302,1810-1815,treba,_,_,_,_,_,302,ADV,Rgp,advmod
303,1816-1822,stvar,_,_,_,_,_,305,NOUN,Ncfpa,obj
304,1823-1830,urejati,_,_,_,_,_,302,VERB,Vmpn,csubj
305,1831-1838,znotraj,_,_,_,_,_,308,ADP,Sg,case
306,1839-1846,uraden,_,_,_,_,_,308,ADJ,Agpmpg,amod
307,1847-1854,organ,_,_,_,_,_,305,NOUN,Ncmpg,obl
308,1855-1862,stranka,_,_,*->6-12,*[6],_,308,NOUN,Ncfsg,nmod
309,1863-1864,.,_,_,_,_,_,302,PUNCT,Z,punct
310,1865-1872,Erjavec,PER,_,*->3-6,*[3],_,312,PROPN,Npmsn,nsubj
311,1873-1876,imeti,_,_,_,_,_,10,VERB,Vmpr3s-n,parataxis
312,1877-1884,podpora,_,_,_,_,_,312,NOUN,Ncfsa,obj
313,1885-1888,med,_,_,_,_,_,315,ADP,Si,case
314,1889-1897,poslanec,_,_,_,_,_,313,NOUN,Ncmpi,nmod
315,1898-1899,v,_,_,_,_,_,317,ADP,Sl,case
316,1900-1909,pomurski,_,_,*->19-1,*[19],_,324,ADJ,Agpmsl,obl
317,1910-1912,po,_,_,*->19-1,*[19],_,323,ADP,Sl,case
318,1913-1915,se,_,_,_,_,_,324,PRON,Px------y,expl
319,1916-1920,biti,_,_,_,_,_,324,AUX,Va-f3p-n,aux
320,1921-1926,glede,_,_,_,_,_,323,ADP,Sg,case
321,1927-1936,novomeški,_,_,_,_,_,323,ADJ,Agpfsg,amod
322,1937-1943,pobuda,_,_,_,_,_,324,NOUN,Ncfsg,obl
323,1944-1954,opredeliti,_,_,_,_,_,312,VERB,Vmep-pm,conj
324,1955-1956,v,_,_,_,_,_,327,ADP,Sl,case
325,1957-1967,prihodnji,_,_,_,_,_,327,ADJ,Agpmpl,amod
326,1968-1972,dan,_,_,_,_,_,324,NOUN,Ncmpl,obl
327,1973-1974,",",_,_,_,_,_,331,PUNCT,Z,punct
328,1975-1977,ko,_,_,_,_,_,331,SCONJ,Cs,mark
329,1978-1982,biti,_,_,_,_,_,331,AUX,Va-f3p-n,aux
330,1983-1994,obravnavati,_,_,_,_,_,327,VERB,Vmpp-pm,acl
331,1995-2005,varčevalen,_,_,_,_,_,334,ADJ,Agpmpa,amod
332,2006-2012,vladen,_,_,_,_,_,334,ADJ,Agpmpa,amod
333,2013-2019,ukrep,_,_,_,_,_,331,NOUN,Ncmpa,obj
334,2020-2021,",",_,_,_,_,_,338,PUNCT,Z,punct
335,2022-2024,ki,_,_,_,_,_,338,SCONJ,Cs,mark
336,2025-2029,biti,_,_,_,_,_,338,AUX,Va-f3p-n,aux
337,2030-2038,vplivati,_,_,_,_,_,334,VERB,Vmpp-pm,acl
338,2039-2043,tudi,_,_,_,_,_,338,PART,Q,advmod
339,2044-2046,na,_,_,_,_,_,341,ADP,Sa,case
340,2047-2056,življenje,_,_,_,_,_,338,NOUN,Ncnsa,obl
341,2057-2068,upokojenec,_,_,_,_,_,341,NOUN,Ncmpg,nmod
342,2069-2070,",",_,_,_,_,_,338,PUNCT,Z,punct
343,2071-2075,meniti,_,_,_,_,_,10,VERB,Vmpr3s,parataxis
344,2076-2086,predsednik,_,0,*->15-1,*[15],3 - Nevtralno[25],344,NOUN,Ncmsn,nsubj
345,2087-2089,po,ORG[14],0,*->15-1|*->19-2,*[15]|*[19],3 - Nevtralno[25]|3 - Nevtralno[26],348,ADP,Sl,case
346,2090-2098,pomurski,ORG[14],0,*->15-1|*->19-2,*[15]|*[19],3 - Nevtralno[25]|3 - Nevtralno[26],348,ADJ,Agpfsn,amod
347,2099-2104,Franc,PER[15],0,*->15-1,*[15],3 - Nevtralno[25],345,PROPN,Npmsn,nmod
348,2105-2112,Pižmoht,PER[15],0,*->15-1,*[15],3 - Nevtralno[25],348,PROPN,Npmsn,flat:name
349,2113-2114,.,_,_,_,_,_,357,PUNCT,Z,punct
350,2115-2119,kako,_,_,_,_,_,357,ADV,Rgp,advmod
351,2120-2122,biti,_,_,_,_,_,357,AUX,Va-r3p-n,aux
352,2123-2125,se,_,_,_,_,_,357,PRON,Px------y,expl
353,2126-2129,ali,_,_,_,_,_,357,ADV,Rgp,mark
354,2130-2132,se,_,_,_,_,_,357,PRON,Px------y,expl
355,2133-2137,biti,_,_,_,_,_,357,AUX,Va-f3p-n,aux
356,2138-2146,odločiti,_,_,_,_,_,345,VERB,Vmep-pm,acl
357,2147-2148,v,_,_,_,_,_,360,ADP,Sa,case
358,2149-2151,po,_,_,_,_,_,360,ADP,Sa,case
359,2152-2159,Koroška,LOC,0,*->16-1,*[16],3 - Nevtralno,357,PROPN,Npfsg,obl
360,2160-2162,in,_,_,_,_,_,362,CCONJ,Cc,cc
361,2163-2171,Podravje,LOC,0,*->17-1,*[17],3 - Nevtralno,360,PROPN,Npnsg,conj
362,2172-2173,",",_,_,_,_,_,357,PUNCT,Z,punct
363,2174-2176,pa,_,_,_,_,_,367,CCONJ,Cc,advmod
364,2177-2180,jaz,_,_,_,_,_,367,PRON,Pp1-pd,obj
365,2181-2183,biti,_,_,_,_,_,367,AUX,Va-r3s-y,aux
366,2184-2190,uspeti,_,_,_,_,_,10,VERB,Vmep-sn,parataxis
367,2191-2199,izvedeti,_,_,_,_,_,367,VERB,Vmen,xcomp
368,2200-2201,",",_,_,_,_,_,367,PUNCT,Z,punct
369,2202-2205,saj,_,_,_,_,_,375,CCONJ,Cc,cc
370,2206-2214,njihov,_,_,_,_,_,372,DET,Ps3mpgp,det
371,2215-2228,predstavnik,_,_,_,_,_,376,NOUN,Ncmpg,obj
372,2229-2234,danes,_,_,_,_,_,376,ADV,Rgp,advmod
373,2235-2240,biti,_,_,_,_,_,375,AUX,Va-r1p-y,aux
374,2241-2247,uspeti,_,_,_,_,_,368,VERB,Vmep-pm,conj
375,2248-2258,priklicati,_,_,_,_,_,375,VERB,Vmen,xcomp
376,2259-2260,.,_,_,_,_,_,367,PUNCT,Z,punct
377,2261-2264,imeti,_,_,_,_,_,10,VERB,Vmpr3s-n,parataxis
378,2265-2267,pa,_,_,_,_,_,378,CCONJ,Cc,advmod
379,2268-2278,predsednik,_,_,*->3-7,*[3],_,378,NOUN,Ncmsn,nsubj
380,2279-2286,stranka,_,_,*->3-7,*[3],_,380,NOUN,Ncfsg,nmod
381,2287-2294,podpora,_,_,_,_,_,380,NOUN,Ncfsa,nmod
382,2295-2304,poslanec,_,_,_,_,_,382,NOUN,Ncmpg,nmod
383,2305-2306,.,_,_,_,_,_,375,PUNCT,Z,punct
384,2307-2312,vodja,_,_,_,_,_,391,NOUN,Ncmsn,nsubj
385,2313-2322,poslanski,_,_,_,_,_,387,ADJ,Agpfsg,amod
386,2323-2330,skupina,_,_,_,_,_,385,NOUN,Ncfsg,nmod
387,2331-2336,Franc,PER[16],_,*->18-1,*[18],_,385,PROPN,Npmsn,nmod
388,2337-2342,Jurš,PER[16],_,*->18-1,*[18],_,388,PROPN,Npmsn,flat:name
389,2343-2345,biti,_,_,_,_,_,391,AUX,Va-r3s-n,aux
390,2346-2353,potrditi,_,_,_,_,_,10,VERB,Vmep-sm,parataxis
391,2354-2355,",",_,_,_,_,_,396,PUNCT,Z,punct
392,2356-2358,da,_,_,_,_,_,396,SCONJ,Cs,mark
393,2359-2360,"""",_,_,_,_,_,396,PUNCT,Z,punct
394,2361-2372,posameznik,_,_,_,_,_,396,NOUN,Ncmpn,nsubj
395,2373-2381,pozivati,_,_,_,_,_,391,VERB,Vmpr3p,ccomp
396,2382-2383,"""",_,_,_,_,_,398,PUNCT,Z,punct
397,2384-2395,predsednik,_,_,*->3-8,*[3],_,396,NOUN,Ncmsay,obj
398,2396-2403,stranka,_,_,*->3-8|*->6-13,*[3]|*[6],_,398,NOUN,Ncfsg,nmod
399,2404-2405,k,_,_,_,_,_,401,ADP,Sd,case
400,2406-2413,odstop,_,_,_,_,_,398,NOUN,Ncmsd,nmod
401,2414-2416,in,_,_,_,_,_,404,CCONJ,Cc,cc
402,2417-2419,da,_,_,_,_,_,404,SCONJ,Cs,mark
403,2420-2428,pozivati,_,_,_,_,_,396,VERB,Vmpr3p,conj
404,2429-2430,k,_,_,_,_,_,407,ADP,Sd,case
405,2431-2440,izreden,_,_,_,_,_,407,ADJ,Agpmsd,amod
406,2441-2449,kongres,_,_,_,_,_,404,NOUN,Ncmsd,obl
407,2450-2451,.,_,_,_,_,_,10,PUNCT,Z,punct
408,2452-2453,"""",_,_,_,_,_,413,PUNCT,Z,punct
409,2454-2457,jaz,_,_,*->18-2,*[18],_,413,PRON,Pp1-sn,nsubj
410,2458-2460,pa,_,_,_,_,_,413,CCONJ,Cc,advmod
411,2461-2463,le,_,_,_,_,_,413,PART,Q,advmod
412,2464-2470,misliti,_,_,_,_,_,10,VERB,Vmpr1s,parataxis
413,2471-2472,",",_,_,_,_,_,419,PUNCT,Z,punct
414,2473-2475,da,_,_,_,_,_,419,SCONJ,Cs,mark
415,2476-2478,biti,_,_,_,_,_,419,AUX,Va-r3s-n,aux
416,2479-2486,Erjavec,PER,_,*->3-9,*[3],_,419,PROPN,Npmsn,nsubj
417,2487-2493,precej,_,_,_,_,_,419,ADV,Rgp,advmod
418,2494-2503,prispevati,_,_,_,_,_,413,VERB,Vmbp-sm,ccomp
419,2504-2505,k,_,_,_,_,_,421,ADP,Sd,case
420,2506-2517,stabilnost,_,_,_,_,_,419,NOUN,Ncfsd,obl
421,2518-2520,ta,_,_,_,_,_,423,DET,Pd-fsg,det
422,2521-2528,stranka,_,_,_,_,_,421,NOUN,Ncfsg,nmod
423,2529-2531,in,_,_,_,_,_,431,CCONJ,Cc,cc
424,2532-2534,da,_,_,_,_,_,431,SCONJ,Cs,mark
425,2535-2537,on,_,0,*->3-10,*[3],3 - Nevtralno,431,PRON,Pp3msd--y,obj
426,2538-2547,poslanski,_,_,_,_,_,428,ADJ,Agpfsn,amod
427,2548-2555,skupina,_,_,_,_,_,431,NOUN,Ncfsn,nsubj
428,2556-2558,še,_,_,_,_,_,431,PART,Q,advmod
429,2559-2570,stoodstoten,_,_,_,_,_,431,ADV,Rgp,advmod
430,2571-2576,zaupati,_,_,_,_,_,419,VERB,Vmbr3s,conj
431,2577-2578,",",_,_,_,_,_,431,PUNCT,Z,punct
432,2579-2580,"""",_,_,_,_,_,435,PUNCT,Z,punct
433,2581-2583,biti,_,_,_,_,_,435,AUX,Va-r3s-n,aux
434,2584-2589,dejati,_,_,_,_,_,10,VERB,Vmep-sm,parataxis
435,2590-2595,Jurš,PER,_,*->18-3,*[18],_,435,PROPN,Npmsn,nsubj
436,2596-2597,",",_,_,_,_,_,440,PUNCT,Z,punct
437,2598-2600,ki,_,_,_,_,_,440,SCONJ,Cs,mark
438,2601-2603,biti,_,_,_,_,_,440,AUX,Va-r3s-n,aux
439,2604-2611,spomniti,_,0,*->18-4,*[18],3 - Nevtralno,436,VERB,Vmep-sm,acl
440,2612-2613,",",_,_,_,_,_,444,PUNCT,Z,punct
441,2614-2616,da,_,_,_,_,_,444,SCONJ,Cs,mark
442,2617-2619,biti,_,_,_,_,_,444,AUX,Va-r3s-n,aux
443,2620-2625,imeti,_,_,_,_,_,440,VERB,Vmpp-sf,ccomp
444,2626-2633,stranka,_,2,*->6-14,*[6],2 - Negativno,444,NOUN,Ncfsn,nsubj
445,2634-2639,reden,_,_,_,_,_,447,ADJ,Agpmsny,amod
446,2640-2647,kongres,_,_,_,_,_,444,NOUN,Ncmsn,nsubj
447,2648-2655,oktober,_,_,_,_,_,447,NOUN,Ncmsg,nmod
448,2656-2660,lani,_,_,_,_,_,448,ADV,Rgp,advmod
