idx,chars_idx,token,entity_type,sentiment,idk_1,idk_2,orig_sentiment,heads,upos,xpos,deprel
0,0-4,lani,_,_,_,_,_,2,ADV,Rgp,advmod
1,5-11,julij,_,_,_,_,_,8,NOUN,Ncmsg,obl
2,12-14,biti,_,_,_,_,_,8,AUX,Va-r3s-n,aux
3,15-25,trgovinski,_,_,_,_,_,5,ADJ,Agpmsny,amod
4,26-34,presežek,_,_,_,_,_,8,NOUN,Ncmsn,nsubj
5,35-42,območje,_,_,_,_,_,5,NOUN,Ncnsg,nmod
6,43-47,evro,_,_,_,_,_,6,NOUN,Ncmsg,nmod
7,48-54,znašati,_,_,_,_,_,0,VERB,Vmpp-sm,root
8,55-56,',_,_,_,_,_,8,PUNCT,Z,punct
9,57-59,le,_,_,_,_,_,8,PART,Q,advmod
10,60-61,',_,_,_,_,_,13,PUNCT,Z,punct
11,62-65,"0,2",_,_,_,_,_,13,NUM,Mdc,nummod
12,66-75,milijarda,_,_,_,_,_,8,NOUN,Ncfsg,obl
13,76-81,evro,_,_,_,_,_,13,NOUN,Ncmpg,nmod
14,82-83,",",_,_,_,_,_,20,PUNCT,Z,punct
15,84-89,letos,_,_,_,_,_,20,ADV,Rgp,advmod
16,90-92,pa,_,_,_,_,_,20,CCONJ,Cc,advmod
17,93-96,kar,_,_,_,_,_,19,ADV,Rgp,advmod
18,97-101,"14,9",_,_,_,_,_,20,NUM,Mdc,nummod
19,102-111,milijarda,_,_,_,_,_,13,NOUN,Ncfsg,conj
20,112-113,.,_,_,_,_,_,20,PUNCT,Z,punct
21,114-119,izvoz,_,_,_,_,_,28,NOUN,Ncmsn,root
22,120-122,se,_,_,_,_,_,28,PRON,Px------y,expl
23,123-125,biti,_,_,_,_,_,28,AUX,Va-r3s-n,aux
24,126-128,na,_,_,_,_,_,27,ADP,Sl,case
25,129-136,mesečen,_,_,_,_,_,27,ADJ,Agpfsl,amod
26,137-142,raven,_,_,_,_,_,28,NOUN,Ncfsl,obl
27,143-150,okrepiti,_,_,_,_,_,8,VERB,Vmep-sm,parataxis
28,151-153,za,_,_,_,_,_,31,ADP,Sa,case
29,154-157,"2,4",_,_,_,_,_,31,NUM,Mdc,nummod
30,158-166,odstotek,_,_,_,_,_,28,NOUN,Ncmsg,obl
31,167-175,evropski,_,_,_,_,_,34,ADJ,Agpfsd,amod
32,176-183,zunanji,_,_,_,_,_,34,ADJ,Agpfsd,amod
33,184-192,trgovina,_,_,_,_,_,31,NOUN,Ncfsd,nmod
34,193-197,kazati,_,_,_,_,_,28,VERB,Vmpr3s,conj
35,198-203,dobro,_,_,_,_,_,35,ADV,Rgc,advmod
36,204-205,",",_,_,_,_,_,48,PUNCT,Z,punct
37,206-209,saj,_,_,_,_,_,48,CCONJ,Cc,cc
38,210-212,biti,_,_,_,_,_,48,AUX,Va-r3s-n,aux
39,213-220,območje,_,_,_,_,_,48,NOUN,Ncnsa,obj
40,221-225,evro,_,_,_,_,_,40,NOUN,Ncmsg,nmod
41,226-227,v,_,_,_,_,_,43,ADP,Sl,case
42,228-236,trgovina,_,_,_,_,_,48,NOUN,Ncfsl,obl
43,237-238,z,_,_,_,_,_,46,ADP,Si,case
44,239-249,preostal,_,_,_,_,_,46,ADJ,Appmsi,amod
45,250-256,svet,_,_,_,_,_,43,NOUN,Ncmsi,nmod
46,257-263,junij,_,_,_,_,_,48,NOUN,Ncmsg,obl
47,264-274,zabeležiti,_,_,_,_,_,35,VERB,Vmep-sn,conj
48,275-279,"14,9",_,_,_,_,_,50,NUM,Mdc,nummod
49,280-289,milijarda,_,_,_,_,_,48,NOUN,Ncfsg,obl
50,290-295,evro,_,_,_,_,_,50,NOUN,Ncmpg,nmod
51,296-304,presežek,_,_,_,_,_,51,NOUN,Ncmsg,nmod
52,305-306,",",_,_,_,_,_,60,PUNCT,Z,punct
53,307-312,potem,_,_,_,_,_,60,ADV,Rgp,mark
54,313-315,ko,_,_,_,_,_,54,SCONJ,Cs,fixed
55,316-318,biti,_,_,_,_,_,60,AUX,Va-r3s-n,aux
56,319-325,junij,_,_,_,_,_,60,NOUN,Ncmsg,obl
57,326-330,lani,_,_,_,_,_,57,ADV,Rgp,advmod
58,331-339,presežek,_,_,_,_,_,60,NOUN,Ncmsan,obl
59,340-346,znašati,_,_,_,_,_,48,VERB,Vmpp-sm,advcl
60,347-350,"0,2",_,_,_,_,_,62,NUM,Mdc,nummod
61,351-360,milijarda,_,_,_,_,_,60,NOUN,Ncfsg,nsubj
62,361-366,evro,_,_,_,_,_,62,NOUN,Ncmpg,nmod
63,367-368,",",_,_,_,_,_,60,PUNCT,Z,punct
64,369-371,biti,_,_,_,_,_,67,AUX,Va-r3s-n,aux
65,372-377,danes,_,_,_,_,_,67,ADV,Rgp,advmod
66,378-386,sporočiti,_,_,_,_,_,8,VERB,Vmep-sm,parataxis
67,387-395,evropski,_,0,*->10-1,*[10],3 - Nevtralno[3],70,ADJ,Agpmsny,amod
68,396-407,statističen,_,0,*->10-1,*[10],3 - Nevtralno[3],70,ADJ,Agpmsny,amod
69,408-412,urad,_,0,*->10-1,*[10],3 - Nevtralno[3],67,NOUN,Ncmsn,nsubj
70,413-421,Eurostat,ORG,0,*->10-1,*[10],3 - Nevtralno[3],70,PROPN,Npmsn,nmod
71,422-423,.,_,_,_,_,_,67,PUNCT,Z,punct
72,424-429,izvoz,_,_,_,_,_,83,NOUN,Ncmsn,nsubj
73,430-432,se,_,_,_,_,_,83,PRON,Px------y,expl
74,433-435,biti,_,_,_,_,_,83,AUX,Va-r3s-n,aux
75,436-438,po,_,_,_,_,_,79,ADP,Sl,case
76,439-447,sezonsko,_,_,_,_,_,78,ADV,Rgp,advmod
77,448-460,prilagojen,_,_,_,_,_,79,ADJ,Appmpl,amod
78,461-469,podatek,_,_,_,_,_,83,NOUN,Ncmpl,obl
79,470-472,na,_,_,_,_,_,82,ADP,Sl,case
80,473-480,mesečen,_,_,_,_,_,82,ADJ,Agpfsl,amod
81,481-486,raven,_,_,_,_,_,79,NOUN,Ncfsl,nmod
82,487-494,okrepiti,_,_,_,_,_,67,VERB,Vmep-sm,conj
83,495-497,za,_,_,_,_,_,86,ADP,Sa,case
84,498-501,"2,4",_,_,_,_,_,86,NUM,Mdc,nummod
85,502-510,odstotek,_,_,_,_,_,83,NOUN,Ncmsg,obl
86,511-512,",",_,_,_,_,_,83,PUNCT,Z,punct
87,513-517,uvoz,_,_,_,_,_,91,NOUN,Ncmsn,nsubj
88,518-520,pa,_,_,_,_,_,91,CCONJ,Cc,advmod
89,521-523,biti,_,_,_,_,_,91,AUX,Va-r3s-n,aux
90,524-529,ostati,_,_,_,_,_,83,VERB,Vmep-sm,conj
91,530-536,skoraj,_,_,_,_,_,93,PART,Q,advmod
92,537-549,nespremenjen,_,_,_,_,_,91,ADJ,Agpmsnn,xcomp
93,550-551,.,_,_,_,_,_,91,PUNCT,Z,punct
94,552-561,Slovenija,ORG,_,*->2-1,*[2],_,106,PROPN,Npfsn,nsubj
95,562-563,z,_,_,_,_,_,98,ADP,Si,case
96,564-567,"0,1",_,_,_,_,_,98,NUM,Mdc,nummod
97,568-577,milijarda,_,_,_,_,_,106,NOUN,Ncfsi,obl
98,578-597,zunanjetrgovinski,_,_,_,_,_,100,ADJ,Agpmsg,amod
99,598-611,primanjkljaj,_,_,_,_,_,98,NOUN,Ncmsg,nmod
100,612-619,celoten,_,_,_,_,_,102,ADJ,Agpfsn,amod
101,620-622,EU,ORG,_,*->1-1,*[1],_,100,PROPN,Npfsn,nmod
102,623-625,biti,_,_,_,_,_,106,AUX,Va-r3s-n,aux
103,626-630,tako,_,_,_,_,_,105,ADV,Rgp,advmod
104,631-637,junij,_,_,_,_,_,106,NOUN,Ncmsg,obl
105,638-646,izvoziti,_,_,_,_,_,8,VERB,Vmep-sf,parataxis
106,647-649,za,_,_,_,_,_,109,ADP,Sa,case
107,650-653,"0,4",_,_,_,_,_,109,NUM,Mdc,nummod
108,654-663,milijarda,_,_,_,_,_,106,NOUN,Ncfsg,obl
109,664-669,evro,_,_,_,_,_,109,NOUN,Ncmpg,nmod
110,670-673,več,_,_,_,_,_,112,DET,Rgc,det
111,674-679,blago,_,_,_,_,_,116,NOUN,Ncnsg,obj
112,680-683,kot,_,_,_,_,_,116,SCONJ,Cs,mark
113,684-686,on,_,_,_,_,_,116,PRON,Pp3msa--y,obj
114,687-689,biti,_,_,_,_,_,116,AUX,Va-r3s-n,aux
115,690-697,uvoziti,_,_,_,_,_,106,VERB,Vmep-sf,advcl
116,698-699,.,_,_,_,_,_,106,PUNCT,Z,punct
117,700-706,Junij,_,_,_,_,_,122,PROPN,Npmsg,obl
118,707-711,lani,_,_,_,_,_,118,ADV,Rgp,advmod
119,712-714,biti,_,_,_,_,_,122,AUX,Va-r3s-n,aux
120,715-734,sedemindvajseterica,_,_,_,_,_,122,NOUN,Ncfsn,nsubj
121,735-744,ustvariti,_,_,_,_,_,106,VERB,Vmep-sf,parataxis
122,745-749,"15,3",_,_,_,_,_,124,NUM,Mdc,nummod
123,750-759,milijarda,_,_,_,_,_,122,NOUN,Ncfsg,obj
124,760-765,evro,_,_,_,_,_,124,NOUN,Ncmpg,nmod
125,766-779,primanjkljaj,_,_,_,_,_,125,NOUN,Ncmsg,nmod
126,780-781,",",_,_,_,_,_,134,PUNCT,Z,punct
127,782-786,maj,_,_,_,_,_,134,NOUN,Ncmsg,obl
128,787-792,letos,_,_,_,_,_,134,ADV,Rgp,advmod
129,793-795,pa,_,_,_,_,_,134,CCONJ,Cc,advmod
130,796-798,biti,_,_,_,_,_,134,AUX,Va-r3s-n,aux
131,799-801,ta,_,_,_,_,_,133,DET,Pd-msn,det
132,802-807,minus,_,_,_,_,_,134,NOUN,Ncmsn,nsubj
133,808-814,znašati,_,_,_,_,_,122,VERB,Vmpp-sm,advcl
134,815-818,"3,8",_,_,_,_,_,136,NUM,Mdc,nummod
135,819-828,milijarda,_,_,_,_,_,134,NOUN,Ncfsg,obl
136,829-834,evro,_,_,_,_,_,136,NOUN,Ncmpg,nmod
137,835-836,.,_,_,_,_,_,134,PUNCT,Z,punct
138,837-843,država,_,_,_,_,_,137,NOUN,Ncfsg,conj
139,844-846,EU,ORG,_,*->1-2,*[1],_,139,PROPN,Npfsg,nmod
140,847-849,biti,_,_,_,_,_,149,AUX,Va-r3p-n,aux
141,850-856,junij,_,_,_,_,_,149,NOUN,Ncmsg,obl
142,857-861,svoj,_,_,_,_,_,144,DET,Px-msa,det
143,862-867,izvoz,_,_,_,_,_,149,NOUN,Ncmsan,obj
144,868-870,po,_,_,_,_,_,148,ADP,Sl,case
145,871-879,sezonsko,_,_,_,_,_,147,ADV,Rgp,advmod
146,880-892,prilagojen,_,_,_,_,_,148,ADJ,Appmpl,amod
147,893-901,podatek,_,_,_,_,_,144,NOUN,Ncmpl,nmod
148,902-910,okrepiti,_,_,_,_,_,134,VERB,Vmep-pf,conj
149,911-913,za,_,_,_,_,_,152,ADP,Sa,case
150,914-917,"2,1",_,_,_,_,_,152,NUM,Mdc,nummod
151,918-926,odstotek,_,_,_,_,_,149,NOUN,Ncmsg,obl
152,927-928,",",_,_,_,_,_,149,PUNCT,Z,punct
153,929-933,uvoz,_,_,_,_,_,158,NOUN,Ncmsn,nsubj
154,934-936,pa,_,_,_,_,_,158,CCONJ,Cc,cc
155,937-939,za,_,_,_,_,_,158,ADP,Sa,case
156,940-943,"0,9",_,_,_,_,_,158,NUM,Mdc,nummod
157,944-952,odstotek,_,_,_,_,_,149,NOUN,Ncmsg,obl
158,953-954,.,_,_,_,_,_,149,PUNCT,Z,punct
159,955-964,Slovenija,ORG,0,*->2-2,*[2],3 - Nevtralno,167,PROPN,Npfsn,nsubj
160,965-967,biti,_,_,_,_,_,167,AUX,Va-r3s-n,aux
161,968-969,v,_,_,_,_,_,166,ADP,Sl,case
162,970-975,prvi,_,_,_,_,_,166,ADJ,Mlompl,amod
163,976-981,pet,_,_,_,_,_,166,NUM,Mlc-pl,nummod
164,982-991,letošnji,_,_,_,_,_,166,ADJ,Agpmpl,amod
165,992-999,mesec,_,_,_,_,_,167,NOUN,Ncmpl,obl
166,1000-1008,izvoziti,_,_,_,_,_,158,VERB,Vmep-sf,acl
167,1009-1011,za,_,_,_,_,_,170,ADP,Sa,case
168,1012-1016,"10,4",_,_,_,_,_,170,NUM,Mdc,nummod
169,1017-1026,milijarda,_,_,_,_,_,167,NOUN,Ncfsg,obl
170,1027-1032,evro,_,_,_,_,_,170,NOUN,Ncmpg,nmod
171,1033-1038,blago,_,_,_,_,_,171,NOUN,Ncnsg,nmod
172,1039-1040,",",_,_,_,_,_,175,PUNCT,Z,punct
173,1041-1044,kar,_,_,_,_,_,175,PRON,Pr-nsn,nsubj
174,1045-1051,pomeniti,_,_,_,_,_,167,VERB,Vmbr3s,advcl
175,1052-1060,zvišanje,_,_,_,_,_,175,NOUN,Ncnsa,obj
176,1061-1063,za,_,_,_,_,_,178,ADP,Sa,case
177,1064-1072,odstotek,_,_,_,_,_,176,NOUN,Ncmsan,nmod
178,1073-1074,.,_,_,_,_,_,175,PUNCT,Z,punct
179,1075-1079,uvoz,_,_,_,_,_,182,NOUN,Ncmsan,obj
180,1080-1082,biti,_,_,_,_,_,182,AUX,Va-r3s-n,aux
181,1083-1090,znižati,_,_,_,_,_,167,VERB,Vmep-sf,parataxis
182,1091-1093,za,_,_,_,_,_,184,ADP,Sa,case
183,1094-1102,odstotek,_,_,_,_,_,182,NOUN,Ncmsan,obl
184,1103-1105,na,_,_,_,_,_,187,ADP,Sa,case
185,1106-1110,"10,5",_,_,_,_,_,187,NUM,Mdc,nummod
186,1111-1120,milijarda,_,_,_,_,_,184,NOUN,Ncfsg,nmod
187,1121-1126,evro,_,_,_,_,_,187,NOUN,Ncmpg,nmod
188,1127-1129,in,_,_,_,_,_,192,CCONJ,Cc,cc
189,1130-1131,z,_,_,_,_,_,191,ADP,Si,case
190,1132-1135,ta,_,_,_,_,_,192,DET,Pd-nsi,obl
191,1136-1146,zabeležiti,_,_,_,_,_,182,VERB,Vmep-sf,conj
192,1147-1150,"0,1",_,_,_,_,_,194,NUM,Mdc,nummod
193,1151-1160,milijarda,_,_,_,_,_,192,NOUN,Ncfsg,obj
194,1161-1166,evro,_,_,_,_,_,194,NOUN,Ncmpg,nmod
195,1167-1186,zunanjetrgovinski,_,_,_,_,_,197,ADJ,Agpmsg,amod
196,1187-1200,primanjkljaj,_,_,_,_,_,195,NOUN,Ncmsg,nmod
197,1201-1202,.,_,_,_,_,_,192,PUNCT,Z,punct
198,1203-1210,najbolj,_,_,_,_,_,200,ADV,Rgs,advmod
199,1211-1220,okrepljen,_,_,_,_,_,201,ADJ,Appmsan,amod
200,1221-1226,izvoz,_,_,_,_,_,194,NOUN,Ncmsan,conj
201,1227-1228,v,_,_,_,_,_,203,ADP,Sa,case
202,1229-1235,Rusija,ORG,_,*->3-1,*[3],_,201,PROPN,Npfsa,nmod
203,1236-1237,",",_,_,_,_,_,201,PUNCT,Z,punct
204,1238-1245,najmanj,_,_,_,_,_,206,ADV,Rgs,advmod
205,1246-1252,Indija,ORG,_,*->4-1,*[4],_,201,PROPN,Npfsn,appos
206,1253-1255,in,_,_,_,_,_,208,CCONJ,Cc,cc
207,1256-1263,Turčija,ORG,_,*->5-1,*[5],_,206,PROPN,Npfsn,conj
208,1264-1268,tako,_,_,_,_,_,221,ADV,Rgp,advmod
209,1269-1271,biti,_,_,_,_,_,221,AUX,Va-r3s-n,aux
210,1272-1274,EU,ORG,_,*->1-3,*[1],_,221,PROPN,Npfsn,nsubj
211,1275-1278,med,_,_,_,_,_,213,ADP,Si,case
212,1279-1288,januar,_,_,_,_,_,221,NOUN,Ncmsi,obl
213,1289-1291,in,_,_,_,_,_,215,CCONJ,Cc,cc
214,1292-1297,maj,_,_,_,_,_,213,NOUN,Ncmsi,conj
215,1298-1303,glede,_,_,_,_,_,219,ADV,Rgp,advmod
216,1304-1306,na,_,_,_,_,_,219,ADP,Sa,case
217,1307-1312,enak,_,_,_,_,_,219,DET,Pi-nsa,det
218,1313-1320,obdobje,_,_,_,_,_,221,NOUN,Ncnsa,obl
219,1321-1325,lani,_,_,_,_,_,221,ADV,Rgp,advmod
220,1326-1334,okrepiti,_,_,_,_,_,206,VERB,Vmep-sf,parataxis
221,1335-1340,izvoz,_,_,_,_,_,221,NOUN,Ncmsan,obj
222,1341-1342,v,_,_,_,_,_,224,ADP,Sa,case
223,1343-1349,večina,_,_,_,_,_,222,NOUN,Ncfsa,nmod
224,1350-1356,velik,_,_,_,_,_,227,ADJ,Agcfpg,amod
225,1357-1368,trgovinski,_,_,_,_,_,227,ADJ,Agpfpg,amod
226,1369-1378,partnerica,_,_,_,_,_,224,NOUN,Ncfpg,nmod
227,1379-1380,",",_,_,_,_,_,232,PUNCT,Z,punct
228,1381-1385,kjer,_,_,_,_,_,232,SCONJ,Cs,mark
229,1386-1388,biti,_,_,_,_,_,232,AUX,Va-r3s-n,cop
230,1389-1396,najbolj,_,_,_,_,_,232,ADV,Rgs,advmod
231,1397-1403,opazen,_,_,_,_,_,227,ADJ,Agpnsn,acl
232,1404-1413,povečanje,_,_,_,_,_,232,NOUN,Ncnsn,nsubj
233,1414-1420,obsegati,_,_,_,_,_,233,NOUN,Ncmsg,nmod
234,1421-1426,uvoz,_,_,_,_,_,234,NOUN,Ncmsg,nmod
235,1427-1432,blago,_,_,_,_,_,235,NOUN,Ncnsg,nmod
236,1433-1434,v,_,_,_,_,_,238,ADP,Sa,case
237,1435-1441,Rusija,ORG,_,*->3-2,*[3],_,236,PROPN,Npfsa,nmod
238,1442-1443,",",_,_,_,_,_,241,PUNCT,Z,punct
239,1444-1449,južen,ORG[1],1,*->11-1,*[11],4 - Pozitivno[4],241,ADJ,Agpfsa,amod
240,1450-1456,Korej,ORG[1],1,*->11-1,*[11],4 - Pozitivno[4],236,PROPN,Npfsa,conj
241,1457-1458,",",_,_,_,_,_,243,PUNCT,Z,punct
242,1459-1468,Brazilija,ORG,1,*->12-1,*[12],4 - Pozitivno,235,PROPN,Npfsa,conj
243,1469-1471,in,_,_,_,_,_,245,CCONJ,Cc,cc
244,1472-1480,Japonska,ORG,_,*->6-1,*[6],_,235,PROPN,Npfsa,conj
245,1481-1482,.,_,_,_,_,_,232,PUNCT,Z,punct
246,1483-1489,izjema,_,_,_,_,_,245,NOUN,Ncfsn,appos
247,1490-1493,biti,_,_,_,_,_,249,AUX,Va-r3d-n,cop
248,1494-1500,Indija,ORG,_,*->4-2,*[4],_,247,PROPN,Npfsn,nsubj
249,1501-1503,in,_,_,_,_,_,251,CCONJ,Cc,cc
250,1504-1511,Turčija,ORG,_,*->5-2,*[5],_,249,PROPN,Npfsn,conj
251,1512-1513,.,_,_,_,_,_,255,PUNCT,Z,punct
252,1514-1517,kar,_,_,_,_,_,255,PRON,Pr-nsn,nsubj
253,1518-1520,se,_,_,_,_,_,255,PRON,Px------y,expl
254,1521-1525,tikati,_,_,_,_,_,249,VERB,Vmpr3s,acl
255,1526-1531,uvoz,_,_,_,_,_,255,NOUN,Ncmsg,obj
256,1532-1551,sedemindvajseterica,_,_,_,_,_,256,NOUN,Ncfsg,nmod
257,1552-1554,biti,_,_,_,_,_,261,AUX,Va-r3s-n,aux
258,1555-1560,slika,_,_,_,_,_,261,NOUN,Ncfsn,nsubj
259,1561-1565,manj,_,_,_,_,_,261,DET,Rgc,advmod
260,1566-1572,enoten,_,_,_,_,_,255,ADJ,Agpfsn,conj
261,1573-1574,.,_,_,_,_,_,255,PUNCT,Z,punct
262,1575-1582,najbolj,_,_,_,_,_,266,ADV,Rgs,advmod
263,1583-1585,se,_,_,_,_,_,266,PRON,Px------y,expl
264,1586-1588,biti,_,_,_,_,_,266,AUX,Va-r3s-n,aux
265,1589-1596,povečati,_,_,_,_,_,8,VERB,Vmep-sm,parataxis
266,1597-1601,uvoz,_,_,_,_,_,266,NOUN,Ncmsn,nsubj
267,1602-1604,iz,_,_,_,_,_,269,ADP,Sg,case
268,1605-1613,Norveška,ORG,_,*->9-1,*[9],_,267,PROPN,Npfsg,nmod
269,1614-1616,in,_,_,_,_,_,271,CCONJ,Cc,cc
270,1617-1620,ZDA,ORG,_,*->7-1,*[7],_,269,PROPN,Npfpg,conj
271,1621-1622,",",_,_,_,_,_,273,PUNCT,Z,punct
272,1623-1631,velik,_,_,_,_,_,277,ADJ,Agsmsny,amod
273,1632-1634,pa,_,_,_,_,_,273,CCONJ,Cc,advmod
274,1635-1637,biti,_,_,_,_,_,273,AUX,Va-r3s-n,aux
275,1638-1641,biti,_,_,_,_,_,277,AUX,Va-p-sm,cop
276,1642-1647,padec,_,_,_,_,_,266,NOUN,Ncmsn,nsubj
277,1648-1653,uvoz,_,_,_,_,_,277,NOUN,Ncmsg,nmod
278,1654-1659,blago,_,_,_,_,_,278,NOUN,Ncnsg,nmod
279,1660-1662,iz,_,_,_,_,_,281,ADP,Sg,case
280,1663-1669,Indija,ORG,0,*->4-3,*[4],3 - Nevtralno,279,PROPN,Npfsg,nmod
281,1670-1672,in,_,_,_,_,_,283,CCONJ,Cc,cc
282,1673-1681,Japonska,ORG,_,*->6-2,*[6],_,281,PROPN,Npfsg,conj
283,1682-1683,.,_,_,_,_,_,273,PUNCT,Z,punct
284,1684-1701,zunanjetrgovinski,_,_,_,_,_,286,ADJ,Agpmsny,amod
285,1702-1710,presežek,_,_,_,_,_,297,NOUN,Ncmsn,nsubj
286,1711-1716,velik,_,_,_,_,_,286,ADJ,Agcmsny,acl
287,1717-1718,v,_,_,_,_,_,289,ADP,Sl,case
288,1719-1726,menjava,_,_,_,_,_,287,NOUN,Ncfsl,nmod
289,1727-1728,z,_,_,_,_,_,291,ADP,Sg,case
290,1729-1732,ZDA,ORG,_,*->7-2,*[7],_,289,PROPN,Npfpg,nmod
291,1733-1750,zunanjetrgovinski,_,_,_,_,_,293,ADJ,Agpmsny,amod
292,1751-1759,presežek,_,_,_,_,_,297,NOUN,Ncmsn,nsubj
293,1760-1762,EU,ORG,_,*->1-4,*[1],_,293,PROPN,Npfsg,nmod
294,1763-1765,se,_,_,_,_,_,297,PRON,Px------y,expl
295,1766-1768,biti,_,_,_,_,_,297,AUX,Va-r3s-n,aux
296,1769-1775,zvišati,_,_,_,_,_,8,VERB,Vmep-sm,parataxis
297,1776-1777,v,_,_,_,_,_,299,ADP,Sl,case
298,1778-1785,menjava,_,_,_,_,_,297,NOUN,Ncfsl,obl
299,1786-1787,z,_,_,_,_,_,301,ADP,Si,case
300,1788-1791,ZDA,ORG,1,*->7-3,*[7],4 - Pozitivno,299,PROPN,Npfpi,nmod
301,1792-1793,",",_,_,_,_,_,297,PUNCT,Z,punct
302,1794-1797,saj,_,_,_,_,_,306,CCONJ,Cc,cc
303,1798-1800,se,_,_,_,_,_,306,PRON,Px------y,expl
304,1801-1803,biti,_,_,_,_,_,306,AUX,Va-r3s-n,aux
305,1804-1811,povečati,_,_,_,_,_,297,VERB,Vmep-sm,conj
306,1812-1814,za,_,_,_,_,_,309,ADP,Sa,case
307,1815-1820,štirje,_,_,_,_,_,309,NUM,Mlcfpa,nummod
308,1821-1830,milijarda,_,_,_,_,_,306,NOUN,Ncfpa,obl
309,1831-1833,na,_,_,_,_,_,312,ADP,Sa,case
310,1834-1838,"35,5",_,_,_,_,_,312,NUM,Mdc,nummod
311,1839-1847,milijarda,_,_,_,_,_,309,NOUN,Ncfpg,nmod
312,1848-1849,.,_,_,_,_,_,306,PUNCT,Z,punct
313,1850-1852,za,_,_,_,_,_,316,ADP,Sa,case
314,1853-1858,slab,_,_,_,_,_,316,ADJ,Agpfsa,amod
315,1859-1868,milijarda,_,_,_,_,_,319,NOUN,Ncfsa,obl
316,1869-1871,pa,_,_,_,_,_,319,CCONJ,Cc,advmod
317,1872-1874,biti,_,_,_,_,_,319,AUX,Va-r3s-n,aux
318,1875-1881,upasti,_,_,_,_,_,8,VERB,Vmep-sm,parataxis
319,1882-1883,v,_,_,_,_,_,321,ADP,Sl,case
320,1884-1891,menjava,_,_,_,_,_,319,NOUN,Ncfsl,obl
321,1892-1893,z,_,_,_,_,_,323,ADP,Si,case
322,1894-1899,Švico,ORG,2,*->13-1,*[13],2 - Negativno,321,PROPN,Npfsi,nmod
323,1900-1902,na,_,_,_,_,_,326,ADP,Sl,case
324,1903-1907,"18,2",_,_,_,_,_,326,NUM,Mdc,nummod
325,1908-1917,milijarda,_,_,_,_,_,319,NOUN,Ncfsl,obl
326,1918-1920,in,_,_,_,_,_,330,CCONJ,Cc,cc
327,1921-1923,za,_,_,_,_,_,330,ADP,Sa,case
328,1924-1927,pol,_,_,_,_,_,330,DET,Rgp,det
329,1928-1937,milijarda,_,_,_,_,_,326,NOUN,Ncfsg,conj
330,1938-1939,v,_,_,_,_,_,332,ADP,Sl,case
331,1940-1947,menjava,_,_,_,_,_,330,NOUN,Ncfsl,nmod
332,1948-1949,z,_,_,_,_,_,334,ADP,Si,case
333,1950-1957,Turčija,LOC,2,*->5-3,*[5],2 - Negativno,332,PROPN,Npfsi,nmod
334,1958-1960,na,_,_,_,_,_,337,ADP,Sa,case
335,1961-1965,"10,5",_,_,_,_,_,337,NUM,Mdc,nummod
336,1966-1975,milijarda,_,_,_,_,_,334,NOUN,Ncfsg,nmod
337,1976-1981,evro,_,_,_,_,_,337,NOUN,Ncmpg,nmod
338,1982-1983,.,_,_,_,_,_,330,PUNCT,Z,punct
339,1984-1987,kar,_,_,_,_,_,342,PRON,Pr-nsn,nsubj
340,1988-1990,se,_,_,_,_,_,342,PRON,Px------y,expl
341,1991-1995,tikati,_,_,_,_,_,338,VERB,Vmpr3s,acl
342,1996-2002,članica,_,_,_,_,_,342,NOUN,Ncfpg,obj
343,2003-2005,EU,ORG,_,*->1-5,*[1],_,343,PROPN,Npfsg,nmod
344,2006-2008,biti,_,_,_,_,_,354,AUX,Va-r3s-n,aux
345,2009-2017,visok,_,_,_,_,_,348,ADJ,Agsmsny,amod
346,2018-2035,zunanjetrgovinski,_,_,_,_,_,348,ADJ,Agpmsny,amod
347,2036-2044,presežek,_,_,_,_,_,354,NOUN,Ncmsn,nsubj
348,2045-2048,med,_,_,_,_,_,350,ADP,Si,case
349,2049-2058,januar,_,_,_,_,_,348,NOUN,Ncmsi,nmod
350,2059-2061,in,_,_,_,_,_,352,CCONJ,Cc,cc
351,2062-2067,maj,_,_,_,_,_,350,NOUN,Ncmsi,conj
352,2068-2073,letos,_,_,_,_,_,354,ADV,Rgp,advmod
353,2074-2082,beležiti,_,_,_,_,_,342,VERB,Vmpp-sf,conj
354,2083-2090,Nemčija,ORG,1,*->14-1,*[14],4 - Pozitivno,354,PROPN,Npfsn,nsubj
355,2091-2092,(,_,_,_,_,_,359,PUNCT,Z,punct
356,2093-2094,+,_,_,_,_,_,359,NOUN,Ncmsn,nmod
357,2095-2099,"74,7",_,_,_,_,_,359,NUM,Mdc,nummod
358,2100-2109,milijarda,_,_,_,_,_,355,NOUN,Ncfsg,appos
359,2110-2115,evro,_,_,_,_,_,359,NOUN,Ncmpg,nmod
360,2116-2117,),_,_,_,_,_,359,PUNCT,Z,punct
361,2118-2119,",",_,_,_,_,_,357,PUNCT,Z,punct
362,2120-2127,slediti,_,_,_,_,_,354,VERB,Vmpp-pf,conj
363,2128-2130,pa,_,_,_,_,_,363,CCONJ,Cc,advmod
364,2131-2133,biti,_,_,_,_,_,363,AUX,Va-r3p-n,aux
365,2134-2144,nizozemski,ORG,1,*->15-1,*[15],4 - Pozitivno,363,ADJ,Agpfsn,nsubj
366,2145-2146,(,_,_,_,_,_,370,PUNCT,Z,punct
367,2147-2148,+,_,_,_,_,_,370,NOUN,Ncmsn,nmod
368,2149-2153,"20,4",_,_,_,_,_,370,NUM,Mdc,nummod
369,2154-2163,milijarda,_,_,_,_,_,366,NOUN,Ncfpg,appos
370,2164-2169,evro,_,_,_,_,_,370,NOUN,Ncmpg,nmod
371,2170-2171,),_,_,_,_,_,370,PUNCT,Z,punct
372,2172-2174,in,_,_,_,_,_,374,CCONJ,Cc,cc
373,2175-2180,Irska,ORG,1,*->16-1,*[16],4 - Pozitivno,370,PROPN,Npfsn,conj
374,2181-2182,(,_,_,_,_,_,378,PUNCT,Z,punct
375,2183-2184,+,_,_,_,_,_,378,NOUN,Ncmsn,nmod
376,2185-2189,"16,9",_,_,_,_,_,378,NUM,Mdc,nummod
377,2190-2199,milijarda,_,_,_,_,_,374,NOUN,Ncfsg,appos
378,2200-2205,evro,_,_,_,_,_,378,NOUN,Ncmpg,nmod
379,2206-2207,),_,_,_,_,_,378,PUNCT,Z,punct
380,2208-2209,.,_,_,_,_,_,363,PUNCT,Z,punct
381,2210-2227,zunanjetrgovinski,_,_,_,_,_,383,ADJ,Agpmsny,amod
382,2228-2240,primanjkljaj,_,_,_,_,_,384,NOUN,Ncmsn,nsubj
383,2241-2246,nizek,_,_,_,_,_,376,ADJ,Agcmsny,punct
384,2247-2248,v,_,_,_,_,_,386,ADP,Sl,case
385,2249-2256,menjava,_,_,_,_,_,384,NOUN,Ncfsl,obl
386,2257-2258,z,_,_,_,_,_,388,ADP,Si,case
387,2259-2267,Kitajska,ORG,_,*->8-1,*[8],_,386,PROPN,Npfsi,nmod
388,2268-2270,ob,_,_,_,_,_,390,ADP,Sl,case
389,2271-2274,ta,_,_,_,_,_,395,DET,Pd-nsl,obl
390,2275-2277,se,_,_,_,_,_,395,PRON,Px------y,expl
391,2278-2280,biti,_,_,_,_,_,395,AUX,Va-r3s-n,aux
392,2281-2298,zunanjetrgovinski,_,_,_,_,_,394,ADJ,Agpmsny,amod
393,2299-2311,primanjkljaj,_,_,_,_,_,395,NOUN,Ncmsn,nsubj
394,2312-2318,znižati,_,_,_,_,_,384,VERB,Vmep-sm,conj
395,2319-2320,v,_,_,_,_,_,398,ADP,Sl,case
396,2321-2329,blagoven,_,_,_,_,_,398,ADJ,Agpfsl,amod
397,2330-2337,menjava,_,_,_,_,_,395,NOUN,Ncfsl,obl
398,2338-2339,z,_,_,_,_,_,400,ADP,Si,case
399,2340-2348,Kitajska,ORG,2,*->8-2,*[8],2 - Negativno,398,PROPN,Npfsi,nmod
400,2349-2350,",",_,_,_,_,_,402,PUNCT,Z,punct
401,2351-2357,Rusija,ORG,2,*->3-3,*[3],2 - Negativno,400,PROPN,Npfsi,conj
402,2358-2360,in,_,_,_,_,_,404,CCONJ,Cc,cc
403,2361-2369,Japonska,ORG,2,*->6-3,*[6],2 - Negativno,400,PROPN,Npfsi,conj
404,2370-2371,.,_,_,_,_,_,395,PUNCT,Z,punct
405,2372-2378,zvišati,_,_,_,_,_,395,VERB,Vmep-sm,conj
406,2379-2381,pa,_,_,_,_,_,406,CCONJ,Cc,advmod
407,2382-2384,se,_,_,_,_,_,406,PRON,Px------y,expl
408,2385-2387,biti,_,_,_,_,_,406,AUX,Va-r3s-n,aux
409,2388-2389,v,_,_,_,_,_,411,ADP,Sl,case
410,2390-2398,trgovina,_,_,_,_,_,406,NOUN,Ncfsl,obl
411,2399-2400,z,_,_,_,_,_,413,ADP,Si,case
412,2401-2409,Norveška,ORG,1,*->9-2,*[9],4 - Pozitivno,411,PROPN,Npfsi,nmod
413,2410-2411,.,_,_,_,_,_,395,PUNCT,Z,punct
414,2412-2415,pri,_,_,_,_,_,416,ADP,Sl,case
415,2416-2424,članica,_,_,_,_,_,421,NOUN,Ncfpl,obl
416,2425-2427,EU,ORG,0,*->1-6,*[1],3 - Nevtralno,416,PROPN,Npfsg,nmod
417,2428-2430,biti,_,_,_,_,_,421,AUX,Va-r3s-n,aux
418,2431-2439,visok,_,_,_,_,_,420,ADJ,Agsmsay,amod
419,2440-2452,primanjkljaj,_,_,_,_,_,421,NOUN,Ncmsan,obj
420,2453-2458,imeti,_,_,_,_,_,406,VERB,Vmpp-sf,conj
421,2459-2465,velik,ORG[2],2,*->17-1,*[17],2 - Negativno[5],423,ADJ,Agpfsn,amod
422,2466-2475,Britanija,ORG[2],2,*->17-1,*[17],2 - Negativno[5],421,PROPN,Npfsn,nsubj
423,2476-2477,(,_,_,_,_,_,427,PUNCT,Z,punct
424,2478-2479,-,_,_,_,_,_,427,PUNCT,Z,punct
425,2480-2484,"60,9",_,_,_,_,_,427,NUM,Mdc,nummod
426,2485-2494,milijarda,_,_,_,_,_,423,NOUN,Ncfsg,appos
427,2495-2500,evro,_,_,_,_,_,427,NOUN,Ncmpg,nmod
428,2501-2502,),_,_,_,_,_,427,PUNCT,Z,punct
429,2503-2504,",",_,_,_,_,_,427,PUNCT,Z,punct
430,2505-2512,slediti,_,_,_,_,_,421,VERB,Vmpp-pm,conj
431,2513-2515,pa,_,_,_,_,_,431,CCONJ,Cc,advmod
432,2516-2519,biti,_,_,_,_,_,431,AUX,Va-r3d-n,aux
433,2520-2522,on,_,_,_,_,_,431,PRON,Pp3fsd--y,obj
434,2523-2531,Francija,ORG,2,*->18-1,*[18],2 - Negativno,431,PROPN,Npmsn,nsubj
435,2532-2533,(,_,_,_,_,_,439,PUNCT,Z,punct
436,2534-2535,-,_,_,_,_,_,438,PUNCT,Z,punct
437,2536-2540,"36,1",_,_,_,_,_,439,NUM,Mdc,nummod
438,2541-2550,milijarda,_,_,_,_,_,435,NOUN,Ncfsg,appos
439,2551-2556,evro,_,_,_,_,_,439,NOUN,Ncmpg,nmod
440,2557-2558,),_,_,_,_,_,439,PUNCT,Z,punct
441,2559-2561,in,_,_,_,_,_,443,CCONJ,Cc,cc
442,2562-2569,Španija,ORG,2,*->19-1,*[19],2 - Negativno,435,PROPN,Npfsn,conj
443,2570-2571,(,_,_,_,_,_,447,PUNCT,Z,punct
444,2572-2573,-,_,_,_,_,_,447,PUNCT,Z,punct
445,2574-2578,"16,8",_,_,_,_,_,447,NUM,Mdc,nummod
446,2579-2588,milijarda,_,_,_,_,_,443,NOUN,Ncfsg,appos
447,2589-2594,evro,_,_,_,_,_,447,NOUN,Ncmpg,nmod
448,2595-2596,),_,_,_,_,_,447,PUNCT,Z,punct
