idx,chars_idx,token,entity_type,sentiment,idk_1,idk_2,orig_sentiment,heads,upos,xpos,deprel
0,0-3,kar,_,_,_,_,_,3,ADV,Rgp,advmod
1,4-9,nekaj,_,_,_,_,_,3,DET,Rgp,det
2,10-16,delnica,_,_,_,_,_,8,NOUN,Ncfpg,obl
3,17-19,na,_,_,_,_,_,5,ADP,Sl,case
4,20-25,borz,_,_,_,_,_,3,NOUN,Ncfsl,nmod
5,26-28,se,_,_,_,_,_,8,PRON,Px------y,expl
6,29-31,biti,_,_,_,_,_,8,AUX,Va-r3s-n,aux
7,32-40,poceniti,_,_,_,_,_,0,VERB,Vmep-sn,root
8,41-42,",",_,_,_,_,_,15,PUNCT,Z,punct
9,43-46,kar,_,_,_,_,_,15,PRON,Pr-nsn,nsubj
10,47-49,biti,_,_,_,_,_,15,AUX,Va-r3s-n,aux
11,50-56,indeks,_,_,_,_,_,15,NOUN,Ncmsn,nsubj
12,57-60,SBI,_,_,_,_,_,14,PROPN,Npmsn,nmod
13,61-64,TOP,_,_,_,_,_,12,NOUN,Ncmsg,nmod
14,65-74,stanjšati,_,_,_,_,_,8,VERB,Vmep-sn,advcl
15,75-77,za,_,_,_,_,_,18,ADP,Sa,case
16,78-81,pol,_,_,_,_,_,18,DET,Rgp,det
17,82-90,odstotek,_,_,_,_,_,15,NOUN,Ncmsg,obl
18,91-92,.,_,_,_,_,_,23,PUNCT,Z,punct
19,93-102,negativen,_,_,_,_,_,21,ADJ,Agpmsan,amod
20,103-111,predznak,_,_,_,_,_,23,NOUN,Ncmsan,obj
21,112-114,biti,_,_,_,_,_,23,AUX,Va-r3s-n,aux
22,115-120,imeti,_,_,_,_,_,8,VERB,Vmpp-sf,parataxis
23,121-125,tudi,_,_,_,_,_,23,PART,Q,advmod
24,126-140,pometen,_,_,_,_,_,26,ADJ,Agsfsn,amod
25,141-145,Krka,ORG,_,*->1-1,*[1],_,27,PROPN,Npfsn,nmod
26,146-152,stanje,_,_,_,_,_,23,NOUN,Ncnsn,nsubj
27,153-155,ob,_,_,_,_,_,29,ADP,Sl,case
28,156-158,13,_,_,_,_,_,27,NUM,Mdc,nummod
29,159-160,:,_,_,_,_,_,36,PUNCT,Z,punct
30,161-163,00,_,_,_,_,_,36,NUM,Mdc,nummod
31,164-174,posrednik,_,_,_,_,_,36,NOUN,Ncmpn,nsubj
32,175-177,biti,_,_,_,_,_,36,AUX,Va-r3p-n,aux
33,178-183,tek,_,_,_,_,_,36,NOUN,Ncmsi,obj
34,184-189,dan,_,_,_,_,_,34,NOUN,Ncmsg,nmod
35,190-198,skleniti,_,_,_,_,_,23,VERB,Vmep-pm,root
36,199-201,za,_,_,_,_,_,40,ADP,Sa,case
37,202-208,skoraj,_,_,_,_,_,39,PART,Q,advmod
38,209-212,"1,1",_,_,_,_,_,40,NUM,Mdc,nummod
39,213-221,milijon,_,_,_,_,_,36,NOUN,Ncmsg,obl
40,222-227,evro,_,_,_,_,_,40,NOUN,Ncmpg,nmod
41,228-235,promet,_,_,_,_,_,41,NOUN,Ncmsg,nmod
42,236-237,",",_,_,_,_,_,47,PUNCT,Z,punct
43,238-241,313,_,_,_,_,_,47,NUM,Mdc,nummod
44,242-247,tisoč,_,_,_,_,_,44,NUM,Mlc-pa,flat
45,248-250,biti,_,_,_,_,_,47,AUX,Va-r3s-n,aux
46,251-261,prispevati,_,_,_,_,_,36,VERB,Vmbp-sf,advcl
47,262-266,Krka,ORG,_,*->1-2,*[1],_,47,PROPN,Npfsn,nsubj
48,267-268,",",_,_,_,_,_,47,PUNCT,Z,punct
49,269-272,250,_,_,_,_,_,51,NUM,Mdc,nummod
50,273-278,tisoč,_,_,_,_,_,48,NUM,Mlc-pa,nummod
51,279-281,pa,_,_,_,_,_,53,CCONJ,Cc,cc
52,282-290,Mercator,ORG,_,*->2-1,*[2],_,51,PROPN,Npmsn,nmod
53,291-292,.,_,_,_,_,_,53,PUNCT,Z,punct
54,293-299,indeks,_,_,_,_,_,60,NOUN,Ncmsn,nsubj
55,300-303,SBI,_,_,_,_,_,55,PROPN,Npmsn,nmod
56,304-307,TOP,_,_,_,_,_,56,NOUN,Ncmsn,nmod
57,308-310,se,_,_,_,_,_,60,PRON,Px------y,expl
58,311-313,biti,_,_,_,_,_,60,AUX,Va-r3s-n,aux
59,314-320,skrčiti,_,_,_,_,_,8,VERB,Vmep-sm,parataxis
60,321-323,za,_,_,_,_,_,63,ADP,Sa,case
61,324-327,pol,_,_,_,_,_,63,DET,Rgp,det
62,328-336,odstotek,_,_,_,_,_,60,NOUN,Ncmsg,obl
63,337-338,.,_,_,_,_,_,60,PUNCT,Z,punct
64,339-341,na,_,_,_,_,_,66,ADP,Sl,case
65,342-346,vrh,_,_,_,_,_,60,NOUN,Ncmsl,obl
66,347-351,prvi,_,_,_,_,_,68,ADJ,Mlofsg,amod
67,352-360,kotacija,_,_,_,_,_,66,NOUN,Ncfsg,nmod
68,361-363,biti,_,_,_,_,_,74,AUX,Va-r3s-n,aux
69,364-368,biti,_,_,_,_,_,74,AUX,Va-p-sn,aux
70,369-374,sicer,_,_,_,_,_,74,PART,Q,advmod
71,375-382,Gorenje,ORG,_,*->9-1,*[9],_,104,PROPN,Npnsn,nsubj
72,383-384,",",_,_,_,_,_,74,PUNCT,Z,punct
73,385-394,pridobiti,_,_,*->9-2,*[9],_,60,VERB,Vmep-sn,parataxis
74,395-397,biti,_,_,_,_,_,74,AUX,Va-r3s-n,aux
75,398-403,dober,_,_,_,_,_,77,ADJ,Agpmsan,amod
76,404-412,odstotek,_,_,_,_,_,74,NOUN,Ncmsan,obj
77,413-415,in,_,_,_,_,_,79,CCONJ,Cc,cc
78,416-419,pol,_,_,_,_,_,77,DET,Rgp,conj
79,420-421,",",_,_,_,_,_,88,PUNCT,Z,punct
80,422-424,za,_,_,_,_,_,84,ADP,Sa,case
81,425-429,manj,_,_,_,_,_,84,DET,Rgc,advmod
82,430-433,kot,_,_,_,_,_,84,SCONJ,Cs,case
83,434-443,desetinka,_,_,_,_,_,88,NOUN,Ncfsa,obl
84,444-452,odstotek,_,_,_,_,_,84,NOUN,Ncmsg,nmod
85,453-456,biti,_,_,_,_,_,88,AUX,Va-r3d-n,aux
86,457-459,se,_,_,_,_,_,88,PRON,Px------y,expl
87,460-469,podražiti,_,_,_,_,_,74,VERB,Vmep-dm,advcl
88,470-474,NKBM,ORG,_,*->8-1,*[8],_,88,PROPN,Npmsn,nsubj
89,475-477,in,_,_,_,_,_,91,CCONJ,Cc,cc
90,478-486,Mercator,ORG,_,*->2-2,*[2],_,89,PROPN,Npmsn,conj
91,487-488,.,_,_,_,_,_,88,PUNCT,Z,punct
92,489-500,Intereurop,ORG,_,*->5-1,*[5],_,95,PROPN,Npfsn,nsubj
93,501-503,biti,_,_,_,_,_,95,AUX,Va-r3s-n,aux
94,504-510,ostati,_,_,_,_,_,88,VERB,Vmep-sf,conj
95,511-513,na,_,_,_,_,_,97,ADP,Sl,case
96,514-523,izhodišče,_,_,_,_,_,95,NOUN,Ncnsl,obl
97,524-525,.,_,_,_,_,_,95,PUNCT,Z,punct
98,526-528,za,_,_,_,_,_,101,ADP,Sa,case
99,529-532,"0,2",_,_,_,_,_,101,NUM,Mdc,nummod
100,533-541,odstotek,_,_,_,_,_,104,NOUN,Ncmsg,obl
101,542-545,biti,_,_,_,_,_,104,AUX,Va-r3d-n,aux
102,546-548,se,_,_,_,_,_,104,PRON,Px------y,expl
103,549-557,poceniti,_,_,_,_,_,95,VERB,Vmep-dm,advcl
104,558-565,Telekom,ORG,_,*->3-1,*[3],_,104,PROPN,Npmsn,nsubj
105,566-568,in,_,_,_,_,_,107,CCONJ,Cc,cc
106,569-573,Krka,ORG,_,*->1-3,*[1],_,105,PROPN,Npfsn,conj
107,574-575,",",_,_,_,_,_,109,PUNCT,Z,punct
108,576-583,končati,_,_,*->1-4,*[1],_,104,VERB,Vmep-dm,conj
109,584-586,biti,_,_,_,_,_,109,AUX,Va-r3s-n,aux
110,587-590,pri,_,_,_,_,_,112,ADP,Sl,case
111,591-595,cena,_,_,_,_,_,109,NOUN,Ncfsl,obl
112,596-600,"47,9",_,_,_,_,_,114,NUM,Mdc,nummod
113,601-605,evro,_,_,_,_,_,112,NOUN,Ncmsg,nmod
114,606-607,.,_,_,_,_,_,109,PUNCT,Z,punct
115,608-610,za,_,_,_,_,_,119,ADP,Sa,case
116,611-618,dober,_,_,_,_,_,119,ADJ,Agpmsa,amod
117,619-622,pol,_,_,_,_,_,119,DET,Rgp,det
118,623-631,odstotek,_,_,_,_,_,122,NOUN,Ncmsg,obl
119,632-634,se,_,_,_,_,_,122,PRON,Px------y,expl
120,635-637,biti,_,_,_,_,_,122,AUX,Va-r3s-n,aux
121,638-646,poceniti,_,_,_,_,_,109,VERB,Vmep-sf,parataxis
122,647-651,Sava,ORG[1],0,*->10-1,*[10],3 - Nevtralno[8],122,PROPN,Npfsn,nsubj
123,652-654,Re,ORG[1],0,*->10-1,*[10],3 - Nevtralno[8],123,PROPN,Npmsn,nmod
124,655-656,",",_,_,_,_,_,129,PUNCT,Z,punct
125,657-660,"0,9",_,_,_,_,_,127,NUM,Mdc,nummod
126,661-669,odstotek,_,_,_,_,_,129,NOUN,Ncmsg,obl
127,670-672,biti,_,_,_,_,_,129,AUX,Va-r3s-n,aux
128,673-680,izgubiti,_,_,_,_,_,122,VERB,Vmep-sm,advcl
129,681-688,Triglav,ORG,_,*->6-1,*[6],_,129,PROPN,Npmsan,obj
130,689-690,.,_,_,_,_,_,129,PUNCT,Z,punct
131,691-693,za,_,_,_,_,_,134,ADP,Sa,case
132,694-697,"1,2",_,_,_,_,_,134,NUM,Mdc,nummod
133,698-706,odstotek,_,_,_,_,_,137,NOUN,Ncmsg,obl
134,707-709,se,_,_,_,_,_,137,PRON,Px------y,expl
135,710-712,biti,_,_,_,_,_,137,AUX,Va-r3s-n,aux
136,713-721,poceniti,_,_,_,_,_,129,VERB,Vmep-sf,conj
137,722-726,Luka,ORG[2],_,*->7-1,*[7],_,137,PROPN,Npmsn,nsubj
138,727-732,Koper,ORG[2]|LOC[3],_,*->7-1,*[7],_,138,PROPN,Npmsn,flat:name
139,733-734,",",_,_,_,_,_,144,PUNCT,Z,punct
140,735-741,Petrol,ORG,_,*->4-1,*[4],_,144,PROPN,Npmsn,nsubj
141,742-744,pa,_,_,_,_,_,144,CCONJ,Cc,advmod
142,745-747,biti,_,_,_,_,_,144,AUX,Va-r3s-n,aux
143,748-753,pasti,_,_,_,_,_,137,VERB,Vmep-sm,advcl
144,754-756,za,_,_,_,_,_,146,ADP,Sa,case
145,757-765,odstotek,_,_,_,_,_,144,NOUN,Ncmsan,obl
146,766-768,in,_,_,_,_,_,148,CCONJ,Cc,cc
147,769-772,pol,_,_,_,_,_,146,DET,Rgp,conj
148,773-774,.,_,_,_,_,_,144,PUNCT,Z,punct
149,775-781,stanje,_,_,_,_,_,144,NOUN,Ncnsa,nsubj
150,782-784,ob,_,_,_,_,_,152,ADP,Sl,case
151,785-787,12,_,_,_,_,_,155,NUM,Mdc,nummod
152,788-789,:,_,_,_,_,_,158,PUNCT,Z,punct
153,790-792,10,_,_,_,_,_,155,NUM,Mdc,nummod
154,793-799,promet,_,_,_,_,_,158,NOUN,Ncmsn,nsubj
155,800-802,se,_,_,_,_,_,158,PRON,Px------y,expl
156,803-809,počasi,_,_,_,_,_,158,ADV,Rgp,advmod
157,810-820,približevati,_,_,_,_,_,137,VERB,Vmpr3s,parataxis
158,821-829,milijon,_,_,_,_,_,158,NOUN,Ncmsd,obj
159,830-835,evro,_,_,_,_,_,159,NOUN,Ncmpg,nmod
160,836-837,",",_,_,_,_,_,164,PUNCT,Z,punct
161,838-839,z,_,_,_,_,_,164,ADP,Si,case
162,840-843,241,_,_,_,_,_,164,NUM,Mdc,nummod
163,844-852,tisočak,_,_,_,_,_,172,NOUN,Ncmpi,obl
164,853-855,biti,_,_,_,_,_,172,AUX,Va-r3s-n,aux
165,856-863,vodilen,_,_,_,_,_,167,ADJ,Agpfsn,amod
166,864-868,Krka,ORG,_,*->1-5,*[1],_,158,PROPN,Npfsn,nsubj
167,869-870,",",_,_,_,_,_,172,PUNCT,Z,punct
168,871-875,malo,_,_,_,_,_,170,DET,Rgp,advmod
169,876-880,manj,_,_,_,_,_,172,DET,Rgc,advmod
170,881-883,biti,_,_,_,_,_,172,AUX,Va-r3s-n,aux
171,884-893,prispevati,_,_,_,_,_,158,VERB,Vmbp-sm,parataxis
172,894-902,Mercator,ORG,_,*->2-3,*[2],_,172,PROPN,Npmsn,nsubj
173,903-904,",",_,_,_,_,_,180,PUNCT,Z,punct
174,905-907,za,_,_,_,_,_,177,ADP,Sa,case
175,908-911,"0,2",_,_,_,_,_,177,NUM,Mdc,nummod
176,912-920,odstotek,_,_,_,_,_,180,NOUN,Ncmsg,obl
177,921-923,pa,_,_,_,_,_,180,CCONJ,Cc,advmod
178,924-926,biti,_,_,_,_,_,180,AUX,Va-r3s-n,aux
179,927-932,pasti,_,_,_,_,_,172,VERB,Vmep-sm,advcl
180,933-936,SBI,_,_,_,_,_,180,NOUN,Ncmsn,nsubj
181,937-940,TOP,_,_,_,_,_,181,PROPN,Npmsn,nmod
182,941-942,.,_,_,_,_,_,180,PUNCT,Z,punct
183,943-944,v,_,_,_,_,_,186,ADP,Sl,case
184,945-951,rdeč,_,_,_,_,_,186,ADJ,Agpfpl,amod
185,952-961,številka,_,_,_,_,_,189,NOUN,Ncfpl,obl
186,962-965,biti,_,_,_,_,_,189,AUX,Va-r3d-n,aux
187,966-969,dva,_,_,_,_,_,189,NUM,Mlcfdn,nummod
188,970-977,delnica,_,_,_,_,_,180,NOUN,Ncfdn,nsubj
189,978-979,",",_,_,_,_,_,194,PUNCT,Z,punct
190,980-982,za,_,_,_,_,_,192,ADP,Sa,case
191,983-991,odstotek,_,_,_,_,_,194,NOUN,Ncmsan,obl
192,992-994,biti,_,_,_,_,_,194,AUX,Va-r3s-n,aux
193,995-1000,pasti,_,_,_,_,_,189,VERB,Vmep-sm,acl
194,1001-1007,Petrol,ORG,_,*->4-2,*[4],_,194,PROPN,Npmsn,nsubj
195,1008-1009,",",_,_,_,_,_,194,PUNCT,Z,punct
196,1010-1017,Telekom,ORG,_,*->3-2,*[3],_,199,PROPN,Npmsn,nsubj
197,1018-1020,biti,_,_,_,_,_,199,AUX,Va-r3s-n,aux
198,1021-1028,izgubiti,_,_,_,_,_,194,VERB,Vmep-sm,conj
199,1029-1032,"0,2",_,_,_,_,_,201,NUM,Mdc,nummod
200,1033-1041,odstotek,_,_,_,_,_,199,NOUN,Ncmsg,obj
201,1042-1043,.,_,_,_,_,_,199,PUNCT,Z,punct
202,1044-1055,Intereurop,ORG,_,*->5-2,*[5],_,201,PROPN,Npmsn,conj
203,1056-1057,",",_,_,_,_,_,205,PUNCT,Z,punct
204,1058-1062,Krka,ORG,_,*->1-6,*[1],_,203,PROPN,Npfsn,conj
205,1063-1065,in,_,_,_,_,_,207,CCONJ,Cc,cc
206,1066-1073,Triglav,ORG,_,*->6-2,*[6],_,203,PROPN,Npmsn,conj
207,1074-1076,biti,_,_,_,_,_,214,AUX,Va-r3p-n,aux
208,1077-1079,na,_,_,_,_,_,210,ADP,Sl,case
209,1080-1089,izhodišče,_,_,_,_,_,203,NOUN,Ncnsl,obl
210,1090-1091,",",_,_,_,_,_,214,PUNCT,Z,punct
211,1092-1101,minimalen,_,_,_,_,_,213,ADJ,Agpfsa,amod
212,1102-1106,rast,_,_,_,_,_,214,NOUN,Ncfsa,obj
213,1107-1113,beležiti,_,_,_,_,_,203,VERB,Vmpr3s,acl
214,1114-1122,Mercator,ORG,_,*->2-4,*[2],_,214,PROPN,Npmsn,nsubj
215,1123-1124,.,_,_,_,_,_,214,PUNCT,Z,punct
216,1125-1127,za,_,_,_,_,_,218,ADP,Sa,case
217,1128-1137,desetinka,_,_,_,_,_,221,NOUN,Ncfsa,obl
218,1138-1140,se,_,_,_,_,_,221,PRON,Px------y,expl
219,1141-1143,biti,_,_,_,_,_,221,AUX,Va-r3s-n,aux
220,1144-1152,okrepiti,_,_,_,_,_,8,VERB,Vmep-sf,parataxis
221,1153-1157,Luka,ORG[4],_,*->7-2,*[7],_,221,PROPN,Npfsn,nsubj
222,1158-1163,Koper,ORG[4]|LOC[5],_,*->7-2,*[7],_,222,PROPN,Npmsn,flat:name
223,1164-1165,",",_,_,_,_,_,229,PUNCT,Z,punct
224,1166-1168,za,_,_,_,_,_,227,ADP,Sa,case
225,1169-1172,"0,8",_,_,_,_,_,227,NUM,Mdc,nummod
226,1173-1181,odstotek,_,_,_,_,_,229,NOUN,Ncmsg,obl
227,1182-1184,biti,_,_,_,_,_,229,AUX,Va-r3s-n,aux
228,1185-1192,skočiti,_,_,_,_,_,221,VERB,Vmep-sf,advcl
229,1193-1197,NKBM,ORG,_,*->8-2,*[8],_,229,PROPN,Npfsa,obj
230,1198-1199,",",_,_,_,_,_,235,PUNCT,Z,punct
231,1200-1207,Gorenje,ORG,_,*->9-3,*[9],_,235,PROPN,Npnsn,nsubj
232,1208-1210,pa,_,_,_,_,_,235,CCONJ,Cc,advmod
233,1211-1213,biti,_,_,_,_,_,235,AUX,Va-r3s-n,aux
234,1214-1220,zrasti,_,_,_,_,_,229,VERB,Vmep-sn,conj
235,1221-1223,za,_,_,_,_,_,238,ADP,Sa,case
236,1224-1228,"1,65",_,_,_,_,_,238,NUM,Mdc,nummod
237,1229-1237,odstotek,_,_,_,_,_,235,NOUN,Ncmsg,obl
238,1238-1239,.,_,_,_,_,_,235,PUNCT,Z,punct
239,1240-1246,stanje,_,_,_,_,_,235,NOUN,Ncnsn,nsubj
240,1247-1249,ob,_,_,_,_,_,242,ADP,Sl,case
241,1250-1252,11,_,_,_,_,_,245,NUM,Mdc,nummod
242,1253-1254,:,_,_,_,_,_,246,PUNCT,Z,punct
243,1255-1257,20,_,_,_,_,_,242,NUM,Mdc,conj
244,1258-1266,Mercator,ORG,_,*->2-5,*[2],_,246,PROPN,Npmsn,nsubj
245,1267-1273,ostajati,_,_,_,_,_,235,VERB,Vmpr3s,advcl
246,1274-1276,na,_,_,_,_,_,248,ADP,Sl,case
247,1277-1281,vrh,_,_,_,_,_,246,NOUN,Ncmsl,obl
248,1282-1284,po,_,_,_,_,_,250,ADP,Sl,case
249,1285-1292,promet,_,_,_,_,_,248,NOUN,Ncmsl,nmod
250,1293-1294,",",_,_,_,_,_,257,PUNCT,Z,punct
251,1295-1296,k,_,_,_,_,_,253,ADP,Sd,case
252,1297-1303,skupaj,_,_,_,_,_,257,ADV,Rgp,advmod
253,1304-1307,730,_,_,_,_,_,257,NUM,Mdc,flat
254,1308-1313,tisoč,_,_,_,_,_,254,NUM,Mlc-pa,flat
255,1314-1316,biti,_,_,_,_,_,257,AUX,Va-r3s-n,aux
256,1317-1326,prispevati,_,_,_,_,_,246,VERB,Vmbp-sm,advcl
257,1327-1330,216,_,_,_,_,_,259,NUM,Mdc,nummod
258,1331-1340,tisočak,_,_,_,_,_,257,NOUN,Ncmpg,obj
259,1341-1342,",",_,_,_,_,_,257,PUNCT,Z,punct
260,1343-1347,šest,_,_,_,_,_,262,NUM,Mlc-pa,nmod
261,1348-1351,več,_,_,_,_,_,271,DET,Rgc,advmod
262,1352-1355,kot,_,_,_,_,_,262,SCONJ,Cs,case
263,1356-1360,Krka,ORG,_,*->1-7,*[1],_,259,PROPN,Npfsn,conj
264,1361-1362,.,_,_,_,_,_,257,PUNCT,Z,punct
265,1363-1369,indeks,_,_,_,_,_,271,NOUN,Ncmsn,nsubj
266,1370-1373,SBI,_,_,_,_,_,266,PROPN,Npmsn,nmod
267,1374-1377,TOP,_,_,_,_,_,267,PROPN,Npmsn,nmod
268,1378-1380,se,_,_,_,_,_,271,PRON,Px------y,expl
269,1381-1383,biti,_,_,_,_,_,271,AUX,Va-r3s-n,aux
270,1384-1390,znižati,_,_,_,_,_,246,VERB,Vmep-sm,conj
271,1391-1393,za,_,_,_,_,_,274,ADP,Sa,case
272,1394-1398,"0,25",_,_,_,_,_,274,NUM,Mdc,nummod
273,1399-1407,odstotek,_,_,_,_,_,271,NOUN,Ncmsg,obl
274,1408-1409,",",_,_,_,_,_,280,PUNCT,Z,punct
275,1410-1411,v,_,_,_,_,_,278,ADP,Sl,case
276,1412-1416,prvi,_,_,_,_,_,278,ADJ,Mlofsl,amod
277,1417-1425,kotacija,_,_,_,_,_,280,NOUN,Ncfsl,obl
278,1426-1428,biti,_,_,_,_,_,280,AUX,Va-r3s-n,cop
279,1429-1438,dober,_,_,_,_,_,271,ADJ,Agsnsn,advcl
280,1439-1446,Gorenje,ORG,_,*->9-4,*[9],_,280,PROPN,Npnsa,obj
281,1447-1448,.,_,_,_,_,_,280,PUNCT,Z,punct
282,1449-1456,Gorenje,ORG,_,*->9-5,*[9],_,285,PROPN,Npnsn,nsubj
283,1457-1459,biti,_,_,_,_,_,285,AUX,Va-r3s-n,aux
284,1460-1466,zrasti,_,_,_,_,_,271,VERB,Vmep-sn,parataxis
285,1467-1469,za,_,_,_,_,_,288,ADP,Sa,case
286,1470-1473,"0,8",_,_,_,_,_,288,NUM,Mdc,nummod
287,1474-1482,odstotek,_,_,_,_,_,285,NOUN,Ncmsg,obl
288,1483-1484,",",_,_,_,_,_,293,PUNCT,Z,punct
289,1485-1488,"0,2",_,_,_,_,_,291,NUM,Mdc,nummod
290,1489-1497,odstotek,_,_,_,_,_,293,NOUN,Ncmsg,obj
291,1498-1500,biti,_,_,_,_,_,293,AUX,Va-r3s-n,aux
292,1501-1510,pridobiti,_,_,_,_,_,285,VERB,Vmep-sf,advcl
293,1511-1522,Intereurop,ORG,0,*->5-3,*[5],3 - Nevtralno,293,PROPN,Npfsn,nsubj
294,1523-1524,",",_,_,_,_,_,297,PUNCT,Z,punct
295,1525-1529,"0,13",_,_,_,_,_,297,NUM,Mdc,nummod
296,1530-1538,odstotek,_,_,_,_,_,294,NOUN,Ncmsg,appos
297,1539-1541,pa,_,_,_,_,_,299,CCONJ,Cc,cc
298,1542-1550,Mercator,ORG,_,*->2-6,*[2],_,297,PROPN,Npmsn,conj
299,1551-1552,.,_,_,_,_,_,297,PUNCT,Z,punct
300,1553-1555,na,_,_,_,_,_,302,ADP,Sl,case
301,1556-1565,izhodišče,_,_,_,_,_,314,NOUN,Ncnsl,obl
302,1566-1568,biti,_,_,_,_,_,314,AUX,Va-r3p-n,aux
303,1569-1576,Triglav,ORG,1,*->6-3,*[6],4 - Pozitivno,299,PROPN,Npmsn,nsubj
304,1577-1578,",",_,_,_,_,_,306,PUNCT,Z,punct
305,1579-1583,Krka,ORG,_,*->1-8,*[1],_,304,PROPN,Npfsn,conj
306,1584-1586,in,_,_,_,_,_,308,CCONJ,Cc,cc
307,1587-1591,NKBM,ORG,_,*->8-3,*[8],_,304,PROPN,Npfsn,conj
308,1592-1593,.,_,_,_,_,_,299,PUNCT,Z,punct
309,1594-1598,cena,_,_,_,_,_,314,NOUN,Ncfsn,nsubj
310,1599-1607,Telekom,ORG,_,*->3-3,*[3],_,310,PROPN,Npmsg,nmod
311,1608-1610,se,_,_,_,_,_,314,PRON,Px------y,expl
312,1611-1613,biti,_,_,_,_,_,314,AUX,Va-r3s-n,aux
313,1614-1621,znižati,_,_,_,_,_,299,VERB,Vmep-sf,parataxis
314,1622-1624,za,_,_,_,_,_,317,ADP,Sa,case
315,1625-1629,"0,34",_,_,_,_,_,317,NUM,Mdc,nummod
316,1630-1638,odstotek,_,_,_,_,_,314,NOUN,Ncmsg,obl
317,1639-1640,",",_,_,_,_,_,321,PUNCT,Z,punct
318,1641-1649,odstotek,_,_,_,_,_,321,NOUN,Ncmsan,obj
319,1650-1652,biti,_,_,_,_,_,321,AUX,Va-r3s-n,aux
320,1653-1660,izgubiti,_,_,_,_,_,314,VERB,Vmep-sm,advcl
321,1661-1667,Petrol,ORG,_,*->4-3,*[4],_,321,PROPN,Npmsnn,obj
322,1668-1669,",",_,_,_,_,_,321,PUNCT,Z,punct
323,1670-1679,malenkost,_,_,_,_,_,325,NOUN,Ncfsa,nmod
324,1680-1683,več,_,_,_,_,_,327,DET,Rgc,advmod
325,1684-1686,pa,_,_,_,_,_,325,CCONJ,Cc,advmod
326,1687-1691,Luka,ORG[6],0,*->7-3,*[7],3 - Nevtralno[9],322,PROPN,Npmsn,conj
327,1692-1697,Koper,ORG[6]|LOC[7],0,*->7-3,*[7],3 - Nevtralno[9],327,PROPN,Npmsn,flat:name
328,1698-1699,.,_,_,_,_,_,321,PUNCT,Z,punct
329,1700-1706,stanje,_,_,_,_,_,321,NOUN,Ncnsa,obj
330,1707-1709,ob,_,_,_,_,_,332,ADP,Sl,case
331,1710-1712,10,_,_,_,_,_,335,NUM,Mdc,nummod
332,1713-1714,:,_,_,_,_,_,338,PUNCT,Z,punct
333,1715-1717,00,_,_,_,_,_,335,NUM,Mdc,nummod
334,1718-1724,indeks,_,_,_,_,_,338,NOUN,Ncmsn,nsubj
335,1725-1728,SBI,_,_,_,_,_,337,NOUN,Ncmsn,nmod
336,1729-1732,TOP,_,_,_,_,_,335,NOUN,Ncmsg,nmod
337,1733-1742,nadaljevati,_,_,_,_,_,327,VERB,Vmpr3s,acl
338,1743-1746,pot,_,_,_,_,_,338,NOUN,Ncfsa,obj
339,1747-1754,navzdol,_,_,_,_,_,339,ADV,Rgp,advmod
340,1755-1756,",",_,_,_,_,_,349,PUNCT,Z,punct
341,1757-1758,v,_,_,_,_,_,345,ADP,Sa,case
342,1759-1763,prvi,_,_,_,_,_,345,ADJ,Mlofpa,amod
343,1764-1767,pol,_,_,_,_,_,345,DET,Rgp,det
344,1768-1771,ura,_,_,_,_,_,349,NOUN,Ncfsg,obl
345,1772-1782,današnji,_,_,_,_,_,347,ADJ,Agpnsg,amod
346,1783-1792,trgovanje,_,_,_,_,_,345,NOUN,Ncnsg,nmod
347,1793-1795,biti,_,_,_,_,_,349,AUX,Va-r3s-n,aux
348,1796-1803,izgubiti,_,_,_,_,_,338,VERB,Vmep-sm,conj
349,1804-1809,okoli,_,_,_,_,_,351,ADV,Rgp,advmod
350,1810-1813,pol,_,_,_,_,_,352,DET,Rgp,det
351,1814-1822,odstotek,_,_,_,_,_,349,NOUN,Ncmsg,obl
352,1823-1824,.,_,_,_,_,_,349,PUNCT,Z,punct
353,1825-1832,promet,_,_,_,_,_,345,NOUN,Ncmsg,nmod
354,1833-1835,biti,_,_,_,_,_,358,AUX,Va-r3s-n,cop
355,1836-1838,za,_,_,_,_,_,358,ADP,Sa,case
356,1839-1842,150,_,_,_,_,_,358,NUM,Mdc,nummod
357,1843-1852,tisočak,_,_,_,_,_,349,NOUN,Ncmpg,obl
358,1853-1854,",",_,_,_,_,_,358,PUNCT,Z,punct
359,1855-1856,z,_,_,_,_,_,362,ADP,Si,case
360,1857-1859,63,_,_,_,_,_,362,NUM,Mdc,nummod
361,1860-1868,tisočak,_,_,_,_,_,370,NOUN,Ncmpi,obl
362,1869-1871,biti,_,_,_,_,_,370,AUX,Va-r3s-n,aux
363,1872-1879,vodilen,_,_,_,_,_,365,ADJ,Agpfsn,amod
364,1880-1884,NKBM,ORG,_,*->8-4,*[8],_,370,PROPN,Npfsn,nsubj
365,1885-1886,",",_,_,_,_,_,370,PUNCT,Z,punct
366,1887-1889,38,_,_,_,_,_,365,NUM,Mdc,nummod
367,1890-1895,tisoč,_,_,_,_,_,367,NUM,Mlc-pa,flat
368,1896-1898,biti,_,_,_,_,_,370,AUX,Va-r3s-n,aux
369,1899-1904,dodati,_,_,_,_,_,358,VERB,Vmep-sm,acl
370,1905-1913,Mercator,ORG,_,*->2-7,*[2],_,370,PROPN,Npmsn,nsubj
371,1914-1915,.,_,_,_,_,_,370,PUNCT,Z,punct
372,1916-1917,v,_,_,_,_,_,374,ADP,Sl,case
373,1918-1923,plus,_,_,_,_,_,371,NOUN,Ncmsl,nmod
374,1924-1927,biti,_,_,_,_,_,376,AUX,Va-r3d-n,aux
375,1928-1935,Gorenje,ORG,_,*->9-6,*[9],_,370,PROPN,Npnsn,nsubj
376,1936-1938,in,_,_,_,_,_,378,CCONJ,Cc,cc
377,1939-1943,NKBM,ORG,_,*->8-5,*[8],_,376,PROPN,Npfsn,conj
378,1944-1945,",",_,_,_,_,_,383,PUNCT,Z,punct
379,1946-1953,slednji,_,1,*->8-6,*[8],4 - Pozitivno,383,ADJ,Agpfsn,nsubj
380,1954-1956,se,_,_,_,_,_,383,PRON,Px------y,expl
381,1957-1959,biti,_,_,_,_,_,383,AUX,Va-r3s-n,aux
382,1960-1968,okrepiti,_,_,_,_,_,371,VERB,Vmep-sf,acl
383,1969-1971,za,_,_,_,_,_,386,ADP,Sa,case
384,1972-1975,"0,8",_,_,_,_,_,386,NUM,Mdc,nummod
385,1976-1984,odstotek,_,_,_,_,_,383,NOUN,Ncmsg,obl
386,1985-1986,",",_,_,_,_,_,383,PUNCT,Z,punct
387,1987-1996,velenjski,_,1,*->9-7,*[9],4 - Pozitivno[10],389,ADJ,Agpmsny,amod
388,1997-2009,proizvajalec,_,1,*->9-7,*[9],4 - Pozitivno[10],394,NOUN,Ncmsn,nsubj
389,2010-2014,bel,_,1,*->9-7,*[9],4 - Pozitivno[10],391,ADJ,Agpfsg,amod
390,2015-2022,tehnika,_,1,*->9-7,*[9],4 - Pozitivno[10],389,NOUN,Ncfsg,nmod
391,2023-2025,pa,_,_,_,_,_,394,CCONJ,Cc,advmod
392,2026-2028,biti,_,_,_,_,_,394,AUX,Va-r3s-n,aux
393,2029-2037,pridobiti,_,_,_,_,_,8,VERB,Vmep-sm,parataxis
394,2038-2041,"0,7",_,_,_,_,_,396,NUM,Mdc,nummod
395,2042-2050,odstotek,_,_,_,_,_,394,NOUN,Ncmsg,obj
396,2051-2052,.,_,_,_,_,_,394,PUNCT,Z,punct
397,2053-2055,na,_,_,_,_,_,399,ADP,Sl,case
398,2056-2059,dno,_,_,_,_,_,396,NOUN,Ncnsl,nmod
399,2060-2065,borza,_,_,_,_,_,399,NOUN,Ncfsg,nmod
400,2066-2068,biti,_,_,_,_,_,404,AUX,Va-r3s-n,aux
401,2069-2075,Petrol,ORG,_,*->4-4,*[4],_,396,PROPN,Npmsn,nmod
402,2076-2077,",",_,_,_,_,_,404,PUNCT,Z,punct
403,2078-2085,zdrsniti,_,2,*->4-5,*[4],2 - Negativno,394,VERB,Vmep-sm,conj
404,2086-2088,biti,_,_,_,_,_,404,AUX,Va-r3s-n,aux
405,2089-2091,za,_,_,_,_,_,407,ADP,Sa,case
406,2092-2100,odstotek,_,_,_,_,_,404,NOUN,Ncmsan,obl
407,2101-2103,in,_,_,_,_,_,409,CCONJ,Cc,cc
408,2104-2107,pol,_,_,_,_,_,407,DET,Rgp,conj
409,2108-2109,",",_,_,_,_,_,414,PUNCT,Z,punct
410,2110-2113,"0,3",_,_,_,_,_,412,NUM,Mdc,nummod
411,2114-2122,odstotek,_,_,_,_,_,414,NOUN,Ncmsg,obj
412,2123-2125,biti,_,_,_,_,_,414,AUX,Va-r3s-n,aux
413,2126-2133,izgubiti,_,_,_,_,_,404,VERB,Vmep-sm,advcl
414,2134-2141,Telekom,ORG,0,*->3-4,*[3],3 - Nevtralno,414,PROPN,Npmsn,nsubj
415,2142-2143,.,_,_,_,_,_,404,PUNCT,Z,punct
416,2144-2148,Krka,ORG,_,*->1-9,*[1],_,420,PROPN,Npfsn,nsubj
417,2149-2151,se,_,_,_,_,_,420,PRON,Px------y,expl
418,2152-2154,biti,_,_,_,_,_,420,AUX,Va-r3s-n,aux
419,2155-2163,poceniti,_,_,_,_,_,404,VERB,Vmep-sf,parataxis
420,2164-2166,za,_,_,_,_,_,423,ADP,Sa,case
421,2167-2171,"0,31",_,_,_,_,_,423,NUM,Mdc,nummod
422,2172-2180,odstotek,_,_,_,_,_,420,NOUN,Ncmsg,obl
423,2181-2183,in,_,_,_,_,_,425,CCONJ,Cc,cc
424,2184-2190,upasti,_,2,*->1-10,*[1],2 - Negativno,420,VERB,Vmep-sf,conj
425,2191-2193,na,_,_,_,_,_,428,ADP,Sa,case
426,2194-2199,"47,85",_,_,_,_,_,428,NUM,Mdc,nummod
427,2200-2204,evro,_,_,_,_,_,425,NOUN,Ncmsg,obl
428,2205-2206,",",_,_,_,_,_,430,PUNCT,Z,punct
429,2207-2215,Mercator,ORG,_,*->2-8,*[2],_,428,PROPN,Npmsn,appos
430,2216-2218,pa,_,_,_,_,_,430,CCONJ,Cc,advmod
431,2219-2221,biti,_,_,_,_,_,430,AUX,Va-r3s-n,aux
432,2222-2224,na,_,_,_,_,_,434,ADP,Sl,case
433,2225-2234,izhodišče,_,_,_,_,_,430,NOUN,Ncnsl,obl
434,2235-2236,.,_,_,_,_,_,420,PUNCT,Z,punct
435,2237-2243,družba,_,_,*->2-9,*[2],_,443,NOUN,Ncfsn,nsubj
436,2244-2246,biti,_,_,_,_,_,443,AUX,Va-r3s-n,aux
437,2247-2248,v,_,_,_,_,_,441,ADP,Sl,case
438,2249-2254,prvi,_,_,_,_,_,441,ADJ,Mlompl,amod
439,2255-2262,devet,_,_,_,_,_,441,NUM,Mlc-pl,nummod
440,2263-2270,mesec,_,_,_,_,_,443,NOUN,Ncmpl,obl
441,2271-2276,letos,_,_,_,_,_,443,ADV,Rgp,advmod
442,2277-2284,utrpeti,_,_,_,_,_,434,VERB,Vmep-sf,acl
443,2285-2287,22,_,_,_,_,_,445,NUM,Mdc,nummod
444,2288-2297,milijon,_,_,_,_,_,443,NOUN,Ncmpg,obj
445,2298-2303,evro,_,_,_,_,_,445,NOUN,Ncmpg,nmod
446,2304-2310,izguba,_,_,_,_,_,446,NOUN,Ncfsg,nmod
447,2311-2312,.,_,_,_,_,_,443,PUNCT,Z,punct
448,2313-2314,v,_,_,_,_,_,450,ADP,Sl,case
449,2315-2321,članek,_,_,_,_,_,451,NOUN,Ncmsl,obl
450,2322-2330,prodati,_,_,_,_,_,443,VERB,Vmem2p,conj
451,2331-2338,delnica,_,_,_,_,_,451,NOUN,Ncfpa,obj
452,2339-2349,Mercator,ORG,2,*->2-10,*[2],2 - Negativno,452,PROPN,Npmsg,nmod
453,2350-2351,",",_,_,_,_,_,451,PUNCT,Z,punct
454,2352-2354,biti,_,_,_,_,_,451,VERB,Va-r3s-y,conj
455,2355-2358,kaj,_,_,_,_,_,457,PRON,Pq-nsa,obj
456,2359-2365,čakati,_,_,_,_,_,455,VERB,Vmpn,csubj
457,2366-2368,se,_,_,_,_,_,459,PRON,Px---d--y,expl
458,2369-2378,prebrati,_,_,_,_,_,457,VERB,Vmem2p,conj
459,2379-2382,več,_,_,_,_,_,462,DET,Rgc,advmod
460,2383-2384,o,_,_,_,_,_,462,ADP,Sl,case
461,2385-2388,ta,_,_,_,_,_,457,DET,Pd-nsl,obl
