idx,chars_idx,token,entity_type,sentiment,idk_1,idk_2,orig_sentiment,heads,upos,xpos,deprel
0,0-6,dokler,_,_,_,_,_,3,SCONJ,Cs,mark
1,7-12,lahko,_,_,_,_,_,3,ADV,Rgp,advmod
2,13-19,hoditi,_,_,_,_,_,9,VERB,Vmpm2p,advcl
3,20-21,z,_,_,_,_,_,6,ADP,Si,case
4,22-29,svoj,_,_,_,_,_,6,DET,Px-fpi,det
5,30-36,noga,_,_,_,_,_,3,NOUN,Ncfpi,obl
6,37-38,",",_,_,_,_,_,3,PUNCT,Z,punct
7,39-41,ne,_,_,_,_,_,9,PART,Q,advmod
8,42-51,pokliciti,_,_,_,_,_,0,VERB,Vmem2p,root
9,52-58,trojka,_,_,_,_,_,9,NOUN,Ncfsg,obj
10,59-60,",",_,_,_,_,_,17,PUNCT,Z,punct
11,61-64,saj,_,_,_,_,_,17,CCONJ,Cc,cc
12,65-67,se,_,_,_,_,_,17,PRON,Px------y,expl
13,68-70,ta,_,_,_,_,_,17,DET,Pd-fsn,nsubj
14,71-73,ne,_,_,_,_,_,17,PART,Q,advmod
15,74-76,biti,_,_,_,_,_,17,AUX,Va-f3s-n,aux
16,77-85,odločati,_,_,_,_,_,9,VERB,Vmpp-sf,conj
17,86-93,namesto,_,_,_,_,_,19,ADP,Sg,case
18,94-97,ti,_,_,_,_,_,17,PRON,Pp2-pa,obl
19,98-99,",",_,_,_,_,_,21,PUNCT,Z,punct
20,100-107,apelirati,_,_,_,_,_,9,VERB,Vmbr3s,parataxis
21,108-118,svetovalec,_,_,*->7-1,*[7],_,21,NOUN,Ncmsn,nsubj
22,119-125,nemški,_,_,*->7-1,*[7],_,24,ADJ,Agpfsg,amod
23,126-131,vlada,_,_,*->7-1,*[7],_,22,NOUN,Ncfsg,nmod
24,132-138,Jürgen,PER[1],_,*->7-1,*[7],_,22,PROPN,Npmsn,nmod
25,139-142,von,PER[1],_,*->7-1,*[7],_,25,PROPN,Npmsn,flat:name
26,143-148,Hagen,PER[1],_,*->7-1,*[7],_,25,PROPN,Npmsn,flat:name
27,149-150,"""",_,_,_,_,_,31,PUNCT,Z,punct
28,151-158,občutek,_,_,_,_,_,31,NOUN,Ncmsn,nsubj
29,159-161,jaz,_,_,*->7-2,*[7],_,31,PRON,Pp1-sd--y,obj
30,162-167,praviti,_,_,_,_,_,21,VERB,Vmbr3s,conj
31,168-169,",",_,_,_,_,_,36,PUNCT,Z,punct
32,170-172,da,_,_,_,_,_,36,SCONJ,Cs,mark
33,173-179,dokler,_,_,_,_,_,36,SCONJ,Cs,mark
34,180-185,lahko,_,_,_,_,_,36,ADV,Rgp,advmod
35,186-192,hoditi,_,_,_,_,_,31,VERB,Vmpm2p,advcl
36,193-194,z,_,_,_,_,_,39,ADP,Si,case
37,195-202,svoj,_,_,_,_,_,39,DET,Px-fpi,det
38,203-209,noga,_,_,_,_,_,36,NOUN,Ncfpi,obl
39,210-211,",",_,_,_,_,_,36,PUNCT,Z,punct
40,212-214,ne,_,_,_,_,_,42,PART,Q,advmod
41,215-224,pokliciti,_,_,_,_,_,36,VERB,Vmem2p,advcl
42,225-231,trojka,_,_,_,_,_,42,NOUN,Ncfsg,obj
43,232-233,",",_,_,_,_,_,42,PUNCT,Z,punct
44,234-235,"""",_,_,_,_,_,51,PUNCT,Z,punct
45,236-237,v,_,_,_,_,_,47,ADP,Sl,case
46,238-248,intervju,_,_,_,_,_,51,NOUN,Ncmsl,obl
47,249-251,za,_,_,_,_,_,49,ADP,Sa,case
48,252-256,delo,ORG,0,*->5-1,*[5],3 - Nevtralno,47,NOUN,Ncnsa,nmod
49,257-266,Slovenija,ORG,_,*->1-1,*[1],_,49,PROPN,Npfsd,nmod
50,267-273,polagati,_,_,_,_,_,9,VERB,Vmpr3s,parataxis
51,274-276,na,_,_,_,_,_,53,ADP,Sa,case
52,277-281,duša,_,_,_,_,_,51,NOUN,Ncfsa,obl
53,282-292,svetovalec,_,_,*->7-3,*[7],_,51,NOUN,Ncmsn,nsubj
54,293-299,nemški,_,_,*->7-3,*[7],_,56,ADJ,Agpfsg,amod
55,300-305,vlada,_,_,*->7-3,*[7],_,54,NOUN,Ncfsg,nmod
56,306-312,Jürgen,PER[2],_,*->7-3,*[7],_,54,PROPN,Npmsn,nmod
57,313-316,von,PER[2],_,*->7-3,*[7],_,57,PROPN,Npmsn,flat:name
58,317-322,Hagen,PER[2],_,*->7-3,*[7],_,57,PROPN,Npmsn,flat:name
59,323-324,(,_,_,_,_,_,62,PUNCT,Z,punct
60,325-327,na,_,_,_,_,_,62,ADP,Sl,case
61,328-333,slika,_,_,_,_,_,59,NOUN,Ncfsl,appos
62,334-335,),_,_,_,_,_,62,PUNCT,Z,punct
63,336-337,",",_,_,_,_,_,69,PUNCT,Z,punct
64,338-340,ki,_,_,_,_,_,69,SCONJ,Cs,mark
65,341-346,sicer,_,_,_,_,_,69,PART,Q,advmod
66,347-348,v,_,_,_,_,_,68,ADP,Sl,case
67,349-359,intervju,_,_,_,_,_,69,NOUN,Ncmsl,obl
68,360-364,povedati,_,_,*->7-4,*[7],_,62,VERB,Vmer3s,acl
69,365-366,",",_,_,_,_,_,77,PUNCT,Z,punct
70,367-369,da,_,_,_,_,_,77,SCONJ,Cs,mark
71,370-376,nemški,_,_,*->6-1,*[6],_,73,ADJ,Agpfsd,amod
72,377-386,kanclerka,_,_,*->6-1,*[6],_,77,NOUN,Ncfsd,obj
73,387-393,angel,PER[3],_,*->6-1,*[6],_,77,NOUN,Ncmsn,nsubj
74,394-400,Merkel,PER[3],_,*->6-1,*[6],_,74,PROPN,Npmsn,nmod
75,401-403,ne,_,_,_,_,_,77,PART,Q,advmod
76,404-411,svetovati,_,_,*->7-5,*[7],_,69,VERB,Vmbr3s,ccomp
77,412-413,.,_,_,_,_,_,77,PUNCT,Z,punct
78,414-416,po,_,_,_,_,_,80,ADP,Sl,case
79,417-423,mnenje,_,_,_,_,_,93,NOUN,Ncnsl,obl
80,424-427,von,PER[4],_,*->7-6,*[7],_,77,PROPN,Npmsn,nsubj
81,428-433,Hagna,PER[4],_,*->7-6,*[7],_,81,PROPN,Npfsg,flat:name
82,434-436,se,_,_,_,_,_,93,PRON,Px------y,expl
83,437-438,v,_,_,_,_,_,87,ADP,Sl,case
84,439-445,mnog,_,_,_,_,_,87,DET,Pi-fpl,det
85,446-459,prezadolžen,_,_,_,_,_,87,ADJ,Appfpl,amod
86,460-467,država,_,_,_,_,_,93,NOUN,Ncfpl,obl
87,468-470,ob,_,_,_,_,_,89,ADP,Sl,case
88,471-479,uvajanje,_,_,_,_,_,93,NOUN,Ncnsl,obl
89,480-487,boleč,_,_,_,_,_,92,ADJ,Appfpg,amod
90,488-499,strukturen,_,_,_,_,_,92,ADJ,Agpfpg,amod
91,500-506,reforma,_,_,_,_,_,89,NOUN,Ncfpg,nmod
92,507-515,porajati,_,_,_,_,_,9,VERB,Vmpr3p,parataxis
93,516-525,vprašanje,_,_,_,_,_,93,NOUN,Ncnpa,obj
94,526-527,",",_,_,_,_,_,97,PUNCT,Z,punct
95,528-532,kdo,_,_,_,_,_,97,PRON,Pq-msd,iobj
96,533-541,naprtiti,_,_,_,_,_,94,VERB,Vmen,acl
97,542-547,breme,_,_,_,_,_,97,NOUN,Ncnsa,obj
98,548-549,",",_,_,_,_,_,102,PUNCT,Z,punct
99,550-553,kar,_,_,_,_,_,102,PRON,Pr-nsa,obj
100,554-561,reforma,_,_,_,_,_,102,NOUN,Ncfpa,obj
101,562-569,blokirati,_,_,_,_,_,98,VERB,Vmbr3s,acl
102,570-571,.,_,_,_,_,_,93,PUNCT,Z,punct
103,572-573,"""",_,_,_,_,_,108,PUNCT,Z,punct
104,574-576,ta,_,_,_,_,_,108,DET,Pd-nsn,nsubj
105,577-579,biti,_,_,_,_,_,108,AUX,Va-r3s-n,aux
106,580-589,političen,_,_,_,_,_,108,ADJ,Agpmsny,amod
107,590-596,zastoj,_,_,_,_,_,9,NOUN,Ncmsn,parataxis
108,597-598,.,_,_,_,_,_,108,PUNCT,Z,punct
109,599-601,ne,_,_,_,_,_,111,PART,Q,advmod
110,602-605,vedeti,_,_,*->7-7,*[7],_,108,VERB,Vmpr1s,parataxis
111,606-607,",",_,_,_,_,_,115,PUNCT,Z,punct
112,608-611,ali,_,_,_,_,_,115,ADV,Rgp,mark
113,612-614,se,_,_,_,_,_,115,PRON,Px------y,expl
114,615-621,nanašati,_,_,_,_,_,108,VERB,Vmpr3s,acl
115,622-626,tudi,_,_,_,_,_,115,PART,Q,advmod
116,627-629,na,_,_,_,_,_,118,ADP,Sa,case
117,630-639,Slovenija,LOC,0,*->1-2,*[1],3 - Nevtralno,115,PROPN,Npfsa,obl
118,640-641,",",_,_,_,_,_,125,PUNCT,Z,punct
119,642-643,a,_,_,_,_,_,125,CCONJ,Cc,cc
120,644-646,če,_,_,_,_,_,125,SCONJ,Cs,mark
121,647-649,se,_,_,_,_,_,125,PRON,Px------y,expl
122,650-651,",",_,_,_,_,_,125,PUNCT,Z,punct
123,652-657,lahko,_,_,_,_,_,125,ADV,Rgp,advmod
124,658-666,pripeljati,_,_,_,_,_,115,VERB,Vmer3s,advcl
125,667-669,do,_,_,_,_,_,127,ADP,Sg,case
126,670-678,predlog,_,_,_,_,_,125,NOUN,Ncmsg,obl
127,679-680,:,_,_,_,_,_,125,PUNCT,Z,punct
128,681-682,»,_,_,_,_,_,130,PUNCT,Z,punct
129,683-692,pokliciti,_,_,_,_,_,125,VERB,Vmer1p,advcl
130,693-699,trojka,_,_,_,_,_,130,NOUN,Ncfsa,obj
131,700-701,",",_,_,_,_,_,130,PUNCT,Z,punct
132,702-704,pa,_,_,_,_,_,136,CCONJ,Cc,advmod
133,705-708,naj,_,_,_,_,_,136,PART,Q,advmod
134,709-712,on,_,_,_,_,_,136,PRON,Pp3fsn,nsubj
135,713-720,sprejeti,_,_,_,_,_,130,VERB,Vmer3s,conj
136,721-723,ta,_,_,_,_,_,138,DET,Pd-fsa,det
137,724-733,odločitev,_,_,_,_,_,136,NOUN,Ncfsa,obj
138,734-735,.,_,_,_,_,_,125,PUNCT,Z,punct
139,736-737,«,_,_,_,_,_,136,PUNCT,Z,punct
140,738-740,ne,_,_,_,_,_,147,PART,Q,mark
141,741-742,",",_,_,_,_,_,141,PUNCT,Z,punct
142,743-749,trojka,_,_,_,_,_,147,NOUN,Ncfsn,nsubj
143,750-754,ta,_,_,_,_,_,143,DET,Pd-nsg,nmod
144,755-757,ne,_,_,_,_,_,147,PART,Q,advmod
145,758-760,biti,_,_,_,_,_,147,AUX,Va-f3s-n,aux
146,761-768,storiti,_,_,_,_,_,136,VERB,Vmep-sf,advcl
147,769-776,namesto,_,_,_,_,_,149,ADP,Sg,case
148,777-780,ti,_,_,_,_,_,147,PRON,Pp2-pg,obl
149,781-782,.,_,_,_,_,_,147,PUNCT,Z,punct
150,783-785,ne,_,_,_,_,_,156,PART,Q,advmod
151,786-788,biti,_,_,_,_,_,156,AUX,Va-f3s-n,aux
152,789-790,.,_,_,_,_,_,147,PUNCT,Z,punct
153,791-793,ne,_,_,_,_,_,156,PART,Q,advmod
154,794-796,biti,_,_,_,_,_,156,AUX,Va-f3s-n,aux
155,797-803,priti,_,_,_,_,_,147,VERB,Vmep-sf,advcl
156,804-806,in,_,_,_,_,_,159,CCONJ,Cc,cc
157,807-810,ti,_,_,_,_,_,159,PRON,Pp2-pd,obj
158,811-816,reči,_,_,_,_,_,156,VERB,Vmep-sf,conj
159,817-818,",",_,_,_,_,_,156,PUNCT,Z,punct
160,819-826,storiti,_,_,_,_,_,156,VERB,Vmer2p,conj
161,827-829,ta,_,_,_,_,_,161,DET,Pd-nsa,obj
162,830-831,",",_,_,_,_,_,161,PUNCT,Z,punct
163,832-834,ta,_,_,_,_,_,169,DET,Pd-nsn,nsubj
164,835-837,in,_,_,_,_,_,166,CCONJ,Cc,cc
165,838-840,ta,_,_,_,_,_,164,DET,Pd-nsn,conj
166,841-842,.,_,_,_,_,_,156,PUNCT,Z,punct
167,843-844,"""",_,_,_,_,_,169,PUNCT,Z,punct
168,845-855,pojasnjevati,_,_,*->7-8,*[7],_,156,VERB,Vmpr3s,conj
169,856-857,",",_,_,_,_,_,175,PUNCT,Z,punct
170,858-860,da,_,_,_,_,_,175,SCONJ,Cs,mark
171,861-863,biti,_,_,_,_,_,175,AUX,Va-c,aux
172,864-866,se,_,_,_,_,_,175,PRON,Px------y,expl
173,867-873,trojka,_,_,_,_,_,175,NOUN,Ncfsn,nsubj
174,874-882,pogajati,_,_,_,_,_,169,VERB,Vmpp-sf,ccomp
175,883-884,z,_,_,_,_,_,177,ADP,Si,case
176,885-890,vlada,_,_,_,_,_,175,NOUN,Ncfsi,obl
177,891-892,",",_,_,_,_,_,175,PUNCT,Z,punct
178,893-895,ta,_,_,_,_,_,185,DET,Pd-fsn,nsubj
179,896-898,pa,_,_,_,_,_,185,CCONJ,Cc,advmod
180,899-901,biti,_,_,_,_,_,185,AUX,Va-c,aux
181,902-906,nato,_,_,_,_,_,185,ADV,Rgp,advmod
182,907-909,še,_,_,_,_,_,185,PART,Q,advmod
183,910-915,vedno,_,_,_,_,_,185,ADV,Rgp,advmod
184,916-927,potrebovati,_,_,_,_,_,9,VERB,Vmpp-sf,parataxis
185,928-934,zelen,_,_,_,_,_,187,ADJ,Agpfsa,amod
186,935-938,luč,_,_,_,_,_,185,NOUN,Ncfsa,obj
187,939-941,za,_,_,_,_,_,189,ADP,Sa,case
188,942-948,ukrep,_,_,_,_,_,187,NOUN,Ncmpa,nmod
189,949-950,v,_,_,_,_,_,191,ADP,Sl,case
190,951-961,parlament,_,_,_,_,_,189,NOUN,Ncmsl,nmod
191,962-963,.,_,_,_,_,_,185,PUNCT,Z,punct
192,964-965,"""",_,_,_,_,_,195,PUNCT,Z,punct
193,966-973,zunanji,_,_,_,_,_,195,ADJ,Agpmsny,amod
194,974-981,igralec,_,_,_,_,_,185,NOUN,Ncmsn,nsubj
195,982-983,",",_,_,_,_,_,199,PUNCT,Z,punct
196,984-991,kakršen,_,_,_,_,_,199,DET,Pq-msn,nsubj
197,992-994,biti,_,_,_,_,_,199,AUX,Va-r3s-n,cop
198,995-1001,trojka,_,_,_,_,_,195,NOUN,Ncfsn,acl
199,1002-1003,",",_,_,_,_,_,199,PUNCT,Z,punct
200,1004-1006,ne,_,_,_,_,_,202,PART,Q,advmod
201,1007-1011,moči,_,_,_,_,_,195,VERB,Vmpr3s,acl
202,1012-1018,rešiti,_,_,_,_,_,202,VERB,Vmen,xcomp
203,1019-1028,notranji,_,_,_,_,_,205,ADJ,Agpmpg,amod
204,1029-1039,konflikt,_,_,_,_,_,203,NOUN,Ncmpg,obj
205,1040-1041,.,_,_,_,_,_,202,PUNCT,Z,punct
206,1042-1045,saj,_,_,_,_,_,208,CCONJ,Cc,cc
207,1046-1048,biti,_,_,_,_,_,203,VERB,Va-r3s-y,conj
208,1049-1052,več,_,_,_,_,_,208,PART,Q,advmod
209,1053-1057,tako,_,_,_,_,_,214,ADV,Rgp,mark
210,1058-1059,",",_,_,_,_,_,210,PUNCT,Z,punct
211,1060-1063,kot,_,_,_,_,_,210,SCONJ,Cs,fixed
212,1064-1066,biti,_,_,_,_,_,214,AUX,Va-r3s-n,aux
213,1067-1071,biti,_,_,_,_,_,208,VERB,Va-p-sn,advcl
214,1072-1073,v,_,_,_,_,_,219,ADP,Sl,case
215,1074-1080,avster,_,_,_,_,_,219,ADJ,Agpnsl,amod
216,1081-1082,-,_,_,_,_,_,218,PUNCT,Z,punct
217,1083-1090,ogrski,_,_,_,_,_,216,ADJ,Agpmsl,conj
218,1091-1099,imperij,_,_,_,_,_,214,NOUN,Ncmsl,obl
219,1100-1101,",",_,_,_,_,_,227,PUNCT,Z,punct
220,1102-1106,kjer,_,_,_,_,_,227,SCONJ,Cs,mark
221,1107-1109,biti,_,_,_,_,_,227,AUX,Va-r3s-n,aux
222,1110-1116,velik,_,_,_,_,_,224,ADJ,Agpmsny,amod
223,1117-1120,mož,_,_,_,_,_,227,NOUN,Ncmsn,nsubj
224,1121-1123,na,_,_,_,_,_,226,ADP,Sl,case
225,1124-1130,Dunaj,LOC,0,*->8-1,*[8],3 - Nevtralno,224,PROPN,Npmsl,nmod
226,1131-1138,odločati,_,_,_,_,_,219,VERB,Vmpp-sm,acl
227,1139-1140,o,_,_,_,_,_,229,ADP,Sl,case
228,1141-1145,ves,_,_,_,_,_,227,DET,Pg-nsl,obl
229,1146-1147,",",_,_,_,_,_,227,PUNCT,Z,punct
230,1148-1149,"""",_,_,_,_,_,232,PUNCT,Z,punct
231,1150-1156,dodajati,_,_,*->7-9,*[7],_,214,VERB,Vmpr3s,csubj
232,1157-1158,v,_,_,_,_,_,234,ADP,Sl,case
233,1159-1164,smeh,_,_,_,_,_,232,NOUN,Ncmsl,obl
234,1165-1166,.,_,_,_,_,_,9,PUNCT,Z,punct
235,1167-1168,',_,_,_,_,_,242,PUNCT,Z,punct
236,1169-1177,Merklov,PER,_,*->6-2,*[6],_,242,ADJ,Aspfsa,obl
237,1178-1180,biti,_,_,_,_,_,242,AUX,Va-c,aux
238,1181-1190,nadaljnji,_,_,_,_,_,240,ADJ,Agpnsn,amod
239,1191-1199,posojilo,_,_,_,_,_,242,NOUN,Ncnpa,nsubj
240,1200-1206,Grčija,ORG,_,*->2-1,*[2],_,242,PROPN,Npfsd,obj
241,1207-1212,stati,_,_,_,_,_,232,VERB,Vmpp-sf,advcl
242,1213-1221,položaj,_,_,_,_,_,242,NOUN,Ncmsg,obj
243,1222-1223,',_,_,_,_,_,242,PUNCT,Z,punct
244,1224-1230,evrski,_,_,_,_,_,247,ADJ,Agpfsn,amod
245,1231-1240,dolžniški,_,_,_,_,_,247,ADJ,Agpfsn,amod
246,1241-1246,kriza,_,_,_,_,_,250,NOUN,Ncfsn,nsubj
247,1247-1249,biti,_,_,_,_,_,250,AUX,Va-r3s-n,aux
248,1250-1257,dodobra,_,_,_,_,_,250,ADV,Rgp,advmod
249,1258-1266,zamajati,_,_,_,_,_,242,VERB,Vmpp-sf,conj
250,1267-1274,temelje,_,_,_,_,_,250,NOUN,Ncmpa,obj
251,1275-1284,koalicija,_,_,_,_,_,251,NOUN,Ncfsg,nmod
252,1285-1291,Angele,PER[5],_,*->6-3,*[6],_,252,PROPN,Npfsg,nmod
253,1292-1298,Merkel,PER[5],_,*->6-3,*[6],_,253,PROPN,Npfsg,flat:name
254,1299-1300,.,_,_,_,_,_,9,PUNCT,Z,punct
255,1301-1310,opozicija,_,_,_,_,_,250,NOUN,Ncfsn,nsubj
256,1311-1312,",",_,_,_,_,_,263,PUNCT,Z,punct
257,1313-1321,domnevno,_,_,_,_,_,263,ADV,Rgp,advmod
258,1322-1324,pa,_,_,_,_,_,263,CCONJ,Cc,advmod
259,1325-1329,tudi,_,_,_,_,_,263,PART,Q,advmod
260,1330-1338,nekateri,_,_,_,_,_,263,DET,Pi-mpn,det
261,1339-1350,koalicijski,_,_,_,_,_,263,ADJ,Agpmpn,amod
262,1351-1360,partner,_,_,_,_,_,256,NOUN,Ncmpn,appos
263,1361-1362,",",_,_,_,_,_,263,PUNCT,Z,punct
264,1363-1365,se,_,_,_,_,_,266,PRON,Px------y,expl
265,1366-1373,upirati,_,_,_,_,_,9,VERB,Vmpr3p,parataxis
266,1374-1383,nadaljnji,_,_,_,_,_,268,ADJ,Agpfsd,amod
267,1384-1390,pomoč,_,_,_,_,_,266,NOUN,Ncfsd,obj
268,1391-1397,Grčija,ORG,_,*->2-2,*[2],_,268,PROPN,Npfsd,nmod
269,1398-1399,",",_,_,_,_,_,271,PUNCT,Z,punct
270,1400-1408,zaupanje,_,_,_,_,_,268,NOUN,Ncnsn,conj
271,1409-1417,javnost,_,_,_,_,_,271,NOUN,Ncfsg,nmod
272,1418-1420,biti,_,_,_,_,_,274,AUX,Va-r3s-n,cop
273,1421-1426,nizek,_,_,_,_,_,268,ADJ,Agpfsa,amod
274,1427-1428,.,_,_,_,_,_,9,PUNCT,Z,punct
275,1429-1434,pomoč,_,_,_,_,_,285,NOUN,Ncfsa,obj
276,1435-1436,v,_,_,_,_,_,278,ADP,Sl,case
277,1437-1444,obrok,_,_,_,_,_,276,NOUN,Ncmpl,nmod
278,1445-1447,po,_,_,_,_,_,280,ADP,Sl,case
279,1448-1451,von,PER[6],_,*->7-10,*[7],_,282,PROPN,Npmsn,nmod
280,1452-1460,Hagnov,PER[6],_,*->7-10,*[7],_,282,ADJ,Aspfpl,amod
281,1461-1468,beseda,_,_,_,_,_,278,NOUN,Ncfpl,nmod
282,1469-1470,v,_,_,_,_,_,284,ADP,Sl,case
283,1471-1478,Nemčija,ORG,_,*->3-1,*[3],_,282,PROPN,Npfsl,nmod
284,1479-1488,imenovati,_,_,_,_,_,274,VERB,Vmbr3p,acl
285,1489-1490,',_,_,_,_,_,287,PUNCT,Z,punct
286,1491-1498,taktika,_,_,_,_,_,285,NOUN,Ncfsn,nsubj
287,1499-1505,salama,_,_,_,_,_,287,NOUN,Ncfsg,nmod
288,1506-1507,',_,_,_,_,_,287,PUNCT,Z,punct
289,1508-1509,",",_,_,_,_,_,297,PUNCT,Z,punct
290,1510-1514,kjer,_,_,_,_,_,297,SCONJ,Cs,mark
291,1515-1516,"""",_,_,_,_,_,297,PUNCT,Z,punct
292,1517-1524,namesto,_,_,_,_,_,297,ADP,Sg,mark
293,1525-1527,da,_,_,_,_,_,293,SCONJ,Cs,fixed
294,1528-1530,biti,_,_,_,_,_,297,AUX,Va-c,aux
295,1531-1534,ti,_,_,_,_,_,297,PRON,Pp2-pd,obj
296,1535-1539,dati,_,_,_,_,_,285,VERB,Vmep-pm,advcl
297,1540-1544,cel,_,_,_,_,_,299,ADJ,Agpfsa,amod
298,1545-1551,salama,_,_,_,_,_,297,NOUN,Ncfsa,obj
299,1552-1554,in,_,_,_,_,_,302,CCONJ,Cc,cc
300,1555-1558,ti,_,_,_,_,_,302,PRON,Pp2-pd,obj
301,1559-1567,naložiti,_,_,_,_,_,297,VERB,Vmep-pm,conj
302,1568-1569,",",_,_,_,_,_,308,PUNCT,Z,punct
303,1570-1572,da,_,_,_,_,_,308,SCONJ,Cs,mark
304,1573-1575,on,_,_,_,_,_,308,PRON,Pp3fsa--y,obj
305,1576-1581,takoj,_,_,_,_,_,308,ADV,Rgp,advmod
306,1582-1586,celo,_,_,_,_,_,308,PART,Q,advmod
307,1587-1594,plačati,_,_,_,_,_,302,VERB,Vmer2p,ccomp
308,1595-1596,",",_,_,_,_,_,308,PUNCT,Z,punct
309,1597-1600,ti,_,_,_,_,_,311,PRON,Pp2-pd,iobj
310,1601-1607,rezati,_,_,_,_,_,9,VERB,Vmer1p,parataxis
311,1608-1614,majhen,_,_,_,_,_,315,ADJ,Agpmpa,amod
312,1615-1617,in,_,_,_,_,_,314,CCONJ,Cc,cc
313,1618-1623,tanek,_,_,_,_,_,312,ADJ,Agpmpa,conj
314,1624-1630,košček,_,_,_,_,_,311,NOUN,Ncmpa,obj
315,1631-1632,"""",_,_,_,_,_,315,PUNCT,Z,punct
316,1633-1634,.,_,_,_,_,_,308,PUNCT,Z,punct
317,1635-1637,po,_,_,_,_,_,320,ADP,Sl,case
318,1638-1646,njegov,_,_,*->7-11,*[7],_,320,DET,Ps3nslsm,det
319,1647-1653,mnenje,_,_,_,_,_,323,NOUN,Ncnsl,obl
320,1654-1656,ta,_,_,_,_,_,322,DET,Pd-nsa,det
321,1657-1662,človek,_,_,_,_,_,323,NOUN,Ncmpg,obj
322,1663-1667,jeza,_,_,_,_,_,9,VERB,Vmpr3s,parataxis
323,1668-1669,",",_,_,_,_,_,326,PUNCT,Z,punct
324,1670-1673,saj,_,_,_,_,_,326,CCONJ,Cc,cc
325,1674-1679,imeti,_,_,_,_,_,323,VERB,Vmpr3p-n,conj
326,1680-1687,občutek,_,_,_,_,_,326,NOUN,Ncmsan,obj
327,1688-1689,",",_,_,_,_,_,332,PUNCT,Z,punct
328,1690-1692,da,_,_,_,_,_,332,SCONJ,Cs,mark
329,1693-1695,se,_,_,_,_,_,332,PRON,Px------y,expl
330,1696-1699,on,_,_,_,_,_,332,PRON,Pp3mpa--y,obj
331,1700-1705,vleči,_,_,_,_,_,327,VERB,Vmpr3s,acl
332,1706-1708,za,_,_,_,_,_,334,ADP,Sa,case
333,1709-1712,nos,_,_,_,_,_,332,NOUN,Ncmsan,obl
334,1713-1714,.,_,_,_,_,_,323,PUNCT,Z,punct
335,1715-1716,"""",_,_,_,_,_,346,PUNCT,Z,punct
336,1717-1719,če,_,_,_,_,_,346,SCONJ,Cs,mark
337,1720-1722,se,_,_,_,_,_,346,PRON,Px------y,expl
338,1723-1725,biti,_,_,_,_,_,346,AUX,Va-f3s-n,aux
339,1726-1731,breme,_,_,_,_,_,346,NOUN,Ncnsn,nsubj
340,1732-1741,reševanje,_,_,_,_,_,340,NOUN,Ncnsg,nmod
341,1742-1748,grški,_,_,_,_,_,343,ADJ,Agpmpg,amod
342,1749-1755,dolg,_,_,_,_,_,341,NOUN,Ncmpg,nmod
343,1756-1758,še,_,_,_,_,_,346,PART,Q,advmod
344,1759-1767,bistveno,_,_,_,_,_,346,ADV,Rgp,advmod
345,1768-1776,povečati,_,_,_,_,_,332,VERB,Vmep-sn,advcl
346,1777-1780,med,_,_,_,_,_,351,ADP,Si,case
347,1781-1784,ta,_,_,_,_,_,351,DET,Pd-msi,det
348,1785-1787,in,_,_,_,_,_,350,CCONJ,Cc,cc
349,1788-1798,prihodnji,_,_,_,_,_,312,ADJ,Agpmsi,conj
350,1799-1808,november,_,_,_,_,_,346,NOUN,Ncmsi,obl
351,1809-1810,",",_,_,_,_,_,346,PUNCT,Z,punct
352,1811-1813,biti,_,_,_,_,_,358,AUX,Va-c,aux
353,1814-1816,ta,_,_,_,_,_,358,DET,Pd-nsn,nsubj
354,1817-1822,lahko,_,_,_,_,_,358,ADV,Rgp,advmod
355,1823-1828,gospa,_,_,_,_,_,358,NOUN,Ncfsa,obj
356,1829-1835,Merkel,PER,_,*->6-4,*[6],_,356,PROPN,Npfsn,nmod
357,1836-1841,stati,_,_,_,_,_,369,VERB,Vmpp-sn,advcl
358,1842-1846,tudi,_,_,_,_,_,358,PART,Q,advmod
359,1847-1854,njen,_,2,*->6-5,*[6],2 - Negativno,361,DET,Ps3nsgsf,det
360,1855-1866,kanclerstvo,_,_,_,_,_,358,NOUN,Ncnsg,obj
361,1867-1868,.,_,_,_,_,_,358,PUNCT,Z,punct
362,1869-1871,ta,_,_,_,_,_,369,DET,Pd-nsn,nsubj
363,1872-1874,biti,_,_,_,_,_,369,AUX,Va-c,aux
364,1875-1879,biti,_,_,_,_,_,369,AUX,Va-p-sn,cop
365,1880-1881,v,_,_,_,_,_,367,ADP,Sl,case
366,1882-1889,Nemčija,LOC,0,*->3-2,*[3],3 - Nevtralno,369,PROPN,Npfsl,obl
367,1890-1894,zelo,_,_,_,_,_,369,ADV,Rgp,advmod
368,1895-1906,nepopularen,_,_,_,_,_,9,ADJ,Agpnsn,parataxis
369,1907-1908,",",_,_,_,_,_,373,PUNCT,Z,punct
370,1909-1915,človek,_,_,_,_,_,373,NOUN,Ncmpn,nsubj
371,1916-1918,biti,_,_,_,_,_,373,AUX,Va-c,aux
372,1919-1924,reči,_,_,_,_,_,369,VERB,Vmep-pm,advcl
373,1925-1926,",",_,_,_,_,_,373,PUNCT,Z,punct
374,1927-1930,saj,_,_,_,_,_,379,CCONJ,Cc,cc
375,1931-1934,jaz,_,_,_,_,_,379,PRON,Pp1-pd,obj
376,1935-1937,biti,_,_,_,_,_,379,AUX,Va-r3s-n,aux
377,1938-1946,vendarle,_,_,_,_,_,379,CCONJ,Cc,advmod
378,1947-1956,obljubiti,_,_,_,_,_,369,VERB,Vmep-sf,conj
379,1957-1958,",",_,_,_,_,_,387,PUNCT,Z,punct
380,1959-1961,da,_,_,_,_,_,387,SCONJ,Cs,mark
381,1962-1965,jaz,_,_,_,_,_,387,PRON,Pp1-pa,obj
382,1966-1968,ta,_,_,_,_,_,387,DET,Pd-nsn,nsubj
383,1969-1971,ne,_,_,_,_,_,387,PART,Q,advmod
384,1972-1974,biti,_,_,_,_,_,387,AUX,Va-f3s-n,aux
385,1975-1978,nič,_,_,_,_,_,387,PRON,Pz-nsn,nsubj
386,1979-1984,stati,_,_,_,_,_,379,VERB,Vmpp-sn,ccomp
387,1985-1986,",",_,_,_,_,_,387,PUNCT,Z,punct
388,1987-1988,"""",_,_,_,_,_,390,PUNCT,Z,punct
389,1989-1993,meniti,_,_,*->7-12,*[7],_,379,VERB,Vmpr3s,parataxis
390,1994-1995,.,_,_,_,_,_,9,PUNCT,Z,punct
391,1996-1997,',_,_,_,_,_,393,PUNCT,Z,punct
392,1998-2001,ECB,ORG,_,*->10-1,*[10],_,397,PROPN,Npmsn,nsubj
393,2002-2004,in,_,_,_,_,_,396,CCONJ,Cc,cc
394,2005-2013,evropski,ORG[7],_,*->4-1,*[4],_,396,ADJ,Agpfsn,amod
395,2014-2022,komisija,ORG[7],_,*->4-1,*[4],_,397,NOUN,Ncfsn,nsubj
396,2023-2029,imeti,_,_,_,_,_,390,VERB,Vmpr3d-y,advcl
397,2030-2035,pojem,_,_,_,_,_,397,NOUN,Ncmsg,obj
398,2036-2037,',_,_,_,_,_,397,PUNCT,Z,punct
399,2038-2039,v,_,_,_,_,_,401,ADP,Sl,case
400,2040-2048,pogovor,_,_,_,_,_,403,NOUN,Ncmsl,obl
401,2049-2057,kritično,_,_,_,_,_,403,ADV,Rgp,advmod
402,2058-2066,ocenjevati,_,_,*->7-13,*[7],_,397,VERB,Vmpr3s,conj
403,2067-2077,kompetenca,_,_,_,_,_,403,NOUN,Ncmpa,obj
404,2078-2084,trojka,_,_,_,_,_,404,NOUN,Ncfsg,nmod
405,2085-2086,",",_,_,_,_,_,409,PUNCT,Z,punct
406,2087-2089,ki,_,_,_,_,_,409,SCONJ,Cs,mark
407,2090-2092,on,_,_,_,_,_,409,PRON,Pp3fsa--y,obj
408,2093-2104,sestavljati,_,_,_,_,_,404,VERB,Vmpr3p,acl
409,2105-2115,mednaroden,ORG[8],_,*->9-1,*[9],_,412,ADJ,Agpmsny,amod
410,2116-2123,denaren,ORG[8],_,*->9-1,*[9],_,412,ADJ,Agpmsny,amod
411,2124-2129,sklad,ORG[8],_,*->9-1,*[9],_,409,NOUN,Ncmsn,nsubj
412,2130-2131,(,_,_,_,_,_,414,PUNCT,Z,punct
413,2132-2135,IMF,ORG,_,*->9-2,*[9],_,412,PROPN,Npmsn,appos
414,2136-2137,),_,_,_,_,_,414,PUNCT,Z,punct
415,2138-2139,",",_,_,_,_,_,419,PUNCT,Z,punct
416,2140-2148,evropski,ORG[9],_,*->10-2,*[10],_,419,ADJ,Agpfsn,amod
417,2149-2158,centralen,ORG[9],_,*->10-2,*[10],_,419,ADJ,Agpfsn,amod
418,2159-2164,banka,ORG[9],_,*->10-2,*[10],_,412,NOUN,Ncfsn,conj
419,2165-2166,(,_,_,_,_,_,421,PUNCT,Z,punct
420,2167-2170,ECB,ORG,_,*->10-3,*[10],_,419,PROPN,Npmsn,appos
421,2171-2172,),_,_,_,_,_,421,PUNCT,Z,punct
422,2173-2175,in,_,_,_,_,_,425,CCONJ,Cc,cc
423,2176-2184,evropski,ORG[10],_,*->4-2,*[4],_,425,ADJ,Agpfsn,amod
424,2185-2193,komisija,ORG[10],_,*->4-2,*[4],_,419,NOUN,Ncfsn,conj
425,2194-2195,.,_,_,_,_,_,9,PUNCT,Z,punct
426,2196-2197,"""",_,_,_,_,_,430,PUNCT,Z,punct
427,2198-2200,le,_,_,_,_,_,430,PART,Q,advmod
428,2201-2204,IMF,ORG,_,*->9-3,*[9],_,430,PROPN,Npmsn,nsubj
429,2205-2208,imeti,_,_,_,_,_,425,VERB,Vmpr3s-n,acl
430,2209-2218,strokoven,_,_,_,_,_,432,ADJ,Agpnsa,amod
431,2219-2225,znanje,_,_,_,_,_,430,NOUN,Ncnsa,obj
432,2226-2227,",",_,_,_,_,_,438,PUNCT,Z,punct
433,2228-2229,z,_,_,_,_,_,438,ADP,Si,case
434,2230-2232,20,_,_,_,_,_,438,NUM,Mdc,nummod
435,2233-2236,ali,_,_,_,_,_,437,CCONJ,Cc,cc
436,2237-2239,30,_,_,_,_,_,435,NUM,Mdc,conj
437,2240-2243,leto,_,_,_,_,_,432,NOUN,Ncnpg,appos
438,2244-2252,izkušnja,_,_,_,_,_,438,NOUN,Ncfpg,nmod
439,2253-2256,pri,_,_,_,_,_,441,ADP,Sl,case
440,2257-2267,ukvarjanje,_,_,_,_,_,438,NOUN,Ncnsl,nmod
441,2268-2269,z,_,_,_,_,_,443,ADP,Si,case
442,2270-2278,država,_,_,_,_,_,441,NOUN,Ncfpi,nmod
443,2279-2280,v,_,_,_,_,_,446,ADP,Sl,case
444,2281-2290,fiskalen,_,_,_,_,_,446,ADJ,Agpfpl,amod
445,2291-2297,kriza,_,_,_,_,_,443,NOUN,Ncfpl,nmod
446,2298-2299,.,_,_,_,_,_,430,PUNCT,Z,punct
447,2300-2301,(,_,_,_,_,_,438,PUNCT,Z,punct
448,2302-2303,.,_,_,_,_,_,430,PUNCT,Z,punct
449,2304-2305,.,_,_,_,_,_,430,PUNCT,Z,punct
450,2306-2307,.,_,_,_,_,_,430,PUNCT,Z,punct
451,2308-2309,),_,_,_,_,_,458,PUNCT,Z,punct
452,2310-2318,evropski,ORG[11],2,*->4-3,*[4],2 - Negativno[12],454,ADJ,Agpfsn,amod
453,2319-2327,komisija,ORG[11],2,*->4-3,*[4],2 - Negativno[12],458,NOUN,Ncfsn,nsubj
454,2328-2330,in,_,_,_,_,_,456,CCONJ,Cc,cc
455,2331-2334,ECB,ORG,2,*->10-4,*[10],2 - Negativno,454,PROPN,Npmsn,conj
456,2335-2337,pa,_,_,_,_,_,458,CCONJ,Cc,advmod
457,2338-2344,imeti,_,_,_,_,_,461,VERB,Vmpr3d-y,conj
458,2345-2350,pojem,_,_,_,_,_,458,NOUN,Ncmsg,obj
459,2351-2352,.,_,_,_,_,_,430,PUNCT,Z,punct
460,2353-2359,imeti,_,_,_,_,_,9,VERB,Vmpr3d-y,parataxis
461,2360-2368,izkušnja,_,_,_,_,_,461,NOUN,Ncfpg,obj
462,2369-2371,in,_,_,_,_,_,464,CCONJ,Cc,cc
463,2372-2377,človek,_,_,_,_,_,462,NOUN,Ncmpg,conj
464,2378-2379,z,_,_,_,_,_,468,ADP,Si,case
465,2380-2389,potreben,_,_,_,_,_,468,ADJ,Agpnsi,amod
466,2390-2400,strokoven,_,_,_,_,_,468,ADJ,Agpnsi,amod
467,2401-2408,znanje,_,_,_,_,_,464,NOUN,Ncnsi,nmod
468,2409-2410,",",_,_,_,_,_,474,PUNCT,Z,punct
469,2411-2412,"""",_,_,_,_,_,471,PUNCT,Z,punct
470,2413-2418,praviti,_,1,*->7-14,*[7],4 - Pozitivno,458,VERB,Vmbr3s,conj
471,2419-2420,.,_,_,_,_,_,474,PUNCT,Z,punct
472,2421-2426,zakaj,_,_,_,_,_,474,ADV,Rgp,advmod
473,2427-2432,imeti,_,_,_,_,_,471,VERB,Vmpr3d-n,ccomp
474,2433-2438,potem,_,_,_,_,_,474,ADV,Rgp,advmod
475,2439-2444,prst,_,_,_,_,_,474,NOUN,Ncmpa,obj
476,2445-2451,zraven,_,_,_,_,_,474,ADV,Rgp,advmod
477,2452-2455,pri,_,_,_,_,_,479,ADP,Sl,case
478,2456-2465,ukrepanje,_,_,_,_,_,474,NOUN,Ncnsl,obl
479,2466-2467,v,_,_,_,_,_,482,ADP,Sl,case
480,2468-2475,krizen,_,_,_,_,_,482,ADJ,Agpfpl,amod
481,2476-2483,država,_,_,_,_,_,479,NOUN,Ncfpl,nmod
482,2484-2485,?,_,_,_,_,_,471,PUNCT,Z,punct
483,2486-2487,"""",_,_,_,_,_,486,PUNCT,Z,punct
484,2488-2492,naš,_,_,_,_,_,486,DET,Ps1mplp,det
485,2493-2501,politika,_,_,_,_,_,479,NOUN,Ncfsl,appos
486,2502-2503,",",_,_,_,_,_,491,PUNCT,Z,punct
487,2504-2506,ko,_,_,_,_,_,491,SCONJ,Cs,mark
488,2507-2509,biti,_,_,_,_,_,491,AUX,Va-r3p-n,aux
489,2510-2512,se,_,_,_,_,_,491,PRON,Px------y,expl
490,2513-2521,odločiti,_,_,_,_,_,486,VERB,Vmep-pm,acl
491,2522-2523,",",_,_,_,_,_,494,PUNCT,Z,punct
492,2524-2526,da,_,_,_,_,_,494,SCONJ,Cs,mark
493,2527-2531,dati,_,_,_,_,_,491,VERB,Vmer3p,ccomp
494,2532-2540,finančen,_,_,_,_,_,496,ADJ,Agpfsa,amod
495,2541-2546,pomoč,_,_,_,_,_,494,NOUN,Ncfsa,obj
496,2547-2553,Grčija,ORG,2,*->2-3,*[2],2 - Negativno,496,PROPN,Npfsd,nmod
497,2554-2556,in,_,_,_,_,_,501,CCONJ,Cc,cc
498,2557-2561,nato,_,_,_,_,_,501,ADV,Rgp,advmod
499,2562-2564,še,_,_,_,_,_,504,PART,Q,advmod
500,2565-2576,Portugalska,LOC,0,*->11-1,*[11],3 - Nevtralno,497,PROPN,Npmsn,conj
501,2577-2578,",",_,_,_,_,_,494,PUNCT,Z,punct
502,2579-2583,biti,_,_,_,_,_,504,AUX,Va-r3p-y,aux
503,2584-2590,želeti,_,_,_,_,_,494,VERB,Vmpp-pm,conj
504,2591-2596,ves,_,_,_,_,_,506,DET,Pg-nsg,obj
505,2597-2607,prepustiti,_,_,_,_,_,504,VERB,Vmen,xcomp
506,2608-2610,le,_,_,_,_,_,506,PART,Q,advmod
507,2611-2614,IMF,ORG,1,*->9-4,*[9],4 - Pozitivno,506,PROPN,Npmsn,nsubj
508,2615-2616,.,_,_,_,_,_,9,PUNCT,Z,punct
