idx,chars_idx,token,entity_type,sentiment,idk_1,idk_2,orig_sentiment,heads,upos,xpos,deprel
0,0-10,dosedanji,_,_,_,_,_,2,ADJ,Agpmpd,amod
1,11-22,uporabnik,_,_,_,_,_,5,NOUN,Ncmpd,obj
2,23-25,biti,_,_,_,_,_,5,AUX,Va-f3s-n,cop
3,26-33,kartica,_,_,_,_,_,5,NOUN,Ncfsn,nsubj
4,34-44,aktiviran,_,_,_,_,_,0,ADJ,Appfsn,root
5,45-47,po,_,_,_,_,_,7,ADP,Sl,case
6,48-55,vrnitev,_,_,_,_,_,5,NOUN,Ncfsl,obl
7,56-65,podpisan,_,_,_,_,_,9,ADJ,Appfsg,amod
8,66-73,ponudba,_,_,_,_,_,7,NOUN,Ncfsg,nmod
9,74-75,",",_,_,_,_,_,14,PUNCT,Z,punct
10,76-77,o,_,_,_,_,_,12,ADP,Sl,case
11,78-83,kar,_,_,_,_,_,14,PRON,Pr-nsl,obl
12,84-88,biti,_,_,_,_,_,14,AUX,Va-f3p-n,cop
13,89-98,obveščen,_,_,_,_,_,9,ADJ,Appmpn,acl
14,99-101,po,_,_,_,_,_,18,ADP,Sl,case
15,102-105,sms,_,_,_,_,_,18,NOUN,Ncmsn,nmod
16,106-107,-,_,_,_,_,_,18,PUNCT,Z,punct
17,108-109,u,_,_,_,_,_,14,PROPN,Npmsl,obl
18,110-111,",",_,_,_,_,_,20,PUNCT,Z,punct
19,112-120,telefon,_,_,_,_,_,18,NOUN,Ncmsl,conj
20,121-124,ali,_,_,_,_,_,23,CCONJ,Cc,cc
21,125-136,elektronski,_,_,_,_,_,23,ADJ,Agpfsl,amod
22,137-142,pošta,_,_,_,_,_,18,NOUN,Ncfsl,conj
23,143-144,.,_,_,_,_,_,14,PUNCT,Z,punct
24,145-149,prvi,_,_,_,_,_,26,ADJ,Mlonsn,amod
25,150-154,leto,_,_,_,_,_,35,NOUN,Ncnsa,nsubj
26,155-164,članarina,_,_,_,_,_,26,NOUN,Ncfsg,nmod
27,165-167,ne,_,_,_,_,_,35,PART,Q,advmod
28,168-170,biti,_,_,_,_,_,35,AUX,Va-f3s-n,aux
29,171-172,",",_,_,_,_,_,35,PUNCT,Z,punct
30,173-182,standard,_,_,_,_,_,35,NOUN,Ncmpn,nsubj
31,183-194,odobravanje,_,_,_,_,_,31,NOUN,Ncnsg,nmod
32,195-197,pa,_,_,_,_,_,35,CCONJ,Cc,advmod
33,198-200,se,_,_,_,_,_,36,PRON,Px------y,expl
34,201-209,utegniti,_,_,_,_,_,5,VERB,Vmbr3p,parataxis
35,210-219,zaostriti,_,_,_,_,_,35,VERB,Vmen,xcomp
36,220-221,.,_,_,_,_,_,35,PUNCT,Z,punct
37,222-226,nov,_,_,*->6-1,*[6],_,39,ADJ,Agpmsny,amod
38,227-234,lastnik,_,_,*->6-1,*[6],_,36,NOUN,Ncmsn,nsubj
39,235-243,franšiza,_,_,*->6-1,*[6],_,39,NOUN,Ncfsg,nmod
40,244-250,Diners,ORG[1],_,*->6-1|*->7-1,*[6]|*[7],_,40,PROPN,Npfsg,nmod
41,251-256,Club,ORG[1],_,*->6-1|*->7-1,*[6]|*[7],_,41,PROPN,Npmsg,flat:name
42,257-259,za,_,_,*->6-1,*[6],_,44,ADP,Sa,case
43,260-269,Slovenija,LOC,_,*->6-1|*->5-1,*[6]|*[5],_,42,PROPN,Npfsa,nmod
44,270-271,",",_,_,_,_,_,48,PUNCT,Z,punct
45,272-279,hrvaški,_,1,*->6-2,*[6],4 - Pozitivno[21],48,ADJ,Agpmsny,amod
46,280-285,Ersta,ORG[2],1,*->6-2,*[6],4 - Pozitivno[21],48,PROPN,Npmsn,nmod
47,286-290,Card,ORG[2],1,*->6-2,*[6],4 - Pozitivno[21],44,PROPN,Npmsn,appos
48,291-292,",",_,_,_,_,_,48,PUNCT,Z,punct
49,293-295,biti,_,_,_,_,_,57,AUX,Va-r3s-n,aux
50,296-298,po,_,_,_,_,_,53,ADP,Sl,case
51,299-306,petkov,_,_,_,_,_,53,ADJ,Aspfsl,amod
52,307-317,pridobitev,_,_,_,_,_,57,NOUN,Ncfsl,obl
53,318-325,licenca,_,_,_,_,_,53,NOUN,Ncfsg,nmod
54,326-331,banka,ORG[3],0,_,_,3 - Nevtralno[22],54,NOUN,Ncfsg,nmod
55,332-341,Slovenija,ORG[3]|LOC[4],0,*->5-2,*[5],3 - Nevtralno[22]|3 - Nevtralno[23],55,PROPN,Npfsg,nmod
56,342-347,začeti,_,_,_,_,_,5,VERB,Vmep-sm,parataxis
57,348-349,z,_,_,_,_,_,59,ADP,Si,case
58,350-363,rekrutiranje,_,_,_,_,_,57,NOUN,Ncnsi,obl
59,364-370,član,_,_,_,_,_,59,NOUN,Ncmpg,nmod
60,371-373,in,_,_,_,_,_,63,CCONJ,Cc,cc
61,374-375,z,_,_,_,_,_,63,ADP,Si,case
62,376-390,vzpostavitev,_,_,_,_,_,59,NOUN,Ncfsi,conj
63,391-399,prodajen,_,_,_,_,_,65,ADJ,Agpfsg,amod
64,400-405,mreža,_,_,_,_,_,63,NOUN,Ncfsg,nmod
65,406-407,.,_,_,_,_,_,57,PUNCT,Z,punct
66,408-414,Mladen,PER[5],_,*->1-1,*[1],_,57,PROPN,Npmsn,nsubj
67,415-420,Mirko,PER[5],_,*->1-1,*[1],_,67,PROPN,Npmsn,flat:name
68,421-426,Tepuš,PER[5],_,*->1-1,*[1],_,67,PROPN,Npmsn,flat:name
69,427-428,",",_,_,_,_,_,72,PUNCT,Z,punct
70,429-438,generalen,_,_,*->1-2,*[1],_,72,ADJ,Agpmsny,amod
71,439-447,direktor,_,_,*->1-2,*[1],_,67,NOUN,Ncmsn,appos
72,448-453,Ersta,ORG[6],_,*->1-2|*->9-1,*[1]|*[9],_,72,PROPN,Npmsn,nmod
73,454-458,Card,ORG[6],_,*->1-2|*->9-1,*[1]|*[9],_,75,PROPN,Npmsn,nmod
74,459-468,Ljubljana,ORG[6]|LOC[7],0,*->1-2|*->9-1,*[1]|*[9],3 - Nevtralno,72,PROPN,Npfsn,nmod
75,469-470,(,_,_,_,_,_,77,PUNCT,Z,punct
76,471-475,levo,_,_,_,_,_,75,PROPN,Npfsn,appos
77,476-477,),_,_,_,_,_,77,PUNCT,Z,punct
78,478-480,in,_,_,_,_,_,80,CCONJ,Cc,cc
79,481-485,Alen,PER[8],_,*->8-1,*[8],_,67,PROPN,Npmsn,conj
80,486-492,Ptičar,PER[8],_,*->8-1,*[8],_,80,PROPN,Npmsn,flat:name
81,493-494,",",_,_,_,_,_,88,PUNCT,Z,punct
82,495-503,direktor,_,0,*->8-2,*[8],3 - Nevtralno[24],88,NOUN,Ncmsn,nsubj
83,504-509,Ersta,ORG[9],0,*->8-2|*->9-2,*[8]|*[9],3 - Nevtralno[24],83,PROPN,Npfsg,nmod
84,510-514,Card,ORG[9],0,*->8-2|*->9-2,*[8]|*[9],3 - Nevtralno[24],86,PROPN,Npmsn,nmod
85,515-524,Ljubljana,ORG[9],0,*->8-2|*->9-2,*[8]|*[9],3 - Nevtralno[24],84,PROPN,Npfsn,nmod
86,525-531,naprej,_,_,_,_,_,89,ADV,Rgp,advmod
87,532-538,morati,_,_,_,_,_,57,VERB,Vmpr2p,advcl
88,539-548,poravnati,_,_,_,_,_,88,VERB,Vmen,xcomp
89,549-553,dolg,_,_,_,_,_,92,ADJ,Agpmsan,amod
90,554-558,nov,_,_,_,_,_,92,ADJ,Agpfpa,amod
91,559-566,kartica,_,_,_,_,_,94,NOUN,Ncfpa,obj
92,567-571,biti,_,_,_,_,_,94,AUX,Va-f3p-n,aux
93,572-579,prejeti,_,_,_,_,_,89,VERB,Vmep-pm,conj
94,580-590,uporabnik,_,_,_,_,_,94,NOUN,Ncmpn,nsubj
95,591-595,brez,_,_,_,_,_,97,ADP,Sg,case
96,596-601,dolg,_,_,_,_,_,95,ADJ,Agpfsg,amod
97,602-603,",",_,_,_,_,_,99,PUNCT,Z,punct
98,604-609,tisti,_,_,_,_,_,94,DET,Pd-mpn,nsubj
99,610-611,",",_,_,_,_,_,111,PUNCT,Z,punct
100,612-614,ki,_,_,_,_,_,111,SCONJ,Cs,mark
101,615-619,biti,_,_,_,_,_,111,AUX,Va-f3p-n,aux
102,620-625,svoj,_,_,_,_,_,104,DET,Px-fpa,det
103,626-636,obveznost,_,_,_,_,_,105,NOUN,Ncfpa,obj
104,637-646,poravnati,_,_,_,_,_,99,VERB,Vmep-pm,acl
105,647-649,in,_,_,_,_,_,107,CCONJ,Cc,cc
106,650-655,tisti,_,_,_,_,_,94,DET,Pd-mpn,nsubj
107,656-657,",",_,_,_,_,_,111,PUNCT,Z,punct
108,658-660,ki,_,_,_,_,_,111,SCONJ,Cs,mark
109,661-671,obveznost,_,_,_,_,_,111,NOUN,Ncfpn,nsubj
110,672-681,plačevati,_,_,_,_,_,107,VERB,Vmpr3p,acl
111,682-689,obročen,_,_,_,_,_,111,ADJ,Agpfsa,obj
112,690-691,",",_,_,_,_,_,111,PUNCT,Z,punct
113,692-694,biti,_,_,_,_,_,119,AUX,Va-r3s-n,aux
114,695-697,na,_,_,_,_,_,118,ADP,Sl,case
115,698-706,današnji,_,_,_,_,_,118,ADJ,Agpfsl,amod
116,707-715,tiskoven,_,_,_,_,_,118,ADJ,Agpfsl,amod
117,716-726,konferenca,_,_,_,_,_,119,NOUN,Ncfsl,obl
118,727-734,povedati,_,_,_,_,_,133,VERB,Vmep-sm,csubj
119,735-744,generalen,_,_,*->1-3,*[1],_,121,ADJ,Agpmsny,amod
120,745-753,sekretar,_,_,*->1-3,*[1],_,119,NOUN,Ncmsn,nsubj
121,754-759,Ersta,ORG[10],_,*->1-3|*->9-3,*[1]|*[9],_,121,PROPN,Npmsn,nmod
122,760-765,Card,ORG[10],_,*->1-3|*->9-3,*[1]|*[9],_,124,PROPN,Npmsn,nmod
123,766-772,Mladen,PER[11],_,*->1-3,*[1],_,121,PROPN,Npmsn,nmod
124,773-778,Mirko,PER[11],_,*->1-3,*[1],_,124,PROPN,Npmsn,flat:name
125,779-784,Tepuš,PER[11],_,*->1-3,*[1],_,124,PROPN,Npmsn,flat:name
126,785-786,.,_,_,_,_,_,119,PUNCT,Z,punct
127,787-789,20,_,_,_,_,_,124,NUM,Mdc,nummod
128,790-791,.,_,_,_,_,_,133,PUNCT,Z,punct
129,792-799,avgust,_,_,_,_,_,133,NOUN,Ncmsg,obl
130,800-803,on,_,_,_,_,_,133,PRON,Pp3mpd--y,obj
131,804-806,biti,_,_,_,_,_,133,AUX,Va-f3s-n,aux
132,807-814,poslan,_,_,_,_,_,5,ADJ,Appfsn,parataxis
133,815-828,dokumentacija,_,_,_,_,_,133,NOUN,Ncfsn,nsubj
134,829-830,z,_,_,_,_,_,137,ADP,Si,case
135,831-840,pristopen,_,_,_,_,_,137,ADJ,Agpfsi,amod
136,841-847,izjava,_,_,_,_,_,134,NOUN,Ncfsi,nmod
137,848-849,",",_,_,_,_,_,142,PUNCT,Z,punct
138,850-852,ki,_,_,_,_,_,142,SCONJ,Cs,mark
139,853-855,on,_,_,_,_,_,143,PRON,Pp3fsa--y,obj
140,856-860,biti,_,_,_,_,_,142,AUX,Va-f3p-n,aux
141,861-867,morati,_,_,_,_,_,137,VERB,Vmpp-pm,acl
142,868-877,podpisati,_,_,_,_,_,142,VERB,Vmen,xcomp
143,878-880,in,_,_,_,_,_,145,CCONJ,Cc,cc
144,881-887,vrniti,_,_,_,_,_,143,VERB,Vmen,conj
145,888-889,",",_,_,_,_,_,142,PUNCT,Z,punct
146,890-895,takoj,_,_,_,_,_,155,ADV,Rgp,advmod
147,896-898,po,_,_,_,_,_,149,ADP,Sl,case
148,899-902,ta,_,_,_,_,_,155,DET,Pd-nsl,obl
149,903-905,pa,_,_,_,_,_,155,CCONJ,Cc,advmod
150,906-909,on,_,_,_,_,_,155,PRON,Pp3mpa--y,obj
151,910-912,biti,_,_,_,_,_,155,AUX,Va-f3s-n,aux
152,913-918,Ersta,ORG[12],_,*->9-4,*[9],_,155,PROPN,Npfsn,nsubj
153,919-923,Card,ORG[12],_,*->9-4,*[9],_,153,PROPN,Npmsn,nmod
154,924-932,obvestiti,_,_,_,_,_,145,VERB,Vmep-sm,advcl
155,933-934,o,_,_,_,_,_,157,ADP,Sl,case
156,935-945,aktivacija,_,_,_,_,_,155,NOUN,Ncfsl,obl
157,946-947,.,_,_,_,_,_,155,PUNCT,Z,punct
158,948-949,»,_,_,_,_,_,155,PUNCT,Z,punct
159,950-955,glede,_,_,_,_,_,162,ADV,Rgp,advmod
160,956-958,na,_,_,_,_,_,162,ADP,Sa,case
161,959-968,zanimanje,_,_,_,_,_,155,NOUN,Ncnsa,obl
162,969-970,",",_,_,_,_,_,167,PUNCT,Z,punct
163,971-973,ki,_,_,_,_,_,167,SCONJ,Cs,mark
164,974-977,biti,_,_,_,_,_,167,AUX,Va-r1p-n,aux
165,978-980,on,_,_,_,_,_,167,PRON,Pp3msa--y,obj
166,981-988,zaznati,_,_,*->9-5,*[9],_,162,VERB,Vmep-pm,acl
167,989-990,v,_,_,_,_,_,170,ADP,Sl,case
168,991-998,zadnji,_,_,_,_,_,170,ADJ,Agpmpl,amod
169,999-1005,teden,_,_,_,_,_,167,NOUN,Ncmpl,obl
170,1006-1007,",",_,_,_,_,_,167,PUNCT,Z,punct
171,1008-1019,pričakovati,_,1,*->9-6,*[9],4 - Pozitivno,155,VERB,Vmpr1p,conj
172,1020-1021,",",_,_,_,_,_,183,PUNCT,Z,punct
173,1022-1024,da,_,_,_,_,_,183,SCONJ,Cs,mark
174,1025-1027,biti,_,_,_,_,_,183,AUX,Va-f3s-n,aux
175,1028-1033,poleg,_,_,_,_,_,178,ADP,Sg,case
176,1034-1044,dosedanji,_,_,_,_,_,178,ADJ,Agpmpg,amod
177,1045-1051,član,_,_,_,_,_,183,NOUN,Ncmpg,obl
178,1052-1054,za,_,_,_,_,_,182,ADP,Sa,case
179,1055-1059,nov,_,_,_,_,_,182,ADJ,Agpfsa,amod
180,1060-1066,diners,ORG,_,*->7-2,*[7],_,182,ADJ,Agpfsa,amod
181,1067-1074,kartica,_,_,_,_,_,183,NOUN,Ncfsa,obl
182,1075-1084,zaprositi,_,_,_,_,_,172,VERB,Vmep-sn,ccomp
183,1085-1089,tudi,_,_,_,_,_,183,PART,Q,advmod
184,1090-1096,velik,_,_,_,_,_,186,ADJ,Agpnsn,amod
185,1097-1104,število,_,_,_,_,_,183,NOUN,Ncnsn,nsubj
186,1105-1110,nov,_,_,_,_,_,186,ADJ,Agpmpg,amod
187,1111-1112,",",_,_,_,_,_,183,PUNCT,Z,punct
188,1113-1114,«,_,_,_,_,_,191,PUNCT,Z,punct
189,1115-1117,biti,_,_,_,_,_,191,AUX,Va-r3s-n,cop
190,1118-1127,prepričan,_,_,_,_,_,5,ADJ,Appmsnn,parataxis
191,1128-1134,Mladen,PER[13],1,*->1-4,*[1],4 - Pozitivno[25],191,PROPN,Npmsn,nsubj
192,1135-1140,Mirko,PER[13],1,*->1-4,*[1],4 - Pozitivno[25],192,PROPN,Npmsn,flat:name
193,1141-1146,Tepuš,PER[13],1,*->1-4,*[1],4 - Pozitivno[25],192,PROPN,Npmsn,flat:name
194,1147-1148,.,_,_,_,_,_,191,PUNCT,Z,punct
195,1149-1156,zapadel,_,_,_,_,_,197,ADJ,Appfpa,amod
196,1157-1167,obveznost,_,_,_,_,_,203,NOUN,Ncfpa,obj
197,1168-1170,do,_,_,_,_,_,200,ADP,Sg,case
198,1171-1178,star,_,_,_,_,_,200,ADJ,Agpmsg,amod
199,1179-1186,Diners,ORG,_,*->7-3,*[7],_,197,PROPN,Npmsg,nmod
200,1187-1193,morati,_,_,_,_,_,191,VERB,Vmpr3p,advcl
201,1194-1202,imetnik,_,_,_,_,_,201,NOUN,Ncmpn,nsubj
202,1203-1210,plačati,_,_,_,_,_,201,VERB,Vmen,xcomp
203,1211-1213,na,_,_,_,_,_,205,ADP,Sa,case
204,1214-1219,račun,_,_,_,_,_,203,NOUN,Ncmsan,obl
205,1220-1229,Unicredit,ORG[14],0,*->10-1,*[10],3 - Nevtralno[26],205,PROPN,Npfsg,nmod
206,1230-1235,banka,ORG[14],0,*->10-1,*[10],3 - Nevtralno[26],205,NOUN,Ncfsg,nmod
207,1236-1237,.,_,_,_,_,_,201,PUNCT,Z,punct
208,1238-1242,prvi,_,_,_,_,_,210,ADJ,Mlonsa,amod
209,1243-1247,leto,_,_,_,_,_,213,NOUN,Ncnsa,obl
210,1248-1257,članarina,_,_,_,_,_,210,NOUN,Ncfsg,nmod
211,1258-1260,ne,_,_,_,_,_,213,PART,Q,advmod
212,1261-1263,biti,_,_,_,_,_,201,VERB,Va-f3s-n,conj
213,1264-1269,letos,_,_,_,_,_,213,ADV,Rgp,advmod
214,1270-1279,članarina,_,_,_,_,_,219,NOUN,Ncfsg,obj
215,1280-1282,ne,_,_,_,_,_,217,PART,Q,advmod
216,1283-1285,biti,_,_,_,_,_,213,VERB,Va-f3s-n,csubj
217,1286-1291,treba,_,_,_,_,_,213,ADV,Rgp,advmod
218,1292-1301,plačevati,_,_,_,_,_,213,VERB,Vmpn,csubj
219,1302-1303,",",_,_,_,_,_,227,PUNCT,Z,punct
220,1304-1308,kako,_,_,_,_,_,227,ADV,Rgp,advmod
221,1309-1311,pa,_,_,_,_,_,227,CCONJ,Cc,advmod
222,1312-1314,za,_,_,_,_,_,224,ADP,Sa,case
223,1315-1321,naprej,_,_,_,_,_,227,ADV,Rgp,advmod
224,1322-1323,?,_,_,_,_,_,227,PUNCT,Z,punct
225,1324-1330,Željka,PER[15],_,*->2-1,*[2],_,227,PROPN,Npmsn,nsubj
226,1331-1337,menati,PER[15],_,*->2-1,*[2],_,219,VERB,Vmpp-sn,ccomp
227,1338-1339,",",_,_,_,_,_,227,PUNCT,Z,punct
228,1340-1350,predsednik,_,_,*->2-2,*[2],_,234,NOUN,Ncmsn,nsubj
229,1351-1357,uprava,_,_,*->2-2,*[2],_,229,NOUN,Ncfsg,nmod
230,1358-1363,Ersta,ORG[16],_,*->2-2|*->11-1,*[2]|*[11],_,233,PROPN,Npfsn,nmod
231,1364-1368,Card,ORG[16],_,*->2-2|*->11-1,*[2]|*[11],_,231,PROPN,Npmsn,nmod
232,1369-1374,Club,ORG[16],_,*->2-2|*->11-1,*[2]|*[11],_,230,PROPN,Npmsg,nmod
233,1375-1385,napovedovati,_,_,_,_,_,227,VERB,Vmpr3s,conj
234,1386-1387,",",_,_,_,_,_,257,PUNCT,Z,punct
235,1388-1390,da,_,_,_,_,_,242,SCONJ,Cs,mark
236,1391-1393,biti,_,_,_,_,_,242,AUX,Va-f3s-n,aux
237,1394-1401,cenoven,_,_,_,_,_,239,ADJ,Agpfsn,amod
238,1402-1410,politika,_,_,_,_,_,242,NOUN,Ncfsn,nsubj
239,1411-1420,naslednji,_,_,_,_,_,241,ADJ,Agpnsa,amod
240,1421-1425,leto,_,_,_,_,_,242,NOUN,Ncnsa,obl
241,1426-1432,ostati,_,_,_,_,_,234,VERB,Vmep-sf,ccomp
242,1433-1435,na,_,_,_,_,_,244,ADP,Sl,case
243,1436-1441,raven,_,_,_,_,_,242,NOUN,Ncfsl,obl
244,1442-1443,",",_,_,_,_,_,257,PUNCT,Z,punct
245,1444-1447,kot,_,_,_,_,_,257,SCONJ,Cs,mark
246,1448-1450,biti,_,_,_,_,_,257,AUX,Va-r3s-n,aux
247,1451-1455,biti,_,_,_,_,_,251,AUX,Va-p-sf,cop
248,1456-1458,do,_,_,_,_,_,250,ADP,Sg,case
249,1459-1467,letošnji,_,_,_,_,_,251,ADJ,Agpfsg,amod
250,1468-1476,spomladi,_,_,_,_,_,242,ADV,Rgp,advmod
251,1477-1478,.,_,_,_,_,_,242,PUNCT,Z,punct
252,1479-1480,»,_,_,_,_,_,257,PUNCT,Z,punct
253,1481-1489,nekateri,_,_,_,_,_,255,DET,Pi-fpa,det
254,1490-1496,stvar,_,_,_,_,_,257,NOUN,Ncfpa,obj
255,1497-1501,biti,_,_,_,_,_,257,AUX,Va-f1p-n,aux
256,1502-1510,obdržati,_,_,*->11-2,*[11],_,234,VERB,Vmep-pm,advcl
257,1511-1513,in,_,_,_,_,_,259,CCONJ,Cc,cc
258,1514-1523,razvijati,_,_,*->11-3,*[11],_,257,VERB,Vmpp-pm,conj
259,1524-1530,naprej,_,_,_,_,_,259,ADV,Rgp,advmod
260,1531-1532,",",_,_,_,_,_,257,PUNCT,Z,punct
261,1533-1534,o,_,_,_,_,_,265,ADP,Sl,case
262,1535-1544,nekateri,_,_,_,_,_,265,DET,Pi-fpl,det
263,1545-1550,nov,_,_,_,_,_,265,ADJ,Agpfpl,amod
264,1551-1561,ugodnost,_,_,_,_,_,268,NOUN,Ncfpl,obl
265,1562-1564,pa,_,_,_,_,_,268,CCONJ,Cc,advmod
266,1565-1567,še,_,_,_,_,_,268,PART,Q,advmod
267,1568-1579,razmišljati,_,_,*->11-4,*[11],_,257,VERB,Vmpr1p,conj
268,1580-1581,",",_,_,_,_,_,268,PUNCT,Z,punct
269,1582-1583,«,_,_,_,_,_,272,PUNCT,Z,punct
270,1584-1589,praviti,_,_,_,_,_,268,VERB,Vmbr3s,conj
271,1590-1596,menati,PER,_,*->2-3,*[2],_,268,VERB,Vmpp-sn,conj
272,1597-1598,",",_,_,_,_,_,274,PUNCT,Z,punct
273,1599-1605,deti,_,_,_,_,_,268,VERB,Vmem1p,conj
274,1606-1607,z,_,_,_,_,_,276,ADP,Si,case
275,1608-1620,povezovanje,_,_,_,_,_,274,NOUN,Ncnsi,obl
276,1621-1632,slovenski,_,_,_,_,_,280,ADJ,Agpmsg,amod
277,1633-1635,in,_,_,_,_,_,279,CCONJ,Cc,cc
278,1636-1645,hrvaški,_,_,_,_,_,277,ADJ,Agpmsg,conj
279,1646-1653,sistem,_,_,_,_,_,276,NOUN,Ncmsg,nmod
280,1654-1660,Diners,ORG,_,*->7-4,*[7],_,280,PROPN,Npfsg,nmod
281,1661-1662,.,_,_,_,_,_,268,PUNCT,Z,punct
282,1663-1666,ali,_,_,_,_,_,286,ADV,Rgp,mark
283,1667-1669,biti,_,_,_,_,_,286,AUX,Va-c,aux
284,1670-1672,ta,_,_,_,_,_,286,DET,Pd-nsn,nsubj
285,1673-1681,pomeniti,_,_,_,_,_,280,VERB,Vmbp-sn,acl
286,1682-1683,",",_,_,_,_,_,296,PUNCT,Z,punct
287,1684-1686,da,_,_,_,_,_,296,SCONJ,Cs,mark
288,1687-1689,biti,_,_,_,_,_,296,AUX,Va-c,aux
289,1690-1695,lahko,_,_,_,_,_,296,ADV,Rgp,advmod
290,1696-1705,ugodnost,_,_,_,_,_,296,NOUN,Ncfpa,obj
291,1706-1707,",",_,_,_,_,_,293,PUNCT,Z,punct
292,1708-1713,točka,_,_,_,_,_,291,NOUN,Ncfpa,conj
293,1714-1716,in,_,_,_,_,_,295,CCONJ,Cc,cc
294,1717-1722,milja,_,_,_,_,_,291,NOUN,Ncfpa,conj
295,1723-1734,izkoristiti,_,_,_,_,_,286,VERB,Vmep-pm,ccomp
296,1735-1739,tudi,_,_,_,_,_,296,PART,Q,advmod
297,1740-1743,pri,_,_,_,_,_,300,ADP,Sl,case
298,1744-1753,čezmejen,_,_,_,_,_,300,ADJ,Agpnsl,amod
299,1754-1765,nakupovanje,_,_,_,_,_,296,NOUN,Ncnsl,obl
300,1766-1767,?,_,_,_,_,_,296,PUNCT,Z,punct
301,1768-1770,ta,_,_,_,_,_,304,DET,Pd-nsn,nsubj
302,1771-1773,biti,_,_,_,_,_,304,AUX,Va-r3s-n,cop
303,1774-1777,en,_,_,_,_,_,296,NUM,Mlpfsn,nsubj
304,1778-1780,od,_,_,_,_,_,306,ADP,Sg,case
305,1781-1789,možnost,_,_,_,_,_,304,NOUN,Ncfsg,nmod
306,1790-1791,",",_,_,_,_,_,304,PUNCT,Z,punct
307,1792-1796,biti,_,_,_,_,_,309,AUX,Va-f1p-n,aux
308,1797-1803,videti,_,1,*->11-5,*[11],4 - Pozitivno,304,VERB,Vmbp-pm,acl
309,1804-1805,",",_,_,_,_,_,312,PUNCT,Z,punct
310,1806-1811,praviti,_,_,_,_,_,312,VERB,Vmbr3s,conj
311,1812-1818,menati,PER,_,*->2-4,*[2],_,309,VERB,Vmpp-sn,ccomp
312,1819-1820,.,_,_,_,_,_,309,PUNCT,Z,punct
313,1821-1823,po,_,_,_,_,_,317,ADP,Sl,case
314,1824-1832,njegov,_,_,*->2-5,*[2],_,317,DET,Ps3nslsm,det
315,1833-1841,splošen,_,_,_,_,_,317,ADJ,Agpnsl,amod
316,1842-1848,mnenje,_,_,_,_,_,323,NOUN,Ncnsl,obl
317,1849-1851,se,_,_,_,_,_,323,PRON,Px------y,expl
318,1852-1854,biti,_,_,_,_,_,323,AUX,Va-f3s-n,aux
319,1855-1861,zaradi,_,_,_,_,_,322,ADP,Sg,case
320,1862-1875,regulatoren,_,_,_,_,_,322,ADJ,Agpmsg,amod
321,1876-1883,nadzor,_,_,_,_,_,323,NOUN,Ncmsg,obl
322,1884-1892,povečati,_,_,_,_,_,312,VERB,Vmep-sn,conj
323,1893-1897,tudi,_,_,_,_,_,323,PART,Q,advmod
324,1898-1909,preverjanje,_,_,_,_,_,323,NOUN,Ncnsn,nsubj
325,1910-1918,krediten,_,_,_,_,_,327,ADJ,Agpfsg,amod
326,1919-1930,sposobnost,_,_,_,_,_,325,NOUN,Ncfsg,nmod
327,1931-1933,in,_,_,_,_,_,329,CCONJ,Cc,cc
328,1934-1943,standard,_,_,_,_,_,327,NOUN,Ncmpn,conj
329,1944-1955,odobravanje,_,_,_,_,_,329,NOUN,Ncnsg,nmod
330,1956-1957,.,_,_,_,_,_,323,PUNCT,Z,punct
331,1958-1966,skleniti,_,_,_,_,_,323,VERB,Vmep-pm,conj
332,1967-1969,biti,_,_,_,_,_,332,AUX,Va-r3p-n,aux
333,1970-1973,628,_,_,_,_,_,335,NUM,Mdc,nummod
334,1974-1984,sporazum,_,_,_,_,_,332,NOUN,Ncmpg,obj
335,1985-1986,z,_,_,_,_,_,337,ADP,Si,case
336,1987-1994,trgovec,_,_,_,_,_,335,NOUN,Ncmpi,nmod
337,1995-1997,do,_,_,_,_,_,339,ADP,Sg,case
338,1998-2002,20.8,_,_,_,_,_,337,NUM,Mdc,nummod
339,2003-2004,.,_,_,_,_,_,323,PUNCT,Z,punct
340,2005-2007,biti,_,_,_,_,_,343,AUX,Va-c,aux
341,2008-2012,rad,_,_,_,_,_,343,ADV,Rgp,advmod
342,2013-2024,vzpostaviti,_,_,_,_,_,323,VERB,Vmep-pm,advcl
343,2025-2028,čim,_,_,_,_,_,345,ADV,Rgp,advmod
344,2029-2035,dober,_,_,_,_,_,347,ADJ,Agcfsa,amod
345,2036-2044,prodajen,_,_,_,_,_,347,ADJ,Agpfsa,amod
346,2045-2050,mreža,_,_,_,_,_,343,NOUN,Ncfsa,obj
347,2051-2052,",",_,_,_,_,_,351,PUNCT,Z,punct
348,2053-2057,zato,_,_,_,_,_,351,CCONJ,Cc,cc
349,2058-2068,intenzivno,_,_,_,_,_,351,ADV,Rgp,advmod
350,2069-2081,sestankovati,_,_,_,_,_,343,VERB,Vmpr3p,conj
351,2082-2084,in,_,_,_,_,_,354,CCONJ,Cc,cc
352,2085-2087,se,_,_,_,_,_,354,PRON,Px------y,expl
353,2088-2096,pogajati,_,_,_,_,_,351,VERB,Vmpr3p,conj
354,2097-2098,.,_,_,_,_,_,343,PUNCT,Z,punct
355,2099-2100,»,_,_,_,_,_,361,PUNCT,Z,punct
356,2101-2102,z,_,_,_,_,_,358,ADP,Si,case
357,2103-2110,odziv,_,_,_,_,_,361,NOUN,Ncmsi,obl
358,2111-2119,trgovec,_,_,_,_,_,358,NOUN,Ncmpg,nmod
359,2120-2123,biti,_,_,_,_,_,361,AUX,Va-r1p-n,cop
360,2124-2134,zadovoljen,_,_,_,_,_,351,ADJ,Agpmpn,conj
361,2135-2136,",",_,_,_,_,_,361,PUNCT,Z,punct
362,2137-2138,v,_,_,_,_,_,365,ADP,Sl,case
363,2139-2144,prvi,_,_,_,_,_,365,ADJ,Mlonpl,amod
364,2145-2152,deset,_,_,_,_,_,370,NUM,Mlc-pl,obl
365,2153-2156,biti,_,_,_,_,_,370,AUX,Va-r1p-n,aux
366,2157-2158,v,_,_,_,_,_,368,ADP,Sa,case
367,2159-2168,izplačilo,_,_,_,_,_,370,NOUN,Ncnsa,obl
368,2169-2177,trgovec,_,_,_,_,_,370,NOUN,Ncmpd,iobj
369,2178-2182,dati,_,_,_,_,_,361,VERB,Vmep-pm,csubj
370,2183-2185,že,_,_,_,_,_,370,PART,Q,advmod
371,2186-2189,568,_,_,_,_,_,373,NUM,Mdc,nummod
372,2190-2197,nalog,_,_,_,_,_,370,NOUN,Ncmpg,obj
373,2198-2199,",",_,_,_,_,_,370,PUNCT,Z,punct
374,2200-2201,«,_,_,_,_,_,370,PUNCT,Z,punct
375,2202-2203,o,_,_,_,_,_,377,ADP,Sl,case
376,2204-2213,poplačilo,_,_,_,_,_,373,NOUN,Ncnsl,nmod
377,2214-2220,dolg,_,_,_,_,_,377,NOUN,Ncmpg,nmod
378,2221-2228,star,_,_,_,_,_,380,ADJ,Agpmsg,amod
379,2229-2236,Diners,ORG,_,*->7-5,*[7],_,378,PROPN,Npmsg,nmod
380,2237-2238,",",_,_,_,_,_,385,PUNCT,Z,punct
381,2239-2241,ki,_,_,_,_,_,385,SCONJ,Cs,mark
382,2242-2244,on,_,_,_,_,_,385,PRON,Pp3msa--y,obj
383,2245-2247,biti,_,_,_,_,_,385,AUX,Va-r3s-n,aux
384,2248-2253,voditi,_,_,_,_,_,378,VERB,Vmpp-sm,acl
385,2254-2259,Tomaž,PER[17],_,*->3-1,*[3],_,385,PROPN,Npmsn,nsubj
386,2260-2265,Lovše,PER[17],_,*->3-1,*[3],_,386,PROPN,Npmsn,flat:name
387,2266-2267,",",_,_,_,_,_,385,PUNCT,Z,punct
388,2268-2273,praviti,_,_,_,_,_,386,VERB,Vmbr3s,acl
389,2274-2280,Željka,PER[18],_,*->2-6,*[2],_,391,PROPN,Npmsn,nsubj
390,2281-2287,menati,PER[18],_,*->2-6,*[2],_,389,VERB,Vmpp-sn,conj
391,2288-2289,.,_,_,_,_,_,389,PUNCT,Z,punct
392,2290-2292,od,_,_,_,_,_,395,ADP,Sg,case
393,2293-2298,8.000,_,_,_,_,_,395,NUM,Mdc,nummod
394,2299-2305,ponudba,_,_,_,_,_,391,NOUN,Ncfpg,obl
395,2306-2307,",",_,_,_,_,_,400,PUNCT,Z,punct
396,2308-2310,ki,_,_,_,_,_,400,SCONJ,Cs,mark
397,2311-2313,biti,_,_,_,_,_,400,AUX,Va-r3p-n,aux
398,2314-2317,on,_,_,_,_,_,400,PRON,Pp3mpa--y,obj
399,2318-2325,poslati,_,_,_,_,_,395,VERB,Vmep-pm,acl
400,2326-2327,",",_,_,_,_,_,400,PUNCT,Z,punct
401,2328-2330,pa,_,_,_,_,_,404,CCONJ,Cc,cc
402,2331-2333,biti,_,_,_,_,_,404,AUX,Va-r3p-n,aux
403,2334-2342,skleniti,_,_,_,_,_,391,VERB,Vmep-pm,conj
404,2343-2346,628,_,_,_,_,_,406,NUM,Mdc,nummod
405,2347-2357,sporazum,_,_,_,_,_,404,NOUN,Ncmpg,obj
406,2358-2359,",",_,_,_,_,_,400,PUNCT,Z,punct
407,2360-2371,pričakovati,_,_,_,_,_,404,VERB,Vmpr3p,conj
408,2372-2375,on,_,_,_,_,_,408,PRON,Pp3mpa--y,obj
409,2376-2378,še,_,_,_,_,_,408,PART,Q,advmod
410,2379-2382,več,_,_,_,_,_,408,DET,Rgc,advmod
411,2383-2384,.,_,_,_,_,_,404,PUNCT,Z,punct
412,2385-2388,ves,_,_,_,_,_,415,DET,Pg-npn,det
413,2389-2395,bodoč,_,_,_,_,_,415,ADJ,Agpnpn,amod
414,2396-2403,plačilo,_,_,_,_,_,417,NOUN,Ncnpn,nsubj
415,2404-2408,biti,_,_,_,_,_,417,AUX,Va-f3p-n,cop
416,2409-2417,izveden,_,_,_,_,_,5,ADJ,Appnpn,parataxis
417,2418-2419,v,_,_,_,_,_,419,ADP,Sl,case
418,2420-2426,celota,_,_,_,_,_,417,NOUN,Ncfsl,obl
419,2427-2429,in,_,_,_,_,_,421,CCONJ,Cc,cc
420,2430-2440,pravočasno,_,_,_,_,_,419,ADV,Rgp,conj
421,2441-2442,",",_,_,_,_,_,424,PUNCT,Z,punct
422,2443-2444,v,_,_,_,_,_,424,ADP,Sl,case
423,2445-2451,sklad,_,_,_,_,_,429,NOUN,Ncmsl,obl
424,2452-2453,z,_,_,_,_,_,426,ADP,Si,case
425,2454-2463,pogodba,_,_,_,_,_,424,NOUN,Ncfpi,nmod
426,2464-2465,",",_,_,_,_,_,429,PUNCT,Z,punct
427,2466-2471,praviti,_,_,_,_,_,433,VERB,Vmbr3s,advcl
428,2472-2478,menati,PER,0,*->2-7,*[2],3 - Nevtralno,417,VERB,Vmpp-sn,csubj
429,2479-2480,.,_,_,_,_,_,429,PUNCT,Z,punct
430,2481-2489,razmerje,_,_,_,_,_,433,NOUN,Ncnsg,obj
431,2490-2492,biti,_,_,_,_,_,433,AUX,Va-r3p-n,aux
432,2493-2500,urediti,_,_,_,_,_,417,VERB,Vmep-pm,parataxis
433,2501-2503,že,_,_,_,_,_,433,PART,Q,advmod
434,2504-2505,z,_,_,_,_,_,438,ADP,Si,case
435,2506-2511,ves,_,_,_,_,_,438,DET,Pg-mpi,det
436,2512-2519,velik,_,_,_,_,_,438,ADJ,Agcmpi,amod
437,2520-2527,trgovec,_,_,_,_,_,433,NOUN,Ncmpi,obl
438,2528-2529,",",_,_,_,_,_,442,PUNCT,Z,punct
439,2530-2533,kot,_,_,_,_,_,442,SCONJ,Cs,mark
440,2534-2537,biti,_,_,_,_,_,442,AUX,Va-r3d-n,cop
441,2538-2546,Mercator,ORG,0,*->12-1,*[12],3 - Nevtralno,438,PROPN,Npmsn,acl
442,2547-2550,ali,_,_,_,_,_,444,CCONJ,Cc,cc
443,2551-2557,Merkur,ORG,0,*->13-1,*[13],3 - Nevtralno,442,PROPN,Npmsn,conj
444,2558-2559,.,_,_,_,_,_,460,PUNCT,Z,punct
445,2560-2563,ali,_,_,_,_,_,451,ADV,Rgp,mark
446,2564-2566,biti,_,_,_,_,_,451,AUX,Va-f3s-n,aux
447,2567-2569,na,_,_,_,_,_,450,ADP,Sl,case
448,2570-2575,nov,_,_,_,_,_,450,ADJ,Agpmsl,amod
449,2576-2583,Diners,ORG,0,*->7-6,*[7],3 - Nevtralno,451,PROPN,Npmsl,obl
450,2584-2590,delati,_,_,_,_,_,442,VERB,Vmpp-sf,acl
451,2591-2595,tudi,_,_,_,_,_,451,PART,Q,advmod
452,2596-2602,Simon,PER[19],_,*->4-1,*[4],_,451,PROPN,Npfsn,nsubj
453,2603-2608,Dimic,PER[19],_,*->4-1,*[4],_,453,PROPN,Npfsn,flat:name
454,2609-2610,?,_,_,_,_,_,451,PUNCT,Z,punct
455,2611-2620,situacija,_,_,_,_,_,460,NOUN,Ncfsn,nsubj
456,2621-2622,z,_,_,_,_,_,458,ADP,Si,case
457,2623-2631,Lovše,PER,_,*->3-2,*[3],_,456,PROPN,Npmsi,nmod
458,2632-2634,biti,_,_,_,_,_,460,AUX,Va-r3s-n,aux
459,2635-2643,vplivati,_,_,_,_,_,451,VERB,Vmpp-sf,conj
460,2644-2646,na,_,_,_,_,_,462,ADP,Sa,case
461,2647-2652,ugled,_,_,_,_,_,460,NOUN,Ncmsan,obl
462,2653-2659,znamka,_,_,_,_,_,462,NOUN,Ncfsg,nmod
463,2660-2661,",",_,_,_,_,_,460,PUNCT,Z,punct
464,2662-2672,priznavati,_,_,_,_,_,460,VERB,Vmpr3p,conj
465,2673-2674,",",_,_,_,_,_,465,PUNCT,Z,punct
466,2675-2676,a,_,_,_,_,_,471,CCONJ,Cc,cc
467,2677-2680,biti,_,_,_,_,_,471,AUX,Va-r1p-n,aux
468,2681-2686,njen,_,_,_,_,_,470,DET,Ps3fsasf,det
469,2687-2690,moč,_,_,_,_,_,471,NOUN,Ncfsa,obj
470,2691-2699,dokazati,_,_,_,_,_,465,VERB,Vmep-pm,conj
471,2700-2701,z,_,_,_,_,_,473,ADP,Si,case
472,2702-2705,ta,_,_,_,_,_,471,DET,Pd-nsi,obl
473,2706-2707,",",_,_,_,_,_,477,PUNCT,Z,punct
474,2708-2710,da,_,_,_,_,_,477,SCONJ,Cs,mark
475,2711-2714,biti,_,_,_,_,_,477,AUX,Va-r1p-n,aux
476,2715-2720,najti,_,_,_,_,_,473,VERB,Vmep-pm,acl
477,2721-2728,rešitev,_,_,_,_,_,477,NOUN,Ncfsa,obj
478,2729-2730,",",_,_,_,_,_,477,PUNCT,Z,punct
479,2731-2738,praviti,_,_,_,_,_,471,VERB,Vmbr3p,parataxis
480,2739-2743,nov,_,_,_,_,_,482,ADJ,Agpmpn,amod
481,2744-2752,lastnik,_,_,_,_,_,480,NOUN,Ncmpn,nsubj
482,2753-2761,franšiza,_,_,_,_,_,482,NOUN,Ncfsg,nmod
483,2762-2763,.,_,_,_,_,_,471,PUNCT,Z,punct
484,2764-2769,Lovše,PER,2,*->3-3,*[3],2 - Negativno,488,PROPN,Npmsn,nsubj
485,2770-2772,biti,_,_,_,_,_,488,AUX,Va-r3s-n,aux
486,2773-2776,biti,_,_,_,_,_,488,AUX,Va-p-sm,cop
487,2777-2785,vključen,_,_,_,_,_,471,ADJ,Appmsnn,parataxis
488,2786-2787,v,_,_,_,_,_,490,ADP,Sa,case
489,2788-2797,pogajanje,_,_,_,_,_,488,NOUN,Ncnpa,obl
490,2798-2800,za,_,_,_,_,_,494,ADP,Sa,case
491,2801-2804,nov,_,_,_,_,_,494,ADJ,Agpmsan,amod
492,2805-2813,plačilen,_,_,_,_,_,494,ADJ,Agpmsay,amod
493,2814-2820,sistem,_,_,_,_,_,490,NOUN,Ncmsan,nmod
494,2821-2822,",",_,_,_,_,_,497,PUNCT,Z,punct
495,2823-2825,biti,_,_,_,_,_,497,AUX,Va-r3p-n,aux
496,2826-2834,razkriti,_,_,_,_,_,488,VERB,Vmep-pm,advcl
497,2835-2836,.,_,_,_,_,_,497,PUNCT,Z,punct
498,2837-2839,do,_,_,_,_,_,500,ADP,Sg,case
499,2840-2845,konec,_,_,_,_,_,503,NOUN,Ncmsg,obl
500,2846-2850,leto,_,_,_,_,_,503,NOUN,Ncnsg,obl
501,2851-2855,biti,_,_,_,_,_,503,AUX,Va-f3p-n,aux
502,2856-2865,zaposliti,_,_,_,_,_,497,VERB,Vmep-pm,conj
503,2866-2868,60,_,_,_,_,_,505,NUM,Mdc,nummod
504,2869-2874,človek,_,_,_,_,_,503,NOUN,Ncmpg,obj
505,2875-2876,",",_,_,_,_,_,503,PUNCT,Z,punct
506,2877-2881,vsak,_,_,_,_,_,508,DET,Pg-msa,det
507,2882-2885,dan,_,_,_,_,_,509,NOUN,Ncmsan,obl
508,2886-2894,najemati,_,_,_,_,_,503,VERB,Vmpr3p,advcl
509,2895-2899,nov,_,_,_,_,_,509,ADJ,Agpmpa,obj
510,2900-2901,.,_,_,_,_,_,503,PUNCT,Z,punct
511,2902-2904,na,_,_,_,_,_,514,ADP,Sa,case
512,2905-2909,naš,_,_,_,_,_,514,DET,Ps1nsap,det
513,2910-2919,vprašanje,_,_,_,_,_,509,NOUN,Ncnsa,obl
514,2920-2921,",",_,_,_,_,_,517,PUNCT,Z,punct
515,2922-2925,ali,_,_,_,_,_,517,ADV,Rgp,mark
516,2926-2928,biti,_,_,_,_,_,514,VERB,Va-f3s-n,acl
517,2929-2932,med,_,_,_,_,_,519,ADP,Si,case
518,2933-2938,on,_,_,_,_,_,517,PRON,Pp3mpi,obl
519,2939-2943,tudi,_,_,_,_,_,517,PART,Q,advmod
520,2944-2950,Simon,PER[20],_,*->4-2,*[4],_,517,PROPN,Npfsn,nsubj
521,2951-2956,Dimic,PER[20],_,*->4-2,*[4],_,521,PROPN,Npfsn,flat:name
522,2957-2958,",",_,_,_,_,_,527,PUNCT,Z,punct
523,2959-2961,ki,_,_,_,_,_,527,SCONJ,Cs,mark
524,2962-2964,biti,_,_,_,_,_,527,AUX,Va-r3s-n,aux
525,2965-2969,biti,_,_,_,_,_,527,AUX,Va-p-sf,cop
526,2970-2980,svetovalka,_,0,*->4-3,*[4],3 - Nevtralno[27],521,NOUN,Ncfsn,acl
527,2981-2991,prejšnji,_,0,*->4-3,*[4],3 - Nevtralno[27],529,ADJ,Agpmsg,amod
528,2992-3002,direktor,_,0,*->4-3,*[4],3 - Nevtralno[27],527,NOUN,Ncmsg,nmod
529,3003-3005,za,_,0,*->4-3,*[4],3 - Nevtralno[27],531,ADP,Sa,case
530,3006-3013,prodaja,_,0,*->4-3,*[4],3 - Nevtralno[27],529,NOUN,Ncfsa,nmod
531,3014-3015,",",_,_,_,_,_,527,PUNCT,Z,punct
532,3016-3020,biti,_,_,_,_,_,535,AUX,Va-r3p-y,aux
533,3021-3030,konkretno,_,_,_,_,_,535,ADV,Rgp,advmod
534,3031-3041,odgovoriti,_,_,_,_,_,514,VERB,Vmep-pm,acl
535,3042-3043,",",_,_,_,_,_,539,PUNCT,Z,punct
536,3044-3046,le,_,_,_,_,_,539,PART,Q,mark
537,3047-3049,da,_,_,_,_,_,537,SCONJ,Cs,fixed
538,3050-3058,izbirati,_,_,_,_,_,535,VERB,Vmpr3p,advcl
539,3059-3068,strokoven,_,_,_,_,_,541,ADJ,Agpmsan,amod
540,3069-3074,kader,_,_,_,_,_,539,NOUN,Ncmsan,obj
541,3075-3076,",",_,_,_,_,_,545,PUNCT,Z,punct
542,3077-3079,ki,_,_,_,_,_,545,SCONJ,Cs,mark
543,3080-3082,se,_,_,_,_,_,545,PRON,Px------y,expl
544,3083-3089,spoznati,_,_,_,_,_,541,VERB,Vmbr3s,acl
545,3090-3092,na,_,_,_,_,_,547,ADP,Sa,case
546,3093-3098,posel,_,_,_,_,_,545,NOUN,Ncmsan,obl
547,3099-3101,in,_,_,_,_,_,552,CCONJ,Cc,cc
548,3102-3104,biti,_,_,_,_,_,552,AUX,Va-f3s-n,aux
549,3105-3110,lahko,_,_,_,_,_,552,ADV,Rgp,advmod
550,3111-3117,znamka,_,_,_,_,_,552,NOUN,Ncfsa,obj
551,3118-3126,razvijati,_,_,_,_,_,545,VERB,Vmpp-sm,conj
552,3127-3133,naprej,_,_,_,_,_,552,ADV,Rgp,advmod
