idx,chars_idx,token,entity_type,sentiment,idk_1,idk_2,orig_sentiment,heads,upos,xpos,deprel
0,0-4,mali,ORG[1],_,*->19-1,*[19],_,2,ADJ,Agpmpn,amod
1,5-15,delničar,ORG[1],_,*->19-1,*[19],_,6,NOUN,Ncmpn,nsubj
2,16-18,biti,_,_,_,_,_,6,AUX,Va-r3p-n,aux
3,19-24,kljub,_,_,_,_,_,5,ADP,Sd,case
4,25-33,preklic,_,_,_,_,_,6,NOUN,Ncmsd,obl
5,34-43,izpeljati,_,_,_,_,_,29,VERB,Vmep-pm,advcl
6,44-49,svoj,_,_,_,_,_,8,DET,Px-fsa,det
7,50-59,skupščina,_,_,_,_,_,6,NOUN,Ncfsa,obj
8,60-69,pivovarna,ORG[2],_,*->17-1,*[17],_,8,NOUN,Ncfsg,nmod
9,70-75,Laško,ORG[2]|LOC[3],_,*->17-1|*->12-1,*[17]|*[12],_,9,PROPN,Npnsn,nmod
10,76-77,",",_,_,_,_,_,15,PUNCT,Z,punct
11,78-80,na,_,_,_,_,_,50,ADP,Sl,case
12,81-87,kateri,_,_,_,_,_,15,DET,Pq-fsl,obl
13,88-90,biti,_,_,_,_,_,15,AUX,Va-r3p-n,aux
14,91-99,zavrniti,_,_,*->19-2,*[19],_,8,VERB,Vmep-pm,acl
15,100-103,ves,_,_,_,_,_,18,DET,Pg-mpa,det
16,104-114,predlagan,_,_,_,_,_,18,ADJ,Appmpa,amod
17,115-121,sklep,_,_,_,_,_,15,NOUN,Ncmpa,obj
18,122-129,vodstvo,_,_,_,_,_,18,NOUN,Ncnsg,nmod
19,130-132,in,_,_,_,_,_,21,CCONJ,Cc,cc
20,133-144,nadzornik,_,_,_,_,_,19,NOUN,Ncmpg,conj
21,145-151,družba,_,_,*->17-2,*[17],_,19,NOUN,Ncfsg,nmod
22,152-153,.,_,_,_,_,_,29,PUNCT,Z,punct
23,154-155,v,_,_,_,_,_,25,ADP,Sl,case
24,156-165,pivovarna,_,_,*->17-3,*[17],_,29,NOUN,Ncfsl,obl
25,166-168,ta,_,_,_,_,_,27,DET,Pd-fsg,det
26,169-178,skupščina,_,_,_,_,_,25,NOUN,Ncfsg,nmod
27,179-181,ne,_,_,_,_,_,29,PART,Q,advmod
28,182-192,priznavati,_,_,_,_,_,0,VERB,Vmpr3p,root
29,193-194,.,_,_,_,_,_,29,PUNCT,Z,punct
30,195-205,predsednik,_,_,*->9-1,*[9],_,63,NOUN,Ncmsn,nsubj
31,206-212,uprava,_,_,*->9-1,*[9],_,31,NOUN,Ncfsg,nmod
32,213-222,pivovarna,ORG[4],_,*->9-1|*->17-4,*[9]|*[17],_,32,NOUN,Ncfsg,nmod
33,223-228,Laško,ORG[4]|LOC[5],_,*->9-1|*->17-4|*->12-2,*[9]|*[17]|*[12],_,35,PROPN,Npnsn,nmod
34,229-234,Boško,PER[6],_,*->9-1,*[9],_,31,PROPN,Npmsn,nmod
35,235-239,Šrot,PER[6],_,*->9-1,*[9],_,35,PROPN,Npmsn,flat:name
36,240-246,uprava,_,_,_,_,_,35,NOUN,Ncfsn,flat:name
37,247-249,in,_,_,_,_,_,40,CCONJ,Cc,cc
38,250-258,nadzoren,_,_,_,_,_,40,ADJ,Agpmsny,amod
39,259-263,svet,_,_,_,_,_,37,NOUN,Ncmsn,conj
40,264-273,pivovarna,ORG[7],_,*->17-5,*[17],_,40,NOUN,Ncfsg,nmod
41,274-279,Laško,ORG[7]|LOC[8],_,*->17-5|*->12-3,*[17]|*[12],_,41,PROPN,Npnsn,nmod
42,280-283,biti,_,_,_,_,_,63,AUX,Va-r3d-n,aux
43,284-286,za,_,_,_,_,_,47,ADP,Sa,case
44,287-292,danes,_,_,_,_,_,63,ADV,Rgp,advmod
45,293-303,napovedan,_,_,_,_,_,47,ADJ,Appfsa,amod
46,304-313,skupščina,_,_,_,_,_,63,NOUN,Ncfsa,obl
47,314-315,",",_,_,_,_,_,52,PUNCT,Z,punct
48,316-318,na,_,_,_,_,_,50,ADP,Sl,case
49,319-325,kateri,_,_,_,_,_,52,DET,Pq-fsl,obl
50,326-328,biti,_,_,_,_,_,52,AUX,Va-c,aux
51,329-335,morati,_,_,_,_,_,47,VERB,Vmpp-pm,acl
52,336-346,delničar,_,_,*->19-3,*[19],_,56,NOUN,Ncmpn,nsubj
53,347-350,med,_,_,_,_,_,55,ADP,Si,case
54,351-357,drug,_,_,_,_,_,56,ADJ,Mlpnsi,obl
55,358-366,odločati,_,_,_,_,_,52,VERB,Vmpn,xcomp
56,367-371,tudi,_,_,_,_,_,56,PART,Q,advmod
57,372-373,o,_,_,_,_,_,59,ADP,Sl,case
58,374-382,pokritje,_,_,_,_,_,56,NOUN,Ncnsl,obl
59,383-389,lanski,_,_,_,_,_,61,ADJ,Agpfsg,amod
60,390-396,izguba,_,_,_,_,_,59,NOUN,Ncfsg,nmod
61,397-398,",",_,_,_,_,_,52,PUNCT,Z,punct
62,399-409,preklicati,_,_,_,_,_,29,VERB,Vmep-dm,conj
63,410-411,.,_,_,_,_,_,63,PUNCT,Z,punct
64,412-414,iz,_,_,_,_,_,66,ADP,Sg,case
65,415-424,pivovarna,ORG[9],_,*->17-6,*[17],_,69,NOUN,Ncfsg,obl
66,425-430,Laško,ORG[9]|LOC[10],_,*->17-6|*->12-4,*[17]|*[12],_,66,PROPN,Npnsn,nmod
67,431-433,biti,_,_,_,_,_,69,AUX,Va-r3p-n,aux
68,434-443,sporočiti,_,_,_,_,_,63,VERB,Vmep-pm,conj
69,444-445,",",_,_,_,_,_,74,PUNCT,Z,punct
70,446-448,da,_,_,_,_,_,74,SCONJ,Cs,mark
71,449-451,biti,_,_,_,_,_,74,AUX,Va-r3p-n,aux
72,452-461,skupščina,_,_,_,_,_,74,NOUN,Ncfsa,obj
73,462-472,preklicati,_,_,_,_,_,69,VERB,Vmep-pm,ccomp
74,473-474,",",_,_,_,_,_,94,PUNCT,Z,punct
75,475-478,ker,_,_,_,_,_,94,SCONJ,Cs,mark
76,479-481,biti,_,_,_,_,_,94,AUX,Va-r3s-n,aux
77,482-486,urad,ORG[11],_,*->1-1,*[1],_,74,NOUN,Ncmsn,nsubj
78,487-489,za,ORG[11],_,*->1-1,*[1],_,80,ADP,Sa,case
79,490-497,varstvo,ORG[11],_,*->1-1,*[1],_,78,NOUN,Ncnsa,nmod
80,498-508,konkurenca,ORG[11],_,*->1-1,*[1],_,80,NOUN,Ncfsg,nmod
81,509-512,UVK,ORG[11],_,*->1-1,*[1],_,81,PROPN,Npmsg,nmod
82,513-517,šele,_,_,_,_,_,85,PART,Q,advmod
83,518-523,danes,_,_,_,_,_,85,ADV,Rgp,advmod
84,524-534,velik,_,_,_,_,_,90,ADJ,Agsmsg,amod
85,535-536,",",_,_,_,_,_,89,PUNCT,Z,punct
86,537-539,57,_,_,*->16-1,*[16],_,89,NUM,Mdc,nummod
87,540-541,-,_,_,*->16-1,*[16],_,89,PUNCT,Z,punct
88,542-552,odstoten,_,_,*->16-1,*[16],_,90,ADJ,Agpmsa,amod
89,553-561,lastnik,_,_,*->16-1,*[16],_,78,NOUN,Ncmsay,nmod
90,562-568,družba,_,_,*->16-1|*->17-7,*[16]|*[17],_,90,NOUN,Ncfsg,nmod
91,569-575,Infond,ORG[12],_,*->16-1,*[16],_,91,PROPN,Npmsn,nmod
92,576-583,holding,ORG[12],_,*->16-1,*[16],_,92,PROPN,Npmsn,nmod
93,584-592,obvestiti,_,_,_,_,_,69,VERB,Vmep-sm,advcl
94,593-594,",",_,_,_,_,_,102,PUNCT,Z,punct
95,595-597,da,_,_,_,_,_,102,SCONJ,Cs,mark
96,598-600,za,_,_,_,_,_,98,ADP,Sa,case
97,601-611,glasovanje,_,_,_,_,_,102,NOUN,Ncnsa,obl
98,612-614,na,_,_,_,_,_,100,ADP,Sl,case
99,615-624,skupščina,_,_,_,_,_,98,NOUN,Ncfsl,nmod
100,625-636,delničar,_,_,*->19-4,*[19],_,100,NOUN,Ncmpg,nmod
101,637-641,imeti,_,_,_,_,_,94,VERB,Vmpr3s-y,ccomp
102,642-653,glasovalen,_,_,_,_,_,104,ADJ,Agpfpg,amod
103,654-660,pravica,_,_,_,_,_,102,NOUN,Ncfpg,obj
104,661-662,.,_,_,_,_,_,102,PUNCT,Z,punct
105,663-669,zaradi,_,_,_,_,_,107,ADP,Sg,case
106,670-674,ta,_,_,_,_,_,111,DET,Pd-nsg,obl
107,675-677,biti,_,_,_,_,_,111,AUX,Va-r3s-n,aux
108,678-684,uprava,_,_,_,_,_,111,NOUN,Ncfsn,nsubj
109,685-691,družba,_,_,*->17-8,*[17],_,109,NOUN,Ncfsg,nmod
110,692-698,morati,_,_,_,_,_,6,VERB,Vmpp-sf,parataxis
111,699-708,skupščina,_,_,_,_,_,113,NOUN,Ncfsa,obj
112,709-719,preklicati,_,_,_,_,_,111,VERB,Vmen,xcomp
113,720-722,in,_,_,_,_,_,115,CCONJ,Cc,cc
114,723-733,preprečiti,_,_,_,_,_,113,VERB,Vmen,conj
115,734-743,morebiten,_,_,_,_,_,117,ADJ,Agpnsa,amod
116,744-755,oškodovanje,_,_,_,_,_,115,NOUN,Ncnsa,obj
117,756-767,delničar,_,_,*->19-5,*[19],_,117,NOUN,Ncmpg,nmod
118,768-769,",",_,_,_,_,_,121,PUNCT,Z,punct
119,770-772,biti,_,_,_,_,_,121,AUX,Va-r3p-n,aux
120,773-780,navesti,_,_,_,_,_,6,VERB,Vmep-pm,parataxis
121,781-782,.,_,_,_,_,_,121,PUNCT,Z,punct
122,783-787,mali,ORG[13],_,*->19-6,*[19],_,124,ADJ,Agpmpn,amod
123,788-798,delničar,ORG[13],_,*->19-6,*[19],_,129,NOUN,Ncmpn,nsubj
124,799-801,biti,_,_,_,_,_,129,AUX,Va-r3p-n,aux
125,802-811,skupščina,_,_,_,_,_,129,NOUN,Ncfsa,obj
126,812-817,kljub,_,_,_,_,_,128,ADP,Sd,case
127,818-826,preklic,_,_,_,_,_,129,NOUN,Ncmsd,obl
128,827-836,izpeljati,_,_,_,_,_,111,VERB,Vmep-pm,advcl
129,837-841,mali,ORG[14],_,*->19-7,*[19],_,131,ADJ,Agpmpn,amod
130,842-852,delničar,ORG[14],_,*->19-7,*[19],_,129,NOUN,Ncmpn,nsubj
131,853-862,pivovarna,ORG[15],_,*->17-9,*[17],_,131,NOUN,Ncfsg,nmod
132,863-868,Laško,ORG[15]|LOC[16],_,*->17-9|*->12-5,*[17]|*[12],_,132,PROPN,Npnsn,nmod
133,869-871,biti,_,_,_,_,_,151,AUX,Va-r3p-n,aux
134,872-874,po,_,_,_,_,_,136,ADP,Sl,case
135,875-883,preklic,_,_,_,_,_,129,NOUN,Ncmsl,obl
136,884-893,skupščina,_,_,_,_,_,136,NOUN,Ncfsg,nmod
137,894-905,delničar,_,_,*->19-8,*[19],_,137,NOUN,Ncmpg,nmod
138,906-907,z,_,_,_,_,_,140,ADP,Sg,case
139,908-914,stran,_,_,_,_,_,138,NOUN,Ncfsg,nmod
140,915-921,uprava,_,_,_,_,_,140,NOUN,Ncfsg,nmod
141,922-924,in,_,_,_,_,_,144,CCONJ,Cc,cc
142,925-935,nadzoren,_,_,_,_,_,144,ADJ,Agpmsg,amod
143,936-941,svet,_,_,_,_,_,141,NOUN,Ncmsg,conj
144,942-950,podjetje,_,_,*->17-10,*[17],_,144,NOUN,Ncnsg,nmod
145,951-955,pred,_,_,_,_,_,148,ADP,Si,case
146,956-965,kulturen,_,_,_,_,_,148,ADJ,Agpmsi,amod
147,966-971,dom,_,_,_,_,_,144,NOUN,Ncmsi,nmod
148,972-973,v,_,_,_,_,_,150,ADP,Sl,case
149,974-980,Laško,LOC,_,*->17-11,*[17],_,148,PROPN,Npnsl,nmod
150,981-990,izpeljati,_,_,_,_,_,129,VERB,Vmep-pm,conj
151,991-996,svoj,_,_,*->19-9,*[19],_,153,DET,Px-fsa,det
152,997-1006,skupščina,_,_,_,_,_,151,NOUN,Ncfsa,obj
153,1007-1008,.,_,_,_,_,_,151,PUNCT,Z,punct
154,1009-1011,na,_,_,_,_,_,156,ADP,Sl,case
155,1012-1021,skupščina,_,_,_,_,_,159,NOUN,Ncfsl,obl
156,1022-1024,biti,_,_,_,_,_,159,AUX,Va-r3p-n,aux
157,1025-1029,biti,_,_,_,_,_,159,AUX,Va-p-pm,cop
158,1030-1038,prisoten,_,_,_,_,_,160,ADJ,Agpmpny,amod
159,1039-1042,kad,ORG,_,*->10-1,*[10],_,151,NOUN,Ncmsn,nsubj
160,1043-1044,",",_,_,_,_,_,162,PUNCT,Z,punct
161,1045-1050,sklad,_,0,*->2-1,*[2],3 - Nevtralno[42],160,NOUN,Ncmsn,conj
162,1051-1057,Skagen,ORG[17],0,*->2-1,*[2],3 - Nevtralno[42],162,PROPN,Npmsn,nmod
163,1058-1061,Kon,ORG[17],0,*->2-1,*[2],3 - Nevtralno[42],163,PROPN,Npmsn,flat:name
164,1062-1063,-,ORG[17],0,*->2-1,*[2],3 - Nevtralno[42],166,PUNCT,Z,punct
165,1064-1068,Tiki,ORG[17],0,*->2-1,*[2],3 - Nevtralno[42],164,PROPN,Npmsn,conj
166,1069-1070,",",_,_,_,_,_,168,PUNCT,Z,punct
167,1071-1077,Electa,ORG,0,*->3-1,*[3],3 - Nevtralno,164,PROPN,Npmsn,conj
168,1078-1079,",",_,_,_,_,_,172,PUNCT,Z,punct
169,1080-1085,nekaj,_,_,_,_,_,172,DET,Rgp,det
170,1086-1091,mali,_,_,_,_,_,172,ADJ,Agpmpg,amod
171,1092-1103,delničar,_,_,_,_,_,163,NOUN,Ncmpg,conj
172,1104-1106,in,_,_,_,_,_,175,CCONJ,Cc,cc
173,1107-1119,vseslovenski,_,_,_,_,_,175,ADJ,Agpnsn,amod
174,1120-1129,združenje,_,_,_,_,_,160,NOUN,Ncnsn,conj
175,1130-1135,mali,_,_,_,_,_,177,ADJ,Agpmpg,amod
176,1136-1147,delničar,_,_,_,_,_,175,NOUN,Ncmpg,nmod
177,1148-1149,",",_,_,_,_,_,181,PUNCT,Z,punct
178,1150-1152,ki,_,_,_,_,_,181,SCONJ,Cs,mark
179,1153-1155,on,_,_,_,_,_,181,PRON,Pp3msa--y,obj
180,1156-1163,zastopati,_,_,_,_,_,177,VERB,Vmpr3s,acl
181,1164-1172,Kristjan,PER[18],_,*->18-1,*[18],_,181,PROPN,Npmsn,nsubj
182,1173-1179,Verbič,PER[18],_,*->18-1,*[18],_,182,PROPN,Npmsn,flat:name
183,1180-1181,.,_,_,_,_,_,181,PUNCT,Z,punct
184,1182-1188,skupaj,_,_,_,_,_,187,ADV,Rgp,advmod
185,1189-1191,biti,_,_,_,_,_,187,AUX,Va-r3p-n,aux
186,1192-1205,predstavljati,_,_,_,_,_,6,VERB,Vmpp-pm,parataxis
187,1206-1211,nekaj,_,_,_,_,_,191,DET,Rgp,det
188,1212-1215,čez,_,_,_,_,_,191,ADP,Sa,case
189,1216-1218,20,_,_,_,_,_,191,NUM,Mdc,nummod
190,1219-1228,odstotek,_,_,_,_,_,187,NOUN,Ncmpg,obl
191,1229-1237,kapital,_,_,_,_,_,191,NOUN,Ncmsg,nmod
192,1238-1239,.,_,_,_,_,_,187,PUNCT,Z,punct
193,1240-1242,na,_,_,_,_,_,195,ADP,Sl,case
194,1243-1252,skupščina,_,_,_,_,_,199,NOUN,Ncfsl,obl
195,1253-1255,biti,_,_,_,_,_,199,AUX,Va-r3p-n,aux
196,1256-1258,se,_,_,_,_,_,199,PRON,Px------y,expl
197,1259-1269,delničar,_,_,*->19-10,*[19],_,199,NOUN,Ncmpn,nsubj
198,1270-1279,seznaniti,_,_,_,_,_,6,VERB,Vmep-pm,parataxis
199,1280-1281,z,_,_,_,_,_,203,ADP,Si,case
200,1282-1289,lanski,_,_,_,_,_,203,ADJ,Agpnsi,amod
201,1290-1296,leten,_,_,_,_,_,203,ADJ,Agpnsi,amod
202,1297-1306,poročilo,_,_,_,_,_,199,NOUN,Ncnsi,obl
203,1307-1309,in,_,_,_,_,_,208,CCONJ,Cc,cc
204,1310-1311,z,_,_,_,_,_,208,ADP,Si,case
205,1312-1318,lanski,_,_,_,_,_,208,ADJ,Agpfsi,amod
206,1319-1327,bilančen,_,_,_,_,_,208,ADJ,Agpfsi,amod
207,1328-1334,izguba,_,_,_,_,_,203,NOUN,Ncfsi,conj
208,1335-1336,",",_,_,_,_,_,212,PUNCT,Z,punct
209,1337-1339,ki,_,_,_,_,_,212,SCONJ,Cs,mark
210,1340-1342,biti,_,_,_,_,_,212,AUX,Va-r3s-n,aux
211,1343-1350,znašati,_,_,_,_,_,208,VERB,Vmpp-sf,acl
212,1351-1354,"1,6",_,_,_,_,_,214,NUM,Mdc,nummod
213,1355-1363,milijon,_,_,_,_,_,212,NOUN,Ncmsg,obj
214,1364-1369,evro,_,_,_,_,_,214,NOUN,Ncmpg,nmod
215,1370-1371,.,_,_,_,_,_,199,PUNCT,Z,punct
216,1372-1380,lastnik,_,_,_,_,_,199,NOUN,Ncmpn,nsubj
217,1381-1382,",",_,_,_,_,_,224,PUNCT,Z,punct
218,1383-1385,ki,_,_,_,_,_,224,SCONJ,Cs,mark
219,1386-1388,biti,_,_,_,_,_,224,AUX,Va-r3p-n,aux
220,1389-1393,biti,_,_,_,_,_,224,AUX,Va-p-pm,cop
221,1394-1396,na,_,_,_,_,_,223,ADP,Sl,case
222,1397-1406,skupščina,_,_,_,_,_,224,NOUN,Ncfsl,obl
223,1407-1415,prisoten,_,_,_,_,_,217,ADJ,Agpmpn,acl
224,1416-1417,",",_,_,_,_,_,224,PUNCT,Z,punct
225,1418-1424,uprava,_,_,_,_,_,230,NOUN,Ncfsd,iobj
226,1425-1430,Boška,PER[19],_,*->9-2,*[9],_,226,PROPN,Npmsg,nmod
227,1431-1436,Šrot,PER[19],_,*->9-2,*[9],_,227,PROPN,Npmsg,flat:name
228,1437-1441,biti,_,_,_,_,_,230,AUX,Va-r3p-y,aux
229,1442-1450,podeliti,_,_,_,_,_,224,VERB,Vmep-pm,conj
230,1451-1461,razrešnica,_,_,_,_,_,230,NOUN,Ncfsg,obj
231,1462-1463,",",_,_,_,_,_,230,PUNCT,Z,punct
232,1464-1468,prav,_,_,_,_,_,234,PART,Q,advmod
233,1469-1473,tako,_,_,_,_,_,237,ADV,Rgp,advmod
234,1474-1476,on,_,_,_,_,_,237,PRON,Pp3fsg--y,obj
235,1477-1481,biti,_,_,_,_,_,237,AUX,Va-r3p-y,aux
236,1482-1490,podeliti,_,_,_,_,_,230,VERB,Vmep-pm,advcl
237,1491-1501,nadzoren,_,_,_,_,_,239,ADJ,Agpmsd,amod
238,1502-1507,svet,_,_,_,_,_,237,NOUN,Ncmsd,obj
239,1508-1509,.,_,_,_,_,_,237,PUNCT,Z,punct
240,1510-1521,predstavnik,_,0,*->18-2,*[18],3 - Nevtralno[43],254,NOUN,Ncmsn,nsubj
241,1522-1527,mali,_,0,*->18-2|*->19-11,*[18]|*[19],3 - Nevtralno[43],243,ADJ,Agpmpg,amod
242,1528-1539,delničar,_,0,*->18-2|*->19-11,*[18]|*[19],3 - Nevtralno[43],241,NOUN,Ncmpg,nmod
243,1540-1548,Kristjan,PER[20],0,*->18-2,*[18],3 - Nevtralno[43],241,PROPN,Npmsn,nmod
244,1549-1555,Verbič,PER[20],0,*->18-2,*[18],3 - Nevtralno[43],244,PROPN,Npmsn,flat:name
245,1556-1560,foto,_,_,_,_,_,244,PROPN,Npmsn,flat:name
246,1561-1565,Dare,PER[21],0,*->4-1,*[4],3 - Nevtralno[44],241,PROPN,Npmsn,nmod
247,1566-1573,Čekeliš,PER[21],0,*->4-1,*[4],3 - Nevtralno[44],247,PROPN,Npmsn,flat:name
248,1574-1578,prav,_,_,_,_,_,250,PART,Q,advmod
249,1579-1583,tako,_,_,_,_,_,254,ADV,Rgp,advmod
250,1584-1586,biti,_,_,_,_,_,254,AUX,Va-r3p-n,aux
251,1587-1591,mali,_,_,*->19-12,*[19],_,253,ADJ,Agpmpn,amod
252,1592-1602,delničar,_,_,*->19-12,*[19],_,254,NOUN,Ncmpn,nsubj
253,1603-1615,nasprotovati,_,_,_,_,_,237,VERB,Vmpp-pm,advcl
254,1616-1626,sprememba,_,_,_,_,_,254,NOUN,Ncfpd,iobj
255,1627-1634,statuta,_,_,_,_,_,255,NOUN,Ncmsg,nmod
256,1635-1641,družba,_,_,*->17-12,*[17],_,256,NOUN,Ncfsg,nmod
257,1642-1643,.,_,_,_,_,_,254,PUNCT,Z,punct
258,1644-1654,predlagan,_,_,_,_,_,261,ADJ,Appfpn,amod
259,1655-1665,statutaren,_,_,_,_,_,261,ADJ,Agpfpn,amod
260,1666-1675,sprememba,_,_,_,_,_,265,NOUN,Ncfpn,nsubj
261,1676-1678,biti,_,_,_,_,_,265,AUX,Va-c,aux
262,1679-1688,pivovarna,ORG[22],_,*->17-13,*[17],_,265,NOUN,Ncfsd,iobj
263,1689-1694,Laško,ORG[22]|LOC[23],_,*->17-13|*->12-6,*[17]|*[12],_,263,PROPN,Npnsn,nmod
264,1695-1704,omogočiti,_,_,_,_,_,254,VERB,Vmep-pf,conj
265,1705-1706,",",_,_,_,_,_,272,PUNCT,Z,punct
266,1707-1709,da,_,_,_,_,_,272,SCONJ,Cs,mark
267,1710-1711,v,_,_,_,_,_,269,ADP,Sl,case
268,1712-1719,obdobje,_,_,_,_,_,272,NOUN,Ncnsl,obl
269,1720-1725,pet,_,_,_,_,_,271,NUM,Mlc-pg,nummod
270,1726-1729,leto,_,_,_,_,_,269,NOUN,Ncnpg,nmod
271,1730-1736,povečati,_,_,_,_,_,265,VERB,Vmer3s,ccomp
272,1737-1744,osnoven,_,_,_,_,_,274,ADJ,Agpmsny,amod
273,1745-1752,kapital,_,_,_,_,_,272,NOUN,Ncmsn,nsubj
274,1753-1759,družba,_,_,*->17-14,*[17],_,274,NOUN,Ncfsg,nmod
275,1760-1761,z,_,_,_,_,_,277,ADP,Si,case
276,1762-1768,izdaja,_,_,_,_,_,274,NOUN,Ncfsi,nmod
277,1769-1774,nov,_,_,_,_,_,279,ADJ,Agpfpg,amod
278,1775-1781,delnica,_,_,_,_,_,277,NOUN,Ncfpg,nmod
279,1782-1784,za,_,_,_,_,_,282,ADP,Sa,case
280,1785-1791,največ,_,_,_,_,_,282,DET,Rgs,det
281,1792-1800,polovica,_,_,_,_,_,277,NOUN,Ncfsa,nmod
282,1801-1810,osnoven,_,_,_,_,_,284,ADJ,Agpmsg,amod
283,1811-1819,kapital,_,_,_,_,_,282,NOUN,Ncmsg,nmod
284,1820-1828,podjetje,_,_,*->17-15,*[17],_,284,NOUN,Ncnsg,nmod
285,1829-1830,",",_,_,_,_,_,288,PUNCT,Z,punct
286,1831-1833,ki,_,_,_,_,_,288,SCONJ,Cs,mark
287,1834-1841,obstajati,_,_,_,_,_,285,VERB,Vmpr3s,acl
288,1842-1843,v,_,_,_,_,_,290,ADP,Sl,case
289,1844-1848,čas,_,_,_,_,_,288,NOUN,Ncmsl,obl
290,1849-1857,sprejemati,_,_,_,_,_,290,NOUN,Ncmsg,nmod
291,1858-1866,sprememba,_,_,_,_,_,291,NOUN,Ncfpg,nmod
292,1867-1874,statuta,_,_,_,_,_,292,NOUN,Ncmsg,nmod
293,1875-1876,.,_,_,_,_,_,254,PUNCT,Z,punct
294,1877-1881,pred,_,_,_,_,_,296,ADP,Si,case
295,1882-1888,izdaja,_,_,_,_,_,303,NOUN,Ncfsi,obl
296,1889-1894,nov,_,_,_,_,_,298,ADJ,Agpfpg,amod
297,1895-1901,delnica,_,_,_,_,_,296,NOUN,Ncfpg,nmod
298,1902-1904,pa,_,_,_,_,_,301,CCONJ,Cc,advmod
299,1905-1907,biti,_,_,_,_,_,301,AUX,Va-c,aux
300,1908-1914,morati,_,_,_,_,_,6,VERB,Vmpp-sf,parataxis
301,1915-1921,uprava,_,_,_,_,_,301,NOUN,Ncfsn,nsubj
302,1922-1931,pridobiti,_,_,_,_,_,301,VERB,Vmen,xcomp
303,1932-1940,soglasje,_,_,_,_,_,303,NOUN,Ncnsa,obj
304,1941-1951,nadzoren,_,_,_,_,_,306,ADJ,Agpmsg,amod
305,1952-1957,svet,_,_,_,_,_,304,NOUN,Ncmsg,nmod
306,1958-1959,.,_,_,_,_,_,254,PUNCT,Z,punct
307,1960-1963,pri,_,_,_,_,_,309,ADP,Sl,case
308,1964-1974,glasovanje,_,_,_,_,_,318,NOUN,Ncnsl,obl
309,1975-1976,o,_,_,_,_,_,313,ADP,Sl,case
310,1977-1981,dva,_,_,_,_,_,313,NUM,Mlcmdl,nummod
311,1982-1987,nov,_,_,_,_,_,313,ADJ,Agpmdl,amod
312,1988-1999,nadzornik,_,_,_,_,_,309,NOUN,Ncmdl,nmod
313,2000-2002,biti,_,_,_,_,_,318,AUX,Va-r3s-n,aux
314,2003-2012,združenje,_,_,_,_,_,318,NOUN,Ncnsa,nsubj
315,2013-2018,mali,_,0,*->19-13,*[19],3 - Nevtralno[45],317,ADJ,Agpmpg,amod
316,2019-2030,delničar,_,0,*->19-13,*[19],3 - Nevtralno[45],315,NOUN,Ncmpg,nmod
317,2031-2038,vložiti,_,_,_,_,_,6,VERB,Vmep-sn,parataxis
318,2039-2048,nasproten,_,_,_,_,_,320,ADJ,Agpmsay,amod
319,2049-2056,predlog,_,_,_,_,_,318,NOUN,Ncmsan,obj
320,2057-2058,.,_,_,_,_,_,318,PUNCT,Z,punct
321,2059-2069,predlagati,_,_,_,_,_,318,VERB,Vmbp-sn,parataxis
322,2070-2072,biti,_,_,_,_,_,322,AUX,Va-r3s-n,aux
323,2073-2081,Boštjan,PER[24],1,*->5-1,*[5],4 - Pozitivno[46],322,PROPN,Npmsay,obj
324,2082-2089,Marolta,PER[24],1,*->5-1,*[5],4 - Pozitivno[46],324,PROPN,Npmsay,flat:name
325,2090-2092,in,_,_,_,_,_,327,CCONJ,Cc,cc
326,2093-2099,Bojan,PER[25],1,*->6-1,*[6],4 - Pozitivno[47],324,PROPN,Npmsay,conj
327,2100-2107,Ludvik,PER[25],1,*->6-1,*[6],4 - Pozitivno[47],327,PROPN,Npmsay,flat:name
328,2108-2109,.,_,_,_,_,_,318,PUNCT,Z,punct
329,2110-2115,sklep,_,_,_,_,_,333,NOUN,Ncmsn,nsubj
330,2116-2118,biti,_,_,_,_,_,333,AUX,Va-r3s-n,aux
331,2119-2122,biti,_,_,_,_,_,333,AUX,Va-p-sm,cop
332,2123-2130,sprejet,_,_,_,_,_,6,ADJ,Appmsnn,parataxis
333,2131-2132,.,_,_,_,_,_,333,PUNCT,Z,punct
334,2133-2139,uprava,_,_,_,_,_,338,NOUN,Ncfsn,nsubj
335,2140-2142,biti,_,_,_,_,_,338,AUX,Va-r3s-n,aux
336,2143-2148,sicer,_,_,_,_,_,338,PART,Q,advmod
337,2149-2159,predlagati,_,_,_,_,_,6,VERB,Vmbp-sf,parataxis
338,2160-2165,Jank,PER[26],1,*->7-1,*[7],4 - Pozitivno[48],338,PROPN,Npmsay,obj
339,2166-2172,Remica,PER[26],1,*->7-1,*[7],4 - Pozitivno[48],339,PROPN,Npmsay,flat:name
340,2173-2175,in,_,_,_,_,_,342,CCONJ,Cc,cc
341,2176-2182,Franc,PER[27],1,*->8-1,*[8],4 - Pozitivno[49],339,PROPN,Npmsay,conj
342,2183-2190,Rojnik,PER[27],1,*->8-1,*[8],4 - Pozitivno[49],342,PROPN,Npmsay,flat:name
343,2191-2192,.,_,_,_,_,_,338,PUNCT,Z,punct
344,2193-2201,prisoten,_,_,_,_,_,346,ADJ,Agpmpn,amod
345,2202-2212,delničar,_,_,_,_,_,348,NOUN,Ncmpn,nsubj
346,2213-2215,biti,_,_,_,_,_,348,AUX,Va-r3p-n,aux
347,2216-2227,izglasovati,_,_,_,_,_,338,VERB,Vmep-pm,conj
348,2228-2232,tudi,_,_,_,_,_,348,PART,Q,advmod
349,2233-2238,sklep,_,_,_,_,_,348,NOUN,Ncmsan,obj
350,2239-2240,",",_,_,_,_,_,364,PUNCT,Z,punct
351,2241-2243,da,_,_,_,_,_,364,SCONJ,Cs,mark
352,2244-2246,se,_,_,_,_,_,364,PRON,Px------y,expl
353,2247-2253,član,_,_,_,_,_,364,NOUN,Ncmpd,obj
354,2254-2264,nadzoren,_,_,_,_,_,356,ADJ,Agpmsg,amod
355,2265-2270,svet,_,_,_,_,_,354,NOUN,Ncmsg,nmod
356,2271-2276,leten,_,_,_,_,_,358,ADJ,Agpnsn,amod
357,2277-2288,nadomestilo,_,_,_,_,_,364,NOUN,Ncnsa,obj
358,2289-2296,oziroma,_,_,_,_,_,360,CCONJ,Cc,cc
359,2297-2304,nagrada,_,_,_,_,_,358,NOUN,Ncfsn,conj
360,2305-2307,za,_,_,_,_,_,362,ADP,Sa,case
361,2308-2312,lani,_,_,_,_,_,364,ADV,Rgp,advmod
362,2313-2315,ne,_,_,_,_,_,364,PART,Q,advmod
363,2316-2323,izplačati,_,_,_,_,_,350,VERB,Vmbr3s,acl
364,2324-2327,ter,_,_,_,_,_,372,CCONJ,Cc,cc
365,2328-2330,da,_,_,_,_,_,372,SCONJ,Cs,mark
366,2331-2335,biti,_,_,_,_,_,372,AUX,Va-f3p-n,aux
367,2336-2338,za,_,_,_,_,_,369,ADP,Sa,case
368,2339-2347,udeležba,_,_,_,_,_,372,NOUN,Ncfsa,obl
369,2348-2350,na,_,_,_,_,_,371,ADP,Sl,case
370,2351-2355,seja,_,_,_,_,_,369,NOUN,Ncfsl,nmod
371,2356-2362,dobiti,_,_,_,_,_,364,VERB,Vmep-pm,conj
372,2363-2366,330,_,_,_,_,_,374,NUM,Mdc,nummod
373,2367-2372,evro,_,_,_,_,_,372,NOUN,Ncmpg,obj
374,2373-2380,sejnina,_,_,_,_,_,374,NOUN,Ncfsg,nmod
375,2381-2382,",",_,_,_,_,_,380,PUNCT,Z,punct
376,2383-2393,predsednik,_,_,*->9-3,*[9],_,380,NOUN,Ncmsn,nsubj
377,2394-2396,pa,_,_,_,_,_,380,CCONJ,Cc,cc
378,2397-2400,429,_,_,_,_,_,380,NUM,Mdc,nummod
379,2401-2406,evro,_,_,_,_,_,374,NOUN,Ncmpg,conj
380,2407-2408,.,_,_,_,_,_,380,PUNCT,Z,punct
381,2409-2411,ta,_,_,_,_,_,383,DET,Pd-msn,det
382,2412-2417,sklep,_,_,_,_,_,385,NOUN,Ncmsn,nsubj
383,2418-2420,biti,_,_,_,_,_,385,AUX,Va-r3s-n,aux
384,2421-2430,predlagati,_,_,_,_,_,6,VERB,Vmbp-sm,parataxis
385,2431-2434,kad,ORG,0,*->10-2,*[10],3 - Nevtralno,385,NOUN,Ncmsan,obj
386,2435-2436,.,_,_,_,_,_,380,PUNCT,Z,punct
387,2437-2447,delničar,_,_,_,_,_,390,NOUN,Ncmpn,nsubj
388,2448-2450,biti,_,_,_,_,_,390,AUX,Va-r3p-n,aux
389,2451-2459,potrditi,_,_,_,_,_,385,VERB,Vmep-pm,advcl
390,2460-2464,tudi,_,_,_,_,_,390,PART,Q,advmod
391,2465-2472,poseben,_,_,_,_,_,393,ADJ,Agpfsa,amod
392,2473-2481,revizija,_,_,_,_,_,390,NOUN,Ncfsa,obj
393,2482-2488,posel,_,_,_,_,_,393,NOUN,Ncmpg,nmod
394,2489-2490,v,_,_,_,_,_,396,ADP,Sl,case
395,2491-2500,pivovarna,ORG[28],_,*->17-16,*[17],_,394,NOUN,Ncfsl,nmod
396,2501-2506,Laško,ORG[28]|LOC[29],_,*->17-16|*->12-7,*[17]|*[12],_,396,PROPN,Npnsn,nmod
397,2507-2508,.,_,_,_,_,_,390,PUNCT,Z,punct
398,2509-2517,revizija,_,_,_,_,_,402,NOUN,Ncfsa,obj
399,2518-2521,naj,_,_,_,_,_,402,PART,Q,advmod
400,2522-2524,biti,_,_,_,_,_,402,AUX,Va-c,aux
401,2525-2533,narediti,_,_,_,_,_,390,VERB,Vmep-sf,conj
402,2534-2540,družba,_,0,*->11-1,*[11],3 - Nevtralno[50],402,NOUN,Ncfsn,nsubj
403,2541-2545,KPMG,ORG,0,*->11-1,*[11],3 - Nevtralno[50],403,PROPN,Npfsn,nmod
404,2546-2547,.,_,_,_,_,_,402,PUNCT,Z,punct
405,2548-2554,uprava,_,_,_,_,_,412,NOUN,Ncfsn,nsubj
406,2555-2564,pivovarna,ORG[30],_,*->17-17,*[17],_,406,NOUN,Ncfsg,nmod
407,2565-2570,Laško,ORG[30]|LOC[31],_,*->17-17|*->12-8,*[17]|*[12],_,410,PROPN,Npnsn,nmod
408,2571-2579,izveden,_,_,_,_,_,410,ADJ,Appfsg,amod
409,2580-2589,skupščina,_,_,_,_,_,407,NOUN,Ncfsg,nmod
410,2590-2592,ne,_,_,_,_,_,412,PART,Q,advmod
411,2593-2601,priznavati,_,_,_,_,_,402,VERB,Vmpr3s,conj
412,2602-2611,pivovarna,ORG[32],_,*->17-18,*[17],_,412,NOUN,Ncfsn,nsubj
413,2612-2617,Laško,ORG[32]|LOC[33],_,*->17-18|*->12-9,*[17]|*[12],_,413,PROPN,Npnsn,nmod
414,2618-2620,biti,_,_,_,_,_,416,AUX,Va-r3s-n,aux
415,2621-2630,sporočiti,_,_,_,_,_,412,VERB,Vmep-sf,conj
416,2631-2632,",",_,_,_,_,_,431,PUNCT,Z,punct
417,2633-2635,da,_,_,_,_,_,431,SCONJ,Cs,mark
418,2636-2638,biti,_,_,_,_,_,431,AUX,Va-r3s-n,aux
419,2639-2644,kljub,_,_,_,_,_,423,ADP,Sd,case
420,2645-2653,zakonito,_,_,_,_,_,422,ADV,Rgp,advmod
421,2654-2664,preklican,_,_,_,_,_,423,ADJ,Appfsd,amod
422,2665-2674,skupščina,_,_,_,_,_,431,NOUN,Ncfsd,obl
423,2675-2680,nekaj,_,_,_,_,_,425,DET,Rgp,det
424,2681-2692,delničar,_,_,_,_,_,431,NOUN,Ncmpg,obj
425,2693-2698,svoj,_,_,_,_,_,427,DET,Px-nsa,det
426,2699-2707,srečanje,_,_,_,_,_,431,NOUN,Ncnsa,obj
427,2708-2718,nezakonito,_,_,_,_,_,431,ADV,Rgp,advmod
428,2719-2720,v,_,_,_,_,_,430,ADP,Sl,case
429,2721-2728,medij,_,_,_,_,_,431,NOUN,Ncmpl,obl
430,2729-2737,označiti,_,_,_,_,_,416,VERB,Vmep-sn,ccomp
431,2738-2740,za,_,_,_,_,_,433,ADP,Sa,case
432,2741-2750,skupščina,_,_,_,_,_,431,NOUN,Ncfsa,obl
433,2751-2762,delničar,_,_,_,_,_,433,NOUN,Ncmpg,nmod
434,2763-2764,.,_,_,_,_,_,412,PUNCT,Z,punct
435,2765-2767,na,_,_,_,_,_,437,ADP,Sl,case
436,2768-2772,on,_,_,_,_,_,442,PRON,Pp3msl,obl
437,2773-2775,biti,_,_,_,_,_,442,AUX,Va-r3p-n,aux
438,2776-2778,po,_,_,_,_,_,440,ADP,Sl,case
439,2779-2788,poročanje,_,_,_,_,_,442,NOUN,Ncnsl,obl
440,2789-2796,medij,_,_,_,_,_,440,NOUN,Ncmpg,nmod
441,2797-2807,sodelovati,_,_,_,_,_,431,VERB,Vmpp-pm,conj
442,2808-2812,tudi,_,_,_,_,_,442,PART,Q,advmod
443,2813-2821,nekateri,_,_,_,_,_,445,DET,Pi-mpn,det
444,2822-2832,delničar,_,_,_,_,_,442,NOUN,Ncmpn,nsubj
445,2833-2834,",",_,_,_,_,_,453,PUNCT,Z,punct
446,2835-2837,ki,_,_,_,_,_,453,SCONJ,Cs,mark
447,2838-2840,se,_,_,_,_,_,453,PRON,Px------y,expl
448,2841-2843,na,_,_,_,_,_,450,ADP,Sa,case
449,2844-2853,skupščina,_,_,_,_,_,453,NOUN,Ncfsa,obl
450,2854-2859,sploh,_,_,_,_,_,453,PART,Q,advmod
451,2860-2864,biti,_,_,_,_,_,453,AUX,Va-r3p-y,aux
452,2865-2874,prijaviti,_,_,_,_,_,445,VERB,Vmep-pm,acl
453,2875-2876,",",_,_,_,_,_,453,PUNCT,Z,punct
454,2877-2879,pa,_,_,_,_,_,457,CCONJ,Cc,cc
455,2880-2884,tudi,_,_,_,_,_,455,PART,Q,fixed
456,2885-2897,predstavnik,_,_,_,_,_,453,NOUN,Ncmpn,nsubj
457,2898-2911,paradržaven,_,_,_,_,_,459,ADJ,Agpmsg,amod
458,2912-2918,sklad,_,_,_,_,_,457,NOUN,Ncmsg,nmod
459,2919-2920,",",_,_,_,_,_,453,PUNCT,Z,punct
460,2921-2931,opozarjati,_,_,_,_,_,453,VERB,Vmpr3p,conj
461,2932-2937,laški,_,_,*->17-19,*[17],_,463,ADJ,Agpmpn,amod
462,2938-2947,pivovar,_,_,*->17-19,*[17],_,461,NOUN,Ncmpn,nsubj
463,2948-2949,.,_,_,_,_,_,453,PUNCT,Z,punct
464,2950-2955,sicer,_,_,_,_,_,471,PART,Q,advmod
465,2956-2958,biti,_,_,_,_,_,471,AUX,Va-f3s-n,aux
466,2959-2965,uprava,_,_,_,_,_,471,NOUN,Ncfsn,nsubj
467,2966-2975,pivovarna,ORG[34],_,*->17-20,*[17],_,467,NOUN,Ncfsg,nmod
468,2976-2981,Laško,ORG[34]|LOC[35],_,*->17-20|*->12-10,*[17]|*[12],_,468,PROPN,Npnsn,nmod
469,2982-2989,javnost,_,_,_,_,_,471,NOUN,Ncfsa,obj
470,2990-2999,obvestilo,_,_,_,_,_,461,VERB,Vmep-sf,conj
471,3000-3001,o,_,_,_,_,_,474,ADP,Sl,case
472,3002-3007,nov,_,_,_,_,_,474,ADJ,Agpmsl,amod
473,3008-3014,sklic,_,_,_,_,_,471,NOUN,Ncmsl,obl
474,3015-3017,15,_,_,_,_,_,474,NUM,Mdc,nummod
475,3018-3019,.,_,_,_,_,_,471,PUNCT,Z,punct
476,3020-3029,skupščina,_,_,_,_,_,474,NOUN,Ncfsg,conj
477,3030-3041,delničar,_,_,_,_,_,477,NOUN,Ncmpg,nmod
478,3042-3043,v,_,_,_,_,_,480,ADP,Sl,case
479,3044-3050,sklad,_,_,_,_,_,477,NOUN,Ncmsl,nmod
480,3051-3052,z,_,_,_,_,_,482,ADP,Si,case
481,3053-3063,zakonodaja,_,_,_,_,_,480,NOUN,Ncfsi,nmod
482,3064-3065,.,_,_,_,_,_,471,PUNCT,Z,punct
483,3066-3074,spomniti,_,_,_,_,_,471,VERB,Vmer1p,conj
484,3075-3076,.,_,_,_,_,_,471,PUNCT,Z,punct
485,3077-3078,.,_,_,_,_,_,471,PUNCT,Z,punct
486,3079-3080,.,_,_,_,_,_,471,PUNCT,Z,punct
487,3081-3085,urad,ORG[36],2,*->1-2,*[1],2 - Negativno[51],497,NOUN,Ncmsn,nsubj
488,3086-3088,za,ORG[36],2,*->1-2,*[1],2 - Negativno[51],490,ADP,Sa,case
489,3089-3096,varstvo,ORG[36],2,*->1-2,*[1],2 - Negativno[51],488,NOUN,Ncnsa,nmod
490,3097-3107,konkurenca,ORG[36],2,*->1-2,*[1],2 - Negativno[51],490,NOUN,Ncfsg,nmod
491,3108-3110,biti,_,_,_,_,_,497,AUX,Va-r3s-n,aux
492,3111-3117,Infond,ORG[37],_,*->16-2,*[16],_,497,PROPN,Npmsn,nsubj
493,3118-3126,holding,ORG[37],_,*->16-2,*[16],_,497,NOUN,Ncmsd,obj
494,3127-3137,glasovalen,_,_,_,_,_,496,ADJ,Agpfsg,amod
495,3138-3145,pravica,_,_,_,_,_,494,NOUN,Ncfsg,nmod
496,3146-3154,zamrzniti,_,_,_,_,_,471,VERB,Vmep-sm,conj
497,3155-3159,lani,_,_,_,_,_,497,ADV,Rgp,advmod
498,3160-3161,",",_,_,_,_,_,507,PUNCT,Z,punct
499,3162-3165,ker,_,_,_,_,_,507,SCONJ,Cs,mark
500,3166-3174,podjetje,_,_,_,_,_,507,NOUN,Ncnpn,nsubj
501,3175-3176,v,_,_,_,_,_,505,ADP,Sl,case
502,3177-3182,njen,_,_,*->16-3,*[16],_,505,DET,Ps3fslsf,det
503,3183-3192,lastniški,_,_,_,_,_,505,ADJ,Agpfsl,amod
504,3193-3199,veriga,_,_,_,_,_,507,NOUN,Ncfsl,obl
505,3200-3204,biti,_,_,_,_,_,507,AUX,Va-r3p-y,aux
506,3205-3214,prijaviti,_,_,_,_,_,497,VERB,Vmep-pf,advcl
507,3215-3228,koncentracija,_,_,_,_,_,507,NOUN,Ncfsg,obj
508,3229-3231,do,_,_,_,_,_,510,ADP,Sg,case
509,3232-3239,Laško,ORG,_,*->17-21,*[17],_,508,PROPN,Npnsg,nmod
510,3240-3241,.,_,_,_,_,_,497,PUNCT,Z,punct
511,3242-3248,družba,_,_,*->13-1,*[13],_,497,NOUN,Ncfsn,nsubj
512,3249-3253,Atka,ORG[38],_,*->13-1,*[13],_,512,PROPN,Npmsn,nmod
513,3254-3255,-,ORG[38],_,*->13-1,*[13],_,515,PUNCT,Z,punct
514,3256-3261,Prim,ORG[38],_,*->13-1,*[13],_,513,PROPN,Npmsn,conj
515,3262-3263,",",_,_,_,_,_,518,PUNCT,Z,punct
516,3264-3266,ki,_,_,_,_,_,518,SCONJ,Cs,mark
517,3267-3269,biti,_,_,_,_,_,512,VERB,Va-r3s-n,acl
518,3270-3271,v,_,_,_,_,_,520,ADP,Sl,case
519,3272-3277,last,_,_,_,_,_,518,NOUN,Ncfsl,obl
520,3278-3284,prvi,_,2,*->9-4,*[9],2 - Negativno[52],522,ADJ,Mlomsg,amod
521,3285-3289,mož,_,2,*->9-4,*[9],2 - Negativno[52],520,NOUN,Ncmsg,nmod
522,3290-3297,Laško,ORG,2,*->9-4|*->17-22,*[9]|*[17],2 - Negativno[52]|2 - Negativno[53],522,PROPN,Npnsg,nmod
523,3298-3303,Boška,PER[39],2,*->9-4,*[9],2 - Negativno[52],522,PROPN,Npmsg,nmod
524,3304-3309,Šrot,PER[39],2,*->9-4,*[9],2 - Negativno[52],524,PROPN,Npmsg,flat:name
525,3310-3311,",",_,_,_,_,_,518,PUNCT,Z,punct
526,3312-3314,biti,_,_,_,_,_,529,AUX,Va-r3s-n,cop
527,3315-3321,namreč,_,_,_,_,_,529,CCONJ,Cc,advmod
528,3322-3330,lastnica,_,0,*->13-2,*[13],3 - Nevtralno[54],497,NOUN,Ncfsn,parataxis
529,3331-3339,podjetje,_,0,*->13-2|*->14-1,*[13]|*[14],3 - Nevtralno[54],529,NOUN,Ncnsg,nmod
530,3340-3347,Kolonel,ORG,0,*->13-2|*->14-1,*[13]|*[14],3 - Nevtralno[54],530,PROPN,Npmsn,nmod
531,3348-3349,",",_,_,_,_,_,534,PUNCT,Z,punct
532,3350-3352,ta,_,_,*->14-2,*[14],_,534,DET,Pd-msn,det
533,3353-3360,lastnik,_,0,*->14-3,*[14],3 - Nevtralno[55],529,NOUN,Ncmsn,conj
534,3361-3367,Center,ORG[40],0,*->14-3|*->15-1,*[14]|*[15],3 - Nevtralno[55]|3 - Nevtralno[56],534,PROPN,Npmsg,nmod
535,3368-3374,naložba,ORG[40],0,*->14-3|*->15-1,*[14]|*[15],3 - Nevtralno[55]|3 - Nevtralno[56],535,NOUN,Ncfpg,nmod
536,3375-3376,",",_,_,_,_,_,534,PUNCT,Z,punct
537,3377-3379,ta,_,_,_,_,_,541,DET,Pd-msn,det
538,3380-3382,pa,_,_,_,_,_,541,CCONJ,Cc,cc
539,3383-3389,infond,ORG[41],2,*->16-4,*[16],2 - Negativno[57],541,NOUN,Ncmsn,nmod
540,3390-3398,holdinga,ORG[41],2,*->16-4,*[16],2 - Negativno[57],535,NOUN,Ncmsg,conj
