idx,chars_idx,token,entity_type,sentiment,idk_1,idk_2,orig_sentiment,heads,upos,xpos,deprel
0,0-4,prvi,_,_,_,_,_,2,ADJ,Mlomsa,amod
1,5-10,večer,_,_,_,_,_,20,NOUN,Ncmsan,obl
2,11-17,peti,_,_,_,_,_,4,ADJ,Mlomsg,amod
3,18-23,teden,_,_,_,_,_,2,NOUN,Ncmsg,nmod
4,24-28,moda,_,_,_,_,_,4,NOUN,Ncfsg,nmod
5,29-30,v,_,_,_,_,_,7,ADP,Sl,case
6,31-40,Ljubljana,LOC,0,*->8-1,*[8],3 - Nevtralno,4,PROPN,Npfsl,nmod
7,41-42,(,_,_,_,_,_,10,PUNCT,Z,punct
8,43-50,Fashion,_,_,_,_,_,10,PROPN,Npmsn,nmod
9,51-55,Week,_,_,_,_,_,7,PROPN,Npmsn,appos
10,56-57,),_,_,_,_,_,10,PUNCT,Z,punct
11,58-60,biti,_,_,_,_,_,20,AUX,Va-r3p-n,aux
12,61-66,svoj,_,_,_,_,_,14,DET,Px-fpa,det
13,67-76,kolekcija,_,_,_,_,_,20,NOUN,Ncfpa,obj
14,77-79,za,_,_,_,_,_,16,ADP,Sa,case
15,80-86,pomlad,_,_,_,_,_,14,NOUN,Ncfsa,nmod
16,87-88,/,_,_,_,_,_,18,PUNCT,Z,punct
17,89-96,poletje,_,_,_,_,_,16,NOUN,Ncnsa,conj
18,97-101,2013,_,_,_,_,_,18,NUM,Mdc,nummod
19,102-110,pokazati,_,_,_,_,_,0,VERB,Vmep-pm,root
20,111-112,m,ORG[1],_,*->1-1,*[1],_,20,PROPN,Npmsn,nsubj
21,113-114,*,ORG[1],_,*->1-1,*[1],_,23,PUNCT,Z,punct
22,115-122,faganel,ORG[1],_,*->1-1,*[1],_,21,NOUN,Ncmsn,conj
23,123-124,",",_,_,_,_,_,25,PUNCT,Z,punct
24,125-129,Maja,ORG[2],_,*->9-1,*[9],_,21,PROPN,Npfsn,conj
25,130-136,Štamol,ORG[2],_,*->9-1,*[9],_,25,PROPN,Npfsn,flat:name
26,137-138,",",_,_,_,_,_,28,PUNCT,Z,punct
27,139-143,Urš,ORG[3],_,*->10-1,*[10],_,21,PROPN,Npfsn,conj
28,144-152,Drofenik,ORG[3],_,*->10-1,*[10],_,28,PROPN,Npfsn,flat:name
29,153-154,",",_,_,_,_,_,31,PUNCT,Z,punct
30,155-160,Sofia,ORG[4],_,*->6-1,*[6],_,21,PROPN,Npfsn,conj
31,161-167,Nogard,ORG[4],_,*->6-1,*[6],_,31,PROPN,Npfsn,flat:name
32,168-169,",",_,_,_,_,_,34,PUNCT,Z,punct
33,170-175,Irena,ORG[5],_,*->5-1,*[5],_,21,PROPN,Npfsn,conj
34,176-182,Funduk,ORG[5],_,*->5-1,*[5],_,34,PROPN,Npfsn,flat:name
35,183-190,Fashion,ORG[5],_,*->5-1,*[5],_,34,PROPN,Npfsn,flat:name
36,191-193,in,_,_,_,_,_,38,CCONJ,Cc,cc
37,194-198,Ivan,ORG[6],_,*->2-1,*[2],_,21,PROPN,Npmsn,conj
38,199-204,Rocco,ORG[6],_,*->2-1,*[2],_,38,PROPN,Npmsn,flat:name
39,205-206,.,_,_,_,_,_,20,PUNCT,Z,punct
40,207-209,in,_,_,_,_,_,43,CCONJ,Cc,cc
41,210-215,ravno,_,_,_,_,_,43,PART,Q,advmod
42,216-220,Ivan,PER[7],_,*->3-1,*[3],_,38,PROPN,Npmsn,nmod
43,221-226,Rocco,PER[7],_,*->3-1,*[3],_,43,PROPN,Npmsn,flat:name
44,227-228,",",_,_,_,_,_,59,PUNCT,Z,punct
45,229-233,tudi,_,_,_,_,_,67,PART,Q,advmod
46,234-242,kandidat,_,_,*->3-2,*[3],_,67,NOUN,Ncmsn,nsubj
47,243-245,za,_,_,*->3-2,*[3],_,50,ADP,Sa,case
48,246-253,mlad,_,_,*->3-2,*[3],_,50,ADJ,Agpmsa,amod
49,254-260,trend,_,_,*->3-2,*[3],_,47,NOUN,Ncmpa,nmod
50,261-272,oblikovalec,_,_,*->3-2,*[3],_,50,NOUN,Ncmsg,nmod
51,273-277,leto,_,_,*->3-2,*[3],_,51,NOUN,Ncnsg,nmod
52,278-279,",",_,_,_,_,_,59,PUNCT,Z,punct
53,280-282,ki,_,_,_,_,_,59,SCONJ,Cs,mark
54,283-285,on,_,_,_,_,_,59,PRON,Pp3msa--y,obj
55,286-288,biti,_,_,_,_,_,59,AUX,Va-f3s-n,aux
56,289-295,revija,_,_,_,_,_,59,NOUN,Ncfsn,nsubj
57,296-302,trend,_,_,_,_,_,57,NOUN,Ncmpn,nmod
58,303-313,razglasiti,_,_,_,_,_,51,VERB,Vmep-sf,acl
59,314-319,konec,_,_,_,_,_,61,ADP,Sg,case
60,320-328,november,_,_,_,_,_,59,NOUN,Ncmsg,obl
61,329-330,",",_,_,_,_,_,59,PUNCT,Z,punct
62,331-333,biti,_,_,_,_,_,67,AUX,Va-r3s-n,aux
63,334-340,včeraj,_,_,_,_,_,67,ADV,Rgp,advmod
64,341-346,daleč,_,_,_,_,_,67,ADV,Rgp,advmod
65,347-354,najbolj,_,_,_,_,_,67,ADV,Rgs,advmod
66,355-363,navdušiti,_,_,_,_,_,20,VERB,Vmep-sm,parataxis
67,364-369,blizu,_,_,_,_,_,69,ADV,Rgp,advmod
68,370-373,800,_,_,_,_,_,70,NUM,Mdc,nummod
69,374-386,radovednež,_,_,_,_,_,67,NOUN,Ncmpg,obj
70,387-388,",",_,_,_,_,_,73,PUNCT,Z,punct
71,389-395,moden,_,_,_,_,_,73,ADJ,Agpmpg,amod
72,396-407,poznavalec,_,_,_,_,_,70,NOUN,Ncmpg,conj
73,408-409,",",_,_,_,_,_,75,PUNCT,Z,punct
74,410-420,novinar,_,_,_,_,_,70,NOUN,Ncmpg,conj
75,421-422,(,_,_,_,_,_,78,PUNCT,Z,punct
76,423-428,letos,_,_,_,_,_,81,ADV,Rgp,advmod
77,429-435,morati,_,_,_,_,_,67,VERB,Vmpr3p,advcl
78,436-449,presenetljiv,_,_,_,_,_,81,ADV,Rgp,advmod
79,450-453,kar,_,_,_,_,_,81,ADV,Rgp,advmod
80,454-459,stati,_,_,_,_,_,78,VERB,Vmpn,xcomp
81,460-461,),_,_,_,_,_,81,PUNCT,Z,punct
82,462-463,",",_,_,_,_,_,84,PUNCT,Z,punct
83,464-473,bloger,_,_,_,_,_,81,NOUN,Ncmpg,obj
84,474-475,",",_,_,_,_,_,86,PUNCT,Z,punct
85,476-482,kupec,_,_,_,_,_,84,NOUN,Ncmpg,conj
86,483-484,(,_,_,_,_,_,112,PUNCT,Z,punct
87,485-488,kje,_,_,_,_,_,86,ADV,Rgp,advmod
88,489-491,biti,_,_,_,_,_,97,AUX,Va-r3p-n,cop
89,492-493,?,_,_,_,_,_,81,PUNCT,Z,punct
90,494-495,),_,_,_,_,_,78,PUNCT,Z,punct
91,496-497,.,_,_,_,_,_,78,PUNCT,Z,punct
92,498-503,zakaj,_,_,_,_,_,97,ADV,Rgp,advmod
93,504-505,?,_,_,_,_,_,97,PUNCT,Z,punct
94,506-509,ker,_,_,_,_,_,97,SCONJ,Cs,mark
95,510-512,biti,_,_,_,_,_,97,AUX,Va-r3s-n,cop
96,513-518,igriv,_,_,*->3-3,*[3],_,81,ADJ,Agpmsnn,advcl
97,519-520,",",_,_,_,_,_,99,PUNCT,Z,punct
98,521-528,zabaven,_,_,*->3-4,*[3],_,97,ADJ,Agpmsnn,conj
99,529-530,",",_,_,_,_,_,101,PUNCT,Z,punct
100,531-535,poln,_,_,*->3-5,*[3],_,97,ADJ,Agpmsnn,conj
101,536-543,vzorec,_,_,_,_,_,101,NOUN,Ncmpg,obj
102,544-545,",",_,_,_,_,_,105,PUNCT,Z,punct
103,546-552,močen,_,_,_,_,_,105,ADJ,Agpfpg,amod
104,553-557,barva,_,_,_,_,_,102,NOUN,Ncfpg,conj
105,558-560,in,_,_,_,_,_,107,CCONJ,Cc,cc
106,561-571,kontrast,_,_,_,_,_,105,NOUN,Ncmpg,conj
107,572-573,(,_,_,_,_,_,112,PUNCT,Z,punct
108,574-580,navdih,_,_,_,_,_,112,NOUN,Ncmsn,appos
109,581-583,biti,_,_,_,_,_,112,AUX,Va-r3s-n,aux
110,584-588,biti,_,_,_,_,_,112,AUX,Va-p-sf,cop
111,589-597,Kitajska,LOC,0,*->11-1,*[11],3 - Nevtralno,102,PROPN,Npfsn,appos
112,598-599,),_,_,_,_,_,112,PUNCT,Z,punct
113,600-603,ter,_,_,_,_,_,115,CCONJ,Cc,cc
114,604-615,prepletanje,_,_,_,_,_,112,NOUN,Ncnsg,conj
115,616-626,material,_,_,_,_,_,115,NOUN,Ncmpg,nmod
116,627-628,",",_,_,_,_,_,112,PUNCT,Z,punct
117,629-635,reči,_,_,_,_,_,115,VERB,Vmem1p,acl
118,636-641,svila,_,_,_,_,_,118,NOUN,Ncfsg,obj
119,642-644,in,_,_,_,_,_,121,CCONJ,Cc,cc
120,645-652,lureks,_,_,_,_,_,119,NOUN,Ncmsg,conj
121,653-654,.,_,_,_,_,_,118,PUNCT,Z,punct
122,655-660,Rocco,ORG,_,*->3-6,*[3],_,125,PROPN,Npmsn,nsubj
123,661-663,biti,_,_,_,_,_,125,AUX,Va-r3s-n,cop
124,664-671,svežina,_,_,_,_,_,118,NOUN,Ncfsn,nsubj
125,672-673,",",_,_,_,_,_,127,PUNCT,Z,punct
126,674-679,pogum,_,_,_,_,_,125,NOUN,Ncmsn,conj
127,680-681,",",_,_,_,_,_,129,PUNCT,Z,punct
128,682-689,drznost,_,_,_,_,_,125,NOUN,Ncfsn,conj
129,690-691,",",_,_,_,_,_,131,PUNCT,Z,punct
130,692-704,inovativnost,_,_,_,_,_,125,NOUN,Ncfsn,conj
131,705-706,!,_,_,_,_,_,125,PUNCT,Z,punct
132,707-709,in,_,_,_,_,_,140,CCONJ,Cc,cc
133,710-716,končno,_,_,_,_,_,140,ADV,Rgp,advmod
134,717-719,se,_,_,_,_,_,140,PRON,Px------y,expl
135,720-722,biti,_,_,_,_,_,140,AUX,Va-r3s-n,aux
136,723-727,tudi,_,_,_,_,_,140,PART,Q,advmod
137,728-732,Ivan,PER[8],_,*->3-7,*[3],_,140,PROPN,Npmsn,nsubj
138,733-738,Rocco,PER[8],_,*->3-7,*[3],_,138,PROPN,Npmsn,flat:name
139,739-746,usmiliti,_,_,_,_,_,125,VERB,Vmep-sm,acl
140,747-753,moški,_,_,_,_,_,140,ADJ,Agpnpg,obj
141,754-756,in,_,_,_,_,_,144,CCONJ,Cc,cc
142,757-762,zame,_,_,_,_,_,144,PRON,Pp3mpa--b,iobj
143,763-772,oblikovati,_,_,*->3-8,*[3],_,140,VERB,Vmpp-sm,conj
144,773-778,divji,_,_,_,_,_,149,ADJ,Agpnpa,amod
145,779-781,in,_,_,_,_,_,148,CCONJ,Cc,cc
146,782-788,precej,_,_,_,_,_,148,ADV,Rgp,advmod
147,789-801,provokativen,_,_,_,_,_,145,ADJ,Agpnpa,conj
148,802-810,oblačilo,_,_,_,_,_,144,NOUN,Ncnpa,obj
149,811-812,.,_,_,_,_,_,20,PUNCT,Z,punct
150,813-817,Ivan,ORG[9],1,*->3-9,*[3],4 - Pozitivno[23],172,PROPN,Npmsn,nsubj
151,818-823,Rocco,ORG[9],1,*->3-9,*[3],4 - Pozitivno[23],151,PROPN,Npmsn,flat:name
152,824-825,m,ORG[10],_,*->1-2,*[1],_,151,PROPN,Npmsn,nmod
153,826-827,*,ORG[10],_,*->1-2,*[1],_,155,PUNCT,Z,punct
154,828-835,faganel,ORG[10],_,*->1-2,*[1],_,151,NOUN,Ncmsn,appos
155,836-841,moški,_,_,_,_,_,155,NOUN,Ncmsn,nmod
156,842-843,m,ORG[11],_,*->1-3,*[1],_,156,NOUN,Ncmsn,nmod
157,844-845,*,ORG[11],_,*->1-3,*[1],_,155,PUNCT,Z,punct
158,846-853,faganel,ORG[11],_,*->1-3,*[1],_,151,NOUN,Ncmsn,conj
159,854-856,in,_,_,_,_,_,167,CCONJ,Cc,cc
160,857-861,tudi,_,_,_,_,_,167,PART,Q,advmod
161,862-868,Matevž,PER[12],_,*->4-1,*[4],_,151,PROPN,Npmsn,conj
162,869-876,Faganel,PER[12],_,*->4-1,*[4],_,162,PROPN,Npmsn,flat:name
163,877-879,se,_,_,_,_,_,167,PRON,Px------y,expl
164,880-882,biti,_,_,_,_,_,167,AUX,Va-r3s-n,aux
165,883-891,prvikrat,_,_,_,_,_,167,ADV,Rgp,advmod
166,892-897,lotiti,_,_,_,_,_,20,VERB,Vmep-sm,parataxis
167,898-904,moški,_,_,_,_,_,167,ADJ,Agpmpg,obj
168,905-906,.,_,_,_,_,_,167,PUNCT,Z,punct
169,907-912,zame,_,_,_,_,_,172,PRON,Pp3mpa--b,obl
170,913-915,biti,_,_,_,_,_,172,AUX,Va-r3s-n,aux
171,916-924,skreirati,_,_,*->4-2,*[4],_,20,VERB,Vmpp-sm,parataxis
172,925-932,sodoben,_,_,_,_,_,174,ADJ,Agpfpa,amod
173,933-939,srajca,_,_,_,_,_,167,NOUN,Ncfpa,obj
174,940-941,-,_,_,_,_,_,176,PUNCT,Z,punct
175,942-947,frak,_,_,_,_,_,174,NOUN,Ncmpa,nmod
176,948-949,",",_,_,_,_,_,183,PUNCT,Z,punct
177,950-952,ki,_,_,_,_,_,183,SCONJ,Cs,mark
178,953-956,biti,_,_,_,_,_,183,AUX,Va-r1p-n,aux
179,957-960,on,_,_,_,_,_,183,PRON,Pp3mpa--y,obj
180,961-966,sicer,_,_,_,_,_,183,PART,Q,advmod
181,967-969,že,_,_,_,_,_,183,PART,Q,advmod
182,970-976,videti,_,_,_,_,_,176,VERB,Vmbp-pm,acl
183,977-982,nekaj,_,_,_,_,_,185,DET,Rgp,det
184,983-986,leto,_,_,_,_,_,183,NOUN,Ncnpg,obl
185,987-992,nazaj,_,_,_,_,_,188,ADV,Rgp,advmod
186,993-996,pri,_,_,_,_,_,188,ADP,Sl,case
187,997-1006,Garevsko,PER,0,*->12-1,*[12],3 - Nevtralno,183,PROPN,Npnsl,obl
188,1007-1009,in,_,_,_,_,_,192,CCONJ,Cc,cc
189,1010-1014,lani,_,_,_,_,_,188,ADV,Rgp,conj
190,1015-1018,pri,_,_,_,_,_,192,ADP,Sl,case
191,1019-1032,thecollectiva,ORG,0,*->13-1,*[13],3 - Nevtralno,188,NOUN,Ncfsl,conj
192,1033-1034,",",_,_,_,_,_,183,PUNCT,Z,punct
193,1035-1036,a,_,_,_,_,_,198,CCONJ,Cc,cc
194,1037-1039,biti,_,_,_,_,_,198,AUX,Va-r3p-n,aux
195,1040-1043,pri,_,_,_,_,_,197,ADP,Sl,case
196,1044-1048,on,_,_,*->4-3,*[4],_,198,PRON,Pp3msl,obl
197,1049-1055,dobiti,_,_,_,_,_,183,VERB,Vmep-pf,conj
198,1056-1059,nov,_,_,_,_,_,201,ADJ,Agpmsan,amod
199,1060-1065,moden,_,_,_,_,_,201,ADJ,Agpmsay,amod
200,1066-1072,prid,_,_,_,_,_,198,NOUN,Ncmsan,obj
201,1073-1074,",",_,_,_,_,_,204,PUNCT,Z,punct
202,1075-1087,geometrijski,_,_,_,_,_,204,ADJ,Agpmpa,amod
203,1088-1094,vzorec,_,_,_,_,_,201,NOUN,Ncmpa,conj
204,1095-1096,",",_,_,_,_,_,220,PUNCT,Z,punct
205,1097-1099,ki,_,_,_,_,_,220,SCONJ,Cs,mark
206,1100-1103,on,_,_,_,_,_,220,PRON,Pp3mpa--y,obj
207,1104-1106,biti,_,_,_,_,_,220,AUX,Va-r3s-n,aux
208,1107-1108,v,_,_,_,_,_,210,ADP,Sl,case
209,1109-1113,črn,_,_,_,_,_,220,ADJ,Agpnsn,obl
210,1114-1115,-,_,_,_,_,_,212,PUNCT,Z,punct
211,1116-1120,bel,_,_,_,_,_,210,ADJ,Agpfsl,conj
212,1121-1122,(,_,_,_,_,_,220,PUNCT,Z,punct
213,1123-1125,ta,_,_,_,_,_,220,DET,Pd-nsa,obj
214,1126-1128,biti,_,_,_,_,_,220,AUX,Va-r3s-n,aux
215,1129-1132,pač,_,_,_,_,_,220,PART,Q,advmod
216,1133-1140,Faganel,PER,_,*->4-4,*[4],_,220,PROPN,Npmsn,nsubj
217,1141-1142,),_,_,_,_,_,217,PUNCT,Z,punct
218,1143-1154,kombinacija,_,_,_,_,_,220,NOUN,Ncfsd,obj
219,1155-1162,združiti,_,_,_,_,_,204,VERB,Vmep-sm,acl
220,1163-1167,tudi,_,_,_,_,_,220,PART,Q,advmod
221,1168-1169,v,_,_,_,_,_,224,ADP,Sl,case
222,1170-1177,ženski,_,_,_,_,_,224,ADJ,Agpnpl,amod
223,1178-1187,oblačilo,_,_,_,_,_,220,NOUN,Ncnpl,obl
224,1188-1189,z,_,_,_,_,_,228,ADP,Si,case
225,1190-1199,poseben,_,_,_,_,_,228,ADJ,Agpmpi,amod
226,1200-1207,lasen,_,_,_,_,_,228,ADJ,Agpmpi,amod
227,1208-1215,dodatek,_,_,_,_,_,224,NOUN,Ncmpi,nmod
228,1216-1219,Ane,PER[13],0,*->14-1,*[14],3 - Nevtralno[24],228,PROPN,Npmsg,nmod
229,1220-1228,lazovski,PER[13],0,*->14-1,*[14],3 - Nevtralno[24],229,ADJ,Agpmsn,flat:name
230,1229-1230,.,_,_,_,_,_,20,PUNCT,Z,punct
231,1231-1237,pomlad,_,_,_,_,_,241,NOUN,Ncfsn,nsubj
232,1238-1239,/,_,_,_,_,_,234,PUNCT,Z,punct
233,1240-1247,poletje,_,_,_,_,_,232,NOUN,Ncnsn,conj
234,1248-1252,2014,_,_,_,_,_,234,NUM,Mdc,nummod
235,1253-1258,biti,_,_,_,_,_,241,AUX,Va-f3d-n,cop
236,1259-1262,pri,_,_,_,_,_,240,ADP,Sl,case
237,1263-1264,m,ORG[14],1,*->1-4,*[1],4 - Pozitivno[25],240,NOUN,Ncmsn,nmod
238,1265-1266,*,ORG[14],1,*->1-4,*[1],4 - Pozitivno[25],240,PUNCT,Z,punct
239,1267-1275,faganel,ORG[14],1,*->1-4,*[1],4 - Pozitivno[25],241,NOUN,Ncmsl,obl
240,1276-1284,lahkoten,_,_,_,_,_,20,ADJ,Agpmdn,parataxis
241,1285-1286,",",_,_,_,_,_,241,PUNCT,Z,punct
242,1287-1288,v,_,_,_,_,_,245,ADP,Sl,case
243,1289-1297,črnobel,_,_,_,_,_,245,ADJ,Agpfsl,amod
244,1298-1307,različica,_,_,_,_,_,241,NOUN,Ncfsl,obl
245,1308-1310,in,_,_,_,_,_,251,CCONJ,Cc,cc
246,1311-1312,z,_,_,_,_,_,249,ADP,Si,case
247,1313-1318,nekaj,_,_,_,_,_,249,DET,Rgp,det
248,1319-1326,elektro,_,_,_,_,_,251,NOUN,Ncmpi,appos
249,1327-1332,moder,_,_,_,_,_,251,ADJ,Agpfsg,amod
250,1333-1338,barva,_,_,_,_,_,240,NOUN,Ncfsg,conj
251,1339-1340,.,_,_,_,_,_,20,PUNCT,Z,punct
252,1341-1346,minus,_,_,_,_,_,261,NOUN,Ncmsn,parataxis
253,1347-1348,:,_,_,_,_,_,253,PUNCT,Z,punct
254,1349-1354,nekaj,_,_,_,_,_,257,DET,Rgp,det
255,1355-1362,ženski,_,_,_,_,_,257,ADJ,Agpfpg,amod
256,1363-1368,obleka,_,_,_,_,_,261,NOUN,Ncfpg,obj
257,1369-1371,biti,_,_,_,_,_,261,AUX,Va-r3s-n,aux
258,1372-1376,biti,_,_,_,_,_,261,AUX,Va-p-sn,cop
259,1377-1382,slabo,_,_,_,_,_,261,ADV,Rgp,advmod
260,1383-1390,sešit,_,_,_,_,_,20,ADJ,Agpmpg,parataxis
261,1391-1392,.,_,_,_,_,_,261,PUNCT,Z,punct
262,1393-1400,njegov,_,1,*->4-5,*[4],4 - Pozitivno,264,DET,Ps3fsnsm,det
263,1401-1410,kolekcija,_,_,_,_,_,266,NOUN,Ncfsn,nsubj
264,1411-1413,biti,_,_,_,_,_,266,AUX,Va-f3s-n,cop
265,1414-1422,naprodaj,_,_,_,_,_,20,NOUN,Ncfsn,parataxis
266,1423-1424,v,_,_,_,_,_,268,ADP,Sl,case
267,1425-1435,blagovnica,_,_,_,_,_,266,NOUN,Ncfsl,nmod
268,1436-1441,Midas,ORG,0,*->15-1,*[15],3 - Nevtralno,268,PROPN,Npmsn,nmod
269,1442-1443,.,_,_,_,_,_,261,PUNCT,Z,punct
270,1444-1448,Maja,PER[15],_,*->9-2,*[9],_,266,PROPN,Npfsn,nmod
271,1449-1455,Štamol,PER[15],_,*->9-2,*[9],_,271,PROPN,Npfsn,flat:name
272,1456-1458,in,_,_,_,_,_,275,CCONJ,Cc,cc
273,1459-1462,ves,_,_,_,_,_,275,DET,Pg-mpn,det
274,1463-1468,drug,_,_,_,_,_,271,ADJ,Mlpmpn,conj
275,1469-1470,.,_,_,_,_,_,20,PUNCT,Z,punct
276,1471-1472,.,_,_,_,_,_,20,PUNCT,Z,punct
277,1473-1474,.,_,_,_,_,_,20,PUNCT,Z,punct
278,1475-1479,Maja,PER[16],_,*->9-3,*[9],_,271,PROPN,Npfsn,nmod
279,1480-1486,Štamol,PER[16],_,*->9-3,*[9],_,279,PROPN,Npfsn,flat:name
280,1487-1488,(,_,_,_,_,_,283,PUNCT,Z,punct
281,1489-1494,svoj,_,_,*->9-4,*[9],_,283,DET,Px-fsa,det
282,1495-1499,moda,_,_,_,_,_,279,NOUN,Ncfsa,appos
283,1500-1507,prodaja,_,_,_,_,_,283,NOUN,Ncfsn,nmod
284,1508-1509,v,_,_,_,_,_,286,ADP,Sl,case
285,1510-1514,jaz,ORG,0,*->16-1,*[16],3 - Nevtralno,284,PRON,Pp1-pl,nmod
286,1515-1516,),_,_,_,_,_,283,PUNCT,Z,punct
287,1517-1519,se,_,_,_,_,_,290,PRON,Px------y,expl
288,1520-1522,biti,_,_,_,_,_,290,AUX,Va-r3s-n,aux
289,1523-1531,oprijeti,_,_,_,_,_,20,VERB,Vmep-sf,parataxis
290,1532-1541,večeren,_,_,_,_,_,292,ADJ,Agpmsg,amod
291,1542-1550,glamur,_,_,_,_,_,290,NOUN,Ncmsg,obj
292,1551-1552,",",_,_,_,_,_,296,PUNCT,Z,punct
293,1553-1555,ki,_,_,_,_,_,296,SCONJ,Cs,mark
294,1556-1558,on,_,_,*->9-5,*[9],_,296,PRON,Pp3fsd--y,obj
295,1559-1561,biti,_,_,_,_,_,292,VERB,Va-r3s-n,acl
296,1562-1569,najbolj,_,_,_,_,_,298,ADV,Rgs,advmod
297,1570-1575,blizu,_,_,_,_,_,296,ADV,Rgp,advmod
298,1576-1577,.,_,_,_,_,_,283,PUNCT,Z,punct
299,1578-1579,a,_,_,_,_,_,308,CCONJ,Cc,cc
300,1580-1585,sicer,_,_,_,_,_,308,PART,Q,advmod
301,1586-1591,dobro,_,_,_,_,_,303,ADV,Rgp,advmod
302,1592-1600,skrojen,_,_,_,_,_,305,ADJ,Appfpn,amod
303,1601-1608,večeren,_,_,_,_,_,305,ADJ,Agpfpn,amod
304,1609-1615,obleka,_,_,_,_,_,308,NOUN,Ncfpn,nsubj
305,1616-1622,preveč,_,_,_,_,_,307,DET,Rgp,advmod
306,1623-1629,očitno,_,_,_,_,_,308,ADV,Rgp,advmod
307,1630-1637,kričiti,_,_,_,_,_,296,VERB,Vmpr3p,conj
308,1638-1640,po,_,_,_,_,_,311,ADP,Sl,case
309,1641-1642,:,_,_,_,_,_,308,PUNCT,Z,punct
310,1643-1652,Valentina,ORG,_,*->7-1,*[7],_,308,PROPN,Npfsa,obj
311,1653-1654,",",_,_,_,_,_,313,PUNCT,Z,punct
312,1655-1664,Valentina,ORG,0,*->7-2,*[7],3 - Nevtralno,311,PROPN,Npfsa,appos
313,1665-1666,!,_,_,_,_,_,315,PUNCT,Z,punct
314,1667-1675,pokazati,_,1,*->9-6,*[9],4 - Pozitivno,20,VERB,Vmep-sf,parataxis
315,1676-1678,biti,_,_,_,_,_,315,AUX,Va-r3s-n,aux
316,1679-1684,nekaj,_,_,_,_,_,323,DET,Rgp,det
317,1685-1689,zelo,_,_,_,_,_,319,ADV,Rgp,advmod
318,1690-1699,nosljiv,_,_,_,_,_,323,ADJ,Agpnpg,amod
319,1700-1702,in,_,_,_,_,_,321,CCONJ,Cc,cc
320,1703-1712,uporaben,_,_,_,_,_,319,ADJ,Agpnpg,conj
321,1713-1719,dolg,_,_,_,_,_,323,ADJ,Agpnpg,amod
322,1720-1724,kril,_,_,_,_,_,315,NOUN,Ncnpg,obj
323,1725-1727,in,_,_,_,_,_,326,CCONJ,Cc,cc
324,1728-1736,unikaten,_,_,_,_,_,326,ADJ,Agpmsny,amod
325,1737-1742,nakit,_,_,_,_,_,323,NOUN,Ncmsnn,conj
326,1743-1747,E2RD,ORG,0,*->17-1,*[17],3 - Nevtralno,326,PROPN,Npmsn,nmod
327,1748-1749,.,_,_,_,_,_,311,PUNCT,Z,punct
328,1750-1754,Urš,PER[17],_,*->10-2,*[10],_,340,PROPN,Npfsn,nsubj
329,1755-1763,Drofenik,PER[17],_,*->10-2,*[10],_,329,PROPN,Npfsn,flat:name
330,1764-1766,biti,_,_,_,_,_,340,AUX,Va-r3s-n,aux
331,1767-1768,z,_,_,_,_,_,335,ADP,Si,case
332,1769-1775,svoj,_,_,*->10-3,*[10],_,335,DET,Px-fsi,det
333,1776-1790,ponavljajoč,_,_,_,_,_,335,ADJ,Appfpi,amod
334,1791-1799,obleka,_,_,_,_,_,340,NOUN,Ncfpi,obl
335,1800-1802,in,_,_,_,_,_,338,CCONJ,Cc,cc
336,1803-1811,barven,_,_,_,_,_,338,ADJ,Agpmpi,amod
337,1812-1821,kontrast,_,_,_,_,_,335,NOUN,Ncmpi,conj
338,1822-1828,precej,_,_,_,_,_,340,ADV,Rgp,advmod
339,1829-1838,duhamoren,_,_,_,_,_,20,ADJ,Agpfsn,parataxis
340,1839-1841,in,_,_,_,_,_,342,CCONJ,Cc,cc
341,1842-1853,oblikovalka,_,_,_,_,_,340,NOUN,Ncfsn,conj
342,1854-1855,",",_,_,_,_,_,345,PUNCT,Z,punct
343,1856-1858,ki,_,_,_,_,_,345,SCONJ,Cs,mark
344,1859-1863,soditi,_,_,_,_,_,342,VERB,Vmpr3s,acl
345,1864-1866,na,_,_,_,_,_,348,ADP,Sa,case
346,1867-1875,drugačen,_,_,_,_,_,348,ADJ,Agpfpa,amod
347,1876-1881,pist,_,_,_,_,_,345,NOUN,Ncfpa,obl
348,1882-1883,",",_,_,_,_,_,362,PUNCT,Z,punct
349,1884-1887,kot,_,_,_,_,_,353,SCONJ,Cs,mark
350,1888-1890,biti,_,_,_,_,_,353,AUX,Va-r3s-n,cop
351,1891-1898,fashion,_,_,_,_,_,353,NOUN,Ncmsn,nmod
352,1899-1903,week,_,_,_,_,_,348,NOUN,Ncmsn,nmod
353,1904-1905,.,_,_,_,_,_,352,PUNCT,Z,punct
354,1906-1911,moden,_,_,_,_,_,356,ADJ,Agpfsn,amod
355,1912-1918,znamka,_,_,_,_,_,362,NOUN,Ncfsn,nsubj
356,1919-1924,Irena,ORG[18],_,*->5-2,*[5],_,356,PROPN,Npfsn,nmod
357,1925-1931,Funduk,ORG[18],_,*->5-2,*[5],_,357,PROPN,Npfsn,flat:name
358,1932-1939,Fashion,ORG[18],_,*->5-2,*[5],_,357,PROPN,Npfsn,flat:name
359,1940-1942,se,_,_,_,_,_,362,PRON,Px------y,expl
360,1943-1945,biti,_,_,_,_,_,362,AUX,Va-r3s-n,aux
361,1946-1955,zatakniti,_,_,_,_,_,20,VERB,Vmep-sf,parataxis
362,1956-1957,v,_,_,_,_,_,368,ADP,Sl,case
363,1958-1963,nek,_,_,_,_,_,368,DET,Pi-msl,det
364,1964-1970,drug,_,_,_,_,_,368,ADJ,Mlpmsl,amod
365,1971-1972,",",_,_,_,_,_,367,PUNCT,Z,punct
366,1973-1979,daven,_,_,_,_,_,365,ADJ,Agpmsl,conj
367,1980-1984,čas,_,_,_,_,_,362,NOUN,Ncmsl,obl
368,1985-1986,",",_,_,_,_,_,372,PUNCT,Z,punct
369,1987-1991,tako,_,_,_,_,_,372,CCONJ,Cc,cc:preconj
370,1992-1993,z,_,_,_,_,_,372,ADP,Si,case
371,1994-2003,material,_,_,_,_,_,368,NOUN,Ncmpi,appos
372,2004-2007,kot,_,_,_,_,_,375,SCONJ,Cs,cc
373,2008-2009,z,_,_,_,_,_,375,ADP,Si,case
374,2010-2015,kroj,_,_,_,_,_,372,NOUN,Ncmpi,conj
375,2016-2017,.,_,_,_,_,_,362,PUNCT,Z,punct
376,2018-2020,še,_,_,_,_,_,379,PART,Q,advmod
377,2021-2028,najbolj,_,_,_,_,_,379,ADV,Rgs,advmod
378,2029-2035,ostati,_,_,_,_,_,362,VERB,Vmer3s,advcl
379,2036-2037,v,_,_,_,_,_,381,ADP,Sl,case
380,2038-2045,spomin,_,_,_,_,_,379,NOUN,Ncmsl,obl
381,2046-2051,njen,_,_,*->5-3,*[5],_,384,DET,Ps3fsnsf,det
382,2052-2056,črn,_,_,_,_,_,384,ADJ,Agpfsn,amod
383,2057-2063,obleka,_,_,_,_,_,379,NOUN,Ncfsn,nsubj
384,2064-2065,",",_,_,_,_,_,386,PUNCT,Z,punct
385,2066-2077,izstopajoč,_,_,_,_,_,384,ADJ,Appfsn,amod
386,2078-2081,med,_,_,_,_,_,392,ADP,Si,case
387,2082-2088,bel,_,_,_,_,_,392,ADJ,Agpfpi,amod
388,2089-2091,in,_,_,_,_,_,390,CCONJ,Cc,cc
389,2092-2095,bež,_,_,_,_,_,388,ADJ,Agpfpi,conj
390,2096-2106,vinilski,_,_,_,_,_,392,ADJ,Agpfpi,amod
391,2107-2117,oblekica,_,_,_,_,_,386,NOUN,Ncfpi,obl
392,2118-2119,.,_,_,_,_,_,379,PUNCT,Z,punct
393,2120-2124,Urš,PER[19],0,*->10-4,*[10],3 - Nevtralno[26],396,PROPN,Npfsn,nsubj
394,2125-2133,Drofenik,PER[19],0,*->10-4,*[10],3 - Nevtralno[26],394,PROPN,Npfsn,flat:name
395,2134-2140,ostati,_,_,_,_,_,379,VERB,Vmer3s,advcl
396,2141-2143,še,_,_,_,_,_,396,PART,Q,advmod
397,2144-2149,Sofia,ORG[20],_,*->6-2,*[6],_,396,PROPN,Npfsn,nsubj
398,2150-2156,Nogard,ORG[20],_,*->6-2,*[6],_,398,PROPN,Npfsn,flat:name
399,2157-2158,:,_,_,_,_,_,402,PUNCT,Z,punct
400,2159-2164,svež,_,_,_,_,_,402,ADJ,Agpfsn,amod
401,2165-2174,kolekcija,_,_,_,_,_,398,NOUN,Ncfsn,appos
402,2175-2176,",",_,_,_,_,_,407,PUNCT,Z,punct
403,2177-2178,z,_,_,_,_,_,407,ADP,Si,case
404,2179-2193,florescenčen,_,_,_,_,_,407,ADJ,Agpmpi,amod
405,2194-2202,barven,_,_,_,_,_,407,ADJ,Agpmpi,amod
406,2203-2212,kontrast,_,_,_,_,_,402,NOUN,Ncmpi,appos
407,2213-2214,",",_,_,_,_,_,410,PUNCT,Z,punct
408,2215-2222,opazen,_,_,_,_,_,410,ADJ,Agpmsi,amod
409,2223-2230,nakit,_,_,_,_,_,407,NOUN,Ncmsi,conj
410,2231-2233,in,_,_,_,_,_,417,CCONJ,Cc,cc
411,2234-2235,z,_,_,_,_,_,417,ADP,Si,case
412,2236-2241,nekaj,_,_,_,_,_,417,DET,Rgp,det
413,2242-2252,lahkoten,_,_,_,_,_,417,ADJ,Agpfpi,amod
414,2253-2260,dolg,_,_,_,_,_,417,ADJ,Agpfpi,amod
415,2261-2270,pleten,_,_,_,_,_,417,ADJ,Appfpi,amod
416,2271-2279,obleka,_,_,_,_,_,407,NOUN,Ncfpi,conj
417,2280-2281,.,_,_,_,_,_,396,PUNCT,Z,punct
418,2282-2291,kolekcija,_,_,_,_,_,422,NOUN,Ncfsn,nsubj
419,2292-2294,biti,_,_,_,_,_,422,AUX,Va-r3s-n,cop
420,2295-2298,res,_,_,_,_,_,422,ADV,Rgp,advmod
421,2299-2307,primeren,_,_,_,_,_,20,ADJ,Agpfsn,parataxis
422,2308-2310,za,_,_,_,_,_,424,ADP,Sa,case
423,2311-2317,pomlad,_,_,_,_,_,422,NOUN,Ncfsa,obl
424,2318-2319,/,_,_,_,_,_,426,PUNCT,Z,punct
425,2320-2327,poletje,_,_,_,_,_,424,NOUN,Ncnsa,conj
426,2328-2329,",",_,_,_,_,_,422,PUNCT,Z,punct
427,2330-2338,nekateri,_,_,_,_,_,429,DET,Pi-mpn,det
428,2339-2350,oblikovalec,_,_,_,_,_,432,NOUN,Ncmpn,nsubj
429,2351-2353,biti,_,_,_,_,_,432,AUX,Va-r3p-n,aux
430,2354-2360,namreč,_,_,_,_,_,432,CCONJ,Cc,advmod
431,2361-2371,zanemariti,_,_,_,_,_,20,VERB,Vmep-pm,parataxis
432,2372-2379,dejstvo,_,_,_,_,_,432,NOUN,Ncnsa,obj
433,2380-2381,",",_,_,_,_,_,439,PUNCT,Z,punct
434,2382-2384,za,_,_,_,_,_,437,ADP,Sa,case
435,2385-2391,kateri,_,_,_,_,_,439,DET,Pq-nsa,obl
436,2392-2399,obdobje,_,_,_,_,_,439,NOUN,Ncnsa,obl
437,2400-2402,biti,_,_,_,_,_,439,AUX,Va-r3p-n,aux
438,2403-2411,narediti,_,_,_,_,_,433,VERB,Vmep-pm,acl
439,2412-2421,kolekcija,_,_,_,_,_,439,NOUN,Ncfsa,obj
440,2422-2423,.,_,_,_,_,_,432,PUNCT,Z,punct
441,2424-2429,Irena,ORG[21],0,*->5-4,*[5],3 - Nevtralno[27],445,PROPN,Npfsn,nmod
442,2430-2436,Funduk,ORG[21],0,*->5-4,*[5],3 - Nevtralno[27],442,PROPN,Npfsn,flat:name
443,2437-2444,Fashion,ORG[21],0,*->5-4,*[5],3 - Nevtralno[27],445,PROPN,Npfsn,flat:name
444,2445-2450,Sofia,ORG[22],1,*->6-3,*[6],4 - Pozitivno[28],440,PROPN,Npfsn,appos
445,2451-2457,Nogard,ORG[22],1,*->6-3,*[6],4 - Pozitivno[28],445,PROPN,Npfsn,nmod
446,2458-2462,foto,_,_,_,_,_,445,PROPN,Npmsn,flat:name
447,2463-2464,:,_,_,_,_,_,449,PUNCT,Z,punct
448,2465-2469,Aleš,PER,0,*->18-1,*[18],3 - Nevtralno,447,PROPN,Npmsn,conj
