idx,chars_idx,token,entity_type,sentiment,idk_1,idk_2,orig_sentiment,heads,upos,xpos,deprel
0,0-7,premija,_,_,_,_,_,20,NOUN,Ncfpn,parataxis
1,8-10,ob,_,_,_,_,_,4,ADP,Sl,case
2,11-19,hkraten,_,_,_,_,_,4,ADJ,Agpmsl,amod
3,20-26,nakup,_,_,_,_,_,20,NOUN,Ncmsl,obl
4,27-33,nov,_,_,_,_,_,6,ADJ,Agpmsg,amod
5,34-44,avtomobil,_,_,_,_,_,4,NOUN,Ncmsg,nmod
6,45-47,in,_,_,_,_,_,8,CCONJ,Cc,cc
7,48-54,oddaja,_,_,_,_,_,6,NOUN,Ncfsl,conj
8,55-62,star,_,_,_,_,_,8,ADJ,Agpmsg,amod
9,63-64,v,_,_,_,_,_,11,ADP,Sa,case
10,65-71,razreza,_,_,_,_,_,8,NOUN,Ncmsan,nmod
11,72-73,",",_,_,_,_,_,16,PUNCT,Z,punct
12,74-76,ki,_,_,_,_,_,16,SCONJ,Cs,mark
13,77-80,on,_,_,_,_,_,16,PRON,Pp3mpa--y,obj
14,81-83,biti,_,_,_,_,_,16,AUX,Va-r3s-n,aux
15,84-90,uvesti,_,_,_,_,_,8,VERB,Vmep-sf,acl
16,91-98,Nemčija,LOC,_,*->13-1,*[13],_,16,PROPN,Npfsn,nsubj
17,99-100,",",_,_,_,_,_,16,PUNCT,Z,punct
18,101-103,biti,_,_,_,_,_,20,AUX,Va-r3p-n,aux
19,104-112,sprožiti,_,_,_,_,_,0,VERB,Vmep-pf,root
20,113-118,pravi,_,_,_,_,_,22,ADJ,Agpmsay,amod
21,119-122,bum,_,_,_,_,_,20,NOUN,Ncmsan,obj
22,123-124,v,_,_,_,_,_,24,ADP,Sl,case
23,125-132,prodaja,_,_,_,_,_,22,NOUN,Ncfsl,nmod
24,133-134,.,_,_,_,_,_,20,PUNCT,Z,punct
25,135-139,samo,_,_,_,_,_,33,PART,Q,advmod
26,140-144,Opel,ORG,_,*->14-1,*[14],_,33,PROPN,Npmsn,nsubj
27,145-147,biti,_,_,_,_,_,33,AUX,Va-r3s-n,aux
28,148-149,v,_,_,_,_,_,31,ADP,Sl,case
29,150-153,ta,_,_,_,_,_,31,DET,Pd-msl,det
30,154-158,čas,_,_,_,_,_,33,NOUN,Ncmsl,obl
31,159-166,prodaja,_,_,_,_,_,33,NOUN,Ncfsa,obj
32,167-174,povečati,_,_,_,_,_,20,VERB,Vmep-sm,parataxis
33,175-177,za,_,_,_,_,_,36,ADP,Sa,case
34,178-180,57,_,_,_,_,_,36,NUM,Mdc,nummod
35,181-190,odstotek,_,_,_,_,_,33,NOUN,Ncmpg,obl
36,191-192,.,_,_,_,_,_,33,PUNCT,Z,punct
37,193-198,ukrep,_,_,_,_,_,42,NOUN,Ncmsn,nsubj
38,199-205,nemški,_,_,_,_,_,40,ADJ,Agpfsg,amod
39,206-211,vlada,_,_,_,_,_,38,NOUN,Ncfsg,nmod
40,212-214,biti,_,_,_,_,_,42,AUX,Va-r3s-n,aux
41,215-222,pomagati,_,_,_,_,_,33,VERB,Vmbp-sm,conj
42,223-224,.,_,_,_,_,_,50,PUNCT,Z,punct
43,225-230,potem,_,_,_,_,_,50,ADV,Rgp,mark
44,231-233,ko,_,_,_,_,_,50,SCONJ,Cs,mark
45,234-236,biti,_,_,_,_,_,50,AUX,Va-r3s-n,aux
46,237-243,nemški,_,_,_,_,_,48,ADJ,Agpfsn,amod
47,244-249,vlada,_,_,_,_,_,50,NOUN,Ncfsn,nsubj
48,250-256,pozimi,_,_,_,_,_,50,ADV,Rgp,advmod
49,257-263,uvesti,_,_,_,_,_,42,VERB,Vmep-sf,advcl
50,264-271,premija,_,_,_,_,_,50,NOUN,Ncfpa,obj
51,272-274,za,_,_,_,_,_,53,ADP,Sa,case
52,275-281,razreza,_,_,_,_,_,51,NOUN,Ncmsan,nmod
53,282-289,star,_,_,_,_,_,55,ADJ,Agpmsg,amod
54,290-300,avtomobil,_,_,_,_,_,53,NOUN,Ncmsg,nmod
55,301-303,ob,_,_,_,_,_,57,ADP,Sl,case
56,304-310,nakup,_,_,_,_,_,53,NOUN,Ncmsl,nmod
57,311-317,nov,_,_,_,_,_,57,ADJ,Agpnsg,amod
58,318-319,v,_,_,_,_,_,60,ADP,Sl,case
59,320-326,višina,_,_,_,_,_,57,NOUN,Ncfsl,nmod
60,327-332,2.500,_,_,_,_,_,62,NUM,Mdc,nummod
61,333-338,evro,_,_,_,_,_,60,NOUN,Ncmpg,nmod
62,339-340,",",_,_,_,_,_,50,PUNCT,Z,punct
63,341-343,biti,_,_,_,_,_,70,AUX,Va-r3s-n,aux
64,344-351,prodaja,_,_,_,_,_,70,NOUN,Ncfsn,nsubj
65,352-363,avtomobil,_,_,_,_,_,65,NOUN,Ncmpg,nmod
66,364-365,v,_,_,_,_,_,68,ADP,Sl,case
67,366-373,Nemčija,LOC,_,*->13-2,*[13],_,65,PROPN,Npfsl,nmod
68,374-377,kar,_,_,_,_,_,70,ADV,Rgp,advmod
69,378-387,poskočiti,_,_,_,_,_,20,VERB,Vmep-sf,parataxis
70,388-389,.,_,_,_,_,_,70,PUNCT,Z,punct
71,390-394,Maja,_,_,_,_,_,77,PROPN,Npmsg,obj
72,395-397,biti,_,_,_,_,_,77,AUX,Va-r3p-n,aux
73,398-399,v,_,_,_,_,_,75,ADP,Sl,case
74,400-406,država,_,_,*->13-3,*[13],_,77,NOUN,Ncfsl,obl
75,407-412,prvič,_,_,_,_,_,77,ADV,Rgp,advmod
76,413-425,registrirati,_,_,_,_,_,70,VERB,Vmbp-pm,parataxis
77,426-433,384.600,_,_,_,_,_,79,NUM,Mdc,nummod
78,434-439,vozilo,_,_,_,_,_,77,NOUN,Ncnpg,obj
79,440-441,",",_,_,_,_,_,98,PUNCT,Z,punct
80,442-445,kar,_,_,_,_,_,98,PRON,Pr-nsn,nsubj
81,446-448,biti,_,_,_,_,_,98,AUX,Va-r3s-n,aux
82,449-453,"39,7",_,_,_,_,_,84,NUM,Mdc,nummod
83,454-462,odstotek,_,_,_,_,_,85,NOUN,Ncmsg,nmod
84,463-466,več,_,_,_,_,_,88,DET,Rgc,advmod
85,467-470,kot,_,_,_,_,_,85,SCONJ,Cs,fixed
86,471-475,pred,_,_,_,_,_,88,ADP,Si,case
87,476-481,leto,_,_,_,_,_,98,NOUN,Ncnsi,obl
88,482-485,dan,_,_,_,_,_,88,NOUN,Ncmpg,nmod
89,486-487,.,_,_,_,_,_,88,PUNCT,Z,punct
90,488-489,v,_,_,_,_,_,94,ADP,Sl,case
91,490-495,prvi,_,_,_,_,_,94,ADJ,Mlompl,amod
92,496-501,pet,_,_,_,_,_,94,NUM,Mlc-pl,nummod
93,502-509,mesec,_,_,_,_,_,98,NOUN,Ncmpl,obl
94,510-512,biti,_,_,_,_,_,98,AUX,Va-r3p-n,aux
95,513-514,v,_,_,_,_,_,97,ADP,Sl,case
96,515-522,Nemčija,LOC,_,*->13-4,*[13],_,98,PROPN,Npfsl,obl
97,523-535,registrirati,_,_,_,_,_,77,VERB,Vmbp-pm,advcl
98,536-540,"1,63",_,_,_,_,_,100,NUM,Mdc,nummod
99,541-549,milijon,_,_,_,_,_,98,NOUN,Ncmsg,obj
100,550-555,nov,_,_,_,_,_,102,ADJ,Agpmpg,amod
101,556-567,avtomobil,_,_,_,_,_,100,NOUN,Ncmpg,nmod
102,568-569,.,_,_,_,_,_,98,PUNCT,Z,punct
103,570-572,ta,_,_,_,_,_,124,DET,Pd-nsn,nsubj
104,573-575,biti,_,_,_,_,_,124,AUX,Va-r3s-n,aux
105,576-578,23,_,_,_,_,_,107,NUM,Mdc,nummod
106,579-588,odstotek,_,_,_,_,_,108,NOUN,Ncmpg,nmod
107,589-592,več,_,_,_,_,_,124,DET,Rgc,advmod
108,593-596,kot,_,_,_,_,_,112,SCONJ,Cs,case
109,597-598,v,_,_,_,_,_,112,ADP,Sl,case
110,599-605,enak,_,_,_,_,_,112,DET,Pi-nsl,det
111,606-613,obdobje,_,_,_,_,_,108,NOUN,Ncnsl,obl
112,614-618,lani,_,_,_,_,_,112,ADV,Rgp,advmod
113,619-620,.,_,_,_,_,_,98,PUNCT,Z,punct
114,621-622,v,_,_,_,_,_,116,ADP,Sl,case
115,623-632,nasprotje,_,_,_,_,_,124,NOUN,Ncnsl,obl
116,633-634,z,_,_,_,_,_,119,ADP,Si,case
117,635-643,oseben,_,_,_,_,_,119,ADJ,Agpmpi,amod
118,644-654,avtomobil,_,_,_,_,_,116,NOUN,Ncmpi,nmod
119,655-657,pa,_,_,_,_,_,124,CCONJ,Cc,advmod
120,658-660,se,_,_,_,_,_,124,PRON,Px------y,expl
121,661-663,biti,_,_,_,_,_,124,AUX,Va-r3s-n,aux
122,664-668,maj,_,_,_,_,_,124,NOUN,Ncmsg,obl
123,669-678,zmanjšati,_,_,_,_,_,20,VERB,Vmep-sn,parataxis
124,679-686,število,_,_,_,_,_,124,NOUN,Ncnsn,nsubj
125,687-698,registracija,_,_,_,_,_,125,NOUN,Ncfpg,nmod
126,699-707,motoren,_,_,_,_,_,128,ADJ,Agpnpg,amod
127,708-713,kolo,_,_,_,_,_,126,NOUN,Ncnpg,nmod
128,714-716,in,_,_,_,_,_,131,CCONJ,Cc,cc
129,717-729,gospodarski,_,_,_,_,_,131,ADJ,Agpnpg,amod
130,730-735,vozilo,_,_,_,_,_,128,NOUN,Ncnpg,conj
131,736-737,",",_,_,_,_,_,124,PUNCT,Z,punct
132,738-743,prvi,_,_,_,_,_,131,ADJ,Mlompg,amod
133,744-746,za,_,_,_,_,_,136,ADP,Sa,case
134,747-751,"19,3",_,_,_,_,_,136,NUM,Mdc,nummod
135,752-760,odstotek,_,_,_,_,_,133,NOUN,Ncmsg,nmod
136,761-762,",",_,_,_,_,_,138,PUNCT,Z,punct
137,763-769,drug,_,_,_,_,_,136,ADJ,Mlpmpg,amod
138,770-772,pa,_,_,_,_,_,142,CCONJ,Cc,cc
139,773-775,za,_,_,_,_,_,142,ADP,Sa,case
140,776-780,"28,1",_,_,_,_,_,142,NUM,Mdc,nummod
141,781-789,odstotek,_,_,_,_,_,136,NOUN,Ncmsg,appos
142,790-791,.,_,_,_,_,_,138,PUNCT,Z,punct
143,792-796,Opel,ORG,_,*->14-2,*[14],_,142,PROPN,Npmsn,nmod
144,797-799,biti,_,_,_,_,_,147,AUX,Va-r3s-n,aux
145,800-807,prodaja,_,_,_,_,_,147,NOUN,Ncfsa,obj
146,808-815,povečati,_,_,_,_,_,124,VERB,Vmep-sm,parataxis
147,816-820,celo,_,_,_,_,_,147,PART,Q,advmod
148,821-823,za,_,_,_,_,_,151,ADP,Sa,case
149,824-826,57,_,_,_,_,_,151,NUM,Mdc,nummod
150,827-836,odstotek,_,_,_,_,_,147,NOUN,Ncmpg,obl
151,837-839,in,_,_,_,_,_,153,CCONJ,Cc,cc
152,840-847,osvojiti,_,_,*->14-3,*[14],_,147,VERB,Vmep-sm,conj
153,848-852,"10,2",_,_,_,_,_,156,NUM,Mdc,nummod
154,853-854,-,_,_,_,_,_,156,PUNCT,Z,punct
155,855-863,odstoten,_,_,_,_,_,158,ADJ,Agpmsay,amod
156,864-869,tržen,_,_,_,_,_,158,ADJ,Agpmsay,amod
157,870-875,delež,_,_,_,_,_,153,NOUN,Ncmsan,obj
158,876-877,.,_,_,_,_,_,147,PUNCT,Z,punct
159,878-885,velik,_,_,_,_,_,161,ADJ,Agcmsg,obl
160,886-889,imeti,_,_,_,_,_,147,VERB,Vmpr3s-n,advcl
161,890-891,z,_,_,_,_,_,164,ADP,Si,case
162,892-896,"21,4",_,_,_,_,_,164,NUM,Mdc,nummod
163,897-905,odstotek,_,_,_,_,_,161,NOUN,Ncmsg,obl
164,906-908,le,_,_,_,_,_,161,PART,Q,advmod
165,909-911,še,_,_,_,_,_,161,PART,Q,advmod
166,912-922,Volkswagen,ORG,_,*->6-1,*[6],_,161,PROPN,Npmsn,nsubj
167,923-924,.,_,_,_,_,_,161,PUNCT,Z,punct
168,925-928,med,_,_,_,_,_,172,ADP,Si,case
169,929-937,velik,_,_,_,_,_,172,ADJ,Agpmpi,amod
170,938-952,avtomobilski,_,_,_,_,_,172,ADJ,Agpmpi,amod
171,953-965,proizvajalec,_,_,_,_,_,176,NOUN,Ncmpi,obl
172,966-968,biti,_,_,_,_,_,176,AUX,Va-r3s-n,aux
173,969-979,Volkswagen,ORG,_,*->6-2,*[6],_,176,PROPN,Npmsn,nsubj
174,980-984,maj,_,_,_,_,_,176,NOUN,Ncmsg,obl
175,985-992,povečati,_,_,_,_,_,161,VERB,Vmep-sm,conj
176,993-1000,prodaja,_,_,_,_,_,176,NOUN,Ncfsa,obj
177,1001-1003,za,_,_,_,_,_,180,ADP,Sa,case
178,1004-1006,60,_,_,_,_,_,180,NUM,Mdc,nummod
179,1007-1016,odstotek,_,_,_,_,_,177,NOUN,Ncmpg,nmod
180,1017-1018,",",_,_,_,_,_,182,PUNCT,Z,punct
181,1019-1023,Opel,ORG,1,*->14-4,*[14],4 - Pozitivno,185,PROPN,Npmsn,appos
182,1024-1026,za,_,_,_,_,_,185,ADP,Sa,case
183,1027-1029,57,_,_,_,_,_,185,NUM,Mdc,nummod
184,1030-1039,odstotek,_,_,_,_,_,180,NOUN,Ncmpg,appos
185,1040-1041,",",_,_,_,_,_,187,PUNCT,Z,punct
186,1042-1046,Ford,ORG,_,*->8-1,*[8],_,185,PROPN,Npmsn,conj
187,1047-1049,za,_,_,_,_,_,190,ADP,Sa,case
188,1050-1052,48,_,_,_,_,_,190,NUM,Mdc,nummod
189,1053-1062,odstotek,_,_,_,_,_,187,NOUN,Ncmpg,nmod
190,1063-1066,ter,_,_,_,_,_,192,CCONJ,Cc,cc
191,1067-1074,Renault,ORG,1,*->4-1,*[4],4 - Pozitivno,190,PROPN,Npmsn,conj
192,1075-1077,in,_,_,_,_,_,194,CCONJ,Cc,cc
193,1078-1083,Dacia,ORG,1,*->2-1,*[2],4 - Pozitivno,190,PROPN,Npfsn,conj
194,1084-1086,za,_,_,_,_,_,197,ADP,Sa,case
195,1087-1090,117,_,_,_,_,_,197,NUM,Mdc,nummod
196,1091-1100,odstotek,_,_,_,_,_,194,NOUN,Ncmpg,nmod
197,1101-1102,.,_,_,_,_,_,197,PUNCT,Z,punct
198,1103-1111,nekoliko,_,_,_,_,_,203,ADV,Rgp,advmod
199,1112-1114,pa,_,_,_,_,_,203,CCONJ,Cc,advmod
200,1115-1117,se,_,_,_,_,_,203,PRON,Px------y,expl
201,1118-1120,biti,_,_,_,_,_,203,AUX,Va-r3s-n,aux
202,1121-1130,zmanjšati,_,_,_,_,_,20,VERB,Vmep-sf,parataxis
203,1131-1138,prodaja,_,_,_,_,_,203,NOUN,Ncfsn,nsubj
204,1139-1150,avtomobil,_,_,_,_,_,204,NOUN,Ncmpg,nmod
205,1151-1161,visok,_,_,_,_,_,208,ADJ,Agsmsg,amod
206,1162-1171,cenoven,_,_,_,_,_,208,ADJ,Agpmsg,amod
207,1172-1179,razred,_,_,_,_,_,205,NOUN,Ncmsg,nmod
208,1180-1181,",",_,_,_,_,_,212,PUNCT,Z,punct
209,1182-1184,ki,_,_,_,_,_,212,SCONJ,Cs,mark
210,1185-1188,on,_,_,_,_,_,212,PRON,Pp3mpa--y,obj
211,1189-1199,izdelovati,_,_,_,_,_,208,VERB,Vmpr3p,acl
212,1200-1208,Mercedes,ORG,2,*->15-1,*[15],2 - Negativno,212,PROPN,Npmsn,nsubj
213,1209-1210,",",_,_,_,_,_,215,PUNCT,Z,punct
214,1211-1214,BMW,ORG,2,*->7-1,*[7],2 - Negativno,213,PROPN,Npmsn,conj
215,1215-1217,in,_,_,_,_,_,217,CCONJ,Cc,cc
216,1218-1222,Audi,ORG,2,*->1-1,*[1],2 - Negativno,213,PROPN,Npmsn,conj
217,1223-1224,.,_,_,_,_,_,212,PUNCT,Z,punct
218,1225-1233,velik,_,_,_,_,_,221,ADJ,Agsmsay,amod
219,1234-1239,tržen,_,_,_,_,_,221,ADJ,Agpmsay,amod
220,1240-1245,delež,_,_,_,_,_,224,NOUN,Ncmsan,obj
221,1246-1247,v,_,_,_,_,_,223,ADP,Sl,case
222,1248-1255,Nemčija,LOC,1,*->13-5,*[13],4 - Pozitivno,221,PROPN,Npfsl,nmod
223,1256-1259,imeti,_,_,_,_,_,212,VERB,Vmpr3s-n,conj
224,1260-1270,Volkswagen,ORG,1,*->6-3,*[6],5 - Zelo pozitivno,224,PROPN,Npmsn,nsubj
225,1271-1272,.,_,_,_,_,_,224,PUNCT,Z,punct
226,1273-1278,lep,_,_,_,_,_,228,ADJ,Agcmpn,amod
227,1279-1283,čas,_,_,_,_,_,224,NOUN,Ncmpn,nsubj
228,1284-1288,tudi,_,_,_,_,_,224,PART,Q,advmod
229,1289-1291,za,_,_,_,_,_,232,ADP,Sa,case
230,1292-1300,ameriški,_,_,_,_,_,232,ADJ,Agpnpa,amod
231,1301-1309,podjetje,_,_,_,_,_,228,NOUN,Ncnpa,nmod
232,1310-1311,?,_,_,_,_,_,224,PUNCT,Z,punct
233,1312-1313,o,_,_,_,_,_,236,ADP,Sl,case
234,1314-1319,prvi,_,_,_,_,_,236,ADJ,Mlompl,amod
235,1320-1326,znak,_,_,_,_,_,239,NOUN,Ncmpl,obl
236,1327-1340,stabilizacija,_,_,_,_,_,236,NOUN,Ncfsg,nmod
237,1341-1343,pa,_,_,_,_,_,239,CCONJ,Cc,advmod
238,1344-1352,poročati,_,_,_,_,_,224,VERB,Vmpr3p,conj
239,1353-1355,iz,_,_,_,_,_,241,ADP,Sg,case
240,1356-1359,ZDA,LOC,_,*->5-1,*[5],_,239,PROPN,Npfpg,obl
241,1360-1361,.,_,_,_,_,_,239,PUNCT,Z,punct
242,1362-1363,v,_,_,_,_,_,244,ADP,Sl,case
243,1364-1368,maj,_,_,_,_,_,246,NOUN,Ncmsl,obl
244,1369-1371,biti,_,_,_,_,_,246,AUX,Va-r3s-n,aux
245,1372-1376,biti,_,_,_,_,_,239,VERB,Va-p-sn,advcl
246,1377-1378,v,_,_,_,_,_,248,ADP,Sl,case
247,1379-1382,ZDA,LOC,_,*->5-2,*[5],_,249,PROPN,Npfpl,obl
248,1383-1391,prodan,_,_,_,_,_,251,ADJ,Appnpg,amod
249,1392-1399,925.824,_,_,_,_,_,251,NUM,Mdc,nummod
250,1400-1405,vozilo,_,_,_,_,_,246,NOUN,Ncnpg,nsubj
251,1406-1407,",",_,_,_,_,_,254,PUNCT,Z,punct
252,1408-1411,kar,_,_,_,_,_,254,PRON,Pr-nsn,nsubj
253,1412-1414,biti,_,_,_,_,_,251,VERB,Va-r3s-n,acl
254,1415-1420,sicer,_,_,_,_,_,254,PART,Q,advmod
255,1421-1425,"33,7",_,_,_,_,_,257,NUM,Mdc,nummod
256,1426-1434,odstotek,_,_,_,_,_,258,NOUN,Ncmsg,nmod
257,1435-1439,manj,_,_,_,_,_,260,DET,Rgc,advmod
258,1440-1443,kot,_,_,_,_,_,260,SCONJ,Cs,case
259,1444-1448,maj,_,_,_,_,_,254,NOUN,Ncmsg,obl
260,1449-1453,lani,_,_,_,_,_,260,ADV,Rgp,advmod
261,1454-1455,",",_,_,_,_,_,260,PUNCT,Z,punct
262,1456-1457,a,_,_,_,_,_,265,CCONJ,Cc,cc
263,1458-1460,13,_,_,_,_,_,265,NUM,Mdc,nummod
264,1461-1470,odstotek,_,_,_,_,_,260,NOUN,Ncmpg,conj
265,1471-1474,več,_,_,_,_,_,268,DET,Rgc,advmod
266,1475-1478,kot,_,_,_,_,_,266,SCONJ,Cs,fixed
267,1479-1485,april,_,_,_,_,_,265,NOUN,Ncmsg,nmod
268,1486-1487,",",_,_,_,_,_,268,PUNCT,Z,punct
269,1488-1490,biti,_,_,_,_,_,271,AUX,Va-r3p-n,aux
270,1491-1500,sporočiti,_,_,_,_,_,246,VERB,Vmep-pm,advcl
271,1501-1503,iz,_,_,_,_,_,273,ADP,Sg,case
272,1504-1512,agencija,_,0,*->16-1,*[16],3 - Nevtralno[2],271,NOUN,Ncfsg,obl
273,1513-1515,za,_,0,*->16-1,*[16],3 - Nevtralno[2],276,ADP,Sa,case
274,1516-1521,tržen,_,0,*->16-1,*[16],3 - Nevtralno[2],276,ADJ,Agpfpa,amod
275,1522-1531,raziskava,_,0,*->16-1,*[16],3 - Nevtralno[2],273,NOUN,Ncfpa,nmod
276,1532-1540,Autodat,ORG,0,*->16-1,*[16],3 - Nevtralno[2],276,PROPN,Npmsg,nmod
277,1541-1542,.,_,_,_,_,_,271,PUNCT,Z,punct
278,1543-1545,po,_,_,_,_,_,280,ADP,Sl,case
279,1546-1552,ocena,_,_,_,_,_,289,NOUN,Ncfpl,obl
280,1553-1563,analitik,_,_,_,_,_,280,NOUN,Ncmpg,nmod
281,1564-1566,se,_,_,_,_,_,289,PRON,Px------y,expl
282,1567-1569,biti,_,_,_,_,_,289,AUX,Va-r3s-n,aux
283,1570-1578,zaupanje,_,_,_,_,_,289,NOUN,Ncnsn,nsubj
284,1579-1590,potrošnik,_,_,_,_,_,284,NOUN,Ncmpg,nmod
285,1591-1592,v,_,_,_,_,_,287,ADP,Sl,case
286,1593-1596,ZDA,LOC,_,*->5-3,*[5],_,285,PROPN,Npfpl,nmod
287,1597-1601,maj,_,_,_,_,_,289,NOUN,Ncmsg,obl
288,1602-1609,zvišati,_,_,_,_,_,20,VERB,Vmep-sn,parataxis
289,1610-1617,najbolj,_,_,_,_,_,294,ADV,Rgs,advmod
290,1618-1619,v,_,_,_,_,_,294,ADP,Sl,case
291,1620-1627,zadnji,_,_,_,_,_,294,ADJ,Agpmpl,amod
292,1628-1634,šest,_,_,_,_,_,294,NUM,Mlc-pl,nummod
293,1635-1642,mesec,_,_,_,_,_,289,NOUN,Ncmpl,obl
294,1643-1645,in,_,_,_,_,_,297,CCONJ,Cc,cc
295,1646-1648,se,_,_,_,_,_,297,PRON,Px------y,expl
296,1649-1655,gibati,_,_,_,_,_,289,VERB,Vmpr3s,conj
297,1656-1658,na,_,_,_,_,_,300,ADP,Sl,case
298,1659-1668,visok,_,_,_,_,_,300,ADJ,Agsfpl,amod
299,1669-1675,raven,_,_,_,_,_,297,NOUN,Ncfpl,obl
300,1676-1678,po,_,_,_,_,_,302,ADP,Sl,case
301,1679-1688,september,_,_,_,_,_,300,NOUN,Ncmsl,nmod
302,1689-1693,lani,_,_,_,_,_,302,ADV,Rgp,advmod
303,1694-1695,.,_,_,_,_,_,297,PUNCT,Z,punct
304,1696-1701,trije,_,_,_,_,_,308,NUM,Mlcmpn,nummod
305,1702-1710,velik,_,_,_,_,_,308,ADJ,Agsmpn,amod
306,1711-1723,avtomobilski,_,_,_,_,_,308,ADJ,Agpmpn,amod
307,1724-1736,proizvajalec,_,_,_,_,_,315,NOUN,Ncmpn,nsubj
308,1737-1738,z,_,_,_,_,_,310,ADP,Si,case
309,1739-1746,sedež,_,_,_,_,_,308,NOUN,Ncmsi,nmod
310,1747-1748,v,_,_,_,_,_,312,ADP,Sl,case
311,1749-1757,Detroit,LOC,0,*->10-1,*[10],3 - Nevtralno,310,PROPN,Npmsl,nmod
312,1758-1760,biti,_,_,_,_,_,315,AUX,Va-r3p-n,aux
313,1761-1765,maj,_,_,_,_,_,315,NOUN,Ncmsg,obl
314,1766-1774,beležiti,_,_,_,_,_,289,VERB,Vmpp-pm,conj
315,1775-1780,velik,_,_,_,_,_,317,ADJ,Agcfsa,amod
316,1781-1788,prodaja,_,_,_,_,_,315,NOUN,Ncfsa,obj
317,1789-1791,od,_,_,_,_,_,319,ADP,Sg,case
318,1792-1803,pričakovan,_,_,_,_,_,317,ADJ,Appfsg,amod
319,1804-1805,.,_,_,_,_,_,315,PUNCT,Z,punct
320,1806-1814,velik,_,_,*->19-1,*[19],_,323,ADJ,Agsmsny,amod
321,1815-1823,ameriški,_,_,*->19-1,*[19],_,323,ADJ,Agpmsny,amod
322,1824-1836,proizvajalec,_,_,*->19-1,*[19],_,315,NOUN,Ncmsn,nsubj
323,1837-1848,avtomobil,_,_,*->19-1,*[19],_,323,NOUN,Ncmpg,nmod
324,1849-1851,po,_,_,_,_,_,327,ADP,Sl,case
325,1852-1858,tržen,_,_,_,_,_,327,ADJ,Agpmsl,amod
326,1859-1865,delež,_,_,_,_,_,337,NOUN,Ncmsl,obl
327,1866-1873,general,ORG[1],_,*->19-2,*[19],_,327,NOUN,Ncmsn,nmod
328,1874-1880,Motors,ORG[1],_,*->19-2,*[19],_,328,PROPN,Npmsn,nmod
329,1881-1883,GM,ORG[1],_,*->19-2,*[19],_,329,PROPN,Npmsn,nmod
330,1884-1886,biti,_,_,_,_,_,337,AUX,Va-r3s-n,aux
331,1887-1891,maj,_,_,_,_,_,337,NOUN,Ncmsg,obl
332,1892-1894,na,_,_,_,_,_,335,ADP,Sl,case
333,1895-1900,leten,_,_,_,_,_,335,ADJ,Agpfsl,amod
334,1901-1906,raven,_,_,_,_,_,337,NOUN,Ncfsl,obl
335,1907-1914,prodaja,_,_,_,_,_,337,NOUN,Ncfsa,obj
336,1915-1923,zmanjšati,_,_,_,_,_,315,VERB,Vmep-sm,conj
337,1924-1926,za,_,_,_,_,_,340,ADP,Sa,case
338,1927-1929,30,_,_,_,_,_,340,NUM,Mdc,nummod
339,1930-1939,odstotek,_,_,_,_,_,337,NOUN,Ncmpg,obl
340,1940-1941,",",_,_,_,_,_,337,PUNCT,Z,punct
341,1942-1943,v,_,_,_,_,_,343,ADP,Sl,case
342,1944-1954,primerjava,_,_,_,_,_,350,NOUN,Ncfsl,obl
343,1955-1956,z,_,_,_,_,_,345,ADP,Si,case
344,1957-1964,april,_,_,_,_,_,343,NOUN,Ncmsi,nmod
345,1965-1967,pa,_,_,_,_,_,350,CCONJ,Cc,advmod
346,1968-1970,se,_,_,_,_,_,350,PRON,Px------y,expl
347,1971-1973,biti,_,_,_,_,_,350,AUX,Va-r3s-n,aux
348,1974-1976,ta,_,_,_,_,_,350,DET,Pd-fsn,nsubj
349,1977-1985,povečati,_,_,_,_,_,337,VERB,Vmep-sf,parataxis
350,1986-1988,za,_,_,_,_,_,353,ADP,Sa,case
351,1989-1991,11,_,_,_,_,_,353,NUM,Mdc,nummod
352,1992-2001,odstotek,_,_,_,_,_,350,NOUN,Ncmpg,obl
353,2002-2003,.,_,_,_,_,_,350,PUNCT,Z,punct
354,2004-2008,Maja,_,_,_,_,_,357,PROPN,Npmsg,obl
355,2009-2011,biti,_,_,_,_,_,357,AUX,Va-r3s-n,aux
356,2012-2018,prodati,_,_,_,_,_,350,VERB,Vmep-sm,conj
357,2019-2026,191.875,_,_,_,_,_,359,NUM,Mdc,nummod
358,2027-2032,vozilo,_,_,_,_,_,357,NOUN,Ncnpg,obj
359,2033-2034,.,_,_,_,_,_,350,PUNCT,Z,punct
360,2035-2043,Chrysler,ORG,_,*->11-1,*[11],_,368,PROPN,Npmsn,nsubj
361,2044-2046,biti,_,_,_,_,_,368,AUX,Va-r3s-n,aux
362,2047-2048,v,_,_,_,_,_,364,ADP,Sl,case
363,2049-2059,primerjava,_,_,_,_,_,368,NOUN,Ncfsl,obl
364,2060-2061,z,_,_,_,_,_,367,ADP,Si,case
365,2062-2069,lanski,_,_,_,_,_,367,ADJ,Agpmsi,amod
366,2070-2075,maj,_,_,_,_,_,364,NOUN,Ncmsi,nmod
367,2076-2082,prodati,_,_,_,_,_,357,VERB,Vmep-sm,advcl
368,2083-2085,za,_,_,_,_,_,371,ADP,Sa,case
369,2086-2088,47,_,_,_,_,_,371,NUM,Mdc,nummod
370,2089-2098,odstotek,_,_,_,_,_,368,NOUN,Ncmpg,obl
371,2099-2103,manj,_,_,_,_,_,374,DET,Rgc,det
372,2104-2110,79.010,_,_,_,_,_,374,NUM,Mdc,nummod
373,2111-2122,avtomobil,_,_,_,_,_,371,NOUN,Ncmpg,nmod
374,2123-2125,in,_,_,_,_,_,378,CCONJ,Cc,cc
375,2126-2132,lahek,_,_,_,_,_,378,ADJ,Agpnpg,amod
376,2133-2141,tovoren,_,_,_,_,_,378,ADJ,Agpnpg,amod
377,2142-2147,vozilo,_,_,_,_,_,374,NOUN,Ncnpg,conj
378,2148-2149,",",_,_,_,_,_,380,PUNCT,Z,punct
379,2150-2157,prodaja,_,_,_,_,_,378,NOUN,Ncfsn,appos
380,2158-2162,trije,_,_,_,_,_,384,NUM,Mlcfpg,nummod
381,2163-2171,vodilen,_,_,_,_,_,384,ADJ,Agpfpg,amod
382,2172-2181,blagoven,_,_,_,_,_,384,ADJ,Agpfpg,amod
383,2182-2187,znamka,_,_,_,_,_,380,NOUN,Ncfpg,nmod
384,2188-2189,-,_,_,_,_,_,386,PUNCT,Z,punct
385,2190-2198,Chrysler,ORG,_,*->11-2,*[11],_,384,PROPN,Npmsn,conj
386,2199-2200,",",_,_,_,_,_,388,PUNCT,Z,punct
387,2201-2206,Dodge,ORG,1,*->18-1,*[18],4 - Pozitivno,384,PROPN,Npmsn,conj
388,2207-2209,in,_,_,_,_,_,390,CCONJ,Cc,cc
389,2210-2214,Jeep,ORG,1,*->12-1,*[12],4 - Pozitivno,386,PROPN,Npmsn,conj
390,2215-2216,-,_,_,_,_,_,399,PUNCT,Z,punct
391,2217-2219,pa,_,_,_,_,_,399,CCONJ,Cc,advmod
392,2220-2222,se,_,_,_,_,_,399,PRON,Px------y,expl
393,2223-2225,biti,_,_,_,_,_,399,AUX,Va-r3s-n,aux
394,2226-2227,v,_,_,_,_,_,396,ADP,Sl,case
395,2228-2238,primerjava,_,_,_,_,_,399,NOUN,Ncfsl,obl
396,2239-2240,z,_,_,_,_,_,398,ADP,Si,case
397,2241-2248,april,_,_,_,_,_,396,NOUN,Ncmsi,nmod
398,2249-2257,povečati,_,_,_,_,_,368,VERB,Vmep-sf,advcl
399,2258-2261,med,_,_,_,_,_,404,ADP,Si,case
400,2262-2264,21,_,_,_,_,_,404,NUM,Mdc,nummod
401,2265-2267,in,_,_,_,_,_,403,CCONJ,Cc,cc
402,2268-2270,32,_,_,_,_,_,401,NUM,Mdc,conj
403,2271-2279,odstotek,_,_,_,_,_,399,NOUN,Ncmpi,obl
404,2280-2281,.,_,_,_,_,_,399,PUNCT,Z,punct
405,2282-2287,trije,_,_,_,_,_,410,NUM,Mlcmpn,nummod
406,2288-2296,velik,_,_,_,_,_,410,ADJ,Agsmpn,amod
407,2297-2305,ameriški,_,_,_,_,_,410,ADJ,Agpmpn,amod
408,2306-2318,avtomobilski,_,_,_,_,_,410,ADJ,Agpmpn,amod
409,2319-2331,proizvajalec,_,_,_,_,_,419,NOUN,Ncmpn,nsubj
410,2332-2333,-,_,_,_,_,_,412,PUNCT,Z,punct
411,2334-2336,GM,ORG,_,*->19-3,*[19],_,410,PROPN,Npmsn,conj
412,2337-2338,",",_,_,_,_,_,414,PUNCT,Z,punct
413,2339-2347,Chrysler,ORG,_,*->11-3,*[11],_,410,PROPN,Npmsn,conj
414,2348-2350,in,_,_,_,_,_,416,CCONJ,Cc,cc
415,2351-2355,Ford,ORG,_,*->8-2,*[8],_,410,PROPN,Npmsn,conj
416,2356-2357,-,_,_,_,_,_,419,PUNCT,Z,punct
417,2358-2360,biti,_,_,_,_,_,419,AUX,Va-r3p-n,aux
418,2361-2366,imeti,_,_,_,_,_,399,VERB,Vmpp-pm,conj
419,2367-2371,maj,_,_,_,_,_,419,NOUN,Ncmsg,obl
420,2372-2377,velik,_,_,_,_,_,422,ADJ,Agcfsa,amod
421,2378-2385,prodaja,_,_,_,_,_,419,NOUN,Ncfsa,obj
422,2386-2388,od,_,_,_,_,_,424,ADP,Sg,case
423,2389-2400,pričakovan,_,_,_,_,_,422,ADJ,Appfsg,amod
424,2401-2402,.,_,_,_,_,_,419,PUNCT,Z,punct
425,2403-2407,Ford,ORG,_,*->8-3,*[8],_,420,PROPN,Npmsn,nmod
426,2408-2409,",",_,_,_,_,_,436,PUNCT,Z,punct
427,2410-2412,ki,_,_,_,_,_,436,SCONJ,Cs,mark
428,2413-2415,biti,_,_,_,_,_,436,AUX,Va-r3s-n,aux
429,2416-2421,sicer,_,_,_,_,_,436,PART,Q,advmod
430,2422-2427,edin,_,_,_,_,_,436,ADJ,Agpmsny,obl
431,2428-2430,od,_,_,_,_,_,435,ADP,Sg,case
432,2431-2435,trije,_,_,_,_,_,435,NUM,Mlcmpg,nummod
433,2436-2447,detroitski,_,_,_,_,_,435,ADJ,Agpmpg,amod
434,2448-2457,velikan,_,_,_,_,_,431,NOUN,Ncmpg,nmod
435,2458-2465,zavrniti,_,_,*->8-4,*[8],_,426,VERB,Vmep-sm,acl
436,2466-2471,pomoč,_,_,_,_,_,436,NOUN,Ncfsa,obj
437,2472-2478,država,_,_,*->5-4,*[5],_,437,NOUN,Ncfsg,nmod
438,2479-2480,",",_,_,_,_,_,444,PUNCT,Z,punct
439,2481-2483,ki,_,_,_,_,_,444,SCONJ,Cs,mark
440,2484-2486,on,_,_,_,_,_,444,PRON,Pp3fsa--y,obj
441,2487-2489,biti,_,_,_,_,_,444,AUX,Va-r3s-n,aux
442,2490-2492,ta,_,_,*->5-5,*[5],_,444,DET,Pd-fsn,nsubj
443,2493-2501,ponuditi,_,_,_,_,_,437,VERB,Vmep-sf,acl
444,2502-2515,avtomobilski,_,_,_,_,_,446,ADJ,Agpmpd,amod
445,2516-2529,proizvajalec,_,_,_,_,_,444,NOUN,Ncmpd,obj
446,2530-2531,",",_,_,_,_,_,454,PUNCT,Z,punct
447,2532-2534,ki,_,_,_,_,_,454,SCONJ,Cs,mark
448,2535-2537,biti,_,_,_,_,_,454,AUX,Va-r3p-n,aux
449,2538-2544,zaradi,_,_,_,_,_,453,ADP,Sg,case
450,2545-2553,svetoven,_,_,_,_,_,453,ADJ,Agpfsg,amod
451,2554-2565,gospodarski,_,_,_,_,_,453,ADJ,Agpfsg,amod
452,2566-2571,kriza,_,_,_,_,_,454,NOUN,Ncfsg,obl
453,2572-2577,zaiti,_,_,_,_,_,446,VERB,Vmep-pm,acl
454,2578-2579,v,_,_,_,_,_,456,ADP,Sa,case
455,2580-2586,težava,_,_,_,_,_,454,NOUN,Ncfpa,obl
456,2587-2588,",",_,_,_,_,_,454,PUNCT,Z,punct
457,2589-2591,biti,_,_,_,_,_,464,AUX,Va-r3s-n,aux
458,2592-2599,prodaja,_,_,_,_,_,464,NOUN,Ncfsa,obj
459,2600-2604,maj,_,_,_,_,_,459,NOUN,Ncmsg,nmod
460,2605-2606,v,_,_,_,_,_,463,ADP,Sl,case
461,2607-2615,medleten,_,_,_,_,_,463,ADJ,Agpfsl,amod
462,2616-2626,primerjava,_,_,_,_,_,464,NOUN,Ncfsl,obl
463,2627-2635,zmanjšati,_,_,*->8-5,*[8],_,444,VERB,Vmep-sm,conj
464,2636-2638,za,_,_,_,_,_,467,ADP,Sa,case
465,2639-2641,24,_,_,_,_,_,467,NUM,Mdc,nummod
466,2642-2651,odstotek,_,_,_,_,_,464,NOUN,Ncmpg,obl
467,2652-2653,",",_,_,_,_,_,464,PUNCT,Z,punct
468,2654-2655,v,_,_,_,_,_,471,ADP,Sl,case
469,2656-2663,mesečen,_,_,_,_,_,471,ADJ,Agpfsl,amod
470,2664-2674,primerjava,_,_,_,_,_,473,NOUN,Ncfsl,obl
471,2675-2677,pa,_,_,_,_,_,473,CCONJ,Cc,advmod
472,2678-2685,povečati,_,_,*->8-6,*[8],_,464,VERB,Vmep-sm,conj
473,2686-2688,za,_,_,_,_,_,476,ADP,Sa,case
474,2689-2691,20,_,_,_,_,_,476,NUM,Mdc,nummod
475,2692-2701,odstotek,_,_,_,_,_,473,NOUN,Ncmpg,obl
476,2702-2703,.,_,_,_,_,_,464,PUNCT,Z,punct
477,2704-2706,GM,ORG,1,*->19-4,*[19],4 - Pozitivno,479,NOUN,Ncmsn,nsubj
478,2707-2710,imeti,_,_,_,_,_,473,VERB,Vmpr3s-n,conj
479,2711-2712,v,_,_,_,_,_,481,ADP,Sl,case
480,2713-2716,ZDA,LOC,0,*->5-6,*[5],3 - Nevtralno,479,PROPN,Npfpl,obl
481,2717-2721,"20,5",_,_,_,_,_,484,NUM,Mdc,nummod
482,2722-2723,-,_,_,_,_,_,484,PUNCT,Z,punct
483,2724-2732,odstoten,_,_,_,_,_,486,ADJ,Agpmsay,amod
484,2733-2738,tržen,_,_,_,_,_,486,ADJ,Agpmsay,amod
485,2739-2744,delež,_,_,_,_,_,479,NOUN,Ncmsan,obj
486,2745-2746,",",_,_,_,_,_,488,PUNCT,Z,punct
487,2747-2754,slediti,_,_,_,_,_,479,VERB,Vmpr3p,conj
488,2755-2759,Ford,ORG,1,*->8-7,*[8],4 - Pozitivno,488,PROPN,Npmsn,nsubj
489,2760-2761,z,_,_,_,_,_,493,ADP,Si,case
490,2762-2766,"16,8",_,_,_,_,_,493,NUM,Mdc,nummod
491,2767-2768,-,_,_,_,_,_,493,PUNCT,Z,punct
492,2769-2778,odstoten,_,_,_,_,_,489,ADJ,Agpmsi,amod
493,2779-2780,",",_,_,_,_,_,495,PUNCT,Z,punct
494,2781-2787,Toyot,ORG,1,*->17-1,*[17],4 - Pozitivno,489,PROPN,Npfsn,conj
495,2788-2789,z,_,_,_,_,_,499,ADP,Si,case
496,2790-2794,"16,5",_,_,_,_,_,499,NUM,Mdc,nummod
497,2795-2796,-,_,_,_,_,_,499,PUNCT,Z,punct
498,2797-2806,odstoten,_,_,_,_,_,495,PROPN,Npmsi,nmod
499,2807-2808,",",_,_,_,_,_,501,PUNCT,Z,punct
500,2809-2814,Honda,ORG,1,*->3-1,*[3],4 - Pozitivno,499,PROPN,Npmsi,conj
501,2815-2816,z,_,_,_,_,_,505,ADP,Si,case
502,2817-2821,"10,6",_,_,_,_,_,505,NUM,Mdc,nummod
503,2822-2823,-,_,_,_,_,_,505,PUNCT,Z,punct
504,2824-2833,odstoten,_,_,_,_,_,501,PROPN,Npmsi,nmod
505,2834-2835,",",_,_,_,_,_,507,PUNCT,Z,punct
506,2836-2844,Chrysler,ORG,1,*->11-4,*[11],4 - Pozitivno,505,PROPN,Npmsi,conj
507,2845-2846,z,_,_,_,_,_,511,ADP,Si,case
508,2847-2850,"8,5",_,_,_,_,_,505,NUM,Mdc,nummod
509,2851-2852,-,_,_,_,_,_,511,PUNCT,Z,punct
510,2853-2862,odstoten,_,_,_,_,_,509,PROPN,Npmsi,conj
511,2863-2865,in,_,_,_,_,_,513,CCONJ,Cc,cc
512,2866-2872,Nissan,ORG,1,*->9-1,*[9],4 - Pozitivno,511,PROPN,Npmsi,conj
513,2873-2874,z,_,_,_,_,_,519,ADP,Si,case
514,2875-2878,"7,3",_,_,_,_,_,517,NUM,Mdc,nummod
515,2879-2880,-,_,_,_,_,_,517,PUNCT,Z,punct
516,2881-2890,odstoten,_,_,_,_,_,519,ADJ,Agpmsi,amod
517,2891-2897,tržen,_,_,_,_,_,519,ADJ,Agpmsi,amod
518,2898-2905,delež,_,_,_,_,_,513,NOUN,Ncmsi,nmod
