idx,chars_idx,token,entity_type,sentiment,idk_1,idk_2,orig_sentiment,heads,upos,xpos,deprel
0,0-9,trgovanje,_,_,_,_,_,19,NOUN,Ncnsn,nsubj
1,10-19,slabo,_,_,_,_,_,6,ADV,Rgs,advmod
2,20-22,po,_,_,_,_,_,6,ADP,Sl,case
3,23-25,11,_,_,_,_,_,6,NUM,Mdc,nummod
4,26-27,.,_,_,_,_,_,6,PUNCT,Z,punct
5,28-37,september,_,_,_,_,_,19,NOUN,Ncmsl,obl
6,38-42,2001,_,_,_,_,_,6,NUM,Mdc,nummod
7,43-51,evropski,ORG[1],0,*->5-1,*[5],3 - Nevtralno[17],9,ADJ,Agpfsg,amod
8,52-57,borza,ORG[1],0,*->5-1,*[5],3 - Nevtralno[17],6,NOUN,Ncfsg,nmod
9,58-59,",",_,_,_,_,_,14,PUNCT,Z,punct
10,60-63,med,_,_,_,_,_,12,ADP,Si,case
11,64-69,on,_,_,_,_,_,14,PRON,Pp3mpi,nmod
12,70-74,tudi,_,_,_,_,_,19,PART,Q,advmod
13,75-86,ljubljanski,_,_,*->4-1,*[4],_,19,ADJ,Agpfsn,nsubj
14,87-88,",",_,_,_,_,_,14,PUNCT,Z,punct
15,89-91,biti,_,_,_,_,_,19,AUX,Va-r3p-n,aux
16,92-96,tudi,_,_,_,_,_,19,PART,Q,advmod
17,97-102,danes,_,_,_,_,_,19,ADV,Rgp,advmod
18,103-111,trgovati,_,_,_,_,_,0,VERB,Vmpp-pf,root
19,112-121,negativen,_,_,_,_,_,19,ADV,Rgp,advmod
20,122-123,.,_,_,_,_,_,24,PUNCT,Z,punct
21,124-134,vlagatelj,_,_,_,_,_,24,NOUN,Ncmpn,nsubj
22,135-137,biti,_,_,_,_,_,24,AUX,Va-r3p-n,aux
23,138-145,slediti,_,_,_,_,_,19,VERB,Vmpp-pm,parataxis
24,146-155,dogajanje,_,_,_,_,_,24,NOUN,Ncnsd,obj
25,156-158,na,_,_,_,_,_,28,ADP,Sl,case
26,159-163,Wall,ORG[2],_,*->1-1,*[1],_,28,PROPN,Npmsl,nmod
27,164-171,street,ORG[2],_,*->1-1,*[1],_,25,NOUN,Ncmsl,nmod
28,172-174,in,_,_,_,_,_,31,CCONJ,Cc,cc
29,175-183,azijski,_,_,_,_,_,31,ADJ,Agpfpl,amod
30,184-190,borza,_,_,_,_,_,28,NOUN,Ncfpl,conj
31,191-192,.,_,_,_,_,_,24,PUNCT,Z,punct
32,193-195,na,_,_,_,_,_,34,ADP,Sl,case
33,196-201,borz,_,_,_,_,_,41,NOUN,Ncfsl,obl
34,202-203,v,_,_,_,_,_,36,ADP,Sl,case
35,204-214,Frankfurt,LOC,0,*->6-1,*[6],3 - Nevtralno,34,PROPN,Npmsl,nmod
36,215-217,biti,_,_,_,_,_,41,AUX,Va-r3s-n,aux
37,218-225,vodilen,_,_,_,_,_,39,ADJ,Agpmsny,amod
38,226-232,indeks,_,_,_,_,_,41,NOUN,Ncmsn,nsubj
39,233-236,DAX,_,_,_,_,_,39,PROPN,Npmsn,nmod
40,237-244,izgubiti,_,_,_,_,_,19,VERB,Vmep-sm,parataxis
41,245-248,"1,8",_,_,_,_,_,43,NUM,Mdc,nummod
42,249-257,odstotek,_,_,_,_,_,41,NOUN,Ncmsg,obj
43,258-259,",",_,_,_,_,_,49,PUNCT,Z,punct
44,260-264,enak,_,_,_,_,_,46,DET,Pi-msa,det
45,265-273,odstotek,_,_,_,_,_,49,NOUN,Ncmsan,obj
46,274-276,pa,_,_,_,_,_,49,CCONJ,Cc,advmod
47,277-279,biti,_,_,_,_,_,49,AUX,Va-r3s-n,aux
48,280-287,izgubiti,_,_,_,_,_,41,VERB,Vmep-sm,parataxis
49,288-292,tudi,_,_,_,_,_,49,PART,Q,advmod
50,293-300,pariški,_,_,_,_,_,53,ADJ,Agpmsny,amod
51,301-307,borzen,_,_,_,_,_,53,ADJ,Agpmsny,amod
52,308-314,indeks,_,_,_,_,_,49,NOUN,Ncmsn,nsubj
53,315-318,cac,_,_,_,_,_,53,NOUN,Ncmsn,nmod
54,319-321,40,_,_,_,_,_,54,NUM,Mdc,nummod
55,322-323,.,_,_,_,_,_,49,PUNCT,Z,punct
56,324-331,vodilen,_,_,_,_,_,58,ADJ,Agpmsny,amod
57,332-338,indeks,_,_,_,_,_,65,NOUN,Ncmsn,nsubj
58,339-348,londonski,_,_,_,_,_,60,ADJ,Agpfsg,amod
59,349-354,borza,_,_,_,_,_,58,NOUN,Ncfsg,nmod
60,355-359,ftse,_,_,_,_,_,65,PUNCT,Z,punct
61,360-363,100,_,_,_,_,_,61,NUM,Mdc,nummod
62,364-366,se,_,_,_,_,_,65,PRON,Px------y,expl
63,367-369,biti,_,_,_,_,_,65,AUX,Va-r3s-n,aux
64,370-376,znižati,_,_,_,_,_,19,VERB,Vmep-sm,parataxis
65,377-379,za,_,_,_,_,_,68,ADP,Sa,case
66,380-383,kar,_,_,_,_,_,68,ADV,Rgp,advmod
67,384-387,"3,2",_,_,_,_,_,65,NUM,Mdc,obl
68,388-390,in,_,_,_,_,_,70,CCONJ,Cc,cc
69,391-398,doseči,_,_,_,_,_,65,VERB,Vmep-sm,conj
70,399-403,svoj,_,_,_,_,_,75,DET,Px-msa,det
71,404-407,več,_,_,_,_,_,75,DET,Rgc,advmod
72,408-411,kot,_,_,_,_,_,72,SCONJ,Cs,fixed
73,412-420,trileten,_,_,_,_,_,75,ADJ,Agpmsay,amod
74,421-428,minimum,_,_,_,_,_,70,NOUN,Ncmsan,obj
75,429-430,.,_,_,_,_,_,65,PUNCT,Z,punct
76,431-433,na,_,_,_,_,_,79,ADP,Sl,case
77,434-443,švicarski,_,_,_,_,_,79,ADJ,Agpfsl,amod
78,444-449,borz,_,_,_,_,_,84,NOUN,Ncfsl,obl
79,450-452,se,_,_,_,_,_,84,PRON,Px------y,expl
80,453-455,biti,_,_,_,_,_,84,AUX,Va-r3s-n,aux
81,456-462,indeks,_,_,_,_,_,84,NOUN,Ncmsn,nsubj
82,463-467,SSMI,_,_,_,_,_,82,PROPN,Npmsg,nmod
83,468-474,znižati,_,_,_,_,_,65,VERB,Vmep-sm,conj
84,475-477,za,_,_,_,_,_,87,ADP,Sa,case
85,478-482,"1,03",_,_,_,_,_,87,NUM,Mdc,nummod
86,483-491,odstotek,_,_,_,_,_,84,NOUN,Ncmsg,obl
87,492-493,",",_,_,_,_,_,84,PUNCT,Z,punct
88,494-500,indeks,_,_,_,_,_,97,NOUN,Ncmsn,nsubj
89,501-504,ATX,_,_,_,_,_,89,PROPN,Npmsn,nmod
90,505-507,pa,_,_,_,_,_,97,CCONJ,Cc,advmod
91,508-510,se,_,_,_,_,_,97,PRON,Px------y,expl
92,511-513,biti,_,_,_,_,_,97,AUX,Va-r3s-n,aux
93,514-516,na,_,_,_,_,_,96,ADP,Sl,case
94,517-525,dunajski,_,_,_,_,_,96,ADJ,Agpfsl,amod
95,526-531,borz,_,_,_,_,_,97,NOUN,Ncfsl,obl
96,532-538,znižati,_,_,_,_,_,84,VERB,Vmep-sm,parataxis
97,539-541,za,_,_,_,_,_,100,ADP,Sa,case
98,542-546,"2,81",_,_,_,_,_,100,NUM,Mdc,nummod
99,547-555,odstotek,_,_,_,_,_,97,NOUN,Ncmsg,obl
100,556-557,.,_,_,_,_,_,97,PUNCT,Z,punct
101,558-562,tudi,_,_,_,_,_,110,PART,Q,advmod
102,563-565,na,_,_,_,_,_,104,ADP,Sl,case
103,566-571,borz,_,_,_,_,_,110,NOUN,Ncfsl,obl
104,572-573,v,_,_,_,_,_,106,ADP,Sl,case
105,574-580,Milan,LOC,0,*->7-1,*[7],3 - Nevtralno,104,PROPN,Npmsl,nmod
106,581-583,biti,_,_,_,_,_,110,AUX,Va-r3s-n,aux
107,584-590,indeks,_,_,_,_,_,110,NOUN,Ncmsan,nsubj
108,591-597,Mibtel,_,_,_,_,_,108,PROPN,Npmsn,nmod
109,598-605,izgubiti,_,_,_,_,_,97,VERB,Vmep-sm,conj
110,606-610,"1,34",_,_,_,_,_,112,NUM,Mdc,nummod
111,611-619,odstotek,_,_,_,_,_,110,NOUN,Ncmsg,obj
112,620-621,.,_,_,_,_,_,110,PUNCT,Z,punct
113,622-634,ftseurofirst,_,_,_,_,_,112,NOUN,Ncmsn,nmod
114,635-638,300,_,_,_,_,_,114,NUM,Mdc,nummod
115,639-640,",",_,_,_,_,_,117,PUNCT,Z,punct
116,641-647,indeks,_,_,_,_,_,114,NOUN,Ncmsn,appos
117,648-656,vodilen,_,_,_,_,_,120,ADJ,Agpfpg,amod
118,657-666,evropski,_,_,_,_,_,120,ADJ,Agpfpg,amod
119,667-673,delnica,_,_,_,_,_,117,NOUN,Ncfpg,nmod
120,674-675,",",_,_,_,_,_,123,PUNCT,Z,punct
121,676-678,biti,_,_,_,_,_,123,AUX,Va-r3s-n,aux
122,679-684,pasti,_,_,_,_,_,19,VERB,Vmep-sm,parataxis
123,685-687,za,_,_,_,_,_,126,ADP,Sa,case
124,688-691,"2,6",_,_,_,_,_,126,NUM,Mdc,nummod
125,692-700,odstotek,_,_,_,_,_,123,NOUN,Ncmsg,obl
126,701-703,in,_,_,_,_,_,131,CCONJ,Cc,cc
127,704-706,za,_,_,_,_,_,130,ADP,Sa,case
128,707-712,nekaj,_,_,_,_,_,130,DET,Rgp,det
129,713-717,čas,_,_,_,_,_,131,NOUN,Ncmsg,obl
130,718-725,doseči,_,_,_,_,_,123,VERB,Vmep-sm,conj
131,726-734,nizek,_,_,_,_,_,133,ADJ,Agsfsa,amod
132,735-743,vrednost,_,_,_,_,_,131,NOUN,Ncfsa,obj
133,744-746,po,_,_,_,_,_,135,ADP,Sl,case
134,747-751,maj,_,_,_,_,_,133,NOUN,Ncmsl,nmod
135,752-756,2005,_,_,_,_,_,135,NUM,Mdc,nummod
136,757-758,.,_,_,_,_,_,131,PUNCT,Z,punct
137,759-765,izguba,_,_,_,_,_,131,NOUN,Ncfsg,obj
138,766-768,na,_,_,_,_,_,141,ADP,Sl,case
139,769-778,evropski,_,_,_,_,_,141,ADJ,Agpfpl,amod
140,779-785,borza,_,_,_,_,_,138,NOUN,Ncfpl,nmod
141,786-788,biti,_,_,_,_,_,144,AUX,Va-r3p-n,aux
142,789-794,sicer,_,_,_,_,_,144,PART,Q,advmod
143,795-801,majhen,_,_,_,_,_,19,ADJ,Agcfpn,parataxis
144,802-805,kot,_,_,_,_,_,147,SCONJ,Cs,case
145,806-807,v,_,_,_,_,_,147,ADP,Sa,case
146,808-818,ponedeljek,_,_,_,_,_,144,NOUN,Ncmsan,obl
147,819-820,",",_,_,_,_,_,157,PUNCT,Z,punct
148,821-823,ko,_,_,_,_,_,157,SCONJ,Cs,mark
149,824-827,biti,_,_,_,_,_,157,AUX,Va-r3d-n,aux
150,828-833,borz,_,_,_,_,_,157,NOUN,Ncmpn,nsubj
151,834-835,v,_,_,_,_,_,153,ADP,Sl,case
152,836-843,London,LOC,0,*->8-1,*[8],3 - Nevtralno,151,PROPN,Npmsl,nmod
153,844-846,in,_,_,_,_,_,155,CCONJ,Cc,cc
154,847-853,Pariz,LOC,0,*->9-1,*[9],3 - Nevtralno,153,PROPN,Npmsl,conj
155,854-863,trgovanje,_,_,_,_,_,157,NOUN,Ncnsa,obj
156,864-871,končati,_,_,_,_,_,147,VERB,Vmep-pm,acl
157,872-873,z,_,_,_,_,_,161,ADP,Si,case
158,874-883,približno,_,_,_,_,_,160,ADV,Rgp,advmod
159,884-898,štiriodstoten,_,_,_,_,_,161,ADJ,Agpmsi,amod
160,899-905,padec,_,_,_,_,_,157,NOUN,Ncmsi,obl
161,906-907,",",_,_,_,_,_,157,PUNCT,Z,punct
162,908-910,biti,_,_,_,_,_,169,AUX,Va-r3p-n,aux
163,911-913,pa,_,_,_,_,_,169,CCONJ,Cc,advmod
164,914-924,vlagatelj,_,_,_,_,_,169,NOUN,Ncmpn,nsubj
165,925-927,še,_,_,_,_,_,169,PART,Q,advmod
166,928-933,vedno,_,_,_,_,_,169,ADV,Rgp,advmod
167,934-945,zaskrbljeno,_,_,_,_,_,169,ADV,Rgp,advmod
168,946-955,prodajati,_,_,_,_,_,19,VERB,Vmpp-pm,parataxis
169,956-961,svoj,_,_,_,_,_,171,DET,Px-fpa,det
170,962-969,delnica,_,_,_,_,_,169,NOUN,Ncfpa,obj
171,970-971,.,_,_,_,_,_,169,PUNCT,Z,punct
172,972-978,upanje,_,_,_,_,_,178,NOUN,Ncnsn,nsubj
173,979-982,pri,_,_,_,_,_,175,ADP,Sl,case
174,983-987,Krki,ORG,0,*->10-1,*[10],3 - Nevtralno,173,PROPN,Npfsl,nmod
175,988-990,biti,_,_,_,_,_,178,AUX,Va-r3s-y,aux
176,991-996,dolgo,_,_,_,_,_,178,ADV,Rgp,advmod
177,997-1002,tleti,_,_,_,_,_,169,VERB,Vmpp-sn,conj
178,1003-1011,agencija,_,_,_,_,_,178,NOUN,Ncfsg,obj
179,1012-1019,znižati,_,_,_,_,_,178,VERB,Vmep-pf,conj
180,1020-1028,boniteta,_,_,_,_,_,180,NOUN,Ncfsa,obj
181,1029-1031,za,_,_,_,_,_,183,ADP,Sa,case
182,1032-1035,AIG,ORG,_,*->2-1,*[2],_,181,NOUN,Ncmsa,nmod
183,1036-1039,trije,_,_,_,_,_,187,NUM,Mlcfpa,nummod
184,1040-1054,pomemben,_,_,_,_,_,187,ADJ,Agsfpa,amod
185,1055-1064,boniteten,_,_,_,_,_,187,ADJ,Agpfpa,amod
186,1065-1073,agencija,_,_,_,_,_,183,NOUN,Ncfpa,nmod
187,1074-1075,",",_,_,_,_,_,198,PUNCT,Z,punct
188,1076-1084,standard,ORG[3],0,*->11-1,*[11],3 - Nevtralno[18],191,NOUN,Ncmsn,conj
189,1085-1086,&,ORG[3],0,*->11-1,*[11],3 - Nevtralno[18],191,PROPN,Npmsn,nmod
190,1087-1092,Poors,ORG[3],0,*->11-1,*[11],3 - Nevtralno[18],187,PROPN,Npmsn,nmod
191,1093-1094,",",_,_,_,_,_,193,PUNCT,Z,punct
192,1095-1101,Moodys,ORG,0,*->12-1,*[12],3 - Nevtralno,191,PROPN,Npmsn,conj
193,1102-1104,in,_,_,_,_,_,195,CCONJ,Cc,cc
194,1105-1110,Fitch,ORG,0,*->13-1,*[13],3 - Nevtralno,193,PROPN,Npmsn,conj
195,1111-1113,biti,_,_,_,_,_,198,AUX,Va-r3p-n,aux
196,1114-1127,zavarovalnica,_,_,*->2-2,*[2],_,198,NOUN,Ncfsd,obj
197,1128-1137,prisoditi,_,_,_,_,_,178,VERB,Vmep-pf,advcl
198,1138-1140,le,_,_,_,_,_,198,PART,Q,advmod
199,1141-1146,dobro,_,_,_,_,_,198,ADV,Rgp,advmod
200,1147-1149,do,_,_,_,_,_,204,ADP,Sg,case
201,1150-1161,zadovoljiv,_,_,_,_,_,204,ADJ,Agpfsa,amod
202,1162-1170,plačilen,_,_,_,_,_,204,ADJ,Agpfsa,amod
203,1171-1181,sposobnost,_,_,_,_,_,198,NOUN,Ncfsa,obl
204,1182-1183,.,_,_,_,_,_,198,PUNCT,Z,punct
205,1184-1190,zaradi,_,_,_,_,_,208,ADP,Sg,case
206,1191-1201,povečan,_,_,_,_,_,208,ADJ,Appnsg,amod
207,1202-1210,tveganje,_,_,_,_,_,221,NOUN,Ncnsg,obl
208,1211-1213,se,_,_,_,_,_,221,PRON,Px------y,expl
209,1214-1215,z,_,_,_,_,_,211,ADP,Si,case
210,1216-1219,ta,_,_,_,_,_,221,DET,Pd-nsi,obl
211,1220-1222,za,_,_,_,_,_,213,ADP,Sa,case
212,1223-1236,zavarovalnica,_,_,*->2-3,*[2],_,221,NOUN,Ncfsa,obl
213,1237-1238,",",_,_,_,_,_,217,PUNCT,Z,punct
214,1239-1241,ki,_,_,_,_,_,217,SCONJ,Cs,mark
215,1242-1244,se,_,_,_,_,_,217,PRON,Px------y,expl
216,1245-1249,boreti,_,_,*->2-4,*[2],_,213,VERB,Vmpr3s,acl
217,1250-1252,za,_,_,_,_,_,219,ADP,Sa,case
218,1253-1263,preživetje,_,_,_,_,_,217,NOUN,Ncnsa,obl
219,1264-1265,",",_,_,_,_,_,217,PUNCT,Z,punct
220,1266-1271,dražiti,_,_,_,_,_,204,VERB,Vmpr3s,acl
221,1272-1281,najemanje,_,_,_,_,_,221,NOUN,Ncnsa,obj
222,1282-1289,svež,_,_,_,_,_,224,ADJ,Agpmsg,amod
223,1290-1297,denar,_,_,_,_,_,222,NOUN,Ncmsg,nmod
224,1298-1299,.,_,_,_,_,_,221,PUNCT,Z,punct
225,1300-1309,boniteten,_,_,_,_,_,227,ADJ,Agpfpn,amod
226,1310-1318,agencija,_,_,_,_,_,232,NOUN,Ncfpn,nsubj
227,1319-1321,biti,_,_,_,_,_,232,AUX,Va-r3p-n,aux
228,1322-1324,se,_,_,_,_,_,233,PRON,Px------y,expl
229,1325-1331,polega,_,_,_,_,_,231,ADP,Sg,case
230,1332-1336,ta,_,_,_,_,_,233,DET,Pd-nsg,obl
231,1337-1345,odločiti,_,_,_,_,_,19,VERB,Vmep-pf,parataxis
232,1346-1357,vzpostaviti,_,_,_,_,_,232,VERB,Vmen,xcomp
233,1358-1364,nadzor,_,_,_,_,_,233,NOUN,Ncmsan,obj
234,1365-1368,nad,_,_,_,_,_,236,ADP,Si,case
235,1369-1378,koncern,_,_,_,_,_,234,NOUN,Ncmsi,nmod
236,1379-1382,ter,_,_,_,_,_,239,CCONJ,Cc,cc
237,1383-1387,biti,_,_,_,_,_,239,AUX,Va-r3p-y,aux
238,1388-1398,izključiti,_,_,_,_,_,233,VERB,Vmep-pf,conj
239,1399-1409,vnovičen,_,_,_,_,_,241,ADJ,Agpnsg,amod
240,1410-1418,znižanje,_,_,_,_,_,239,NOUN,Ncnsg,obj
241,1419-1424,ocena,_,_,_,_,_,241,NOUN,Ncfsg,nmod
242,1425-1426,.,_,_,_,_,_,232,PUNCT,Z,punct
243,1427-1428,v,_,_,_,_,_,246,ADP,Sl,case
244,1429-1432,ta,_,_,_,_,_,246,DET,Pd-msl,det
245,1433-1440,primer,_,_,_,_,_,247,NOUN,Ncmsl,obl
246,1441-1448,groziti,_,_,_,_,_,232,VERB,Vmpr3p,conj
247,1449-1452,aig,ORG,_,*->2-5,*[2],_,250,ADJ,Agpfpa,amod
248,1453-1463,dramatičen,_,_,_,_,_,250,ADJ,Agpfpa,amod
249,1464-1470,težava,_,_,_,_,_,247,NOUN,Ncfpa,obj
250,1471-1474,pri,_,_,_,_,_,252,ADP,Sl,case
251,1475-1487,financiranje,_,_,_,_,_,250,NOUN,Ncnsl,nmod
252,1488-1489,.,_,_,_,_,_,247,PUNCT,Z,punct
253,1490-1500,vlagatelj,_,_,_,_,_,256,NOUN,Ncmpn,nsubj
254,1501-1509,nestrpno,_,_,_,_,_,256,ADV,Rgp,advmod
255,1510-1521,pričakovati,_,_,_,_,_,247,VERB,Vmpr3p,conj
256,1522-1526,tudi,_,_,_,_,_,256,PART,Q,advmod
257,1527-1536,odločitev,_,_,_,_,_,256,NOUN,Ncfsa,obj
258,1537-1541,Feda,ORG,_,*->23-1,*[23],_,258,PROPN,Npmsg,nmod
259,1542-1543,o,_,_,_,_,_,261,ADP,Sl,case
260,1544-1555,zagotovitev,_,_,_,_,_,258,NOUN,Ncfsl,nmod
261,1556-1571,premostitven,_,_,_,_,_,263,ADJ,Agpnsg,amod
262,1572-1580,posojilo,_,_,_,_,_,261,NOUN,Ncnsg,nmod
263,1581-1589,velik,_,_,*->2-6,*[2],_,266,ADJ,Agsfsn,amod
264,1590-1598,svetoven,_,_,*->2-6,*[2],_,266,ADJ,Agpfsl,amod
265,1599-1612,zavarovalnica,_,_,*->2-6,*[2],_,263,NOUN,Ncfsl,nmod
266,1613-1616,AIG,ORG,_,*->2-6,*[2],_,266,PROPN,Npfsg,nmod
267,1617-1618,.,_,_,_,_,_,256,PUNCT,Z,punct
268,1619-1621,od,_,_,_,_,_,270,ADP,Sg,case
269,1622-1626,ta,_,_,_,_,_,273,DET,Pd-nsg,obl
270,1627-1629,biti,_,_,_,_,_,273,AUX,Va-r3s-n,cop
271,1630-1636,namreč,_,_,_,_,_,273,CCONJ,Cc,advmod
272,1637-1644,odvisen,_,_,_,_,_,19,ADJ,Agpfsn,parataxis
273,1645-1654,nadaljnji,_,_,_,_,_,275,ADJ,Agpfsn,amod
274,1655-1660,usoda,_,_,_,_,_,273,NOUN,Ncfsn,nsubj
275,1661-1674,zavarovalnica,_,_,*->2-7,*[2],_,275,NOUN,Ncfsg,nmod
276,1675-1676,",",_,_,_,_,_,286,PUNCT,Z,punct
277,1677-1680,saj,_,_,_,_,_,286,CCONJ,Cc,cc
278,1681-1683,če,_,_,_,_,_,286,SCONJ,Cs,mark
279,1684-1692,posojilo,_,_,_,_,_,286,NOUN,Ncnpg,obj
280,1693-1695,ne,_,_,_,_,_,286,PART,Q,advmod
281,1696-1698,biti,_,_,_,_,_,286,AUX,Va-f3s-n,aux
282,1699-1700,",",_,_,_,_,_,286,PUNCT,Z,punct
283,1701-1703,biti,_,_,_,_,_,286,AUX,Va-f3s-n,aux
284,1704-1707,AIG,ORG,0,*->2-8,*[2],3 - Nevtralno,286,PROPN,Npfsn,nsubj
285,1708-1715,končati,_,_,_,_,_,273,VERB,Vmep-sf,advcl
286,1716-1720,prav,_,_,_,_,_,288,PART,Q,advmod
287,1721-1725,tako,_,_,_,_,_,286,ADV,Rgp,advmod
288,1726-1729,kot,_,_,_,_,_,291,SCONJ,Cs,case
289,1730-1743,investicijski,_,_,*->14-1,*[14],_,291,ADJ,Agpfsn,amod
290,1744-1749,banka,_,_,*->14-1,*[14],_,286,NOUN,Ncfsn,obl
291,1750-1756,Lehman,ORG[4],_,*->14-1,*[14],_,291,PROPN,Npfsn,nmod
292,1757-1765,Brothers,ORG[4],_,*->14-1,*[14],_,292,PROPN,Npmsn,flat:name
293,1766-1767,.,_,_,_,_,_,286,PUNCT,Z,punct
294,1768-1773,pasti,_,_,_,_,_,273,VERB,Vmep-pf,advcl
295,1774-1778,tudi,_,_,_,_,_,295,PART,Q,advmod
296,1779-1788,vrednost,_,_,_,_,_,295,NOUN,Ncfpn,nsubj
297,1789-1791,na,_,_,_,_,_,300,ADP,Sl,case
298,1792-1800,azijski,_,_,_,_,_,300,ADJ,Agpfpl,amod
299,1801-1807,borza,_,_,_,_,_,297,NOUN,Ncfpl,nmod
300,1808-1811,dan,_,_,_,_,_,297,NOUN,Ncmsan,nmod
301,1812-1814,po,_,_,_,_,_,304,ADP,Sl,case
302,1815-1822,uraden,_,_,_,_,_,304,ADJ,Agpmsl,amod
303,1823-1830,stečaj,_,_,_,_,_,301,NOUN,Ncmsl,nmod
304,1831-1837,četrti,_,_,*->14-2,*[14],_,308,ADJ,Mlofsg,amod
305,1838-1846,velik,_,_,*->14-2,*[14],_,308,ADJ,Agsfsg,amod
306,1847-1860,investicijski,_,_,*->14-2,*[14],_,308,ADJ,Agpfsg,amod
307,1861-1866,banka,_,_,*->14-2,*[14],_,304,NOUN,Ncfsg,nmod
308,1867-1868,v,_,_,*->14-2,*[14],_,310,ADP,Sl,case
309,1869-1872,ZDA,LOC,_,*->14-2|*->3-1,*[14]|*[3],_,308,PROPN,Npfpl,nmod
310,1873-1879,Lehman,ORG[5],_,*->14-2,*[14],_,315,PROPN,Npfsg,nsubj
311,1880-1888,Brothers,ORG[5],_,*->14-2,*[14],_,311,PROPN,Npmsn,flat:name
312,1889-1891,biti,_,_,_,_,_,315,AUX,Va-r3p-n,aux
313,1892-1894,se,_,_,_,_,_,315,PRON,Px------y,expl
314,1895-1902,znižati,_,_,_,_,_,19,VERB,Vmep-pf,parataxis
315,1903-1912,vrednost,_,_,_,_,_,315,NOUN,Ncfpn,nsubj
316,1913-1919,delnica,_,_,_,_,_,316,NOUN,Ncfpg,nmod
317,1920-1924,tudi,_,_,_,_,_,315,PART,Q,advmod
318,1925-1927,na,_,_,_,_,_,321,ADP,Sl,case
319,1928-1936,azijski,_,_,_,_,_,321,ADJ,Agpfpl,amod
320,1937-1943,borza,_,_,_,_,_,315,NOUN,Ncfpl,obl
321,1944-1945,.,_,_,_,_,_,315,PUNCT,Z,punct
322,1946-1953,azijski,_,_,_,_,_,324,ADJ,Agpfsn,amod
323,1954-1959,borza,_,_,_,_,_,331,NOUN,Ncfpn,nsubj
324,1960-1962,biti,_,_,_,_,_,331,AUX,Va-r3p-n,aux
325,1963-1967,biti,_,_,_,_,_,331,AUX,Va-p-pf,cop
326,1968-1969,v,_,_,_,_,_,328,ADP,Sa,case
327,1970-1980,ponedeljek,_,_,_,_,_,331,NOUN,Ncmsan,obl
328,1981-1987,zaradi,_,_,_,_,_,330,ADP,Sg,case
329,1988-1996,praznik,_,_,_,_,_,328,NOUN,Ncmsg,nmod
330,1997-2003,zaprt,_,_,_,_,_,19,ADJ,Appfpn,parataxis
331,2004-2005,",",_,_,_,_,_,331,PUNCT,Z,punct
332,2006-2007,v,_,_,_,_,_,334,ADP,Sa,case
333,2008-2013,torek,_,_,_,_,_,347,NOUN,Ncmsan,obl
334,2014-2016,pa,_,_,_,_,_,347,CCONJ,Cc,advmod
335,2017-2019,biti,_,_,_,_,_,347,AUX,Va-r3p-n,aux
336,2020-2027,delnica,_,_,_,_,_,347,NOUN,Ncfpn,nsubj
337,2028-2030,na,_,_,_,_,_,346,ADP,Sl,case
338,2031-2040,japonski,_,_,_,_,_,346,ADJ,Agpmpl,amod
339,2041-2042,",",_,_,_,_,_,341,PUNCT,Z,punct
340,2043-2052,korejski,_,_,_,_,_,339,ADJ,Agpmpl,conj
341,2053-2054,",",_,_,_,_,_,343,PUNCT,Z,punct
342,2055-2064,kitajski,_,_,_,_,_,339,ADJ,Agpmpl,conj
343,2065-2067,in,_,_,_,_,_,345,CCONJ,Cc,cc
344,2068-2078,tajvanski,_,_,_,_,_,339,ADJ,Agpmpl,conj
345,2079-2084,trg,_,_,_,_,_,347,NOUN,Ncmpl,obl
346,2085-2090,pasti,_,_,_,_,_,331,VERB,Vmep-pf,advcl
347,2091-2093,za,_,_,_,_,_,353,ADP,Sa,case
348,2094-2096,od,_,_,_,_,_,353,ADP,Sg,case
349,2097-2102,štirje,_,_,_,_,_,353,NUM,Mlcmpa,nummod
350,2103-2105,do,_,_,_,_,_,352,ADP,Sg,case
351,2106-2110,šest,_,_,_,_,_,350,NUM,Mlc-pa,conj
352,2111-2120,odstotek,_,_,_,_,_,347,NOUN,Ncmpg,obl
353,2121-2122,.,_,_,_,_,_,347,PUNCT,Z,punct
354,2123-2128,padec,_,_,_,_,_,360,NOUN,Ncmsn,nsubj
355,2129-2131,na,_,_,_,_,_,358,ADP,Sl,case
356,2132-2140,azijski,_,_,_,_,_,358,ADJ,Agpmpl,amod
357,2141-2146,trg,_,_,_,_,_,355,NOUN,Ncmpl,nmod
358,2147-2149,biti,_,_,_,_,_,360,AUX,Va-r3s-n,aux
359,2150-2157,odsevati,_,_,_,_,_,19,VERB,Vmpp-sm,parataxis
360,2158-2163,padec,_,_,_,_,_,360,NOUN,Ncmpa,obj
361,2164-2166,na,_,_,_,_,_,366,ADP,Sl,case
362,2167-2176,ameriški,_,_,_,_,_,366,ADJ,Agpfpl,amod
363,2177-2179,in,_,_,_,_,_,365,CCONJ,Cc,cc
364,2180-2189,evropski,_,_,_,_,_,363,ADJ,Agpfpl,conj
365,2190-2196,borza,_,_,_,_,_,361,NOUN,Ncfpl,nmod
366,2197-2198,",",_,_,_,_,_,373,PUNCT,Z,punct
367,2199-2203,kjer,_,_,_,_,_,373,SCONJ,Cs,mark
368,2204-2206,biti,_,_,_,_,_,373,AUX,Va-r3s-n,aux
369,2207-2210,biti,_,_,_,_,_,373,AUX,Va-p-sm,cop
370,2211-2221,ponedeljek,_,_,_,_,_,373,NOUN,Ncmsn,nsubj
371,2222-2230,hud,_,_,_,_,_,373,ADJ,Agsmsny,amod
372,2231-2234,dan,_,_,_,_,_,366,NOUN,Ncmsn,acl
373,2235-2237,po,_,_,_,_,_,375,ADP,Sl,case
374,2238-2240,11,_,_,_,_,_,373,NUM,Mdc,nummod
375,2241-2242,.,_,_,_,_,_,360,PUNCT,Z,punct
376,2243-2252,september,_,_,_,_,_,373,NOUN,Ncmsl,obl
377,2253-2257,leto,_,_,_,_,_,377,NOUN,Ncnsg,nmod
378,2258-2262,2001,_,_,_,_,_,378,NUM,Mdc,nummod
379,2263-2264,.,_,_,_,_,_,377,PUNCT,Z,punct
380,2265-2273,japonski,_,_,_,_,_,382,ADJ,Agpmsny,amod
381,2274-2280,indeks,_,_,_,_,_,387,NOUN,Ncmsn,nsubj
382,2281-2287,Nikkei,_,_,_,_,_,382,PROPN,Npmsn,nmod
383,2288-2289,-,_,_,_,_,_,385,PUNCT,Z,punct
384,2290-2293,255,_,_,_,_,_,383,NUM,Mdc,nummod
385,2294-2296,biti,_,_,_,_,_,387,AUX,Va-r3s-n,aux
386,2297-2302,pasti,_,_,_,_,_,377,VERB,Vmep-sm,acl
387,2303-2305,za,_,_,_,_,_,390,ADP,Sa,case
388,2306-2309,"5,3",_,_,_,_,_,390,NUM,Mdc,nummod
389,2310-2318,odstotek,_,_,_,_,_,387,NOUN,Ncmsg,obl
390,2319-2320,",",_,_,_,_,_,387,PUNCT,Z,punct
391,2321-2331,šanghajski,_,_,_,_,_,393,ADJ,Agpmsny,amod
392,2332-2338,indeks,_,_,_,_,_,408,NOUN,Ncmsnn,nsubj
393,2339-2341,za,_,_,_,_,_,396,ADP,Sa,case
394,2342-2347,štirje,_,_,_,_,_,396,NUM,Mlcmpa,nummod
395,2348-2356,odstotek,_,_,_,_,_,393,NOUN,Ncmpa,nmod
396,2357-2358,",",_,_,_,_,_,398,PUNCT,Z,punct
397,2359-2368,vrednost,_,_,_,_,_,396,NOUN,Ncfpa,conj
398,2369-2375,delnica,_,_,_,_,_,398,NOUN,Ncfpg,nmod
399,2376-2377,v,_,_,_,_,_,402,ADP,Sl,case
400,2378-2383,južen,LOC[6],0,*->15-1,*[15],3 - Nevtralno[19],402,ADJ,Agpfsl,amod
401,2384-2390,Koreja,LOC[6],0,*->15-1,*[15],3 - Nevtralno[19],399,PROPN,Npfsl,nmod
402,2391-2393,in,_,_,_,_,_,405,CCONJ,Cc,cc
403,2394-2395,v,_,_,_,_,_,405,ADP,Sl,case
404,2396-2405,Hongkong,LOC,0,*->16-1,*[16],3 - Nevtralno,402,PROPN,Npmsl,conj
405,2406-2408,pa,_,_,_,_,_,408,CCONJ,Cc,advmod
406,2409-2411,biti,_,_,_,_,_,408,AUX,Va-r3p-n,aux
407,2412-2417,pasti,_,_,_,_,_,19,VERB,Vmep-pf,parataxis
408,2418-2420,za,_,_,_,_,_,412,ADP,Sa,case
409,2421-2430,približno,_,_,_,_,_,411,ADV,Rgp,advmod
410,2431-2435,šest,_,_,_,_,_,412,NUM,Mlc-pa,nummod
411,2436-2445,odstotek,_,_,_,_,_,408,NOUN,Ncmpg,obl
412,2446-2447,.,_,_,_,_,_,408,PUNCT,Z,punct
413,2448-2452,tudi,_,_,_,_,_,423,PART,Q,advmod
414,2453-2455,na,_,_,_,_,_,416,ADP,Sl,case
415,2456-2462,borza,_,_,_,_,_,423,NOUN,Ncfpl,obl
416,2463-2464,v,_,_,_,_,_,418,ADP,Sl,case
417,2465-2472,Tajpej,LOC,0,*->17-1,*[17],3 - Nevtralno,416,PROPN,Npmsl,nmod
418,2473-2475,in,_,_,_,_,_,420,CCONJ,Cc,cc
419,2476-2486,Singapur,LOC,0,*->18-1,*[18],3 - Nevtralno,418,PROPN,Npmsl,conj
420,2487-2489,biti,_,_,_,_,_,423,AUX,Va-r3p-n,aux
421,2490-2499,trgovanje,_,_,_,_,_,423,NOUN,Ncnsa,obj
422,2500-2507,končati,_,_,_,_,_,408,VERB,Vmep-pm,conj
423,2508-2514,slabo,_,_,_,_,_,427,ADV,Rgc,advmod
424,2515-2518,kot,_,_,_,_,_,426,SCONJ,Cs,case
425,2519-2522,dan,_,_,_,_,_,427,NOUN,Ncmsan,nmod
426,2523-2527,prej,_,_,_,_,_,423,ADV,Rgc,advmod
427,2528-2529,",",_,_,_,_,_,433,PUNCT,Z,punct
428,2530-2535,padec,_,_,_,_,_,433,NOUN,Ncmsn,nsubj
429,2536-2538,pa,_,_,_,_,_,433,CCONJ,Cc,advmod
430,2539-2541,se,_,_,_,_,_,433,PRON,Px------y,expl
431,2542-2544,biti,_,_,_,_,_,433,AUX,Va-r3s-n,aux
432,2545-2551,zgoditi,_,_,_,_,_,423,VERB,Vmep-sm,advcl
433,2552-2556,tudi,_,_,_,_,_,433,PART,Q,advmod
434,2557-2559,na,_,_,_,_,_,436,ADP,Sl,case
435,2560-2566,borza,_,_,_,_,_,433,NOUN,Ncfpl,obl
436,2567-2568,v,_,_,_,_,_,438,ADP,Sl,case
437,2569-2579,Avstralija,LOC,0,*->19-1,*[19],3 - Nevtralno,436,PROPN,Npfsl,nmod
438,2580-2582,in,_,_,_,_,_,442,CCONJ,Cc,cc
439,2583-2585,na,_,_,_,_,_,442,ADP,Sl,case
440,2586-2590,nov,LOC[7],0,*->20-1,*[20],3 - Nevtralno[20],442,ADJ,Agpfsl,amod
441,2591-2600,Zelandija,LOC[7],0,*->20-1,*[20],3 - Nevtralno[20],438,PROPN,Npfsl,conj
442,2601-2602,.,_,_,_,_,_,433,PUNCT,Z,punct
443,2603-2609,tretji,_,0,*->21-1,*[21],3 - Nevtralno[21],447,ADJ,Mlofsn,amod
444,2610-2618,velik,_,0,*->21-1,*[21],3 - Nevtralno[21],447,ADJ,Agsfsn,amod
445,2619-2627,japonski,_,0,*->21-1,*[21],3 - Nevtralno[21],447,ADJ,Agpfsn,amod
446,2628-2633,banka,_,0,*->21-1,*[21],3 - Nevtralno[21],453,NOUN,Ncfsn,nsubj
447,2634-2642,Sumitoma,ORG[8],0,*->21-1,*[21],3 - Nevtralno[21],447,PROPN,Npmsn,nmod
448,2643-2649,Mitsui,ORG[8],0,*->21-1,*[21],3 - Nevtralno[21],448,PROPN,Npmsn,nmod
449,2650-2659,Financial,ORG[8],0,*->21-1,*[21],3 - Nevtralno[21],451,PROPN,Npmsn,nmod
450,2660-2665,Group,ORG[8],0,*->21-1,*[21],3 - Nevtralno[21],449,PROPN,Npmsn,nmod
451,2666-2668,biti,_,_,_,_,_,453,AUX,Va-r3s-n,aux
452,2669-2678,sporočiti,_,_,_,_,_,19,VERB,Vmep-sf,parataxis
453,2679-2680,",",_,_,_,_,_,461,PUNCT,Z,punct
454,2681-2683,da,_,_,_,_,_,461,SCONJ,Cs,mark
455,2684-2690,zaradi,_,_,_,_,_,457,ADP,Sg,case
456,2691-2698,stečaj,_,_,_,_,_,461,NOUN,Ncmsg,obl
457,2699-2704,banka,_,_,*->14-3,*[14],_,457,NOUN,Ncfsg,nmod
458,2705-2711,Lehman,ORG[9],_,*->14-3,*[14],_,458,PROPN,Npmsg,nmod
459,2712-2720,Brothers,ORG[9],_,*->14-3,*[14],_,459,PROPN,Npmsn,flat:name
460,2721-2730,pričakovati,_,_,_,_,_,453,VERB,Vmpr3s,ccomp
461,2731-2740,približno,_,_,_,_,_,464,ADV,Rgp,advmod
462,2741-2746,deset,_,_,_,_,_,464,NUM,Mlc-pa,nummod
463,2747-2755,milijarda,_,_,_,_,_,461,NOUN,Ncfpg,obl
464,2756-2761,jen,_,_,_,_,_,464,NOUN,Ncmpg,nmod
465,2762-2768,izguba,_,_,_,_,_,465,NOUN,Ncfsg,nmod
466,2769-2770,",",_,_,_,_,_,488,PUNCT,Z,punct
467,2771-2774,kar,_,_,_,_,_,477,PRON,Pr-nsn,nsubj
468,2775-2777,biti,_,_,_,_,_,477,AUX,Va-r3s-n,aux
469,2778-2787,približno,_,_,_,_,_,471,ADV,Rgp,advmod
470,2788-2790,96,_,_,_,_,_,472,NUM,Mdc,nummod
471,2791-2800,milijon,_,_,_,_,_,477,NOUN,Ncmpg,obj
472,2801-2809,dolar,_,_,_,_,_,472,NOUN,Ncmpg,nmod
473,2810-2811,.,_,_,_,_,_,461,PUNCT,Z,punct
474,2812-2818,Lehman,ORG[10],_,*->14-4,*[14],_,472,PROPN,Npmsg,nmod
475,2819-2827,Brothers,ORG[10],_,*->14-4,*[14],_,475,PROPN,Npmsn,flat:name
476,2828-2835,zamajati,_,_,_,_,_,453,VERB,Vmpp-sm,root
477,2836-2844,svetoven,_,_,_,_,_,480,ADJ,Agpmpa,amod
478,2845-2855,kapitalski,_,_,_,_,_,480,ADJ,Agpmpa,amod
479,2856-2860,trg,_,_,_,_,_,477,NOUN,Ncmpa,obj
480,2861-2866,potem,_,_,_,_,_,488,ADV,Rgp,mark
481,2867-2869,ko,_,_,_,_,_,481,SCONJ,Cs,fixed
482,2870-2873,biti,_,_,_,_,_,488,AUX,Va-r3d-n,aux
483,2874-2879,banka,_,_,*->14-5,*[14],_,488,NOUN,Ncfsa,obj
484,2880-2886,Lehman,ORG[11],_,*->14-5,*[14],_,484,PROPN,Npfsg,nmod
485,2887-2895,Brothers,ORG[11],_,*->14-5,*[14],_,485,PROPN,Npfsn,flat:name
486,2896-2901,močno,_,_,_,_,_,488,ADV,Rgp,advmod
487,2902-2908,načelo,_,_,_,_,_,477,VERB,Vmep-dm,advcl
488,2909-2923,nepremičninski,_,_,_,_,_,492,ADJ,Agpfsn,amod
489,2924-2926,in,_,_,_,_,_,491,CCONJ,Cc,cc
490,2927-2935,krediten,_,_,_,_,_,489,ADJ,Agpfsn,conj
491,2936-2941,kriza,_,_,_,_,_,488,NOUN,Ncfsn,nsubj
492,2942-2943,",",_,_,_,_,_,488,PUNCT,Z,punct
493,2944-2946,biti,_,_,_,_,_,505,AUX,Va-r3s-n,aux
494,2947-2950,biti,_,_,_,_,_,505,AUX,Va-p-sm,cop
495,2951-2955,zlom,_,_,_,_,_,505,NOUN,Ncmsn,nsubj
496,2956-2959,en,_,_,*->14-6,*[14],_,499,NUM,Mlpfsg,nummod
497,2960-2969,velik,_,_,*->14-6,*[14],_,499,ADJ,Agsfpg,amod
498,2970-2974,banka,_,_,*->14-6,*[14],_,496,NOUN,Ncfpg,nmod
499,2975-2977,na,_,_,*->14-6,*[14],_,502,ADP,Sl,case
500,2978-2982,Wall,ORG[12],0,*->14-6|*->1-2,*[14]|*[1],3 - Nevtralno[22],502,PROPN,Npmsl,nmod
501,2983-2990,street,ORG[12],0,*->14-6|*->1-2,*[14]|*[1],3 - Nevtralno[22],499,NOUN,Ncmsl,nmod
502,2991-2995,tako,_,_,_,_,_,502,ADV,Rgp,advmod
503,2996-3001,rekoč,_,_,_,_,_,503,ADV,Rr,fixed
504,3002-3012,neizogiben,_,_,_,_,_,477,ADJ,Agpmsnn,advcl
505,3013-3014,.,_,_,_,_,_,505,PUNCT,Z,punct
506,3015-3021,novica,_,_,_,_,_,510,NOUN,Ncfsn,nsubj
507,3022-3024,biti,_,_,_,_,_,510,AUX,Va-r3s-n,aux
508,3025-3030,močno,_,_,_,_,_,510,ADV,Rgp,advmod
509,3031-3039,zamajati,_,_,_,_,_,505,VERB,Vmpp-sf,conj
510,3040-3048,ameriški,_,_,_,_,_,513,ADJ,Agpmsay,amod
511,3049-3059,kapitalski,_,_,_,_,_,513,ADJ,Agpmsay,amod
512,3060-3063,trg,_,_,_,_,_,510,NOUN,Ncmsan,obj
513,3064-3065,",",_,_,_,_,_,510,PUNCT,Z,punct
514,3066-3075,njegov,_,_,_,_,_,516,DET,Ps3msdsf,det
515,3076-3081,vzor,_,_,_,_,_,519,NOUN,Ncmsd,obj
516,3082-3084,pa,_,_,_,_,_,519,CCONJ,Cc,advmod
517,3085-3087,biti,_,_,_,_,_,519,AUX,Va-r3p-n,aux
518,3088-3095,slediti,_,_,_,_,_,510,VERB,Vmpp-pm,conj
519,3096-3101,drug,_,_,_,_,_,522,ADJ,Mlpmpn,amod
520,3102-3112,kapitalski,_,_,_,_,_,522,ADJ,Agpmpn,amod
521,3113-3117,trg,_,_,_,_,_,519,NOUN,Ncmpn,nsubj
522,3118-3120,po,_,_,_,_,_,525,ADP,Sl,case
523,3121-3125,ves,_,_,_,_,_,525,DET,Pg-msl,det
524,3126-3131,svet,_,_,_,_,_,522,NOUN,Ncmsl,nmod
525,3132-3133,.,_,_,_,_,_,519,PUNCT,Z,punct
526,3134-3140,Lehman,ORG,_,*->14-7,*[14],_,552,PROPN,Npmsn,nsubj
527,3141-3145,tudi,_,_,_,_,_,529,PART,Q,advmod
528,3146-3152,uradno,_,_,_,_,_,531,ADV,Rgp,advmod
529,3153-3154,v,_,_,_,_,_,531,ADP,Sl,case
530,3155-3162,stečaj,_,_,_,_,_,552,NOUN,Ncmsl,obl
531,3163-3174,ljubljanski,ORG[13],2,*->4-2,*[4],2 - Negativno[23],533,ADJ,Agpfsn,amod
532,3175-3180,borz,ORG[13],2,*->4-2,*[4],2 - Negativno[23],531,NOUN,Ncfsn,nmod
533,3181-3187,krepko,_,_,_,_,_,537,ADV,Rgp,advmod
534,3188-3189,v,_,_,_,_,_,537,ADP,Sl,case
535,3190-3196,rdeč,_,_,_,_,_,537,ADJ,Agpfpl,amod
536,3197-3206,številka,_,_,_,_,_,531,NOUN,Ncfpl,nmod
537,3207-3216,reševanje,_,_,_,_,_,537,NOUN,Ncnsa,nmod
538,3217-3226,finančen,_,_,_,_,_,540,ADJ,Agpmpg,amod
539,3227-3233,zlom,_,_,_,_,_,538,NOUN,Ncmpg,nmod
540,3234-3235,v,_,_,_,_,_,542,ADP,Sl,case
541,3236-3239,ZDA,LOC,2,*->3-2,*[3],2 - Negativno,540,PROPN,Npfpl,nmod
542,3240-3248,osrednji,_,_,_,_,_,546,ADJ,Agpmsny,amod
543,3249-3258,newyorški,_,_,_,_,_,546,ADJ,Agpmsny,amod
544,3259-3267,delniški,_,_,_,_,_,546,ADJ,Agpmsay,amod
545,3268-3274,indeks,_,_,_,_,_,537,NOUN,Ncmsan,conj
546,3275-3278,Dow,_,_,_,_,_,546,PROPN,Npmsg,nmod
547,3279-3284,Jones,_,_,_,_,_,547,PROPN,Npmsn,flat:name
548,3285-3287,biti,_,_,_,_,_,552,AUX,Va-r3s-n,aux
549,3288-3300,ponedeljkov,_,_,_,_,_,551,ADJ,Aspnsa,amod
550,3301-3310,trgovanje,_,_,_,_,_,552,NOUN,Ncnsa,obj
551,3311-3317,končati,_,_,_,_,_,19,VERB,Vmep-sm,parataxis
552,3318-3321,pri,_,_,_,_,_,554,ADP,Sl,case
553,3322-3331,vrednost,_,_,_,_,_,552,NOUN,Ncfsl,obl
554,3332-3340,"10.917,5",_,_,_,_,_,556,NUM,Mdc,nummod
555,3341-3346,točka,_,_,_,_,_,554,NOUN,Ncfsg,nmod
556,3347-3348,",",_,_,_,_,_,561,PUNCT,Z,punct
557,3349-3352,kar,_,_,_,_,_,561,PRON,Pr-nsn,nsubj
558,3353-3355,biti,_,_,_,_,_,561,AUX,Va-r3s-n,cop
559,3356-3362,"504,48",_,_,_,_,_,561,NUM,Mdc,nummod
560,3363-3368,točka,_,_,_,_,_,556,NOUN,Ncfsg,appos
561,3369-3371,oz,_,_,_,_,_,561,PROPN,Npmsn,nmod
562,3372-3373,.,_,_,_,_,_,552,PUNCT,Z,punct
563,3374-3378,"4,42",_,_,_,_,_,565,NUM,Mdc,nummod
564,3379-3387,odstotek,_,_,_,_,_,561,NOUN,Ncmsg,nmod
565,3388-3392,manj,_,_,_,_,_,561,DET,Rgc,advmod
566,3393-3396,kot,_,_,_,_,_,570,SCONJ,Cs,case
567,3397-3399,po,_,_,_,_,_,570,ADP,Sl,case
568,3400-3408,petkov,_,_,_,_,_,570,ADJ,Aspnsl,amod
569,3409-3418,trgovanje,_,_,_,_,_,561,NOUN,Ncnsl,conj
570,3419-3420,.,_,_,_,_,_,564,PUNCT,Z,punct
571,3421-3431,tehnološki,_,_,_,_,_,573,ADJ,Agpmsny,amod
572,3432-3438,indeks,_,_,_,_,_,577,NOUN,Ncmsn,nsubj
573,3439-3445,Nasdaq,_,_,_,_,_,573,PROPN,Npmsn,nmod
574,3446-3448,pa,_,_,_,_,_,577,CCONJ,Cc,advmod
575,3449-3451,biti,_,_,_,_,_,577,AUX,Va-r3s-n,aux
576,3452-3459,izgubiti,_,_,_,_,_,19,VERB,Vmep-sm,parataxis
577,3460-3465,"81,36",_,_,_,_,_,579,NUM,Mdc,nummod
578,3466-3471,točka,_,_,_,_,_,577,NOUN,Ncfsn,nsubj
579,3472-3474,oz,_,_,_,_,_,579,NOUN,Ncmsg,nmod
580,3475-3476,.,_,_,_,_,_,577,PUNCT,Z,punct
581,3477-3481,"3,60",_,_,_,_,_,583,NUM,Mdc,nummod
582,3482-3490,odstotek,_,_,_,_,_,577,NOUN,Ncmsg,obj
583,3491-3493,in,_,_,_,_,_,585,CCONJ,Cc,cc
584,3494-3499,pasti,_,_,_,_,_,577,VERB,Vmep-sm,conj
585,3500-3502,na,_,_,_,_,_,588,ADP,Sa,case
586,3503-3511,"2.179,91",_,_,_,_,_,588,NUM,Mdc,nummod
587,3512-3517,točka,_,_,_,_,_,585,NOUN,Ncfpa,obl
588,3518-3519,.,_,_,_,_,_,577,PUNCT,Z,punct
589,3520-3524,tudi,_,_,_,_,_,599,PART,Q,advmod
590,3525-3533,vrednost,_,_,_,_,_,599,NOUN,Ncfsn,nsubj
591,3534-3541,indeks,_,_,_,_,_,591,NOUN,Ncmsg,nmod
592,3542-3546,ftse,_,_,_,_,_,592,NOUN,Ncmsg,nmod
593,3547-3550,100,_,_,_,_,_,593,NUM,Mdc,nummod
594,3551-3552,v,_,_,_,_,_,597,ADP,Sl,case
595,3553-3559,velik,LOC[14],0,*->22-1,*[22],3 - Nevtralno[24],597,ADJ,Agpfsl,amod
596,3560-3569,Britanija,LOC[14],0,*->22-1,*[22],3 - Nevtralno[24],593,PROPN,Npfsl,nmod
597,3570-3572,biti,_,_,_,_,_,599,AUX,Va-r3s-n,aux
598,3573-3578,pasti,_,_,_,_,_,583,VERB,Vmep-sf,parataxis
599,3579-3581,za,_,_,_,_,_,602,ADP,Sa,case
600,3582-3587,štirje,_,_,_,_,_,602,NUM,Mlcmpa,nummod
601,3588-3596,odstotek,_,_,_,_,_,599,NOUN,Ncmpa,obl
602,3597-3598,.,_,_,_,_,_,599,PUNCT,Z,punct
603,3599-3604,pasti,_,_,_,_,_,19,VERB,Vmep-sf,parataxis
604,3605-3609,tudi,_,_,_,_,_,604,PART,Q,advmod
605,3610-3614,cena,_,_,_,_,_,599,NOUN,Ncfsn,nsubj
606,3615-3620,nafta,_,_,_,_,_,606,NOUN,Ncfsg,nmod
607,3621-3625,zlom,_,_,_,_,_,606,NOUN,Ncmsn,nmod
608,3626-3631,banka,_,_,_,_,_,608,NOUN,Ncfsg,nmod
609,3632-3638,Lehman,ORG[15],2,*->14-8,*[14],2 - Negativno[25],609,PROPN,Npmsg,nmod
610,3639-3647,Brothers,ORG[15],2,*->14-8,*[14],2 - Negativno[25],610,PROPN,Npmsn,flat:name
611,3648-3650,biti,_,_,_,_,_,613,AUX,Va-r3s-n,aux
612,3651-3658,vplivati,_,_,_,_,_,604,VERB,Vmpp-sm,advcl
613,3659-3663,tudi,_,_,_,_,_,613,PART,Q,advmod
614,3664-3666,na,_,_,_,_,_,616,ADP,Sa,case
615,3667-3669,ta,_,_,_,_,_,613,DET,Pd-nsa,obl
616,3670-3671,",",_,_,_,_,_,622,PUNCT,Z,punct
617,3672-3674,da,_,_,_,_,_,622,SCONJ,Cs,mark
618,3675-3677,biti,_,_,_,_,_,622,AUX,Va-r3s-n,aux
619,3678-3682,cena,_,_,_,_,_,622,NOUN,Ncfsn,nsubj
620,3683-3688,nafta,_,_,_,_,_,620,NOUN,Ncfsg,nmod
621,3689-3694,pasti,_,_,_,_,_,616,VERB,Vmep-sf,acl
622,3695-3697,na,_,_,_,_,_,625,ADP,Sa,case
623,3698-3706,nizek,_,_,_,_,_,625,ADJ,Agsfsa,amod
624,3707-3715,vrednost,_,_,_,_,_,622,NOUN,Ncfsa,obl
625,3716-3717,v,_,_,_,_,_,629,ADP,Sl,case
626,3718-3725,zadnji,_,_,_,_,_,629,ADJ,Agpmpl,amod
627,3726-3732,sedem,_,_,_,_,_,629,NUM,Mlc-pl,nummod
628,3733-3740,mesec,_,_,_,_,_,622,NOUN,Ncmpl,obl
629,3741-3742,.,_,_,_,_,_,613,PUNCT,Z,punct
630,3743-3747,cena,_,_,_,_,_,640,NOUN,Ncfsn,nsubj
631,3748-3756,ameriški,_,_,_,_,_,634,ADJ,Agpfsg,amod
632,3757-3762,lahek,_,_,_,_,_,634,ADJ,Agpfsg,amod
633,3763-3768,nafta,_,_,_,_,_,631,NOUN,Ncfsg,nmod
634,3769-3771,biti,_,_,_,_,_,640,AUX,Va-r3s-n,cop
635,3772-3776,tako,_,_,_,_,_,637,ADV,Rgp,advmod
636,3777-3781,manj,_,_,_,_,_,640,DET,Rgc,advmod
637,3782-3785,kot,_,_,_,_,_,637,SCONJ,Cs,fixed
638,3786-3788,93,_,_,_,_,_,640,NUM,Mdc,nummod
639,3789-3797,dolar,_,_,_,_,_,629,NOUN,Ncmpg,acl
640,3798-3800,za,_,_,_,_,_,645,ADP,Sa,case
641,3801-3804,159,_,_,_,_,_,644,NUM,Mdc,nummod
642,3805-3806,-,_,_,_,_,_,644,PUNCT,Z,punct
643,3807-3814,litrski,_,_,_,_,_,645,ADJ,Agpmsay,amod
644,3815-3821,sodček,_,_,_,_,_,640,NOUN,Ncmsan,nmod
645,3822-3823,",",_,_,_,_,_,650,PUNCT,Z,punct
646,3824-3829,nafta,_,_,_,_,_,650,NOUN,Ncfsn,nsubj
647,3830-3835,brent,_,_,_,_,_,647,PROPN,Npmsn,nmod
648,3836-3838,pa,_,_,_,_,_,650,CCONJ,Cc,advmod
649,3839-3844,stati,_,_,_,_,_,640,VERB,Vmpr3s,acl
650,3845-3854,približno,_,_,_,_,_,652,ADV,Rgp,advmod
651,3855-3860,"91,40",_,_,_,_,_,653,NUM,Mdc,nummod
652,3861-3868,dolar,_,_,_,_,_,650,NOUN,Ncmsg,obl
653,3869-3870,.,_,_,_,_,_,640,PUNCT,Z,punct
654,3871-3874,Fed,ORG,_,*->23-2,*[23],_,659,PROPN,Npmsn,nmod
655,3875-3880,danes,_,_,_,_,_,678,ADV,Rgp,advmod
656,3881-3882,o,_,_,_,_,_,659,ADP,Sl,case
657,3883-3891,obresten,_,_,_,_,_,659,ADJ,Agpfsl,amod
658,3892-3896,mera,_,_,_,_,_,678,NOUN,Ncfsl,obl
659,3897-3902,odbor,_,_,*->23-3,*[23],_,678,NOUN,Ncmsn,nsubj
660,3903-3905,za,_,_,*->23-3,*[23],_,663,ADP,Sa,case
661,3906-3912,odprt,_,_,*->23-3,*[23],_,663,ADJ,Appmsay,amod
662,3913-3916,trg,_,_,*->23-3,*[23],_,660,NOUN,Ncmsan,nmod
663,3917-3925,ameriški,_,_,*->23-3,*[23],_,666,ADJ,Agpfsg,amod
664,3926-3935,centralen,_,_,*->23-3,*[23],_,666,ADJ,Agpfsg,amod
665,3936-3941,banka,_,_,*->23-3,*[23],_,663,NOUN,Ncfsg,nmod
666,3942-3949,Federal,ORG[16],_,*->23-3,*[23],_,666,PROPN,Npmsn,nmod
667,3950-3957,Reserve,ORG[16],_,*->23-3,*[23],_,666,PROPN,Npfsg,nmod
668,3958-3960,biti,_,_,_,_,_,678,AUX,Va-f3s-n,aux
669,3961-3966,danes,_,_,_,_,_,678,ADV,Rgp,advmod
670,3967-3968,v,_,_,_,_,_,672,ADP,Sl,case
671,3969-3973,luč,_,_,_,_,_,678,NOUN,Ncfsl,obl
672,3974-3981,zadnji,_,_,_,_,_,674,ADJ,Agpmpg,amod
673,3982-3991,pretres,_,_,_,_,_,672,NOUN,Ncmpg,nmod
674,3992-3994,na,_,_,_,_,_,677,ADP,Sl,case
675,3995-4004,finančen,_,_,_,_,_,677,ADJ,Agpmpl,amod
676,4005-4010,trg,_,_,_,_,_,678,NOUN,Ncmpl,obl
677,4011-4018,odločati,_,_,_,_,_,653,VERB,Vmpp-sm,acl
678,4019-4020,o,_,_,_,_,_,681,ADP,Sl,case
679,4021-4029,obrest,_,_,_,_,_,681,ADJ,Agpfpl,amod
680,4030-4035,mera,_,_,_,_,_,678,NOUN,Ncfpl,obl
681,4036-4037,.,_,_,_,_,_,690,PUNCT,Z,punct
682,4038-4040,po,_,_,_,_,_,684,ADP,Sl,case
683,4041-4054,pričakovanje,_,_,_,_,_,690,NOUN,Ncnpl,obl
684,4055-4057,biti,_,_,_,_,_,690,AUX,Va-f3s-n,aux
685,4058-4061,Fed,ORG,0,*->23-4,*[23],3 - Nevtralno,690,PROPN,Npmsn,obj
686,4062-4069,ključen,_,_,_,_,_,689,ADJ,Agpfsa,amod
687,4070-4078,obresten,_,_,_,_,_,689,ADJ,Agpfsa,amod
688,4079-4083,mera,_,_,_,_,_,690,NOUN,Ncfsa,obj
689,4084-4091,ohraniti,_,_,_,_,_,678,VERB,Vmep-sm,conj
690,4092-4095,pri,_,_,_,_,_,693,ADP,Sl,case
691,4096-4100,dva,_,_,_,_,_,693,NUM,Mlcmdl,nummod
692,4101-4110,odstotek,_,_,_,_,_,690,NOUN,Ncmdl,obl
693,4111-4112,",",_,_,_,_,_,702,PUNCT,Z,punct
694,4113-4117,kjer,_,_,_,_,_,702,SCONJ,Cs,mark
695,4118-4120,biti,_,_,_,_,_,702,AUX,Va-f3s-n,aux
696,4121-4129,obresten,_,_,_,_,_,698,ADJ,Agpfsn,amod
697,4130-4134,mera,_,_,_,_,_,702,NOUN,Ncfsn,nsubj
698,4135-4137,po,_,_,_,_,_,701,ADP,Sl,case
699,4138-4142,ves,_,_,_,_,_,701,DET,Pg-fsl,det
700,4143-4154,verjetnost,_,_,_,_,_,702,NOUN,Ncfsl,obl
701,4155-4161,ostati,_,_,_,_,_,693,VERB,Vmep-sf,acl
702,4162-4164,do,_,_,_,_,_,704,ADP,Sg,case
703,4165-4170,konec,_,_,_,_,_,702,NOUN,Ncmsg,obl
704,4171-4175,leto,_,_,_,_,_,704,NOUN,Ncnsg,nmod
