idx,chars_idx,token,entity_type,sentiment,idk_1,idk_2,orig_sentiment,heads,upos,xpos,deprel
0,0-8,priprava,_,_,_,_,_,14,NOUN,Ncfpa,obj
1,9-11,na,_,_,_,_,_,4,ADP,Sa,case
2,12-20,aprilski,_,_,_,_,_,4,ADJ,Agpmsay,amod
3,21-24,vrh,_,_,_,_,_,1,NOUN,Ncmsan,nmod
4,25-26,v,_,_,_,_,_,6,ADP,Sl,case
5,27-34,London,LOC,_,*->1-1,*[1],_,4,PROPN,Npmsl,nmod
6,35-43,finančen,_,_,_,_,_,8,ADJ,Agpmpn,amod
7,44-52,minister,_,_,_,_,_,14,NOUN,Ncmpn,nsubj
8,53-60,skupina,_,_,_,_,_,8,NOUN,Ncfsg,nmod
9,61-62,G,_,_,_,_,_,9,PROPN,Npmsn,nmod
10,63-64,-,_,_,_,_,_,10,PUNCT,Z,punct
11,65-67,20,_,_,_,_,_,10,NUM,Mdc,nummod
12,68-70,biti,_,_,_,_,_,14,AUX,Va-r3p-n,aux
13,71-81,napovedati,_,_,_,_,_,61,VERB,Vmep-pm,advcl
14,82-90,vztrajen,_,_,_,_,_,16,ADJ,Agpmpa,amod
15,91-97,napor,_,_,_,_,_,14,NOUN,Ncmpa,obj
16,98-100,za,_,_,_,_,_,18,ADP,Sa,case
17,101-108,rešitev,_,_,_,_,_,16,NOUN,Ncfsa,nmod
18,109-117,svetoven,_,_,_,_,_,21,ADJ,Agpfsg,amod
19,118-129,gospodarski,_,_,_,_,_,21,ADJ,Agpfsg,amod
20,130-135,kriza,_,_,_,_,_,18,NOUN,Ncfsg,nmod
21,136-137,.,_,_,_,_,_,14,PUNCT,Z,punct
22,138-145,skupina,_,_,_,_,_,32,NOUN,Ncfsn,nsubj
23,146-153,najbolj,_,_,_,_,_,25,ADV,Rgs,advmod
24,154-162,razvit,_,_,_,_,_,26,ADJ,Agpfpg,amod
25,163-168,država,_,_,_,_,_,23,NOUN,Ncfpg,nmod
26,169-171,in,_,_,_,_,_,29,CCONJ,Cc,cc
27,172-181,velik,_,_,_,_,_,29,ADJ,Agsfpg,amod
28,182-187,država,_,_,_,_,_,26,NOUN,Ncfpg,conj
29,188-189,v,_,_,_,_,_,31,ADP,Sl,case
30,190-197,razvoj,_,_,_,_,_,32,NOUN,Ncmsl,obl
31,198-201,imeti,_,_,_,_,_,14,VERB,Vmpr3s-n,parataxis
32,202-206,pred,_,_,_,_,_,35,ADP,Si,case
33,207-216,aprilski,_,_,_,_,_,35,ADJ,Agpmsi,amod
34,217-222,vrh,_,_,_,_,_,32,NOUN,Ncmsi,obl
35,223-224,v,_,_,_,_,_,37,ADP,Sl,case
36,225-232,London,LOC,_,*->1-2,*[1],_,35,PROPN,Npmsl,nmod
37,233-238,jasen,_,_,_,_,_,39,ADJ,Agpfsa,amod
38,239-248,usmeritev,_,_,_,_,_,32,NOUN,Ncfsa,obj
39,249-251,in,_,_,_,_,_,42,CCONJ,Cc,cc
40,252-254,biti,_,_,_,_,_,42,AUX,Va-f3s-n,aux
41,255-263,sprejeti,_,_,_,_,_,32,VERB,Vmep-sf,conj
42,264-267,ves,_,_,_,_,_,44,DET,Pg-mpa,det
43,268-274,ukrep,_,_,_,_,_,42,NOUN,Ncmpa,obj
44,275-276,",",_,_,_,_,_,46,PUNCT,Z,punct
45,277-285,potreben,_,_,_,_,_,44,ADJ,Agpmpa,amod
46,286-288,za,_,_,_,_,_,48,ADP,Sa,case
47,289-295,obnova,_,_,_,_,_,46,NOUN,Ncfsa,obl
48,296-306,svetoven,_,_,_,_,_,50,ADJ,Agpnsg,amod
49,307-319,gospodarstvo,_,_,_,_,_,48,NOUN,Ncnsg,nmod
50,320-321,",",_,_,_,_,_,46,PUNCT,Z,punct
51,322-324,biti,_,_,_,_,_,61,AUX,Va-r3s-n,aux
52,325-327,ob,_,_,_,_,_,54,ADP,Sl,case
53,328-333,konec,_,_,_,_,_,61,NOUN,Ncmsl,obl
54,334-345,dvodneven,_,_,_,_,_,56,ADJ,Agpnsg,amod
55,346-355,zasedanje,_,_,_,_,_,54,NOUN,Ncnsg,nmod
56,356-357,v,_,_,_,_,_,58,ADP,Sl,case
57,358-366,Horsham,LOC,0,*->7-1,*[7],3 - Nevtralno[7],56,PROPN,Npmsl,nmod
58,367-370,pri,_,0,*->7-1,*[7],3 - Nevtralno[7],60,ADP,Sl,case
59,371-378,London,LOC,0,*->7-1|*->1-3,*[7]|*[1],3 - Nevtralno[7]|3 - Nevtralno[8],58,PROPN,Npmsl,nmod
60,379-388,zagotoviti,_,_,_,_,_,0,VERB,Vmep-sm,root
61,389-398,britanski,_,0,*->8-1,*[8],3 - Nevtralno[9],64,ADJ,Agpmsny,amod
62,399-407,finančen,_,0,*->8-1,*[8],3 - Nevtralno[9],64,ADJ,Agpmsny,amod
63,408-416,minister,_,0,*->8-1,*[8],3 - Nevtralno[9],61,NOUN,Ncmsn,nsubj
64,417-425,Alistair,PER[1],0,*->8-1,*[8],3 - Nevtralno[9],64,PROPN,Npmsn,nmod
65,426-433,Darling,PER[1],0,*->8-1,*[8],3 - Nevtralno[9],65,PROPN,Npmsn,flat:name
66,434-435,.,_,_,_,_,_,69,PUNCT,Z,punct
67,436-439,IMF,ORG,_,*->2-1,*[2],_,69,PROPN,Npmsn,nsubj
68,440-449,potrebovati,_,_,_,_,_,61,VERB,Vmpr3s,parataxis
69,450-453,več,_,_,_,_,_,71,DET,Rgc,det
70,454-461,denar,_,_,_,_,_,69,NOUN,Ncmsg,obj
71,462-470,minister,_,_,_,_,_,74,NOUN,Ncmpn,nsubj
72,471-473,biti,_,_,_,_,_,74,AUX,Va-r3p-n,aux
73,474-483,opozoriti,_,_,_,_,_,69,VERB,Vmep-pm,conj
74,484-485,",",_,_,_,_,_,78,PUNCT,Z,punct
75,486-488,da,_,_,_,_,_,78,SCONJ,Cs,mark
76,489-491,biti,_,_,_,_,_,78,AUX,Va-r3s-n,cop
77,492-497,nujen,_,_,_,_,_,74,ADJ,Agpnsn,ccomp
78,498-506,bistven,_,_,_,_,_,80,ADJ,Agpnsn,amod
79,507-516,povečanje,_,_,_,_,_,78,NOUN,Ncnsn,nsubj
80,517-525,sredstvo,_,_,_,_,_,80,NOUN,Ncnpg,nmod
81,526-538,mednaroden,ORG[2],0,*->2-2,*[2],3 - Nevtralno[10],84,ADJ,Agpmsg,amod
82,539-548,denaren,ORG[2],0,*->2-2,*[2],3 - Nevtralno[10],84,ADJ,Agpmsg,amod
83,549-555,sklad,ORG[2],0,*->2-2,*[2],3 - Nevtralno[10],81,NOUN,Ncmsg,nmod
84,556-559,IMF,ORG[2],0,*->2-2,*[2],3 - Nevtralno[10],84,PROPN,Npmsn,nmod
85,560-562,za,_,_,_,_,_,87,ADP,Sa,case
86,563-575,kreditiranje,_,_,_,_,_,84,NOUN,Ncnsa,nmod
87,576-581,država,_,_,_,_,_,87,NOUN,Ncfpg,nmod
88,582-583,",",_,_,_,_,_,93,PUNCT,Z,punct
89,584-586,ki,_,_,_,_,_,93,SCONJ,Cs,mark
90,587-589,biti,_,_,_,_,_,93,AUX,Va-r3p-n,aux
91,590-592,se,_,_,_,_,_,93,PRON,Px------y,expl
92,593-599,znajti,_,_,_,_,_,88,VERB,Vmep-pf,acl
93,600-601,v,_,_,_,_,_,96,ADP,Sl,case
94,602-611,finančen,_,_,_,_,_,96,ADJ,Agpfpl,amod
95,612-619,težava,_,_,_,_,_,93,NOUN,Ncfpl,obl
96,620-621,",",_,_,_,_,_,93,PUNCT,Z,punct
97,622-628,vendar,_,_,_,_,_,101,CCONJ,Cc,cc
98,629-631,pa,_,_,_,_,_,101,CCONJ,Cc,advmod
99,632-636,biti,_,_,_,_,_,101,AUX,Va-r3p-y,aux
100,637-644,navesti,_,_,_,_,_,93,VERB,Vmep-pm,conj
101,645-655,konkreten,_,_,_,_,_,103,ADJ,Agpfpg,amod
102,656-663,številka,_,_,_,_,_,101,NOUN,Ncfpg,obj
103,664-665,.,_,_,_,_,_,101,PUNCT,Z,punct
104,666-675,strinjati,_,_,_,_,_,61,VERB,Vmpp-pm,parataxis
105,676-678,biti,_,_,_,_,_,105,AUX,Va-r3p-n,aux
106,679-681,se,_,_,_,_,_,105,PRON,Px------y,expl
107,682-683,",",_,_,_,_,_,110,PUNCT,Z,punct
108,684-686,da,_,_,_,_,_,110,SCONJ,Cs,mark
109,687-689,biti,_,_,_,_,_,105,VERB,Va-r3s-n,ccomp
110,690-695,treba,_,_,_,_,_,110,ADV,Rgp,advmod
111,696-704,okrepiti,_,_,_,_,_,110,VERB,Vmen,csubj
112,705-716,regulativen,_,_,_,_,_,114,ADJ,Agpmsay,amod
113,717-723,nadzor,_,_,_,_,_,112,NOUN,Ncmsan,obj
114,724-727,nad,_,_,_,_,_,118,ADP,Si,case
115,728-733,ves,_,_,_,_,_,118,DET,Pg-fpi,det
116,734-745,boniteten,_,_,_,_,_,118,ADJ,Agpfpi,amod
117,746-752,hiša,_,_,_,_,_,114,NOUN,Ncfpi,nmod
118,753-754,",",_,_,_,_,_,125,PUNCT,Z,punct
119,755-757,ki,_,_,_,_,_,125,SCONJ,Cs,mark
120,758-760,na,_,_,_,_,_,122,ADP,Sl,case
121,761-767,osnova,_,_,_,_,_,125,NOUN,Ncfsl,obl
122,768-773,ocena,_,_,_,_,_,122,NOUN,Ncfsg,nmod
123,774-781,tveganje,_,_,_,_,_,123,NOUN,Ncnpg,nmod
124,782-790,določati,_,_,_,_,_,118,VERB,Vmpr3p,acl
125,791-799,vrednost,_,_,_,_,_,125,NOUN,Ncfsa,obj
126,800-810,posamezen,_,_,_,_,_,129,ADJ,Agpfpg,amod
127,811-820,finančen,_,_,_,_,_,129,ADJ,Agpfpg,amod
128,821-827,naložba,_,_,_,_,_,126,NOUN,Ncfpg,nmod
129,828-829,",",_,_,_,_,_,125,PUNCT,Z,punct
130,830-833,saj,_,_,_,_,_,136,CCONJ,Cc,cc
131,834-836,biti,_,_,_,_,_,136,AUX,Va-r3p-n,aux
132,837-838,v,_,_,_,_,_,135,ADP,Sl,case
133,839-846,zadnji,_,_,_,_,_,135,ADJ,Agpmpl,amod
134,847-854,mesec,_,_,_,_,_,136,NOUN,Ncmpl,obl
135,855-862,postati,_,_,_,_,_,125,VERB,Vmep-pf,conj
136,863-868,tarča,_,_,_,_,_,136,NOUN,Ncfsn,nsubj
137,869-875,kritik,_,_,_,_,_,137,NOUN,Ncfpg,nmod
138,876-877,",",_,_,_,_,_,146,PUNCT,Z,punct
139,878-881,ker,_,_,_,_,_,146,SCONJ,Cs,mark
140,882-893,vlagatelj,_,_,_,_,_,146,NOUN,Ncmpg,obj
141,894-898,biti,_,_,_,_,_,146,AUX,Va-r3p-y,aux
142,899-909,pravočasno,_,_,_,_,_,146,ADV,Rgp,advmod
143,910-912,in,_,_,_,_,_,145,CCONJ,Cc,cc
144,913-921,ustrezno,_,_,_,_,_,143,ADV,Rgp,conj
145,922-932,seznanjati,_,_,_,_,_,136,VERB,Vmpp-pf,advcl
146,933-934,z,_,_,_,_,_,148,ADP,Si,case
147,935-946,nevarnost,_,_,_,_,_,146,NOUN,Ncfpi,obl
148,947-953,visoko,_,_,_,_,_,150,ADV,Rgp,advmod
149,954-962,tvegan,_,_,_,_,_,151,ADJ,Appfpg,amod
150,963-969,naložba,_,_,_,_,_,148,NOUN,Ncfpg,nmod
151,970-971,.,_,_,_,_,_,61,PUNCT,Z,punct
152,972-982,voditelj,_,_,_,_,_,159,NOUN,Ncmpd,iobj
153,983-984,G,_,_,_,_,_,153,NOUN,Ncmsn,nmod
154,985-986,-,_,_,_,_,_,159,PUNCT,Z,punct
155,987-989,20,_,_,_,_,_,154,NUM,Mdc,nummod
156,990-992,biti,_,_,_,_,_,159,AUX,Va-r3p-n,aux
157,993-1001,minister,_,_,_,_,_,159,NOUN,Ncmpn,nsubj
158,1002-1012,predlagati,_,_,_,_,_,61,VERB,Vmbp-pm,parataxis
159,1013-1014,",",_,_,_,_,_,165,PUNCT,Z,punct
160,1015-1017,da,_,_,_,_,_,165,SCONJ,Cs,mark
161,1018-1020,na,_,_,_,_,_,164,ADP,Sl,case
162,1021-1030,aprilski,_,_,_,_,_,164,ADJ,Agpmsl,amod
163,1031-1035,vrh,_,_,_,_,_,165,NOUN,Ncmsl,obl
164,1036-1044,doseči,_,_,_,_,_,159,VERB,Vmer3p,ccomp
165,1045-1052,dogovor,_,_,_,_,_,165,NOUN,Ncmsan,obj
166,1053-1054,o,_,_,_,_,_,169,ADP,Sl,case
167,1055-1063,ustrezen,_,_,_,_,_,169,ADJ,Agpfsl,amod
168,1064-1071,stopnja,_,_,_,_,_,166,NOUN,Ncfsl,nmod
169,1072-1082,regulacija,_,_,_,_,_,169,NOUN,Ncfsg,nmod
170,1083-1085,in,_,_,_,_,_,172,CCONJ,Cc,cc
171,1086-1093,nadzor,_,_,_,_,_,170,NOUN,Ncmsg,conj
172,1094-1097,nad,_,_,_,_,_,176,ADP,Si,case
173,1098-1108,pomemben,_,_,_,_,_,176,ADJ,Agpfpi,amod
174,1109-1119,finančen,_,_,_,_,_,176,ADJ,Agpfpi,amod
175,1120-1133,institucija,_,_,_,_,_,172,NOUN,Ncfpi,nmod
176,1134-1135,",",_,_,_,_,_,178,PUNCT,Z,punct
177,1136-1140,trg,_,_,_,_,_,176,NOUN,Ncmpi,conj
178,1141-1143,in,_,_,_,_,_,180,CCONJ,Cc,cc
179,1144-1155,instrument,_,_,_,_,_,176,NOUN,Ncmpi,conj
180,1156-1157,.,_,_,_,_,_,165,PUNCT,Z,punct
181,1158-1163,glede,_,_,_,_,_,183,ADP,Sg,case
182,1164-1165,t,_,_,_,_,_,185,NOUN,Ncmsn,nmod
183,1166-1167,.,_,_,_,_,_,165,PUNCT,Z,punct
184,1168-1169,i,_,_,_,_,_,180,NOUN,Ncmsn,nmod
185,1170-1171,.,_,_,_,_,_,185,PUNCT,Z,punct
186,1172-1177,hedga,_,_,_,_,_,188,NOUN,Ncmsn,nmod
187,1178-1185,sklad,_,_,_,_,_,185,NOUN,Ncmpg,nmod
188,1186-1188,biti,_,_,_,_,_,191,AUX,Va-r3p-n,aux
189,1189-1191,se,_,_,_,_,_,191,PRON,Px------y,expl
190,1192-1201,strinjati,_,_,_,_,_,61,VERB,Vmpp-pm,parataxis
191,1202-1203,",",_,_,_,_,_,195,PUNCT,Z,punct
192,1204-1206,da,_,_,_,_,_,195,SCONJ,Cs,mark
193,1207-1210,on,_,_,_,_,_,197,PRON,Pp3mpa--y,obj
194,1211-1213,biti,_,_,_,_,_,191,VERB,Va-r3s-n,ccomp
195,1214-1219,treba,_,_,_,_,_,195,ADV,Rgp,advmod
196,1220-1232,registrirati,_,_,_,_,_,195,VERB,Vmbn,csubj
197,1233-1236,ter,_,_,_,_,_,199,CCONJ,Cc,cc
198,1237-1245,razkriti,_,_,_,_,_,197,VERB,Vmen,conj
199,1246-1249,ves,_,_,_,_,_,201,DET,Pg-mpa,det
200,1250-1257,podatek,_,_,_,_,_,199,NOUN,Ncmpa,obj
201,1258-1259,",",_,_,_,_,_,203,PUNCT,Z,punct
202,1260-1268,potreben,_,_,_,_,_,201,ADJ,Agpfpa,amod
203,1269-1271,za,_,_,_,_,_,205,ADP,Sa,case
204,1272-1277,ocena,_,_,_,_,_,203,NOUN,Ncfsa,obl
205,1278-1285,tveganje,_,_,_,_,_,205,NOUN,Ncnpg,nmod
206,1286-1287,",",_,_,_,_,_,210,PUNCT,Z,punct
207,1288-1290,ki,_,_,_,_,_,210,SCONJ,Cs,mark
208,1291-1294,on,_,_,_,_,_,210,PRON,Pp3mpa--y,obj
209,1295-1308,predstavljati,_,_,_,_,_,206,VERB,Vmpr3p,acl
210,1309-1310,.,_,_,_,_,_,195,PUNCT,Z,punct
211,1311-1319,minister,_,_,_,_,_,215,NOUN,Ncmpn,nsubj
212,1320-1322,biti,_,_,_,_,_,215,AUX,Va-r3p-n,aux
213,1323-1325,se,_,_,_,_,_,215,PRON,Px------y,expl
214,1326-1334,zavezati,_,_,_,_,_,191,VERB,Vmpp-pm,parataxis
215,1335-1336,",",_,_,_,_,_,219,PUNCT,Z,punct
216,1337-1339,da,_,_,_,_,_,219,SCONJ,Cs,mark
217,1340-1344,biti,_,_,_,_,_,219,AUX,Va-f3p-n,aux
218,1345-1353,ohraniti,_,_,_,_,_,215,VERB,Vmep-pm,ccomp
219,1354-1365,ekspanziven,_,_,_,_,_,222,ADJ,Agpfpa,amod
220,1366-1375,monetaren,_,_,_,_,_,222,ADJ,Agpfpa,amod
221,1376-1384,politika,_,_,_,_,_,219,NOUN,Ncfpa,obj
222,1385-1386,",",_,_,_,_,_,230,PUNCT,Z,punct
223,1387-1389,ki,_,_,_,_,_,230,SCONJ,Cs,mark
224,1390-1394,prek,_,_,_,_,_,226,ADP,Sg,case
225,1395-1405,zniževanje,_,_,_,_,_,230,NOUN,Ncnsg,obl
226,1406-1415,obresten,_,_,_,_,_,228,ADJ,Agpfpg,amod
227,1416-1419,mera,_,_,_,_,_,226,NOUN,Ncfpg,nmod
228,1420-1429,pozitiven,_,_,_,_,_,230,ADV,Rgp,advmod
229,1430-1438,vplivati,_,_,_,_,_,222,VERB,Vmpr3p,acl
230,1439-1441,na,_,_,_,_,_,233,ADP,Sa,case
231,1442-1453,gospodarski,_,_,_,_,_,233,ADJ,Agpfsa,amod
232,1454-1463,aktivnost,_,_,_,_,_,230,NOUN,Ncfsa,obl
233,1464-1465,.,_,_,_,_,_,219,PUNCT,Z,punct
234,1466-1475,strinjati,_,_,_,_,_,215,VERB,Vmpp-pm,parataxis
235,1476-1478,biti,_,_,_,_,_,235,AUX,Va-r3p-n,aux
236,1479-1481,se,_,_,_,_,_,235,PRON,Px------y,expl
237,1482-1483,",",_,_,_,_,_,258,PUNCT,Z,punct
238,1484-1486,da,_,_,_,_,_,242,SCONJ,Cs,mark
239,1487-1489,biti,_,_,_,_,_,242,AUX,Va-r3s-n,cop
240,1490-1497,ključen,_,_,_,_,_,242,ADJ,Agpfsn,amod
241,1498-1508,prioriteta,_,_,_,_,_,219,NOUN,Ncfsn,nsubj
242,1509-1517,obnoviti,_,_,_,_,_,242,VERB,Vmen,csubj
243,1518-1526,krediten,_,_,_,_,_,245,ADJ,Agpfsa,amod
244,1527-1536,dejavnost,_,_,_,_,_,243,NOUN,Ncfsa,obj
245,1537-1541,banka,_,_,_,_,_,245,NOUN,Ncfpg,nmod
246,1542-1544,in,_,_,_,_,_,248,CCONJ,Cc,cc
247,1545-1553,ponoviti,_,_,_,_,_,243,VERB,Vmep-pm,conj
248,1554-1559,svoj,_,_,_,_,_,250,DET,Px-fsa,det
249,1560-1570,zavezanost,_,_,_,_,_,248,NOUN,Ncfsa,obj
250,1571-1577,pomoč,_,_,_,_,_,250,NOUN,Ncfsg,nmod
251,1578-1585,država,_,_,_,_,_,251,NOUN,Ncfpd,nmod
252,1586-1587,v,_,_,_,_,_,254,ADP,Sl,case
253,1588-1595,razvoj,_,_,_,_,_,252,NOUN,Ncmsl,nmod
254,1596-1597,",",_,_,_,_,_,258,PUNCT,Z,punct
255,1598-1600,ki,_,_,_,_,_,258,SCONJ,Cs,mark
256,1601-1603,se,_,_,_,_,_,258,PRON,Px------y,expl
257,1604-1611,soočati,_,_,_,_,_,254,VERB,Vmpr3p,acl
258,1612-1613,z,_,_,_,_,_,260,ADP,Si,case
259,1614-1619,beg,_,_,_,_,_,258,NOUN,Ncmsi,obl
260,1620-1628,kapital,_,_,_,_,_,260,NOUN,Ncmsg,nmod
261,1629-1630,.,_,_,_,_,_,258,PUNCT,Z,punct
262,1631-1639,fiskalen,_,_,_,_,_,264,ADJ,Agpfsg,amod
263,1640-1648,spodbuda,_,_,_,_,_,261,NOUN,Ncfsg,conj
264,1649-1652,ali,_,_,_,_,_,266,CCONJ,Cc,cc
265,1653-1661,krepitev,_,_,_,_,_,264,NOUN,Ncfsa,conj
266,1662-1670,finančen,_,_,_,_,_,268,ADJ,Agpfsg,amod
267,1671-1681,regulacija,_,_,_,_,_,266,NOUN,Ncfsg,nmod
268,1682-1683,?,_,_,_,_,_,258,PUNCT,Z,punct
269,1684-1692,finančen,_,_,_,_,_,271,ADJ,Agpmpn,amod
270,1693-1701,minister,_,_,_,_,_,273,NOUN,Ncmpn,nsubj
271,1702-1704,biti,_,_,_,_,_,273,AUX,Va-r3p-n,aux
272,1705-1715,pripraviti,_,_,_,_,_,14,VERB,Vmep-pm,parataxis
273,1716-1724,smernica,_,_,_,_,_,273,NOUN,Ncfpa,obj
274,1725-1727,za,_,_,_,_,_,277,ADP,Sa,case
275,1728-1736,aprilski,_,_,_,_,_,277,ADJ,Agpnsa,amod
276,1737-1745,srečanje,_,_,_,_,_,274,NOUN,Ncnsa,nmod
277,1746-1756,voditelj,_,_,_,_,_,277,NOUN,Ncmpg,nmod
278,1757-1764,skupina,_,_,_,_,_,278,NOUN,Ncfsg,nmod
279,1765-1766,.,_,_,_,_,_,273,PUNCT,Z,punct
280,1767-1774,pogled,_,_,_,_,_,288,NOUN,Ncmpn,nsubj
281,1775-1777,na,_,_,_,_,_,283,ADP,Sa,case
282,1778-1784,spopad,_,_,_,_,_,281,NOUN,Ncmsan,nmod
283,1785-1786,z,_,_,_,_,_,286,ADP,Si,case
284,1787-1798,gospodarski,_,_,_,_,_,286,ADJ,Agpfsi,amod
285,1799-1804,kriza,_,_,_,_,_,283,NOUN,Ncfsi,nmod
286,1805-1807,se,_,_,_,_,_,288,PRON,Px------y,expl
287,1808-1819,razlikovati,_,_,_,_,_,14,VERB,Vmpr3p,parataxis
288,1820-1821,",",_,_,_,_,_,293,PUNCT,Z,punct
289,1822-1828,čeprav,_,_,_,_,_,293,SCONJ,Cs,mark
290,1829-1832,ves,_,_,_,_,_,292,DET,Pg-mpn,det
291,1833-1843,udeleženec,_,_,_,_,_,293,NOUN,Ncmpn,nsubj
292,1844-1854,poudarjati,_,_,_,_,_,288,VERB,Vmpr3p,advcl
293,1855-1865,odločenost,_,_,_,_,_,293,NOUN,Ncfsa,obj
294,1866-1868,za,_,_,_,_,_,297,ADP,Sa,case
295,1869-1877,usklajen,_,_,_,_,_,297,ADJ,Appmsan,amod
296,1878-1884,spopad,_,_,_,_,_,294,NOUN,Ncmsan,nmod
297,1885-1886,z,_,_,_,_,_,299,ADP,Si,case
298,1887-1890,on,_,_,_,_,_,297,PRON,Pp3fsi,nmod
299,1891-1892,.,_,_,_,_,_,293,PUNCT,Z,punct
300,1893-1899,medtem,_,_,_,_,_,308,ADV,Rgp,mark
301,1900-1902,ko,_,_,_,_,_,301,SCONJ,Cs,fixed
302,1903-1906,ZDA,ORG,0,*->9-1,*[9],3 - Nevtralno,308,PROPN,Npfpg,nsubj
303,1907-1908,",",_,_,_,_,_,305,PUNCT,Z,punct
304,1909-1917,Japonska,ORG,0,*->10-1,*[10],3 - Nevtralno,303,PROPN,Npfsn,conj
305,1918-1920,in,_,_,_,_,_,307,CCONJ,Cc,cc
306,1921-1929,Kitajska,ORG,_,*->3-1,*[3],_,303,PROPN,Npfsn,conj
307,1930-1941,zagovarjati,_,_,_,_,_,293,VERB,Vmpr3p,advcl
308,1942-1950,stališče,_,_,_,_,_,308,NOUN,Ncnsa,obj
309,1951-1952,",",_,_,_,_,_,318,PUNCT,Z,punct
310,1953-1956,naj,_,_,_,_,_,318,SCONJ,Cs,mark
311,1957-1963,država,_,_,_,_,_,318,NOUN,Ncfpn,nsubj
312,1964-1967,čim,_,_,_,_,_,314,ADV,Rgp,advmod
313,1968-1975,hitro,_,_,_,_,_,318,ADV,Rgc,advmod
314,1976-1978,in,_,_,_,_,_,316,CCONJ,Cc,cc
315,1979-1986,izdatno,_,_,_,_,_,314,ADV,Rgp,conj
316,1987-1995,finančen,_,_,_,_,_,318,ADV,Rgp,advmod
317,1996-2006,spodbujati,_,_,_,_,_,309,VERB,Vmpr3p,acl
318,2007-2019,gospodarstvo,_,_,_,_,_,318,NOUN,Ncnpa,obj
319,2020-2021,",",_,_,_,_,_,318,PUNCT,Z,punct
320,2022-2024,se,_,_,_,_,_,332,PRON,Px------y,expl
321,2025-2031,večina,_,_,_,_,_,332,NOUN,Ncfsn,nsubj
322,2032-2041,evropski,_,_,_,_,_,324,ADJ,Agpfpg,amod
323,2042-2051,partnerica,_,_,_,_,_,322,NOUN,Ncfpg,nmod
324,2052-2064,dvajseterica,_,_,_,_,_,324,NOUN,Ncfsg,nmod
325,2065-2066,z,_,_,_,_,_,328,ADP,Si,case
326,2067-2072,tak,_,_,_,_,_,328,DET,Pd-msi,det
327,2073-2080,način,_,_,_,_,_,332,NOUN,Ncmsi,obl
328,2081-2090,reševanje,_,_,_,_,_,328,NOUN,Ncnsg,nmod
329,2091-2096,kriza,_,_,_,_,_,329,NOUN,Ncfsg,nmod
330,2097-2099,ne,_,_,_,_,_,332,PART,Q,advmod
331,2100-2107,strinjati,_,_,_,_,_,319,VERB,Vmpr3s,acl
332,2108-2109,.,_,_,_,_,_,332,PUNCT,Z,punct
333,2110-2115,sicer,_,_,_,_,_,337,PART,Q,advmod
334,2116-2118,pa,_,_,_,_,_,337,CCONJ,Cc,advmod
335,2119-2121,se,_,_,_,_,_,337,PRON,Px------y,expl
336,2122-2129,članica,_,_,_,_,_,332,NOUN,Ncfpn,nsubj
337,2130-2131,G,_,_,_,_,_,337,NOUN,Ncmsn,nmod
338,2132-2133,-,_,_,_,_,_,340,PUNCT,Z,punct
339,2134-2136,20,_,_,_,_,_,338,NUM,Mdc,nummod
340,2137-2138,",",_,_,_,_,_,351,PUNCT,Z,punct
341,2139-2141,ki,_,_,_,_,_,351,SCONJ,Cs,mark
342,2142-2144,on,_,_,_,_,_,351,PRON,Pp3fsa--y,obj
343,2145-2150,poleg,_,_,_,_,_,345,ADP,Sg,case
344,2151-2160,sedmerica,_,_,_,_,_,351,NOUN,Ncfsg,obl
345,2161-2175,razvizek,_,_,_,_,_,347,ADJ,Agsfpg,amod
346,2176-2181,država,_,_,_,_,_,345,NOUN,Ncfpg,nmod
347,2182-2184,in,_,_,_,_,_,350,CCONJ,Cc,cc
348,2185-2193,evropski,ORG[3],0,*->11-1,*[11],3 - Nevtralno[11],350,ADJ,Agpfsg,amod
349,2194-2199,unija,ORG[3],0,*->11-1,*[11],3 - Nevtralno[11],347,NOUN,Ncfsg,conj
350,2200-2211,sestavljati,_,_,_,_,_,337,VERB,Vmpr3p,acl
351,2212-2214,še,_,_,_,_,_,351,PART,Q,advmod
352,2215-2221,Rusija,ORG,_,*->6-1,*[6],_,351,PROPN,Npfsn,nsubj
353,2222-2223,",",_,_,_,_,_,355,PUNCT,Z,punct
354,2224-2230,Indija,ORG,_,*->4-1,*[4],_,353,PROPN,Npfsn,conj
355,2231-2232,",",_,_,_,_,_,357,PUNCT,Z,punct
356,2233-2242,Brazilija,ORG,_,*->5-1,*[5],_,353,PROPN,Npfsn,conj
357,2243-2244,",",_,_,_,_,_,359,PUNCT,Z,punct
358,2245-2255,Indonezija,LOC,0,*->12-1,*[12],3 - Nevtralno,353,PROPN,Npfsn,conj
359,2256-2257,",",_,_,_,_,_,362,PUNCT,Z,punct
360,2258-2265,savdski,ORG[4],0,*->13-1,*[13],3 - Nevtralno[12],362,ADJ,Agpfsn,amod
361,2266-2273,Arabija,ORG[4],0,*->13-1,*[13],3 - Nevtralno[12],353,PROPN,Npfsn,conj
362,2274-2275,",",_,_,_,_,_,364,PUNCT,Z,punct
363,2276-2282,Mehika,ORG,0,*->14-1,*[14],3 - Nevtralno,353,PROPN,Npfsn,conj
364,2283-2284,",",_,_,_,_,_,366,PUNCT,Z,punct
365,2285-2292,Turčija,ORG,0,*->15-1,*[15],3 - Nevtralno,353,PROPN,Npfsn,conj
366,2293-2294,",",_,_,_,_,_,368,PUNCT,Z,punct
367,2295-2305,Avstrali,ORG,0,*->16-1,*[16],3 - Nevtralno,353,PROPN,Npfsn,conj
368,2306-2307,",",_,_,_,_,_,371,PUNCT,Z,punct
369,2308-2313,južen,ORG[5],0,*->17-1,*[17],3 - Nevtralno[13],371,ADJ,Agpfsn,amod
370,2314-2320,Korej,ORG[5],0,*->17-1,*[17],3 - Nevtralno[13],353,PROPN,Npfsn,conj
371,2321-2322,",",_,_,_,_,_,373,PUNCT,Z,punct
372,2323-2326,JAR,ORG,0,*->18-1,*[18],3 - Nevtralno,353,PROPN,Npmsn,conj
373,2327-2328,",",_,_,_,_,_,375,PUNCT,Z,punct
374,2329-2337,Kitajska,ORG,_,*->3-2,*[3],_,353,PROPN,Npfsn,conj
375,2338-2340,in,_,_,_,_,_,377,CCONJ,Cc,cc
376,2341-2350,Argentina,ORG,0,*->19-1,*[19],3 - Nevtralno,353,PROPN,Npfsn,conj
377,2351-2352,",",_,_,_,_,_,380,PUNCT,Z,punct
378,2353-2360,načelno,_,_,_,_,_,380,ADV,Rgp,advmod
379,2361-2370,strinjati,_,_,_,_,_,373,VERB,Vmpr3p,acl
380,2371-2372,",",_,_,_,_,_,383,PUNCT,Z,punct
381,2373-2375,da,_,_,_,_,_,383,SCONJ,Cs,mark
382,2376-2378,biti,_,_,_,_,_,380,VERB,Va-r3s-n,ccomp
383,2379-2384,treba,_,_,_,_,_,383,ADV,Rgp,advmod
384,2385-2396,vzpostaviti,_,_,_,_,_,383,VERB,Vmen,csubj
385,2397-2401,nov,_,_,_,_,_,389,ADJ,Agpmpa,amod
386,2402-2410,svetoven,_,_,_,_,_,389,ADJ,Agpmpa,amod
387,2411-2419,finančen,_,_,_,_,_,389,ADJ,Agpmpa,amod
388,2420-2429,mehanizem,_,_,_,_,_,385,NOUN,Ncmpa,obj
389,2430-2431,",",_,_,_,_,_,383,PUNCT,Z,punct
390,2432-2440,vključno,_,_,_,_,_,393,ADV,Rgp,advmod
391,2441-2442,z,_,_,_,_,_,393,ADP,Si,case
392,2443-2450,reforma,_,_,_,_,_,389,NOUN,Ncfsi,appos
393,2451-2463,mednaroden,ORG[6],0,*->20-1,*[20],3 - Nevtralno[14],396,ADJ,Agpmsg,amod
394,2464-2473,denaren,ORG[6],0,*->20-1,*[20],3 - Nevtralno[14],396,ADJ,Agpmsg,amod
395,2474-2480,sklad,ORG[6],0,*->20-1,*[20],3 - Nevtralno[14],393,NOUN,Ncmsg,nmod
396,2481-2483,in,_,_,_,_,_,398,CCONJ,Cc,cc
397,2484-2494,zagotoviti,_,_,_,_,_,385,VERB,Vmen,conj
398,2495-2507,pregleden,_,_,_,_,_,400,ADJ,Agcnsa,amod
399,2508-2517,delovanje,_,_,_,_,_,398,NOUN,Ncnsa,obj
400,2518-2519,t,_,_,_,_,_,400,NOUN,Ncmsn,nmod
401,2520-2521,.,_,_,_,_,_,380,PUNCT,Z,punct
402,2522-2523,i,_,_,_,_,_,406,NOUN,Ncmsn,nmod
403,2524-2525,.,_,_,_,_,_,380,PUNCT,Z,punct
404,2526-2535,finančen,_,_,_,_,_,406,ADJ,Agpmpg,amod
405,2536-2545,paradiž,_,_,_,_,_,400,NOUN,Ncmpg,nmod
406,2546-2547,.,_,_,_,_,_,410,PUNCT,Z,punct
407,2548-2551,kot,_,_,_,_,_,410,SCONJ,Cs,mark
408,2552-2554,biti,_,_,_,_,_,410,AUX,Va-r3s-n,cop
409,2555-2560,znan,_,_,_,_,_,406,ADJ,Appnsn,acl
410,2561-2562,",",_,_,_,_,_,410,PUNCT,Z,punct
411,2563-2565,biti,_,_,_,_,_,419,AUX,Va-r3p-n,aux
412,2566-2571,Švica,ORG,0,*->21-1,*[21],3 - Nevtralno,419,PROPN,Npfsn,nsubj
413,2572-2573,",",_,_,_,_,_,415,PUNCT,Z,punct
414,2574-2584,Luksemburg,ORG,0,*->22-1,*[22],3 - Nevtralno,413,PROPN,Npmsn,conj
415,2585-2587,in,_,_,_,_,_,417,CCONJ,Cc,cc
416,2588-2596,Avstrija,ORG,0,*->23-1,*[23],3 - Nevtralno,413,PROPN,Npfsn,conj
417,2597-2603,včeraj,_,_,_,_,_,419,ADV,Rgp,advmod
418,2604-2614,napovedati,_,_,_,_,_,410,VERB,Vmep-pm,csubj
419,2615-2616,",",_,_,_,_,_,423,PUNCT,Z,punct
420,2617-2619,da,_,_,_,_,_,423,SCONJ,Cs,mark
421,2620-2624,biti,_,_,_,_,_,423,AUX,Va-f3p-n,aux
422,2625-2632,omiliti,_,_,_,_,_,419,VERB,Vmep-pm,ccomp
423,2633-2640,pravilo,_,_,_,_,_,423,NOUN,Ncnpa,obj
424,2641-2642,o,_,_,_,_,_,427,ADP,Sl,case
425,2643-2649,bančen,_,_,_,_,_,427,ADJ,Agpfsl,amod
426,2650-2658,tajnost,_,_,_,_,_,424,NOUN,Ncfsl,nmod
427,2659-2660,.,_,_,_,_,_,419,PUNCT,Z,punct
428,2661-2669,minister,_,_,_,_,_,419,NOUN,Ncmpn,nsubj
429,2670-2676,štirje,_,_,_,_,_,434,NUM,Mlcnpg,nummod
430,2677-2687,nizko,_,_,_,_,_,432,ADV,Rgs,advmod
431,2688-2700,razvijajoč,_,_,_,_,_,434,ADJ,Appnpg,amod
432,2701-2703,se,_,_,_,_,_,432,PRON,Px------y,nmod
433,2704-2716,gospodarstvo,_,_,_,_,_,429,NOUN,Ncnpg,nmod
434,2717-2719,na,_,_,_,_,_,436,ADP,Sl,case
435,2720-2725,svet,_,_,_,_,_,434,NOUN,Ncmsl,nmod
436,2726-2727,-,_,_,_,_,_,438,PUNCT,Z,punct
437,2728-2737,Brazilija,ORG,0,*->5-2,*[5],3 - Nevtralno,436,PROPN,Npfsg,conj
438,2738-2739,",",_,_,_,_,_,440,PUNCT,Z,punct
439,2740-2748,Kitajska,ORG,0,*->3-3,*[3],3 - Nevtralno,436,PROPN,Npfsg,conj
440,2749-2750,",",_,_,_,_,_,442,PUNCT,Z,punct
441,2751-2757,Indija,ORG,0,*->4-2,*[4],3 - Nevtralno,436,PROPN,Npfsg,conj
442,2758-2760,in,_,_,_,_,_,444,CCONJ,Cc,cc
443,2761-2767,Rusija,ORG,0,*->6-2,*[6],3 - Nevtralno,436,PROPN,Npfsg,conj
444,2768-2769,-,_,_,_,_,_,453,PUNCT,Z,punct
445,2770-2772,biti,_,_,_,_,_,453,AUX,Va-r3p-n,aux
446,2773-2777,prvi,_,_,_,_,_,448,ADJ,Mlomsa,amod
447,2778-2781,dan,_,_,_,_,_,453,NOUN,Ncmsan,obl
448,2782-2790,srečanje,_,_,_,_,_,448,NOUN,Ncnsg,nmod
449,2791-2792,v,_,_,_,_,_,452,ADP,Sl,case
450,2793-2799,skupen,_,_,_,_,_,452,ADJ,Agpfsl,amod
451,2800-2806,izjava,_,_,_,_,_,453,NOUN,Ncfsl,obl
452,2807-2815,zapisati,_,_,_,_,_,419,VERB,Vmep-pm,conj
453,2816-2817,",",_,_,_,_,_,459,PUNCT,Z,punct
454,2818-2820,da,_,_,_,_,_,459,SCONJ,Cs,mark
455,2821-2823,se,_,_,_,_,_,459,PRON,Px------y,expl
456,2824-2826,biti,_,_,_,_,_,459,AUX,Va-f3s-n,aux
457,2827-2832,letos,_,_,_,_,_,459,ADV,Rgp,advmod
458,2833-2844,nadaljevati,_,_,_,_,_,453,VERB,Vmpp-sn,ccomp
459,2845-2853,upadanje,_,_,_,_,_,459,NOUN,Ncnsn,nsubj
460,2854-2863,zaseben,_,_,_,_,_,462,ADJ,Agpmsg,amod
461,2864-2872,kapital,_,_,_,_,_,460,NOUN,Ncmsg,nmod
462,2873-2874,",",_,_,_,_,_,459,PUNCT,Z,punct
463,2875-2879,zato,_,_,_,_,_,466,CCONJ,Cc,cc
464,2880-2882,biti,_,_,_,_,_,466,AUX,Va-r3s-n,cop
465,2883-2888,nujen,_,_,_,_,_,459,ADJ,Agpnsn,conj
466,2889-2897,okrepiti,_,_,_,_,_,466,VERB,Vmen,csubj
467,2898-2907,posojilen,_,_,_,_,_,469,ADJ,Agpfsa,amod
468,2908-2917,dejavnost,_,_,_,_,_,467,NOUN,Ncfsa,obj
469,2918-2929,mednaroden,_,_,_,_,_,472,ADJ,Agpfpg,amod
470,2930-2939,finančen,_,_,_,_,_,472,ADJ,Agpfpg,amod
471,2940-2947,ustan,_,_,_,_,_,469,NOUN,Ncfpg,nmod
