idx,chars_idx,token,entity_type,sentiment,idk_1,idk_2,orig_sentiment,heads,upos,xpos,deprel
0,0-6,zaradi,_,_,_,_,_,3,ADP,Sg,case
1,7-13,slab,_,_,_,_,_,3,ADJ,Agpmpg,amod
2,14-24,rezultat,_,_,_,_,_,27,NOUN,Ncmpg,obl
3,25-26,v,_,_,_,_,_,5,ADP,Sl,case
4,27-33,Split,LOC,_,*->1-1,*[1],_,3,PROPN,Npmsl,nmod
5,34-38,manj,_,_,_,_,_,7,DET,Rgc,det
6,39-46,dobiček,_,_,_,_,_,27,NOUN,Ncmsg,obl
7,47-48,v,_,_,_,_,_,9,ADP,Sl,case
8,49-55,Laško,ORG,_,*->2-1,*[2],_,15,PROPN,Npnsl,obl
9,56-59,ker,_,_,_,_,_,15,SCONJ,Cs,mark
10,60-62,se,_,_,_,_,_,15,PRON,Px------y,expl
11,63-65,biti,_,_,_,_,_,15,AUX,Va-r3s-n,aux
12,66-75,pivovarna,ORG[1],_,*->2-2,*[2],_,15,NOUN,Ncfsn,nsubj
13,76-81,Laško,ORG[1]|LOC[2],_,*->2-2|*->3-1,*[2]|*[3],_,13,PROPN,Npnsn,nmod
14,82-90,odločiti,_,_,_,_,_,27,VERB,Vmep-sf,advcl
15,91-102,likvidirati,_,_,_,_,_,15,VERB,Vmbn,xcomp
16,103-112,hčerinski,_,_,*->5-1,*[5],_,18,ADJ,Agpfsa,amod
17,113-119,družba,_,_,*->5-1,*[5],_,16,NOUN,Ncfsa,obj
18,120-129,jadranski,ORG[3],_,*->5-1,*[5],_,20,ADJ,Agpfsa,amod
19,130-138,pivovara,ORG[3],_,*->5-1,*[5],_,16,NOUN,Ncfsa,obj
20,139-144,Split,LOC,0,*->5-1|*->1-2,*[5]|*[1],3 - Nevtralno,20,PROPN,Npmsn,nmod
21,145-146,",",_,_,_,_,_,15,PUNCT,Z,punct
22,147-149,biti,_,_,_,_,_,27,AUX,Va-r3p-n,aux
23,150-157,delavec,_,_,_,_,_,27,NOUN,Ncmpn,nsubj
24,158-160,ta,_,_,*->5-2,*[5],_,26,DET,Pd-fsg,det
25,161-168,tovarna,_,_,*->5-2,*[5],_,24,NOUN,Ncfsg,nmod
26,169-177,prevzeti,_,_,_,_,_,0,VERB,Vmep-pm,root
27,178-184,nadzor,_,_,_,_,_,27,NOUN,Ncmsan,obj
28,185-188,nad,_,_,_,_,_,30,ADP,Si,case
29,189-198,pivovarna,_,_,*->5-3,*[5],_,28,NOUN,Ncfsi,nmod
30,199-201,in,_,_,_,_,_,32,CCONJ,Cc,cc
31,202-210,pregnati,_,_,_,_,_,27,VERB,Vmep-pm,conj
32,211-218,vodstvo,_,_,_,_,_,32,NOUN,Ncnsa,obj
33,219-225,družba,_,_,*->5-4,*[5],_,33,NOUN,Ncfsg,nmod
34,226-227,.,_,_,_,_,_,27,PUNCT,Z,punct
35,228-237,jadranski,ORG[4],_,*->5-5,*[5],_,37,ADJ,Agpmsn,amod
36,238-246,pivovar,ORG[4],_,*->5-5,*[5],_,45,NOUN,Ncmsn,nsubj
37,247-249,se,_,_,_,_,_,45,PRON,Px------y,expl
38,250-256,zaradi,_,_,_,_,_,41,ADP,Sg,case
39,257-263,slab,_,_,_,_,_,41,ADJ,Agpmpg,amod
40,264-274,rezultat,_,_,_,_,_,45,NOUN,Ncmpg,obl
41,275-277,že,_,_,_,_,_,45,PART,Q,advmod
42,278-281,več,_,_,_,_,_,44,DET,Rgc,det
43,282-289,mesec,_,_,_,_,_,45,NOUN,Ncmpg,obl
44,290-295,ubadati,_,_,_,_,_,27,VERB,Vmpr3s,parataxis
45,296-297,z,_,_,_,_,_,48,ADP,Si,case
46,298-308,finančen,_,_,_,_,_,48,ADJ,Agpfpi,amod
47,309-317,težava,_,_,_,_,_,45,NOUN,Ncfpi,obl
48,318-319,",",_,_,_,_,_,50,PUNCT,Z,punct
49,320-330,vprašljiv,_,_,_,_,_,45,ADJ,Agpfsn,conj
50,331-333,biti,_,_,_,_,_,50,AUX,Va-r3p-n,aux
51,334-338,biti,_,_,_,_,_,50,AUX,Va-p-pn,cop
52,339-343,tudi,_,_,_,_,_,50,PART,Q,advmod
53,344-353,izplačilo,_,_,_,_,_,50,NOUN,Ncnpg,obj
54,354-358,plača,_,_,_,_,_,54,NOUN,Ncfpg,nmod
55,359-360,.,_,_,_,_,_,50,PUNCT,Z,punct
56,361-370,pivovarna,LOC[5],_,*->2-3,*[2],_,55,NOUN,Ncfsn,appos
57,371-376,Laško,LOC[5],_,*->2-3|*->3-2,*[2]|*[3],_,57,PROPN,Npnsn,nmod
58,377-378,",",_,_,_,_,_,65,PUNCT,Z,punct
59,379-381,ki,_,_,_,_,_,65,SCONJ,Cs,mark
60,382-384,biti,_,_,_,_,_,65,AUX,Va-r3s-n,cop
61,385-387,99,_,_,*->2-4,*[2],_,64,NUM,Mdc,nummod
62,388-389,-,_,_,*->2-4,*[2],_,64,PUNCT,Z,punct
63,390-398,odstoten,_,_,*->2-4,*[2],_,65,ADJ,Agpmsny,amod
64,399-406,lastnik,_,_,*->2-4,*[2],_,58,NOUN,Ncmsn,acl
65,407-416,jadranski,ORG[6],_,*->2-4|*->5-6,*[2]|*[5],_,67,ADJ,Agpfsg,amod
66,417-425,pivovar,ORG[6],_,*->2-4|*->5-6,*[2]|*[5],_,65,NOUN,Ncfsg,nmod
67,426-427,",",_,_,_,_,_,65,PUNCT,Z,punct
68,428-430,biti,_,_,_,_,_,73,AUX,Va-r3s-n,aux
69,431-436,konec,_,_,_,_,_,72,ADP,Sg,case
70,437-445,lanski,_,_,_,_,_,72,ADJ,Agpnsg,amod
71,446-450,leto,_,_,_,_,_,73,NOUN,Ncnsg,obl
72,451-458,ukiniti,_,_,*->5-7,*[5],_,27,VERB,Vmep-sf,parataxis
73,459-470,proizvodnja,_,_,_,_,_,73,NOUN,Ncfsa,obj
74,471-475,pivo,_,_,_,_,_,74,NOUN,Ncnsg,nmod
75,476-484,zlatorog,_,_,_,_,_,75,NOUN,Ncmsn,nmod
76,485-486,",",_,_,_,_,_,85,PUNCT,Z,punct
77,487-489,od,_,_,_,_,_,79,ADP,Sg,case
78,490-496,takrat,_,_,_,_,_,85,ADV,Rgp,advmod
79,497-499,pa,_,_,_,_,_,85,CCONJ,Cc,advmod
80,500-502,se,_,_,_,_,_,85,PRON,Px------y,expl
81,503-504,v,_,_,_,_,_,84,ADP,Sl,case
82,505-513,splitski,_,_,*->5-8,*[5],_,84,ADJ,Agpfsl,amod
83,514-520,družba,_,_,*->5-8,*[5],_,85,NOUN,Ncfsl,obl
84,521-525,vareti,_,_,_,_,_,73,VERB,Vmpr3s,advcl
85,526-530,samo,_,_,_,_,_,85,PART,Q,advmod
86,531-535,pivo,_,_,_,_,_,85,NOUN,Ncnsn,nsubj
87,536-546,kaltenberg,_,_,_,_,_,87,NOUN,Ncmsn,nmod
88,547-548,",",_,_,_,_,_,110,PUNCT,Z,punct
89,549-551,ki,_,_,_,_,_,110,SCONJ,Cs,mark
90,552-554,biti,_,_,_,_,_,110,AUX,Va-r3s-n,aux
91,555-556,v,_,_,_,_,_,93,ADP,Sl,case
92,557-562,last,_,_,_,_,_,110,NOUN,Ncfsl,obl
93,563-571,bavarski,_,_,*->4-1,*[4],_,95,ADJ,Agpfsg,amod
94,572-578,družba,_,_,*->4-1,*[4],_,93,NOUN,Ncfsg,nmod
95,579-584,König,ORG[7],_,*->4-1,*[4],_,87,PROPN,Npmsn,nmod
96,585-591,Ludwig,ORG[7],_,*->4-1,*[4],_,96,PROPN,Npmsn,flat:name
97,592-604,Internationa,ORG[7],_,*->4-1,*[4],_,97,PROPN,Npfsn,flat:name
98,605-606,.,_,_,_,_,_,96,PUNCT,Z,punct
99,607-609,ta,_,0,*->4-2,*[4],3 - Nevtralno,110,DET,Pd-msn,nsubj
100,610-613,naj,_,_,_,_,_,110,PART,Q,advmod
101,614-616,biti,_,_,_,_,_,110,AUX,Va-c,aux
102,617-619,se,_,_,_,_,_,110,PRON,Px------y,expl
103,620-622,po,_,_,_,_,_,105,ADP,Sl,case
104,623-631,navedba,_,_,_,_,_,110,NOUN,Ncfpl,obl
105,632-641,nekateri,_,_,_,_,_,108,DET,Pi-mpg,det
106,642-650,hrvaški,_,_,_,_,_,108,ADJ,Agpmpg,amod
107,651-658,medij,_,_,_,_,_,105,NOUN,Ncmpg,nmod
108,659-663,tudi,_,_,_,_,_,110,PART,Q,advmod
109,664-672,zanimati,_,_,_,_,_,27,VERB,Vmpp-sf,parataxis
110,673-675,za,_,_,_,_,_,112,ADP,Sa,case
111,676-681,nakup,_,_,_,_,_,110,NOUN,Ncmsan,obl
112,682-690,splitski,_,_,*->5-9,*[5],_,114,ADJ,Agpfsg,amod
113,691-700,pivovarna,_,_,*->5-9,*[5],_,112,NOUN,Ncfsg,nmod
114,701-702,",",_,_,_,_,_,110,PUNCT,Z,punct
115,703-704,a,_,_,_,_,_,122,CCONJ,Cc,cc
116,705-707,biti,_,_,_,_,_,122,AUX,Va-r3p-n,aux
117,708-710,se,_,_,_,_,_,122,PRON,Px------y,expl
118,711-718,Laščan,PER,_,*->2-5,*[2],_,122,PROPN,Npmpn,nsubj
119,719-723,pred,_,_,_,_,_,121,ADP,Si,case
120,724-729,dan,_,_,_,_,_,122,NOUN,Ncmpi,obl
121,730-738,odločiti,_,_,_,_,_,110,VERB,Vmep-pm,conj
122,739-740,",",_,_,_,_,_,127,PUNCT,Z,punct
123,741-743,da,_,_,_,_,_,127,SCONJ,Cs,mark
124,744-746,biti,_,_,_,_,_,127,AUX,Va-f3s-n,aux
125,747-756,pivovarna,_,_,*->5-10,*[5],_,127,NOUN,Ncfsa,obj
126,757-763,zapreti,_,_,_,_,_,122,VERB,Vmep-pm,ccomp
127,764-765,.,_,_,_,_,_,122,PUNCT,Z,punct
128,766-767,z,_,_,_,_,_,130,ADP,Si,case
129,768-771,ta,_,_,_,_,_,133,DET,Pd-nsi,obl
130,772-774,se,_,_,_,_,_,133,PRON,Px------y,expl
131,775-777,ne,_,_,_,_,_,133,PART,Q,advmod
132,778-785,strinjati,_,_,_,_,_,110,VERB,Vmpr3s,parataxis
133,786-789,160,_,_,_,_,_,135,NUM,Mdc,nummod
134,790-800,zaposlen,_,_,_,_,_,133,ADJ,Appmpg,nsubj
135,801-802,",",_,_,_,_,_,138,PUNCT,Z,punct
136,803-805,ki,_,_,_,_,_,138,SCONJ,Cs,mark
137,806-815,zahtevati,_,_,_,_,_,135,VERB,Vmbr3p,acl
138,816-822,stečaj,_,_,_,_,_,138,NOUN,Ncmsan,obj
139,823-829,družba,_,_,*->5-11,*[5],_,139,NOUN,Ncfsg,nmod
140,830-831,",",_,_,_,_,_,146,PUNCT,Z,punct
141,832-833,z,_,_,_,_,_,143,ADP,Si,case
142,834-839,kar,_,_,_,_,_,146,PRON,Pr-nsi,obl
143,840-842,biti,_,_,_,_,_,146,AUX,Va-c,aux
144,843-845,se,_,_,_,_,_,146,PRON,Px------y,expl
145,846-854,ohraniti,_,_,_,_,_,135,VERB,Vmep-pf,acl
146,855-862,deloven,_,_,_,_,_,148,ADJ,Agpnpn,amod
147,863-868,mesto,_,_,_,_,_,146,NOUN,Ncnpa,nsubj
148,869-871,in,_,_,_,_,_,150,CCONJ,Cc,cc
149,872-882,premoženje,_,_,_,_,_,148,NOUN,Ncnsa,conj
150,883-889,družba,_,_,*->5-12,*[5],_,150,NOUN,Ncfsg,nmod
151,890-891,",",_,_,_,_,_,146,PUNCT,Z,punct
152,892-900,poudarjati,_,_,_,_,_,146,VERB,Vmpr3s,conj
153,901-911,predsednik,_,_,*->6-1,*[6],_,153,NOUN,Ncmsn,nsubj
154,912-921,sindikat,_,_,*->6-1,*[6],_,154,NOUN,Ncmsg,nmod
155,922-923,v,_,_,*->6-1,*[6],_,157,ADP,Sl,case
156,924-930,družba,_,_,*->6-1,*[6],_,155,NOUN,Ncfsl,nmod
157,931-936,Daria,PER[8],_,*->6-1,*[6],_,154,PROPN,Npmsn,nmod
158,937-946,Slišković,PER[8],_,*->6-1,*[6],_,158,PROPN,Npmsn,flat:name
159,947-948,.,_,_,_,_,_,153,PUNCT,Z,punct
160,949-958,zaposlen,_,_,_,_,_,162,ADJ,Appmpn,nsubj
161,959-969,poudarjati,_,_,_,_,_,27,VERB,Vmpr3p,parataxis
162,970-971,",",_,_,_,_,_,168,PUNCT,Z,punct
163,972-974,da,_,_,_,_,_,168,SCONJ,Cs,mark
164,975-977,biti,_,_,_,_,_,168,AUX,Va-r3s-n,aux
165,978-987,jadranski,ORG[9],_,*->5-13,*[5],_,167,ADJ,Agpfsn,amod
166,988-996,pivovar,ORG[9],_,*->5-13,*[5],_,168,NOUN,Ncfsn,nsubj
167,997-1005,povečati,_,_,_,_,_,162,VERB,Vmep-sf,ccomp
168,1006-1017,proizvodnja,_,_,_,_,_,168,NOUN,Ncfsa,obj
169,1018-1022,pivo,_,_,_,_,_,169,NOUN,Ncnsg,nmod
170,1023-1033,kaltenberg,_,_,_,_,_,170,NOUN,Ncmsn,nmod
171,1034-1036,za,_,_,_,_,_,174,ADP,Sa,case
172,1037-1039,10,_,_,_,_,_,174,NUM,Mdc,nummod
173,1040-1049,odstotek,_,_,_,_,_,171,NOUN,Ncmpg,nmod
174,1050-1051,",",_,_,_,_,_,177,PUNCT,Z,punct
175,1052-1055,kar,_,_,_,_,_,177,PRON,Pr-nsn,nsubj
176,1056-1064,dokazovati,_,_,_,_,_,174,VERB,Vmpr3s,acl
177,1065-1066,",",_,_,_,_,_,182,PUNCT,Z,punct
178,1067-1069,da,_,_,_,_,_,182,SCONJ,Cs,mark
179,1070-1072,biti,_,_,_,_,_,182,AUX,Va-r3s-n,cop
180,1073-1083,preživetje,_,_,_,_,_,182,NOUN,Ncnsn,nsubj
181,1084-1090,mogoč,_,_,_,_,_,177,ADJ,Agpnsn,ccomp
182,1091-1093,in,_,_,_,_,_,186,CCONJ,Cc,cc
183,1094-1096,da,_,_,_,_,_,186,SCONJ,Cs,mark
184,1097-1100,on,_,_,*->7-1,*[7],_,189,PRON,Pp3mpa--y,obj
185,1101-1105,želeti,_,_,_,_,_,182,VERB,Vmpr3s,csubj
186,1106-1114,večinski,_,_,*->2-6,*[2],_,188,ADJ,Agpmsny,amod
187,1115-1122,lastnik,_,_,*->2-6,*[2],_,186,NOUN,Ncmsn,nsubj
188,1123-1130,uničiti,_,_,_,_,_,186,VERB,Vmen,xcomp
189,1131-1132,.,_,_,_,_,_,182,PUNCT,Z,punct
190,1133-1135,po,_,_,_,_,_,192,ADP,Sl,case
191,1136-1143,pisanje,_,_,_,_,_,189,NOUN,Ncnsl,obl
192,1144-1152,sloboden,ORG[10],0,*->8-1,*[8],3 - Nevtralno[27],194,ADJ,Agpfsg,amod
193,1153-1162,Dalmacija,ORG[10]|LOC[11],0,*->8-1|*->9-1,*[8]|*[9],3 - Nevtralno[27]|3 - Nevtralno[28],192,PROPN,Npfsg,nmod
194,1163-1165,biti,_,_,_,_,_,203,AUX,Va-r3s-n,aux
195,1166-1174,direktor,_,2,*->10-1,*[10],2 - Negativno[29],203,NOUN,Ncmsn,nsubj
196,1175-1184,jadranski,ORG[12],2,*->10-1|*->5-14,*[10]|*[5],2 - Negativno[29],198,ADJ,Agpfsg,amod
197,1185-1193,pivovar,ORG[12],2,*->10-1|*->5-14,*[10]|*[5],2 - Negativno[29],196,NOUN,Ncfsg,nmod
198,1194-1199,Tomaž,PER[13],2,*->10-1,*[10],2 - Negativno[29],196,PROPN,Npmsn,nmod
199,1200-1205,Uder,PER[13],2,*->10-1,*[10],2 - Negativno[29],199,PROPN,Npmsn,flat:name
200,1206-1210,pred,_,_,_,_,_,202,ADP,Si,case
201,1211-1216,dan,_,_,_,_,_,203,NOUN,Ncmpi,obl
202,1217-1222,oditi,_,_,_,_,_,27,VERB,Vmep-sm,parataxis
203,1223-1224,v,_,_,_,_,_,205,ADP,Sa,case
204,1225-1234,Slovenija,LOC,0,*->11-1,*[11],3 - Nevtralno,203,PROPN,Npfsa,obl
205,1235-1236,",",_,_,_,_,_,209,PUNCT,Z,punct
206,1237-1243,družba,_,_,*->5-15,*[5],_,209,NOUN,Ncfsa,obj
207,1244-1246,pa,_,_,_,_,_,209,CCONJ,Cc,advmod
208,1247-1251,voditi,_,_,_,_,_,203,VERB,Vmpr3s,conj
209,1252-1259,hrvaški,_,_,_,_,_,211,ADJ,Agpmsny,amod
210,1260-1270,menedžment,_,_,_,_,_,209,NOUN,Ncmsn,nsubj
211,1271-1272,.,_,_,_,_,_,203,PUNCT,Z,punct
212,1273-1275,ta,_,_,_,_,_,220,DET,Pd-msn,nsubj
213,1276-1279,naj,_,_,_,_,_,220,PART,Q,advmod
214,1280-1282,biti,_,_,_,_,_,220,AUX,Va-c,aux
215,1283-1285,po,_,_,_,_,_,217,ADP,Sl,case
216,1286-1293,beseda,_,_,_,_,_,220,NOUN,Ncfpl,obl
217,1294-1305,predsednik,_,0,*->6-2,*[6],3 - Nevtralno[30],217,NOUN,Ncmsg,nmod
218,1306-1315,sindikat,_,0,*->6-2,*[6],3 - Nevtralno[30],218,NOUN,Ncmsg,nmod
219,1316-1323,stopiti,_,_,_,_,_,27,VERB,Vmep-pm,parataxis
220,1324-1326,na,_,_,_,_,_,222,ADP,Sa,case
221,1327-1332,stran,_,_,_,_,_,220,NOUN,Ncfsa,obl
222,1333-1343,zaposlen,_,_,_,_,_,222,ADJ,Appfpg,amod
223,1344-1345,.,_,_,_,_,_,220,PUNCT,Z,punct
224,1346-1355,jadranski,ORG[14],_,*->5-16,*[5],_,226,ADJ,Agpmsn,amod
225,1356-1364,pivovar,ORG[14],_,*->5-16,*[5],_,227,NOUN,Ncmsn,nsubj
226,1365-1372,znižati,_,_,_,_,_,220,VERB,Vmep-sf,conj
227,1373-1380,dobiček,_,_,_,_,_,227,NOUN,Ncmsan,obj
228,1381-1390,pivovarna,ORG[15],_,*->2-7,*[2],_,228,NOUN,Ncfsg,nmod
229,1391-1396,Laško,ORG[15]|LOC[16],_,*->2-7|*->3-3,*[2]|*[3],_,229,PROPN,Npnsn,nmod
230,1397-1406,pivovarna,ORG[17],_,*->2-8,*[2],_,229,NOUN,Ncfsn,nmod
231,1407-1412,Laško,ORG[17]|LOC[18],_,*->2-8|*->3-4,*[2]|*[3],_,231,PROPN,Npnsn,nmod
232,1413-1415,biti,_,_,_,_,_,235,AUX,Va-r3s-n,aux
233,1416-1421,sicer,_,_,_,_,_,235,PART,Q,advmod
234,1422-1428,morati,_,_,_,_,_,227,VERB,Vmpp-sf,conj
235,1429-1431,na,_,_,_,_,_,237,ADP,Sa,case
236,1432-1439,zahteva,_,_,_,_,_,239,NOUN,Ncfsa,obl
237,1440-1450,revizor,_,_,_,_,_,237,NOUN,Ncmpg,nmod
238,1451-1458,izvesti,_,_,_,_,_,235,VERB,Vmen,xcomp
239,1459-1466,dodaten,_,_,_,_,_,241,ADJ,Agpfsa,amod
240,1467-1475,slabitev,_,_,_,_,_,239,NOUN,Ncfsa,obj
241,1476-1483,naložba,_,_,_,_,_,241,NOUN,Ncfsg,nmod
242,1484-1485,v,_,_,_,_,_,245,ADP,Sa,case
243,1486-1495,jadranski,ORG[19],2,*->5-17,*[5],2 - Negativno[31],245,ADJ,Agpfsa,amod
244,1496-1504,pivovara,ORG[19],2,*->5-17,*[5],2 - Negativno[31],242,NOUN,Ncfsa,nmod
245,1505-1506,",",_,_,_,_,_,250,PUNCT,Z,punct
246,1507-1510,kar,_,_,_,_,_,250,PRON,Pr-nsn,nsubj
247,1511-1513,biti,_,_,_,_,_,250,AUX,Va-r3s-n,aux
248,1514-1520,znatno,_,_,_,_,_,250,ADV,Rgp,advmod
249,1521-1530,zmanjšati,_,_,_,_,_,245,VERB,Vmep-sn,acl
250,1531-1536,čist,_,_,_,_,_,252,ADJ,Agpmsay,amod
251,1537-1544,dobiček,_,_,_,_,_,250,NOUN,Ncmsan,obj
252,1545-1552,skupina,_,_,*->2-9,*[2],_,252,NOUN,Ncfsg,nmod
253,1553-1555,za,_,_,_,_,_,255,ADP,Sa,case
254,1556-1560,leto,_,_,_,_,_,253,NOUN,Ncnsa,nmod
255,1561-1565,2008,_,_,_,_,_,255,NUM,Mdc,nummod
256,1566-1567,.,_,_,_,_,_,250,PUNCT,Z,punct
257,1568-1570,ta,_,_,_,_,_,267,DET,Pd-msn,nsubj
258,1571-1573,biti,_,_,_,_,_,267,AUX,Va-r3s-n,aux
259,1574-1580,namreč,_,_,_,_,_,267,CCONJ,Cc,advmod
260,1581-1583,po,_,_,_,_,_,262,ADP,Sl,case
261,1584-1589,marec,_,_,_,_,_,267,NOUN,Ncmsl,obl
262,1590-1601,objavljen,_,_,_,_,_,266,ADJ,Appmpg,amod
263,1602-1615,nerevidiran,_,_,_,_,_,266,ADJ,Agpmpg,amod
264,1616-1629,računovodski,_,_,_,_,_,266,ADJ,Agpmpg,amod
265,1630-1637,izkaz,_,_,_,_,_,262,NOUN,Ncmpl,nmod
266,1638-1644,znašati,_,_,_,_,_,27,VERB,Vmpp-sm,parataxis
267,1645-1648,"9,4",_,_,_,_,_,269,NUM,Mdc,nummod
268,1649-1657,milijon,_,_,_,_,_,267,NOUN,Ncmsg,obj
269,1658-1663,evro,_,_,_,_,_,269,NOUN,Ncmpg,nmod
270,1664-1665,",",_,_,_,_,_,267,PUNCT,Z,punct
271,1666-1668,po,_,_,_,_,_,273,ADP,Sl,case
272,1669-1677,revizija,_,_,_,_,_,277,NOUN,Ncfsl,obl
273,1678-1680,pa,_,_,_,_,_,277,CCONJ,Cc,advmod
274,1681-1683,se,_,_,_,_,_,277,PRON,Px------y,expl
275,1684-1686,biti,_,_,_,_,_,277,AUX,Va-r3s-n,aux
276,1687-1695,zmanjšati,_,_,_,_,_,267,VERB,Vmep-sm,conj
277,1696-1698,na,_,_,_,_,_,281,ADP,Sa,case
278,1699-1704,slab,_,_,_,_,_,281,ADJ,Agpmpa,amod
279,1705-1710,štirje,_,_,_,_,_,281,NUM,Mlcmpa,nummod
280,1711-1719,milijon,_,_,_,_,_,267,NOUN,Ncmpa,obl
281,1720-1725,evro,_,_,_,_,_,281,NOUN,Ncmpg,nmod
282,1726-1727,.,_,_,_,_,_,277,PUNCT,Z,punct
283,1728-1729,v,_,_,_,_,_,287,ADP,Sl,case
284,1730-1735,prvi,_,_,_,_,_,287,ADJ,Mlompl,amod
285,1736-1740,trije,_,_,_,_,_,287,NUM,Mlcmpl,nummod
286,1741-1747,mesec,_,_,_,_,_,290,NOUN,Ncmpl,nmod
287,1748-1751,"4,6",_,_,_,_,_,289,NUM,Mdc,nummod
288,1752-1753,%,_,_,_,_,_,287,NOUN,Ncmpg,nmod
289,1754-1760,majhen,_,_,_,_,_,291,ADJ,Agcfsn,amod
290,1761-1768,prodaja,_,_,_,_,_,302,NOUN,Ncfsn,nsubj
291,1769-1770,v,_,_,_,_,_,294,ADP,Sl,case
292,1771-1776,prvi,_,_,_,_,_,294,ADJ,Mlonsl,amod
293,1777-1787,četrtletje,_,_,_,_,_,291,NOUN,Ncnsl,nmod
294,1788-1798,letošnji,_,_,_,_,_,296,ADJ,Agpnsg,amod
295,1799-1803,leto,_,_,_,_,_,294,NOUN,Ncnsg,nmod
296,1804-1806,pa,_,_,_,_,_,302,CCONJ,Cc,advmod
297,1807-1809,biti,_,_,_,_,_,302,AUX,Va-r3s-n,aux
298,1810-1817,skupina,_,_,_,_,_,302,NOUN,Ncfsn,nsubj
299,1818-1827,pivovarna,ORG[20],_,*->2-10,*[2],_,299,NOUN,Ncfsn,nmod
300,1828-1833,Laško,ORG[20]|LOC[21],_,*->2-10|*->3-5,*[2]|*[3],_,300,PROPN,Npnsn,nmod
301,1834-1843,ustvariti,_,_,_,_,_,27,VERB,Vmep-sf,parataxis
302,1844-1848,"74,1",_,_,_,_,_,304,NUM,Mdc,nummod
303,1849-1857,milijon,_,_,_,_,_,302,NOUN,Ncmsg,obj
304,1858-1863,evro,_,_,_,_,_,304,NOUN,Ncmpg,nmod
305,1864-1873,prihodek,_,_,_,_,_,305,NOUN,Ncmpg,nmod
306,1874-1876,od,_,_,_,_,_,308,ADP,Sg,case
307,1877-1884,prodaja,_,_,_,_,_,306,NOUN,Ncfsg,nmod
308,1885-1886,",",_,_,_,_,_,311,PUNCT,Z,punct
309,1887-1890,kar,_,_,_,_,_,311,PRON,Pr-nsn,nsubj
310,1891-1893,biti,_,_,_,_,_,308,VERB,Va-r3s-n,acl
311,1894-1897,"4,6",_,_,_,_,_,313,NUM,Mdc,nummod
312,1898-1906,odstotek,_,_,_,_,_,314,NOUN,Ncmsg,nmod
313,1907-1911,manj,_,_,_,_,_,311,DET,Rgc,advmod
314,1912-1915,kot,_,_,_,_,_,317,SCONJ,Cs,case
315,1916-1920,pred,_,_,_,_,_,317,ADP,Si,case
316,1921-1926,leto,_,_,_,_,_,314,NOUN,Ncnsi,obl
317,1927-1930,dan,_,_,_,_,_,317,NOUN,Ncmpg,nmod
318,1931-1932,.,_,_,_,_,_,311,PUNCT,Z,punct
319,1933-1934,v,_,_,_,_,_,321,ADP,Sl,case
320,1935-1942,skupina,_,_,*->2-11,*[2],_,317,NOUN,Ncfsl,nmod
321,1943-1945,biti,_,_,_,_,_,329,AUX,Va-r3p-n,aux
322,1946-1951,poleg,_,_,_,_,_,325,ADP,Sg,case
323,1952-1959,matičen,_,_,_,_,_,325,ADJ,Agpfsg,amod
324,1960-1966,družba,_,_,_,_,_,339,NOUN,Ncfsg,obl
325,1967-1976,pivovarna,ORG[22],_,*->2-12,*[2],_,325,NOUN,Ncfsn,nmod
326,1977-1982,Laško,ORG[22]|LOC[23],_,*->2-12|*->3-6,*[2]|*[3],_,326,PROPN,Npnsn,nmod
327,1983-1985,še,_,_,_,_,_,329,PART,Q,advmod
328,1986-1994,Radenska,ORG,0,*->12-1,*[12],3 - Nevtralno,326,PROPN,Npfsn,conj
329,1995-1996,",",_,_,_,_,_,331,PUNCT,Z,punct
330,1997-2002,Vital,ORG,0,*->13-1,*[13],3 - Nevtralno,329,PROPN,Npmsn,conj
331,2003-2005,in,_,_,_,_,_,333,CCONJ,Cc,cc
332,2006-2013,skupina,_,0,*->14-1,*[14],3 - Nevtralno[32],329,NOUN,Ncfsn,conj
333,2014-2019,Union,ORG,0,*->14-1,*[14],3 - Nevtralno[32],333,PROPN,Npmsn,nmod
334,2020-2021,.,_,_,_,_,_,329,PUNCT,Z,punct
335,2022-2027,letos,_,_,_,_,_,339,ADV,Rgp,advmod
336,2028-2030,biti,_,_,_,_,_,339,AUX,Va-r3p-n,aux
337,2031-2037,skupaj,_,_,_,_,_,339,ADV,Rgp,advmod
338,2038-2045,prodati,_,_,_,_,_,27,VERB,Vmep-pm,parataxis
339,2046-2053,888.700,_,_,_,_,_,341,NUM,Mdc,nummod
340,2054-2065,hektoliter,_,_,_,_,_,339,NOUN,Ncmpg,obj
341,2066-2070,ves,_,_,_,_,_,343,DET,Pg-fpg,det
342,2071-2076,pijača,_,_,_,_,_,341,NOUN,Ncfpg,nmod
343,2077-2078,",",_,_,_,_,_,362,PUNCT,Z,punct
344,2079-2082,kar,_,_,_,_,_,362,PRON,Pr-nsn,nsubj
345,2083-2085,biti,_,_,_,_,_,349,AUX,Va-r3s-n,aux
346,2086-2089,"8,9",_,_,_,_,_,348,NUM,Mdc,nummod
347,2090-2098,odstotek,_,_,_,_,_,349,NOUN,Ncmsg,nmod
348,2099-2103,manj,_,_,_,_,_,341,DET,Rgc,det
349,2104-2107,kot,_,_,_,_,_,352,SCONJ,Cs,case
350,2108-2109,v,_,_,_,_,_,352,ADP,Sl,case
351,2110-2114,leto,_,_,_,_,_,349,NOUN,Ncnsl,obl
352,2115-2119,2008,_,_,_,_,_,352,NUM,Mdc,nummod
353,2120-2121,.,_,_,_,_,_,339,PUNCT,Z,punct
354,2122-2127,čist,_,_,_,_,_,356,ADJ,Agpfsn,amod
355,2128-2134,izguba,_,_,_,_,_,362,NOUN,Ncfsn,nsubj
356,2135-2142,skupina,_,_,*->2-13,*[2],_,356,NOUN,Ncfsg,nmod
357,2143-2145,biti,_,_,_,_,_,362,AUX,Va-r3s-n,aux
358,2146-2148,ob,_,_,_,_,_,360,ADP,Sl,case
359,2149-2154,konec,_,_,_,_,_,362,NOUN,Ncmsl,obl
360,2155-2165,četrtletje,_,_,_,_,_,360,NOUN,Ncnsg,nmod
361,2166-2173,znašati,_,_,_,_,_,352,VERB,Vmpp-sf,acl
362,2174-2177,"0,9",_,_,_,_,_,364,NUM,Mdc,nummod
363,2178-2186,milijon,_,_,_,_,_,362,NOUN,Ncmsg,obl
364,2187-2192,evro,_,_,_,_,_,364,NOUN,Ncmpg,nmod
365,2193-2194,.,_,_,_,_,_,362,PUNCT,Z,punct
366,2195-2205,nadzornik,_,_,_,_,_,370,NOUN,Ncmpn,nsubj
367,2206-2211,kljub,_,_,_,_,_,369,ADP,Sd,case
368,2212-2216,ta,_,_,_,_,_,370,DET,Pd-nsd,obl
369,2217-2223,meniti,_,_,_,_,_,362,VERB,Vmpr3p,conj
370,2224-2225,",",_,_,_,_,_,379,PUNCT,Z,punct
371,2226-2228,da,_,_,_,_,_,379,SCONJ,Cs,mark
372,2229-2231,biti,_,_,_,_,_,379,AUX,Va-r3p-n,cop
373,2232-2240,dosežen,_,_,_,_,_,375,ADJ,Appmpn,amod
374,2241-2250,rezultat,_,_,_,_,_,379,NOUN,Ncmpn,nsubj
375,2251-2253,za,_,_,_,_,_,378,ADP,Sa,case
376,2254-2258,dan,_,_,_,_,_,378,ADJ,Agpfpa,amod
377,2259-2266,razmera,_,_,_,_,_,375,NOUN,Ncfpa,nmod
378,2267-2273,ugoden,_,_,_,_,_,370,ADJ,Agpmsn,ccomp
379,2274-2275,.,_,_,_,_,_,370,PUNCT,Z,punct
380,2276-2284,omenjen,_,_,_,_,_,382,ADJ,Appnsn,amod
381,2285-2292,obdobje,_,_,_,_,_,379,NOUN,Ncnsn,nsubj
382,2293-2295,biti,_,_,_,_,_,379,AUX,Va-r3s-n,cop
383,2296-2302,namreč,_,_,_,_,_,379,CCONJ,Cc,advmod
384,2303-2315,nesezonski,_,_,_,_,_,386,ADJ,Agpmsg,amod
385,2316-2323,značaj,_,_,_,_,_,382,NOUN,Ncmsg,nmod
386,2324-2326,za,_,_,_,_,_,388,ADP,Sa,case
387,2327-2339,proizvajalec,_,_,_,_,_,386,NOUN,Ncmpa,nmod
388,2340-2345,pijača,_,_,_,_,_,388,NOUN,Ncfpg,nmod
389,2346-2347,",",_,_,_,_,_,394,PUNCT,Z,punct
390,2348-2350,biti,_,_,_,_,_,394,AUX,Va-r3s-n,aux
391,2351-2360,pivovarna,ORG[24],2,*->2-14,*[2],2 - Negativno[33],394,NOUN,Ncfsn,nsubj
392,2361-2366,Laško,ORG[24]|LOC[25],0,*->2-14|*->3-7,*[2]|*[3],2 - Negativno[33]|3 - Nevtralno[34],392,PROPN,Npnsn,nmod
393,2367-2375,objaviti,_,_,_,_,_,386,VERB,Vmep-sf,acl
394,2376-2378,na,_,_,_,_,_,397,ADP,Sl,case
395,2379-2387,spleten,_,_,_,_,_,397,ADJ,Agpfpl,amod
396,2388-2395,stran,_,_,_,_,_,394,NOUN,Ncfpl,obl
397,2396-2407,ljubljanski,ORG[26],0,*->15-1,*[15],3 - Nevtralno[35],399,ADJ,Agpfsg,amod
398,2408-2413,borza,ORG[26],0,*->15-1,*[15],3 - Nevtralno[35],397,NOUN,Ncfsg,nmod
399,2414-2415,.,_,_,_,_,_,394,PUNCT,Z,punct
400,2416-2421,letos,_,_,_,_,_,407,ADV,Rgp,advmod
401,2422-2424,pa,_,_,_,_,_,407,CCONJ,Cc,advmod
402,2425-2427,na,_,_,_,_,_,405,ADP,Sa,case
403,2428-2436,posloven,_,_,_,_,_,405,ADJ,Agpmpa,amod
404,2437-2446,rezultat,_,_,_,_,_,407,NOUN,Ncmpa,obl
405,2447-2454,dodatno,_,_,_,_,_,407,ADV,Rgp,advmod
406,2455-2461,vplivati,_,_,_,_,_,27,VERB,Vmpr3s,parataxis
407,2462-2466,tudi,_,_,_,_,_,407,PART,Q,advmod
408,2467-2475,finančen,_,_,_,_,_,410,ADJ,Agpfsn,amod
409,2476-2481,kriza,_,_,_,_,_,407,NOUN,Ncfsn,nsubj
