idx,chars_idx,token,entity_type,sentiment,idk_1,idk_2,orig_sentiment,heads,upos,xpos,deprel
0,0-4,Mura,ORG,_,*->1-1,*[1],_,2,PROPN,Npfsn,nsubj
1,5-13,pomemben,_,_,_,_,_,0,ADJ,Agpfsn,root
2,14-16,ne,_,_,_,_,_,6,PART,Q,cc:preconj
3,17-19,le,_,_,_,_,_,3,PART,Q,fixed
4,20-22,za,_,_,_,_,_,6,ADP,Sa,case
5,23-30,Pomurje,LOC,_,*->2-1,*[2],_,2,PROPN,Npnsa,obl
6,31-32,",",_,_,_,_,_,28,PUNCT,Z,punct
7,33-38,ampak,_,_,_,_,_,28,CCONJ,Cc,cc
8,39-41,za,_,_,_,_,_,11,ADP,Sa,case
9,42-49,celoten,_,_,_,_,_,11,ADJ,Agpfsa,amod
10,50-59,Slovenija,LOC,_,*->3-1,*[3],_,17,PROPN,Npfsa,obl
11,60-68,pomurski,_,_,_,_,_,13,ADJ,Agpmpn,amod
12,69-75,župan,_,_,_,_,_,11,NOUN,Ncmpn,nmod
13,76-78,in,_,_,_,_,_,15,CCONJ,Cc,cc
14,79-87,poslanec,_,_,_,_,_,13,NOUN,Ncmpn,conj
15,88-90,biti,_,_,_,_,_,17,AUX,Va-r3p-n,aux
16,91-100,opozoriti,_,_,_,_,_,2,VERB,Vmep-pm,conj
17,101-102,",",_,_,_,_,_,28,PUNCT,Z,punct
18,103-105,da,_,_,_,_,_,28,SCONJ,Cs,mark
19,106-110,Mura,ORG,_,*->1-2,*[1],_,28,PROPN,Npfsn,nsubj
20,111-113,biti,_,_,_,_,_,28,AUX,Va-r3s-y,cop
21,114-123,političen,_,_,_,_,_,28,ADJ,Agpnsn,amod
22,124-125,",",_,_,_,_,_,28,PUNCT,Z,punct
23,126-131,ampak,_,_,_,_,_,28,CCONJ,Cc,cc
24,132-143,gospodarski,_,_,_,_,_,28,ADJ,Agpnsn,amod
25,144-146,in,_,_,_,_,_,27,CCONJ,Cc,cc
26,147-155,socialen,_,_,_,_,_,25,ADJ,Agpnsn,conj
27,156-165,vprašanje,_,_,_,_,_,17,NOUN,Ncnsn,ccomp
28,166-173,Pomur,LOC,_,*->2-2,*[2],_,28,PROPN,Npnsg,nmod
29,174-175,",",_,_,_,_,_,33,PUNCT,Z,punct
30,176-180,zato,_,_,_,_,_,33,CCONJ,Cc,cc
31,181-183,se,_,_,_,_,_,34,PRON,Px------y,expl
32,184-194,nameravati,_,_,_,_,_,28,VERB,Vmpr3p,conj
33,195-201,boriti,_,_,_,_,_,33,VERB,Vmpn,xcomp
34,202-204,za,_,_,_,_,_,36,ADP,Sa,case
35,205-214,zaposlen,_,_,_,_,_,34,ADJ,Appmpa,obl
36,215-216,v,_,_,_,_,_,38,ADP,Sl,case
37,217-223,družba,_,_,*->1-3,*[1],_,36,NOUN,Ncfsl,nmod
38,224-225,.,_,_,_,_,_,33,PUNCT,Z,punct
39,226-228,na,_,_,_,_,_,43,ADP,Sl,case
40,229-235,skupen,_,_,_,_,_,43,ADJ,Agpfsl,amod
41,236-246,novinarski,_,_,_,_,_,43,ADJ,Agpfsl,amod
42,247-257,konferenca,_,_,_,_,_,45,NOUN,Ncfsl,obl
43,258-260,biti,_,_,_,_,_,45,AUX,Va-r3p-n,aux
44,261-267,dejati,_,_,_,_,_,34,VERB,Vmep-pm,conj
45,268-269,",",_,_,_,_,_,49,PUNCT,Z,punct
46,270-272,da,_,_,_,_,_,49,SCONJ,Cs,mark
47,273-275,biti,_,_,_,_,_,49,AUX,Va-r3p-n,cop
48,276-286,razočaran,_,_,_,_,_,45,ADJ,Appmpn,ccomp
49,287-290,nad,_,_,_,_,_,51,ADP,Si,case
50,291-300,ravnanje,_,_,_,_,_,49,NOUN,Ncnsi,obl
51,301-310,lastnik,_,_,_,_,_,51,NOUN,Ncmpg,nmod
52,311-313,in,_,_,_,_,_,55,CCONJ,Cc,cc
53,314-321,pasiven,_,_,_,_,_,55,ADJ,Agpfsi,amod
54,322-327,vloga,_,_,_,_,_,52,NOUN,Ncfsi,conj
55,328-334,država,_,_,*->3-2,*[3],_,55,NOUN,Ncfsg,nmod
56,335-336,",",_,_,_,_,_,60,PUNCT,Z,punct
57,337-339,ki,_,_,_,_,_,60,SCONJ,Cs,mark
58,340-342,biti,_,_,_,_,_,60,AUX,Va-c,aux
59,343-349,morati,_,_,*->3-3,*[3],_,56,VERB,Vmpp-sf,acl
60,350-358,prevzeti,_,_,_,_,_,60,VERB,Vmen,xcomp
61,359-368,reševanje,_,_,_,_,_,61,NOUN,Ncnsa,obj
62,369-373,Mura,ORG,_,*->1-4,*[1],_,62,PROPN,Npfsg,nmod
63,374-375,.,_,_,_,_,_,60,PUNCT,Z,punct
64,376-382,meniti,_,_,_,_,_,45,VERB,Vmpr3p,root
65,383-384,",",_,_,_,_,_,69,PUNCT,Z,punct
66,385-387,da,_,_,_,_,_,69,SCONJ,Cs,mark
67,388-390,ne,_,_,_,_,_,69,PART,Q,advmod
68,391-394,iti,_,_,_,_,_,65,VERB,Vmbr3s,ccomp
69,395-397,za,_,_,_,_,_,73,ADP,Sa,case
70,398-407,strateški,_,_,*->1-5,*[1],_,73,ADJ,Agpfsa,amod
71,408-416,pomemben,_,_,*->1-5,*[1],_,73,ADJ,Agpfsa,amod
72,417-423,družba,_,_,*->1-5,*[1],_,69,NOUN,Ncfsa,obl
73,424-426,le,_,_,_,_,_,69,PART,Q,advmod
74,427-429,za,_,_,_,_,_,76,ADP,Sa,case
75,430-437,Pomurje,LOC,_,*->2-3,*[2],_,73,PROPN,Npnsa,nmod
76,438-439,",",_,_,_,_,_,81,PUNCT,Z,punct
77,440-445,ampak,_,_,_,_,_,81,CCONJ,Cc,cc
78,446-448,za,_,_,_,_,_,81,ADP,Sa,case
79,449-456,celoten,_,_,_,_,_,81,ADJ,Agpfsa,amod
80,457-466,Slovenija,LOC,_,*->3-4,*[3],_,76,PROPN,Npfsa,conj
81,467-468,.,_,_,_,_,_,69,PUNCT,Z,punct
82,469-476,rešitev,_,_,_,_,_,85,NOUN,Ncfsa,obj
83,477-481,Mura,ORG,_,*->1-6,*[1],_,83,PROPN,Npfsg,nmod
84,482-488,videti,_,_,_,_,_,2,VERB,Vmbr3p,parataxis
85,489-490,v,_,_,_,_,_,87,ADP,Sl,case
86,491-498,iskanje,_,_,_,_,_,85,NOUN,Ncnsl,obl
87,499-506,zdrav,_,_,_,_,_,89,ADJ,Agpnpg,amod
88,507-512,jeder,_,_,_,_,_,87,NOUN,Ncnpg,nmod
89,513-515,in,_,_,_,_,_,91,CCONJ,Cc,cc
90,516-524,možnost,_,_,_,_,_,89,NOUN,Ncfpg,conj
91,525-527,za,_,_,_,_,_,93,ADP,Sa,case
92,528-538,pridobitev,_,_,_,_,_,91,NOUN,Ncfsa,nmod
93,539-543,delo,_,_,_,_,_,93,NOUN,Ncnsg,nmod
94,544-545,",",_,_,_,_,_,60,PUNCT,Z,punct
95,546-549,saj,_,_,_,_,_,98,CCONJ,Cc,cc
96,550-553,biti,_,_,_,_,_,98,AUX,Va-r3d-n,cop
97,554-562,potreben,_,_,_,_,_,85,ADJ,Agpmdn,conj
98,563-573,dolgoročen,_,_,_,_,_,100,ADJ,Agpmsny,amod
99,574-580,obstoj,_,_,_,_,_,98,NOUN,Ncmsn,nsubj
100,581-583,in,_,_,_,_,_,102,CCONJ,Cc,cc
101,584-601,prestrukturiranje,_,_,_,_,_,100,NOUN,Ncnsn,conj
102,602-604,za,_,_,_,_,_,104,ADP,Sa,case
103,605-614,ohranitev,_,_,_,_,_,102,NOUN,Ncfsa,nmod
104,615-618,čim,_,_,_,_,_,106,ADV,Rgp,advmod
105,619-626,velik,_,_,_,_,_,107,ADJ,Agcnsg,amod
106,627-634,število,_,_,_,_,_,104,NOUN,Ncnsg,nmod
107,635-645,zaposlen,_,_,_,_,_,107,ADJ,Appfpg,amod
108,646-647,.,_,_,_,_,_,98,PUNCT,Z,punct
109,648-650,na,_,_,_,_,_,111,ADP,Sa,case
110,651-658,zahteva,_,_,_,_,_,108,NOUN,Ncfsa,nmod
111,659-668,poslanski,_,0,*->8-1,*[8],3 - Nevtralno[10],113,ADJ,Agpfsg,amod
112,669-676,skupina,_,0,*->8-1,*[8],3 - Nevtralno[10],111,NOUN,Ncfsg,nmod
113,677-680,SLS,ORG,0,*->8-1,*[8],3 - Nevtralno[10],113,PROPN,Npfsn,nmod
114,681-682,-,_,_,_,_,_,125,PUNCT,Z,punct
115,683-684,a,_,_,_,_,_,125,CCONJ,Cc,cc
116,685-687,biti,_,_,_,_,_,125,AUX,Va-f3s-n,aux
117,688-689,o,_,_,_,_,_,119,ADP,Sl,case
118,690-694,Muri,ORG,_,*->1-7,*[1],_,125,PROPN,Npfsl,obl
119,695-697,na,_,_,_,_,_,122,ADP,Sl,case
120,698-703,nujen,_,_,_,_,_,122,ADJ,Agpfsl,amod
121,704-708,seja,_,_,_,_,_,125,NOUN,Ncfsl,obl
122,709-718,prihodnji,_,_,_,_,_,124,ADJ,Agpmsay,amod
123,719-729,ponedeljek,_,_,_,_,_,125,NOUN,Ncmsan,obl
124,730-741,razpravljati,_,_,_,_,_,85,VERB,Vmpp-sm,conj
125,742-746,tudi,_,_,_,_,_,125,PART,Q,advmod
126,747-760,parlamentaren,_,_,_,_,_,128,ADJ,Agpmsny,amod
127,761-766,odbor,_,_,_,_,_,125,NOUN,Ncmsn,nsubj
128,767-769,za,_,_,_,_,_,130,ADP,Sa,case
129,770-782,gospodarstvo,_,_,_,_,_,128,NOUN,Ncnsa,nmod
130,783-784,.,_,_,_,_,_,125,PUNCT,Z,punct
131,785-787,na,_,_,_,_,_,133,ADP,Sa,case
132,788-792,seja,_,_,_,_,_,135,NOUN,Ncfsa,obl
133,793-795,biti,_,_,_,_,_,135,AUX,Va-r3p-n,cop
134,796-804,vabljen,_,_,_,_,_,2,ADJ,Appmpn,parataxis
135,805-809,tudi,_,_,_,_,_,135,PART,Q,advmod
136,810-822,predstavnik,_,_,_,_,_,135,NOUN,Ncmpn,nsubj
137,823-831,podjetje,_,_,*->1-8,*[1],_,137,NOUN,Ncnsg,nmod
138,832-833,",",_,_,_,_,_,140,PUNCT,Z,punct
139,834-843,lastnik,_,_,_,_,_,138,NOUN,Ncmpg,conj
140,844-846,in,_,_,_,_,_,142,CCONJ,Cc,cc
141,847-852,vlada,_,_,_,_,_,138,NOUN,Ncfsg,conj
142,853-856,ter,_,_,_,_,_,144,CCONJ,Cc,cc
143,857-865,združenje,_,_,_,_,_,138,NOUN,Ncnpg,conj
144,866-878,delodajalec,_,_,_,_,_,144,NOUN,Ncmpg,nmod
145,879-880,.,_,_,_,_,_,135,PUNCT,Z,punct
146,881-888,lastnik,_,_,_,_,_,150,NOUN,Ncmsn,nsubj
147,889-891,biti,_,_,_,_,_,150,AUX,Va-c,aux
148,892-894,se,_,_,_,_,_,151,PRON,Px------y,expl
149,895-900,morati,_,_,_,_,_,2,VERB,Vmpp-sm,parataxis
150,901-908,zganiti,_,_,_,_,_,150,VERB,Vmen,xcomp
151,909-913,prej,_,_,_,_,_,151,ADV,Rgc,advmod
152,914-919,župan,_,_,*->4-1,*[4],_,151,NOUN,Ncmsn,nsubj
153,920-926,gornji,LOC[1],0,*->4-1|*->5-1,*[4]|*[5],3 - Nevtralno[11],155,ADJ,Agpfsg,amod
154,927-934,Radgona,LOC[1],0,*->4-1|*->5-1,*[4]|*[5],3 - Nevtralno[11],153,PROPN,Npfsg,nmod
155,935-937,in,_,_,*->4-1,*[4],_,164,CCONJ,Cc,cc
156,938-946,poslanec,_,_,*->4-1,*[4],_,164,NOUN,Ncmsn,nsubj
157,947-949,SD,ORG,0,*->4-1|*->6-1,*[4]|*[6],3 - Nevtralno,157,PROPN,Npmsn,nmod
158,950-951,-,_,_,*->4-1,*[4],_,160,PUNCT,Z,punct
159,952-954,ja,_,_,*->4-1,*[4],_,164,PART,Q,mark
160,955-960,Anton,PER[2],_,*->4-1,*[4],_,157,PROPN,Npmsn,nmod
161,961-967,Kampuš,PER[2],_,*->4-1,*[4],_,161,PROPN,Npmsn,flat:name
162,968-970,biti,_,_,_,_,_,164,AUX,Va-r3s-n,cop
163,971-980,razočaran,_,_,_,_,_,151,ADJ,Appmsnn,conj
164,981-984,nad,_,_,_,_,_,166,ADP,Si,case
165,985-994,ravnanje,_,_,_,_,_,164,NOUN,Ncnsi,obl
166,995-1004,lastnik,_,_,_,_,_,166,NOUN,Ncmpg,nmod
167,1005-1009,Mura,ORG,_,*->1-9,*[1],_,167,PROPN,Npfsg,nmod
168,1010-1011,.,_,_,_,_,_,164,PUNCT,Z,punct
169,1012-1020,velik,_,_,*->7-1,*[7],_,171,ADJ,Agsmsny,amod
170,1021-1028,lastnik,_,_,*->7-1,*[7],_,177,NOUN,Ncmsn,nsubj
171,1029-1032,NFD,ORG[3],_,*->7-1,*[7],_,171,PROPN,Npmsn,nmod
172,1033-1040,holding,ORG[3],_,*->7-1,*[7],_,172,PROPN,Npmsn,flat:name
173,1041-1043,se,_,_,_,_,_,177,PRON,Px------y,expl
174,1044-1046,biti,_,_,_,_,_,177,AUX,Va-r3s-n,aux
175,1047-1053,namreč,_,_,_,_,_,177,CCONJ,Cc,advmod
176,1054-1060,zganiti,_,_,_,_,_,2,VERB,Vmep-sm,parataxis
177,1061-1065,šele,_,_,_,_,_,180,PART,Q,advmod
178,1066-1068,po,_,_,_,_,_,180,ADP,Sl,case
179,1069-1078,odločitev,_,_,_,_,_,177,NOUN,Ncfsl,obl
180,1079-1085,država,_,_,*->3-5,*[3],_,180,NOUN,Ncfsg,nmod
181,1086-1087,",",_,_,_,_,_,185,PUNCT,Z,punct
182,1088-1090,da,_,_,_,_,_,185,SCONJ,Cs,mark
183,1091-1093,ne,_,_,_,_,_,185,PART,Q,advmod
184,1094-1102,zagotoviti,_,_,_,_,_,181,VERB,Vmer3s,acl
185,1103-1108,pet,_,_,_,_,_,187,NUM,Mlc-pg,nummod
186,1109-1118,milijon,_,_,_,_,_,185,NOUN,Ncmpg,obj
187,1119-1124,evro,_,_,_,_,_,187,NOUN,Ncmpg,nmod
188,1125-1126,.,_,_,_,_,_,177,PUNCT,Z,punct
189,1127-1129,ta,_,_,_,_,_,193,DET,Pd-nsn,nsubj
190,1130-1132,se,_,_,_,_,_,193,PRON,Px------y,expl
191,1133-1135,on,_,_,*->4-2,*[4],_,193,PRON,Pp3msd--y,obj
192,1136-1139,zdeti,_,_,_,_,_,177,VERB,Vmpr3s,advcl
193,1140-1146,velik,_,_,_,_,_,195,ADJ,Agpfsn,amod
194,1147-1159,manipulacija,_,_,_,_,_,193,NOUN,Ncfsn,nsubj
195,1160-1162,in,_,_,_,_,_,198,CCONJ,Cc,cc
196,1163-1167,zato,_,_,_,_,_,198,CCONJ,Cc,cc
197,1168-1172,želeti,_,_,*->4-3,*[4],_,193,VERB,Vmpr3s,conj
198,1173-1174,",",_,_,_,_,_,206,PUNCT,Z,punct
199,1175-1177,da,_,_,_,_,_,206,SCONJ,Cs,mark
200,1178-1181,ves,_,_,_,_,_,206,DET,Pg-mpn,nsubj
201,1182-1188,skupaj,_,_,_,_,_,206,ADV,Rgp,advmod
202,1189-1190,z,_,_,_,_,_,205,ADP,Si,case
203,1191-1196,ves,_,_,_,_,_,205,DET,Pg-mpi,det
204,1197-1203,top,_,_,_,_,_,206,NOUN,Ncmpi,obl
205,1204-1211,udariti,_,_,_,_,_,198,VERB,Vmer3p,ccomp
206,1212-1214,po,_,_,_,_,_,208,ADP,Sl,case
207,1215-1223,lastnik,_,_,*->7-2,*[7],_,206,NOUN,Ncmsl,obl
208,1224-1225,",",_,_,_,_,_,211,PUNCT,Z,punct
209,1226-1228,da,_,_,_,_,_,211,SCONJ,Cs,mark
210,1229-1233,rešiti,_,_,_,_,_,208,VERB,Vmer3s,acl
211,1234-1239,svoj,_,_,*->7-3,*[7],_,213,DET,Px-nsa,det
212,1240-1248,podjetje,_,_,*->1-10,*[1],_,211,NOUN,Ncnsa,obj
213,1249-1250,.,_,_,_,_,_,206,PUNCT,Z,punct
214,1251-1258,lastnik,_,2,*->7-4,*[7],2 - Negativno,217,NOUN,Ncmsn,nsubj
215,1259-1261,biti,_,_,_,_,_,217,AUX,Va-c,aux
216,1262-1267,morati,_,_,_,_,_,2,VERB,Vmpp-sm,parataxis
217,1268-1278,pripraviti,_,_,_,_,_,217,VERB,Vmen,xcomp
218,1279-1288,strokovno,_,_,_,_,_,220,ADV,Rgp,advmod
219,1289-1300,usposobljen,_,_,_,_,_,222,ADJ,Appmsan,amod
220,1301-1309,nadzoren,_,_,_,_,_,222,ADJ,Agpmsay,amod
221,1310-1315,odbor,_,_,_,_,_,218,NOUN,Ncmsan,obj
222,1316-1317,",",_,_,_,_,_,226,PUNCT,Z,punct
223,1318-1320,ki,_,_,_,_,_,226,SCONJ,Cs,mark
224,1321-1324,naj,_,_,_,_,_,226,PART,Q,advmod
225,1325-1332,imenovati,_,_,_,_,_,222,VERB,Vmbr3s,acl
226,1333-1341,sposoben,_,_,_,_,_,229,ADJ,Agpfsa,amod
227,1342-1353,menedžerski,_,_,_,_,_,229,ADJ,Agpfsa,amod
228,1354-1359,ekipa,_,_,_,_,_,226,NOUN,Ncfsa,obj
229,1360-1361,",",_,_,_,_,_,234,PUNCT,Z,punct
230,1362-1364,ki,_,_,_,_,_,234,SCONJ,Cs,mark
231,1365-1367,se,_,_,_,_,_,235,PRON,Px------y,expl
232,1368-1370,biti,_,_,_,_,_,234,AUX,Va-f3s-n,aux
233,1371-1376,upati,_,_,_,_,_,229,VERB,Vmpp-sf,acl
234,1377-1387,spoprijeti,_,_,_,_,_,234,VERB,Vmen,xcomp
235,1388-1389,z,_,_,_,_,_,237,ADP,Si,case
236,1390-1394,Mura,ORG,_,*->1-11,*[1],_,235,PROPN,Npfsi,obl
237,1395-1396,.,_,_,_,_,_,226,PUNCT,Z,punct
238,1397-1402,poleg,_,_,_,_,_,240,ADP,Sg,case
239,1403-1407,ta,_,_,_,_,_,242,DET,Pd-nsg,obl
240,1408-1410,biti,_,0,*->4-4,*[4],3 - Nevtralno[12],242,AUX,Va-r3s-n,aux
241,1411-1419,opozoriti,_,0,*->4-4,*[4],3 - Nevtralno[12],2,VERB,Vmep-sm,parataxis
242,1420-1421,",",_,_,_,_,_,248,PUNCT,Z,punct
243,1422-1424,da,_,_,_,_,_,248,SCONJ,Cs,mark
244,1425-1427,biti,_,_,_,_,_,248,AUX,Va-r3s-n,aux
245,1428-1434,država,_,1,*->3-6,*[3],4 - Pozitivno,248,NOUN,Ncfsn,nsubj
246,1435-1439,Muri,ORG,_,*->1-12,*[1],_,246,PROPN,Npfsd,nmod
247,1440-1448,nameniti,_,_,_,_,_,242,VERB,Vmep-sf,ccomp
248,1449-1451,že,_,_,_,_,_,248,PART,Q,advmod
249,1452-1458,precej,_,_,_,_,_,251,ADV,Rgp,advmod
250,1459-1467,sredstvo,_,_,_,_,_,248,NOUN,Ncnpg,obj
251,1468-1469,",",_,_,_,_,_,256,PUNCT,Z,punct
252,1470-1472,ki,_,_,_,_,_,256,SCONJ,Cs,mark
253,1473-1475,biti,_,_,_,_,_,256,AUX,Va-r3p-n,aux
254,1476-1480,biti,_,_,_,_,_,256,AUX,Va-p-pn,cop
255,1481-1490,namenjen,_,_,_,_,_,251,ADJ,Appnpn,acl
256,1491-1500,izključno,_,_,_,_,_,258,ADJ,Agpnsn,amod
257,1501-1518,prestrukturiranje,_,_,_,_,_,256,NOUN,Ncnsd,obj
258,1519-1525,družba,_,_,*->1-13,*[1],_,258,NOUN,Ncfsg,nmod
259,1526-1527,",",_,_,_,_,_,256,PUNCT,Z,punct
260,1528-1529,a,_,_,_,_,_,264,CCONJ,Cc,cc
261,1530-1532,biti,_,_,_,_,_,264,AUX,Va-r3p-n,aux
262,1533-1535,ta,_,_,_,_,_,264,DET,Pd-nsn,nsubj
263,1536-1545,ponikniti,_,_,_,_,_,256,VERB,Vmep-pn,conj
264,1546-1549,med,_,_,_,_,_,266,ADP,Si,case
265,1550-1558,lastnik,_,_,_,_,_,264,NOUN,Ncmpi,obl
266,1559-1560,.,_,_,_,_,_,264,PUNCT,Z,punct
267,1561-1575,nezadovoljstvo,_,_,_,_,_,270,NOUN,Ncnsa,obj
268,1576-1578,biti,_,_,_,_,_,270,AUX,Va-r3s-n,aux
269,1579-1586,izraziti,_,_,_,_,_,2,VERB,Vmep-sm,parataxis
270,1587-1591,tudi,_,_,_,_,_,270,PART,Q,advmod
271,1592-1595,nad,_,_,_,_,_,274,ADP,Si,case
272,1596-1603,Murin,ORG,_,*->1-14,*[1],_,274,ADJ,Aspmsi,amod
273,1604-1614,sindikat,_,_,_,_,_,270,NOUN,Ncmsi,obl
274,1615-1616,",",_,_,_,_,_,256,PUNCT,Z,punct
275,1617-1620,saj,_,_,_,_,_,278,CCONJ,Cc,cc
276,1621-1623,ne,_,_,_,_,_,278,PART,Q,advmod
277,1624-1631,zastopati,_,_,_,_,_,270,VERB,Vmpr3s,conj
278,1632-1640,delavec,_,_,_,_,_,278,NOUN,Ncmpg,obj
279,1641-1642,",",_,_,_,_,_,282,PUNCT,Z,punct
280,1643-1648,ampak,_,_,_,_,_,282,CCONJ,Cc,cc
281,1649-1657,lastnik,_,_,_,_,_,279,NOUN,Ncmpa,appos
282,1658-1659,.,_,_,_,_,_,278,PUNCT,Z,punct
283,1660-1668,Poslanec,_,0,*->9-1,*[9],3 - Nevtralno[13],291,PROPN,Npmsn,nsubj
284,1669-1672,SNS,ORG,0,*->9-1|*->10-1,*[9]|*[10],3 - Nevtralno[13]|3 - Nevtralno[14],284,PROPN,Npmsn,flat:name
285,1673-1674,-,_,0,*->9-1,*[9],3 - Nevtralno[13],288,PUNCT,Z,punct
286,1675-1676,a,_,0,*->9-1,*[9],3 - Nevtralno[13],288,CCONJ,Cc,cc
287,1677-1682,Miran,PER[4],0,*->9-1,*[9],3 - Nevtralno[13],284,PROPN,Npmsn,conj
288,1683-1689,Györek,PER[4],0,*->9-1,*[9],3 - Nevtralno[13],288,PROPN,Npmsn,flat:name
289,1690-1692,biti,_,_,_,_,_,291,AUX,Va-r3s-n,aux
290,1693-1698,dejati,_,_,_,_,_,282,VERB,Vmep-sm,conj
291,1699-1700,",",_,_,_,_,_,297,PUNCT,Z,punct
292,1701-1703,da,_,_,_,_,_,297,SCONJ,Cs,mark
293,1704-1711,agonija,_,_,_,_,_,297,NOUN,Ncfsn,nsubj
294,1712-1717,okoli,_,_,_,_,_,296,ADP,Sg,case
295,1718-1722,Mura,ORG,_,*->1-15,*[1],_,294,PROPN,Npfsg,nmod
296,1723-1727,kazati,_,_,_,_,_,291,VERB,Vmpr3s,ccomp
297,1728-1730,na,_,_,_,_,_,299,ADP,Sa,case
298,1731-1747,nepripravljenost,_,_,_,_,_,297,NOUN,Ncfsa,obl
299,1748-1750,in,_,_,_,_,_,301,CCONJ,Cc,cc
300,1751-1763,nesposobnost,_,_,_,_,_,299,NOUN,Ncfsa,conj
301,1764-1769,vlada,_,_,_,_,_,301,NOUN,Ncfsg,nmod
302,1770-1771,",",_,_,_,_,_,306,PUNCT,Z,punct
303,1772-1774,da,_,_,_,_,_,306,SCONJ,Cs,mark
304,1775-1781,zadeva,_,_,_,_,_,306,NOUN,Ncfsa,obj
305,1782-1786,rešiti,_,_,_,_,_,302,VERB,Vmer3s,acl
306,1787-1788,v,_,_,_,_,_,309,ADP,Sa,case
307,1789-1794,dober,_,_,_,_,_,309,ADJ,Agpfsa,amod
308,1795-1801,regija,_,_,_,_,_,306,NOUN,Ncfpa,obl
309,1802-1804,in,_,_,_,_,_,311,CCONJ,Cc,cc
310,1805-1815,zaposlen,_,_,_,_,_,309,ADJ,Appmpg,conj
311,1816-1817,.,_,_,_,_,_,297,PUNCT,Z,punct
312,1818-1824,zadeva,_,_,_,_,_,315,NOUN,Ncfsn,nsubj
313,1825-1827,biti,_,_,_,_,_,315,AUX,Va-r3s-n,aux
314,1828-1834,priti,_,_,_,_,_,2,VERB,Vmep-sf,parataxis
315,1835-1839,tako,_,_,_,_,_,317,ADV,Rgp,advmod
316,1840-1845,daleč,_,_,_,_,_,315,ADV,Rgp,advmod
317,1846-1847,",",_,_,_,_,_,321,PUNCT,Z,punct
318,1848-1850,da,_,_,_,_,_,321,SCONJ,Cs,mark
319,1851-1853,biti,_,_,_,_,_,321,AUX,Va-r3s-n,cop
320,1854-1857,čas,_,_,_,_,_,315,NOUN,Ncmsn,nsubj
321,1858-1859,",",_,_,_,_,_,324,PUNCT,Z,punct
322,1860-1862,da,_,_,_,_,_,324,SCONJ,Cs,mark
323,1863-1872,zahtevati,_,_,_,_,_,321,VERB,Vmbr1p,acl
324,1873-1879,odstop,_,_,_,_,_,324,NOUN,Ncmsan,obj
325,1880-1887,Pahorje,PER,_,*->11-1,*[11],_,325,PROPN,Npmsg,nmod
326,1888-1890,in,_,_,_,_,_,329,CCONJ,Cc,cc
327,1891-1898,njegov,_,2,*->11-2,*[11],2 - Negativno,329,DET,Ps3fsgsm,det
328,1899-1904,vlada,_,_,_,_,_,326,NOUN,Ncfsg,conj
329,1905-1906,.,_,_,_,_,_,321,PUNCT,Z,punct
330,1907-1912,hitro,_,_,_,_,_,334,ADV,Rgp,advmod
331,1913-1915,biti,_,_,_,_,_,333,AUX,Va-r3s-n,cop
332,1916-1922,mogoč,_,_,_,_,_,2,ADJ,Agpnsn,parataxis
333,1923-1928,najti,_,_,_,_,_,333,VERB,Vmen,csubj
334,1929-1935,zdrav,_,_,_,_,_,336,ADJ,Agpnpa,amod
335,1936-1941,jedro,_,_,_,_,_,334,NOUN,Ncnpa,obj
336,1942-1947,župan,_,_,*->12-1,*[12],_,336,NOUN,Ncmsn,nmod
337,1948-1957,moravski,LOC[5],0,*->12-1|*->13-1,*[12]|*[13],3 - Nevtralno[15],339,ADJ,Agpfpg,amod
338,1958-1964,Toplice,LOC[5],0,*->12-1|*->13-1,*[12]|*[13],3 - Nevtralno[15],337,PROPN,Npfpg,nmod
339,1965-1970,Franc,PER[6],_,*->12-1,*[12],_,337,PROPN,Npmsn,nmod
340,1971-1976,Cipot,PER[6],_,*->12-1,*[12],_,340,PROPN,Npmsn,flat:name
341,1977-1979,biti,_,_,_,_,_,343,AUX,Va-r3s-n,cop
342,1980-1987,začuden,_,_,_,_,_,333,ADJ,Appmsnn,csubj
343,1988-1989,",",_,_,_,_,_,348,PUNCT,Z,punct
344,1990-1992,da,_,_,_,_,_,348,SCONJ,Cs,mark
345,1993-2001,vpleten,_,_,_,_,_,348,ADJ,Appmpn,nsubj
346,2002-2004,ne,_,_,_,_,_,348,PART,Q,advmod
347,2005-2012,najti,_,_,_,_,_,343,VERB,Vmer3p,csubj
348,2013-2020,rešitev,_,_,_,_,_,348,NOUN,Ncfsg,obj
349,2021-2023,za,_,_,_,_,_,351,ADP,Sa,case
350,2024-2028,Mura,ORG,_,*->1-16,*[1],_,349,PROPN,Npfsa,nmod
351,2029-2031,in,_,_,_,_,_,355,CCONJ,Cc,cc
352,2032-2034,da,_,_,_,_,_,355,SCONJ,Cs,mark
353,2035-2043,lastnik,_,_,_,_,_,355,NOUN,Ncmpn,nsubj
354,2044-2050,čakati,_,_,_,_,_,348,VERB,Vmpr3p,conj
355,2051-2055,tako,_,_,_,_,_,357,ADV,Rgp,advmod
356,2056-2061,dolgo,_,_,_,_,_,355,ADV,Rgp,advmod
357,2062-2063,.,_,_,_,_,_,333,PUNCT,Z,punct
358,2064-2068,meniti,_,1,*->12-2,*[12],4 - Pozitivno,343,VERB,Vmpr3s,conj
359,2069-2075,namreč,_,_,_,_,_,359,CCONJ,Cc,advmod
360,2076-2077,",",_,_,_,_,_,366,PUNCT,Z,punct
361,2078-2080,da,_,_,_,_,_,366,SCONJ,Cs,mark
362,2081-2083,biti,_,_,_,_,_,366,AUX,Va-r3s-n,cop
363,2084-2088,brez,_,_,_,_,_,365,ADP,Sg,case
364,2089-2094,težava,_,_,_,_,_,367,NOUN,Ncfpg,obl
365,2095-2101,mogoč,_,_,_,_,_,359,ADJ,Agpnsn,ccomp
366,2102-2107,najti,_,_,_,_,_,366,VERB,Vmen,csubj
367,2108-2114,zdrav,_,_,_,_,_,369,ADJ,Agpnpa,amod
368,2115-2120,jedro,_,_,_,_,_,367,NOUN,Ncnpa,obj
369,2121-2122,",",_,_,_,_,_,366,PUNCT,Z,punct
370,2123-2127,zato,_,_,_,_,_,376,CCONJ,Cc,cc
371,2128-2131,naj,_,_,_,_,_,376,PART,Q,advmod
372,2132-2134,se,_,_,_,_,_,376,PRON,Px------y,expl
373,2135-2138,čim,_,_,_,_,_,375,ADV,Rgp,advmod
374,2139-2146,hitro,_,_,_,_,_,376,ADV,Rgc,advmod
375,2147-2155,ustanoviti,_,_,_,_,_,367,VERB,Vmer3s,conj
376,2156-2160,nov,_,_,_,_,_,378,ADJ,Agpfsn,amod
377,2161-2167,družba,_,_,_,_,_,376,NOUN,Ncfsn,nsubj
378,2168-2169,",",_,_,_,_,_,384,PUNCT,Z,punct
379,2170-2172,na,_,_,_,_,_,381,ADP,Sa,case
380,2173-2179,kateri,_,_,_,_,_,384,DET,Pq-fsa,obl
381,2180-2183,naj,_,_,_,_,_,384,PART,Q,advmod
382,2184-2186,se,_,_,_,_,_,384,PRON,Px------y,expl
383,2187-2196,prenesti,_,_,_,_,_,378,VERB,Vmer3p,acl
384,2197-2203,zdrav,_,_,_,_,_,386,ADJ,Agpnpn,amod
385,2204-2209,jedro,_,_,_,_,_,384,NOUN,Ncnpn,nsubj
386,2210-2211,.,_,_,_,_,_,376,PUNCT,Z,punct
387,2212-2213,v,_,_,_,_,_,390,ADP,Sl,case
388,2214-2217,ta,_,_,_,_,_,390,DET,Pd-fpl,det
389,2218-2225,družba,_,_,_,_,_,396,NOUN,Ncfpl,obl
390,2226-2228,biti,_,_,_,_,_,396,AUX,Va-c,aux
391,2229-2234,lahko,_,_,_,_,_,396,ADV,Rgp,advmod
392,2235-2239,biti,_,_,_,_,_,396,AUX,Va-p-pf,cop
393,2240-2248,lastnik,_,_,_,_,_,396,NOUN,Ncmpn,nsubj
394,2249-2253,tudi,_,_,_,_,_,396,PART,Q,advmod
395,2254-2260,občina,_,_,_,_,_,376,NOUN,Ncfpn,nsubj
396,2261-2262,",",_,_,_,_,_,396,PUNCT,Z,punct
397,2263-2264,v,_,_,_,_,_,400,ADP,Sl,case
398,2265-2274,pretežen,_,_,_,_,_,400,ADJ,Agpnsl,amod
399,2275-2279,del,_,_,_,_,_,404,NOUN,Ncnsl,obl
400,2280-2282,pa,_,_,_,_,_,404,CCONJ,Cc,advmod
401,2283-2285,biti,_,_,_,_,_,404,AUX,Va-c,aux
402,2286-2288,ta,_,_,_,_,_,433,DET,Pd-nsa,obj
403,2289-2295,morati,_,_,_,_,_,396,VERB,Vmpp-sf,acl
404,2296-2300,biti,_,_,_,_,_,406,AUX,Va-n,cop
405,2301-2307,država,_,_,_,_,_,404,NOUN,Ncfsn,nsubj
406,2308-2309,.,_,_,_,_,_,396,PUNCT,Z,punct
407,2310-2315,župan,_,_,*->17-1,*[17],_,396,NOUN,Ncmsn,nsubj
408,2316-2322,občina,_,_,*->17-1,*[17],_,408,NOUN,Ncfsg,nmod
409,2323-2331,Ljutomer,LOC,0,*->17-1|*->18-1,*[17]|*[18],3 - Nevtralno,409,PROPN,Npmsn,nmod
410,2332-2334,in,_,_,*->17-1,*[17],_,412,CCONJ,Cc,cc
411,2335-2343,poslanec,_,_,*->17-1,*[17],_,408,NOUN,Ncmsn,conj
412,2344-2349,Desus,ORG,0,*->17-1|*->19-1,*[17]|*[19],3 - Nevtralno,412,PROPN,Npmsn,nmod
413,2350-2351,-,_,_,*->17-1,*[17],_,412,PUNCT,Z,punct
414,2352-2353,a,_,_,*->17-1,*[17],_,420,CCONJ,Cc,cc
415,2354-2359,Franc,PER[7],_,*->17-1,*[17],_,408,PROPN,Npmsn,conj
416,2360-2365,Jurš,PER[7],_,*->17-1,*[17],_,416,PROPN,Npmsn,flat:name
417,2366-2368,se,_,_,_,_,_,420,PRON,Px------y,expl
418,2369-2371,biti,_,_,_,_,_,420,AUX,Va-r3s-n,aux
419,2372-2378,zavzeti,_,_,_,_,_,396,VERB,Vmep-sm,conj
420,2379-2380,",",_,_,_,_,_,433,PUNCT,Z,punct
421,2381-2383,da,_,_,_,_,_,433,SCONJ,Cs,mark
422,2384-2386,se,_,_,_,_,_,433,PRON,Px------y,expl
423,2387-2393,murin,ORG,_,*->1-17,*[1],_,425,ADJ,Aspmpa,amod
424,2394-2401,delavec,_,_,_,_,_,433,NOUN,Ncmpa,obj
425,2402-2403,",",_,_,_,_,_,429,PUNCT,Z,punct
426,2404-2406,ki,_,_,_,_,_,429,SCONJ,Cs,mark
427,2407-2411,biti,_,_,_,_,_,429,AUX,Va-f3p-n,aux
428,2412-2418,ostati,_,_,_,_,_,425,VERB,Vmep-pm,acl
429,2419-2423,brez,_,_,_,_,_,431,ADP,Sg,case
430,2424-2428,delo,_,_,_,_,_,429,NOUN,Ncnsg,obl
431,2429-2430,",",_,_,_,_,_,429,PUNCT,Z,punct
432,2431-2438,zaposti,_,_,_,_,_,420,VERB,Vmer3s,ccomp
433,2439-2445,drugje,_,_,_,_,_,433,ADV,Rgp,advmod
434,2446-2447,",",_,_,_,_,_,429,PUNCT,Z,punct
435,2448-2451,saj,_,_,_,_,_,441,CCONJ,Cc,cc
436,2452-2454,se,_,_,_,_,_,441,PRON,Px------y,expl
437,2455-2457,za,_,_,_,_,_,440,ADP,Sa,case
438,2458-2466,nekateri,_,_,_,_,_,440,DET,Pi-mpa,det
439,2467-2475,projekt,_,_,_,_,_,441,NOUN,Ncmpa,obl
440,2476-2482,zanimati,_,_,_,_,_,433,VERB,Vmpr3s,conj
441,2483-2486,kar,_,_,_,_,_,443,ADV,Rgp,advmod
442,2487-2492,nekaj,_,_,_,_,_,444,DET,Rgp,det
443,2493-2504,vlagatelj,_,_,_,_,_,441,NOUN,Ncmpg,nsubj
444,2505-2506,.,_,_,_,_,_,433,PUNCT,Z,punct
445,2507-2521,nesprejemljiv,_,_,_,_,_,449,ADJ,Agpnsn,nsubj
446,2522-2524,se,_,_,_,_,_,449,PRON,Px------y,expl
447,2525-2527,on,_,1,*->17-2,*[17],4 - Pozitivno,449,PRON,Pp3msd--y,obj
448,2528-2531,zdeti,_,_,_,_,_,441,VERB,Vmpr3s,conj
449,2532-2533,",",_,_,_,_,_,457,PUNCT,Z,punct
450,2534-2536,da,_,_,_,_,_,457,SCONJ,Cs,mark
451,2537-2539,se,_,_,_,_,_,457,PRON,Px------y,expl
452,2540-2542,na,_,_,_,_,_,454,ADP,Sa,case
453,2543-2548,zavod,_,_,_,_,_,457,NOUN,Ncmsan,obl
454,2549-2551,za,_,_,_,_,_,456,ADP,Sa,case
455,2552-2564,zaposlovanje,_,_,_,_,_,454,NOUN,Ncnsa,nmod
456,2565-2572,prijaviti,_,_,_,_,_,449,VERB,Vmer3s,csubj
457,2573-2575,še,_,_,_,_,_,457,PART,Q,advmod
458,2576-2579,več,_,_,_,_,_,460,DET,Rgc,det
459,2580-2588,delavec,_,_,_,_,_,457,NOUN,Ncmpg,obj
460,2589-2590,",",_,_,_,_,_,457,PUNCT,Z,punct
461,2591-2594,saj,_,_,_,_,_,463,CCONJ,Cc,cc
462,2595-2598,imeti,_,_,_,_,_,457,VERB,Vmpr3s-n,conj
463,2599-2605,regija,_,2,*->2-4,*[2],2 - Negativno,463,NOUN,Ncfsn,nsubj
464,2606-2608,že,_,_,_,_,_,463,PART,Q,advmod
465,2609-2613,zdaj,_,_,_,_,_,467,ADV,Rgp,advmod
466,2614-2620,visok,_,_,_,_,_,468,ADJ,Agpfsa,amod
467,2621-2634,brezposlenost,_,_,_,_,_,463,NOUN,Ncfsa,obj
468,2635-2636,.,_,_,_,_,_,457,PUNCT,Z,punct
469,2637-2650,murskosoboški,_,0,*->14-1,*[14],3 - Nevtralno[16],471,ADJ,Agpmsny,amod
470,2651-2656,župan,_,0,*->14-1,*[14],3 - Nevtralno[16],475,NOUN,Ncmsn,nsubj
471,2657-2662,Anton,PER[8],0,*->14-1,*[14],3 - Nevtralno[16],471,PROPN,Npmsn,nmod
472,2663-2669,Štihec,PER[8],0,*->14-1,*[14],3 - Nevtralno[16],472,PROPN,Npmsn,flat:name
473,2670-2672,biti,_,_,_,_,_,475,AUX,Va-r3s-n,aux
474,2673-2678,dejati,_,_,_,_,_,463,VERB,Vmep-sm,conj
475,2679-2680,",",_,_,_,_,_,481,PUNCT,Z,punct
476,2681-2683,da,_,_,_,_,_,481,SCONJ,Cs,mark
477,2684-2690,stečaj,_,_,_,_,_,481,NOUN,Ncmsn,nsubj
478,2691-2697,družba,_,_,*->1-18,*[1],_,478,NOUN,Ncfsg,nmod
479,2698-2700,biti,_,_,_,_,_,481,AUX,Va-r3s-y,cop
480,2701-2715,primeren,_,_,_,_,_,475,ADJ,Agsfsn,ccomp
481,2716-2723,rešitev,_,_,_,_,_,481,NOUN,Ncfsn,nsubj
482,2724-2725,",",_,_,_,_,_,481,PUNCT,Z,punct
483,2726-2729,saj,_,_,_,_,_,486,CCONJ,Cc,cc
484,2730-2732,ne,_,_,_,_,_,486,PART,Q,advmod
485,2733-2740,prinašati,_,_,_,_,_,481,VERB,Vmpr3s,conj
486,2741-2751,primeren,_,_,_,_,_,488,ADJ,Agpmsg,amod
487,2752-2761,scenarija,_,_,_,_,_,486,NOUN,Ncmsg,obj
488,2762-2763,",",_,_,_,_,_,492,PUNCT,Z,punct
489,2764-2766,ki,_,_,_,_,_,492,SCONJ,Cs,mark
490,2767-2769,biti,_,_,_,_,_,492,AUX,Va-c,aux
491,2770-2779,predvideti,_,_,_,_,_,488,VERB,Vmep-sm,acl
492,2780-2787,rešitev,_,_,_,_,_,492,NOUN,Ncfsa,obj
493,2788-2790,za,_,_,_,_,_,497,ADP,Sa,case
494,2791-2797,trajen,_,_,_,_,_,497,ADJ,Agpmpa,amod
495,2798-2806,presežen,_,_,_,_,_,497,ADJ,Agpmpa,amod
496,2807-2814,delavec,_,_,_,_,_,493,NOUN,Ncmpa,nmod
497,2815-2816,.,_,_,_,_,_,475,PUNCT,Z,punct
498,2817-2825,poslanec,_,0,*->15-1,*[15],3 - Nevtralno[17],507,NOUN,Ncmsn,nsubj
499,2826-2830,Geza,PER[9],0,*->15-1,*[15],3 - Nevtralno[17],499,PROPN,Npmsn,nmod
500,2831-2837,Džuban,PER[9],0,*->15-1,*[15],3 - Nevtralno[17],500,PROPN,Npmsn,flat:name
501,2838-2841,LDS,ORG,0,*->16-1,*[16],3 - Nevtralno,507,PROPN,Npfsg,nsubj
502,2842-2844,pa,_,_,_,_,_,507,CCONJ,Cc,advmod
503,2845-2847,biti,_,_,_,_,_,507,AUX,Va-r3s-n,aux
504,2848-2856,ravnanje,_,_,_,_,_,507,NOUN,Ncnsa,obj
505,2857-2862,vlada,_,_,_,_,_,505,NOUN,Ncfsg,nmod
506,2863-2870,označiti,_,_,_,_,_,475,VERB,Vmep-sm,ccomp
507,2871-2873,za,_,_,_,_,_,509,ADP,Sa,case
508,2874-2884,neprimerno,_,_,_,_,_,507,ADJ,Agpnsa,obl
509,2885-2886,.,_,_,_,_,_,516,PUNCT,Z,punct
510,2887-2894,vodstvo,_,_,_,_,_,516,NOUN,Ncnsn,nsubj
511,2895-2902,stranka,_,_,_,_,_,511,NOUN,Ncfsg,nmod
512,2903-2905,pa,_,_,_,_,_,516,CCONJ,Cc,advmod
513,2906-2908,biti,_,_,_,_,_,516,AUX,Va-f3s-n,aux
514,2909-2914,vlada,_,_,_,_,_,516,NOUN,Ncfsd,iobj
515,2915-2922,poslati,_,_,_,_,_,507,VERB,Vmep-sn,conj
516,2923-2930,zahteva,_,_,_,_,_,516,NOUN,Ncfsa,obj
517,2931-2932,",",_,_,_,_,_,525,PUNCT,Z,punct
518,2933-2935,da,_,_,_,_,_,525,SCONJ,Cs,mark
519,2936-2938,se,_,_,_,_,_,525,PRON,Px------y,expl
520,2939-2947,pogovor,_,_,_,_,_,525,NOUN,Ncmpn,nsubj
521,2948-2950,za,_,_,_,_,_,523,ADP,Sa,case
522,2951-2958,rešitev,_,_,_,_,_,521,NOUN,Ncfsa,nmod
523,2959-2963,Mura,ORG,2,*->1-19,*[1],2 - Negativno,523,PROPN,Npfsg,nmod
524,2964-2975,nadaljevati,_,_,_,_,_,517,VERB,Vmpr3p,acl
