idx,chars_idx,token,entity_type,sentiment,idk_1,idk_2,orig_sentiment,heads,upos,xpos,deprel
0,0-7,delnica,_,_,_,_,_,18,NOUN,Ncfpn,nsubj
1,8-12,nov,ORG[1],_,*->9-1,*[9],_,3,ADJ,Agpfsg,amod
2,13-16,KBM,ORG[1],_,*->9-1,*[9],_,1,PROPN,Npfsg,nmod
3,17-25,nizko,_,_,_,_,_,18,ADJ,Agsmpn,obl
4,26-27,v,_,_,_,_,_,8,ADP,Sl,case
5,28-35,zadnji,_,_,_,_,_,8,ADJ,Agpmpl,amod
6,36-40,dva,_,_,_,_,_,8,NUM,Mlcmdl,nummod
7,41-48,mesec,_,_,_,_,_,18,NOUN,Ncmdl,obl
8,49-51,po,_,_,_,_,_,12,ADP,Sl,case
9,52-56,dva,_,_,_,_,_,12,NUM,Mlcmdl,nummod
10,57-67,pozitiven,_,_,_,_,_,12,ADJ,Agpmdl,amod
11,68-72,dan,_,_,_,_,_,18,NOUN,Ncmdl,obl
12,73-75,biti,_,_,_,_,_,18,AUX,Va-r3s-n,aux
13,76-82,indeks,_,_,_,_,_,18,NOUN,Ncmsn,nsubj
14,83-86,SBI,_,_,_,_,_,14,PROPN,Npmsn,nmod
15,87-90,TOP,_,_,_,_,_,15,PROPN,Npmsn,nmod
16,91-95,spet,_,_,_,_,_,18,ADV,Rgp,advmod
17,96-103,zdrsniti,_,_,_,_,_,0,VERB,Vmep-sm,root
18,104-105,v,_,_,_,_,_,21,ADP,Sa,case
19,106-111,rdeč,_,_,_,_,_,21,ADJ,Agpnsa,amod
20,112-119,območje,_,_,_,_,_,18,NOUN,Ncnsa,obl
21,120-121,",",_,_,_,_,_,28,PUNCT,Z,punct
22,122-128,čeprav,_,_,_,_,_,28,SCONJ,Cs,mark
23,129-131,biti,_,_,_,_,_,28,AUX,Va-r3p-n,aux
24,132-140,evropski,_,_,_,_,_,26,ADJ,Agpmpn,amod
25,141-148,indeksa,_,_,_,_,_,28,NOUN,Ncmpn,nsubj
26,149-154,močno,_,_,_,_,_,28,ADV,Rgp,advmod
27,155-166,pridobivati,_,_,_,_,_,18,VERB,Vmpp-pm,advcl
28,167-168,.,_,_,_,_,_,32,PUNCT,Z,punct
29,169-176,najbolj,_,_,_,_,_,32,ADV,Rgs,advmod
30,177-179,biti,_,_,_,_,_,32,AUX,Va-r3p-n,aux
31,180-185,pasti,_,_,_,_,_,18,VERB,Vmep-pf,parataxis
32,186-193,delnica,_,_,_,_,_,32,NOUN,Ncfpn,nsubj
33,194-198,nov,ORG[2],_,*->9-2,*[9],_,35,ADJ,Agpfsg,amod
34,199-202,KBM,ORG[2],_,*->9-2,*[9],_,33,PROPN,Npfsg,nmod
35,203-204,",",_,_,_,_,_,37,PUNCT,Z,punct
36,205-213,podražiti,_,_,_,_,_,32,VERB,Vmep-sm,advcl
37,214-216,pa,_,_,_,_,_,37,CCONJ,Cc,advmod
38,217-219,se,_,_,_,_,_,37,PRON,Px------y,expl
39,220-222,biti,_,_,_,_,_,37,AUX,Va-r3s-n,aux
40,223-225,le,_,_,_,_,_,37,PART,Q,advmod
41,226-233,Telekom,ORG,_,*->6-1,*[6],_,37,PROPN,Npmsn,nsubj
42,234-235,.,_,_,_,_,_,37,PUNCT,Z,punct
43,236-243,delnica,_,_,_,_,_,49,NOUN,Ncfpn,nsubj
44,244-248,nov,ORG[3],_,*->9-3,*[9],_,46,ADJ,Agpfsg,amod
45,249-252,KBM,ORG[3],_,*->9-3,*[9],_,44,PROPN,Npfsg,nmod
46,253-255,biti,_,_,_,_,_,49,AUX,Va-r3p-n,aux
47,256-259,dan,_,_,_,_,_,49,NOUN,Ncnsa,obj
48,260-267,doseči,_,_,_,_,_,18,VERB,Vmep-pf,parataxis
49,268-271,pri,_,_,_,_,_,52,ADP,Sl,case
50,272-277,"11,15",_,_,_,_,_,52,NUM,Mdc,nummod
51,278-282,evro,_,_,_,_,_,49,NOUN,Ncmsg,obl
52,283-284,",",_,_,_,_,_,71,PUNCT,Z,punct
53,285-288,kar,_,_,_,_,_,71,PRON,Pr-nsn,nsubj
54,289-291,biti,_,_,_,_,_,60,AUX,Va-r3s-n,aux
55,292-299,najmanj,_,_,_,_,_,60,ADV,Rgs,advmod
56,300-301,v,_,_,_,_,_,60,ADP,Sl,case
57,302-309,zadnji,_,_,_,_,_,60,ADJ,Agpmpl,amod
58,310-314,dva,_,_,_,_,_,60,NUM,Mlcmdl,nummod
59,315-322,mesec,_,_,_,_,_,49,NOUN,Ncmdl,obl
60,323-324,.,_,_,_,_,_,49,PUNCT,Z,punct
61,325-329,Krka,ORG,_,*->10-1,*[10],_,71,PROPN,Npfsn,nsubj
62,330-332,biti,_,_,_,_,_,71,AUX,Va-r3s-n,aux
63,333-337,biti,_,_,_,_,_,71,AUX,Va-p-sf,cop
64,338-339,z,_,_,_,_,_,67,ADP,Si,case
65,340-343,"0,7",_,_,_,_,_,67,NUM,Mdc,nummod
66,344-352,milijon,_,_,_,_,_,71,NOUN,Ncmsg,obl
67,353-358,evro,_,_,_,_,_,67,NOUN,Ncmpg,nmod
68,359-363,spet,_,_,_,_,_,71,ADV,Rgp,advmod
69,364-369,daleč,_,_,_,_,_,71,ADV,Rgp,advmod
70,370-384,pometen,_,_,_,_,_,18,ADJ,Agsfsn,parataxis
71,385-386,",",_,_,_,_,_,71,PUNCT,Z,punct
72,387-391,njen,_,_,_,_,_,75,DET,Ps3msnsf,det
73,392-398,enoten,_,_,_,_,_,75,ADJ,Agpmsay,amod
74,399-404,tečaj,_,_,_,_,_,80,NOUN,Ncmsan,obj
75,405-407,pa,_,_,_,_,_,80,CCONJ,Cc,advmod
76,408-410,se,_,_,_,_,_,80,PRON,Px------y,expl
77,411-413,biti,_,_,_,_,_,80,AUX,Va-r3s-n,aux
78,414-419,komaj,_,_,_,_,_,80,ADV,Rgp,advmod
79,420-427,obdržati,_,_,_,_,_,71,VERB,Vmep-sm,parataxis
80,428-431,nad,_,_,_,_,_,83,ADP,Si,case
81,432-434,68,_,_,_,_,_,83,NUM,Mdc,nummod
82,435-439,evro,_,_,_,_,_,80,NOUN,Ncmpi,obl
83,440-441,.,_,_,_,_,_,80,PUNCT,Z,punct
84,442-450,poseben,_,_,_,_,_,86,ADJ,Agpfpg,amod
85,451-456,novica,_,_,_,_,_,80,NOUN,Ncfpg,obj
86,457-458,v,_,_,_,_,_,88,ADP,Sa,case
87,459-464,sreda,_,_,_,_,_,86,NOUN,Ncfsa,nmod
88,465-467,biti,_,_,_,_,_,96,AUX,Va-r3s-y,aux
89,468-472,biti,_,_,_,_,_,96,AUX,Va-p-sn,aux
90,473-474,",",_,_,_,_,_,96,PUNCT,Z,punct
91,475-482,vodilen,_,_,_,_,_,93,ADJ,Agpnpn,amod
92,483-491,podjetje,_,_,_,_,_,96,NOUN,Ncnpn,nsubj
93,492-494,biti,_,_,_,_,_,96,AUX,Va-r3p-n,aux
94,495-497,le,_,_,_,_,_,96,PART,Q,advmod
95,498-507,sporočiti,_,_,_,_,_,80,VERB,Vmep-pn,conj
96,508-509,",",_,_,_,_,_,103,PUNCT,Z,punct
97,510-512,da,_,_,_,_,_,103,SCONJ,Cs,mark
98,513-515,biti,_,_,_,_,_,103,AUX,Va-r3p-n,aux
99,516-518,se,_,_,_,_,_,103,PRON,Px------y,expl
100,519-520,v,_,_,_,_,_,102,ADP,Sa,case
101,521-526,torek,_,_,_,_,_,103,NOUN,Ncmsan,obl
102,527-538,predstaviti,_,_,_,_,_,96,VERB,Vmep-pn,ccomp
103,539-541,na,_,_,_,_,_,105,ADP,Sl,case
104,542-547,dan,_,_,_,_,_,103,NOUN,Ncmsl,obl
105,548-559,slovenski,_,_,_,_,_,108,ADJ,Agpmsg,amod
106,560-572,kapitalski,_,_,_,_,_,108,ADJ,Agpmsg,amod
107,573-577,trg,_,_,_,_,_,105,NOUN,Ncmsg,nmod
108,578-579,v,_,_,_,_,_,110,ADP,Sl,case
109,580-589,Ljubljana,LOC,0,*->12-1,*[12],3 - Nevtralno,108,PROPN,Npfsl,nmod
110,590-591,.,_,_,_,_,_,103,PUNCT,Z,punct
111,592-599,vodilen,_,_,_,_,_,113,ADJ,Agpmpn,amod
112,600-605,mož,_,_,_,_,_,121,NOUN,Ncmpn,nsubj
113,606-611,naš,_,_,_,_,_,115,DET,Ps1mpgp,det
114,612-616,bluma,_,_,_,_,_,113,NOUN,Ncmpg,nmod
115,617-618,-,_,_,_,_,_,117,PUNCT,Z,punct
116,619-624,čip,_,_,_,_,_,115,NOUN,Ncmpg,conj
117,625-627,biti,_,_,_,_,_,121,AUX,Va-r3p-n,aux
118,628-629,v,_,_,_,_,_,120,ADP,Sl,case
119,630-639,napoved,_,_,_,_,_,121,NOUN,Ncfpl,obl
120,640-652,optimističen,_,_,_,_,_,18,ADJ,Agpmpn,parataxis
121,653-654,",",_,_,_,_,_,139,PUNCT,Z,punct
122,655-659,tako,_,_,_,_,_,129,ADV,Rgp,mark
123,660-663,naj,_,_,_,_,_,129,PART,Q,advmod
124,664-666,biti,_,_,_,_,_,129,AUX,Va-c,aux
125,667-670,ves,_,_,_,_,_,127,DET,Pg-npn,det
126,671-679,podjetje,_,_,_,_,_,129,NOUN,Ncnpn,nsubj
127,680-685,letos,_,_,_,_,_,129,ADV,Rgp,advmod
128,686-695,poslovati,_,_,_,_,_,121,VERB,Vmpp-pn,advcl
129,696-697,z,_,_,_,_,_,131,ADP,Si,case
130,698-706,dobiček,_,_,_,_,_,129,NOUN,Ncmsi,obl
131,707-708,.,_,_,_,_,_,129,PUNCT,Z,punct
132,709-719,predvidoma,_,_,_,_,_,134,ADV,Rgp,advmod
133,720-728,november,_,_,_,_,_,139,NOUN,Ncmsg,obl
134,729-731,biti,_,_,_,_,_,139,AUX,Va-f3s-n,aux
135,732-743,ljubljanski,ORG[4],0,*->18-1,*[18],3 - Nevtralno[10],137,ADJ,Agpfsn,amod
136,744-749,borz,ORG[4],0,*->18-1,*[18],3 - Nevtralno[10],139,NOUN,Ncfsn,nsubj
137,750-754,spet,_,_,_,_,_,139,ADV,Rgp,advmod
138,755-767,organizirati,_,_,_,_,_,129,VERB,Vmbp-sf,advcl
139,768-780,predstavitev,_,_,_,_,_,139,NOUN,Ncfpa,obj
140,781-793,izdajatelj,_,_,_,_,_,140,NOUN,Ncmpg,nmod
141,794-795,z,_,_,_,_,_,143,ADP,Sg,case
142,796-804,področje,_,_,_,_,_,141,NOUN,Ncnsg,nmod
143,805-816,jugovzhoden,_,_,_,_,_,145,ADJ,Agpfsg,amod
144,817-823,Evropa,LOC,_,*->5-1,*[5],_,143,PROPN,Npfsg,nmod
145,824-825,.,_,_,_,_,_,139,PUNCT,Z,punct
146,826-837,lanskoleten,_,_,_,_,_,148,ADJ,Agpfsn,amod
147,838-847,promocija,_,_,_,_,_,152,NOUN,Ncfsn,nsubj
148,848-851,naj,_,_,_,_,_,152,PART,Q,advmod
149,852-854,biti,_,_,_,_,_,152,AUX,Va-c,aux
150,855-859,biti,_,_,_,_,_,152,AUX,Va-p-sf,cop
151,860-867,uspešen,_,_,_,_,_,18,ADJ,Agpfsn,parataxis
152,868-869,",",_,_,_,_,_,156,PUNCT,Z,punct
153,870-876,čeprav,_,_,_,_,_,156,SCONJ,Cs,mark
154,877-879,ne,_,_,_,_,_,156,PART,Q,advmod
155,880-883,iti,_,_,_,_,_,139,VERB,Vmbr3s,advcl
156,884-892,prezreti,_,_,_,_,_,156,VERB,Vmen,csubj
157,893-894,",",_,_,_,_,_,165,PUNCT,Z,punct
158,895-897,da,_,_,_,_,_,165,SCONJ,Cs,mark
159,898-902,tuj,_,_,_,_,_,161,ADJ,Agpmpn,amod
160,903-913,vlagatelj,_,_,_,_,_,165,NOUN,Ncmpn,nsubj
161,914-916,le,_,_,_,_,_,165,PART,Q,advmod
162,917-922,redko,_,_,_,_,_,165,ADV,Rgp,advmod
163,923-927,kdaj,_,_,_,_,_,165,ADV,Rgp,advmod
164,928-935,opaziti,_,_,_,_,_,157,VERB,Vmer3p,ccomp
165,936-943,delnica,_,_,_,_,_,165,NOUN,Ncfpa,obj
166,944-946,na,_,_,_,_,_,169,ADP,Sl,case
167,947-951,naš,_,_,_,_,_,169,DET,Ps1fslp,det
168,952-957,borz,_,_,_,_,_,166,NOUN,Ncfsl,nmod
169,958-959,.,_,_,_,_,_,156,PUNCT,Z,punct
170,960-966,tečaj,_,_,_,_,_,165,NOUN,Ncmpn,nsubj
171,967-973,delnica,_,_,_,_,_,171,NOUN,Ncfpg,nmod
172,974-975,v,_,_,_,_,_,175,ADP,Sl,case
173,976-980,prvi,_,_,_,_,_,175,ADJ,Mlofsl,amod
174,981-989,kotacija,_,_,_,_,_,171,NOUN,Ncfsl,nmod
175,990-994,Krka,ORG,1,*->10-2,*[10],4 - Pozitivno,175,PROPN,Npfsn,nmod
176,995-996,-,_,_,_,_,_,179,PUNCT,Z,punct
177,997-1001,"1,35",_,_,_,_,_,179,NUM,Mdc,nummod
178,1002-1003,%,_,_,_,_,_,171,NOUN,Ncmsn,nmod
179,1004-1009,"68,05",_,_,_,_,_,181,NUM,Mdc,nummod
180,1010-1013,eur,_,_,_,_,_,179,NOUN,Ncmsn,nmod
181,1014-1018,nov,ORG[5],0,*->9-4,*[9],3 - Nevtralno[11],183,ADJ,Agpfsn,amod
182,1019-1022,KBM,ORG[5],0,*->9-4,*[9],3 - Nevtralno[11],181,PROPN,Npfsn,nmod
183,1023-1024,-,_,_,_,_,_,186,PUNCT,Z,punct
184,1025-1029,"2,52",_,_,_,_,_,186,NUM,Mdc,nummod
185,1030-1031,%,_,_,_,_,_,179,NOUN,Ncmsn,nmod
186,1032-1037,"11,20",_,_,_,_,_,186,NUM,Mdc,nummod
187,1038-1045,teleko,ORG,0,*->6-2,*[6],3 - Nevtralno,186,NOUN,Ncmsn,nmod
188,1046-1047,+,_,_,_,_,_,186,NOUN,Ncmsn,nmod
189,1048-1052,"1,41",_,_,_,_,_,191,NUM,Mdc,nummod
190,1053-1054,%,_,_,_,_,_,189,NOUN,Ncmsn,nmod
191,1055-1061,"114,34",_,_,_,_,_,191,NUM,Mdc,nummod
192,1062-1066,LUKA,ORG[6],0,*->13-1,*[13],3 - Nevtralno[12],191,PROPN,Npmsn,nmod
193,1067-1072,Koper,ORG[6]|LOC[7],0,*->13-1|*->20-1,*[13]|*[20],3 - Nevtralno[12]|3 - Nevtralno[13],193,PROPN,Npmsn,nmod
194,1073-1074,+,_,_,_,_,_,197,PUNCT,Z,punct
195,1075-1079,"0,25",_,_,_,_,_,197,NUM,Mdc,nummod
196,1080-1081,%,_,_,_,_,_,191,NOUN,Ncmsn,nmod
197,1082-1087,"20,39",_,_,_,_,_,197,NUM,Mdc,nummod
198,1088-1095,gorenje,ORG,0,*->16-1,*[16],3 - Nevtralno,197,NOUN,Ncnsn,nmod
199,1096-1097,-,_,_,_,_,_,202,PUNCT,Z,punct
200,1098-1102,"0,07",_,_,_,_,_,202,NUM,Mdc,nummod
201,1103-1104,%,_,_,_,_,_,197,NOUN,Ncmsn,nmod
202,1105-1110,"13,64",_,_,_,_,_,202,NUM,Mdc,nummod
203,1111-1117,petrol,ORG,0,*->4-1,*[4],3 - Nevtralno,202,NOUN,Ncmsn,nmod
204,1118-1119,-,_,_,_,_,_,207,PUNCT,Z,punct
205,1120-1124,"0,04",_,_,_,_,_,207,NUM,Mdc,nummod
206,1125-1126,%,_,_,_,_,_,202,NOUN,Ncmsn,nmod
207,1127-1133,"287,02",_,_,_,_,_,207,NUM,Mdc,nummod
208,1134-1142,Mercator,ORG,0,*->7-1,*[7],3 - Nevtralno,207,PROPN,Npmsn,nmod
209,1143-1144,-,_,_,_,_,_,212,PUNCT,Z,punct
210,1145-1149,"0,50",_,_,_,_,_,212,NUM,Mdc,nummod
211,1150-1151,%,_,_,_,_,_,207,NOUN,Ncmsn,nmod
212,1152-1158,"157,49",_,_,_,_,_,212,NUM,Mdc,nummod
213,1159-1170,intereurop,ORG,0,*->2-1,*[2],3 - Nevtralno,212,NOUN,Ncmsn,nmod
214,1171-1172,+,_,_,_,_,_,217,NOUN,Ncmsn,nmod
215,1173-1177,"2,64",_,_,_,_,_,217,NUM,Mdc,nummod
216,1178-1179,%,_,_,_,_,_,212,NOUN,Ncmsn,nmod
217,1180-1184,"3,50",_,_,_,_,_,217,NUM,Mdc,nummod
218,1185-1187,po,_,_,_,_,_,221,ADP,Sl,case
219,1188-1196,izjemen,_,_,_,_,_,221,ADJ,Agpmsl,amod
220,1197-1207,ponedeljk,_,_,_,_,_,217,NOUN,Ncmsl,nmod
221,1208-1212,rdeč,_,_,_,_,_,225,ADJ,Agpmsan,amod
222,1213-1218,torek,_,_,_,_,_,222,NOUN,Ncmsan,nmod
223,1219-1226,Torkov,_,_,_,_,_,225,ADJ,Aspnsn,amod
224,1227-1236,trgovanje,_,_,_,_,_,217,NOUN,Ncnsa,nmod
225,1237-1238,v,_,_,_,_,_,228,ADP,Sl,case
226,1239-1242,New,LOC[8],0,*->21-1,*[21],3 - Nevtralno[14],228,PROPN,Npmsn,nmod
227,1243-1248,York,LOC[8],0,*->21-1,*[21],3 - Nevtralno[14],225,PROPN,Npmsl,nmod
228,1249-1251,biti,_,_,_,_,_,239,AUX,Va-r3s-n,aux
229,1252-1256,biti,_,_,_,_,_,239,AUX,Va-p-sn,aux
230,1257-1260,dan,_,_,_,_,_,18,NOUN,Ncmsn,parataxis
231,1261-1263,po,_,_,_,_,_,234,ADP,Sl,case
232,1264-1274,nepozaben,_,_,_,_,_,234,ADJ,Agpmpl,amod
233,1275-1283,dobiček,_,_,_,_,_,231,NOUN,Ncmpl,nmod
234,1284-1291,indeksa,_,_,_,_,_,234,NOUN,Ncmpn,nmod
235,1292-1294,biti,_,_,_,_,_,239,AUX,Va-r3p-n,aux
236,1295-1296,v,_,_,_,_,_,238,ADP,Sa,case
237,1297-1307,ponedeljek,_,_,_,_,_,239,NOUN,Ncmsan,obl
238,1308-1317,poskočiti,_,_,_,_,_,18,VERB,Vmep-pf,parataxis
239,1318-1320,za,_,_,_,_,_,243,ADP,Sa,case
240,1321-1325,vsaj,_,_,_,_,_,245,PART,Q,advmod
241,1326-1331,štirje,_,_,_,_,_,243,NUM,Mlcmpa,nummod
242,1332-1340,odstotek,_,_,_,_,_,245,NOUN,Ncmpa,nmod
243,1341-1347,precej,_,_,_,_,_,245,ADV,Rgp,advmod
244,1348-1357,volatilno,_,_,_,_,_,239,ADV,Rgp,advmod
245,1358-1359,",",_,_,_,_,_,239,PUNCT,Z,punct
246,1360-1366,indeks,_,_,_,_,_,254,NOUN,Ncmsnn,obj
247,1367-1370,Dow,_,_,_,_,_,247,PROPN,Npmsn,nmod
248,1371-1376,Jones,_,_,_,_,_,248,PROPN,Npmsn,nmod
249,1377-1383,10.748,_,_,_,_,_,251,NUM,Mdc,nummod
250,1384-1388,točka,_,_,_,_,_,249,NOUN,Ncfpg,nmod
251,1389-1391,pa,_,_,_,_,_,254,CCONJ,Cc,advmod
252,1392-1394,biti,_,_,_,_,_,254,AUX,Va-r3s-n,aux
253,1395-1402,izgubiti,_,_,_,_,_,239,VERB,Vmep-sm,root
254,1403-1411,tretjina,_,_,_,_,_,254,NOUN,Ncfsa,obj
255,1412-1420,odstotek,_,_,_,_,_,255,NOUN,Ncmsg,nmod
256,1421-1422,.,_,_,_,_,_,254,PUNCT,Z,punct
257,1423-1433,vlagatelj,_,_,_,_,_,261,NOUN,Ncmpn,nsubj
258,1434-1436,biti,_,_,_,_,_,261,AUX,Va-r3p-n,aux
259,1437-1439,se,_,_,_,_,_,261,PRON,Px---d--y,expl
260,1440-1446,začeti,_,_,_,_,_,18,VERB,Vmep-pm,parataxis
261,1447-1458,postavljati,_,_,_,_,_,261,VERB,Vmpn,xcomp
262,1459-1468,vprašanje,_,_,_,_,_,262,NOUN,Ncnsa,obj
263,1469-1470,",",_,_,_,_,_,270,PUNCT,Z,punct
264,1471-1475,kako,_,_,_,_,_,270,ADV,Rgp,advmod
265,1476-1478,biti,_,_,_,_,_,270,AUX,Va-f3s-n,aux
266,1479-1487,evropski,_,_,_,_,_,269,ADJ,Agpfsn,amod
267,1488-1497,dolžniški,_,_,_,_,_,269,ADJ,Agpfsn,amod
268,1498-1503,kriza,_,_,_,_,_,270,NOUN,Ncfsn,nsubj
269,1504-1513,prizadeti,_,_,_,_,_,263,VERB,Vmep-sf,acl
270,1514-1522,ameriški,_,_,_,_,_,273,ADJ,Agpfsa,amod
271,1523-1534,gospodarski,_,_,_,_,_,273,ADJ,Agpfsa,amod
272,1535-1539,rast,_,_,_,_,_,270,NOUN,Ncfsa,obj
273,1540-1541,.,_,_,_,_,_,18,PUNCT,Z,punct
274,1542-1547,skrbeti,_,_,_,_,_,18,VERB,Vmpr3s,parataxis
275,1548-1552,tudi,_,_,_,_,_,270,PART,Q,advmod
276,1553-1559,visok,_,_,_,_,_,278,ADJ,Agpfsn,amod
277,1560-1569,inflacija,_,_,_,_,_,283,NOUN,Ncfsn,nsubj
278,1570-1572,na,_,_,_,_,_,280,ADP,Sl,case
279,1573-1582,Kitajsko,LOC,0,*->3-1,*[3],3 - Nevtralno,281,PROPN,Npnsl,nmod
280,1583-1589,april,_,_,_,_,_,283,NOUN,Ncmsg,obl
281,1590-1592,biti,_,_,_,_,_,283,AUX,Va-r3s-n,aux
282,1593-1600,doseči,_,_,_,_,_,275,VERB,Vmep-sf,conj
283,1601-1603,18,_,_,_,_,_,286,NUM,Mdc,nummod
284,1604-1605,-,_,_,_,_,_,286,PUNCT,Z,punct
285,1606-1613,mesečen,_,_,_,_,_,287,ADJ,Agpmsay,amod
286,1614-1617,vrh,_,_,_,_,_,283,NOUN,Ncmsan,obj
287,1618-1619,",",_,_,_,_,_,290,PUNCT,Z,punct
288,1620-1623,kar,_,_,_,_,_,290,PRON,Pr-nsn,nsubj
289,1624-1632,povečevati,_,_,_,_,_,287,VERB,Vmpr3s,acl
290,1633-1643,verjetnost,_,_,_,_,_,290,NOUN,Ncfsa,obj
291,1644-1645,",",_,_,_,_,_,299,PUNCT,Z,punct
292,1646-1648,da,_,_,_,_,_,299,SCONJ,Cs,mark
293,1649-1651,biti,_,_,_,_,_,299,AUX,Va-f3s-n,aux
294,1652-1659,najbolj,_,_,_,_,_,296,ADV,Rgs,advmod
295,1660-1669,dinamičen,_,_,_,_,_,298,ADJ,Agpnsn,amod
296,1670-1678,svetoven,_,_,_,_,_,298,ADJ,Agpnsn,amod
297,1679-1691,gospodarstvo,_,_,_,_,_,299,NOUN,Ncnsn,nsubj
298,1692-1698,začeti,_,_,_,_,_,291,VERB,Vmep-sn,acl
299,1699-1709,silovito,_,_,_,_,_,301,ADV,Rgc,advmod
300,1710-1721,zaostrovati,_,_,_,_,_,299,VERB,Vmen,xcomp
301,1722-1729,denaren,_,_,_,_,_,303,ADJ,Agpfsa,amod
302,1730-1738,politika,_,_,_,_,_,301,NOUN,Ncfsa,obj
303,1739-1740,.,_,_,_,_,_,290,PUNCT,Z,punct
304,1741-1745,lep,_,_,_,_,_,306,ADJ,Agpmpn,amod
305,1746-1753,dobiček,_,_,_,_,_,317,NOUN,Ncmpn,nsubj
306,1754-1763,finančen,_,_,_,_,_,308,ADJ,Agpfpg,amod
307,1764-1770,delnica,_,_,_,_,_,306,NOUN,Ncfpg,nmod
308,1771-1775,tudi,_,_,_,_,_,317,PART,Q,advmod
309,1776-1777,v,_,_,_,_,_,311,ADP,Sl,case
310,1778-1784,Evropa,LOC,0,*->5-2,*[5],3 - Nevtralno,317,PROPN,Npfsl,obl
311,1785-1787,biti,_,_,_,_,_,317,AUX,Va-r3p-n,aux
312,1788-1790,se,_,_,_,_,_,317,PRON,Px------y,expl
313,1791-1792,v,_,_,_,_,_,315,ADP,Sa,case
314,1793-1798,torek,_,_,_,_,_,317,NOUN,Ncmsan,obl
315,1799-1807,borznik,_,_,_,_,_,317,NOUN,Ncmpn,nsubj
316,1808-1818,spraševati,_,_,_,_,_,18,VERB,Vmpp-pm,parataxis
317,1819-1820,",",_,_,_,_,_,322,PUNCT,Z,punct
318,1821-1825,kako,_,_,_,_,_,322,ADV,Rgp,advmod
319,1826-1828,biti,_,_,_,_,_,322,AUX,Va-f3s-n,aux
320,1829-1835,Grčija,ORG,0,*->17-1,*[17],3 - Nevtralno,322,PROPN,Npfsn,nsubj
321,1836-1842,zmoči,_,_,_,_,_,317,VERB,Vmep-sf,ccomp
322,1843-1850,znižati,_,_,_,_,_,322,VERB,Vmen,xcomp
323,1851-1856,visok,_,_,_,_,_,326,ADJ,Agpmsan,amod
324,1857-1868,proračunski,_,_,_,_,_,326,ADJ,Agpmsay,amod
325,1869-1881,primanjkljaj,_,_,_,_,_,323,NOUN,Ncmsan,obj
326,1882-1883,.,_,_,_,_,_,322,PUNCT,Z,punct
327,1884-1887,med,_,_,_,_,_,329,ADP,Si,case
328,1888-1898,trgovanje,_,_,_,_,_,332,NOUN,Ncnsi,nmod
329,1899-1901,biti,_,_,_,_,_,365,AUX,Va-r3p-n,aux
330,1902-1906,biti,_,_,_,_,_,365,AUX,Va-p-pm,aux
331,1907-1914,indeksa,_,_,_,_,_,317,NOUN,Ncmpn,nsubj
332,1915-1917,že,_,_,_,_,_,332,PART,Q,advmod
333,1918-1920,za,_,_,_,_,_,336,ADP,Sa,case
334,1921-1924,dva,_,_,_,_,_,336,NUM,Mlcmda,nummod
335,1925-1933,odstotek,_,_,_,_,_,323,NOUN,Ncmda,obl
336,1934-1937,pod,_,_,_,_,_,338,ADP,Si,case
337,1938-1945,gladina,_,_,_,_,_,336,NOUN,Ncfsa,nmod
338,1946-1947,",",_,_,_,_,_,346,PUNCT,Z,punct
339,1948-1950,na,_,_,_,_,_,341,ADP,Sl,case
340,1951-1956,konec,_,_,_,_,_,346,NOUN,Ncmsl,obl
341,1957-1959,pa,_,_,_,_,_,346,CCONJ,Cc,advmod
342,1960-1962,biti,_,_,_,_,_,346,AUX,Va-r3p-n,aux
343,1963-1967,biti,_,_,_,_,_,346,AUX,Va-p-pf,cop
344,1968-1974,izguba,_,_,_,_,_,346,NOUN,Ncfpn,nsubj
345,1975-1981,zmeren,_,_,_,_,_,338,ADJ,Agpfpn,acl
346,1982-1983,",",_,_,_,_,_,346,PUNCT,Z,punct
347,1984-1987,saj,_,_,_,_,_,355,CCONJ,Cc,cc
348,1988-1990,biti,_,_,_,_,_,355,AUX,Va-r3s-n,aux
349,1991-1997,indeks,_,_,_,_,_,355,NOUN,Ncmsn,nsubj
350,1998-2010,FTSEurofirst,_,_,_,_,_,350,PROPN,Npmsn,nmod
351,2011-2014,300,_,_,_,_,_,354,NUM,Mdc,nummod
352,2015-2020,1.034,_,_,_,_,_,354,NUM,Mdc,nummod
353,2021-2025,točka,_,_,_,_,_,351,NOUN,Ncfpg,nmod
354,2026-2033,izgubiti,_,_,_,_,_,346,VERB,Vmep-sm,conj
355,2034-2038,manj,_,_,_,_,_,359,DET,Rgc,advmod
356,2039-2042,kot,_,_,_,_,_,356,SCONJ,Cs,fixed
357,2043-2046,pol,_,_,_,_,_,359,DET,Rgp,det
358,2047-2055,odstotek,_,_,_,_,_,355,NOUN,Ncmsg,obj
359,2056-2057,.,_,_,_,_,_,355,PUNCT,Z,punct
360,2058-2065,sredina,_,_,_,_,_,365,NOUN,Ncfsa,obj
361,2066-2074,dopoldne,_,_,_,_,_,361,ADV,Rgp,advmod
362,2075-2077,biti,_,_,_,_,_,365,AUX,Va-r3s-n,aux
363,2078-2082,spet,_,_,_,_,_,365,ADV,Rgp,advmod
364,2083-2091,prinesti,_,_,_,_,_,18,VERB,Vmep-sn,parataxis
365,2092-2096,lep,_,_,_,_,_,367,ADJ,Agpfsa,amod
366,2097-2101,rast,_,_,_,_,_,365,NOUN,Ncfsa,obj
367,2102-2103,.,_,_,_,_,_,365,PUNCT,Z,punct
368,2104-2105,v,_,_,_,_,_,370,ADP,Sl,case
369,2106-2114,ospredje,_,_,_,_,_,391,NOUN,Ncnsl,obl
370,2115-2117,biti,_,_,_,_,_,391,AUX,Va-r3p-n,aux
371,2118-2122,biti,_,_,_,_,_,396,AUX,Va-p-pf,cop
372,2123-2131,finančen,_,_,_,_,_,374,ADJ,Agpfpn,amod
373,2132-2139,delnica,_,_,_,_,_,365,NOUN,Ncfpn,nsubj
374,2140-2141,",",_,_,_,_,_,391,PUNCT,Z,punct
375,2142-2147,potem,_,_,_,_,_,391,ADV,Rgp,mark
376,2148-2150,ko,_,_,_,_,_,376,SCONJ,Cs,fixed
377,2151-2153,biti,_,_,_,_,_,391,AUX,Va-r3p-n,aux
378,2154-2165,italijanski,_,1,*->15-1,*[15],4 - Pozitivno[15],380,ADJ,Agpfsn,amod
379,2166-2175,Unicredit,ORG,1,*->15-1,*[15],4 - Pozitivno[15],391,PROPN,Npfsn,nsubj
380,2176-2177,",",_,_,_,_,_,383,PUNCT,Z,punct
381,2178-2188,nizozemski,_,1,*->8-1,*[8],4 - Pozitivno[16],383,ADJ,Agpmsny,amod
382,2189-2192,ING,ORG,1,*->8-1,*[8],4 - Pozitivno[16],380,PROPN,Npmsn,conj
383,2193-2194,",",_,_,_,_,_,386,PUNCT,Z,punct
384,2195-2204,francoski,_,1,*->19-1,*[19],4 - Pozitivno[17],386,ADJ,Agpfsn,amod
385,2205-2212,Natixis,ORG,1,*->19-1,*[19],4 - Pozitivno[17],380,PROPN,Npmsn,conj
386,2213-2215,in,_,_,_,_,_,389,CCONJ,Cc,cc
387,2216-2225,belgijski,_,1,_,_,4 - Pozitivno[18],389,ADJ,Agpmsny,amod
388,2226-2229,KBC,ORG,1,_,_,4 - Pozitivno[18],380,PROPN,Npmsn,conj
389,2230-2239,pozitiven,_,_,_,_,_,391,ADV,Rgp,advmod
390,2240-2251,presenetiti,_,_,_,_,_,365,VERB,Vmep-pm,advcl
391,2252-2253,z,_,_,_,_,_,394,ADP,Si,case
392,2254-2264,posloven,_,_,_,_,_,394,ADJ,Agpmpi,amod
393,2265-2274,rezultat,_,_,_,_,_,391,NOUN,Ncmpi,obl
394,2275-2276,.,_,_,_,_,_,383,PUNCT,Z,punct
395,2277-2290,presenetljiv,_,_,_,_,_,397,ADJ,Agpfsn,amod
396,2291-2295,rast,_,_,_,_,_,391,NOUN,Ncfsn,nsubj
397,2296-2299,BDP,_,_,_,_,_,397,PROPN,Npmsn,nmod
398,2300-2301,-,_,_,_,_,_,400,PUNCT,Z,punct
399,2302-2304,ja,_,_,_,_,_,409,PART,Q,advmod
400,2305-2306,v,_,_,_,_,_,402,ADP,Sl,case
401,2307-2314,Nemčija,LOC,_,*->1-1,*[1],_,400,PROPN,Npfsl,nmod
402,2315-2321,zlasti,_,_,_,_,_,409,PART,Q,advmod
403,2322-2323,v,_,_,_,_,_,405,ADP,Sl,case
404,2324-2334,Frankfurt,LOC,1,_,_,4 - Pozitivno,409,PROPN,Npmsl,obl
405,2335-2337,biti,_,_,_,_,_,409,AUX,Va-r3s-n,aux
406,2338-2341,biti,_,_,_,_,_,409,AUX,Va-p-sm,cop
407,2342-2351,optimizem,_,_,_,_,_,409,NOUN,Ncmsn,nsubj
408,2352-2358,očiten,_,_,_,_,_,396,ADJ,Agpmsnn,advcl
409,2359-2360,",",_,_,_,_,_,409,PUNCT,Z,punct
410,2361-2364,saj,_,_,_,_,_,418,CCONJ,Cc,cc
411,2365-2367,biti,_,_,_,_,_,418,AUX,Va-r3s-n,aux
412,2368-2374,indeks,_,_,_,_,_,418,NOUN,Ncmsn,nsubj
413,2375-2378,DAX,_,_,_,_,_,413,PROPN,Npmsn,nmod
414,2379-2381,30,_,_,_,_,_,417,NUM,Mdc,nummod
415,2382-2387,6.160,_,_,_,_,_,417,NUM,Mdc,nummod
416,2388-2392,točka,_,_,_,_,_,414,NOUN,Ncfpg,nmod
417,2393-2401,pridobiti,_,_,_,_,_,409,VERB,Vmep-sm,conj
418,2402-2405,dva,_,_,_,_,_,420,NUM,Mlcmda,nummod
419,2406-2414,odstotek,_,_,_,_,_,418,NOUN,Ncmda,obj
420,2415-2416,.,_,_,_,_,_,418,PUNCT,Z,punct
421,2417-2424,Nemčija,LOC,1,*->1-2,*[1],4 - Pozitivno,424,PROPN,Npfsn,nsubj
422,2425-2427,biti,_,_,_,_,_,424,AUX,Va-r3s-n,aux
423,2428-2433,imeti,_,_,_,_,_,18,VERB,Vmpp-sf,parataxis
424,2434-2435,v,_,_,_,_,_,428,ADP,Sl,case
425,2436-2441,prvi,_,_,_,_,_,428,ADJ,Mlonsl,amod
426,2442-2451,letošnji,_,_,_,_,_,428,ADJ,Agpnsl,amod
427,2452-2462,četrtletje,_,_,_,_,_,424,NOUN,Ncnsl,obl
428,2463-2466,"0,2",_,_,_,_,_,431,NUM,Mdc,nummod
429,2467-2468,-,_,_,_,_,_,431,PUNCT,Z,punct
430,2469-2477,odstoten,_,_,_,_,_,433,ADJ,Agpfsa,amod
431,2478-2489,gospodarski,_,_,_,_,_,433,ADJ,Agpfsa,amod
432,2490-2494,rast,_,_,_,_,_,424,NOUN,Ncfsa,obj
433,2495-2496,v,_,_,_,_,_,435,ADP,Sl,case
434,2497-2507,primerjava,_,_,_,_,_,433,NOUN,Ncfsl,nmod
435,2508-2509,z,_,_,_,_,_,439,ADP,Si,case
436,2510-2517,zadnji,_,_,_,_,_,439,ADJ,Agpnsi,amod
437,2518-2525,lanski,_,_,_,_,_,439,ADJ,Agpnsi,amod
438,2526-2537,četrtletje,_,_,_,_,_,435,NOUN,Ncnsi,nmod
439,2538-2539,.,_,_,_,_,_,424,PUNCT,Z,punct
440,2540-2549,analitik,_,_,_,_,_,443,NOUN,Ncmpn,nsubj
441,2550-2552,biti,_,_,_,_,_,443,AUX,Va-r3p-n,aux
442,2553-2564,pričakovati,_,_,_,_,_,424,VERB,Vmpp-pm,conj
443,2565-2566,",",_,_,_,_,_,449,PUNCT,Z,punct
444,2567-2569,da,_,_,_,_,_,449,SCONJ,Cs,mark
445,2570-2572,se,_,_,_,_,_,449,PRON,Px------y,expl
446,2573-2575,biti,_,_,_,_,_,449,AUX,Va-f3s-n,aux
447,2576-2579,BDP,_,_,_,_,_,449,PROPN,Npmsn,nsubj
448,2580-2586,znižati,_,_,_,_,_,443,VERB,Vmep-sm,ccomp
449,2587-2589,za,_,_,_,_,_,452,ADP,Sa,case
450,2590-2593,"0,1",_,_,_,_,_,452,NUM,Mdc,nummod
451,2594-2602,odstotek,_,_,_,_,_,449,NOUN,Ncmsg,obl
452,2603-2604,.,_,_,_,_,_,443,PUNCT,Z,punct
453,2605-2610,prvič,_,_,_,_,_,463,ADV,Rgp,advmod
454,2611-2613,po,_,_,_,_,_,457,ADP,Sl,case
455,2614-2621,tretji,_,_,_,_,_,457,ADJ,Mlonsl,amod
456,2622-2632,četrtletje,_,_,_,_,_,463,NOUN,Ncnsl,obl
457,2633-2637,2008,_,_,_,_,_,457,NUM,Mdc,nummod
458,2638-2640,biti,_,_,_,_,_,463,AUX,Va-r3s-n,cop
459,2641-2649,velik,_,_,_,_,_,462,ADJ,Agsnsn,amod
460,2650-2658,evropski,_,_,_,_,_,462,ADJ,Agpnsn,amod
461,2659-2671,gospodarstvo,_,_,_,_,_,463,NOUN,Ncnsn,nsubj
462,2672-2679,porasel,_,_,_,_,_,449,ADJ,Appnsn,conj
463,2680-2684,tudi,_,_,_,_,_,463,PART,Q,advmod
464,2685-2687,na,_,_,_,_,_,467,ADP,Sl,case
465,2688-2693,leten,_,_,_,_,_,467,ADJ,Agpfsl,amod
466,2694-2699,raven,_,_,_,_,_,463,NOUN,Ncfsl,obl
467,2700-2701,",",_,_,_,_,_,463,PUNCT,Z,punct
468,2702-2705,saj,_,_,_,_,_,479,CCONJ,Cc,cc
469,2706-2708,se,_,_,_,_,_,479,PRON,Px------y,expl
470,2709-2711,biti,_,_,_,_,_,479,AUX,Va-r3s-n,aux
471,2712-2715,BDP,_,_,_,_,_,479,PROPN,Npmsn,nsubj
472,2716-2717,v,_,_,_,_,_,474,ADP,Sl,case
473,2718-2728,primerjava,_,_,_,_,_,479,NOUN,Ncfsl,obl
474,2729-2730,z,_,_,_,_,_,478,ADP,Si,case
475,2731-2736,prvi,_,_,_,_,_,478,ADJ,Mlonsi,amod
476,2737-2744,lanski,_,_,_,_,_,478,ADJ,Agpnsi,amod
477,2745-2756,tromesečje,_,_,_,_,_,474,NOUN,Ncnsi,nmod
478,2757-2764,povzpeti,_,_,_,_,_,463,VERB,Vmep-sm,conj
479,2765-2767,za,_,_,_,_,_,482,ADP,Sa,case
480,2768-2771,"1,7",_,_,_,_,_,482,NUM,Mdc,nummod
481,2772-2780,odstotek,_,_,_,_,_,479,NOUN,Ncmsg,obl
482,2781-2782,.,_,_,_,_,_,463,PUNCT,Z,punct
483,2783-2790,Španija,ORG,_,*->14-1,*[14],_,485,PROPN,Npfsn,nsubj
484,2791-2795,želeti,_,_,_,_,_,18,VERB,Vmpr3s,parataxis
485,2796-2808,privarčevati,_,_,_,_,_,485,VERB,Vmpn,xcomp
486,2809-2813,šest,_,_,_,_,_,488,NUM,Mlc-pa,nummod
487,2814-2822,milijarda,_,_,_,_,_,486,NOUN,Ncfpg,obj
488,2823-2828,evro,_,_,_,_,_,488,NOUN,Ncmpg,nmod
489,2829-2831,na,_,_,_,_,_,492,ADP,Sa,case
490,2832-2837,dober,_,_,_,_,_,492,ADJ,Agpfsa,amod
491,2838-2843,volja,_,_,_,_,_,489,NOUN,Ncfsa,nmod
492,2844-2855,vlagatelj,_,_,_,_,_,492,NOUN,Ncmpg,nmod
493,2856-2858,biti,_,_,_,_,_,495,AUX,Va-r3s-n,aux
494,2859-2865,vplivati,_,_,_,_,_,485,VERB,Vmpr3s,conj
495,2866-2870,tudi,_,_,_,_,_,495,PART,Q,advmod
496,2871-2877,novica,_,_,_,_,_,495,NOUN,Ncfsn,nsubj
497,2878-2879,",",_,_,_,_,_,504,PUNCT,Z,punct
498,2880-2882,da,_,_,_,_,_,504,SCONJ,Cs,mark
499,2883-2885,se,_,_,_,_,_,504,PRON,Px------y,expl
500,2886-2888,biti,_,_,_,_,_,504,AUX,Va-f3s-n,aux
501,2889-2896,Španija,ORG,_,*->14-2,*[14],_,504,PROPN,Npfsn,nsubj
502,2897-2902,resno,_,_,_,_,_,504,ADV,Rgp,advmod
503,2903-2909,lotiti,_,_,_,_,_,497,VERB,Vmep-sf,acl
504,2910-2920,zniževanje,_,_,_,_,_,504,NOUN,Ncnsg,obj
505,2921-2934,proračunski,_,_,_,_,_,507,ADJ,Agpmsg,amod
506,2935-2948,primanjkljaj,_,_,_,_,_,505,NOUN,Ncmsg,nmod
507,2949-2950,.,_,_,_,_,_,495,PUNCT,Z,punct
508,2951-2958,premier,_,0,*->11-1,*[11],3 - Nevtralno[19],515,NOUN,Ncmsn,nsubj
509,2959-2963,Jose,PER[9],0,*->11-1,*[11],3 - Nevtralno[19],509,PROPN,Npmsn,nmod
510,2964-2968,Luis,PER[9],0,*->11-1,*[11],3 - Nevtralno[19],510,PROPN,Npmsn,flat:name
511,2969-2978,Rodriguez,PER[9],0,*->11-1,*[11],3 - Nevtralno[19],509,PROPN,Npmsn,nmod
512,2979-2987,Zapatero,PER[9],0,*->11-1,*[11],3 - Nevtralno[19],512,PROPN,Npmsn,flat:name
513,2988-2990,biti,_,_,_,_,_,515,AUX,Va-r3s-n,aux
514,2991-3000,napovedati,_,_,_,_,_,18,VERB,Vmep-sm,parataxis
515,3001-3002,",",_,_,_,_,_,521,PUNCT,Z,punct
516,3003-3005,da,_,_,_,_,_,521,SCONJ,Cs,mark
517,3006-3008,biti,_,_,_,_,_,521,AUX,Va-f3s-n,aux
518,3009-3015,država,_,1,*->14-3,*[14],4 - Pozitivno,521,NOUN,Ncfsn,nsubj
519,3016-3023,izdatek,_,_,_,_,_,521,NOUN,Ncmpa,obj
520,3024-3033,oklestiti,_,_,_,_,_,515,VERB,Vmep-sf,ccomp
521,3034-3036,za,_,_,_,_,_,524,ADP,Sa,case
522,3037-3041,šest,_,_,_,_,_,524,NUM,Mlc-pa,nummod
523,3042-3050,milijarda,_,_,_,_,_,521,NOUN,Ncfpg,obl
524,3051-3056,evro,_,_,_,_,_,524,NOUN,Ncmpg,nmod
525,3057-3058,.,_,_,_,_,_,515,PUNCT,Z,punct
526,3059-3062,med,_,_,_,_,_,528,ADP,Si,case
527,3063-3069,drug,_,_,_,_,_,533,ADJ,Mlpmsi,obl
528,3070-3074,biti,_,_,_,_,_,533,AUX,Va-f3p-n,cop
529,3075-3080,plača,_,_,_,_,_,533,NOUN,Ncfpn,nsubj
530,3081-3087,javen,_,_,_,_,_,532,ADJ,Agpmpg,amod
531,3088-3099,uslužbenec,_,_,_,_,_,530,NOUN,Ncmpg,nmod
532,3100-3105,nizek,_,_,_,_,_,515,ADJ,Agcfpn,ccomp
533,3106-3108,za,_,_,_,_,_,536,ADP,Sa,case
534,3109-3112,pet,_,_,_,_,_,536,NUM,Mlc-pa,nummod
535,3113-3122,odstotek,_,_,_,_,_,533,NOUN,Ncmpg,obl
536,3123-3124,.,_,_,_,_,_,533,PUNCT,Z,punct
537,3125-3129,lani,_,_,_,_,_,543,ADV,Rgp,advmod
538,3130-3132,biti,_,_,_,_,_,543,AUX,Va-r3s-n,aux
539,3133-3140,španski,_,_,_,_,_,542,ADJ,Agpmsny,amod
540,3141-3152,proračunski,_,_,_,_,_,542,ADJ,Agpmsny,amod
541,3153-3165,primanjkljaj,_,_,_,_,_,543,NOUN,Ncmsn,nsubj
542,3166-3173,doseči,_,_,_,_,_,533,VERB,Vmep-sm,csubj
543,3174-3178,"11,2",_,_,_,_,_,545,NUM,Mdc,nummod
544,3179-3187,odstotek,_,_,_,_,_,543,NOUN,Ncmsg,obj
545,3188-3191,BDP,_,_,_,_,_,545,NOUN,Ncmsg,nmod
546,3192-3193,-,_,_,_,_,_,548,PUNCT,Z,punct
547,3194-3196,ja,_,_,_,_,_,543,PART,Q,mark
548,3197-3198,",",_,_,_,_,_,548,PUNCT,Z,punct
549,3199-3203,leto,_,_,_,_,_,554,NOUN,Ncnsg,obl
550,3204-3208,2011,_,_,_,_,_,550,NUM,Mdc,nummod
551,3209-3212,naj,_,_,_,_,_,554,PART,Q,advmod
552,3213-3215,biti,_,_,_,_,_,554,AUX,Va-c,aux
553,3216-3222,znašati,_,_,_,_,_,543,VERB,Vmpp-sm,advcl
554,3223-3225,le,_,_,_,_,_,554,PART,Q,advmod
555,3226-3228,še,_,_,_,_,_,554,PART,Q,advmod
556,3229-3233,šest,_,_,_,_,_,558,NUM,Mlc-pa,nummod
557,3234-3243,odstotek,_,_,_,_,_,554,NOUN,Ncmpg,obj
558,3244-3245,.,_,_,_,_,_,554,PUNCT,Z,punct
559,3246-3251,zlat,_,_,_,_,_,564,ADJ,Agpnsn,mark
560,3252-3254,se,_,_,_,_,_,564,PRON,Px------y,expl
561,3255-3257,še,_,_,_,_,_,564,PART,Q,advmod
562,3258-3260,biti,_,_,_,_,_,564,AUX,Va-r3s-y,aux
563,3261-3268,upehati,_,_,_,_,_,554,VERB,Vmep-sn,conj
564,3269-3275,čeprav,_,_,_,_,_,569,SCONJ,Cs,mark
565,3276-3278,ta,_,_,_,_,_,567,DET,Pd-msa,det
566,3279-3284,teden,_,_,_,_,_,569,NOUN,Ncmsan,obl
567,3285-3292,delnica,_,_,_,_,_,567,NOUN,Ncfsg,nmod
568,3293-3299,drviti,_,_,_,_,_,564,VERB,Vmpr3p,advcl
569,3300-3307,navzgor,_,_,_,_,_,569,ADV,Rgp,advmod
570,3308-3309,",",_,_,_,_,_,569,PUNCT,Z,punct
571,3310-3315,zlat,_,_,_,_,_,575,ADV,Rgp,advmod
572,3316-3318,še,_,_,_,_,_,575,PART,Q,advmod
573,3319-3325,naprej,_,_,_,_,_,575,ADV,Rgp,advmod
574,3326-3335,pridobiti,_,_,_,_,_,564,VERB,Vmpr3s,advcl
575,3336-3337,",",_,_,_,_,_,579,PUNCT,Z,punct
576,3338-3341,kar,_,_,_,_,_,579,PRON,Pr-nsn,nsubj
577,3342-3344,biti,_,_,_,_,_,579,AUX,Va-r3s-n,cop
578,3345-3350,dokaz,_,_,_,_,_,575,NOUN,Ncmsn,nsubj
579,3351-3352,",",_,_,_,_,_,596,PUNCT,Z,punct
580,3353-3355,da,_,_,_,_,_,596,SCONJ,Cs,mark
581,3356-3358,biti,_,_,_,_,_,596,AUX,Va-r3p-n,aux
582,3359-3363,čas,_,_,_,_,_,596,NOUN,Ncmpn,nsubj
583,3364-3369,kljub,_,_,_,_,_,586,ADP,Sd,case
584,3370-3384,ponedeljkov,_,_,_,_,_,586,ADJ,Aspnsd,amod
585,3385-3394,sprejetje,_,_,_,_,_,596,NOUN,Ncnsd,obl
586,3395-3398,750,_,_,_,_,_,588,NUM,Mdc,nummod
587,3399-3407,milijarda,_,_,_,_,_,586,NOUN,Ncfpg,nmod
588,3408-3413,evro,_,_,_,_,_,588,NOUN,Ncmpg,nmod
589,3414-3422,vreden,_,_,_,_,_,591,ADJ,Agpmsg,amod
590,3423-3429,paket,_,_,_,_,_,588,NOUN,Ncmsg,nmod
591,3430-3436,pomoč,_,_,_,_,_,591,NOUN,Ncfsg,nmod
592,3437-3445,evropski,_,_,_,_,_,594,ADJ,Agpfsd,amod
593,3446-3452,valuta,_,_,_,_,_,592,NOUN,Ncfsd,nmod
594,3453-3460,skrajno,_,_,_,_,_,596,ADV,Rgp,advmod
595,3461-3469,negotov,_,_,_,_,_,579,ADJ,Agpmpn,acl
596,3470-3471,.,_,_,_,_,_,575,PUNCT,Z,punct
597,3472-3476,cena,_,_,_,_,_,604,NOUN,Ncfsn,nsubj
598,3477-3482,zlat,_,_,_,_,_,604,ADJ,Agpfsn,obl
599,3483-3485,biti,_,_,_,_,_,604,AUX,Va-r3s-n,aux
600,3486-3491,prvič,_,_,_,_,_,604,ADV,Rgp,advmod
601,3492-3493,v,_,_,_,_,_,603,ADP,Sl,case
602,3494-3503,zgodovina,_,_,_,_,_,604,NOUN,Ncfsl,obl
603,3504-3512,preseči,_,_,_,_,_,596,VERB,Vmep-sf,advcl
604,3513-3518,1.245,_,_,_,_,_,606,NUM,Mdc,nummod
605,3519-3527,dolar,_,_,_,_,_,604,NOUN,Ncmpg,obj
606,3528-3529,.,_,_,_,_,_,596,PUNCT,Z,punct
607,3530-3535,varen,_,_,_,_,_,609,ADJ,Agpnsa,amod
608,3536-3548,pribežališče,_,_,_,_,_,604,NOUN,Ncnsa,nsubj
609,3549-3553,biti,_,_,_,_,_,609,AUX,Va-r3p-y,cop
610,3554-3557,več,_,_,_,_,_,609,PART,Q,advmod
611,3558-3565,državen,_,_,_,_,_,613,ADJ,Agpfsg,amod
612,3566-3575,obveznica,_,_,_,_,_,609,NOUN,Ncfsg,nmod
613,3576-3577,",",_,_,_,_,_,609,PUNCT,Z,punct
614,3578-3583,ampak,_,_,_,_,_,616,CCONJ,Cc,cc
615,3584-3589,zlat,_,_,_,_,_,609,NOUN,Ncfsn,conj
616,3590-3591,",",_,_,_,_,_,623,PUNCT,Z,punct
617,3592-3594,ki,_,_,_,_,_,623,SCONJ,Cs,mark
618,3595-3597,biti,_,_,_,_,_,623,AUX,Va-r3s-n,aux
619,3598-3600,od,_,_,_,_,_,621,ADP,Sg,case
620,3601-3608,začetek,_,_,_,_,_,623,NOUN,Ncmsg,obl
621,3609-3618,februar,_,_,_,_,_,621,NOUN,Ncmsg,nmod
622,3619-3628,poskočiti,_,_,_,_,_,616,VERB,Vmep-sn,acl
623,3629-3631,že,_,_,_,_,_,623,PART,Q,advmod
624,3632-3634,za,_,_,_,_,_,627,ADP,Sa,case
625,3635-3637,20,_,_,_,_,_,627,NUM,Mdc,nummod
626,3638-3647,odstotek,_,_,_,_,_,623,NOUN,Ncmpg,obl
627,3648-3649,.,_,_,_,_,_,609,PUNCT,Z,punct
628,3650-3654,tudi,_,_,_,_,_,631,PART,Q,advmod
629,3655-3662,fizičen,_,_,_,_,_,631,ADJ,Agpfsn,amod
630,3663-3670,prodaja,_,_,_,_,_,623,NOUN,Ncfsn,nsubj
631,3671-3677,zlat,_,_,_,_,_,633,ADJ,Agpfpg,amod
632,3678-3683,palic,_,_,_,_,_,631,NOUN,Ncfpg,nmod
633,3684-3686,in,_,_,_,_,_,635,CCONJ,Cc,cc
634,3687-3695,kovanec,_,_,_,_,_,633,NOUN,Ncmpg,conj
635,3696-3698,biti,_,_,_,_,_,643,AUX,Va-r3s-n,aux
636,3699-3707,trenutno,_,_,_,_,_,643,ADV,Rgp,advmod
637,3708-3710,na,_,_,_,_,_,640,ADP,Sl,case
638,3711-3717,visok,_,_,_,_,_,640,ADJ,Agpfsl,amod
639,3718-3723,raven,_,_,_,_,_,643,NOUN,Ncfsl,obl
640,3724-3725,.,_,_,_,_,_,609,PUNCT,Z,punct
641,3726-3735,optimist,_,_,_,_,_,643,NOUN,Ncmpn,nsubj
642,3736-3742,meniti,_,_,_,_,_,631,VERB,Vmpr3p,conj
643,3743-3744,",",_,_,_,_,_,653,PUNCT,Z,punct
644,3745-3747,da,_,_,_,_,_,653,SCONJ,Cs,mark
645,3748-3750,biti,_,_,_,_,_,653,AUX,Va-c,aux
646,3751-3756,lahko,_,_,_,_,_,653,ADV,Rgp,advmod
647,3757-3759,do,_,_,_,_,_,649,ADP,Sg,case
648,3760-3765,konec,_,_,_,_,_,653,NOUN,Ncmsg,obl
649,3766-3770,leto,_,_,_,_,_,653,NOUN,Ncnsg,obl
650,3771-3775,cena,_,_,_,_,_,653,NOUN,Ncfsn,nsubj
651,3776-3781,zlat,_,_,_,_,_,653,ADJ,Agpfsn,obl
652,3782-3789,doseči,_,_,_,_,_,643,VERB,Vmep-sf,ccomp
653,3790-3795,1.500,_,_,_,_,_,655,NUM,Mdc,nummod
654,3796-3804,dolar,_,_,_,_,_,653,NOUN,Ncmpg,obj
