idx,chars_idx,token,entity_type,sentiment,idk_1,idk_2,orig_sentiment,heads,upos,xpos,deprel
0,0-10,nadzornik,_,_,_,_,_,4,NOUN,Ncmpn,nsubj
1,11-13,biti,_,_,_,_,_,4,AUX,Va-r3p-n,aux
2,14-19,danes,_,_,_,_,_,4,ADV,Rgp,advmod
3,20-26,začeti,_,_,_,_,_,0,VERB,Vmep-pm,root
4,27-31,svoj,_,_,_,_,_,7,DET,Px-msa,det
5,32-42,štirileten,_,_,_,_,_,7,ADJ,Agpmsay,amod
6,43-49,mandat,_,_,_,_,_,4,NOUN,Ncmsan,obj
7,50-53,kot,_,_,_,_,_,15,SCONJ,Cs,mark
8,54-56,biti,_,_,_,_,_,15,AUX,Va-r3p-n,aux
9,57-61,prek,_,_,_,_,_,12,ADP,Sg,case
10,62-69,spleten,_,_,_,_,_,12,ADJ,Agpfsg,amod
11,70-76,stran,_,_,_,_,_,15,NOUN,Ncfsg,obl
12,77-88,ljubljanski,ORG[1],0,*->6-1,*[6],3 - Nevtralno[18],14,ADJ,Agpfsg,amod
13,89-94,borza,ORG[1],0,*->6-1,*[6],3 - Nevtralno[18],12,NOUN,Ncfsg,nmod
14,95-104,sporočiti,_,_,_,_,_,4,VERB,Vmep-pm,advcl
15,105-107,iz,_,_,_,_,_,17,ADP,Sg,case
16,108-115,gorenje,ORG,_,*->1-1,*[1],_,15,PROPN,Npnsg,obl
17,116-117,",",_,_,_,_,_,15,PUNCT,Z,punct
18,118-120,biti,_,_,_,_,_,30,AUX,Va-r3p-n,aux
19,121-123,na,_,_,_,_,_,23,ADP,Sl,case
20,124-132,današnji,_,_,_,_,_,23,ADJ,Agpfsl,amod
21,133-142,ustanoven,_,_,_,_,_,23,ADJ,Agpfsl,amod
22,143-147,seja,_,_,_,_,_,30,NOUN,Ncfsl,obl
23,148-154,nov,_,_,_,_,_,26,ADJ,Agpmsg,amod
24,155-165,nadzoren,_,_,_,_,_,26,ADJ,Agpmsg,amod
25,166-171,svet,_,_,_,_,_,23,NOUN,Ncmsg,nmod
26,172-174,za,_,_,_,_,_,28,ADP,Sa,case
27,175-186,predsednik,_,_,*->2-1,*[2],_,26,NOUN,Ncmsay,nmod
28,187-192,svet,_,_,*->2-1,*[2],_,28,NOUN,Ncmsg,nmod
29,193-201,izvoliti,_,_,_,_,_,4,VERB,Vmep-pm,parataxis
30,202-207,Uroša,PER[2],_,*->2-2,*[2],_,30,PROPN,Npmsay,obj
31,208-216,Slavinca,PER[2],_,*->2-2,*[2],_,31,PROPN,Npmsay,flat:name
32,217-218,.,_,_,_,_,_,30,PUNCT,Z,punct
33,219-227,Slavinec,PER,_,*->2-3,*[2],_,31,PROPN,Npmsn,flat:name
34,228-230,biti,_,_,_,_,_,39,AUX,Va-r3s-n,cop
35,231-233,od,_,_,_,_,_,37,ADP,Sg,case
36,234-238,leto,_,_,_,_,_,39,NOUN,Ncnsg,obl
37,239-243,1990,_,_,_,_,_,37,NUM,Mdc,nummod
38,244-254,predsednik,_,_,*->2-4,*[2],_,30,NOUN,Ncmsn,nsubj
39,255-261,uprava,_,_,*->2-4,*[2],_,39,NOUN,Ncfsg,nmod
40,262-268,družba,_,_,*->2-4,*[2],_,40,NOUN,Ncfsg,nmod
41,269-275,Helios,ORG[3],0,*->2-4|*->7-1,*[2]|*[7],3 - Nevtralno[19],41,PROPN,Npmsn,nmod
42,276-283,Domžale,ORG[3]|LOC[4],0,*->2-4|*->7-1|*->8-1,*[2]|*[7]|*[8],3 - Nevtralno[19]|3 - Nevtralno[20],42,PROPN,Npfsg,nmod
43,284-285,.,_,_,_,_,_,45,PUNCT,Z,punct
44,286-294,opravljati,_,_,_,_,_,30,VERB,Vmpr3s,parataxis
45,295-299,tudi,_,_,_,_,_,45,PART,Q,advmod
46,300-308,funkcija,_,_,_,_,_,45,NOUN,Ncfsa,obj
47,309-320,predsednik,_,_,*->2-5,*[2],_,47,NOUN,Ncmsg,nmod
48,321-330,skupščina,_,_,*->2-5,*[2],_,48,NOUN,Ncfsg,nmod
49,331-342,gospodarski,ORG[5],_,*->2-5|*->3-1,*[2]|*[3],_,51,ADJ,Agpfsg,amod
50,343-351,zbornica,ORG[5],_,*->2-5|*->3-1,*[2]|*[3],_,49,NOUN,Ncfsg,nmod
51,352-361,Slovenija,ORG[5]|LOC[6],0,*->2-5|*->3-1|*->9-1,*[2]|*[3]|*[9],3 - Nevtralno,51,PROPN,Npfsg,nmod
52,362-363,.,_,_,_,_,_,45,PUNCT,Z,punct
53,364-368,leto,_,_,_,_,_,57,NOUN,Ncnsg,obl
54,369-373,1997,_,_,_,_,_,54,NUM,Mdc,nummod
55,374-376,biti,_,_,_,_,_,57,AUX,Va-r3s-n,aux
56,377-383,prejeti,_,_,*->2-6,*[2],_,45,VERB,Vmep-sm,parataxis
57,384-391,nagrada,_,_,_,_,_,57,NOUN,Ncfsa,obj
58,392-395,GZS,ORG,0,*->3-2,*[3],3 - Nevtralno,58,PROPN,Npmsn,nmod
59,396-397,-,_,_,_,_,_,61,PUNCT,Z,punct
60,398-400,ja,_,_,_,_,_,59,PART,Q,conj
61,401-403,za,_,_,_,_,_,64,ADP,Sa,case
62,404-411,izjemen,_,_,_,_,_,64,ADJ,Agpmpa,amod
63,412-419,dosežek,_,_,_,_,_,57,NOUN,Ncmpa,obl
64,420-421,v,_,_,_,_,_,66,ADP,Sl,case
65,422-434,gospodarstvo,_,_,_,_,_,64,NOUN,Ncnsl,nmod
66,435-436,",",_,_,_,_,_,68,PUNCT,Z,punct
67,437-441,leto,_,_,_,_,_,64,NOUN,Ncnsg,nmod
68,442-446,2006,_,_,_,_,_,68,NUM,Mdc,nummod
69,447-449,pa,_,_,_,_,_,71,CCONJ,Cc,cc
70,450-459,priznanje,_,_,_,_,_,64,NOUN,Ncnsa,conj
71,460-462,za,_,_,_,_,_,74,ADP,Sa,case
72,463-474,menedžerski,_,_,_,_,_,74,ADJ,Agpfsa,amod
73,475-483,osebnost,_,1,*->2-7,*[2],4 - Pozitivno[21],71,NOUN,Ncfsa,nmod
74,484-488,leto,_,1,*->2-7,*[2],4 - Pozitivno[21],74,NOUN,Ncnsg,nmod
75,489-490,.,_,_,_,_,_,71,PUNCT,Z,punct
76,491-498,Makovec,PER[7],_,*->4-1,*[4],_,71,PROPN,Npmsn,nmod
77,499-509,Brenčičev,PER[7],_,*->4-1,*[4],_,77,ADJ,Aspfsd,amod
78,510-512,in,_,_,_,_,_,80,CCONJ,Cc,cc
79,513-523,Martinjak,PER,_,*->5-1,*[5],_,77,PROPN,Npmsd,conj
80,524-535,namestniški,_,_,_,_,_,82,ADJ,Agpfsd,amod
81,536-544,funkcija,_,_,_,_,_,89,NOUN,Ncfsd,iobj
82,545-554,skupščina,_,_,_,_,_,82,NOUN,Ncfsn,nmod
83,555-566,velenjski,_,_,*->1-2,*[1],_,85,ADJ,Agpnsg,amod
84,567-575,podjetje,_,_,*->1-2,*[1],_,83,NOUN,Ncnsg,nmod
85,576-578,biti,_,_,_,_,_,89,AUX,Va-r3s-n,aux
86,579-583,maj,_,_,_,_,_,89,NOUN,Ncmsg,obl
87,584-589,letos,_,_,_,_,_,89,ADV,Rgp,advmod
88,590-598,potrditi,_,_,_,_,_,4,VERB,Vmep-sf,parataxis
89,599-608,sprememba,_,_,_,_,_,89,NOUN,Ncfsa,obj
90,609-616,statuta,_,_,_,_,_,90,NOUN,Ncmsg,nmod
91,617-618,",",_,_,_,_,_,95,PUNCT,Z,punct
92,619-623,tako,_,_,_,_,_,95,CCONJ,Cc,cc
93,624-626,da,_,_,_,_,_,93,SCONJ,Cs,fixed
94,627-630,imeti,_,_,_,_,_,89,VERB,Vmpr3s-n,advcl
95,631-637,družba,_,_,*->1-3,*[1],_,95,NOUN,Ncfsn,nsubj
96,638-640,po,_,_,_,_,_,98,ADP,Sl,case
97,641-646,nov,_,_,_,_,_,96,ADJ,Agpnsl,amod
98,647-648,v,_,_,_,_,_,101,ADP,Sl,case
99,649-658,nadzoren,_,_,_,_,_,101,ADJ,Agpmsl,amod
100,659-664,svet,_,_,_,_,_,95,NOUN,Ncmsl,obl
101,665-669,šest,_,_,_,_,_,103,NUM,Mlc-pa,nummod
102,670-683,predstavnik,_,_,_,_,_,95,NOUN,Ncmpg,obj
103,684-692,kapital,_,_,_,_,_,103,NOUN,Ncmsg,nmod
104,693-695,in,_,_,_,_,_,107,CCONJ,Cc,cc
105,696-701,štirje,_,_,_,_,_,107,NUM,Mlcmpa,nummod
106,702-714,predstavnik,_,_,_,_,_,103,NOUN,Ncmpa,conj
107,715-723,delavec,_,_,_,_,_,107,NOUN,Ncmpg,nmod
108,724-725,.,_,_,_,_,_,95,PUNCT,Z,punct
109,726-731,vloga,_,_,_,_,_,116,NOUN,Ncfsa,obj
110,732-743,namestnik,_,_,_,_,_,110,NOUN,Ncmpg,nmod
111,744-755,predsednik,_,_,_,_,_,111,NOUN,Ncmsg,nmod
112,756-766,nadzoren,_,_,_,_,_,114,ADJ,Agpmsg,amod
113,767-772,svet,_,_,_,_,_,112,NOUN,Ncmsg,nmod
114,773-778,biti,_,_,_,_,_,116,AUX,Va-f3d-n,aux
115,779-789,opravljati,_,_,_,_,_,4,VERB,Vmpp-dm,parataxis
116,790-794,Maja,PER[8],1,*->4-2,*[4],4 - Pozitivno[22],116,PROPN,Npfsn,nsubj
117,795-802,Makovec,PER[8],1,*->4-2,*[4],4 - Pozitivno[22],117,PROPN,Npmsn,nmod
118,803-810,Brenčič,PER[8],1,*->4-2,*[4],4 - Pozitivno[22],118,PROPN,Npmsn,flat:name
119,811-813,in,_,_,_,_,_,121,CCONJ,Cc,cc
120,814-822,Krešimir,PER[9],1,*->5-2,*[5],4 - Pozitivno[23],117,PROPN,Npmsn,conj
121,823-832,Martinjak,PER[9],1,*->5-2,*[5],4 - Pozitivno[23],121,PROPN,Npmsn,flat:name
122,833-834,",",_,_,_,_,_,116,PUNCT,Z,punct
123,835-840,drug,_,_,_,_,_,125,ADJ,Mlpmpn,amod
124,841-846,član,_,_,_,_,_,130,NOUN,Ncmpn,appos
125,847-852,svet,_,_,_,_,_,125,NOUN,Ncmsg,nmod
126,853-855,pa,_,_,_,_,_,130,CCONJ,Cc,advmod
127,856-858,biti,_,_,_,_,_,130,AUX,Va-r3p-n,aux
128,859-861,še,_,_,_,_,_,130,PART,Q,advmod
129,862-867,Drago,PER[10],0,*->10-1,*[10],3 - Nevtralno[24],117,PROPN,Npmsn,acl
130,868-875,Krenker,PER[10],0,*->10-1,*[10],3 - Nevtralno[24],130,PROPN,Npmsn,flat:name
131,876-877,",",_,_,_,_,_,133,PUNCT,Z,punct
132,878-883,Peter,PER[11],0,*->11-1,*[11],3 - Nevtralno[25],130,PROPN,Npmsn,conj
133,884-889,Kobal,PER[11],0,*->11-1,*[11],3 - Nevtralno[25],133,PROPN,Npmsn,flat:name
134,890-891,",",_,_,_,_,_,136,PUNCT,Z,punct
135,892-896,Jure,PER[12],0,*->12-1,*[12],3 - Nevtralno[26],130,PROPN,Npmsn,conj
136,897-905,Slemenik,PER[12],0,*->12-1,*[12],3 - Nevtralno[26],136,PROPN,Npmsn,flat:name
137,906-907,",",_,_,_,_,_,139,PUNCT,Z,punct
138,908-913,Peter,PER[13],0,*->13-1,*[13],3 - Nevtralno[27],130,PROPN,Npmsn,conj
139,914-921,Kraljič,PER[13],0,*->13-1,*[13],3 - Nevtralno[27],139,PROPN,Npmsn,flat:name
140,922-923,",",_,_,_,_,_,142,PUNCT,Z,punct
141,924-929,Keith,PER[14],0,*->14-1,*[14],3 - Nevtralno[28],130,PROPN,Npmsn,conj
142,930-935,Miles,PER[14],0,*->14-1,*[14],3 - Nevtralno[28],142,PROPN,Npmsn,flat:name
143,936-937,",",_,_,_,_,_,145,PUNCT,Z,punct
144,938-944,Marcel,PER[15],0,*->15-1,*[15],3 - Nevtralno[29],130,PROPN,Npmsn,conj
145,945-948,van,PER[15],0,*->15-1,*[15],3 - Nevtralno[29],145,PROPN,Npmsn,flat:name
146,949-953,Asse,PER[15],0,*->15-1,*[15],3 - Nevtralno[29],145,PROPN,Npmsn,flat:name
147,954-956,in,_,_,_,_,_,149,CCONJ,Cc,cc
148,957-964,Bernard,PER[16],0,*->16-1,*[16],3 - Nevtralno[30],130,PROPN,Npmsn,conj
149,965-966,C,PER[16],0,*->16-1,*[16],3 - Nevtralno[30],149,PROPN,Npmsn,flat:name
150,967-968,.,PER[16],0,*->16-1,*[16],3 - Nevtralno[30],139,PUNCT,Z,punct
151,969-977,Pasquier,PER[16],0,*->16-1,*[16],3 - Nevtralno[30],149,PROPN,Npmsn,appos
152,978-979,.,_,_,_,_,_,145,PUNCT,Z,punct
153,980-988,nadzoren,_,_,_,_,_,155,ADJ,Agpmsny,amod
154,989-994,odbor,_,_,_,_,_,156,NOUN,Ncmsn,nsubj
155,995-998,imeti,_,_,_,_,_,4,VERB,Vmpr3s-n,parataxis
156,999-1009,štirileten,_,_,_,_,_,158,ADJ,Agpmsay,amod
157,1010-1016,mandat,_,_,_,_,_,156,NOUN,Ncmsan,obj
158,1017-1018,.,_,_,_,_,_,156,PUNCT,Z,punct
159,1019-1026,Gorenje,ORG,_,*->1-4,*[1],_,167,PROPN,Npnsn,nsubj
160,1027-1029,biti,_,_,_,_,_,167,AUX,Va-r3s-n,aux
161,1030-1035,sicer,_,_,_,_,_,167,PART,Q,advmod
162,1036-1044,prejšnji,_,_,_,_,_,164,ADJ,Agpmsay,amod
163,1045-1050,teden,_,_,_,_,_,167,NOUN,Ncmsan,obl
164,1051-1053,od,_,_,_,_,_,166,ADP,Sg,case
165,1054-1062,Probanka,ORG,0,*->17-1,*[17],3 - Nevtralno,164,PROPN,Npfsg,nmod
166,1063-1069,kupiti,_,_,_,_,_,156,VERB,Vmep-sn,conj
167,1070-1075,"21,44",_,_,_,_,_,170,NUM,Mdc,nummod
168,1076-1077,-,_,_,_,_,_,170,PUNCT,Z,punct
169,1078-1086,odstoten,_,_,_,_,_,171,ADJ,Agpmsay,amod
170,1087-1092,delež,_,_,_,_,_,167,NOUN,Ncmsan,obj
171,1093-1103,mariborski,_,_,*->18-1,*[18],_,173,ADJ,Agpfsg,amod
172,1104-1110,družba,_,_,*->18-1,*[18],_,171,NOUN,Ncfsg,nmod
173,1111-1113,za,_,_,*->18-1,*[18],_,175,ADP,Sa,case
174,1114-1123,predelava,_,_,*->18-1,*[18],_,173,NOUN,Ncfsa,nmod
175,1124-1132,odpadek,_,_,*->18-1,*[18],_,175,NOUN,Ncmpg,nmod
176,1133-1140,Gorenje,ORG[17],0,*->18-1|*->19-1,*[18]|*[19],3 - Nevtralno[31],178,PROPN,Npnsn,nmod
177,1141-1149,surovina,ORG[17],0,*->18-1|*->19-1,*[18]|*[19],3 - Nevtralno[31],176,NOUN,Ncfsn,nmod
178,1150-1151,",",_,_,_,_,_,183,PUNCT,Z,punct
179,1152-1153,z,_,_,_,_,_,181,ADP,Si,case
180,1154-1159,kar,_,_,_,_,_,183,PRON,Pr-nsi,obl
181,1160-1162,biti,_,_,_,_,_,183,AUX,Va-r3s-n,aux
182,1163-1170,postati,_,_,_,_,_,178,VERB,Vmep-sn,acl
183,1171-1175,njen,_,0,*->18-2,*[18],3 - Nevtralno,188,DET,Ps3msnsf,det
184,1176-1181,"72,44",_,1,*->1-5,*[1],4 - Pozitivno[32],187,NUM,Mdc,nummod
185,1182-1183,-,_,1,*->1-5,*[1],4 - Pozitivno[32],187,PUNCT,Z,punct
186,1184-1192,odstoten,_,1,*->1-5,*[1],4 - Pozitivno[32],188,ADJ,Agpmsny,amod
187,1193-1200,lastnik,_,1,*->1-5,*[1],4 - Pozitivno[32],183,NOUN,Ncmsn,xcomp
