idx,chars_idx,token,entity_type,sentiment,idk_1,idk_2,orig_sentiment,heads,upos,xpos,deprel
0,0-8,Križanič,PER,_,*->1-1,*[1],_,31,PROPN,Npmsn,nsubj
1,9-12,NLB,ORG,_,*->2-1,*[2],_,1,PROPN,Npfsn,flat:name
2,13-16,naj,_,_,_,_,_,31,PART,Q,advmod
3,17-19,ne,_,_,_,_,_,5,PART,Q,advmod
4,20-28,pritisk,_,_,_,_,_,1,NOUN,Ncmsg,nmod
5,29-35,preveč,_,_,_,_,_,8,DET,Rgp,advmod
6,36-38,na,_,_,_,_,_,8,ADP,Sa,case
7,39-47,dolžnik,_,_,_,_,_,5,NOUN,Ncmpa,nmod
8,48-53,vlada,_,_,_,_,_,31,NOUN,Ncfsn,nsubj
9,54-56,biti,_,_,_,_,_,31,AUX,Va-f3s-n,aux
10,57-68,prenovljen,_,_,_,_,_,12,ADJ,Appfsa,amod
11,69-79,strategija,_,_,_,_,_,31,NOUN,Ncfsa,obj
12,80-83,NLB,ORG,_,*->2-2,*[2],_,12,PROPN,Npfsg,nmod
13,84-85,-,_,_,_,_,_,15,PUNCT,Z,punct
14,86-88,ja,_,_,_,_,_,31,PART,Q,advmod
15,89-91,in,_,_,_,_,_,15,CCONJ,Cc,cc
16,92-93,z,_,_,_,_,_,18,ADP,Si,case
17,94-97,ta,_,_,_,_,_,19,DET,Pd-nsi,nmod
18,98-106,povezan,_,_,_,_,_,20,ADJ,Appnpn,amod
19,107-116,vprašanje,_,_,_,_,_,23,NOUN,Ncnpn,nsubj
20,117-118,o,_,_,_,_,_,22,ADP,Sl,case
21,119-135,dokapitalizacija,_,_,_,_,_,20,NOUN,Ncfsl,nmod
22,136-147,obravnavati,_,_,_,_,_,31,VERB,Vmpp-sf,advcl
23,148-157,prihodnji,_,_,_,_,_,25,ADJ,Agpmsay,amod
24,158-163,teden,_,_,_,_,_,23,NOUN,Ncmsan,obl
25,164-165,",",_,_,_,_,_,23,PUNCT,Z,punct
26,166-168,biti,_,_,_,_,_,31,AUX,Va-r3s-n,aux
27,169-171,po,_,_,_,_,_,29,ADP,Sl,case
28,172-176,seja,_,_,_,_,_,31,NOUN,Ncfsl,obl
29,177-182,vlada,_,_,_,_,_,29,NOUN,Ncfsg,nmod
30,183-190,povedati,_,_,_,_,_,0,VERB,Vmep-sm,root
31,191-199,minister,_,_,*->1-2,*[1],_,31,NOUN,Ncmsn,nsubj
32,200-202,za,_,_,*->1-2,*[1],_,34,ADP,Sa,case
33,203-210,finance,_,_,*->1-2,*[1],_,32,NOUN,Ncfpa,nmod
34,211-216,Franc,PER[1],_,*->1-2,*[1],_,32,PROPN,Npmsn,nmod
35,217-225,Križanič,PER[1],_,*->1-2,*[1],_,35,PROPN,Npmsn,flat:name
36,226-227,.,_,_,_,_,_,31,PUNCT,Z,punct
37,228-236,minister,_,_,*->1-3,*[1],_,41,NOUN,Ncmsn,vocative
38,237-239,biti,_,_,_,_,_,41,AUX,Va-r3s-n,aux
39,240-245,znova,_,_,_,_,_,41,ADV,Rgp,advmod
40,246-255,zagotoviti,_,_,_,_,_,31,VERB,Vmep-sm,parataxis
41,256-260,tudi,_,_,_,_,_,41,PART,Q,advmod
42,261-262,",",_,_,_,_,_,82,PUNCT,Z,punct
43,263-265,da,_,_,_,_,_,50,SCONJ,Cs,mark
44,266-270,biti,_,_,_,_,_,50,AUX,Va-f3p-n,cop
45,271-278,državen,_,_,_,_,_,47,ADJ,Agpmpn,amod
46,279-283,vir,_,_,_,_,_,50,NOUN,Ncmpn,nsubj
47,284-286,za,_,_,_,_,_,49,ADP,Sa,case
48,287-303,dokapitalizacija,_,_,_,_,_,47,NOUN,Ncfsa,nmod
49,304-316,zagotovljen,_,_,_,_,_,41,ADJ,Appmpn,root
50,317-318,v,_,_,_,_,_,52,ADP,Sl,case
51,319-326,bilanca,_,_,_,_,_,50,NOUN,Ncfsl,obl
52,327-328,B,_,_,_,_,_,54,NOUN,Ncmsn,nmod
53,329-338,proračun,_,_,_,_,_,52,NOUN,Ncmsg,nmod
54,339-340,.,_,_,_,_,_,50,PUNCT,Z,punct
55,341-346,sicer,_,_,_,_,_,68,PART,Q,advmod
56,347-349,pa,_,_,_,_,_,68,CCONJ,Cc,advmod
57,350-352,ta,_,_,_,_,_,59,DET,Pd-fsa,det
58,353-358,točka,_,_,_,_,_,68,NOUN,Ncfpa,obj
59,359-361,na,_,_,_,_,_,62,ADP,Sa,case
60,362-368,dneven,_,_,_,_,_,62,ADJ,Agpmsay,amod
61,369-372,red,_,_,_,_,_,59,NOUN,Ncmsan,nmod
62,373-377,seja,_,_,_,_,_,62,NOUN,Ncfsg,nmod
63,378-383,vlada,_,_,_,_,_,63,NOUN,Ncfsg,nmod
64,384-386,že,_,_,_,_,_,68,PART,Q,advmod
65,387-392,danes,_,_,_,_,_,68,ADV,Rgp,advmod
66,393-397,biti,_,_,_,_,_,68,AUX,Va-r3p-y,aux
67,398-407,vključiti,_,_,_,_,_,31,VERB,Vmep-pm,parataxis
68,408-414,zaradi,_,_,_,_,_,70,ADP,Sg,case
69,415-419,ta,_,_,_,_,_,68,DET,Pd-nsg,obl
70,420-421,",",_,_,_,_,_,82,PUNCT,Z,punct
71,422-425,ker,_,_,_,_,_,82,SCONJ,Cs,mark
72,426-428,biti,_,_,_,_,_,82,AUX,Va-r3s-n,aux
73,429-437,nadzoren,_,_,_,_,_,75,ADJ,Agpmsny,amod
74,438-442,svet,_,_,_,_,_,82,NOUN,Ncmsn,nsubj
75,443-446,NLB,ORG,_,*->2-3,*[2],_,75,PROPN,Npfsg,nmod
76,447-448,-,_,_,_,_,_,82,PUNCT,Z,punct
77,449-451,ja,_,_,_,_,_,82,PART,Q,advmod
78,452-456,šele,_,_,_,_,_,82,PART,Q,advmod
79,457-458,v,_,_,_,_,_,81,ADP,Sa,case
80,459-464,sreda,_,_,_,_,_,82,NOUN,Ncfsa,obl
81,465-472,sprejeti,_,_,_,_,_,68,VERB,Vmep-sm,advcl
82,473-483,varčevalen,_,_,_,_,_,84,ADJ,Agpfsa,amod
83,484-494,strategija,_,_,_,_,_,82,NOUN,Ncfsa,obj
84,495-497,za,_,_,_,_,_,86,ADP,Sa,case
85,498-505,obdobje,_,_,_,_,_,84,NOUN,Ncnsa,nmod
86,506-510,2010,_,_,_,_,_,86,NUM,Mdc,nummod
87,511-512,-,_,_,_,_,_,89,PUNCT,Z,punct
88,513-517,2015,_,_,_,_,_,87,NUM,Mdc,conj
89,518-519,.,_,_,_,_,_,68,PUNCT,Z,punct
90,520-528,Križanič,PER,_,*->1-4,*[1],_,93,PROPN,Npmsn,vocative
91,529-531,biti,_,_,_,_,_,93,AUX,Va-r3s-n,aux
92,532-539,potrditi,_,_,_,_,_,31,VERB,Vmep-sm,parataxis
93,540-544,tudi,_,_,_,_,_,93,PART,Q,advmod
94,545-546,",",_,_,_,_,_,103,PUNCT,Z,punct
95,547-549,da,_,_,_,_,_,103,SCONJ,Cs,mark
96,550-552,biti,_,_,_,_,_,103,AUX,Va-r3s-n,aux
97,553-564,ministrstvo,_,_,_,_,_,103,NOUN,Ncnsn,nsubj
98,565-576,nadzornik,_,_,_,_,_,98,NOUN,Ncmpd,nmod
99,577-579,in,_,_,_,_,_,101,CCONJ,Cc,cc
100,580-585,upava,_,_,_,_,_,99,NOUN,Ncfsd,conj
101,586-591,banka,_,_,_,_,_,101,NOUN,Ncfsg,nmod
102,592-603,predstaviti,_,_,_,_,_,93,VERB,Vmep-sn,root
103,604-612,interes,_,_,_,_,_,103,NOUN,Ncmpa,obj
104,613-619,država,_,_,*->11-1,*[11],_,104,NOUN,Ncfsg,nmod
105,620-623,kot,_,_,_,_,_,107,SCONJ,Cs,case
106,624-632,lastnik,_,_,_,_,_,104,NOUN,Ncmsay,obl
107,633-634,.,_,_,_,_,_,103,PUNCT,Z,punct
108,635-637,po,_,_,_,_,_,111,ADP,Sl,case
109,638-645,njegov,_,_,*->1-5,*[1],_,111,DET,Ps3fslsm,det
110,646-651,ocena,_,_,_,_,_,117,NOUN,Ncfsl,obl
111,652-654,biti,_,_,_,_,_,117,AUX,Va-r3p-n,aux
112,655-656,v,_,_,_,_,_,114,ADP,Sl,case
113,657-660,NLB,ORG,_,*->2-4,*[2],_,117,PROPN,Npfsl,obl
114,661-662,-,_,_,_,_,_,117,PUNCT,Z,punct
115,663-665,on,_,_,_,_,_,117,PRON,Pp3mda--y,obj
116,666-671,najti,_,_,_,_,_,31,VERB,Vmep-pm,parataxis
117,672-683,kompromisen,_,_,_,_,_,119,ADJ,Agpfsa,amod
118,684-691,rešitev,_,_,_,_,_,117,NOUN,Ncfsa,obj
119,692-695,med,_,_,_,_,_,121,ADP,Si,case
120,696-704,interes,_,_,_,_,_,119,NOUN,Ncmpi,nmod
121,705-712,drug,_,_,*->5-1,*[5],_,124,ADJ,Mlpmsg,amod
122,713-723,velik,_,_,*->5-1,*[5],_,124,ADJ,Agsmsg,amod
123,724-732,lastnik,_,_,*->5-1,*[5],_,121,NOUN,Ncmsg,nmod
124,733-734,",",_,_,_,_,_,127,PUNCT,Z,punct
125,735-746,belgijski,_,_,*->5-2,*[5],_,127,ADJ,Agpmsg,amod
126,747-750,KBC,ORG,_,*->5-2,*[5],_,124,PROPN,Npmsg,appos
127,751-752,-,_,_,_,_,_,129,PUNCT,Z,punct
128,753-755,ja,_,_,_,_,_,127,PART,Q,conj
129,756-757,",",_,_,_,_,_,134,PUNCT,Z,punct
130,758-760,ki,_,_,_,_,_,134,SCONJ,Cs,mark
131,761-763,se,_,_,_,_,_,134,PRON,Px------y,expl
132,764-766,biti,_,_,_,_,_,134,AUX,Va-r3s-n,aux
133,767-775,zavzemati,_,0,*->5-3,*[5],3 - Nevtralno,124,VERB,Vmpp-sm,acl
134,776-778,za,_,_,_,_,_,136,ADP,Sa,case
135,779-787,skrčenje,_,_,_,_,_,134,NOUN,Ncnsa,obl
136,788-798,dejavnost,_,_,_,_,_,136,NOUN,Ncfsg,nmod
137,799-801,in,_,_,_,_,_,140,CCONJ,Cc,cc
138,802-813,naložben,_,_,_,_,_,140,ADJ,Agpmsg,amod
139,814-823,portfelje,_,_,_,_,_,137,NOUN,Ncmsg,conj
140,824-829,banka,_,_,*->2-5,*[2],_,140,NOUN,Ncfsg,nmod
141,830-831,",",_,_,_,_,_,134,PUNCT,Z,punct
142,832-834,in,_,_,_,_,_,144,CCONJ,Cc,cc
143,835-841,država,_,_,*->11-2,*[11],_,141,NOUN,Ncfsg,conj
144,842-843,.,_,_,_,_,_,31,PUNCT,Z,punct
145,844-846,po,_,_,*->1-6,*[1],_,147,ADP,Sl,case
146,847-854,beseda,_,_,*->1-6,*[1],_,154,NOUN,Ncfpl,obl
147,855-863,minister,_,_,*->1-6,*[1],_,147,NOUN,Ncmsg,nmod
148,864-866,se,_,_,_,_,_,154,PRON,Px---d--y,expl
149,867-873,država,_,_,*->11-3,*[11],_,154,NOUN,Ncfsn,nsubj
150,874-878,tudi,_,_,_,_,_,154,PART,Q,advmod
151,879-880,v,_,_,_,_,_,153,ADP,Sa,case
152,881-890,prihodnji,_,_,_,_,_,154,ADJ,Agpnsa,obl
153,891-895,želeti,_,_,_,_,_,31,VERB,Vmpr3s,parataxis
154,896-897,",",_,_,_,_,_,161,PUNCT,Z,punct
155,898-900,da,_,_,_,_,_,161,SCONJ,Cs,mark
156,901-903,biti,_,_,_,_,_,161,AUX,Va-c,aux
157,904-907,NLB,ORG,_,*->2-6,*[2],_,161,PROPN,Npfsn,nsubj
158,908-910,še,_,_,_,_,_,161,PART,Q,advmod
159,911-917,naprej,_,_,_,_,_,161,ADV,Rgp,advmod
160,918-926,ohranjati,_,_,_,_,_,154,VERB,Vmpp-sm,ccomp
161,927-935,nekoliko,_,_,_,_,_,163,ADV,Rgp,advmod
162,936-941,visok,_,_,_,_,_,165,ADJ,Agcfsa,amod
163,942-951,posojilen,_,_,_,_,_,165,ADJ,Agpfsa,amod
164,952-961,dejavnost,_,_,_,_,_,161,NOUN,Ncfsa,obj
165,962-963,",",_,_,_,_,_,174,PUNCT,Z,punct
166,964-968,tako,_,_,_,_,_,174,ADV,Rgp,mark
167,969-972,kot,_,_,_,_,_,174,SCONJ,Cs,mark
168,973-975,biti,_,_,_,_,_,174,AUX,Va-r3s-n,aux
169,976-978,ta,_,_,_,_,_,174,DET,Pd-nsn,nsubj
170,979-981,po,_,_,_,_,_,173,ADP,Sl,case
171,982-990,njegov,_,_,*->1-7,*[1],_,173,DET,Ps3fplsm,det
172,991-998,beseda,_,_,_,_,_,174,NOUN,Ncfpl,obl
173,999-1004,početi,_,_,*->2-7,*[2],_,161,VERB,Vmbp-sm,advcl
174,1005-1008,med,_,_,_,_,_,176,ADP,Si,case
175,1009-1014,kriza,_,_,_,_,_,174,NOUN,Ncfsi,obl
176,1015-1016,",",_,_,_,_,_,174,PUNCT,Z,punct
177,1017-1019,in,_,_,_,_,_,182,CCONJ,Cc,cc
178,1020-1022,ne,_,_,_,_,_,182,PART,Q,advmod
179,1023-1025,biti,_,_,_,_,_,182,AUX,Va-c,aux
180,1026-1035,pretirano,_,_,_,_,_,182,ADV,Rgp,advmod
181,1036-1045,pritiskati,_,_,*->2-8,*[2],_,174,VERB,Vmpp-sm,conj
182,1046-1048,na,_,_,_,_,_,184,ADP,Sa,case
183,1049-1057,dolžnik,_,_,_,_,_,182,NOUN,Ncmpa,obl
184,1058-1061,ter,_,_,_,_,_,188,CCONJ,Cc,cc
185,1062-1063,z,_,_,_,_,_,187,ADP,Si,case
186,1064-1067,ta,_,_,_,_,_,188,DET,Pd-nsi,obl
187,1068-1077,povzročati,_,_,*->2-9,*[2],_,182,VERB,Vmpp-sm,conj
188,1078-1084,velik,_,_,_,_,_,190,ADJ,Agcmpg,amod
189,1085-1093,stečaj,_,_,_,_,_,188,NOUN,Ncmpg,obj
190,1094-1095,.,_,_,_,_,_,31,PUNCT,Z,punct
191,1096-1104,Radićev,PER,_,*->3-1,*[3],_,218,ADJ,Aspfsn,nsubj
192,1105-1110,proti,_,_,_,_,_,194,ADP,Sd,case
193,1111-1121,zmanjšanje,_,_,_,_,_,192,NOUN,Ncnsd,nmod
194,1122-1134,kreditiranje,_,_,_,_,_,194,NOUN,Ncnsg,nmod
195,1135-1147,gospodarstvo,_,_,_,_,_,195,NOUN,Ncnsg,nmod
196,1148-1150,na,_,_,_,_,_,198,ADP,Sa,case
197,1151-1158,trditev,_,_,_,_,_,196,NOUN,Ncfpa,nmod
198,1159-1160,",",_,_,_,_,_,201,PUNCT,Z,punct
199,1161-1163,da,_,_,_,_,_,201,SCONJ,Cs,mark
200,1164-1168,želeti,_,_,_,_,_,198,VERB,Vmpr3s,acl
201,1169-1172,NLB,ORG,_,*->2-10,*[2],_,201,PROPN,Npfsn,nsubj
202,1173-1174,v,_,_,_,_,_,204,ADP,Sl,case
203,1175-1181,okvir,_,_,_,_,_,207,NOUN,Ncmsl,obl
204,1182-1186,nov,_,_,_,_,_,206,ADJ,Agpfsg,amod
205,1187-1197,strategija,_,_,_,_,_,204,NOUN,Ncfsg,nmod
206,1198-1207,zmanjšati,_,_,_,_,_,201,VERB,Vmen,xcomp
207,1208-1220,kreditiranje,_,_,_,_,_,207,NOUN,Ncnsa,obj
208,1221-1232,slovenski,_,_,_,_,_,210,ADJ,Agpnsg,amod
209,1233-1245,gospodarstvo,_,_,_,_,_,208,NOUN,Ncnsg,nmod
210,1246-1247,",",_,_,_,_,_,201,PUNCT,Z,punct
211,1248-1250,pa,_,_,_,_,_,218,CCONJ,Cc,advmod
212,1251-1253,biti,_,_,_,_,_,218,AUX,Va-r3s-n,aux
213,1254-1265,gospodarski,_,_,*->3-2,*[3],_,215,ADJ,Agpfsn,amod
214,1266-1276,ministrica,_,_,*->3-2,*[3],_,218,NOUN,Ncfsn,nsubj
215,1277-1282,Darja,PER[2],_,*->3-2,*[3],_,215,PROPN,Npfsn,nmod
216,1283-1288,Radić,PER[2],_,*->3-2,*[3],_,216,PROPN,Npfsn,flat:name
217,1289-1299,odgovoriti,_,_,_,_,_,31,VERB,Vmep-sf,parataxis
218,1300-1301,",",_,_,_,_,_,226,PUNCT,Z,punct
219,1302-1304,da,_,_,_,_,_,226,SCONJ,Cs,mark
220,1305-1307,se,_,_,_,_,_,227,PRON,Px------y,expl
221,1308-1309,z,_,_,_,_,_,224,ADP,Si,case
222,1310-1312,ta,_,_,_,_,_,224,DET,Pd-fsi,det
223,1313-1324,odločitev,_,_,_,_,_,227,NOUN,Ncfsi,obl
224,1325-1327,ne,_,_,_,_,_,226,PART,Q,advmod
225,1328-1332,moči,_,_,*->3-3,*[3],_,218,VERB,Vmpr3s,ccomp
226,1333-1342,strinjati,_,_,_,_,_,226,VERB,Vmpn,xcomp
227,1343-1344,",",_,_,_,_,_,226,PUNCT,Z,punct
228,1345-1349,zato,_,_,_,_,_,234,CCONJ,Cc,cc
229,1350-1352,biti,_,_,_,_,_,234,AUX,Va-f3s-n,aux
230,1353-1358,proti,_,_,_,_,_,232,ADP,Sd,case
231,1359-1363,ta,_,_,_,_,_,234,DET,Pd-nsd,obl
232,1364-1371,odločno,_,_,_,_,_,234,ADV,Rgp,advmod
233,1372-1384,protestirati,_,2,*->3-4,*[3],2 - Negativno,227,VERB,Vmbp-sf,conj
234,1385-1386,.,_,_,_,_,_,234,PUNCT,Z,punct
235,1387-1390,kot,_,_,_,_,_,239,SCONJ,Cs,case
236,1391-1393,še,_,_,_,_,_,239,PART,Q,advmod
237,1394-1399,pravi,_,_,_,_,_,239,ADJ,Agpmsny,amod
238,1400-1408,minister,_,_,_,_,_,234,NOUN,Ncmsn,obl
239,1409-1417,Križanič,PER,_,*->1-8,*[1],_,239,PROPN,Npmsn,nmod
240,1418-1419,",",_,_,_,_,_,239,PUNCT,Z,punct
241,1420-1422,se,_,_,_,_,_,254,PRON,Px------y,expl
242,1423-1425,biti,_,_,_,_,_,254,AUX,Va-f3s-n,aux
243,1426-1431,lahko,_,_,_,_,_,254,ADV,Rgp,advmod
244,1432-1442,strategija,_,_,_,_,_,254,NOUN,Ncfsn,nsubj
245,1443-1446,NLB,ORG,_,*->2-11,*[2],_,245,PROPN,Npfsg,nmod
246,1447-1448,-,_,_,_,_,_,248,PUNCT,Z,punct
247,1449-1451,ja,_,_,_,_,_,254,PART,Q,mark
248,1452-1459,skladno,_,_,_,_,_,254,ADV,Rgp,advmod
249,1460-1461,z,_,_,_,_,_,251,ADP,Si,case
250,1462-1470,razvoj,_,_,_,_,_,254,NOUN,Ncmsi,obl
251,1471-1479,dogodek,_,_,_,_,_,251,NOUN,Ncmpg,nmod
252,1480-1482,še,_,_,_,_,_,254,PART,Q,advmod
253,1483-1495,dopolnjevati,_,_,_,_,_,240,VERB,Vmpp-sf,acl
254,1496-1497,",",_,_,_,_,_,254,PUNCT,Z,punct
255,1498-1504,zaradi,_,_,_,_,_,258,ADP,Sg,case
256,1505-1518,dolgotrajen,_,_,_,_,_,258,ADJ,Agpmsg,amod
257,1519-1527,postopek,_,_,_,_,_,267,NOUN,Ncmsg,obl
258,1528-1539,odobravanje,_,_,_,_,_,258,NOUN,Ncnsg,nmod
259,1540-1556,dokapitalizacija,_,_,_,_,_,259,NOUN,Ncfsg,nmod
260,1557-1559,pa,_,_,_,_,_,267,CCONJ,Cc,advmod
261,1560-1561,",",_,_,_,_,_,264,PUNCT,Z,punct
262,1562-1565,kot,_,_,_,_,_,264,SCONJ,Cs,mark
263,1566-1570,meniti,_,_,*->1-9,*[1],_,260,VERB,Vmpr3s,acl
264,1571-1572,",",_,_,_,_,_,264,PUNCT,Z,punct
265,1573-1575,ne,_,_,_,_,_,267,PART,Q,advmod
266,1576-1583,nastajati,_,_,_,_,_,254,VERB,Vmpr3s,conj
267,1584-1595,gospodarski,_,_,_,_,_,269,ADJ,Agpfsn,amod
268,1596-1601,škoda,_,_,_,_,_,267,NOUN,Ncfsn,nsubj
269,1602-1603,.,_,_,_,_,_,254,PUNCT,Z,punct
270,1604-1609,Pahor,PER,_,*->4-1,*[4],_,283,PROPN,Npmsn,nsubj
271,1610-1618,Križanič,PER,_,*->1-10,*[1],_,271,PROPN,Npmsn,flat:name
272,1619-1622,naj,_,_,_,_,_,275,PART,Q,advmod
273,1623-1625,se,_,_,_,_,_,275,PRON,Px------y,expl
274,1626-1633,potruditi,_,_,_,_,_,31,VERB,Vmer3s,parataxis
275,1634-1637,pri,_,_,_,_,_,277,ADP,Sl,case
276,1638-1648,argument,_,_,_,_,_,275,NOUN,Ncmpl,obl
277,1649-1659,predsednik,_,_,*->4-2,*[4],_,277,NOUN,Ncmsn,nmod
278,1660-1665,vlada,_,_,*->4-2,*[4],_,278,NOUN,Ncfsg,nmod
279,1666-1671,Borut,PER[3],_,*->4-2,*[4],_,278,PROPN,Npmsn,nmod
280,1672-1677,Pahor,PER[3],_,*->4-2,*[4],_,280,PROPN,Npmsn,flat:name
281,1678-1680,biti,_,_,_,_,_,283,AUX,Va-r3s-n,aux
282,1681-1688,povedati,_,_,_,_,_,275,VERB,Vmep-sm,conj
283,1689-1690,",",_,_,_,_,_,289,PUNCT,Z,punct
284,1691-1693,da,_,_,_,_,_,289,SCONJ,Cs,mark
285,1694-1696,on,_,_,*->4-3,*[4],_,289,PRON,Pp3msd--y,iobj
286,1697-1699,biti,_,_,_,_,_,289,AUX,Va-r3s-n,aux
287,1700-1708,Križanič,PER,_,*->1-11,*[1],_,289,PROPN,Npmsn,nsubj
288,1709-1717,pojasniti,_,_,_,_,_,283,VERB,Vmep-sm,ccomp
289,1718-1725,razlog,_,_,_,_,_,289,NOUN,Ncmpa,obj
290,1726-1727,",",_,_,_,_,_,293,PUNCT,Z,punct
291,1728-1733,zakaj,_,_,_,_,_,293,ADV,Rgp,advmod
292,1734-1738,meniti,_,_,*->1-12,*[1],_,290,VERB,Vmpr3s,acl
293,1739-1740,",",_,_,_,_,_,303,PUNCT,Z,punct
294,1741-1743,da,_,_,_,_,_,303,SCONJ,Cs,mark
295,1744-1746,biti,_,_,_,_,_,303,AUX,Va-r3s-n,cop
296,1747-1757,dopolnjen,_,_,_,_,_,298,ADJ,Appfsn,amod
297,1758-1768,strategija,_,_,_,_,_,303,NOUN,Ncfsn,nsubj
298,1769-1772,NLB,ORG,_,*->2-12,*[2],_,298,PROPN,Npfsg,nmod
299,1773-1774,-,_,_,_,_,_,301,PUNCT,Z,punct
300,1775-1777,ja,_,_,_,_,_,303,PART,Q,mark
301,1778-1786,primerno,_,_,_,_,_,303,ADV,Rgp,advmod
302,1787-1799,pripravljen,_,_,_,_,_,290,ADJ,Appfsn,acl
303,1800-1801,",",_,_,_,_,_,303,PUNCT,Z,punct
304,1802-1803,a,_,_,_,_,_,307,CCONJ,Cc,cc
305,1804-1806,biti,_,_,_,_,_,307,AUX,Va-r3s-n,aux
306,1807-1813,oceniti,_,0,*->4-4,*[4],3 - Nevtralno,303,VERB,Vmep-sm,conj
307,1814-1815,",",_,_,_,_,_,311,PUNCT,Z,punct
308,1816-1818,da,_,_,_,_,_,311,SCONJ,Cs,mark
309,1819-1821,se,_,_,_,_,_,314,PRON,Px------y,expl
310,1822-1826,morati,_,_,_,_,_,307,VERB,Vmpr3s,ccomp
311,1827-1835,minister,_,2,*->1-13,*[1],2 - Negativno,311,NOUN,Ncmsn,nsubj
312,1836-1840,bolj,_,_,_,_,_,314,ADV,Rgc,advmod
313,1841-1850,potruditi,_,_,_,_,_,311,VERB,Vmen,xcomp
314,1851-1853,in,_,_,_,_,_,319,CCONJ,Cc,cc
315,1854-1856,ta,_,_,_,_,_,317,DET,Pd-mpa,det
316,1857-1866,argument,_,_,_,_,_,319,NOUN,Ncmpa,obj
317,1867-1875,natančno,_,_,_,_,_,319,ADV,Rgp,advmod
318,1876-1887,predstaviti,_,_,_,_,_,314,VERB,Vmen,conj
319,1888-1893,vlada,_,_,_,_,_,319,NOUN,Ncfsd,iobj
320,1894-1895,",",_,_,_,_,_,319,PUNCT,Z,punct
321,1896-1902,zaradi,_,_,_,_,_,323,ADP,Sg,case
322,1903-1909,pomen,_,_,_,_,_,319,NOUN,Ncmsg,obl
323,1910-1915,banka,_,_,*->2-13,*[2],_,323,NOUN,Ncfsg,nmod
324,1916-1918,za,_,_,_,_,_,326,ADP,Sa,case
325,1919-1928,Slovenija,LOC,_,*->11-4,*[11],_,324,PROPN,Npfsa,nmod
326,1929-1931,in,_,_,_,_,_,329,CCONJ,Cc,cc
327,1932-1937,njen,_,0,*->11-5,*[11],3 - Nevtralno,329,DET,Ps3mpasf,det
328,1938-1948,državljan,_,_,_,_,_,326,NOUN,Ncmpa,conj
329,1949-1951,pa,_,_,_,_,_,332,CCONJ,Cc,cc
330,1952-1956,tudi,_,_,_,_,_,329,PART,Q,cc
331,1957-1965,javnost,_,_,_,_,_,326,NOUN,Ncfpa,conj
332,1966-1967,.,_,_,_,_,_,332,PUNCT,Z,punct
333,1968-1973,obseg,_,_,_,_,_,336,NOUN,Ncmsn,nsubj
334,1974-1990,dokapitalizacija,_,_,_,_,_,334,NOUN,Ncfsg,nmod
335,1991-1997,majhen,_,_,_,_,_,337,ADJ,Agcmsny,csubj
336,1998-2003,znan,_,_,_,_,_,332,ADJ,Appnsn,amod
337,2004-2006,biti,_,_,_,_,_,337,AUX,Va-r3s-n,cop
338,2007-2008,",",_,_,_,_,_,349,PUNCT,Z,punct
339,2009-2011,da,_,_,_,_,_,349,SCONJ,Cs,mark
340,2012-2014,biti,_,_,_,_,_,349,AUX,Va-r3s-n,aux
341,2015-2023,nadzoren,_,_,_,_,_,343,ADJ,Agpmsny,amod
342,2024-2028,svet,_,_,_,_,_,349,NOUN,Ncmsn,nsubj
343,2029-2032,NLB,ORG,0,*->2-14,*[2],3 - Nevtralno,343,PROPN,Npfsg,nmod
344,2033-2034,-,_,_,_,_,_,346,PUNCT,Z,punct
345,2035-2037,ja,_,_,_,_,_,349,PART,Q,mark
346,2038-2039,v,_,_,_,_,_,348,ADP,Sa,case
347,2040-2045,sreda,_,_,_,_,_,349,NOUN,Ncfsa,obl
348,2046-2053,potrditi,_,_,_,_,_,337,VERB,Vmep-sm,csubj
349,2054-2064,dopolnjen,_,_,_,_,_,351,ADJ,Appfsa,amod
350,2065-2075,strategija,_,_,_,_,_,349,NOUN,Ncfsa,obj
351,2076-2086,poslovanje,_,_,_,_,_,351,NOUN,Ncnsg,nmod
352,2087-2092,banka,_,_,_,_,_,352,NOUN,Ncfsg,nmod
353,2093-2095,za,_,_,_,_,_,355,ADP,Sa,case
354,2096-2103,obdobje,_,_,_,_,_,353,NOUN,Ncnsa,nmod
355,2104-2108,2010,_,_,_,_,_,355,NUM,Mdc,nummod
356,2109-2110,-,_,_,_,_,_,358,PUNCT,Z,punct
357,2111-2115,2015,_,_,_,_,_,356,NUM,Mdc,conj
358,2116-2117,",",_,_,_,_,_,361,PUNCT,Z,punct
359,2118-2120,ki,_,_,_,_,_,361,SCONJ,Cs,mark
360,2121-2131,predvidevati,_,_,_,_,_,353,VERB,Vmpr3s,acl
361,2132-2138,majhen,_,_,_,_,_,363,ADJ,Agcmsay,amod
362,2139-2144,obseg,_,_,_,_,_,361,NOUN,Ncmsan,obj
363,2145-2161,dokapitalizacija,_,_,_,_,_,363,NOUN,Ncfsg,nmod
364,2162-2163,",",_,_,_,_,_,361,PUNCT,Z,punct
365,2164-2166,in,_,_,_,_,_,369,CCONJ,Cc,cc
366,2167-2172,sicer,_,_,_,_,_,361,PART,Q,advmod
367,2173-2174,v,_,_,_,_,_,369,ADP,Sl,case
368,2175-2181,višina,_,_,_,_,_,363,NOUN,Ncfsl,conj
369,2182-2185,250,_,_,_,_,_,374,NUM,Mdc,nummod
370,2186-2187,",",_,_,_,_,_,373,PUNCT,Z,punct
371,2188-2190,ne,_,_,_,_,_,373,PART,Q,advmod
372,2191-2194,400,_,_,_,_,_,370,NUM,Mdc,conj
373,2195-2204,milijon,_,_,_,_,_,369,NOUN,Ncmpg,appos
374,2205-2210,evro,_,_,_,_,_,374,NOUN,Ncmpg,nmod
375,2211-2212,",",_,_,_,_,_,374,PUNCT,Z,punct
376,2213-2219,hkrati,_,_,_,_,_,379,ADV,Rgp,advmod
377,2220-2222,pa,_,_,_,_,_,379,CCONJ,Cc,advmod
378,2223-2229,določati,_,_,_,_,_,337,VERB,Vmpr3s,parataxis
379,2230-2242,izkoriščenje,_,_,_,_,_,379,NOUN,Ncnsa,obj
380,2243-2247,ves,_,_,_,_,_,383,DET,Pg-mpg,det
381,2248-2257,notranji,_,_,_,_,_,383,ADJ,Agpmpg,amod
382,2258-2265,ukrep,_,_,_,_,_,380,NOUN,Ncmpg,nmod
383,2266-2268,za,_,_,_,_,_,385,ADP,Sa,case
384,2269-2279,sprostitev,_,_,_,_,_,383,NOUN,Ncfsa,nmod
385,2280-2288,kapital,_,_,_,_,_,385,NOUN,Ncmsg,nmod
386,2289-2290,.,_,_,_,_,_,379,PUNCT,Z,punct
387,2291-2293,ob,_,_,_,_,_,391,ADP,Sl,case
388,2294-2296,že,_,_,_,_,_,390,PART,Q,advmod
389,2297-2308,napovedan,_,_,_,_,_,391,ADJ,Appmsl,amod
390,2309-2314,umik,_,_,_,_,_,380,NOUN,Ncmsl,nmod
391,2315-2316,z,_,_,_,_,_,395,ADP,Sg,case
392,2317-2326,nekateri,_,_,_,_,_,395,DET,Pi-mpg,det
393,2327-2339,nestrateški,_,_,_,_,_,395,ADJ,Agpmpg,amod
394,2340-2345,trg,_,_,_,_,_,391,NOUN,Ncmpg,nmod
395,2346-2347,",",_,_,_,_,_,399,PUNCT,Z,punct
396,2348-2351,kot,_,_,_,_,_,399,SCONJ,Cs,mark
397,2352-2354,biti,_,_,_,_,_,399,AUX,Va-r3p-n,cop
398,2355-2363,Avstrija,LOC,0,*->6-1,*[6],3 - Nevtralno,395,PROPN,Npfsn,acl
399,2364-2365,",",_,_,_,_,_,401,PUNCT,Z,punct
400,2366-2375,Bolgarija,LOC,0,*->7-1,*[7],3 - Nevtralno,399,PROPN,Npfsn,conj
401,2376-2377,",",_,_,_,_,_,403,PUNCT,Z,punct
402,2378-2383,Češka,LOC,0,*->8-1,*[8],3 - Nevtralno,399,PROPN,Npfsn,conj
403,2384-2385,",",_,_,_,_,_,405,PUNCT,Z,punct
404,2386-2393,Nemčija,LOC,0,*->9-1,*[9],3 - Nevtralno,399,PROPN,Npfsn,conj
405,2394-2396,in,_,_,_,_,_,407,CCONJ,Cc,cc
406,2397-2405,Slovaška,LOC,0,*->10-1,*[10],3 - Nevtralno,399,PROPN,Npfsn,conj
407,2406-2407,",",_,_,_,_,_,399,PUNCT,Z,punct
408,2408-2410,in,_,_,_,_,_,413,CCONJ,Cc,cc
409,2411-2413,iz,_,_,_,_,_,413,ADP,Sg,case
410,2414-2423,nekateri,_,_,_,_,_,413,DET,Pi-fpg,det
411,2424-2433,nejedrn,_,_,_,_,_,413,ADJ,Agpfpg,amod
412,2434-2444,dejavnost,_,_,_,_,_,407,NOUN,Ncfpg,appos
413,2445-2446,",",_,_,_,_,_,417,PUNCT,Z,punct
414,2447-2450,kot,_,_,_,_,_,417,SCONJ,Cs,mark
415,2451-2454,biti,_,_,_,_,_,417,AUX,Va-r3d-n,cop
416,2455-2461,lizing,_,_,_,_,_,413,NOUN,Ncmsn,acl
417,2462-2473,nepremičnina,_,_,_,_,_,417,NOUN,Ncfpg,nmod
418,2474-2476,in,_,_,_,_,_,420,CCONJ,Cc,cc
419,2477-2486,faktoring,_,_,_,_,_,417,NOUN,Ncmsn,conj
420,2487-2488,",",_,_,_,_,_,417,PUNCT,Z,punct
421,2489-2500,prenovljen,_,_,_,_,_,423,ADJ,Appfsn,amod
422,2501-2511,strategija,_,_,_,_,_,424,NOUN,Ncfsn,nsubj
423,2512-2522,predvidevati,_,_,_,_,_,417,VERB,Vmpr3s,conj
424,2523-2530,dodaten,_,_,_,_,_,426,ADJ,Agpnsa,amod
425,2531-2546,dezinvestiranje,_,_,_,_,_,424,NOUN,Ncnsa,obj
426,2547-2556,nekateri,_,_,_,_,_,429,DET,Pi-fpg,det
427,2557-2568,kapitalski,_,_,_,_,_,429,ADJ,Agpfpg,amod
428,2569-2575,naložba,_,_,_,_,_,426,NOUN,Ncfpg,nmod
