idx,chars_idx,token,entity_type,sentiment,idk_1,idk_2,orig_sentiment,heads,upos,xpos,deprel
0,0-7,Telekom,ORG,_,*->4-1,*[4],_,2,PROPN,Npmsn,nsubj
1,8-15,doseči,_,_,_,_,_,0,VERB,Vmep-sm,root
2,16-19,100,_,_,_,_,_,4,NUM,Mdc,nummod
3,20-25,evro,_,_,_,_,_,2,NOUN,Ncmpg,obj
4,26-27,",",_,_,_,_,_,17,PUNCT,Z,punct
5,28-38,prebujenje,_,_,_,_,_,17,NOUN,Ncnsa,obj
6,39-46,krkin,ORG,_,*->3-1,*[3],_,8,ADJ,Aspfpg,amod
7,47-53,delnica,_,_,_,_,_,6,NOUN,Ncfpg,nmod
8,54-65,ljubljanski,ORG[1],0,*->11-1,*[11],3 - Nevtralno[15],22,ADJ,Agpfsn,amod
9,66-71,borz,ORG[1],0,*->11-1,*[11],3 - Nevtralno[15],17,NOUN,Ncfsn,nsubj
10,72-74,biti,_,_,_,_,_,17,AUX,Va-r3s-n,aux
11,75-81,zaradi,_,_,_,_,_,14,ADP,Sg,case
12,82-92,razgret,_,_,_,_,_,14,ADJ,Appnsg,amod
13,93-102,dogajanje,_,_,_,_,_,17,NOUN,Ncnsg,obl
14,103-104,v,_,_,_,_,_,16,ADP,Sl,case
15,105-112,Gorenj,ORG,_,*->1-1,*[1],_,14,PROPN,Npnsl,nmod
16,113-123,zaustaviti,_,_,_,_,_,2,VERB,Vmep-sf,parataxis
17,124-133,trgovanje,_,_,_,_,_,17,NOUN,Ncnsa,obj
18,134-135,z,_,_,_,_,_,20,ADP,Si,case
19,136-145,delnica,_,_,_,_,_,18,NOUN,Ncfpi,nmod
20,146-157,velenjski,_,_,*->1-2,*[1],_,22,ADJ,Agpmsg,amod
21,158-167,izvoznik,_,_,*->1-2,*[1],_,20,NOUN,Ncmsg,nmod
22,168-169,.,_,_,_,_,_,26,PUNCT,Z,punct
23,170-176,uprava,_,_,_,_,_,26,NOUN,Ncfsn,nsubj
24,177-179,biti,_,_,_,_,_,26,AUX,Va-r3s-n,aux
25,180-187,prejeti,_,_,_,_,_,17,VERB,Vmep-sf,parataxis
26,188-198,neprijeten,_,_,_,_,_,28,ADJ,Agpnsa,amod
27,199-204,pismo,_,_,_,_,_,26,NOUN,Ncnsa,obj
28,205-206,",",_,_,_,_,_,30,PUNCT,Z,punct
29,207-213,mogoč,_,_,_,_,_,26,ADJ,Agpnsn,parataxis
30,214-216,biti,_,_,_,_,_,30,AUX,Va-r3s-n,cop
31,217-218,",",_,_,_,_,_,37,PUNCT,Z,punct
32,219-221,da,_,_,_,_,_,37,SCONJ,Cs,mark
33,222-238,dokapitalizacija,_,_,_,_,_,37,NOUN,Ncfsn,nsubj
34,239-241,ne,_,_,_,_,_,37,PART,Q,advmod
35,242-244,biti,_,_,_,_,_,37,AUX,Va-f3s-n,aux
36,245-251,uspeti,_,_,_,_,_,30,VERB,Vmep-sf,csubj
37,252-253,.,_,_,_,_,_,30,PUNCT,Z,punct
38,254-260,Philip,PER[2],_,*->2-1,*[2],_,37,PROPN,Npmsn,nsubj
39,261-268,Sluiter,PER[2],_,*->2-1,*[2],_,39,PROPN,Npmsn,flat:name
40,269-270,",",_,_,_,_,_,43,PUNCT,Z,punct
41,271-279,nekdanji,_,_,*->2-2,*[2],_,43,ADJ,Agpmsny,amod
42,280-284,član,_,_,*->2-2,*[2],_,39,NOUN,Ncmsn,appos
43,285-291,uprava,_,_,*->2-2,*[2],_,43,NOUN,Ncfsg,nmod
44,292-299,gorenje,ORG,_,*->2-2|*->1-3,*[2]|*[1],_,44,PROPN,Npnsg,nmod
45,300-302,in,_,_,_,_,_,48,CCONJ,Cc,cc
46,303-310,predtem,_,_,_,_,_,48,ADV,Rgp,advmod
47,311-319,lastnik,_,_,*->2-3,*[2],_,44,NOUN,Ncmsg,conj
48,320-330,nizozemski,_,_,*->2-3,*[2],_,50,ADJ,Agpfsg,amod
49,331-337,družba,_,_,*->2-3,*[2],_,48,NOUN,Ncfsg,nmod
50,338-342,Atag,ORG,_,*->2-3|*->12-1,*[2]|*[12],_,57,PUNCT,Z,punct
51,343-345,ki,_,_,_,_,_,57,SCONJ,Cs,mark
52,346-348,on,_,0,*->12-2,*[12],3 - Nevtralno,57,PRON,Pp3fsa--y,obj
53,349-351,biti,_,_,_,_,_,57,AUX,Va-r3s-n,aux
54,352-356,pred,_,_,_,_,_,56,ADP,Si,case
55,357-364,kratek,_,_,_,_,_,57,ADJ,Agpnsi,obl
56,365-371,kupiti,_,_,_,_,_,50,VERB,Vmep-sn,acl
57,372-379,Gorenje,ORG,_,*->1-4,*[1],_,57,PROPN,Npnsn,nsubj
58,380-381,",",_,_,_,_,_,57,PUNCT,Z,punct
59,382-384,biti,_,_,_,_,_,63,AUX,Va-r3s-n,aux
60,385-386,v,_,_,_,_,_,62,ADP,Sl,case
61,387-392,pismo,_,_,_,_,_,63,NOUN,Ncnsl,obl
62,393-401,sporočiti,_,_,*->2-4,*[2],_,93,VERB,Vmep-sm,advcl
63,402-407,svoj,_,_,_,_,_,65,DET,Px-mpa,det
64,408-414,pogoj,_,_,_,_,_,63,NOUN,Ncmpa,obj
65,415-416,",",_,_,_,_,_,70,PUNCT,Z,punct
66,417-420,pod,_,_,_,_,_,68,ADP,Si,case
67,421-429,kateri,_,_,_,_,_,70,DET,Pq-mpi,obl
68,430-432,biti,_,_,_,_,_,70,AUX,Va-c,aux
69,433-442,sodelovati,_,_,*->2-5,*[2],_,65,VERB,Vmpp-sm,acl
70,443-446,pri,_,_,_,_,_,72,ADP,Sl,case
71,447-463,dokapitalizacija,_,_,_,_,_,70,NOUN,Ncfsl,obl
72,464-471,gorenje,ORG,_,*->1-5,*[1],_,72,PROPN,Npnsg,nmod
73,472-473,.,_,_,_,_,_,63,PUNCT,Z,punct
74,474-476,za,_,_,_,_,_,77,ADP,Sa,case
75,477-485,trenutno,_,_,_,_,_,77,ADJ,Agpfsa,amod
76,486-492,uprava,_,_,_,_,_,79,NOUN,Ncfsa,obl
77,493-495,biti,_,_,_,_,_,79,AUX,Va-r3s-n,aux
78,496-504,postaviti,_,_,*->2-6,*[2],_,2,VERB,Vmep-sm,parataxis
79,505-510,nekaj,_,_,_,_,_,82,DET,Rgp,det
80,511-522,neprijeten,_,_,_,_,_,82,ADJ,Agpmpg,amod
81,523-530,pogoj,_,_,_,_,_,79,NOUN,Ncmpg,obj
82,531-532,.,_,_,_,_,_,79,PUNCT,Z,punct
83,533-542,odločitev,_,_,_,_,_,79,NOUN,Ncfsn,nsubj
84,543-545,za,_,_,_,_,_,86,ADP,Sa,case
85,546-553,sprejem,_,_,_,_,_,84,NOUN,Ncmsan,nmod
86,554-556,oz,_,_,_,_,_,86,NOUN,Ncmsg,nmod
87,557-558,.,_,_,_,_,_,79,PUNCT,Z,punct
88,559-568,zavrnitev,_,_,_,_,_,93,NOUN,Ncfsn,nsubj
89,569-576,njegov,_,_,*->2-7,*[2],_,91,DET,Ps3fsgsm,det
90,577-584,ponudba,_,_,_,_,_,89,NOUN,Ncfsg,nmod
91,585-587,biti,_,_,_,_,_,93,AUX,Va-r3s-y,cop
92,588-597,enostaven,_,_,_,_,_,79,ADJ,Agpfsn,conj
93,598-599,",",_,_,_,_,_,93,PUNCT,Z,punct
94,600-603,saj,_,_,_,_,_,98,CCONJ,Cc,cc
95,604-609,vsak,_,_,_,_,_,97,DET,Pg-fsn,det
96,610-619,odločitev,_,_,_,_,_,98,NOUN,Ncfsn,nsubj
97,620-624,nositi,_,_,_,_,_,93,VERB,Vmpr3s,conj
98,625-634,posledica,_,_,_,_,_,98,NOUN,Ncfpa,obj
99,635-636,.,_,_,_,_,_,93,PUNCT,Z,punct
100,637-639,za,_,_,_,_,_,102,ADP,Sa,case
101,640-646,uprava,_,_,_,_,_,105,NOUN,Ncfsa,obl
102,647-649,ne,_,_,_,_,_,105,PART,Q,advmod
103,650-652,pa,_,_,_,_,_,103,CCONJ,Cc,fixed
104,653-658,nujen,_,_,_,_,_,98,ADJ,Agpnsn,conj
105,659-661,za,_,_,_,_,_,108,ADP,Sa,case
106,662-665,ves,_,_,_,_,_,108,DET,Pg-mpa,det
107,666-676,delničar,_,_,_,_,_,105,NOUN,Ncmpa,obl
108,677-679,biti,_,_,_,_,_,116,AUX,Va-c,aux
109,680-684,biti,_,_,_,_,_,112,AUX,Va-p-sf,cop
110,685-694,dober,_,_,_,_,_,112,ADJ,Agsfsn,amod
111,695-702,možnost,_,_,_,_,_,105,NOUN,Ncfsn,nsubj
112,703-704,",",_,_,_,_,_,116,PUNCT,Z,punct
113,705-707,da,_,_,_,_,_,116,SCONJ,Cs,mark
114,708-710,biti,_,_,_,_,_,116,AUX,Va-c,aux
115,711-719,poiskati,_,_,_,_,_,112,VERB,Vmep-pm,acl
116,720-726,princ,_,_,_,_,_,116,NOUN,Ncmsay,obj
117,727-729,na,_,_,_,_,_,120,ADP,Sl,case
118,730-735,bel,_,_,_,_,_,120,ADJ,Agpmsl,amod
119,736-741,konj,_,_,_,_,_,117,NOUN,Ncmsl,nmod
120,742-743,",",_,_,_,_,_,124,PUNCT,Z,punct
121,744-746,ki,_,_,_,_,_,124,SCONJ,Cs,mark
122,747-749,biti,_,_,_,_,_,124,AUX,Va-c,aux
123,750-757,vplačati,_,_,_,_,_,120,VERB,Vmep-sm,acl
124,758-766,sredstvo,_,_,_,_,_,124,NOUN,Ncnpa,obj
125,767-771,brez,_,_,_,_,_,128,ADP,Sg,case
126,772-778,preveč,_,_,_,_,_,128,DET,Rgp,det
127,779-787,vprašanje,_,_,_,_,_,125,NOUN,Ncnpg,nmod
128,788-789,.,_,_,_,_,_,116,PUNCT,Z,punct
129,790-795,glede,_,_,_,_,_,132,ADV,Rgp,advmod
130,796-798,na,_,_,_,_,_,132,ADP,Sa,case
131,799-801,ta,_,_,_,_,_,138,DET,Pd-nsa,nmod
132,802-803,",",_,_,_,_,_,142,PUNCT,Z,punct
133,804-806,da,_,_,_,_,_,142,SCONJ,Cs,mark
134,807-809,biti,_,_,_,_,_,142,AUX,Va-r3s-n,aux
135,810-811,g,_,_,_,_,_,142,NOUN,Ncmsn,nsubj
136,812-813,.,_,_,_,_,_,124,PUNCT,Z,punct
137,814-821,Sluiter,PER,_,*->2-8,*[2],_,139,PROPN,Npmsn,nmod
138,822-825,čas,_,_,_,_,_,142,NOUN,Ncmsan,obj
139,826-828,za,_,_,_,_,_,141,ADP,Sa,case
140,829-836,odgovor,_,_,_,_,_,139,NOUN,Ncmsan,nmod
141,837-843,omejiti,_,_,_,_,_,128,VERB,Vmep-sm,acl
142,844-846,do,_,_,_,_,_,144,ADP,Sg,case
143,847-852,danes,_,_,_,_,_,142,ADV,Rgp,advmod
144,853-855,do,_,_,_,_,_,146,ADP,Sg,case
145,856-858,16,_,_,_,_,_,142,NUM,Mdc,obl
146,859-860,.,_,_,_,_,_,138,PUNCT,Z,punct
147,861-864,ura,_,_,_,_,_,142,NOUN,Ncfsg,obl
148,865-866,",",_,_,_,_,_,142,PUNCT,Z,punct
149,867-870,imeti,_,_,_,_,_,142,VERB,Vmpr3s-n,conj
150,871-877,uprava,_,_,_,_,_,150,NOUN,Ncfsn,nsubj
151,878-886,verjetno,_,_,_,_,_,153,ADV,Rgp,advmod
152,887-892,poln,_,_,_,_,_,154,ADJ,Agpfsg,amod
153,893-897,roka,_,_,_,_,_,150,NOUN,Ncfpg,obj
154,898-902,delo,_,_,_,_,_,154,NOUN,Ncnsg,nmod
155,903-904,.,_,_,_,_,_,159,PUNCT,Z,punct
156,905-907,če,_,_,_,_,_,159,SCONJ,Cs,mark
157,908-910,biti,_,_,_,_,_,159,AUX,Va-f3s-n,aux
158,911-919,sprejeti,_,_,_,_,_,150,VERB,Vmep-sf,advcl
159,920-927,njegov,_,0,*->2-9,*[2],3 - Nevtralno,161,DET,Ps3fsasm,det
160,928-935,ponudba,_,_,_,_,_,159,NOUN,Ncfsa,obj
161,936-937,",",_,_,_,_,_,159,PUNCT,Z,punct
162,938-948,pričakovati,_,_,_,_,_,150,VERB,Vmpr1s,conj
163,949-950,v,_,_,_,_,_,165,ADP,Sa,case
164,951-956,torek,_,_,_,_,_,163,NOUN,Ncmsan,obl
165,957-966,pozitiven,_,_,_,_,_,167,ADJ,Agpfsa,amod
166,967-975,reakcija,_,_,_,_,_,163,NOUN,Ncfsa,obj
167,976-987,vlagatelj,_,_,_,_,_,167,NOUN,Ncmpg,nmod
168,988-990,na,_,_,_,_,_,170,ADP,Sl,case
169,991-996,borz,_,_,_,_,_,168,NOUN,Ncfsl,nmod
170,997-998,",",_,_,_,_,_,159,PUNCT,Z,punct
171,999-1001,biti,_,_,_,_,_,175,AUX,Va-r3s-n,aux
172,1002-1004,za,_,_,_,_,_,174,ADP,Sa,case
173,1005-1008,MMC,_,_,_,_,_,175,NOUN,Ncmsan,obl
174,1009-1016,povedati,_,_,_,_,_,163,VERB,Vmep-sm,advcl
175,1017-1022,Peter,PER[3],_,*->13-1,*[13],_,175,PROPN,Npmsn,nsubj
176,1023-1029,Jenčič,PER[3],_,*->13-1,*[13],_,176,PROPN,Npmsn,flat:name
177,1030-1031,",",_,_,_,_,_,179,PUNCT,Z,punct
178,1032-1043,upravljavec,_,0,*->13-2,*[13],3 - Nevtralno[16],176,NOUN,Ncmsn,appos
179,1044-1047,pri,_,0,*->13-2,*[13],3 - Nevtralno[16],182,ADP,Sl,case
180,1048-1052,Alta,ORG[4],0,*->13-2|*->14-1,*[13]|*[14],3 - Nevtralno[16]|3 - Nevtralno[17],182,PROPN,Npmsn,nmod
181,1053-1060,sklad,ORG[4],0,*->13-2|*->14-1,*[13]|*[14],3 - Nevtralno[16]|3 - Nevtralno[17],179,NOUN,Ncmpl,nmod
182,1061-1062,.,_,_,_,_,_,175,PUNCT,Z,punct
183,1063-1067,Krka,ORG,_,*->3-2,*[3],_,185,PROPN,Npfsn,nsubj
184,1068-1078,spremeniti,_,_,_,_,_,175,VERB,Vmep-sf,conj
185,1079-1083,smer,_,_,_,_,_,185,NOUN,Ncfsa,obj
186,1084-1085,",",_,_,_,_,_,185,PUNCT,Z,punct
187,1086-1093,Telekom,ORG,_,*->4-2,*[4],_,191,PROPN,Npmsn,nmod
188,1094-1098,spet,_,_,_,_,_,191,ADV,Rgp,advmod
189,1099-1102,pri,_,_,_,_,_,191,ADP,Sl,case
190,1103-1110,stotak,_,_,_,_,_,201,NOUN,Ncmsl,obl
191,1111-1112,v,_,_,_,_,_,194,ADP,Sl,case
192,1113-1120,tretji,_,_,_,_,_,194,ADJ,Mlomsl,amod
193,1121-1126,krog,_,_,_,_,_,191,NOUN,Ncmsl,nmod
194,1127-1135,jesenski,_,_,_,_,_,196,ADJ,Agpfsg,amod
195,1136-1152,dokapitalizacija,_,_,_,_,_,194,NOUN,Ncfsg,nmod
196,1153-1155,biti,_,_,_,_,_,200,AUX,Va-r3p-n,aux
197,1156-1157,v,_,_,_,_,_,199,ADP,Sl,case
198,1158-1165,Gorenj,ORG,_,*->1-6,*[1],_,201,PROPN,Npnsl,obl
199,1166-1176,nameravati,_,_,_,_,_,185,VERB,Vmpp-pm,conj
200,1177-1183,zbrati,_,_,_,_,_,200,VERB,Vmen,xcomp
201,1184-1190,skoraj,_,_,_,_,_,203,PART,Q,advmod
202,1191-1193,25,_,_,_,_,_,204,NUM,Mdc,nummod
203,1194-1203,milijon,_,_,_,_,_,201,NOUN,Ncmpg,obj
204,1204-1209,evro,_,_,_,_,_,204,NOUN,Ncmpg,nmod
205,1210-1217,svež,_,_,_,_,_,207,ADJ,Agpmsg,amod
206,1218-1226,kapital,_,_,_,_,_,205,NOUN,Ncmsg,nmod
207,1227-1229,za,_,_,_,_,_,210,ADP,Sa,case
208,1230-1235,lahek,_,_,_,_,_,210,ADJ,Agcnsa,amod
209,1236-1245,doseganje,_,_,_,_,_,207,NOUN,Ncnsa,nmod
210,1246-1256,strateški,_,_,_,_,_,212,ADJ,Agpmpg,amod
211,1257-1263,cilj,_,_,_,_,_,210,NOUN,Ncmpg,nmod
212,1264-1265,.,_,_,_,_,_,2,PUNCT,Z,punct
213,1266-1274,vrednost,_,_,_,_,_,245,NOUN,Ncfsn,nsubj
214,1275-1285,Gorenjev,ORG,_,*->1-7,*[1],_,216,ADJ,Aspfpg,amod
215,1286-1292,delnica,_,_,_,_,_,214,NOUN,Ncfpg,nmod
216,1293-1295,se,_,_,_,_,_,245,PRON,Px------y,expl
217,1296-1298,biti,_,_,_,_,_,245,AUX,Va-r3s-n,aux
218,1299-1301,do,_,_,_,_,_,220,ADP,Sg,case
219,1302-1310,trenutek,_,_,_,_,_,201,NOUN,Ncmsg,obl
220,1311-1312,",",_,_,_,_,_,225,PUNCT,Z,punct
221,1313-1315,ko,_,_,_,_,_,225,SCONJ,Cs,mark
222,1316-1318,biti,_,_,_,_,_,225,AUX,Va-r3s-n,aux
223,1319-1324,borz,_,_,_,_,_,225,NOUN,Ncfsn,nsubj
224,1325-1335,zaustaviti,_,_,_,_,_,220,VERB,Vmep-sf,acl
225,1336-1345,trgovanje,_,_,_,_,_,231,NOUN,Ncnsa,obj
226,1346-1347,z,_,_,_,_,_,228,ADP,Si,case
227,1348-1353,on,_,_,*->1-8,*[1],_,226,PRON,Pp3mpi,nmod
228,1354-1356,ta,_,_,_,_,_,231,DET,Pd-nsn,nsubj
229,1357-1359,biti,_,_,_,_,_,231,AUX,Va-r3s-n,aux
230,1360-1364,biti,_,_,_,_,_,225,VERB,Va-p-sn,conj
231,1365-1367,le,_,_,_,_,_,231,PART,Q,advmod
232,1368-1370,20,_,_,_,_,_,234,NUM,Mdc,nummod
233,1371-1376,minuta,_,_,_,_,_,231,NOUN,Ncfpg,obl
234,1377-1381,pred,_,_,_,_,_,236,ADP,Si,case
235,1382-1390,zaprtje,_,_,_,_,_,234,NOUN,Ncnsi,nmod
236,1391-1395,trg,_,_,_,_,_,236,NOUN,Ncmsg,nmod
237,1396-1397,",",_,_,_,_,_,231,PUNCT,Z,punct
238,1398-1400,ob,_,_,_,_,_,243,ADP,Sl,case
239,1401-1403,le,_,_,_,_,_,245,PART,Q,advmod
240,1404-1406,20,_,_,_,_,_,243,NUM,Mdc,nummod
241,1407-1412,tisoč,_,_,_,_,_,241,NUM,Mlc-pa,flat
242,1413-1418,evro,_,_,_,_,_,245,NOUN,Ncmpl,obl
243,1419-1426,promet,_,_,_,_,_,243,NOUN,Ncmsg,nmod
244,1427-1434,znižati,_,_,_,_,_,231,VERB,Vmep-sf,csubj
245,1435-1437,za,_,_,_,_,_,247,ADP,Sa,case
246,1438-1446,odstotek,_,_,_,_,_,245,NOUN,Ncmsan,obl
247,1447-1448,",",_,_,_,_,_,251,PUNCT,Z,punct
248,1449-1451,na,_,_,_,_,_,251,ADP,Sl,case
249,1452-1457,"12,85",_,_,_,_,_,251,NUM,Mdc,nummod
250,1458-1462,evro,_,_,_,_,_,247,NOUN,Ncmsg,appos
251,1463-1464,.,_,_,_,_,_,245,PUNCT,Z,punct
252,1465-1471,vseeno,_,_,_,_,_,261,ADV,Rgp,advmod
253,1472-1474,biti,_,_,_,_,_,261,AUX,Va-r3s-n,aux
254,1475-1483,delniški,_,_,_,_,_,256,ADJ,Agpmsny,amod
255,1484-1490,indeks,_,_,_,_,_,261,NOUN,Ncmsn,nsubj
256,1491-1494,SBI,_,_,_,_,_,256,PROPN,Npmsn,nmod
257,1495-1498,TOP,_,_,_,_,_,257,NOUN,Ncmsn,nmod
258,1499-1502,854,_,_,_,_,_,260,NUM,Mdc,nummod
259,1503-1507,točka,_,_,_,_,_,256,NOUN,Ncfpg,nmod
260,1508-1516,pridobiti,_,_,_,_,_,251,VERB,Vmep-sm,acl
261,1517-1520,dva,_,_,_,_,_,263,NUM,Mlcfda,nummod
262,1521-1529,tretjina,_,_,_,_,_,261,NOUN,Ncfda,obj
263,1530-1538,odstotek,_,_,_,_,_,263,NOUN,Ncmsg,nmod
264,1539-1540,",",_,_,_,_,_,271,PUNCT,Z,punct
265,1541-1546,potem,_,_,_,_,_,271,ADV,Rgp,mark
266,1547-1549,ko,_,_,_,_,_,266,SCONJ,Cs,fixed
267,1550-1552,biti,_,_,_,_,_,271,AUX,Va-r3p-n,aux
268,1553-1555,se,_,_,_,_,_,271,PRON,Px------y,expl
269,1556-1562,končno,_,_,_,_,_,271,ADV,Rgp,advmod
270,1563-1572,prebuditi,_,_,_,_,_,261,VERB,Vmep-pf,advcl
271,1573-1579,krkin,ORG,_,*->3-3,*[3],_,273,ADJ,Aspfpn,amod
272,1580-1587,delnica,_,_,_,_,_,271,NOUN,Ncfpn,nsubj
273,1588-1589,.,_,_,_,_,_,271,PUNCT,Z,punct
274,1590-1596,njihov,_,_,_,_,_,276,DET,Ps3msnp,det
275,1597-1602,tečaj,_,_,_,_,_,280,NOUN,Ncmsn,nsubj
276,1603-1605,biti,_,_,_,_,_,280,AUX,Va-r3s-n,aux
277,1606-1614,prejšnji,_,_,_,_,_,279,ADJ,Agpmsay,amod
278,1615-1620,teden,_,_,_,_,_,280,NOUN,Ncmsan,obl
279,1621-1626,pasti,_,_,_,_,_,261,VERB,Vmep-sm,parataxis
280,1627-1629,za,_,_,_,_,_,283,ADP,Sa,case
281,1630-1634,"2,68",_,_,_,_,_,283,NUM,Mdc,nummod
282,1635-1643,odstotek,_,_,_,_,_,280,NOUN,Ncmsg,obl
283,1644-1645,",",_,_,_,_,_,271,PUNCT,Z,punct
284,1646-1652,tokrat,_,_,_,_,_,291,ADV,Rgp,advmod
285,1653-1655,pa,_,_,_,_,_,291,CCONJ,Cc,advmod
286,1656-1658,biti,_,_,_,_,_,291,AUX,Va-r3s-n,aux
287,1659-1668,novomeški,_,_,*->3-4,*[3],_,289,ADJ,Agpmsny,amod
288,1669-1678,farmacevt,_,_,*->3-4,*[3],_,291,NOUN,Ncmsn,nsubj
289,1679-1684,hitro,_,_,_,_,_,291,ADV,Rgp,advmod
290,1685-1693,pridobiti,_,_,_,_,_,280,VERB,Vmep-sm,advcl
291,1694-1700,večina,_,_,_,_,_,291,NOUN,Ncfsa,obj
292,1701-1713,izgubljen,_,_,_,_,_,292,ADJ,Appmsg,amod
293,1714-1716,in,_,_,_,_,_,301,CCONJ,Cc,cc
294,1717-1719,se,_,_,_,_,_,301,PRON,Px------y,expl
295,1720-1722,ob,_,_,_,_,_,299,ADP,Sl,case
296,1723-1726,463,_,_,_,_,_,299,NUM,Mdc,nummod
297,1727-1732,tisoč,_,_,_,_,_,297,NUM,Mlc-pa,flat
298,1733-1738,evro,_,_,_,_,_,301,NOUN,Ncmpl,obl
299,1739-1746,promet,_,_,_,_,_,299,NOUN,Ncmsg,nmod
300,1747-1754,povzpeti,_,_,*->3-5,*[3],_,291,VERB,Vmep-sm,conj
301,1755-1757,do,_,_,_,_,_,304,ADP,Sg,case
302,1758-1762,"62,8",_,_,_,_,_,304,NUM,Mdc,nummod
303,1763-1767,evro,_,_,_,_,_,301,NOUN,Ncmsg,obl
304,1768-1769,.,_,_,_,_,_,291,PUNCT,Z,punct
305,1770-1777,Telekom,ORG,_,*->4-3,*[4],_,309,PROPN,Npmsn,nsubj
306,1778-1780,biti,_,_,_,_,_,309,AUX,Va-r3s-n,aux
307,1781-1785,spet,_,_,_,_,_,309,ADV,Rgp,advmod
308,1786-1793,doseči,_,_,_,_,_,291,VERB,Vmep-sm,conj
309,1794-1797,100,_,_,_,_,_,311,NUM,Mdc,nummod
310,1798-1803,evro,_,_,_,_,_,309,NOUN,Ncmpg,obj
311,1804-1805,",",_,_,_,_,_,315,PUNCT,Z,punct
312,1806-1809,več,_,_,_,_,_,315,DET,Rgc,advmod
313,1810-1813,kot,_,_,_,_,_,313,SCONJ,Cs,fixed
314,1814-1822,odstotek,_,_,_,_,_,311,NOUN,Ncmsan,appos
315,1823-1829,drag,_,_,_,_,_,315,ADJ,Agcfsg,amod
316,1830-1832,pa,_,_,_,_,_,324,CCONJ,Cc,advmod
317,1833-1835,biti,_,_,_,_,_,324,AUX,Va-r3p-n,aux
318,1836-1840,tudi,_,_,_,_,_,309,PART,Q,advmod
319,1841-1848,delnica,_,_,_,_,_,315,NOUN,Ncfpn,conj
320,1849-1853,nov,ORG[5],_,*->5-1,*[5],_,322,ADJ,Agpfsg,amod
321,1854-1857,KBM,ORG[5],_,*->5-1,*[5],_,320,PROPN,Npfsg,nmod
322,1858-1859,.,_,_,_,_,_,309,PUNCT,Z,punct
323,1860-1866,tečaj,_,_,_,_,_,309,NOUN,Ncmpn,nsubj
324,1867-1873,delnica,_,_,_,_,_,324,NOUN,Ncfpg,nmod
325,1874-1875,v,_,_,_,_,_,328,ADP,Sl,case
326,1876-1880,prvi,_,_,_,_,_,328,ADJ,Mlofsl,amod
327,1881-1889,kotacija,_,_,_,_,_,320,NOUN,Ncfsl,nmod
328,1890-1894,nov,ORG[6],0,*->5-2,*[5],3 - Nevtralno[18],330,ADJ,Agpfsn,amod
329,1895-1898,KBM,ORG[6],0,*->5-2,*[5],3 - Nevtralno[18],324,PROPN,Npfsg,nmod
330,1899-1900,+,_,_,_,_,_,333,PUNCT,Z,punct
331,1901-1905,"1,68",_,_,_,_,_,333,NUM,Mdc,nummod
332,1906-1907,%,_,_,_,_,_,324,NOUN,Ncmsn,nmod
333,1908-1913,"10,39",_,_,_,_,_,335,NUM,Mdc,nummod
334,1914-1917,eur,_,_,_,_,_,333,NOUN,Ncmsn,nmod
335,1918-1922,Krka,ORG,0,*->3-6,*[3],3 - Nevtralno,335,PROPN,Npfsn,nmod
336,1923-1924,+,_,_,_,_,_,335,NOUN,Ncmsn,nmod
337,1925-1929,"1,23",_,_,_,_,_,339,NUM,Mdc,nummod
338,1930-1931,%,_,_,_,_,_,324,NOUN,Ncmsn,nmod
339,1932-1937,"61,82",_,_,_,_,_,339,NUM,Mdc,nummod
340,1938-1945,Telekom,ORG,0,*->4-4,*[4],3 - Nevtralno,339,PROPN,Npmsn,nmod
341,1946-1947,+,_,_,_,_,_,341,NOUN,Ncmsn,nmod
342,1948-1952,"1,23",_,_,_,_,_,344,NUM,Mdc,nummod
343,1953-1954,%,_,_,_,_,_,339,NOUN,Ncmsn,nmod
344,1955-1960,"99,50",_,_,_,_,_,344,NUM,Mdc,nummod
345,1961-1965,LUKA,ORG,0,*->15-1,*[15],3 - Nevtralno,344,PROPN,Npmsn,nmod
346,1966-1967,+,_,_,_,_,_,344,NOUN,Ncmsn,nmod
347,1968-1972,"0,52",_,_,_,_,_,349,NUM,Mdc,nummod
348,1973-1974,%,_,_,_,_,_,346,NOUN,Ncmsn,appos
349,1975-1980,"18,29",_,_,_,_,_,349,NUM,Mdc,nummod
350,1981-1987,petrol,ORG,0,*->16-1,*[16],3 - Nevtralno,349,NOUN,Ncmsn,nmod
351,1988-1989,+,_,_,_,_,_,354,NOUN,Ncmsn,nmod
352,1990-1994,"0,37",_,_,_,_,_,354,NUM,Mdc,nummod
353,1995-1996,%,_,_,_,_,_,349,NOUN,Ncmsn,nmod
354,1997-2003,"271,02",_,_,_,_,_,354,NUM,Mdc,nummod
355,2004-2012,Mercator,ORG,0,*->17-1,*[17],3 - Nevtralno,354,PROPN,Npmsn,nmod
356,2013-2014,+,_,_,_,_,_,354,NOUN,Ncmsn,nmod
357,2015-2019,"0,17",_,_,_,_,_,359,NUM,Mdc,nummod
358,2020-2021,%,_,_,_,_,_,354,NOUN,Ncmsn,nmod
359,2022-2028,"155,37",_,_,_,_,_,359,NUM,Mdc,nummod
360,2029-2040,intereurop,ORG,0,*->18-1,*[18],3 - Nevtralno,359,NOUN,Ncmsn,nmod
361,2041-2042,-,_,_,_,_,_,363,PUNCT,Z,punct
362,2043-2047,"0,61",_,_,_,_,_,364,NUM,Mdc,nummod
363,2048-2049,%,_,_,_,_,_,359,NOUN,Ncmsn,nmod
364,2050-2054,"3,95",_,_,_,_,_,366,NUM,Mdc,nummod
365,2055-2062,gorenje,ORG,0,*->1-9,*[1],3 - Nevtralno,364,NOUN,Ncnsn,nmod
366,2063-2064,-,_,_,_,_,_,369,PUNCT,Z,punct
367,2065-2069,"1,05",_,_,_,_,_,369,NUM,Mdc,nummod
368,2070-2071,%,_,_,_,_,_,364,NOUN,Ncmsn,nmod
369,2072-2077,"12,85",_,_,_,_,_,369,NUM,Mdc,nummod
370,2078-2081,Man,ORG,_,*->6-1,*[6],_,370,NOUN,Ncmsn,nmod
371,2082-2087,tarča,_,_,_,_,_,369,NOUN,Ncfsn,nmod
372,2088-2102,Volkswagnov,ORG,_,*->7-1,*[7],_,374,ADJ,Aspmsg,amod
373,2103-2111,prevzem,_,_,_,_,_,372,NOUN,Ncmsg,nmod
374,2112-2113,?,_,_,_,_,_,372,PUNCT,Z,punct
375,2114-2122,prejšnji,_,_,_,_,_,377,ADJ,Agpmsay,amod
376,2123-2128,teden,_,_,_,_,_,384,NOUN,Ncmsan,obl
377,2129-2131,biti,_,_,_,_,_,384,AUX,Va-r3s-n,aux
378,2132-2135,biti,_,_,_,_,_,384,AUX,Va-p-sm,cop
379,2136-2138,na,_,_,_,_,_,383,ADP,Sl,case
380,2139-2147,vodilen,_,_,_,_,_,383,ADJ,Agpfpl,amod
381,2148-2156,zahoden,_,_,_,_,_,383,ADJ,Agpfpl,amod
382,2157-2163,borza,_,_,_,_,_,384,NOUN,Ncfpl,obl
383,2164-2173,negativen,_,_,_,_,_,2,ADJ,Agpmsnn,parataxis
384,2174-2175,",",_,_,_,_,_,384,PUNCT,Z,punct
385,2176-2185,newyorški,_,_,_,_,_,387,ADJ,Agpmsny,amod
386,2186-2189,Dow,_,_,_,_,_,391,PROPN,Npmsn,nsubj
387,2190-2195,Jones,_,_,_,_,_,387,PROPN,Npmsn,flat:name
388,2196-2198,pa,_,_,_,_,_,391,CCONJ,Cc,advmod
389,2199-2201,biti,_,_,_,_,_,391,AUX,Va-r3s-n,aux
390,2202-2209,izgubiti,_,_,_,_,_,384,VERB,Vmep-sm,parataxis
391,2210-2213,"2,2",_,_,_,_,_,393,NUM,Mdc,nummod
392,2214-2222,odstotek,_,_,_,_,_,391,NOUN,Ncmsg,obj
393,2223-2224,.,_,_,_,_,_,391,PUNCT,Z,punct
394,2225-2230,kljub,_,_,_,_,_,397,ADP,Sd,case
395,2231-2235,ves,_,_,_,_,_,397,DET,Pg-npd,det
396,2236-2245,ugibanje,_,_,_,_,_,391,NOUN,Ncnpd,obl
397,2246-2247,",",_,_,_,_,_,399,PUNCT,Z,punct
398,2248-2254,kakšen,_,_,_,_,_,397,DET,Pq-fsn,acl
399,2255-2257,biti,_,_,_,_,_,399,AUX,Va-f3s-n,cop
400,2258-2263,usoda,_,_,_,_,_,399,NOUN,Ncfsn,nsubj
401,2264-2271,irski,_,_,_,_,_,403,ADJ,Agpnsg,amod
402,2272-2284,gospodarstvo,_,_,_,_,_,401,NOUN,Ncnsg,nmod
403,2285-2286,",",_,_,_,_,_,399,PUNCT,Z,punct
404,2287-2289,se,_,_,_,_,_,410,PRON,Px------y,expl
405,2290-2292,biti,_,_,_,_,_,410,AUX,Va-r3s-n,aux
406,2293-2294,v,_,_,_,_,_,408,ADP,Sa,case
407,2295-2305,ponedeljek,_,_,_,_,_,410,NOUN,Ncmsan,obl
408,2306-2310,spet,_,_,_,_,_,410,ADV,Rgp,advmod
409,2311-2317,vrniti,_,_,_,_,_,2,VERB,Vmep-sf,parataxis
410,2318-2324,zelen,_,_,_,_,_,412,ADJ,Agpfsn,amod
411,2325-2330,barva,_,_,_,_,_,410,NOUN,Ncfsn,nsubj
412,2331-2332,",",_,_,_,_,_,415,PUNCT,Z,punct
413,2333-2335,ki,_,_,_,_,_,415,SCONJ,Cs,mark
414,2336-2344,označevati,_,_,_,_,_,412,VERB,Vmpr3s,acl
415,2345-2349,rast,_,_,_,_,_,415,NOUN,Ncfsa,obj
416,2350-2351,.,_,_,_,_,_,410,PUNCT,Z,punct
417,2352-2359,zasluga,_,_,_,_,_,421,NOUN,Ncfsg,obj
418,2360-2362,za,_,_,_,_,_,420,ADP,Sa,case
419,2363-2365,ta,_,_,_,_,_,421,DET,Pd-nsa,obl
420,2366-2369,imeti,_,_,_,_,_,410,VERB,Vmpr3s-n,advcl
421,2370-2374,tudi,_,_,_,_,_,421,PART,Q,advmod
422,2375-2381,novica,_,_,_,_,_,421,NOUN,Ncfsn,nsubj
423,2382-2383,o,_,_,_,_,_,426,ADP,Sl,case
424,2384-2389,močen,_,_,_,_,_,426,ADJ,Agpfsl,amod
425,2390-2395,rast,_,_,_,_,_,423,NOUN,Ncfsl,nmod
426,2396-2409,septembrski,_,_,_,_,_,428,ADJ,Agpmsg,amod
427,2410-2416,izvoz,_,_,_,_,_,426,NOUN,Ncmsg,nmod
428,2417-2418,v,_,_,_,_,_,430,ADP,Sl,case
429,2419-2430,evrooomočje,_,_,_,_,_,428,NOUN,Ncnsl,nmod
430,2431-2432,.,_,_,_,_,_,421,PUNCT,Z,punct
431,2433-2445,frankfurtski,_,_,_,_,_,433,ADJ,Agpmsny,amod
432,2446-2449,DAX,_,_,_,_,_,438,PROPN,Npmsn,nsubj
433,2450-2452,30,_,_,_,_,_,436,NUM,Mdc,nummod
434,2453-2458,6.775,_,_,_,_,_,436,NUM,Mdc,nummod
435,2459-2463,točka,_,_,_,_,_,433,NOUN,Ncfpg,nmod
436,2464-2466,biti,_,_,_,_,_,438,AUX,Va-r3s-n,aux
437,2467-2470,biti,_,_,_,_,_,2,VERB,Va-p-sm,parataxis
438,2471-2475,tako,_,_,_,_,_,441,ADV,Rgp,advmod
439,2476-2478,ob,_,_,_,_,_,441,ADP,Sl,case
440,2479-2481,14,_,_,_,_,_,443,NUM,Mdc,nummod
441,2482-2483,.,_,_,_,_,_,438,PUNCT,Z,punct
442,2484-2487,ura,_,_,_,_,_,438,NOUN,Ncfsl,obl
443,2488-2490,za,_,_,_,_,_,448,ADP,Sa,case
444,2491-2494,več,_,_,_,_,_,448,DET,Rgc,advmod
445,2495-2498,kot,_,_,_,_,_,445,SCONJ,Cs,fixed
446,2499-2502,pol,_,_,_,_,_,448,DET,Rgp,det
447,2503-2511,odstotek,_,_,_,_,_,438,NOUN,Ncmsg,obl
448,2512-2513,v,_,_,_,_,_,450,ADP,Sl,case
449,2514-2519,plus,_,_,_,_,_,448,NOUN,Ncmsl,nmod
450,2520-2521,.,_,_,_,_,_,438,PUNCT,Z,punct
451,2522-2528,nemški,_,_,_,_,_,453,ADJ,Agpmsny,amod
452,2529-2541,proizvajalec,_,_,_,_,_,470,NOUN,Ncmsn,nsubj
453,2542-2553,tovornjak,_,_,_,_,_,453,NOUN,Ncmpg,nmod
454,2554-2557,Man,ORG,_,*->6-2,*[6],_,454,NOUN,Ncmsn,nmod
455,2558-2561,naj,_,_,_,_,_,459,PART,Q,advmod
456,2562-2564,biti,_,_,_,_,_,470,AUX,Va-c,aux
457,2565-2568,biti,_,_,_,_,_,470,AUX,Va-p-sm,aux
458,2569-2574,tarča,_,_,_,_,_,2,NOUN,Ncfsn,parataxis
459,2575-2589,Volkswagnov,ORG,0,*->7-2,*[7],3 - Nevtralno,461,ADJ,Aspmsg,amod
460,2590-2598,prevzem,_,_,_,_,_,423,NOUN,Ncmsg,nmod
461,2599-2603,prek,_,_,_,_,_,464,ADP,Sg,case
462,2604-2613,hčerinski,_,0,*->19-1,*[19],3 - Nevtralno[19],464,ADJ,Agpfsg,amod
463,2614-2620,družba,_,0,*->19-1,*[19],3 - Nevtralno[19],461,NOUN,Ncfsg,nmod
464,2621-2627,Scania,ORG,0,*->19-1,*[19],3 - Nevtralno[19],464,PROPN,Npmsn,nmod
465,2628-2629,.,_,_,_,_,_,438,PUNCT,Z,punct
466,2630-2636,Manov,ORG,0,*->6-3,*[6],3 - Nevtralno,468,ADJ,Agpfpn,amod
467,2637-2644,delnica,_,_,_,_,_,470,NOUN,Ncfpn,nsubj
468,2645-2647,biti,_,_,_,_,_,470,AUX,Va-r3p-n,aux
469,2648-2657,poskočiti,_,_,_,_,_,459,VERB,Vmep-pf,root
470,2658-2660,za,_,_,_,_,_,473,ADP,Sa,case
471,2661-2666,sedem,_,_,_,_,_,473,NUM,Mlc-pa,nummod
472,2667-2676,odstotek,_,_,_,_,_,470,NOUN,Ncmpg,obl
473,2677-2678,.,_,_,_,_,_,470,PUNCT,Z,punct
474,2679-2685,zaradi,_,_,_,_,_,477,ADP,Sg,case
475,2686-2693,drag,_,_,_,_,_,477,ADJ,Agcfpg,amod
476,2694-2701,surovina,_,_,_,_,_,481,NOUN,Ncfpg,obl
477,2702-2704,biti,_,_,_,_,_,481,AUX,Va-r3p-n,aux
478,2705-2707,po,_,_,_,_,_,480,ADP,Sl,case
479,2708-2714,Evropa,LOC,0,*->20-1,*[20],3 - Nevtralno,481,PROPN,Npfsl,obl
480,2715-2726,pridobivati,_,_,_,_,_,470,VERB,Vmpp-pf,advcl
481,2727-2731,tudi,_,_,_,_,_,481,PART,Q,advmod
482,2732-2739,delnica,_,_,_,_,_,481,NOUN,Ncfpn,nsubj
483,2740-2749,rudarski,_,_,_,_,_,485,ADJ,Agpnpg,amod
484,2750-2758,podjetje,_,_,_,_,_,483,NOUN,Ncnpg,nmod
485,2759-2760,",",_,_,_,_,_,504,PUNCT,Z,punct
486,2761-2767,medtem,_,_,_,_,_,504,ADV,Rgp,mark
487,2768-2770,ko,_,_,_,_,_,487,SCONJ,Cs,fixed
488,2771-2773,biti,_,_,_,_,_,504,AUX,Va-r3p-n,aux
489,2774-2778,biti,_,_,_,_,_,504,AUX,Va-p-pf,aux
490,2779-2784,irski,_,_,_,_,_,492,ADJ,Agpfpn,amod
491,2785-2790,banka,_,_,_,_,_,504,NOUN,Ncfpn,nsubj
492,2791-2795,spet,_,_,_,_,_,481,ADV,Rgp,advmod
493,2796-2798,na,_,_,_,_,_,495,ADP,Sl,case
494,2799-2802,dno,_,_,_,_,_,481,NOUN,Ncnsl,obl
495,2803-2812,tečajnica,_,_,_,_,_,495,NOUN,Ncfsg,nmod
496,2813-2814,.,_,_,_,_,_,481,PUNCT,Z,punct
497,2815-2822,delnica,_,_,_,_,_,504,NOUN,Ncfpn,nsubj
498,2823-2828,banka,_,0,*->21-1,*[21],3 - Nevtralno[20],498,NOUN,Ncfsg,nmod
499,2829-2833,Bank,ORG[7],0,*->21-1,*[21],3 - Nevtralno[20],499,PROPN,Npfpg,nmod
500,2834-2836,of,ORG[7],0,*->21-1,*[21],3 - Nevtralno[20],502,X,Xf,cc
501,2837-2844,Ireland,ORG[7],0,*->21-1,*[21],3 - Nevtralno[20],500,PROPN,Npmsn,conj
502,2845-2847,biti,_,_,_,_,_,504,AUX,Va-r3p-n,aux
503,2848-2853,pasti,_,_,_,_,_,481,VERB,Vmep-pf,advcl
504,2854-2856,za,_,_,_,_,_,509,ADP,Sa,case
505,2857-2860,več,_,_,_,_,_,509,DET,Rgc,advmod
506,2861-2864,kot,_,_,_,_,_,506,SCONJ,Cs,fixed
507,2865-2870,štirje,_,_,_,_,_,509,NUM,Mlcmpa,nummod
508,2871-2879,odstotek,_,_,_,_,_,504,NOUN,Ncmpa,obl
509,2880-2881,.,_,_,_,_,_,504,PUNCT,Z,punct
510,2882-2887,Irska,ORG,_,*->9-1,*[9],_,509,PROPN,Npfsn,nmod
511,2888-2891,naj,_,_,_,_,_,514,PART,Q,advmod
512,2892-2894,biti,_,_,_,_,_,514,AUX,Va-c,aux
513,2895-2904,zaprositi,_,_,_,_,_,504,VERB,Vmep-sf,advcl
514,2905-2907,za,_,_,_,_,_,516,ADP,Sa,case
515,2908-2913,pomoč,_,_,_,_,_,514,NOUN,Ncfsa,obl
516,2914-2916,iz,_,_,_,_,_,518,ADP,Sg,case
517,2917-2923,krog,_,_,_,_,_,516,NOUN,Ncmpg,nmod
518,2924-2932,evropski,ORG[8],_,*->8-1,*[8],_,520,ADJ,Agpfsg,amod
519,2933-2938,unija,ORG[8],_,*->8-1,*[8],_,518,NOUN,Ncfsg,nmod
520,2939-2941,biti,_,_,_,_,_,514,VERB,Va-r3s-n,conj
521,2942-2949,slišati,_,_,_,_,_,521,VERB,Vmbn,csubj
522,2950-2951,",",_,_,_,_,_,529,PUNCT,Z,punct
523,2952-2954,da,_,_,_,_,_,529,SCONJ,Cs,mark
524,2955-2958,naj,_,_,_,_,_,529,PART,Q,advmod
525,2959-2961,biti,_,_,_,_,_,529,AUX,Va-c,aux
526,2962-2964,se,_,_,_,_,_,529,PRON,Px------y,expl
527,2965-2970,kmalu,_,_,_,_,_,529,ADV,Rgp,advmod
528,2971-2977,začeti,_,_,_,_,_,522,VERB,Vmep-pm,ccomp
529,2978-2986,pogovor,_,_,_,_,_,529,NOUN,Ncmpn,nsubj
530,2987-2988,o,_,_,_,_,_,533,ADP,Sl,case
531,2989-2996,denaren,_,_,_,_,_,533,ADJ,Agpfsl,amod
532,2997-3003,pomoč,_,_,_,_,_,530,NOUN,Ncfsl,nmod
533,3004-3009,Irska,ORG,_,*->9-2,*[9],_,533,PROPN,Npmsn,nmod
534,3010-3011,",",_,_,_,_,_,529,PUNCT,Z,punct
535,3012-3018,medtem,_,_,_,_,_,542,ADV,Rgp,advmod
536,3019-3021,pa,_,_,_,_,_,542,CCONJ,Cc,advmod
537,3022-3024,biti,_,_,_,_,_,542,AUX,Va-r3s-n,aux
538,3025-3029,tudi,_,_,_,_,_,542,PART,Q,advmod
539,3030-3035,Irish,ORG[9],0,*->22-1,*[22],3 - Nevtralno[21],542,PROPN,Npmsn,nsubj
540,3036-3047,Independent,ORG[9],0,*->22-1,*[22],3 - Nevtralno[21],540,PROPN,Npmsn,nmod
541,3048-3055,objaviti,_,_,_,_,_,529,VERB,Vmep-sm,advcl
542,3056-3062,novica,_,_,_,_,_,542,NOUN,Ncfsa,obj
543,3063-3064,",",_,_,_,_,_,546,PUNCT,Z,punct
544,3065-3067,da,_,_,_,_,_,546,SCONJ,Cs,mark
545,3068-3074,utegniti,_,_,_,_,_,543,VERB,Vmbr3s,acl
546,3075-3080,irski,_,_,_,_,_,548,ADJ,Agpfsn,amod
547,3081-3086,vlada,_,_,_,_,_,546,NOUN,Ncfsn,nsubj
548,3087-3096,zaprositi,_,_,_,_,_,546,VERB,Vmen,xcomp
549,3097-3099,za,_,_,_,_,_,551,ADP,Sa,case
550,3100-3105,pomoč,_,_,_,_,_,549,NOUN,Ncfsa,obl
551,3106-3107,.,_,_,_,_,_,542,PUNCT,Z,punct
552,3108-3113,unija,ORG,0,*->8-2,*[8],3 - Nevtralno,554,NOUN,Ncfsn,nsubj
553,3114-3118,želeti,_,_,_,_,_,542,VERB,Vmpr3s,conj
554,3119-3120,",",_,_,_,_,_,560,PUNCT,Z,punct
555,3121-3123,da,_,_,_,_,_,560,SCONJ,Cs,mark
556,3124-3126,biti,_,_,_,_,_,560,AUX,Va-c,aux
557,3127-3133,Dublin,ORG,_,*->23-1,*[23],_,560,PROPN,Npmsn,nsubj
558,3134-3137,res,_,_,_,_,_,560,ADV,Rgp,advmod
559,3138-3145,sprejeti,_,_,_,_,_,554,VERB,Vmep-sm,ccomp
560,3146-3151,pomoč,_,_,_,_,_,560,NOUN,Ncfsa,obj
561,3152-3153,",",_,_,_,_,_,569,PUNCT,Z,punct
562,3154-3160,čeprav,_,_,_,_,_,569,SCONJ,Cs,mark
563,3161-3166,lahko,_,_,_,_,_,569,ADV,Rgp,advmod
564,3167-3169,do,_,_,_,_,_,566,ADP,Sg,case
565,3170-3177,sredina,_,_,_,_,_,569,NOUN,Ncfsg,obl
566,3178-3182,leto,_,_,_,_,_,569,NOUN,Ncnsg,obl
567,3183-3187,2011,_,_,_,_,_,567,NUM,Mdc,nummod
568,3188-3198,izpolnjevati,_,0,*->23-2,*[23],3 - Nevtralno,560,VERB,Vmpr3s,advcl
569,3199-3204,svoj,_,_,_,_,_,571,DET,Px-fpa,det
570,3205-3215,obveznost,_,_,_,_,_,569,NOUN,Ncfpa,obj
571,3216-3217,.,_,_,_,_,_,560,PUNCT,Z,punct
572,3218-3223,nihče,_,_,_,_,_,577,PRON,Pz-msn,nsubj
573,3224-3226,se,_,_,_,_,_,577,PRON,Px---d--y,expl
574,3227-3233,namreč,_,_,_,_,_,577,CCONJ,Cc,advmod
575,3234-3236,ne,_,_,_,_,_,577,PART,Q,advmod
576,3237-3241,želeti,_,_,_,_,_,2,VERB,Vmpr3s,parataxis
577,3242-3251,ponovitev,_,_,_,_,_,577,NOUN,Ncfsg,obj
578,3252-3259,grški,_,_,_,_,_,580,ADJ,Agpmsg,amod
579,3260-3269,scenarija,_,_,_,_,_,578,NOUN,Ncmsg,nmod
580,3270-3271,",",_,_,_,_,_,590,PUNCT,Z,punct
581,3272-3274,ko,_,_,_,_,_,590,SCONJ,Cs,mark
582,3275-3277,biti,_,_,_,_,_,590,AUX,Va-r3p-n,aux
583,3278-3289,proračunski,_,_,_,_,_,585,ADJ,Agpfpn,amod
584,3290-3296,težava,_,_,_,_,_,590,NOUN,Ncfpn,nsubj
585,3297-3300,en,_,_,_,_,_,587,NUM,Mlpfsg,nummod
586,3301-3307,država,_,_,_,_,_,585,NOUN,Ncfsg,nmod
587,3308-3311,ves,_,_,_,_,_,589,DET,Pg-nsa,det
588,3312-3323,evroobmočje,_,_,_,_,_,590,NOUN,Ncnsa,obj
589,3324-3331,pahniti,_,_,_,_,_,577,VERB,Vmep-pf,advcl
590,3332-3333,v,_,_,_,_,_,593,ADP,Sa,case
591,3334-3342,krediten,_,_,_,_,_,593,ADJ,Agpfsa,amod
592,3343-3348,kriza,_,_,_,_,_,590,NOUN,Ncfsa,obl
593,3349-3350,.,_,_,_,_,_,577,PUNCT,Z,punct
594,3351-3353,za,_,_,_,_,_,596,ADP,Sa,case
595,3354-3361,mirnost,_,_,_,_,_,602,NOUN,Ncfsa,obl
596,3362-3371,finančen,_,_,_,_,_,598,ADJ,Agpmpg,amod
597,3372-3377,trg,_,_,_,_,_,596,NOUN,Ncmpg,nmod
598,3378-3380,biti,_,_,_,_,_,600,AUX,Va-c,aux
599,3381-3387,morati,_,_,_,_,_,577,VERB,Vmpp-sf,advcl
600,3388-3393,Irska,ORG,2,*->9-3,*[9],2 - Negativno,600,PROPN,Npfsn,nsubj
601,3394-3401,prejeti,_,_,_,_,_,600,VERB,Vmen,xcomp
602,3402-3404,od,_,_,_,_,_,604,ADP,Sg,case
603,3405-3407,45,_,_,_,_,_,607,NUM,Mdc,nummod
604,3408-3410,do,_,_,_,_,_,606,ADP,Sg,case
605,3411-3413,90,_,_,_,_,_,604,NUM,Mdc,conj
606,3414-3422,milijarda,_,_,_,_,_,602,NOUN,Ncfpg,obl
607,3423-3428,evro,_,_,_,_,_,607,NOUN,Ncmpg,nmod
608,3429-3430,.,_,_,_,_,_,577,PUNCT,Z,punct
609,3431-3434,kar,_,_,_,_,_,613,ADV,Rgp,advmod
610,3435-3440,nekaj,_,_,_,_,_,613,DET,Rgp,det
611,3441-3450,evropski,_,_,_,_,_,613,ADJ,Agpfpg,amod
612,3451-3455,banka,_,_,_,_,_,624,NOUN,Ncfpg,nsubj
613,3456-3462,zlasti,_,_,_,_,_,624,PART,Q,advmod
614,3463-3468,Royal,ORG[10],0,*->24-1,*[24],3 - Nevtralno[22],616,PROPN,Npmsn,nmod
615,3469-3473,Bank,ORG[10],0,*->24-1,*[24],3 - Nevtralno[22],613,PROPN,Npfsn,nmod
616,3474-3476,of,ORG[10],0,*->24-1,*[24],3 - Nevtralno[22],618,X,Xf,nmod
617,3477-3485,Scotland,ORG[10],0,*->24-1,*[24],3 - Nevtralno[22],616,PROPN,Npmsn,nmod
618,3486-3488,in,_,_,_,_,_,621,CCONJ,Cc,cc
619,3489-3495,nemški,_,0,*->25-1,*[25],3 - Nevtralno[23],621,ADJ,Agpfsn,amod
620,3496-3500,Hypo,ORG,0,*->25-1,*[25],3 - Nevtralno[23],618,PROPN,Npfsn,conj
621,3501-3503,biti,_,_,_,_,_,624,AUX,Va-r3s-n,aux
622,3504-3508,zelo,_,_,_,_,_,624,ADV,Rgp,advmod
623,3509-3523,izpostavljen,_,_,_,_,_,602,ADJ,Appmpg,advcl
624,3524-3530,zaradi,_,_,_,_,_,627,ADP,Sg,case
625,3531-3538,irski,_,_,_,_,_,627,ADJ,Agpmsg,amod
626,3539-3544,dolg,_,_,_,_,_,624,ADJ,Agpnsg,obl
627,3545-3546,",",_,_,_,_,_,624,PUNCT,Z,punct
628,3547-3551,zato,_,_,_,_,_,632,CCONJ,Cc,cc
629,3552-3554,se,_,_,_,_,_,632,PRON,Px---d--y,expl
630,3555-3559,zelo,_,_,_,_,_,632,ADV,Rgp,advmod
631,3560-3571,prizadevati,_,_,_,_,_,624,VERB,Vmpr3p,conj
632,3572-3574,za,_,_,_,_,_,634,ADP,Sa,case
633,3575-3582,rešitev,_,_,_,_,_,632,NOUN,Ncfsa,obl
634,3583-3588,težava,_,_,_,_,_,634,NOUN,Ncfpg,nmod
635,3589-3590,.,_,_,_,_,_,624,PUNCT,Z,punct
636,3591-3599,finančen,_,_,_,_,_,638,ADJ,Agpfpa,amod
637,3600-3608,krivulja,_,_,_,_,_,635,NOUN,Ncfpa,conj
638,3609-3610,",",_,_,_,_,_,632,PUNCT,Z,punct
639,3611-3614,val,ORG[11],0,*->26-1,*[26],3 - Nevtralno[24],643,NOUN,Ncmsn,nmod
640,3615-3618,202,ORG[11],0,*->26-1,*[26],3 - Nevtralno[24],643,NUM,Mdc,nummod
641,3619-3625,velik,_,_,_,_,_,643,ADJ,Agpnsn,amod
642,3626-3633,število,_,_,_,_,_,634,NOUN,Ncnsa,conj
643,3634-3642,bikovsko,_,_,_,_,_,645,ADV,Rgp,advmod
644,3643-3653,naravnan,_,_,_,_,_,646,ADJ,Appmpg,amod
645,3654-3665,vlagatelj,_,_,_,_,_,643,NOUN,Ncmpg,nmod
646,3666-3668,biti,_,_,_,_,_,658,AUX,Va-r3s-n,aux
647,3669-3674,lahko,_,_,_,_,_,658,ADV,Rgp,advmod
648,3675-3683,svarilen,_,_,_,_,_,650,ADJ,Agpmsny,amod
649,3684-3688,znak,_,_,_,_,_,658,NOUN,Ncmsan,nsubj
650,3689-3701,republikanca,_,_,_,_,_,650,NOUN,Ncmpn,nmod
651,3702-3703,v,_,_,_,_,_,653,ADP,Sa,case
652,3704-3707,boj,_,_,_,_,_,650,NOUN,Ncmsan,nmod
653,3708-3709,z,_,_,_,_,_,655,ADP,Si,case
654,3710-3715,Fed,ORG,_,*->10-1,*[10],_,653,PROPN,Npmsi,nmod
655,3716-3721,dolar,_,_,_,_,_,655,NOUN,Ncmsn,flat:name
656,3722-3724,biti,_,_,_,_,_,658,AUX,Va-r3s-n,aux
657,3725-3732,doseči,_,_,_,_,_,642,VERB,Vmep-sm,parataxis
658,3733-3741,visok,_,_,_,_,_,660,ADJ,Agsfsa,amod
659,3742-3750,vrednost,_,_,_,_,_,658,NOUN,Ncfsa,obj
660,3751-3752,v,_,_,_,_,_,664,ADP,Sl,case
661,3753-3760,zadnji,_,_,_,_,_,664,ADJ,Agpmpl,amod
662,3761-3767,šest,_,_,_,_,_,664,NUM,Mlc-pl,nummod
663,3768-3774,teden,_,_,_,_,_,660,NOUN,Ncmpl,nmod
664,3775-3776,",",_,_,_,_,_,675,PUNCT,Z,punct
665,3777-3782,potem,_,_,_,_,_,675,ADV,Rgp,mark
666,3783-3785,ko,_,_,_,_,_,666,SCONJ,Cs,fixed
667,3786-3788,biti,_,_,_,_,_,675,AUX,Va-r3s-n,aux
668,3789-3794,donos,_,_,_,_,_,675,NOUN,Ncmsn,nsubj
669,3795-3803,ameriški,_,_,_,_,_,674,ADJ,Agpfsg,amod
670,3804-3806,10,_,_,_,_,_,674,NUM,Mdc,nummod
671,3807-3808,-,_,_,_,_,_,673,PUNCT,Z,punct
672,3809-3814,leten,_,_,_,_,_,671,ADJ,Agpfsg,conj
673,3815-3824,obveznica,_,_,_,_,_,669,NOUN,Ncfsg,nmod
674,3825-3832,doseči,_,_,_,_,_,664,VERB,Vmep-sm,acl
675,3833-3837,"2,84",_,_,_,_,_,677,NUM,Mdc,nummod
676,3838-3846,odstotek,_,_,_,_,_,675,NOUN,Ncmsg,obj
677,3847-3848,",",_,_,_,_,_,680,PUNCT,Z,punct
678,3849-3852,kar,_,_,_,_,_,680,PRON,Pr-nsn,nsubj
679,3853-3855,biti,_,_,_,_,_,677,VERB,Va-r3s-n,acl
680,3856-3862,največ,_,_,_,_,_,680,DET,Rgs,advmod
681,3863-3864,v,_,_,_,_,_,685,ADP,Sl,case
682,3865-3872,zadnji,_,_,_,_,_,685,ADJ,Agpmpl,amod
683,3873-3877,dva,_,_,_,_,_,685,NUM,Mlcmdl,nummod
684,3878-3885,mesec,_,_,_,_,_,680,NOUN,Ncmdl,obl
685,3886-3887,.,_,_,_,_,_,675,PUNCT,Z,punct
686,3888-3893,vzrok,_,_,_,_,_,680,NOUN,Ncmsn,nsubj
687,3894-3896,za,_,_,_,_,_,689,ADP,Sa,case
688,3897-3901,rast,_,_,_,_,_,687,NOUN,Ncfsa,nmod
689,3902-3904,biti,_,_,_,_,_,691,AUX,Va-r3s-n,cop
690,3905-3910,zapis,_,_,_,_,_,685,NOUN,Ncmsn,acl
691,3911-3912,v,_,_,_,_,_,695,ADP,Sl,case
692,3913-3917,Wall,ORG[12]|ORG[13],0,*->27-1|*->28-1,*[27]|*[28],3 - Nevtralno[25]|3 - Nevtralno[26],695,PROPN,Npmsn,nmod
693,3918-3924,Street,ORG[12]|ORG[13],0,*->27-1|*->28-1,*[27]|*[28],3 - Nevtralno[25]|3 - Nevtralno[26],695,PROPN,Npmsn,nmod
694,3925-3933,Journal,ORG[12],0,*->27-1,*[27],3 - Nevtralno[25],691,PROPN,Npmsl,nmod
695,3934-3935,",",_,_,_,_,_,703,PUNCT,Z,punct
696,3936-3938,da,_,_,_,_,_,703,SCONJ,Cs,mark
697,3939-3946,skupina,_,_,_,_,_,703,NOUN,Ncfsn,nsubj
698,3947-3958,ekonomist,_,_,_,_,_,698,NOUN,Ncmpg,nmod
699,3959-3962,pod,_,_,_,_,_,701,ADP,Si,case
700,3963-3971,taktirka,_,_,_,_,_,703,NOUN,Ncfsi,obl
701,3972-3985,republikanec,_,_,_,_,_,701,NOUN,Ncmpg,nmod
702,3986-3994,načrtovati,_,_,_,_,_,695,VERB,Vmpr3s,acl
703,3995-4003,kampanja,_,_,_,_,_,703,NOUN,Ncfsa,obj
704,4004-4005,",",_,_,_,_,_,711,PUNCT,Z,punct
705,4006-4007,z,_,_,_,_,_,707,ADP,Si,case
706,4008-4014,kateri,_,_,_,_,_,711,DET,Pq-fsi,obl
707,4015-4017,biti,_,_,_,_,_,711,AUX,Va-c,aux
708,4018-4024,zvezen,_,_,_,_,_,710,ADJ,Agpfpa,amod
709,4025-4032,rezerva,_,_,_,_,_,711,NOUN,Ncfpa,obj
710,4033-4041,odvrniti,_,_,_,_,_,704,VERB,Vmep-pm,acl
711,4042-4044,od,_,_,_,_,_,713,ADP,Sg,case
712,4045-4057,načrtovan,_,_,_,_,_,714,ADJ,Appmsg,amod
713,4058-4059,2,_,_,_,_,_,711,NUM,Mdc,obl
714,4060-4061,.,_,_,_,_,_,703,PUNCT,Z,punct
715,4062-4067,krog,_,_,_,_,_,704,NOUN,Ncmsg,conj
716,4068-4075,odkup,_,_,_,_,_,716,NOUN,Ncmpg,nmod
717,4076-4084,državen,_,_,_,_,_,719,ADJ,Agpfpg,amod
718,4085-4093,obveznica,_,_,_,_,_,717,NOUN,Ncfpg,nmod
719,4094-4095,",",_,_,_,_,_,725,PUNCT,Z,punct
720,4096-4098,za,_,_,_,_,_,722,ADP,Sa,case
721,4099-4102,kar,_,_,_,_,_,725,PRON,Pr-nsa,obl
722,4103-4105,biti,_,_,_,_,_,725,AUX,Va-c,aux
723,4106-4109,Fed,ORG,0,*->10-2,*[10],3 - Nevtralno,725,PROPN,Npmsn,iobj
724,4110-4116,odštiti,_,_,_,_,_,719,VERB,Vmep-sm,acl
725,4117-4120,600,_,_,_,_,_,727,NUM,Mdc,nummod
726,4121-4129,milijarda,_,_,_,_,_,725,NOUN,Ncfpg,obj
727,4130-4138,dolar,_,_,_,_,_,727,NOUN,Ncmpg,nmod
728,4139-4140,.,_,_,_,_,_,725,PUNCT,Z,punct
729,4141-4143,za,_,_,_,_,_,731,ADP,Sa,case
730,4144-4148,evro,_,_,_,_,_,734,NOUN,Ncmsan,obl
731,4149-4151,biti,_,_,_,_,_,725,VERB,Va-r3s-n,advcl
732,4152-4157,treba,_,_,_,_,_,732,ADV,Rgp,advmod
733,4158-4165,plačati,_,_,_,_,_,732,VERB,Vmen,csubj
734,4166-4172,dober,_,_,_,_,_,737,ADJ,Agpmpg,amod
735,4173-4177,"1,36",_,_,_,_,_,737,NUM,Mdc,nummod
736,4178-4185,dolar,_,_,_,_,_,734,NOUN,Ncmsg,obj
737,4186-4187,.,_,_,_,_,_,732,PUNCT,Z,punct
738,4188-4192,cena,_,_,_,_,_,763,NOUN,Ncfsn,nsubj
739,4193-4198,lahek,_,_,_,_,_,741,ADJ,Agpfsg,amod
740,4199-4204,nafta,_,_,_,_,_,739,NOUN,Ncfsg,nmod
741,4205-4207,se,_,_,_,_,_,763,PRON,Px------y,expl
742,4208-4210,biti,_,_,_,_,_,763,AUX,Va-r3s-n,aux
743,4211-4213,po,_,_,_,_,_,747,ADP,Sl,case
744,4214-4222,občuten,_,_,_,_,_,747,ADJ,Agpmpl,amod
745,4223-4231,petkov,_,_,_,_,_,747,ADJ,Aspmpl,amod
746,4232-4238,padec,_,_,_,_,_,763,NOUN,Ncmpl,obl
747,4239-4240,",",_,_,_,_,_,756,PUNCT,Z,punct
748,4241-4243,ko,_,_,_,_,_,756,SCONJ,Cs,mark
749,4244-4246,se,_,_,_,_,_,756,PRON,Px------y,expl
750,4247-4249,biti,_,_,_,_,_,756,AUX,Va-r3s-n,aux
751,4250-4252,za,_,_,_,_,_,755,ADP,Sa,case
752,4253-4259,skoraj,_,_,_,_,_,754,PART,Q,advmod
753,4260-4263,trije,_,_,_,_,_,755,NUM,Mlcmpa,nummod
754,4264-4271,dolar,_,_,_,_,_,756,NOUN,Ncmpa,obl
755,4272-4281,odmakniti,_,_,_,_,_,747,VERB,Vmep-sf,acl
756,4282-4284,od,_,_,_,_,_,761,ADP,Sg,case
757,4285-4287,25,_,_,_,_,_,760,NUM,Mdc,nummod
758,4288-4289,-,_,_,_,_,_,760,PUNCT,Z,punct
759,4290-4299,mesečen,_,_,_,_,_,761,ADJ,Agpmsg,amod
760,4300-4304,vrh,_,_,_,_,_,756,NOUN,Ncmsg,obl
761,4305-4306,",",_,_,_,_,_,756,PUNCT,Z,punct
762,4307-4314,pobrati,_,_,_,_,_,732,VERB,Vmep-sf,csubj
763,4315-4317,in,_,_,_,_,_,766,CCONJ,Cc,cc
764,4318-4320,se,_,_,_,_,_,766,PRON,Px------y,expl
765,4321-4329,povzpeti,_,_,_,_,_,763,VERB,Vmep-sf,conj
766,4330-4333,nad,_,_,_,_,_,769,ADP,Si,case
767,4334-4338,"85,5",_,_,_,_,_,769,NUM,Mdc,nummod
768,4339-4346,dolar,_,_,_,_,_,766,NOUN,Ncmsg,obl
769,4347-4348,.,_,_,_,_,_,756,PUNCT,Z,punct
770,4349-4359,mednaroden,ORG[14],0,*->29-1,*[29],3 - Nevtralno[27],772,ADJ,Agpfsn,amod
771,4360-4368,agencija,ORG[14],0,*->29-1,*[29],3 - Nevtralno[27],776,NOUN,Ncfsn,nsubj
772,4369-4371,za,ORG[14],0,*->29-1,*[29],3 - Nevtralno[27],774,ADP,Sa,case
773,4372-4380,energija,ORG[14],0,*->29-1,*[29],3 - Nevtralno[27],772,NOUN,Ncfsa,nmod
774,4381-4383,biti,_,_,_,_,_,776,AUX,Va-r3s-n,aux
775,4384-4391,zvišati,_,_,_,_,_,763,VERB,Vmep-sf,conj
776,4392-4399,napoved,_,_,_,_,_,776,NOUN,Ncfsn,nsubj
777,4400-4402,za,_,_,_,_,_,779,ADP,Sa,case
778,4403-4407,rast,_,_,_,_,_,777,NOUN,Ncfsa,nmod
779,4408-4421,povpraševanje,_,_,_,_,_,779,NOUN,Ncnsg,nmod
780,4422-4424,po,_,_,_,_,_,782,ADP,Sl,case
781,4425-4430,nafta,_,_,_,_,_,780,NOUN,Ncfsl,nmod
