idx,chars_idx,token,entity_type,sentiment,idk_1,idk_2,orig_sentiment,heads,upos,xpos,deprel
0,0-10,zagotoviti,_,_,_,_,_,0,VERB,Vmep-sf,root
1,11-18,vodstvo,_,_,_,_,_,1,NOUN,Ncnsg,obj
2,19-23,Soda,ORG,_,*->9-1,*[9],_,2,PROPN,Npmsg,nmod
3,24-25,",",_,_,_,_,_,10,PUNCT,Z,punct
4,26-28,da,_,_,_,_,_,10,SCONJ,Cs,mark
5,29-33,biti,_,_,_,_,_,10,AUX,Va-f3p-n,aux
6,34-38,Muri,ORG,_,*->12-1,*[12],_,10,PROPN,Npfsn,nsubj
7,39-41,še,_,_,_,_,_,10,PART,Q,advmod
8,42-48,naprej,_,_,_,_,_,10,ADV,Rgp,advmod
9,49-54,stati,_,_,_,_,_,2,VERB,Vmpp-pm,acl
10,55-57,ob,_,_,_,_,_,12,ADP,Sl,case
11,58-64,stran,_,_,_,_,_,10,NOUN,Ncfsl,obl
12,65-66,",",_,_,_,_,_,10,PUNCT,Z,punct
13,67-69,biti,_,_,_,_,_,15,AUX,Va-r3p-n,cop
14,70-77,cinizem,_,_,_,_,_,1,NOUN,Ncmsn,nsubj
15,78-86,hud,_,_,_,_,_,17,ADJ,Agsfsg,amod
16,87-92,vrsta,_,_,_,_,_,15,NOUN,Ncfsg,nmod
17,93-94,",",_,_,_,_,_,20,PUNCT,Z,punct
18,95-100,pravi,_,_,_,_,_,20,ADJ,Agpmsny,amod
19,101-109,poslanec,_,_,*->11-1,*[11],_,15,NOUN,Ncmsn,conj
20,110-116,Žerjav,PER,_,*->11-1,*[11],_,20,PROPN,Npmsn,nmod
21,117-118,.,_,_,_,_,_,25,PUNCT,Z,punct
22,119-123,Mura,ORG,_,*->12-2,*[12],_,25,PROPN,Npfsn,nsubj
23,124-126,ne,_,_,_,_,_,25,PART,Q,advmod
24,127-136,potrebovati,_,_,_,_,_,1,VERB,Vmpr3s,parataxis
25,137-144,podpora,_,_,_,_,_,25,NOUN,Ncfsg,obj
26,145-146,",",_,_,_,_,_,28,PUNCT,Z,punct
27,147-156,potrebovati,_,_,*->12-3,*[12],_,25,VERB,Vmpr3s,conj
28,157-164,rešitev,_,_,_,_,_,28,NOUN,Ncfsa,obj
29,165-166,",",_,_,_,_,_,31,PUNCT,Z,punct
30,167-171,meniti,_,_,*->11-2,*[11],_,1,VERB,Vmpr3s,parataxis
31,172-173,.,_,_,_,_,_,28,PUNCT,Z,punct
32,174-182,minister,_,0,*->1-1,*[1],3 - Nevtralno[9],28,NOUN,Ncmsn,nsubj
33,183-185,za,_,0,*->1-1,*[1],3 - Nevtralno[9],35,ADP,Sa,case
34,186-190,delo,_,0,*->1-1,*[1],3 - Nevtralno[9],33,NOUN,Ncnsa,nmod
35,191-192,",",_,0,*->1-1,*[1],3 - Nevtralno[9],37,PUNCT,Z,punct
36,193-200,družina,_,0,*->1-1,*[1],3 - Nevtralno[9],35,NOUN,Ncfsa,conj
37,201-203,in,_,0,*->1-1,*[1],3 - Nevtralno[9],40,CCONJ,Cc,cc
38,204-212,socialen,_,0,*->1-1,*[1],3 - Nevtralno[9],40,ADJ,Agpfpa,amod
39,213-219,zadeva,_,0,*->1-1,*[1],3 - Nevtralno[9],35,NOUN,Ncfpa,conj
40,220-224,Ivan,PER[1],0,*->1-1,*[1],3 - Nevtralno[9],40,PROPN,Npmsn,nmod
41,225-232,Svetlik,PER[1],0,*->1-1,*[1],3 - Nevtralno[9],41,PROPN,Npmsn,flat:name
42,233-235,se,_,_,_,_,_,49,PRON,Px------y,expl
43,236-238,biti,_,_,_,_,_,49,AUX,Va-f3s-n,aux
44,239-241,ob,_,_,_,_,_,48,ADP,Sl,case
45,242-244,15,_,_,_,_,_,48,NUM,Mdc,nummod
46,245-246,.,_,_,_,_,_,48,NUM,Mdo,nummod
47,247-250,ura,_,_,_,_,_,49,NOUN,Ncfsl,obl
48,251-257,sestati,_,_,_,_,_,1,VERB,Vmep-sm,parataxis
49,258-259,z,_,_,_,_,_,51,ADP,Si,case
50,260-271,prokurist,_,_,*->2-1,*[2],_,49,NOUN,Ncmsi,obl
51,272-276,Mura,ORG,_,*->2-1|*->12-4,*[2]|*[12],_,51,PROPN,Npfsg,nmod
52,277-284,Zdenkom,PER[2],_,*->2-1,*[2],_,51,PROPN,Npmsi,nmod
53,285-298,Podlesnikom.Â,PER[2],_,*->2-1,*[2],_,53,PROPN,Npmsi,flat:name
54,299-301,ta,_,_,*->2-2,*[2],_,61,DET,Pd-msn,nsubj
55,302-304,biti,_,_,_,_,_,61,AUX,Va-r3s-n,aux
56,305-309,pred,_,_,_,_,_,58,ADP,Si,case
57,310-317,odhod,_,_,_,_,_,61,NOUN,Ncmsi,obl
58,318-319,v,_,_,_,_,_,60,ADP,Sa,case
59,320-329,Ljubljana,LOC,0,*->3-1,*[3],3 - Nevtralno,58,PROPN,Npfsa,nmod
60,330-335,dejati,_,_,_,_,_,49,VERB,Vmep-sm,conj
61,336-337,",",_,_,_,_,_,65,PUNCT,Z,punct
62,338-340,da,_,_,_,_,_,65,SCONJ,Cs,mark
63,341-343,ne,_,_,_,_,_,65,PART,Q,advmod
64,344-353,pričakovati,_,_,*->2-3,*[2],_,61,VERB,Vmpr3s,ccomp
65,354-355,",",_,_,_,_,_,70,PUNCT,Z,punct
66,356-358,da,_,_,_,_,_,70,SCONJ,Cs,mark
67,359-361,se,_,_,_,_,_,70,PRON,Px------y,expl
68,362-364,biti,_,_,_,_,_,70,AUX,Va-f3s-n,aux
69,365-370,vrniti,_,_,*->2-4,*[2],_,65,VERB,Vmep-sm,ccomp
70,371-372,z,_,_,_,_,_,72,ADP,Si,case
71,373-381,denar,_,_,_,_,_,70,NOUN,Ncmsi,obl
72,382-383,",",_,_,_,_,_,70,PUNCT,Z,punct
73,384-390,temveč,_,_,_,_,_,77,CCONJ,Cc,cc
74,391-393,da,_,_,_,_,_,77,SCONJ,Cs,mark
75,394-396,biti,_,_,_,_,_,77,AUX,Va-f3s-n,aux
76,397-402,dobiti,_,_,*->2-5,*[2],_,70,VERB,Vmep-sm,advcl
77,403-410,odgovor,_,_,_,_,_,77,NOUN,Ncmsan,obj
78,411-412,",",_,_,_,_,_,83,PUNCT,Z,punct
79,413-416,kaj,_,_,_,_,_,83,PRON,Pq-nsa,obj
80,417-419,biti,_,_,_,_,_,83,AUX,Va-r3s-n,cop
81,420-422,še,_,_,_,_,_,83,PART,Q,advmod
82,423-429,mogoč,_,_,_,_,_,78,ADJ,Agpnsn,acl
83,430-437,storiti,_,_,_,_,_,83,VERB,Vmen,csubj
84,438-441,pri,_,_,_,_,_,86,ADP,Sl,case
85,442-451,reševanje,_,_,_,_,_,84,NOUN,Ncnsl,obl
86,452-460,podjetje,_,_,*->12-5,*[12],_,86,NOUN,Ncnsg,nmod
87,461-462,.,_,_,_,_,_,83,PUNCT,Z,punct
88,463-465,po,_,_,_,_,_,90,ADP,Sl,case
89,466-473,odstop,_,_,_,_,_,84,NOUN,Ncmsl,obl
90,474-476,še,_,_,_,_,_,101,PART,Q,advmod
91,477-485,zadnji,_,_,_,_,_,94,ADJ,Agpmsg,amod
92,486-499,potencialen,_,_,_,_,_,94,ADJ,Agpmsg,amod
93,500-509,rešitelj,_,_,_,_,_,90,NOUN,Ncmsg,nmod
94,510-514,Mura,ORG,_,*->12-6,*[12],_,94,PROPN,Npfsg,nmod
95,515-521,država,_,_,_,_,_,101,NOUN,Ncfsn,nsubj
96,522-533,vlagatelj,_,_,_,_,_,96,NOUN,Ncmpg,nmod
97,534-536,ne,_,_,_,_,_,101,PART,Q,advmod
98,537-539,biti,_,_,_,_,_,101,AUX,Va-f3s-n,aux
99,540-543,več,_,_,_,_,_,101,PART,Q,advmod
100,544-550,iskati,_,_,_,_,_,1,VERB,Vmpp-sf,parataxis
101,551-552,.,_,_,_,_,_,101,PUNCT,Z,punct
102,553-563,predsednik,_,0,*->4-1,*[4],3 - Nevtralno[10],117,NOUN,Ncmsn,nsubj
103,564-573,upraven,_,0,*->4-1,*[4],3 - Nevtralno[10],105,ADJ,Agpmsg,amod
104,574-580,odbor,_,0,*->4-1,*[4],3 - Nevtralno[10],103,NOUN,Ncmsg,nmod
105,581-590,slovenski,ORG[3],0,*->4-1|*->9-2,*[4]|*[9],3 - Nevtralno[10],108,ADJ,Agpfsg,amod
106,591-603,odškodninski,ORG[3],0,*->4-1|*->9-2,*[4]|*[9],3 - Nevtralno[10],108,ADJ,Agpfsg,amod
107,604-610,družba,ORG[3],0,*->4-1|*->9-2,*[4]|*[9],3 - Nevtralno[10],105,NOUN,Ncfsg,nmod
108,611-614,sod,ORG[3],0,*->4-1|*->9-2,*[4]|*[9],3 - Nevtralno[10],108,NOUN,Ncmsn,nmod
109,615-619,Uroš,PER[4],0,*->4-1,*[4],3 - Nevtralno[10],109,PROPN,Npmsn,nmod
110,620-626,Rotnik,PER[4],0,*->4-1,*[4],3 - Nevtralno[10],110,PROPN,Npmsn,flat:name
111,627-629,pa,_,_,_,_,_,117,CCONJ,Cc,advmod
112,630-632,od,_,_,_,_,_,114,ADP,Sg,case
113,633-640,vodstvo,_,_,_,_,_,117,NOUN,Ncnsg,obl
114,641-652,tekstilen,_,_,*->12-7,*[12],_,116,ADJ,Agpmsg,amod
115,653-661,velikan,_,_,*->12-7,*[12],_,114,NOUN,Ncmsg,nmod
116,662-671,pričakovati,_,_,_,_,_,101,VERB,Vmpr3s,conj
117,672-681,nadaljnji,_,_,_,_,_,119,ADJ,Agpfpa,amod
118,682-692,aktivnost,_,_,_,_,_,117,NOUN,Ncfpa,obj
119,693-694,z,_,_,_,_,_,121,ADP,Si,case
120,695-701,cilj,_,_,_,_,_,119,NOUN,Ncmsi,nmod
121,702-711,ohranitev,_,_,_,_,_,121,NOUN,Ncfsg,nmod
122,712-715,čim,_,_,_,_,_,124,ADV,Rgp,advmod
123,716-723,velik,_,_,_,_,_,125,ADJ,Agcnsg,amod
124,724-731,število,_,_,_,_,_,122,NOUN,Ncnsg,nmod
125,732-740,deloven,_,_,_,_,_,127,ADJ,Agpnpg,amod
126,741-746,mesto,_,_,_,_,_,125,NOUN,Ncnpg,nmod
127,747-748,.,_,_,_,_,_,117,PUNCT,Z,punct
128,749-752,sod,ORG,_,*->9-3,*[9],_,136,NOUN,Ncmsn,nsubj
129,753-755,biti,_,_,_,_,_,136,AUX,Va-f3s-n,aux
130,756-760,Muri,ORG,_,*->12-8,*[12],_,136,PROPN,Npfsd,obj
131,761-769,zagotovo,_,_,_,_,_,136,ADV,Rgp,advmod
132,770-774,tudi,_,_,_,_,_,136,PART,Q,advmod
133,775-776,v,_,_,_,_,_,135,ADP,Sa,case
134,777-786,prihodnji,_,_,_,_,_,136,ADV,Rgp,advmod
135,787-791,stati,_,_,_,_,_,141,VERB,Vmpp-sm,advcl
136,792-794,ob,_,_,_,_,_,138,ADP,Sl,case
137,795-801,stran,_,_,_,_,_,136,NOUN,Ncfsl,obl
138,802-803,",",_,_,_,_,_,136,PUNCT,Z,punct
139,804-806,biti,_,_,*->4-2,*[4],_,141,AUX,Va-r3s-n,aux
140,807-816,zagotoviti,_,_,*->4-2,*[4],_,1,VERB,Vmep-sm,parataxis
141,817-818,.,_,_,_,_,_,136,PUNCT,Z,punct
142,819-828,Podlesnik,PER,_,*->2-6,*[2],_,152,PROPN,Npmsn,nsubj
143,829-835,zadnji,_,_,_,_,_,145,ADJ,Agpmsny,amod
144,836-844,optimist,_,_,_,_,_,141,NOUN,Ncmsn,nsubj
145,845-846,?,_,_,_,_,_,145,PUNCT,Z,punct
146,847-852,Murin,_,_,*->12-9,*[12],_,148,ADJ,Aspmsnn,amod
147,853-862,prokurist,_,_,*->2-7,*[2],_,152,NOUN,Ncmsn,nsubj
148,863-869,Zdenko,PER[5],_,*->2-7,*[2],_,148,PROPN,Npmsn,nmod
149,870-879,Podlesnik,PER[5],_,*->2-7,*[2],_,149,PROPN,Npmsn,flat:name
150,880-882,še,_,_,_,_,_,152,PART,Q,advmod
151,883-890,verjeti,_,_,_,_,_,145,VERB,Vmbr3s,parataxis
152,891-892,v,_,_,_,_,_,154,ADP,Sa,case
153,893-900,projekt,_,_,_,_,_,152,NOUN,Ncmsan,obl
154,901-910,reševanje,_,_,_,_,_,154,NOUN,Ncnsg,nmod
155,911-919,podjetje,_,_,*->12-10,*[12],_,155,NOUN,Ncnsg,nmod
156,920-921,.,_,_,_,_,_,152,PUNCT,Z,punct
157,922-923,v,_,_,_,_,_,159,ADP,Sa,case
158,924-934,ponedeljek,_,_,_,_,_,161,NOUN,Ncmsan,obl
159,935-937,biti,_,_,*->2-8,*[2],_,161,AUX,Va-r3s-n,aux
160,938-948,predstaviti,_,_,*->2-8,*[2],_,152,VERB,Vmep-sm,conj
161,949-952,nov,_,_,_,_,_,163,ADJ,Agpmsan,amod
162,953-960,predlog,_,_,_,_,_,161,NOUN,Ncmsan,obj
163,961-962,",",_,_,_,_,_,166,PUNCT,Z,punct
164,963-965,ki,_,_,_,_,_,166,SCONJ,Cs,mark
165,966-976,predvidevati,_,_,_,_,_,163,VERB,Vmpr3s,acl
166,977-981,manj,_,_,_,_,_,169,DET,Rgc,det
167,982-991,potreben,_,_,_,_,_,169,ADJ,Agpnpg,amod
168,992-1000,sredstvo,_,_,_,_,_,166,NOUN,Ncnpg,obj
169,1001-1004,"6,5",_,_,_,_,_,173,NUM,Mdc,nummod
170,1005-1012,namesto,_,_,_,_,_,173,ADP,Sg,case
171,1013-1015,11,_,_,_,_,_,173,NUM,Mdc,nummod
172,1016-1025,milijon,_,_,_,_,_,169,NOUN,Ncmpg,nmod
173,1026-1031,evro,_,_,_,_,_,173,NOUN,Ncmpg,nmod
174,1032-1033,",",_,_,_,_,_,166,PUNCT,Z,punct
175,1034-1036,pa,_,_,_,_,_,184,CCONJ,Cc,advmod
176,1037-1041,tudi,_,_,_,_,_,184,PART,Q,advmod
177,1042-1051,ohranitev,_,_,_,_,_,173,NOUN,Ncfsa,conj
178,1052-1055,300,_,_,_,_,_,181,NUM,Mdc,nummod
179,1056-1064,deloven,_,_,_,_,_,181,ADJ,Agpnpg,amod
180,1065-1069,mesto,_,_,_,_,_,178,NOUN,Ncnpg,nmod
181,1070-1074,manj,_,_,_,_,_,184,DET,Rgc,advmod
182,1075-1078,kot,_,_,_,_,_,184,SCONJ,Cs,case
183,1079-1088,predhoden,_,_,_,_,_,178,ADJ,Agpmpn,amod
184,1089-1090,.,_,_,_,_,_,184,PUNCT,Z,punct
185,1091-1093,ta,_,_,_,_,_,189,DET,Pd-nsn,nsubj
186,1094-1096,biti,_,_,_,_,_,189,AUX,Va-r3s-n,cop
187,1097-1102,edin,_,_,_,_,_,189,ADJ,Agpmsny,amod
188,1103-1110,predlog,_,_,_,_,_,152,NOUN,Ncmsn,nsubj
189,1111-1112,",",_,_,_,_,_,192,PUNCT,Z,punct
190,1113-1115,ki,_,_,_,_,_,192,SCONJ,Cs,mark
191,1116-1118,biti,_,_,_,_,_,189,VERB,Va-r3s-n,acl
192,1119-1121,še,_,_,_,_,_,192,PART,Q,advmod
193,1122-1123,v,_,_,_,_,_,195,ADP,Sl,case
194,1124-1128,igra,_,_,_,_,_,192,NOUN,Ncfsl,obl
195,1129-1130,.,_,_,_,_,_,189,PUNCT,Z,punct
196,1131-1132,o,_,_,_,_,_,198,ADP,Sl,case
197,1133-1140,stečaj,_,_,_,_,_,201,NOUN,Ncmsl,obl
198,1141-1150,Podlesnik,PER,_,*->2-9,*[2],_,198,PROPN,Npmsn,nmod
199,1151-1155,hoteti,_,_,_,_,_,189,VERB,Vmpr3s-y,acl
200,1156-1164,govoriti,_,_,_,_,_,200,VERB,Vmpn,xcomp
201,1165-1166,",",_,_,_,_,_,205,PUNCT,Z,punct
202,1167-1173,dokler,_,_,_,_,_,205,SCONJ,Cs,mark
203,1174-1176,ne,_,_,_,_,_,205,PART,Q,advmod
204,1177-1184,poskusiti,_,_,*->2-10,*[2],_,201,VERB,Vmer3s,advcl
205,1185-1189,ves,_,_,_,_,_,208,DET,Pg-fpg,det
206,1190-1196,drug,_,_,_,_,_,208,ADJ,Mlpfpg,amod
207,1197-1205,možnost,_,_,_,_,_,205,NOUN,Ncfpg,obj
208,1206-1207,.,_,_,_,_,_,214,PUNCT,Z,punct
209,1208-1211,kot,_,_,_,_,_,214,SCONJ,Cs,mark
210,1212-1215,biti,_,_,*->2-11,*[2],_,214,AUX,Va-r1s-n,aux
211,1216-1218,že,_,_,_,_,_,214,PART,Q,advmod
212,1219-1226,večkrat,_,_,_,_,_,214,ADV,Rgc,advmod
213,1227-1234,povedati,_,_,_,_,_,201,VERB,Vmep-sm,advcl
214,1235-1236,",",_,_,_,_,_,214,PUNCT,Z,punct
215,1237-1241,biti,_,_,_,_,_,218,AUX,Va-f1p-n,aux
216,1242-1249,najprej,_,_,_,_,_,218,ADV,Rgs,advmod
217,1250-1253,iti,_,_,_,_,_,1,VERB,Vmbp-pm,parataxis
218,1254-1255,v,_,_,_,_,_,220,ADP,Sa,case
219,1256-1264,postopek,_,_,_,_,_,218,NOUN,Ncmpa,obl
220,1265-1266,",",_,_,_,_,_,226,PUNCT,Z,punct
221,1267-1269,ki,_,_,_,_,_,226,SCONJ,Cs,mark
222,1270-1273,jaz,_,_,_,_,_,226,PRON,Pp1-pd,obj
223,1274-1277,on,_,_,_,_,_,226,PRON,Pp3mpa--y,obj
224,1278-1283,zakon,_,_,_,_,_,226,NOUN,Ncmsn,nsubj
225,1284-1290,nalagati,_,_,_,_,_,220,VERB,Vmpr3s,acl
226,1291-1296,glede,_,_,_,_,_,229,ADP,Sg,case
227,1297-1304,matičen,_,_,*->12-11,*[12],_,229,ADJ,Agpfsg,amod
228,1305-1311,družba,_,_,*->12-11,*[12],_,226,NOUN,Ncfsg,obl
229,1312-1316,Mura,ORG,_,*->12-11,*[12],_,229,PROPN,Npfsn,nmod
230,1317-1318,",",_,_,_,_,_,226,PUNCT,Z,punct
231,1319-1324,potem,_,_,_,_,_,235,ADV,Rgp,advmod
232,1325-1327,pa,_,_,_,_,_,235,CCONJ,Cc,advmod
233,1328-1332,biti,_,_,_,_,_,235,AUX,Va-f1p-n,aux
234,1333-1339,videti,_,_,_,_,_,246,VERB,Vmbp-pm,advcl
235,1340-1341,",",_,_,_,_,_,241,PUNCT,Z,punct
236,1342-1346,kako,_,_,_,_,_,241,ADV,Rgp,advmod
237,1347-1349,se,_,_,_,_,_,241,PRON,Px------y,expl
238,1350-1352,biti,_,_,_,_,_,241,AUX,Va-f3s-n,aux
239,1353-1355,ta,_,_,_,_,_,241,DET,Pd-nsn,nsubj
240,1356-1364,odraziti,_,_,_,_,_,235,VERB,Vmep-sn,ccomp
241,1365-1367,na,_,_,_,_,_,243,ADP,Sl,case
242,1368-1374,hči,_,_,_,_,_,241,NOUN,Ncfpl,obl
243,1375-1376,",",_,_,_,_,_,241,PUNCT,Z,punct
244,1377-1379,biti,_,_,*->2-12,*[2],_,246,AUX,Va-r3s-n,aux
245,1380-1385,dejati,_,_,*->2-12,*[2],_,1,VERB,Vmep-sm,parataxis
246,1386-1387,.,_,_,_,_,_,235,PUNCT,Z,punct
247,1388-1390,in,_,_,_,_,_,249,CCONJ,Cc,cc
248,1391-1398,število,_,_,_,_,_,253,NOUN,Ncnsn,nsubj
249,1399-1409,zaposlen,_,_,_,_,_,249,ADJ,Appmpg,amod
250,1410-1411,?,_,_,_,_,_,241,PUNCT,Z,punct
251,1412-1421,Podlesnik,PER,_,*->2-13,*[2],_,253,PROPN,Npmsn,nsubj
252,1422-1427,praviti,_,_,_,_,_,246,VERB,Vmbr3s,conj
253,1428-1429,",",_,_,_,_,_,259,PUNCT,Z,punct
254,1430-1432,da,_,_,_,_,_,259,SCONJ,Cs,mark
255,1433-1435,biti,_,_,_,_,_,259,AUX,Va-r3p-n,aux
256,1436-1438,že,_,_,_,_,_,259,PART,Q,advmod
257,1439-1443,maj,_,_,_,_,_,259,NOUN,Ncmsg,obl
258,1444-1452,govoriti,_,_,_,_,_,253,VERB,Vmpp-pm,ccomp
259,1453-1454,o,_,_,_,_,_,262,ADP,Sl,case
260,1455-1459,1700,_,_,_,_,_,262,NUM,Mdc,nummod
261,1460-1466,človek,_,_,_,_,_,259,NOUN,Ncmpl,obl
262,1467-1469,in,_,_,_,_,_,264,CCONJ,Cc,cc
263,1470-1480,napovedati,_,_,_,_,_,259,VERB,Vmep-pm,conj
264,1481-1482,",",_,_,_,_,_,292,PUNCT,Z,punct
265,1483-1485,da,_,_,_,_,_,292,SCONJ,Cs,mark
266,1486-1489,on,_,_,_,_,_,292,PRON,Pp3mpa--y,obj
267,1490-1492,biti,_,_,_,_,_,292,AUX,Va-f3s-n,aux
268,1493-1497,vsak,_,_,_,_,_,270,DET,Pg-msn,det
269,1498-1503,mesec,_,_,_,_,_,292,NOUN,Ncmsn,nsubj
270,1504-1509,nekaj,_,_,_,_,_,273,DET,Rgp,advmod
271,1510-1513,sto,_,_,_,_,_,273,NUM,Mlc-pa,nummod
272,1514-1518,manj,_,_,_,_,_,292,DET,Rgc,advmod
273,1519-1520,",",_,_,_,_,_,273,PUNCT,Z,punct
274,1521-1526,konec,_,_,_,_,_,276,ADP,Sg,case
275,1527-1533,junij,_,_,_,_,_,273,NOUN,Ncmsg,nmod
276,1534-1536,biti,_,_,_,_,_,292,AUX,Va-r3s-n,aux
277,1537-1541,biti,_,_,_,_,_,292,AUX,Va-p-sn,aux
278,1542-1544,ta,_,_,_,_,_,280,DET,Pd-nsn,nsubj
279,1545-1549,1400,_,_,_,_,_,276,NUM,Mdc,nummod
280,1550-1551,",",_,_,_,_,_,280,PUNCT,Z,punct
281,1552-1556,zdaj,_,_,_,_,_,292,ADV,Rgp,advmod
282,1557-1559,biti,_,_,_,_,_,292,AUX,Va-r3s-n,aux
283,1560-1562,ta,_,_,_,_,_,285,DET,Pd-nsn,det
284,1563-1567,1100,_,_,_,_,_,280,NUM,Mdc,nummod
285,1568-1575,oziroma,_,_,_,_,_,287,CCONJ,Cc,cc
286,1576-1580,1000,_,_,_,_,_,285,NUM,Mdc,conj
287,1581-1582,.,_,_,_,_,_,276,PUNCT,Z,punct
288,1583-1593,proizvoden,_,_,_,_,_,292,ADJ,Agpfsn,nsubj
289,1594-1596,za,_,_,_,_,_,291,ADP,Sa,case
290,1597-1601,zdaj,_,_,_,_,_,292,ADV,Rgp,advmod
291,1602-1606,teči,_,_,_,_,_,259,VERB,Vmpr3s,advcl
292,1607-1613,naprej,_,_,_,_,_,294,ADV,Rgp,advmod
293,1614-1617,sod,ORG,_,*->9-4,*[9],_,292,NOUN,Ncmsn,nsubj
294,1618-1620,po,_,_,_,_,_,297,ADP,Sl,case
295,1621-1634,podlesnikov,_,_,*->2-14,*[2],_,297,ADJ,Aspfpl,amod
296,1635-1642,beseda,_,_,_,_,_,298,NOUN,Ncfpl,obl
297,1643-1649,pomagati,_,_,_,_,_,292,VERB,Vmbr3s,conj
298,1650-1653,pri,_,_,_,_,_,300,ADP,Sl,case
299,1654-1667,zagotavljanje,_,_,_,_,_,298,NOUN,Ncnsl,obl
300,1668-1676,sredstvo,_,_,_,_,_,300,NOUN,Ncnpg,nmod
301,1677-1679,za,_,_,_,_,_,303,ADP,Sa,case
302,1680-1685,plača,_,_,_,_,_,301,NOUN,Ncfpa,nmod
303,1686-1687,",",_,_,_,_,_,298,PUNCT,Z,punct
304,1688-1690,in,_,_,_,_,_,309,CCONJ,Cc,cc
305,1691-1696,sicer,_,_,_,_,_,309,PART,Q,advmod
306,1697-1698,v,_,_,_,_,_,309,ADP,Sl,case
307,1699-1706,majhen,_,_,_,_,_,309,ADJ,Agcmsl,amod
308,1707-1711,del,_,_,_,_,_,303,NOUN,Ncnsl,conj
309,1712-1713,.,_,_,_,_,_,292,PUNCT,Z,punct
310,1714-1719,kljub,_,_,_,_,_,312,ADP,Sd,case
311,1720-1724,ta,_,_,_,_,_,314,DET,Pd-nsd,obl
312,1725-1734,Podlesnik,ORG,_,*->2-15,*[2],_,314,PROPN,Npmsn,nsubj
313,1735-1739,meniti,_,_,_,_,_,1,VERB,Vmpr3s,parataxis
314,1740-1741,",",_,_,_,_,_,318,PUNCT,Z,punct
315,1742-1744,da,_,_,_,_,_,318,SCONJ,Cs,mark
316,1745-1749,biti,_,_,_,_,_,318,AUX,Va-f3p-n,aux
317,1750-1756,uspeti,_,_,_,_,_,314,VERB,Vmep-pm,ccomp
318,1757-1766,izpolniti,_,_,_,_,_,318,VERB,Vmen,xcomp
319,1767-1774,obljuba,_,_,_,_,_,319,NOUN,Ncfsa,obj
320,1775-1777,in,_,_,_,_,_,324,CCONJ,Cc,cc
321,1778-1779,v,_,_,_,_,_,323,ADP,Sl,case
322,1780-1789,september,_,_,_,_,_,324,NOUN,Ncmsl,obl
323,1790-1799,izplačati,_,_,_,_,_,319,VERB,Vmbn,conj
324,1800-1805,plača,_,_,_,_,_,324,NOUN,Ncfpa,obj
325,1806-1807,.,_,_,_,_,_,314,PUNCT,Z,punct
326,1808-1819,proizvodnja,_,_,_,_,_,329,NOUN,Ncfsa,obj
327,1820-1822,pa,_,_,_,_,_,329,CCONJ,Cc,advmod
328,1823-1829,seleti,_,_,_,_,_,345,VERB,Vmpr3p,conj
329,1830-1833,tja,_,_,_,_,_,329,ADV,Rgp,advmod
330,1834-1835,",",_,_,_,_,_,336,PUNCT,Z,punct
331,1836-1840,kjer,_,_,_,_,_,336,SCONJ,Cs,mark
332,1841-1843,biti,_,_,_,_,_,336,AUX,Va-f3s-n,cop
333,1844-1854,tehnološko,_,_,_,_,_,335,ADV,Rgp,advmod
334,1855-1859,bolj,_,_,_,_,_,336,ADV,Rgc,advmod
335,1860-1870,zaokrožen,_,_,_,_,_,329,ADJ,Appfsn,advcl
336,1871-1873,in,_,_,_,_,_,338,CCONJ,Cc,cc
337,1874-1887,racionalen,_,_,_,_,_,336,ADJ,Agcfsn,conj
338,1888-1889,",",_,_,_,_,_,336,PUNCT,Z,punct
339,1890-1892,biti,_,_,*->2-16,*[2],_,341,AUX,Va-r3s-n,aux
340,1893-1900,povedati,_,_,*->2-16,*[2],_,1,VERB,Vmep-sm,parataxis
341,1901-1902,.,_,_,_,_,_,341,PUNCT,Z,punct
342,1903-1914,proizvodnja,_,_,_,_,_,345,NOUN,Ncfsn,nsubj
343,1915-1917,biti,_,_,_,_,_,345,AUX,Va-f3s-n,aux
344,1918-1923,teči,_,_,_,_,_,1,VERB,Vmpp-sf,parataxis
345,1924-1926,ta,_,_,_,_,_,349,DET,Pd-msa,det
346,1927-1929,in,_,_,_,_,_,348,CCONJ,Cc,cc
347,1930-1939,prihodnji,_,_,_,_,_,346,ADJ,Agpmsay,conj
348,1940-1945,teden,_,_,_,_,_,345,NOUN,Ncmsan,obl
349,1946-1947,",",_,_,_,_,_,352,PUNCT,Z,punct
350,1948-1950,biti,_,_,_,_,_,352,AUX,Va-r3s-n,aux
351,1951-1960,zagotoviti,_,_,_,_,_,345,VERB,Vmep-sm,conj
352,1961-1970,Podlesnik,PER,_,*->2-17,*[2],_,352,PROPN,Npmsn,nsubj
353,1971-1972,.,_,_,_,_,_,345,PUNCT,Z,punct
354,1973-1982,naslednji,_,_,_,_,_,356,ADJ,Agpmpa,amod
355,1983-1988,teden,_,_,_,_,_,360,NOUN,Ncmpa,obl
356,1989-1991,se,_,_,_,_,_,360,PRON,Px------y,expl
357,1992-1994,biti,_,_,_,_,_,360,AUX,Va-f3s-n,aux
358,1995-2004,postopoma,_,_,_,_,_,360,ADV,Rgp,advmod
359,2005-2015,ustavljati,_,_,_,_,_,345,VERB,Vmpp-sf,conj
360,2016-2017,",",_,_,_,_,_,365,PUNCT,Z,punct
361,2018-2023,nakar,_,_,_,_,_,365,SCONJ,Cs,mark
362,2024-2026,se,_,_,_,_,_,365,PRON,Px------y,expl
363,2027-2031,biti,_,_,_,_,_,365,AUX,Va-f3p-n,aux
364,2032-2041,preseliti,_,_,_,_,_,360,VERB,Vmep-pm,advcl
365,2042-2044,in,_,_,_,_,_,367,CCONJ,Cc,cc
366,2045-2056,nadaljevati,_,_,_,_,_,365,VERB,Vmpp-pm,conj
367,2057-2058,v,_,_,_,_,_,370,ADP,Sl,case
368,2059-2069,zmanjšan,_,_,_,_,_,370,ADJ,Appmsl,amod
369,2070-2076,obseg,_,_,_,_,_,367,NOUN,Ncmsl,obl
370,2077-2078,.,_,_,_,_,_,360,PUNCT,Z,punct
371,2079-2086,delavec,_,_,_,_,_,377,NOUN,Ncmpa,obj
372,2087-2089,iz,_,_,_,_,_,375,ADP,Sg,case
373,2090-2103,ljutomerski,_,_,_,_,_,375,ADJ,Agpmsg,amod
374,2104-2110,obrat,_,_,_,_,_,372,NOUN,Ncmsg,nmod
375,2111-2115,biti,_,_,_,_,_,377,AUX,Va-f3p-n,aux
376,2116-2125,preseliti,_,_,_,_,_,360,VERB,Vmep-pm,parataxis
377,2126-2127,v,_,_,_,_,_,380,ADP,Sa,case
378,2128-2134,murski,LOC[6],0,*->5-1,*[5],3 - Nevtralno[11],380,ADJ,Agpfsa,amod
379,2135-2141,sobota,LOC[6],0,*->5-1,*[5],3 - Nevtralno[11],377,NOUN,Ncfsa,obl
380,2142-2143,",",_,_,_,_,_,384,PUNCT,Z,punct
381,2144-2153,vzporedno,_,_,_,_,_,384,ADV,Rgp,advmod
382,2154-2156,pa,_,_,_,_,_,384,CCONJ,Cc,advmod
383,2157-2163,teči,_,_,_,_,_,377,VERB,Vmpr3p,advcl
384,2164-2172,pogovor,_,_,_,_,_,384,NOUN,Ncmpn,nsubj
385,2173-2174,z,_,_,_,_,_,387,ADP,Si,case
386,2175-2187,interesent,_,_,_,_,_,385,NOUN,Ncmsi,nmod
387,2188-2189,",",_,_,_,_,_,391,PUNCT,Z,punct
388,2190-2192,ki,_,_,_,_,_,391,SCONJ,Cs,mark
389,2193-2195,biti,_,_,_,_,_,391,AUX,Va-f3s-n,aux
390,2196-2204,zaposliti,_,_,_,_,_,387,VERB,Vmep-sm,acl
391,2205-2214,približno,_,_,_,_,_,394,ADV,Rgp,advmod
392,2215-2218,150,_,_,_,_,_,394,NUM,Mdc,nummod
393,2219-2227,delavec,_,_,_,_,_,391,NOUN,Ncmpg,obj
394,2228-2229,.,_,_,_,_,_,384,PUNCT,Z,punct
395,2230-2236,misliti,_,_,*->2-18,*[2],_,384,VERB,Vmpr1s,conj
396,2237-2238,",",_,_,_,_,_,410,PUNCT,Z,punct
397,2239-2241,da,_,_,_,_,_,410,SCONJ,Cs,mark
398,2242-2244,biti,_,_,_,_,_,410,AUX,Va-r3s-n,aux
399,2245-2251,realen,_,_,_,_,_,401,ADJ,Agpfsn,amod
400,2252-2259,možnost,_,_,_,_,_,377,NOUN,Ncfsn,nsubj
401,2260-2261,",",_,_,_,_,_,410,PUNCT,Z,punct
402,2262-2264,da,_,_,_,_,_,410,SCONJ,Cs,mark
403,2265-2267,se,_,_,_,_,_,410,PRON,Px------y,expl
404,2268-2270,biti,_,_,_,_,_,410,AUX,Va-f3s-n,aux
405,2271-2272,z,_,_,_,_,_,407,ADP,Si,case
406,2273-2274,1,_,_,_,_,_,410,NUM,Mdc,obl
407,2275-2276,.,_,_,_,_,_,410,PUNCT,Z,punct
408,2277-2286,januar,_,_,_,_,_,410,NOUN,Ncmsi,obl
409,2287-2295,obnoviti,_,_,_,_,_,401,VERB,Vmep-sf,acl
410,2296-2301,drug,_,_,_,_,_,412,ADJ,Mlpfsn,amod
411,2302-2307,vrsta,_,_,_,_,_,410,NOUN,Ncfsn,nsubj
412,2308-2319,proizvodnja,_,_,_,_,_,412,NOUN,Ncfsg,nmod
413,2320-2321,.,_,_,_,_,_,384,PUNCT,Z,punct
414,2322-2329,ponudba,_,_,_,_,_,410,NOUN,Ncfsn,nsubj
415,2330-2339,Švicar,_,_,_,_,_,415,PROPN,Npmpg,nmod
416,2340-2342,biti,_,_,_,_,_,419,AUX,Va-r3s-n,cop
417,2343-2347,bolj,_,_,_,_,_,419,ADV,Rgc,advmod
418,2348-2353,resen,_,_,_,_,_,360,ADJ,Agpfsn,csubj
419,2354-2355,",",_,_,_,_,_,433,PUNCT,Z,punct
420,2356-2359,kot,_,_,_,_,_,433,SCONJ,Cs,mark
421,2360-2362,biti,_,_,_,_,_,428,AUX,Va-r3p-n,aux
422,2363-2367,biti,_,_,_,_,_,433,AUX,Va-p-pf,aux
423,2368-2370,za,_,_,_,_,_,426,ADP,Sa,case
424,2371-2378,celoten,_,_,_,_,_,426,ADJ,Agpnsa,amod
425,2379-2387,podjetje,_,_,*->12-12,*[12],_,419,NOUN,Ncnsa,obl
426,2388-2389,.,_,_,_,_,_,419,PUNCT,Z,punct
427,2390-2393,iti,_,_,_,_,_,419,VERB,Vmbr3s,advcl
428,2394-2396,za,_,_,_,_,_,430,ADP,Sa,case
429,2397-2405,podjetje,_,_,_,_,_,428,NOUN,Ncnsa,obl
430,2406-2407,",",_,_,_,_,_,433,PUNCT,Z,punct
431,2408-2410,ki,_,_,_,_,_,433,SCONJ,Cs,mark
432,2411-2414,imeti,_,_,_,_,_,430,VERB,Vmpr3s-n,acl
433,2415-2418,več,_,_,_,_,_,436,DET,Rgc,advmod
434,2419-2424,tisoč,_,_,_,_,_,436,NUM,Mlc-pa,nummod
435,2425-2435,zaposlen,_,_,_,_,_,440,ADJ,Appmpg,amod
436,2436-2438,in,_,_,_,_,_,438,CCONJ,Cc,cc
437,2439-2444,dober,_,_,_,_,_,436,ADJ,Agpmpa,conj
438,2445-2453,posloven,_,_,_,_,_,440,ADJ,Agpmpa,amod
439,2454-2463,rezultat,_,_,_,_,_,433,NOUN,Ncmpa,obj
440,2464-2465,",",_,_,_,_,_,445,PUNCT,Z,punct
441,2466-2468,ki,_,_,_,_,_,445,SCONJ,Cs,mark
442,2469-2472,biti,_,_,_,_,_,445,AUX,Va-r1p-n,aux
443,2473-2476,on,_,_,_,_,_,445,PRON,Pp3mpa--y,obj
444,2477-2486,preveriti,_,_,_,_,_,440,VERB,Vmep-pm,acl
445,2487-2489,in,_,_,_,_,_,447,CCONJ,Cc,cc
446,2490-2494,upati,_,_,_,_,_,445,VERB,Vmpr1s,conj
447,2495-2501,trditi,_,_,_,_,_,447,VERB,Vmpn,xcomp
448,2502-2503,",",_,_,_,_,_,452,PUNCT,Z,punct
449,2504-2506,da,_,_,_,_,_,452,SCONJ,Cs,mark
450,2507-2509,biti,_,_,_,_,_,452,AUX,Va-r3s-n,cop
451,2510-2516,realen,_,_,_,_,_,448,ADJ,Agpfsn,ccomp
452,2517-2518,",",_,_,_,_,_,452,PUNCT,Z,punct
453,2519-2525,seveda,_,_,_,_,_,457,PART,Q,advmod
454,2526-2528,pa,_,_,_,_,_,457,CCONJ,Cc,advmod
455,2529-2533,biti,_,_,_,_,_,457,AUX,Va-f3p-n,aux
456,2534-2540,morati,_,_,_,_,_,445,VERB,Vmpp-pn,advcl
457,2541-2545,biti,_,_,_,_,_,459,AUX,Va-n,cop
458,2546-2556,izpolnjen,_,_,_,_,_,457,ADJ,Appnpn,xcomp
459,2557-2564,njegov,_,_,_,_,_,461,DET,Ps3npnsm,det
460,2565-2577,pričakovanje,_,_,_,_,_,459,NOUN,Ncnpn,nsubj
461,2578-2579,v,_,_,_,_,_,464,ADP,Sl,case
462,2580-2586,takšen,_,_,_,_,_,464,DET,Pd-fsl,det
463,2587-2591,mera,_,_,_,_,_,459,NOUN,Ncfsl,obl
464,2592-2593,",",_,_,_,_,_,471,PUNCT,Z,punct
465,2594-2596,da,_,_,_,_,_,471,SCONJ,Cs,mark
466,2597-2599,se,_,_,_,_,_,471,PRON,Px------y,expl
467,2600-2602,biti,_,_,_,_,_,471,AUX,Va-f3s-n,aux
468,2603-2605,za,_,_,_,_,_,470,ADP,Sa,case
469,2606-2612,zadeva,_,_,_,_,_,471,NOUN,Ncfsa,obl
470,2613-2620,odločiti,_,_,_,_,_,464,VERB,Vmep-sm,acl
471,2621-2622,.,_,_,_,_,_,452,PUNCT,Z,punct
472,2623-2624,v,_,_,_,_,_,474,ADP,Sl,case
473,2625-2634,dogovor,_,_,_,_,_,471,NOUN,Ncmpl,obl
474,2635-2636,z,_,_,_,_,_,477,ADP,Si,case
475,2637-2647,švicarski,_,_,_,_,_,477,ADJ,Agpmsi,amod
476,2648-2659,vlagatelj,_,_,_,_,_,474,NOUN,Ncmsi,nmod
477,2660-2662,biti,_,_,_,_,_,482,AUX,Va-r3p-n,aux
478,2663-2665,po,_,_,_,_,_,481,ADP,Sl,case
479,2666-2679,podlesnikov,_,0,*->2-19,*[2],3 - Nevtralno,481,ADJ,Aspfpl,amod
480,2680-2687,beseda,_,_,_,_,_,482,NOUN,Ncfpl,obl
481,2688-2695,doreči,_,_,_,_,_,471,VERB,Vmep-pm,conj
482,2696-2697,",",_,_,_,_,_,487,PUNCT,Z,punct
483,2698-2704,kakšen,_,_,_,_,_,485,DET,Pq-fsa,det
484,2705-2712,skupina,_,_,_,_,_,487,NOUN,Ncfsa,obj
485,2713-2718,človek,_,_,_,_,_,485,NOUN,Ncmpg,nmod
486,2719-2723,želeti,_,_,_,_,_,482,VERB,Vmpr3s,ccomp
487,2724-2726,in,_,_,_,_,_,491,CCONJ,Cc,cc
488,2727-2728,z,_,_,_,_,_,491,ADP,Si,case
489,2729-2737,kakšen,_,_,_,_,_,491,DET,Pq-fpi,det
490,2738-2753,kvalifikacija,_,_,_,_,_,487,NOUN,Ncfpi,obl
491,2754-2755,.,_,_,_,_,_,482,PUNCT,Z,punct
492,2756-2763,cinizem,_,_,_,_,_,487,NOUN,Ncmsn,nsubj
493,2764-2772,hud,_,_,_,_,_,495,ADJ,Agsfsg,amod
494,2773-2778,vrsta,_,_,_,_,_,493,NOUN,Ncfsg,nmod
495,2779-2783,Mura,ORG,_,*->12-13,*[12],_,495,PROPN,Npfsn,nmod
496,2784-2785,",",_,_,_,_,_,500,PUNCT,Z,punct
497,2786-2794,velik,_,_,*->12-14,*[12],_,500,ADJ,Agsnsn,amod
498,2795-2804,tekstilen,_,_,*->12-14,*[12],_,500,ADJ,Agpnsn,amod
499,2805-2813,podjetje,_,_,*->12-14,*[12],_,495,NOUN,Ncnsa,conj
500,2814-2815,v,_,_,*->12-14,*[12],_,502,ADP,Sl,case
501,2816-2822,Evropa,LOC,0,*->12-14|*->6-1,*[12]|*[6],3 - Nevtralno,500,PROPN,Npfsl,nmod
502,2823-2824,",",_,_,_,_,_,487,PUNCT,Z,punct
503,2825-2834,zaposlovati,_,_,_,_,_,491,VERB,Vmpr3s,conj
504,2835-2839,3300,_,_,_,_,_,506,NUM,Mdc,nummod
505,2840-2845,človek,_,_,_,_,_,504,NOUN,Ncmpg,obj
506,2846-2847,.,_,_,_,_,_,504,PUNCT,Z,punct
507,2848-2854,koliko,_,_,_,_,_,518,DET,Rgp,advmod
508,2855-2859,čas,_,_,_,_,_,518,NOUN,Ncmsg,obj
509,2860-2862,še,_,_,_,_,_,504,PART,Q,advmod
510,2863-2864,?,_,_,_,_,_,509,PUNCT,Z,punct
511,2865-2873,socialen,_,_,_,_,_,513,ADJ,Agpfsn,amod
512,2874-2879,bomba,_,_,_,_,_,518,NOUN,Ncfsn,nsubj
513,2880-2881,v,_,_,_,_,_,515,ADP,Sl,case
514,2882-2891,Prekmurje,LOC,0,*->7-1,*[7],3 - Nevtralno,513,PROPN,Npnsl,nmod
515,2892-2895,vse,_,_,_,_,_,517,ADV,Rgp,advmod
516,2896-2900,bolj,_,_,_,_,_,518,ADV,Rgc,advmod
517,2901-2908,tiktakati,_,_,_,_,_,506,VERB,Vmpr3s,acl
518,2909-2910,.,_,_,_,_,_,518,PUNCT,Z,punct
519,2911-2915,foto,_,_,_,_,_,521,NOUN,Ncmsn,nmod
520,2916-2920,Dare,PER[7],0,*->8-1,*[8],3 - Nevtralno[12],525,PROPN,Npmsn,nmod
521,2921-2928,Čekeliš,PER[7],0,*->8-1,*[8],3 - Nevtralno[12],521,PROPN,Npmsn,flat:name
522,2929-2931,ta,_,_,_,_,_,525,DET,Pd-nsn,nsubj
523,2932-2934,biti,_,_,_,_,_,525,AUX,Va-r3s-n,cop
524,2935-2942,cinizem,_,_,_,_,_,518,NOUN,Ncmsn,conj
525,2943-2951,hud,_,_,_,_,_,527,ADJ,Agsfsg,amod
526,2952-2957,vrsta,_,_,_,_,_,525,NOUN,Ncfsg,nmod
527,2958-2959,",",_,_,_,_,_,518,PUNCT,Z,punct
528,2960-2962,pa,_,_,_,_,_,542,CCONJ,Cc,advmod
529,2963-2965,biti,_,_,_,_,_,542,AUX,Va-r3s-n,aux
530,2966-2975,Rotnikov,_,1,*->4-3,*[4],4 - Pozitivno,532,ADJ,Aspfsg,amod
531,2976-2982,beseda,_,_,_,_,_,525,NOUN,Ncfpa,nsubj
532,2983-2984,",",_,_,_,_,_,538,PUNCT,Z,punct
533,2985-2987,da,_,_,_,_,_,538,SCONJ,Cs,mark
534,2988-2990,biti,_,_,_,_,_,538,AUX,Va-f3s-n,aux
535,2991-2994,Sod,ORG,_,*->9-5,*[9],_,538,PROPN,Npmsn,nsubj
536,2995-2999,Muri,ORG,_,*->12-15,*[12],_,536,PROPN,Npfsd,flat:name
537,3000-3004,stati,_,_,_,_,_,532,VERB,Vmpp-sm,acl
538,3005-3007,ob,_,_,_,_,_,540,ADP,Sl,case
539,3008-3014,stran,_,_,_,_,_,538,NOUN,Ncfsl,obl
540,3015-3016,",",_,_,_,_,_,538,PUNCT,Z,punct
541,3017-3027,komentirati,_,_,_,_,_,525,VERB,Vmbp-sm,acl
542,3028-3036,poslanec,_,_,*->11-3,*[11],_,542,NOUN,Ncmsn,nsubj
543,3037-3039,in,_,_,_,_,_,545,CCONJ,Cc,cc
544,3040-3050,predsednik,_,_,*->11-4,*[11],_,543,NOUN,Ncmsn,conj
545,3051-3054,SLS,ORG,0,*->11-4|*->10-1,*[11]|*[10],3 - Nevtralno,545,PROPN,Npfsg,nmod
546,3055-3062,Radovan,PER[8],_,*->11-4,*[11],_,545,PROPN,Npmsn,nmod
547,3063-3069,Žerjav,PER[8],_,*->11-4,*[11],_,547,PROPN,Npmsn,flat:name
548,3070-3071,.,_,_,_,_,_,542,PUNCT,Z,punct
549,3072-3076,Mura,ORG,_,*->12-16,*[12],_,552,PROPN,Npfsn,nsubj
550,3077-3079,ne,_,_,_,_,_,552,PART,Q,advmod
551,3080-3089,potrebovati,_,_,_,_,_,542,VERB,Vmpr3s,conj
552,3090-3096,nekdo,_,_,_,_,_,552,PRON,Pi-msa,obj
553,3097-3098,",",_,_,_,_,_,558,PUNCT,Z,punct
554,3099-3101,ki,_,_,_,_,_,558,SCONJ,Cs,mark
555,3102-3104,biti,_,_,_,_,_,558,AUX,Va-c,aux
556,3105-3107,on,_,_,*->12-17,*[12],_,558,PRON,Pp3fsd--y,obj
557,3108-3112,stati,_,_,_,_,_,553,VERB,Vmpp-sm,acl
558,3113-3115,ob,_,_,_,_,_,560,ADP,Sl,case
559,3116-3122,stran,_,_,_,_,_,558,NOUN,Ncfsl,obl
560,3123-3124,",",_,_,_,_,_,558,PUNCT,Z,punct
561,3125-3131,temveč,_,_,_,_,_,563,CCONJ,Cc,cc
562,3132-3138,nekdo,_,_,_,_,_,553,PRON,Pi-msa,conj
563,3139-3140,",",_,_,_,_,_,574,PUNCT,Z,punct
564,3141-3143,ki,_,_,_,_,_,574,SCONJ,Cs,mark
565,3144-3146,biti,_,_,_,_,_,574,AUX,Va-f3s-n,aux
566,3147-3152,hitro,_,_,_,_,_,574,ADV,Rgp,advmod
567,3153-3154,",",_,_,_,_,_,569,PUNCT,Z,punct
568,3155-3165,učinkovito,_,_,_,_,_,567,ADV,Rgp,conj
569,3166-3168,in,_,_,_,_,_,573,CCONJ,Cc,cc
570,3169-3173,brez,_,_,_,_,_,573,ADP,Sg,case
571,3174-3186,nepotreben,_,_,_,_,_,573,ADJ,Agpnsg,amod
572,3187-3196,oklevanje,_,_,_,_,_,567,NOUN,Ncnsg,conj
573,3197-3202,najti,_,_,_,_,_,563,VERB,Vmep-sm,acl
574,3203-3213,dolgoročno,_,_,_,_,_,576,ADJ,Agpfsa,amod
575,3214-3221,rešitev,_,_,_,_,_,574,NOUN,Ncfsa,obj
576,3222-3224,za,_,_,_,_,_,579,ADP,Sa,case
577,3225-3227,ta,_,_,_,_,_,579,DET,Pd-nsa,det
578,3228-3236,podjetje,_,_,*->12-18,*[12],_,576,NOUN,Ncnsa,nmod
579,3237-3238,",",_,_,_,_,_,587,PUNCT,Z,punct
580,3239-3241,ki,_,_,_,_,_,587,SCONJ,Cs,mark
581,3242-3244,biti,_,_,_,_,_,587,AUX,Va-r3p-n,aux
582,3245-3247,on,_,_,*->12-19,*[12],_,587,PRON,Pp3msa--y,obj
583,3248-3249,v,_,_,_,_,_,586,ADP,Sa,case
584,3250-3257,nastal,_,_,_,_,_,586,ADJ,Appfsa,amod
585,3258-3267,situacija,_,_,_,_,_,587,NOUN,Ncfsa,obl
586,3268-3277,potisniti,_,_,_,_,_,579,VERB,Vmep-pf,acl
587,3278-3280,ne,_,_,_,_,_,591,PART,Q,cc:preconj
588,3281-3283,le,_,_,_,_,_,588,PART,Q,fixed
589,3284-3293,zaostren,_,_,_,_,_,591,ADJ,Agpfpn,amod
590,3294-3301,razmera,_,_,_,_,_,587,NOUN,Ncfpn,nsubj
591,3302-3303,v,_,_,_,_,_,596,ADP,Sl,case
592,3304-3314,slovenski,_,_,_,_,_,596,ADJ,Agpnsl,amod
593,3315-3317,in,_,_,_,_,_,595,CCONJ,Cc,cc
594,3318-3327,svetoven,_,_,_,_,_,593,ADJ,Agpnsl,conj
595,3328-3340,gospodarstvo,_,_,_,_,_,591,NOUN,Ncnsl,nmod
596,3341-3342,",",_,_,_,_,_,602,PUNCT,Z,punct
597,3343-3346,pač,_,_,_,_,_,602,PART,Q,mark
598,3347-3349,pa,_,_,_,_,_,598,CCONJ,Cc,fixed
599,3350-3358,predvsem,_,_,_,_,_,602,PART,Q,advmod
600,3359-3364,slab,_,_,_,_,_,602,ADJ,Agpnsn,amod
601,3365-3372,vodenje,_,_,_,_,_,591,NOUN,Ncnsn,conj
602,3373-3379,družba,_,_,*->12-20,*[12],_,602,NOUN,Ncfsg,nmod
603,3380-3381,v,_,_,_,_,_,605,ADP,Sl,case
604,3382-3393,preteklost,_,_,_,_,_,603,NOUN,Ncfsl,nmod
605,3394-3395,",",_,_,_,_,_,602,PUNCT,Z,punct
606,3396-3398,biti,_,_,*->11-5,*[11],_,608,AUX,Va-r3s-n,aux
607,3399-3404,dejati,_,_,*->11-5,*[11],_,1,VERB,Vmep-sm,parataxis
608,3405-3406,.,_,_,_,_,_,608,PUNCT,Z,punct
609,3407-3414,zmotiti,_,_,_,_,_,608,VERB,Vmep-sn,conj
610,3415-3417,on,_,_,*->11-6,*[11],_,610,PRON,Pp3msa--y,obj
611,3418-3420,biti,_,_,_,_,_,610,AUX,Va-r3s-n,aux
612,3421-3425,tudi,_,_,_,_,_,610,PART,Q,advmod
613,3426-3428,po,_,_,_,_,_,616,ADP,Sl,case
614,3429-3437,njegov,_,_,*->11-7,*[11],_,616,DET,Ps3nslsm,det
615,3438-3444,mnenje,_,_,_,_,_,617,NOUN,Ncnsl,nmod
616,3445-3456,neodgovoren,_,_,_,_,_,618,ADJ,Agpnsn,amod
617,3457-3467,prelaganje,_,_,_,_,_,610,NOUN,Ncnsn,nsubj
618,3468-3479,pričakovanje,_,_,_,_,_,618,NOUN,Ncnpg,nmod
619,3480-3482,na,_,_,_,_,_,621,ADP,Sa,case
620,3483-3489,uprava,_,_,_,_,_,619,NOUN,Ncfsa,nmod
621,3490-3492,in,_,_,_,_,_,623,CCONJ,Cc,cc
622,3493-3503,nadzornik,_,_,_,_,_,621,NOUN,Ncmpa,conj
623,3504-3508,Mura,ORG,_,*->12-21,*[12],_,623,PROPN,Npfsg,nmod
624,3509-3510,.,_,_,_,_,_,602,PUNCT,Z,punct
625,3511-3520,popolnoma,_,_,_,_,_,627,ADV,Rgp,advmod
626,3521-3535,nesprejemljiv,_,_,_,_,_,630,ADJ,Agpnsn,xcomp
627,3536-3538,se,_,_,_,_,_,630,PRON,Px------y,expl
628,3539-3541,jaz,_,_,*->11-8,*[11],_,630,PRON,Pp1-sd--y,obj
629,3542-3545,zdeti,_,_,_,_,_,1,VERB,Vmpr3s,parataxis
630,3546-3547,",",_,_,_,_,_,639,PUNCT,Z,punct
631,3548-3550,da,_,_,_,_,_,639,SCONJ,Cs,mark
632,3551-3558,vodilen,_,_,_,_,_,634,ADJ,Agpmpn,amod
633,3559-3565,človek,_,_,_,_,_,639,NOUN,Ncmpn,nsubj
634,3566-3573,drug,_,_,_,_,_,637,ADJ,Mlpmsg,amod
635,3574-3584,velik,_,_,_,_,_,637,ADJ,Agsmsg,amod
636,3585-3593,lastnik,_,_,_,_,_,634,NOUN,Ncmsg,nmod
637,3594-3598,Mura,PER,_,*->12-22,*[12],_,637,PROPN,Npfsg,nmod
638,3599-3607,izjaviti,_,_,_,_,_,630,VERB,Vmer3p,csubj
639,3608-3611,kaj,_,_,_,_,_,639,PRON,Pq-nsa,obj
640,3612-3618,tak,_,_,_,_,_,640,DET,Pd-nsg,nmod
641,3619-3620,.,_,_,_,_,_,630,PUNCT,Z,punct
642,3621-3623,ta,_,_,_,_,_,645,DET,Pd-nsn,nsubj
643,3624-3634,pravzaprav,_,_,_,_,_,645,PART,Q,advmod
644,3635-3641,pomeniti,_,_,_,_,_,630,VERB,Vmbr3s,vocative
645,3642-3643,",",_,_,_,_,_,649,PUNCT,Z,punct
646,3644-3646,da,_,_,_,_,_,649,SCONJ,Cs,mark
647,3647-3649,biti,_,_,_,_,_,649,AUX,Va-r3p-n,cop
648,3650-3662,pripravljen,_,_,_,_,_,645,ADJ,Appmpn,ccomp
649,3663-3670,pustiti,_,_,_,_,_,649,VERB,Vmen,ccomp
650,3671-3676,svoj,_,_,_,_,_,652,DET,Px-fsa,det
651,3677-3685,lastnina,_,_,_,_,_,650,NOUN,Ncfsa,obj
652,3686-3687,",",_,_,_,_,_,655,PUNCT,Z,punct
653,3688-3690,da,_,_,_,_,_,655,SCONJ,Cs,mark
654,3691-3698,propasti,_,_,_,_,_,652,VERB,Vmer3s,acl
655,3699-3700,.,_,_,_,_,_,645,PUNCT,Z,punct
656,3701-3704,čas,_,_,_,_,_,645,NOUN,Ncmsn,nsubj
657,3705-3707,biti,_,_,_,_,_,657,AUX,Va-r3s-n,cop
658,3708-3709,",",_,_,_,_,_,662,PUNCT,Z,punct
659,3710-3712,da,_,_,_,_,_,662,SCONJ,Cs,mark
660,3713-3715,se,_,_,_,_,_,664,PRON,Px------y,expl
661,3716-3721,začeti,_,_,_,_,_,655,VERB,Vmer3s,ccomp
662,3722-3728,država,_,_,_,_,_,662,NOUN,Ncfsn,nsubj
663,3729-3737,obnašati,_,_,_,_,_,662,VERB,Vmpn,xcomp
664,3738-3747,odgovoren,_,_,_,_,_,664,ADJ,Agpnsa,obj
665,3748-3750,do,_,_,_,_,_,669,ADP,Sg,case
666,3751-3758,svoj,_,_,_,_,_,669,DET,Px-nsg,det
667,3759-3767,lasten,_,_,_,_,_,669,ADJ,Agpnsg,amod
668,3768-3778,premoženje,_,_,_,_,_,665,NOUN,Ncnsg,nmod
669,3779-3781,in,_,_,_,_,_,672,CCONJ,Cc,cc
670,3782-3784,da,_,_,_,_,_,672,SCONJ,Cs,mark
671,3785-3792,potegniti,_,_,_,_,_,664,VERB,Vmer3s,conj
672,3793-3798,resen,_,_,_,_,_,674,ADJ,Agpfpa,amod
673,3799-3805,poteza,_,_,_,_,_,672,NOUN,Ncfpa,obj
674,3806-3810,tako,_,_,_,_,_,677,ADV,Rgp,advmod
675,3811-3812,v,_,_,_,_,_,677,ADP,Sl,case
676,3813-3818,zveza,_,_,_,_,_,672,NOUN,Ncfsl,obl
677,3819-3820,z,_,_,_,_,_,679,ADP,Si,case
678,3821-3830,podjetje,_,_,*->12-23,*[12],_,677,NOUN,Ncnsi,nmod
679,3831-3835,Mura,ORG,_,*->12-23,*[12],_,679,PROPN,Npfsn,nmod
680,3836-3839,kot,_,_,_,_,_,686,SCONJ,Cs,case
681,3840-3842,še,_,_,_,_,_,672,PART,Q,advmod
682,3843-3844,z,_,_,_,_,_,686,ADP,Si,case
683,3845-3857,marsikateri,_,_,_,_,_,686,DET,Pi-nsi,det
684,3858-3864,drug,_,_,_,_,_,686,ADJ,Mlpnsi,amod
685,3865-3874,podjetje,_,_,_,_,_,679,NOUN,Ncnsi,nmod
686,3875-3876,v,_,_,_,_,_,689,ADP,Sl,case
687,3877-3882,njen,_,_,_,_,_,689,DET,Ps3fslsf,det
688,3883-3888,last,_,_,_,_,_,686,NOUN,Ncfsl,nmod
689,3889-3890,",",_,_,_,_,_,696,PUNCT,Z,punct
690,3891-3895,meniti,_,_,_,_,_,696,VERB,Vmpr3s,conj
691,3896-3902,Žerjav,PER,_,*->11-9,*[11],_,691,PROPN,Npmsn,nsubj
692,3903-3904,.,_,_,_,_,_,691,PUNCT,Z,punct
693,3905-3910,sedaj,_,_,_,_,_,696,ADV,Rgp,advmod
694,3911-3913,biti,_,_,_,_,_,696,AUX,Va-r3s-n,aux
695,3914-3923,september,_,_,_,_,_,645,NOUN,Ncmsan,parataxis
696,3924-3925,.,_,_,_,_,_,691,PUNCT,Z,punct
697,3926-3928,na,_,_,_,_,_,700,ADP,Sa,case
698,3929-3936,časovno,_,_,_,_,_,700,ADJ,Agpfsa,amod
699,3937-3942,bomba,_,_,_,_,_,696,NOUN,Ncfsa,obl
700,3943-3944,",",_,_,_,_,_,704,PUNCT,Z,punct
701,3945-3947,ki,_,_,_,_,_,704,SCONJ,Cs,mark
702,3948-3950,biti,_,_,_,_,_,704,AUX,Va-r3s-n,cop
703,3951-3955,Mura,ORG,_,*->12-24,*[12],_,700,PROPN,Npfsn,acl
704,3956-3957,",",_,_,_,_,_,704,PUNCT,Z,punct
705,3958-3961,biti,_,_,*->11-10,*[11],_,707,AUX,Va-r1s-n,aux
706,3962-3971,opozarjati,_,_,*->11-10,*[11],_,696,VERB,Vmpp-sm,acl
707,3972-3974,že,_,_,_,_,_,707,PART,Q,advmod
708,3975-3983,januar,_,_,_,_,_,707,NOUN,Ncmsg,obl
709,3984-3985,.,_,_,_,_,_,704,PUNCT,Z,punct
710,3986-3992,Junij,_,_,_,_,_,713,PROPN,Npmsg,obl
711,3993-3995,biti,_,_,_,_,_,713,AUX,Va-r3s-n,aux
712,3996-4002,počiti,_,_,_,_,_,696,VERB,Vmep-sn,parataxis
713,4003-4005,in,_,_,_,_,_,721,CCONJ,Cc,cc
714,4006-4011,slab,_,_,_,_,_,717,ADJ,Agpmpa,amod
715,4012-4015,trije,_,_,_,_,_,717,NUM,Mlcmpa,nummod
716,4016-4022,mesec,_,_,_,_,_,718,NOUN,Ncmpa,nmod
717,4023-4030,kasno,_,_,_,_,_,721,ADV,Rgc,advmod
718,4031-4033,še,_,_,_,_,_,721,PART,Q,advmod
719,4034-4039,vedno,_,_,_,_,_,721,ADV,Rgp,advmod
720,4040-4046,imeti,_,_,_,_,_,713,VERB,Vmpr1p-y,csubj
721,4047-4054,rešitev,_,_,_,_,_,721,NOUN,Ncfsg,obj
722,4055-4057,za,_,_,_,_,_,725,ADP,Sa,case
723,4058-4060,ta,_,_,_,_,_,725,DET,Pd-nsa,det
724,4061-4069,podjetje,_,_,*->12-25,*[12],_,722,NOUN,Ncnsa,nmod
725,4070-4071,",",_,_,_,_,_,729,PUNCT,Z,punct
726,4072-4077,kljub,_,_,_,_,_,729,ADP,Sd,case
727,4078-4082,ves,_,_,_,_,_,729,DET,Pg-mpd,det
728,4083-4090,poziv,_,_,_,_,_,732,NOUN,Ncmpd,conj
729,4091-4092,",",_,_,_,_,_,731,PUNCT,Z,punct
730,4093-4102,ponujen,_,_,_,_,_,729,ADJ,Appmpd,amod
731,4103-4112,predlog,_,_,_,_,_,725,NOUN,Ncmpd,conj
732,4113-4115,in,_,_,_,_,_,734,CCONJ,Cc,cc
733,4116-4124,rešitev,_,_,_,_,_,732,NOUN,Ncfpd,conj
734,4125-4126,.,_,_,_,_,_,696,PUNCT,Z,punct
735,4127-4133,zanimati,_,_,_,_,_,729,VERB,Vmpr3s,conj
736,4134-4136,jaz,_,2,*->11-11,*[11],2 - Negativno,736,PRON,Pp1-sa--y,obj
737,4137-4138,",",_,_,_,_,_,740,PUNCT,Z,punct
738,4139-4142,kaj,_,_,_,_,_,740,PRON,Pq-nsa,obj
739,4143-4151,nameravati,_,_,_,_,_,736,VERB,Vmpr3s,csubj
740,4152-4158,država,_,_,_,_,_,740,NOUN,Ncfsn,nsubj
741,4159-4162,kot,_,_,_,_,_,745,SCONJ,Cs,case
742,4163-4168,drug,_,_,_,_,_,745,ADJ,Mlpmsny,amod
743,4169-4177,velik,_,_,_,_,_,745,ADJ,Agsmsny,amod
744,4178-4185,lastnik,_,_,_,_,_,741,NOUN,Ncmsn,obl
745,4186-4193,storiti,_,_,_,_,_,740,VERB,Vmen,xcomp
746,4194-4195,z,_,_,_,_,_,748,ADP,Si,case
747,4196-4200,Mura,ORG,_,*->12-26,*[12],_,746,PROPN,Npfsi,obl
748,4201-4202,?,_,_,_,_,_,753,PUNCT,Z,punct
749,4203-4206,ali,_,_,_,_,_,753,ADV,Rgp,mark
750,4207-4209,biti,_,_,_,_,_,753,AUX,Va-f3s-n,aux
751,4210-4213,res,_,_,_,_,_,753,ADV,Rgp,advmod
752,4214-4224,predlagati,_,_,_,_,_,746,VERB,Vmbp-sf,advcl
753,4225-4234,slabek,_,_,_,_,_,756,ADJ,Agsfsa,amod
754,4235-4240,možen,_,_,_,_,_,756,ADJ,Agpfsa,amod
755,4241-4248,rešitev,_,_,_,_,_,753,NOUN,Ncfsa,obj
756,4249-4255,stečaj,_,_,_,_,_,756,NOUN,Ncmsn,nmod
757,4256-4257,?,_,_,_,_,_,740,PUNCT,Z,punct
758,4258-4264,stečaj,_,_,_,_,_,736,NOUN,Ncmsn,nsubj
759,4265-4266,?,_,_,_,_,_,753,PUNCT,Z,punct
760,4267-4270,vse,_,_,_,_,_,762,ADV,Rgp,advmod
761,4271-4275,bolj,_,_,_,_,_,763,ADV,Rgc,advmod
762,4276-4280,kazati,_,_,_,_,_,753,VERB,Vmpr3s,conj
763,4281-4282,",",_,_,_,_,_,770,PUNCT,Z,punct
764,4283-4285,da,_,_,_,_,_,770,SCONJ,Cs,mark
765,4286-4288,se,_,_,_,_,_,770,PRON,Px------y,expl
766,4289-4291,biti,_,_,_,_,_,770,AUX,Va-f3s-n,aux
767,4292-4294,ta,_,_,_,_,_,770,DET,Pd-nsn,nsubj
768,4295-4300,zares,_,_,_,_,_,770,ADV,Rgp,advmod
769,4301-4308,zgoditi,_,_,_,_,_,763,VERB,Vmep-sn,csubj
770,4309-4310,.,_,_,_,_,_,763,PUNCT,Z,punct
771,4311-4315,Mura,ORG,_,*->12-27,*[12],_,779,PROPN,Npfsn,nsubj
772,4316-4318,biti,_,_,_,_,_,779,AUX,Va-r3s-n,aux
773,4319-4325,namreč,_,_,_,_,_,779,CCONJ,Cc,advmod
774,4326-4330,tudi,_,_,_,_,_,779,PART,Q,advmod
775,4331-4333,po,_,_,_,_,_,778,ADP,Sl,case
776,4334-4347,ponedeljkov,_,_,_,_,_,778,ADJ,Aspnpl,amod
777,4348-4358,pogajanje,_,_,_,_,_,779,NOUN,Ncnpl,obl
778,4359-4365,ostati,_,_,_,_,_,770,VERB,Vmep-sf,conj
779,4366-4370,brez,_,_,_,_,_,781,ADP,Sg,case
780,4371-4378,denar,_,_,_,_,_,779,NOUN,Ncmsg,obl
781,4379-4380,.,_,_,_,_,_,779,PUNCT,Z,punct
782,4381-4392,skrivnosten,_,_,_,_,_,784,ADJ,Agpfsn,amod
783,4393-4400,skupina,_,_,_,_,_,793,NOUN,Ncfsn,nsubj
784,4401-4406,tuj,_,_,_,_,_,788,ADJ,Agpmpg,amod
785,4407-4409,in,_,_,_,_,_,787,CCONJ,Cc,cc
786,4410-4417,domač,_,_,_,_,_,785,ADJ,Agpmpg,conj
787,4418-4429,vlagatelj,_,_,_,_,_,784,NOUN,Ncmpg,nmod
788,4430-4432,biti,_,_,_,_,_,793,AUX,Va-r3s-n,aux
789,4433-4435,od,_,_,_,_,_,791,ADP,Sg,case
790,4436-4445,reševanje,_,_,_,_,_,793,NOUN,Ncnsg,obl
791,4446-4452,družba,_,_,*->12-28,*[12],_,791,NOUN,Ncfsg,nmod
792,4453-4462,odstopiti,_,_,_,_,_,779,VERB,Vmep-sf,conj
793,4463-4464,",",_,_,_,_,_,798,PUNCT,Z,punct
794,4465-4468,pri,_,_,_,_,_,796,ADP,Sl,case
795,4469-4474,kar,_,_,_,_,_,798,PRON,Pr-nsl,obl
796,4475-4477,biti,_,_,_,_,_,798,AUX,Va-r3p-n,aux
797,4478-4485,navesti,_,_,_,_,_,793,VERB,Vmep-pm,advcl
798,4486-4493,podoben,_,_,_,_,_,800,ADJ,Agpmsan,amod
799,4494-4500,razlog,_,_,_,_,_,798,NOUN,Ncmsan,obj
800,4501-4504,kot,_,_,_,_,_,802,SCONJ,Cs,case
801,4505-4510,tisti,_,_,_,_,_,800,DET,Pd-mpn,obl
802,4511-4512,",",_,_,_,_,_,808,PUNCT,Z,punct
803,4513-4515,ki,_,_,_,_,_,808,SCONJ,Cs,mark
804,4516-4518,biti,_,_,_,_,_,808,AUX,Va-r3p-n,aux
805,4519-4522,nad,_,_,_,_,_,807,ADP,Si,case
806,4523-4527,Mura,ORG,2,*->12-29,*[12],2 - Negativno,808,PROPN,Npfsi,obl
807,4528-4535,obupati,_,_,_,_,_,802,VERB,Vmep-pm,acl
808,4536-4540,pred,_,_,_,_,_,810,ADP,Si,case
809,4541-4546,on,_,_,_,_,_,808,PRON,Pp3mpi,obl
810,4547-4556,prevelik,_,_,_,_,_,815,ADJ,Agpnpn,amod
811,4557-4565,finančen,_,_,_,_,_,815,ADJ,Agpnpn,amod
812,4566-4568,in,_,_,_,_,_,814,CCONJ,Cc,cc
813,4569-4575,praven,_,_,_,_,_,812,ADJ,Agpnpn,conj
814,4576-4584,tveganje,_,_,_,_,_,808,NOUN,Ncnpn,nsubj
815,4585-4586,.,_,_,_,_,_,798,PUNCT,Z,punct
816,4587-4593,država,_,_,_,_,_,822,NOUN,Ncfsn,nsubj
817,4594-4605,vlagatelj,_,_,_,_,_,817,NOUN,Ncmpg,nmod
818,4606-4608,ne,_,_,_,_,_,822,PART,Q,advmod
819,4609-4611,biti,_,_,_,_,_,822,AUX,Va-f3s-n,aux
820,4612-4615,več,_,_,_,_,_,822,PART,Q,advmod
821,4616-4622,iskati,_,_,_,_,_,808,VERB,Vmpp-sf,conj
822,4623-4624,.,_,_,_,_,_,822,PUNCT,Z,punct
823,4625-4628,sod,ORG,_,*->9-6,*[9],_,828,NOUN,Ncmsn,nsubj
824,4629-4631,biti,_,_,_,_,_,828,AUX,Va-r3s-n,aux
825,4632-4634,le,_,_,_,_,_,828,PART,Q,advmod
826,4635-4637,še,_,_,_,_,_,828,PART,Q,advmod
827,4638-4647,zagotoviti,_,_,_,_,_,822,VERB,Vmep-sm,conj
828,4648-4653,plača,_,_,_,_,_,828,NOUN,Ncfpa,obj
829,4654-4656,za,_,_,_,_,_,831,ADP,Sa,case
830,4657-4663,avgust,_,_,_,_,_,829,NOUN,Ncmsan,nmod
831,4664-4665,",",_,_,_,_,_,828,PUNCT,Z,punct
832,4666-4671,potem,_,_,_,_,_,837,ADV,Rgp,advmod
833,4672-4674,pa,_,_,_,_,_,833,CCONJ,Cc,fixed
834,4675-4677,od,_,_,_,_,_,836,ADP,Sg,case
835,4678-4684,uprava,_,_,_,_,_,837,NOUN,Ncfsg,obl
836,4685-4694,pričakovati,_,0,*->9-7,*[9],3 - Nevtralno,828,VERB,Vmpr3s,advcl
837,4695-4696,",",_,_,_,_,_,841,PUNCT,Z,punct
838,4697-4699,da,_,_,_,_,_,841,SCONJ,Cs,mark
839,4700-4705,zame,_,_,_,_,_,841,PRON,Pp3mpa--b,obj
840,4706-4713,poskrbeti,_,_,_,_,_,837,VERB,Vmer3s,ccomp
841,4714-4718,sam,_,_,_,_,_,841,ADJ,Agpfsn,obl
842,4719-4722,ali,_,_,_,_,_,845,CCONJ,Cc,cc
843,4723-4725,da,_,_,_,_,_,845,SCONJ,Cs,mark
844,4726-4731,ravnati,_,_,_,_,_,841,VERB,Vmpr3s,conj
845,4732-4733,v,_,_,_,_,_,847,ADP,Sl,case
846,4734-4740,sklad,_,_,_,_,_,845,NOUN,Ncmsl,obl
847,4741-4742,z,_,_,_,_,_,849,ADP,Si,case
848,4743-4750,zakon,_,_,_,_,_,847,NOUN,Ncmsi,nmod
849,4751-4752,",",_,_,_,_,_,853,PUNCT,Z,punct
850,4753-4756,kar,_,_,_,_,_,853,PRON,Pr-nsn,nsubj
851,4757-4763,najbrž,_,_,_,_,_,853,PART,Q,advmod
852,4764-4770,pomeniti,_,_,_,_,_,849,VERB,Vmbr3s,acl
853,4771-4773,če,_,_,_,_,_,860,SCONJ,Cs,mark
854,4774-4782,sredstvo,_,_,_,_,_,853,NOUN,Ncnpg,obj
855,4783-4785,ne,_,_,_,_,_,853,PART,Q,advmod
856,4786-4788,biti,_,_,_,_,_,853,AUX,Va-f3s-n,aux
857,4789-4790,",",_,_,_,_,_,853,PUNCT,Z,punct
858,4791-4793,biti,_,_,_,_,_,860,AUX,Va-f3s-n,aux
859,4794-4800,morati,_,_,_,_,_,853,VERB,Vmpp-sf,advcl
860,4801-4811,predlagati,_,_,_,_,_,860,VERB,Vmbn,xcomp
861,4812-4818,stečaj,_,_,_,_,_,861,NOUN,Ncmsan,obj
