idx,chars_idx,token,entity_type,sentiment,idk_1,idk_2,orig_sentiment,heads,upos,xpos,deprel
0,0-4,cena,_,_,_,_,_,4,NOUN,Ncfpn,root
1,5-7,biti,_,_,_,_,_,4,AUX,Va-r3p-n,aux
2,8-12,spet,_,_,_,_,_,4,ADV,Rgp,advmod
3,13-22,poskočiti,_,_,_,_,_,0,VERB,Vmep-pf,root
4,23-26,pri,_,_,_,_,_,6,ADP,Sl,case
5,27-32,hrana,_,_,_,_,_,4,NOUN,Ncfsl,obl
6,33-34,",",_,_,_,_,_,16,PUNCT,Z,punct
7,35-41,tokrat,_,_,_,_,_,16,ADV,Rgp,advmod
8,42-45,pri,_,_,_,_,_,10,ADP,Sl,case
9,46-54,maščoba,_,_,_,_,_,16,NOUN,Ncfpl,obl
10,55-56,",",_,_,_,_,_,12,PUNCT,Z,punct
11,57-62,sadje,_,_,_,_,_,10,NOUN,Ncnsl,conj
12,63-65,in,_,_,_,_,_,14,CCONJ,Cc,cc
13,66-75,zelenjava,_,_,_,_,_,10,NOUN,Ncfsl,conj
14,76-77,.,_,_,_,_,_,16,PUNCT,Z,punct
15,78-84,drag,_,_,_,_,_,4,ADJ,Agcfsn,parataxis
16,85-87,biti,_,_,_,_,_,16,AUX,Va-r3s-n,cop
17,88-92,tudi,_,_,_,_,_,16,PART,Q,advmod
18,93-103,rekreacija,_,_,_,_,_,16,NOUN,Ncfsn,nsubj
19,104-105,",",_,_,_,_,_,21,PUNCT,Z,punct
20,106-116,telefonija,_,_,_,_,_,19,NOUN,Ncfsn,conj
21,117-119,in,_,_,_,_,_,23,CCONJ,Cc,cc
22,120-128,internet,_,_,_,_,_,19,NOUN,Ncmsn,conj
23,129-130,.,_,_,_,_,_,16,PUNCT,Z,punct
24,131-139,poslanec,_,_,*->1-1,*[1],_,32,NOUN,Ncmsn,nsubj
25,140-142,SD,ORG,_,*->1-1|*->2-1,*[1]|*[2],_,25,PROPN,Npmsn,nmod
26,143-148,Milan,PER[1],_,*->1-1,*[1],_,25,PROPN,Npmsn,nmod
27,149-150,M,PER[1],_,*->1-1,*[1],_,27,PROPN,Npmsn,flat:name
28,151-152,.,PER[1],_,*->1-1,*[1],_,32,PUNCT,Z,punct
29,153-158,Cvikl,PER[1],_,*->1-1,*[1],_,32,PROPN,Npmsn,nsubj
30,159-161,biti,_,_,_,_,_,32,AUX,Va-r3s-n,aux
31,162-170,opozoriti,_,_,_,_,_,4,VERB,Vmep-sm,parataxis
32,171-173,na,_,_,_,_,_,36,ADP,Sa,case
33,174-177,dva,_,_,_,_,_,36,NUM,Mlcmda,nummod
34,178-184,velik,_,_,_,_,_,36,ADJ,Agpmda,amod
35,185-193,problem,_,_,_,_,_,32,NOUN,Ncmda,obl
36,194-195,",",_,_,_,_,_,40,PUNCT,Z,punct
37,196-198,ta,_,_,_,_,_,40,DET,Pd-nsn,nsubj
38,199-202,biti,_,_,_,_,_,40,AUX,Va-r3d-n,cop
39,203-212,inflacija,_,_,_,_,_,32,NOUN,Ncfsn,nsubj
40,213-215,in,_,_,_,_,_,43,CCONJ,Cc,cc
41,216-222,visok,_,_,_,_,_,43,ADJ,Agpfsn,amod
42,223-227,rast,_,_,_,_,_,40,NOUN,Ncfsn,conj
43,228-233,bruto,_,_,_,_,_,45,ADJ,Agpnsg,amod
44,234-246,zadolževanje,_,_,_,_,_,43,NOUN,Ncnsg,nmod
45,247-256,Slovenija,ORG,_,*->6-1,*[6],_,45,PROPN,Npfsg,nmod
46,257-258,v,_,_,_,_,_,48,ADP,Sl,case
47,259-265,celota,_,_,_,_,_,45,NOUN,Ncfsl,nmod
48,266-267,.,_,_,_,_,_,40,PUNCT,Z,punct
49,268-270,ta,_,_,_,_,_,52,DET,Pd-mdn,det
50,271-274,dva,_,_,_,_,_,52,NUM,Mlcmdn,nummod
51,275-284,dejavnik,_,_,_,_,_,54,NOUN,Ncmdn,nsubj
52,285-288,biti,_,_,_,_,_,54,AUX,Va-r3d-n,cop
53,289-297,povezan,_,_,_,_,_,4,ADJ,Appmdn,parataxis
54,298-299,z,_,_,_,_,_,56,ADP,Si,case
55,300-307,način,_,_,_,_,_,54,NOUN,Ncmsi,obl
56,308-319,upravljanje,_,_,_,_,_,56,NOUN,Ncnsg,nmod
57,320-329,slovenski,_,_,*->6-2,*[6],_,59,ADJ,Agpfsg,amod
58,330-336,država,_,_,*->6-2,*[6],_,57,NOUN,Ncfsg,nmod
59,337-338,",",_,_,_,_,_,67,PUNCT,Z,punct
60,339-341,ki,_,_,_,_,_,67,SCONJ,Cs,mark
61,342-344,biti,_,_,_,_,_,67,AUX,Va-r3s-n,aux
62,345-346,z,_,_,_,_,_,65,ADP,Si,case
63,347-358,četrtkov,_,_,_,_,_,65,ADJ,Aspmpi,amod
64,359-365,ukrep,_,_,_,_,_,67,NOUN,Ncmpi,obl
65,366-371,vlada,_,_,_,_,_,65,NOUN,Ncfsg,nmod
66,372-379,doživeti,_,_,_,_,_,59,VERB,Vmep-sm,acl
67,380-388,pomemben,_,_,_,_,_,69,ADJ,Agpmsan,amod
68,389-397,preobrat,_,_,_,_,_,67,NOUN,Ncmsan,obj
69,398-399,.,_,_,_,_,_,67,PUNCT,Z,punct
70,400-405,veljati,_,_,_,_,_,54,VERB,Vmpr3s,root
71,406-412,namreč,_,_,_,_,_,71,CCONJ,Cc,advmod
72,413-421,povedati,_,_,_,_,_,71,VERB,Vmen,xcomp
73,422-423,",",_,_,_,_,_,78,PUNCT,Z,punct
74,424-426,da,_,_,_,_,_,78,SCONJ,Cs,mark
75,427-429,biti,_,_,_,_,_,78,AUX,Va-r3s-y,cop
76,430-433,ves,_,_,_,_,_,78,DET,Pg-nsn,nsubj
77,434-439,zlat,_,_,_,_,_,73,ADJ,Agpnsn,ccomp
78,440-441,",",_,_,_,_,_,82,PUNCT,Z,punct
79,442-445,kar,_,_,_,_,_,82,PRON,Pr-nsn,nsubj
80,446-448,se,_,_,_,_,_,82,PRON,Px------y,expl
81,449-454,svet,_,_,_,_,_,78,VERB,Vmpr3s,csubj
82,455-456,",",_,_,_,_,_,82,PUNCT,Z,punct
83,457-459,in,_,_,_,_,_,85,CCONJ,Cc,cc
84,460-469,opozoriti,_,_,_,_,_,73,VERB,Vmen,conj
85,470-472,na,_,_,_,_,_,87,ADP,Sa,case
86,473-481,problem,_,_,_,_,_,85,NOUN,Ncmpa,obl
87,482-483,",",_,_,_,_,_,91,PUNCT,Z,punct
88,484-486,ki,_,_,_,_,_,91,SCONJ,Cs,mark
89,487-489,biti,_,_,_,_,_,91,AUX,Va-r3p-n,cop
90,490-496,skrit,_,_,_,_,_,87,ADJ,Appmpn,acl
91,497-500,pod,_,_,_,_,_,93,ADP,Si,case
92,501-509,bleščica,_,_,_,_,_,91,NOUN,Ncfsa,obl
93,510-518,površina,_,_,_,_,_,93,NOUN,Ncfsg,nmod
94,519-521,in,_,_,_,_,_,96,CCONJ,Cc,cc
95,522-528,skrit,_,_,_,_,_,94,ADJ,Appmpn,amod
96,529-532,pod,_,_,_,_,_,98,ADP,Si,case
97,533-543,populizem,_,_,_,_,_,96,NOUN,Ncmsi,obl
98,544-554,četrtkov,_,_,_,_,_,100,ADJ,Aspmpg,amod
99,555-562,ukrep,_,_,_,_,_,98,NOUN,Ncmpg,nmod
100,563-564,",",_,_,_,_,_,91,PUNCT,Z,punct
101,565-567,biti,_,_,_,_,_,104,AUX,Va-r3s-n,aux
102,568-573,Cvikl,PER,_,*->1-2,*[1],_,104,PROPN,Npmsn,nsubj
103,574-584,komentirati,_,_,_,_,_,4,VERB,Vmbp-sm,parataxis
104,585-591,izjava,_,_,_,_,_,104,NOUN,Ncfpa,obj
105,592-603,predsednik,_,_,*->3-1,*[3],_,105,NOUN,Ncmsgy,nmod
106,604-609,vlada,_,_,*->3-1,*[3],_,106,NOUN,Ncfsg,nmod
107,610-616,Janez,PER[2],_,*->3-1,*[3],_,107,PROPN,Npmsg,nmod
108,617-622,Janše,PER[2],_,*->3-1,*[3],_,108,PROPN,Npmsg,flat:name
109,623-624,.,_,_,_,_,_,104,PUNCT,Z,punct
110,625-630,glede,_,_,_,_,_,112,ADP,Sg,case
111,631-639,presežek,_,_,_,_,_,104,NOUN,Ncmsg,obl
112,640-641,",",_,_,_,_,_,118,PUNCT,Z,punct
113,642-644,za,_,_,_,_,_,115,ADP,Sa,case
114,645-653,kateri,_,_,_,_,_,118,DET,Pq-msa,obl
115,654-659,Janez,PER[3],_,*->3-2,*[3],_,118,PROPN,Npmsn,nsubj
116,660-665,Janša,PER[3],_,*->3-2,*[3],_,116,PROPN,Npmsn,flat:name
117,666-671,praviti,_,_,_,_,_,112,VERB,Vmbr3s,acl
118,672-673,",",_,_,_,_,_,122,PUNCT,Z,punct
119,674-676,da,_,_,_,_,_,122,SCONJ,Cs,mark
120,677-679,biti,_,_,_,_,_,122,AUX,Va-r3s-n,cop
121,680-689,posledica,_,_,_,_,_,118,NOUN,Ncfsn,ccomp
122,690-701,varčevalen,_,_,_,_,_,124,ADJ,Agpmpg,amod
123,702-709,ukrep,_,_,_,_,_,122,NOUN,Ncmpg,nmod
124,710-711,",",_,_,_,_,_,127,PUNCT,Z,punct
125,712-718,majhen,_,_,_,_,_,127,ADJ,Agcfsg,amod
126,719-725,poraba,_,_,_,_,_,124,NOUN,Ncfsg,conj
127,726-728,po,_,_,_,_,_,129,ADP,Sl,case
128,729-741,ministrstvo,_,_,_,_,_,127,NOUN,Ncnpl,nmod
129,742-744,in,_,_,_,_,_,133,CCONJ,Cc,cc
130,745-750,visok,_,_,_,_,_,133,ADJ,Agcfsg,amod
131,751-762,gospodarski,_,_,_,_,_,133,ADJ,Agpfsg,amod
132,763-768,rast,_,_,_,_,_,129,NOUN,Ncfsn,conj
133,769-770,",",_,_,_,_,_,118,PUNCT,Z,punct
134,771-773,biti,_,_,_,_,_,137,AUX,Va-r3s-n,aux
135,774-779,Cvikl,PER,_,*->1-3,*[1],_,137,PROPN,Npmsn,nsubj
136,780-788,opozoriti,_,_,_,_,_,4,VERB,Vmep-sm,parataxis
137,789-790,",",_,_,_,_,_,142,PUNCT,Z,punct
138,791-793,da,_,_,_,_,_,142,SCONJ,Cs,mark
139,794-801,slednji,_,_,_,_,_,142,ADV,Rgp,advmod
140,802-807,sicer,_,_,_,_,_,142,PART,Q,advmod
141,808-812,držati,_,_,_,_,_,137,VERB,Vmpr3s,ccomp
142,813-814,",",_,_,_,_,_,142,PUNCT,Z,punct
143,815-820,ampak,_,_,_,_,_,146,CCONJ,Cc,cc
144,821-826,velik,_,_,_,_,_,146,ADJ,Agpmsnn,amod
145,827-834,problem,_,_,_,_,_,142,NOUN,Ncmsn,conj
146,835-837,biti,_,_,_,_,_,146,AUX,Va-r3s-n,cop
147,838-839,",",_,_,_,_,_,179,PUNCT,Z,punct
148,840-842,da,_,_,_,_,_,179,SCONJ,Cs,mark
149,843-845,biti,_,_,_,_,_,179,AUX,Va-r3s-n,aux
150,846-853,vsebina,_,_,_,_,_,146,NOUN,Ncfsn,nsubj
151,854-857,ta,_,_,_,_,_,154,DET,Pd-mpg,det
152,858-869,varčevalen,_,_,_,_,_,154,ADJ,Agpmpg,amod
153,870-877,ukrep,_,_,_,_,_,151,NOUN,Ncmpg,nmod
154,878-880,na,_,_,_,_,_,158,ADP,Sl,case
155,881-887,nizek,_,_,_,_,_,158,ADJ,Agcmpl,amod
156,888-897,socialen,_,_,_,_,_,158,ADJ,Agpmpl,amod
157,898-908,transfer,_,_,_,_,_,154,NOUN,Ncmpl,nmod
158,909-910,",",_,_,_,_,_,162,PUNCT,Z,punct
159,911-913,na,_,_,_,_,_,163,ADP,Sl,case
160,914-920,realno,_,_,_,_,_,162,ADV,Rgp,advmod
161,921-927,nizek,_,_,_,_,_,163,ADJ,Agcfpl,amod
162,928-938,pokojnina,_,_,_,_,_,158,NOUN,Ncfpl,appos
163,939-940,",",_,_,_,_,_,176,PUNCT,Z,punct
164,941-944,kar,_,_,_,_,_,163,PRON,Pr-nsn,nmod
165,945-947,ob,_,_,_,_,_,168,ADP,Sl,case
166,948-954,visok,_,_,_,_,_,168,ADJ,Agpfsl,amod
167,955-964,inflacija,_,_,_,_,_,176,NOUN,Ncfsl,obl
168,965-975,stotisoč,_,_,_,_,_,170,ADJ,Appmpd,amod
169,976-987,upokojenec,_,_,_,_,_,176,NOUN,Ncmpd,iobj
170,988-990,in,_,_,_,_,_,172,CCONJ,Cc,cc
171,991-1001,zaposlen,_,_,_,_,_,170,ADJ,Appmpd,conj
172,1002-1003,z,_,_,_,_,_,175,ADP,Si,case
173,1004-1013,nizek,_,_,_,_,_,175,ADJ,Agsmsi,amod
174,1014-1021,dohodek,_,_,_,_,_,176,NOUN,Ncmpi,obl
175,1022-1031,onemogočati,_,_,_,_,_,163,VERB,Vmpr3s,acl
176,1032-1042,preživetje,_,_,_,_,_,176,NOUN,Ncnsa,obj
177,1043-1044,.,_,_,_,_,_,176,PUNCT,Z,punct
178,1045-1050,imeti,_,_,*->6-3,*[6],_,146,VERB,Vmpr1p-n,csubj
179,1051-1053,13,_,_,_,_,_,182,NUM,Mdc,nummod
180,1054-1062,odstoten,_,_,_,_,_,182,ADJ,Agpfsa,amod
181,1063-1067,rast,_,_,_,_,_,179,NOUN,Ncfsa,obj
182,1068-1071,cena,_,_,_,_,_,182,NOUN,Ncfpg,nmod
183,1072-1077,hrana,_,_,_,_,_,183,NOUN,Ncfsg,nmod
184,1078-1079,",",_,_,_,_,_,176,PUNCT,Z,punct
185,1080-1085,imeti,_,_,*->6-4,*[6],_,176,VERB,Vmpr1p-n,conj
186,1086-1088,11,_,_,_,_,_,189,NUM,Mdc,nummod
187,1089-1097,odstoten,_,_,_,_,_,189,ADJ,Agpfsa,amod
188,1098-1102,rast,_,_,_,_,_,186,NOUN,Ncfsa,obj
189,1103-1108,javen,_,_,_,_,_,191,ADJ,Agpfsg,amod
190,1109-1115,poraba,_,_,_,_,_,189,NOUN,Ncfsg,nmod
191,1116-1118,za,_,_,_,_,_,193,ADP,Sa,case
192,1119-1123,leto,_,_,_,_,_,191,NOUN,Ncnsa,nmod
193,1124-1128,2008,_,_,_,_,_,193,NUM,Mdc,nummod
194,1129-1131,in,_,_,_,_,_,196,CCONJ,Cc,cc
195,1132-1137,imeti,_,_,*->6-5,*[6],_,186,VERB,Vmpr1p-n,conj
196,1138-1140,le,_,_,_,_,_,196,PART,Q,advmod
197,1141-1146,nekaj,_,_,_,_,_,200,DET,Rgp,det
198,1147-1155,odstoten,_,_,_,_,_,200,ADJ,Agpfsa,amod
199,1156-1160,rast,_,_,_,_,_,196,NOUN,Ncfsa,obj
200,1161-1171,minimalen,_,_,_,_,_,202,ADJ,Agpfpg,amod
201,1172-1176,plača,_,_,_,_,_,200,NOUN,Ncfpg,nmod
202,1177-1179,in,_,_,_,_,_,204,CCONJ,Cc,cc
203,1180-1185,imeti,_,_,*->6-6,*[6],_,196,VERB,Vmpp-pm,conj
204,1186-1189,biti,_,_,_,_,_,204,AUX,Va-r1p-n,aux
205,1190-1191,2,_,_,_,_,_,208,NUM,Mdc,nummod
206,1192-1200,odstoten,_,_,_,_,_,208,ADJ,Agpfsa,amod
207,1201-1205,rast,_,_,_,_,_,204,NOUN,Ncfsa,obj
208,1206-1214,pokojnina,_,_,_,_,_,208,NOUN,Ncfpg,nmod
209,1215-1216,",",_,_,_,_,_,176,PUNCT,Z,punct
210,1217-1219,biti,_,_,_,_,_,214,AUX,Va-r3s-n,aux
211,1220-1222,ob,_,_,_,_,_,213,ADP,Sl,case
212,1223-1226,ta,_,_,_,_,_,214,DET,Pd-nsl,obl
213,1227-1236,ponazoriti,_,_,*->1-4,*[1],_,4,VERB,Vmep-sm,parataxis
214,1237-1238,z,_,_,_,_,_,217,ADP,Si,case
215,1239-1254,zaskrbljujoč,_,_,_,_,_,217,ADJ,Appfpi,amod
216,1255-1265,številka,_,_,_,_,_,214,NOUN,Ncfpi,obl
217,1266-1268,in,_,_,_,_,_,221,CCONJ,Cc,cc
218,1269-1271,ob,_,_,_,_,_,220,ADP,Sl,case
219,1272-1275,ta,_,_,_,_,_,221,DET,Pd-nsl,obl
220,1276-1281,dejati,_,_,*->1-5,*[1],_,214,VERB,Vmep-sm,conj
221,1282-1283,",",_,_,_,_,_,238,PUNCT,Z,punct
222,1284-1286,da,_,_,_,_,_,227,SCONJ,Cs,mark
223,1287-1289,ta,_,_,_,_,_,227,DET,Pd-nsn,nsubj
224,1290-1297,nikakor,_,_,_,_,_,227,ADV,Rgp,advmod
225,1298-1300,ne,_,_,_,_,_,227,PART,Q,advmod
226,1301-1305,voditi,_,_,_,_,_,221,VERB,Vmpr3s,ccomp
227,1306-1307,v,_,_,_,_,_,229,ADP,Sa,case
228,1308-1314,družba,_,_,_,_,_,227,NOUN,Ncfsa,obl
229,1315-1323,blaginja,_,_,_,_,_,229,NOUN,Ncfsg,nmod
230,1324-1325,",",_,_,_,_,_,238,PUNCT,Z,punct
231,1326-1327,k,_,_,_,_,_,233,ADP,Sd,case
232,1328-1334,kateri,_,_,_,_,_,238,DET,Pq-fsd,obl
233,1335-1337,biti,_,_,_,_,_,238,AUX,Va-c,aux
234,1338-1340,po,_,_,_,_,_,236,ADP,Sl,case
235,1341-1352,prepričanje,_,_,_,_,_,239,NOUN,Ncnsl,obl
236,1353-1355,SD,ORG,2,*->2-2,*[2],2 - Negativno,236,PROPN,Npfsg,nmod
237,1356-1362,morati,_,_,_,_,_,230,VERB,Vmpp-pm,acl
238,1363-1369,težiti,_,_,_,_,_,238,VERB,Vmpn,xcomp
239,1370-1371,.,_,_,_,_,_,227,PUNCT,Z,punct
240,1372-1377,vlada,_,_,_,_,_,244,NOUN,Ncfsn,nsubj
241,1378-1384,janez,PER[4],_,*->3-3,*[3],_,241,NOUN,Ncmsg,nmod
242,1385-1390,janše,PER[4],_,*->3-3,*[3],_,242,NOUN,Ncnsg,nmod
243,1391-1397,delovati,_,_,_,_,_,4,VERB,Vmpr3s,parataxis
244,1398-1407,reaktiven,_,_,_,_,_,246,ADJ,Agpnsn,amod
245,1408-1414,stanje,_,_,_,_,_,244,NOUN,Ncnsn,nsubj
246,1415-1417,biti,_,_,_,_,_,250,AUX,Va-r3s-n,aux
247,1418-1427,nevzdržno,_,_,_,_,_,250,ADV,Rgp,advmod
248,1428-1430,jaz,_,_,_,_,_,250,PRON,Pp1-sd--y,iobj
249,1431-1443,pozdravljati,_,_,_,_,_,244,VERB,Vmpr1p,conj
250,1444-1445,",",_,_,_,_,_,256,PUNCT,Z,punct
251,1446-1448,da,_,_,_,_,_,256,SCONJ,Cs,mark
252,1449-1451,biti,_,_,_,_,_,256,AUX,Va-r3s-n,aux
253,1452-1457,vlada,_,_,_,_,_,256,NOUN,Ncfsn,nsubj
254,1458-1464,včeraj,_,_,_,_,_,256,ADV,Rgp,advmod
255,1465-1474,ugotoviti,_,_,_,_,_,250,VERB,Vmep-sf,ccomp
256,1475-1476,",",_,_,_,_,_,262,PUNCT,Z,punct
257,1477-1479,da,_,_,_,_,_,262,SCONJ,Cs,mark
258,1480-1482,biti,_,_,_,_,_,262,AUX,Va-r3s-n,cop
259,1483-1486,ves,_,_,_,_,_,261,DET,Pg-nsn,nmod
260,1487-1489,ta,_,_,_,_,_,262,DET,Pd-nsn,nsubj
261,1490-1499,nevzdržen,_,_,_,_,_,256,ADJ,Agpnsn,ccomp
262,1500-1501,.,_,_,_,_,_,256,PUNCT,Z,punct
263,1502-1504,jaz,_,_,_,_,_,268,PRON,Pp1-sd--y,obj
264,1505-1508,biti,_,_,_,_,_,268,AUX,Va-r1p-n,aux
265,1509-1515,takšen,_,_,_,_,_,267,DET,Pd-mpa,det
266,1516-1522,ukrep,_,_,_,_,_,268,NOUN,Ncmpa,obj
267,1523-1533,predlagati,_,_,_,_,_,4,VERB,Vmbp-pm,parataxis
268,1534-1538,pred,_,_,_,_,_,270,ADP,Si,case
269,1539-1543,leto,_,_,_,_,_,268,NOUN,Ncnpi,obl
270,1544-1545,",",_,_,_,_,_,274,PUNCT,Z,punct
271,1546-1548,ko,_,_,_,_,_,274,SCONJ,Cs,mark
272,1549-1552,biti,_,_,_,_,_,274,AUX,Va-r1p-n,aux
273,1553-1563,predlagati,_,_,_,_,_,270,VERB,Vmbp-pm,acl
274,1564-1565,",",_,_,_,_,_,315,PUNCT,Z,punct
275,1566-1568,da,_,_,_,_,_,281,SCONJ,Cs,mark
276,1569-1572,naj,_,_,_,_,_,281,PART,Q,advmod
277,1573-1575,biti,_,_,_,_,_,281,AUX,Va-f3s-n,cop
278,1576-1588,usklajevanje,_,_,_,_,_,281,NOUN,Ncnsn,nsubj
279,1589-1597,pokojnina,_,_,_,_,_,279,NOUN,Ncfpg,nmod
280,1598-1609,zastavljen,_,_,_,_,_,274,ADJ,Appnsn,ccomp
281,1610-1614,tako,_,_,_,_,_,288,ADV,Rgp,mark
282,1615-1616,",",_,_,_,_,_,282,PUNCT,Z,punct
283,1617-1619,da,_,_,_,_,_,282,SCONJ,Cs,fixed
284,1620-1622,se,_,_,_,_,_,288,PRON,Px------y,expl
285,1623-1627,biti,_,_,_,_,_,288,AUX,Va-f3p-n,aux
286,1628-1635,hitro,_,_,_,_,_,288,ADV,Rgc,advmod
287,1636-1645,dvigovati,_,_,_,_,_,281,VERB,Vmpp-pf,advcl
288,1646-1654,nizko,_,_,_,_,_,290,ADJ,Agsfpn,amod
289,1655-1664,pokojnina,_,_,_,_,_,288,NOUN,Ncfpn,nsubj
290,1665-1666,",",_,_,_,_,_,297,PUNCT,Z,punct
291,1667-1669,ko,_,_,_,_,_,297,SCONJ,Cs,mark
292,1670-1673,biti,_,_,_,_,_,297,AUX,Va-r1p-n,aux
293,1674-1677,pri,_,_,_,_,_,296,ADP,Sl,case
294,1678-1688,minimalen,_,_,_,_,_,296,ADJ,Agpfpl,amod
295,1689-1695,plača,_,_,_,_,_,297,NOUN,Ncfpl,obl
296,1696-1706,predlagati,_,_,_,_,_,288,VERB,Vmbp-pm,advcl
297,1707-1708,",",_,_,_,_,_,302,PUNCT,Z,punct
298,1709-1711,da,_,_,_,_,_,302,SCONJ,Cs,mark
299,1712-1714,se,_,_,_,_,_,302,PRON,Px------y,expl
300,1715-1717,ne,_,_,_,_,_,302,PART,Q,advmod
301,1718-1727,dvigovati,_,_,_,_,_,297,VERB,Vmpr3p,ccomp
302,1728-1730,za,_,_,_,_,_,304,ADP,Sa,case
303,1731-1735,bor,_,_,_,_,_,302,NOUN,Ncmsa,obl
304,1736-1739,dva,_,_,_,_,_,308,NUM,Mlcmda,nummod
305,1740-1741,",",_,_,_,_,_,307,PUNCT,Z,punct
306,1742-1745,trije,_,_,_,_,_,305,NUM,Mlcmpa,conj
307,1746-1754,odstotek,_,_,_,_,_,302,NOUN,Ncmda,obl
308,1755-1757,in,_,_,_,_,_,315,CCONJ,Cc,cc
309,1758-1760,ko,_,_,_,_,_,315,SCONJ,Cs,mark
310,1761-1764,biti,_,_,_,_,_,315,AUX,Va-r1p-n,aux
311,1765-1768,pri,_,_,_,_,_,314,ADP,Sl,case
312,1769-1775,davčen,_,_,_,_,_,314,ADJ,Agpfsl,amod
313,1776-1783,reforma,_,_,_,_,_,315,NOUN,Ncfsl,obl
314,1784-1791,doseči,_,_,_,_,_,302,VERB,Vmep-pm,advcl
315,1792-1798,majhen,_,_,_,_,_,317,ADJ,Agcnsa,amod
316,1799-1809,zmanjšanje,_,_,_,_,_,315,NOUN,Ncnsa,obj
317,1810-1820,visok,_,_,_,_,_,320,ADJ,Agsmsg,amod
318,1821-1834,dohodninski,_,_,_,_,_,320,ADJ,Agpmsg,amod
319,1835-1842,razred,_,_,_,_,_,317,NOUN,Ncmsg,nmod
320,1843-1844,",",_,_,_,_,_,315,PUNCT,Z,punct
321,1845-1846,a,_,_,_,_,_,340,CCONJ,Cc,cc
322,1847-1851,biti,_,_,_,_,_,335,AUX,Va-p-pm,aux
323,1852-1861,neuspešen,_,_,_,_,_,315,ADJ,Agpmpn,conj
324,1862-1865,pri,_,_,_,_,_,326,ADP,Sl,case
325,1866-1877,preprečitev,_,_,_,_,_,324,NOUN,Ncfsl,obl
326,1878-1886,ukinitev,_,_,_,_,_,326,NOUN,Ncfsg,nmod
327,1887-1894,davčen,_,_,_,_,_,329,ADJ,Agpfpg,amod
328,1895-1902,olajšava,_,_,_,_,_,327,NOUN,Ncfpg,nmod
329,1903-1905,za,_,_,_,_,_,331,ADP,Sa,case
330,1906-1915,stotisoč,_,_,_,_,_,329,NOUN,Ncnsa,nmod
331,1916-1922,tisti,_,_,_,_,_,331,DET,Pd-mpg,nmod
332,1923-1924,",",_,_,_,_,_,335,PUNCT,Z,punct
333,1925-1927,ki,_,_,_,_,_,335,SCONJ,Cs,mark
334,1928-1933,imeti,_,_,_,_,_,332,VERB,Vmpr3p-n,acl
335,1934-1941,najmanj,_,_,_,_,_,335,ADV,Rgs,advmod
336,1942-1943,.,_,_,_,_,_,335,PUNCT,Z,punct
337,1944-1949,tedaj,_,_,_,_,_,340,ADV,Rgp,advmod
338,1950-1953,biti,_,_,_,_,_,340,AUX,Va-r1p-n,aux
339,1954-1964,napovedati,_,_,_,_,_,4,VERB,Vmep-pm,parataxis
340,1965-1966,",",_,_,_,_,_,344,PUNCT,Z,punct
341,1967-1970,kaj,_,_,_,_,_,344,PRON,Pq-nsa,nmod
342,1971-1973,biti,_,_,_,_,_,344,AUX,Va-f3s-n,cop
343,1974-1982,rezultat,_,_,_,_,_,340,NOUN,Ncmsn,ccomp
344,1983-1984,",",_,_,_,_,_,344,PUNCT,Z,punct
345,1985-1987,biti,_,_,_,_,_,347,AUX,Va-r3s-n,aux
346,1988-1995,spomniti,_,_,_,_,_,340,VERB,Vmep-sm,ccomp
347,1996-2001,Cvikl,PER,_,*->1-6,*[1],_,347,PROPN,Npmsn,nsubj
348,2002-2004,in,_,_,_,_,_,350,CCONJ,Cc,cc
349,2005-2010,dejati,_,_,*->1-7,*[1],_,347,VERB,Vmep-sm,conj
350,2011-2012,",",_,_,_,_,_,359,PUNCT,Z,punct
351,2013-2015,da,_,_,_,_,_,359,SCONJ,Cs,mark
352,2016-2017,v,_,_,_,_,_,355,ADP,Sl,case
353,2018-2021,ta,_,_,_,_,_,355,DET,Pd-msl,det
354,2022-2028,smisel,_,_,_,_,_,359,NOUN,Ncmsl,obl
355,2029-2034,vlada,_,_,_,_,_,359,NOUN,Ncfsn,nsubj
356,2035-2041,Janez,PER[5],2,*->3-4,*[3],2 - Negativno[12],359,PROPN,Npmsay,obj
357,2042-2047,Janše,PER[5],2,*->3-4,*[3],2 - Negativno[12],357,PROPN,Npfsa,flat:name
358,2048-2054,delovati,_,_,_,_,_,350,VERB,Vmpr3s,ccomp
359,2055-2064,reaktiven,_,_,_,_,_,359,ADJ,Agpnsn,xcomp
360,2065-2066,.,_,_,_,_,_,344,PUNCT,Z,punct
361,2067-2074,ustvariti,_,_,_,_,_,4,VERB,Vmer3s,parataxis
362,2075-2080,velik,_,_,_,_,_,364,ADJ,Agpmsan,amod
363,2081-2088,problem,_,_,_,_,_,362,NOUN,Ncmsan,obj
364,2089-2090,",",_,_,_,_,_,366,PUNCT,Z,punct
365,2091-2097,težava,_,_,_,_,_,364,NOUN,Ncfpa,appos
366,2098-2099,z,_,_,_,_,_,368,ADP,Si,case
367,2100-2110,življenje,_,_,_,_,_,366,NOUN,Ncnsi,nmod
368,2111-2113,za,_,_,_,_,_,370,ADP,Sa,case
369,2114-2123,stotisoč,_,_,_,_,_,368,NOUN,Ncnsa,nmod
370,2124-2125,",",_,_,_,_,_,359,PUNCT,Z,punct
371,2126-2133,zavračati,_,_,_,_,_,340,VERB,Vmpr3s,conj
372,2134-2138,celo,_,_,_,_,_,372,PART,Q,advmod
373,2139-2143,leto,_,_,_,_,_,372,NOUN,Ncnsa,obl
374,2144-2148,naš,_,_,*->1-8,*[1],_,376,DET,Ps2npap,det
375,2149-2158,opozorilo,_,_,_,_,_,374,NOUN,Ncnsg,nmod
376,2159-2160,",",_,_,_,_,_,379,PUNCT,Z,punct
377,2161-2171,mednaroden,_,_,_,_,_,379,ADJ,Agpnsa,amod
378,2172-2181,opozorilo,_,_,_,_,_,376,NOUN,Ncnpa,appos
379,2182-2184,in,_,_,_,_,_,382,CCONJ,Cc,cc
380,2185-2190,potem,_,_,_,_,_,382,ADV,Rgp,advmod
381,2191-2196,priti,_,_,_,_,_,372,VERB,Vmer3s,conj
382,2197-2198,z,_,_,_,_,_,384,ADP,Si,case
383,2199-2204,vrsta,_,_,_,_,_,382,NOUN,Ncfsi,obl
384,2205-2212,ukrep,_,_,_,_,_,384,NOUN,Ncmpg,nmod
385,2213-2214,",",_,_,_,_,_,389,PUNCT,Z,punct
386,2215-2217,ki,_,_,_,_,_,389,SCONJ,Cs,mark
387,2218-2220,še,_,_,_,_,_,389,PART,Q,advmod
388,2221-2227,imeti,_,_,_,_,_,385,VERB,Vmpr3p-y,acl
389,2228-2234,realen,_,_,_,_,_,391,ADJ,Agpfsg,amod
390,2235-2242,podlaga,_,_,_,_,_,389,NOUN,Ncfsg,obj
391,2243-2244,.,_,_,_,_,_,382,PUNCT,Z,punct
392,2245-2254,Slovenija,LOC,_,*->6-7,*[6],_,394,PROPN,Npfsn,nsubj
393,2255-2264,potrebovati,_,_,_,_,_,4,VERB,Vmpr3s,parataxis
394,2265-2277,alternativen,_,_,_,_,_,397,ADJ,Agpfsa,amod
395,2278-2284,vladen,_,_,_,_,_,397,ADJ,Agpfsa,amod
396,2285-2290,ekipa,_,_,_,_,_,394,NOUN,Ncfsa,obj
397,2291-2292,",",_,_,_,_,_,401,PUNCT,Z,punct
398,2293-2295,ki,_,_,_,_,_,401,SCONJ,Cs,mark
399,2296-2298,biti,_,_,_,_,_,401,AUX,Va-f3s-n,aux
400,2299-2307,delovati,_,_,_,_,_,397,VERB,Vmpp-sf,acl
401,2308-2315,drugače,_,_,_,_,_,401,ADV,Rgp,advmod
402,2316-2317,",",_,_,_,_,_,401,PUNCT,Z,punct
403,2318-2320,biti,_,_,_,_,_,405,AUX,Va-r3s-n,aux
404,2321-2329,poudariti,_,_,_,_,_,4,VERB,Vmep-sm,parataxis
405,2330-2335,Cvikl,PER,1,*->1-9,*[1],4 - Pozitivno,405,PROPN,Npmsn,nsubj
406,2336-2337,.,_,_,_,_,_,405,PUNCT,Z,punct
407,2338-2344,vladen,_,_,_,_,_,409,ADJ,Agpfsa,amod
408,2345-2350,ekipa,_,_,_,_,_,406,NOUN,Ncfsa,appos
409,2351-2352,",",_,_,_,_,_,415,PUNCT,Z,punct
410,2353-2355,ki,_,_,_,_,_,415,SCONJ,Cs,mark
411,2356-2358,biti,_,_,_,_,_,415,AUX,Va-f3s-n,aux
412,2359-2366,vnaprej,_,_,_,_,_,414,ADV,Rgp,advmod
413,2367-2372,dobro,_,_,_,_,_,415,ADV,Rgc,advmod
414,2373-2385,predvidevati,_,_,_,_,_,409,VERB,Vmpp-sf,acl
415,2386-2397,gospodarski,_,_,_,_,_,417,ADJ,Agpmsay,amod
416,2398-2404,razvoj,_,_,_,_,_,415,NOUN,Ncmsan,obj
417,2405-2406,",",_,_,_,_,_,415,PUNCT,Z,punct
418,2407-2416,odpraviti,_,_,_,_,_,406,VERB,Vmep-sf,acl
419,2417-2426,negativen,_,_,_,_,_,421,ADJ,Agpmpa,amod
420,2427-2433,ukrep,_,_,_,_,_,419,NOUN,Ncmpa,obj
421,2434-2436,in,_,_,_,_,_,423,CCONJ,Cc,cc
422,2437-2445,delovati,_,_,_,_,_,419,VERB,Vmpp-sf,conj
423,2446-2453,smotrno,_,_,_,_,_,423,ADV,Rgp,advmod
424,2454-2457,ter,_,_,_,_,_,426,CCONJ,Cc,cc
425,2458-2465,vzdržno,_,_,_,_,_,424,ADV,Rgp,conj
426,2466-2469,ter,_,_,_,_,_,429,CCONJ,Cc,cc
427,2470-2474,tako,_,_,_,_,_,424,ADV,Rgp,conj
428,2475-2485,ustvarjati,_,_,_,_,_,423,VERB,Vmpp-sf,conj
429,2486-2494,pravičen,_,_,_,_,_,431,ADJ,Agpfsa,amod
430,2495-2501,družba,_,_,_,_,_,429,NOUN,Ncfsa,obj
431,2502-2503,z,_,_,_,_,_,433,ADP,Si,case
432,2504-2512,blaginja,_,_,_,_,_,431,NOUN,Ncfsi,nmod
433,2513-2515,za,_,_,_,_,_,435,ADP,Sa,case
434,2516-2519,ves,_,_,_,_,_,433,DET,Pg-fpa,nmod
435,2520-2521,.,_,_,_,_,_,429,PUNCT,Z,punct
436,2522-2526,cena,_,_,_,_,_,440,NOUN,Ncfpn,obj
437,2527-2529,še,_,_,_,_,_,440,PART,Q,advmod
438,2530-2535,vedno,_,_,_,_,_,440,ADV,Rgp,advmod
439,2536-2543,rasti,_,_,_,_,_,429,VERB,Vmpr3p,conj
440,2544-2552,december,_,_,_,_,_,444,NOUN,Ncmsg,obl
441,2553-2555,biti,_,_,_,_,_,444,AUX,Va-r3p-n,aux
442,2556-2558,se,_,_,_,_,_,444,PRON,Px------y,expl
443,2559-2566,znižati,_,_,_,_,_,440,VERB,Vmep-pf,conj
444,2567-2571,cena,_,_,_,_,_,444,NOUN,Ncfpn,nsubj
445,2572-2574,le,_,_,_,_,_,444,PART,Q,advmod
446,2575-2576,v,_,_,_,_,_,449,ADP,Sl,case
447,2577-2581,dva,_,_,_,_,_,449,NUM,Mlcfdl,nummod
448,2582-2590,skupina,_,_,_,_,_,444,NOUN,Ncfdl,obl
449,2591-2592,",",_,_,_,_,_,451,PUNCT,Z,punct
450,2593-2599,obleka,_,_,_,_,_,449,NOUN,Ncfsn,conj
451,2600-2602,in,_,_,_,_,_,453,CCONJ,Cc,cc
452,2603-2609,obutev,_,_,_,_,_,451,NOUN,Ncfsn,conj
453,2610-2613,ter,_,_,_,_,_,455,CCONJ,Cc,cc
454,2614-2620,prevoz,_,_,_,_,_,451,NOUN,Ncmsn,conj
455,2621-2622,.,_,_,_,_,_,440,PUNCT,Z,punct
456,2623-2627,cena,_,_,_,_,_,468,NOUN,Ncfpn,nsubj
457,2628-2640,življenjski,_,_,_,_,_,459,ADJ,Agpfpg,amod
458,2641-2651,potrebščina,_,_,_,_,_,457,NOUN,Ncfpg,nmod
459,2652-2654,biti,_,_,_,_,_,468,AUX,Va-r3p-n,aux
460,2655-2657,se,_,_,_,_,_,468,PRON,Px------y,expl
461,2658-2666,december,_,_,_,_,_,468,NOUN,Ncmsg,obl
462,2667-2668,v,_,_,_,_,_,466,ADP,Sl,case
463,2669-2679,primerjava,_,_,_,_,_,468,NOUN,Ncfsl,obl
464,2680-2681,z,_,_,_,_,_,466,ADP,Si,case
465,2682-2689,mesec,_,_,_,_,_,464,NOUN,Ncmsi,nmod
466,2690-2696,poprej,_,_,_,_,_,468,ADV,Rgp,advmod
467,2697-2704,zvišati,_,_,_,_,_,4,VERB,Vmep-pf,parataxis
468,2705-2707,za,_,_,_,_,_,471,ADP,Sa,case
469,2708-2711,"0,4",_,_,_,_,_,471,NUM,Mdc,nummod
470,2712-2720,odstotek,_,_,_,_,_,468,NOUN,Ncmsg,obl
471,2721-2722,.,_,_,_,_,_,468,PUNCT,Z,punct
472,2723-2725,od,_,_,_,_,_,474,ADP,Sg,case
473,2726-2733,začetek,_,_,_,_,_,483,NOUN,Ncmsg,obl
474,2734-2738,leto,_,_,_,_,_,474,NOUN,Ncnsg,nmod
475,2739-2741,do,_,_,_,_,_,477,ADP,Sg,case
476,2742-2747,konec,_,_,_,_,_,483,NOUN,Ncmsg,obl
477,2748-2756,december,_,_,_,_,_,477,NOUN,Ncmsg,nmod
478,2757-2759,pa,_,_,_,_,_,483,CCONJ,Cc,advmod
479,2760-2762,biti,_,_,_,_,_,483,AUX,Va-r3p-n,aux
480,2763-2765,se,_,_,_,_,_,483,PRON,Px------y,expl
481,2766-2770,cena,_,_,_,_,_,483,NOUN,Ncfpn,nsubj
482,2771-2779,dvigniti,_,_,_,_,_,468,VERB,Vmep-pf,conj
483,2780-2782,za,_,_,_,_,_,486,ADP,Sa,case
484,2783-2786,"5,6",_,_,_,_,_,486,NUM,Mdc,nummod
485,2787-2795,odstotek,_,_,_,_,_,483,NOUN,Ncmsg,obl
486,2796-2797,",",_,_,_,_,_,489,PUNCT,Z,punct
487,2798-2801,kar,_,_,_,_,_,489,PRON,Pr-nsn,nsubj
488,2802-2804,biti,_,_,_,_,_,486,VERB,Va-r3s-n,acl
489,2805-2811,največ,_,_,_,_,_,492,DET,Rgs,det
490,2812-2814,po,_,_,_,_,_,492,ADP,Sl,case
491,2815-2819,leto,_,_,_,_,_,489,NOUN,Ncnsl,obl
492,2820-2824,2002,_,_,_,_,_,492,NUM,Mdc,nummod
493,2825-2826,",",_,_,_,_,_,489,PUNCT,Z,punct
494,2827-2829,biti,_,_,_,_,_,496,AUX,Va-r3s-n,aux
495,2830-2838,povedati,_,_,_,_,_,483,VERB,Vmep-sf,parataxis
496,2839-2844,vodja,_,_,*->9-1,*[9],_,496,NOUN,Ncmsn,nsubj
497,2845-2852,oddelek,_,_,*->9-1,*[9],_,497,NOUN,Ncmsg,nmod
498,2853-2855,za,_,_,*->9-1,*[9],_,500,ADP,Sa,case
499,2856-2866,statistika,_,_,*->9-1,*[9],_,498,NOUN,Ncfsa,nmod
500,2867-2870,cena,_,_,*->9-1,*[9],_,500,NOUN,Ncfpg,nmod
501,2871-2883,življenjski,_,_,*->9-1,*[9],_,503,ADJ,Agpfpg,amod
502,2884-2894,potrebščina,_,_,*->9-1,*[9],_,501,NOUN,Ncfpg,nmod
503,2895-2897,na,_,_,*->9-1,*[9],_,507,ADP,Sl,case
504,2898-2906,državen,_,_,*->9-1,*[9],_,507,ADJ,Agpmsl,amod
505,2907-2919,statističen,_,_,*->9-1,*[9],_,507,ADJ,Agpmsl,amod
506,2920-2925,urad,_,_,*->9-1,*[9],_,501,NOUN,Ncmsl,nmod
507,2926-2931,Mojca,PER[6],_,*->9-1,*[9],_,497,PROPN,Npfsn,nmod
508,2932-2937,Maček,PER[6],_,*->9-1,*[9],_,508,PROPN,Npmsn,flat:name
509,2938-2942,Kenk,PER[6],_,*->9-1,*[9],_,508,PROPN,Npmsn,flat:name
510,2943-2944,.,_,_,_,_,_,489,PUNCT,Z,punct
511,2945-2953,letošnji,_,_,_,_,_,513,ADJ,Agpfsn,amod
512,2954-2963,inflacija,_,_,_,_,_,518,NOUN,Ncfsn,root
513,2964-2966,biti,_,_,_,_,_,518,AUX,Va-r3s-n,aux
514,2967-2972,torej,_,_,_,_,_,518,ADV,Rgp,advmod
515,2973-2975,še,_,_,_,_,_,518,PART,Q,advmod
516,2976-2982,enkrat,_,_,_,_,_,518,ADV,Rgp,advmod
517,2983-2988,visok,_,_,_,_,_,483,ADJ,Agcfsn,root
518,2989-2992,kot,_,_,_,_,_,520,SCONJ,Cs,case
519,2993-2997,lani,_,_,_,_,_,518,ADV,Rgp,advmod
520,2998-2999,",",_,_,_,_,_,524,PUNCT,Z,punct
521,3000-3002,ko,_,_,_,_,_,524,SCONJ,Cs,mark
522,3003-3005,biti,_,_,_,_,_,524,AUX,Va-r3s-n,aux
523,3006-3013,znašati,_,_,_,_,_,518,VERB,Vmpp-sf,advcl
524,3014-3017,"2,8",_,_,_,_,_,526,NUM,Mdc,nummod
525,3018-3026,odstotek,_,_,_,_,_,524,NOUN,Ncmsg,obj
526,3027-3028,.,_,_,_,_,_,524,PUNCT,Z,punct
527,3029-3031,po,_,_,_,_,_,529,ADP,Sl,case
528,3032-3039,beseda,_,_,_,_,_,524,NOUN,Ncfpl,obl
529,3040-3049,generalen,_,_,*->4-1,*[4],_,531,ADJ,Agpfsg,amod
530,3050-3061,direktorica,_,_,*->4-1,*[4],_,529,NOUN,Ncfsg,nmod
531,3062-3075,statističen,_,_,*->4-1,*[4],_,533,ADJ,Agpmsg,amod
532,3076-3081,urad,_,_,*->4-1,*[4],_,531,NOUN,Ncmsg,nmod
533,3082-3087,Irene,PER[7],_,*->4-1,*[4],_,533,PROPN,Npfsg,nmod
534,3088-3095,Križman,PER[7],_,*->4-1,*[4],_,534,PROPN,Npfsg,flat:name
535,3096-3098,biti,_,_,_,_,_,572,AUX,Va-r3p-n,aux
536,3099-3101,za,_,_,_,_,_,539,ADP,Sa,case
537,3102-3110,letošnji,_,_,_,_,_,539,ADJ,Agpfsa,amod
538,3111-3120,inflacija,_,_,_,_,_,572,NOUN,Ncfsa,obl
539,3121-3122,",",_,_,_,_,_,548,PUNCT,Z,punct
540,3123-3125,ki,_,_,_,_,_,548,SCONJ,Cs,mark
541,3126-3135,Slovenija,LOC,_,*->6-8,*[6],_,544,PROPN,Npfsg,nmod
542,3136-3138,ta,_,_,_,_,_,544,DET,Pd-msa,det
543,3139-3142,hip,_,_,_,_,_,548,NOUN,Ncmsan,obl
544,3143-3144,v,_,_,_,_,_,546,ADP,Sl,case
545,3145-3147,EU,ORG,0,*->5-1,*[5],3 - Nevtralno,544,PROPN,Npfsl,nmod
546,3148-3150,ne,_,_,_,_,_,548,PART,Q,advmod
547,3151-3162,predstavljati,_,_,_,_,_,539,VERB,Vmpr3s,acl
548,3163-3164,v,_,_,_,_,_,551,ADP,Sl,case
549,3165-3174,dober,_,_,_,_,_,551,ADJ,Agsfsl,amod
550,3175-3179,luč,_,_,_,_,_,548,NOUN,Ncfsl,obl
551,3180-3181,",",_,_,_,_,_,548,PUNCT,Z,punct
552,3182-3187,trije,_,_,_,_,_,555,NUM,Mlcmpn,nummod
553,3188-3194,glaven,_,_,_,_,_,555,ADJ,Agpmpn,amod
554,3195-3201,krivec,_,_,_,_,_,548,NOUN,Ncmpn,nsubj
555,3202-3207,hrana,_,_,_,_,_,555,NOUN,Ncfsn,nmod
556,3208-3209,",",_,_,_,_,_,558,PUNCT,Z,punct
557,3210-3215,nafta,_,_,_,_,_,556,NOUN,Ncfsn,conj
558,3216-3218,za,_,_,_,_,_,560,ADP,Sa,case
559,3219-3228,ogrevanje,_,_,_,_,_,558,NOUN,Ncnsa,nmod
560,3229-3238,stanovanje,_,_,_,_,_,560,NOUN,Ncnpg,nmod
561,3239-3242,ter,_,_,_,_,_,564,CCONJ,Cc,cc
562,3243-3252,gostinski,_,_,_,_,_,564,ADJ,Agpfpn,amod
563,3253-3261,storitev,_,_,_,_,_,558,NOUN,Ncfpn,conj
564,3262-3263,.,_,_,_,_,_,4,PUNCT,Z,punct
565,3264-3268,cena,_,_,_,_,_,572,NOUN,Ncfpn,nsubj
566,3269-3274,hrana,_,_,_,_,_,566,NOUN,Ncfsg,nmod
567,3275-3277,biti,_,_,_,_,_,572,AUX,Va-r3p-n,aux
568,3278-3283,letos,_,_,_,_,_,572,ADV,Rgp,advmod
569,3284-3285,v,_,_,_,_,_,571,ADP,Sl,case
570,3286-3295,trgovina,_,_,_,_,_,572,NOUN,Ncfpl,obl
571,3296-3305,naraščati,_,_,_,_,_,4,VERB,Vmpp-pf,parataxis
572,3306-3313,hitro,_,_,_,_,_,572,ADV,Rgc,advmod
573,3314-3317,kot,_,_,_,_,_,576,SCONJ,Cs,case
574,3318-3321,pri,_,_,_,_,_,576,ADP,Sl,case
575,3322-3335,proizvajalec,_,_,_,_,_,572,NOUN,Ncmpl,obl
576,3336-3343,oziroma,_,_,_,_,_,579,CCONJ,Cc,cc
577,3344-3346,iz,_,_,_,_,_,579,ADP,Sg,case
578,3347-3352,uvoz,_,_,_,_,_,576,NOUN,Ncmsg,conj
579,3353-3354,",",_,_,_,_,_,579,PUNCT,Z,punct
580,3355-3357,biti,_,_,*->4-2,*[4],_,579,AUX,Va-r3s-n,aux
581,3358-3364,dodati,_,_,*->4-2,*[4],_,4,VERB,Vmep-sf,parataxis
582,3365-3366,.,_,_,_,_,_,572,PUNCT,Z,punct
583,3367-3374,izgledati,_,_,_,_,_,4,VERB,Vmpr3s,parataxis
584,3375-3376,",",_,_,_,_,_,592,PUNCT,Z,punct
585,3377-3379,da,_,_,_,_,_,592,SCONJ,Cs,mark
586,3380-3382,biti,_,_,_,_,_,592,AUX,Va-r3p-n,aux
587,3383-3390,trgovec,_,_,_,_,_,592,NOUN,Ncmpn,nsubj
588,3391-3394,res,_,_,_,_,_,592,ADV,Rgp,advmod
589,3395-3398,ves,_,_,_,_,_,591,DET,Pg-fpa,det
590,3399-3409,podražitev,_,_,_,_,_,592,NOUN,Ncfpa,obj
591,3410-3418,prenesti,_,_,_,_,_,584,VERB,Vmep-pm,acl
592,3419-3421,na,_,_,_,_,_,594,ADP,Sa,case
593,3422-3427,kupec,_,_,_,_,_,592,NOUN,Ncmpa,obl
594,3428-3429,",",_,_,_,_,_,592,PUNCT,Z,punct
595,3430-3432,biti,_,_,_,_,_,608,AUX,Va-r3s-n,aux
596,3433-3440,oceniti,_,_,_,_,_,4,VERB,Vmep-sf,parataxis
597,3441-3446,Mojca,PER[8],_,*->9-2,*[9],_,597,PROPN,Npfsn,nsubj
598,3447-3452,Maček,PER[8],_,*->9-2,*[9],_,598,PROPN,Npmsn,flat:name
599,3453-3457,Kenk,PER[8],_,*->9-2,*[9],_,598,PROPN,Npmsn,flat:name
600,3458-3459,.,_,_,_,_,_,592,PUNCT,Z,punct
601,3460-3468,bistveno,_,_,_,_,_,603,ADV,Rgp,advmod
602,3469-3472,več,_,_,_,_,_,608,DET,Rgc,advmod
603,3473-3475,biti,_,_,_,_,_,608,AUX,Va-r3p-n,aux
604,3476-3481,letos,_,_,_,_,_,608,ADV,Rgp,advmod
605,3482-3483,k,_,_,_,_,_,607,ADP,Sd,case
606,3484-3493,inflacija,_,_,_,_,_,608,NOUN,Ncfsd,obl
607,3494-3504,prispevati,_,_,_,_,_,4,VERB,Vmbp-pf,parataxis
608,3505-3510,visok,_,_,_,_,_,610,ADJ,Agcfpa,amod
609,3511-3515,cena,_,_,_,_,_,608,NOUN,Ncfpa,obj
610,3516-3521,blago,_,_,_,_,_,610,NOUN,Ncnsg,nmod
611,3522-3523,+,_,_,_,_,_,614,NOUN,Ncmsn,nmod
612,3524-3528,šest,_,_,_,_,_,614,NUM,Mlc-pa,nummod
613,3529-3538,odstotek,_,_,_,_,_,611,NOUN,Ncmpg,nmod
614,3539-3542,kot,_,_,_,_,_,617,SCONJ,Cs,case
615,3543-3545,pa,_,_,_,_,_,617,CCONJ,Cc,advmod
616,3546-3554,storitev,_,_,_,_,_,614,NOUN,Ncfpg,conj
617,3555-3556,+,_,_,_,_,_,620,PUNCT,Z,punct
618,3557-3560,"4,8",_,_,_,_,_,620,NUM,Mdc,nummod
619,3561-3569,odstotek,_,_,_,_,_,614,NOUN,Ncmsg,conj
620,3570-3571,.,_,_,_,_,_,620,PUNCT,Z,punct
621,3572-3581,povprečen,_,_,_,_,_,624,ADJ,Agpfsn,amod
622,3582-3587,leten,_,_,_,_,_,624,ADJ,Agpfsn,amod
623,3588-3597,inflacija,_,_,_,_,_,625,NOUN,Ncfsn,nsubj
624,3598-3603,znašati,_,_,_,_,_,608,VERB,Vmpr3s,conj
625,3604-3607,"3,6",_,_,_,_,_,627,NUM,Mdc,nummod
626,3608-3616,odstotek,_,_,_,_,_,625,NOUN,Ncmsg,obl
627,3617-3618,.,_,_,_,_,_,625,PUNCT,Z,punct
628,3619-3626,razlika,_,_,_,_,_,639,NOUN,Ncfsn,nsubj
629,3627-3630,med,_,_,_,_,_,631,ADP,Si,case
630,3631-3637,rast,_,_,_,_,_,629,NOUN,Ncfsi,nmod
631,3638-3641,cena,_,_,_,_,_,631,NOUN,Ncfpg,nmod
632,3642-3643,v,_,_,_,_,_,634,ADP,Sl,case
633,3644-3653,Slovenija,LOC,_,*->6-9,*[6],_,632,PROPN,Npfsl,nmod
634,3654-3656,in,_,_,_,_,_,636,CCONJ,Cc,cc
635,3657-3667,povprečje,_,_,_,_,_,634,NOUN,Ncnsi,conj
636,3668-3675,območje,_,_,_,_,_,636,NOUN,Ncnsg,nmod
637,3676-3680,evro,_,_,_,_,_,637,NOUN,Ncmsg,nmod
638,3681-3687,ostajati,_,_,_,_,_,4,VERB,Vmpr3s,parataxis
639,3688-3696,rezultat,_,_,_,_,_,639,NOUN,Ncmsn,nsubj
640,3697-3703,naš,_,_,_,_,_,642,DET,Ps1nsgp,det
641,3704-3717,približevanje,_,_,_,_,_,640,NOUN,Ncnsg,nmod
642,3718-3729,razvit,_,_,_,_,_,644,ADJ,Agcfpd,amod
643,3730-3738,članica,_,_,_,_,_,642,NOUN,Ncfpd,nmod
644,3739-3740,",",_,_,_,_,_,649,PUNCT,Z,punct
645,3741-3743,ki,_,_,_,_,_,649,SCONJ,Cs,mark
646,3744-3746,se,_,_,_,_,_,649,PRON,Px------y,expl
647,3747-3752,letos,_,_,_,_,_,649,ADV,Rgp,advmod
648,3753-3759,odražati,_,_,_,_,_,644,VERB,Vmpr3s,acl
649,3760-3761,v,_,_,_,_,_,656,ADP,Sl,case
650,3762-3765,več,_,_,_,_,_,656,DET,Rgc,advmod
651,3766-3769,kot,_,_,_,_,_,651,SCONJ,Cs,fixed
652,3770-3777,dvakrat,_,_,_,_,_,654,ADV,Rgp,advmod
653,3778-3783,visok,_,_,_,_,_,656,ADJ,Agcfsl,amod
654,3784-3795,gospodarski,_,_,_,_,_,656,ADJ,Agpfsl,amod
655,3796-3801,rast,_,_,_,_,_,649,NOUN,Ncfsl,obl
656,3802-3803,v,_,_,_,_,_,658,ADP,Sl,case
657,3804-3813,Slovenija,LOC,_,*->6-10,*[6],_,656,PROPN,Npfsl,nmod
658,3814-3815,",",_,_,_,_,_,673,PUNCT,Z,punct
659,3816-3822,zaradi,_,_,_,_,_,667,ADP,Sg,case
660,3823-3828,kar,_,_,_,_,_,673,PRON,Pr-nsg,obl
661,3829-3831,biti,_,_,_,_,_,673,AUX,Va-r3s-n,aux
662,3832-3836,biti,_,_,_,_,_,673,AUX,Va-p-sf,cop
663,3837-3846,inflacija,_,_,_,_,_,673,NOUN,Ncfsn,nsubj
664,3847-3849,že,_,_,_,_,_,673,PART,Q,advmod
665,3850-3851,v,_,_,_,_,_,667,ADP,Sl,case
666,3852-3859,začetek,_,_,_,_,_,673,NOUN,Ncmsl,obl
667,3860-3864,leto,_,_,_,_,_,673,NOUN,Ncnsg,obl
668,3865-3874,približno,_,_,_,_,_,671,ADV,Rgp,advmod
669,3875-3878,en,_,_,_,_,_,672,NUM,Mlpfsa,nummod
670,3879-3887,odstoten,_,_,_,_,_,672,ADJ,Agpfsa,amod
671,3888-3893,točka,_,_,_,_,_,673,NOUN,Ncfsa,obl
672,3894-3899,visok,_,_,_,_,_,658,ADJ,Agcfsn,acl
673,3900-3901,.,_,_,_,_,_,639,PUNCT,Z,punct
674,3902-3910,direktor,_,0,*->7-1,*[7],3 - Nevtralno[13],684,NOUN,Ncmsn,nsubj
675,3911-3917,Umar,ORG,0,*->7-1|*->8-1,*[7]|*[8],3 - Nevtralno[13]|3 - Nevtralno[14],675,PROPN,Npmsg,nmod
676,3918-3925,Boštjan,PER[9],0,*->7-1,*[7],3 - Nevtralno[13],675,PROPN,Npmsn,nmod
677,3926-3931,Vasla,PER[9],0,*->7-1,*[7],3 - Nevtralno[13],677,PROPN,Npmsn,flat:name
678,3932-3933,v,_,_,_,_,_,680,ADP,Sl,case
679,3934-3942,december,_,_,_,_,_,684,NOUN,Ncmsl,obl
680,3943-3945,biti,_,_,_,_,_,684,AUX,Va-r3p-n,aux
681,3946-3948,se,_,_,_,_,_,684,PRON,Px------y,expl
682,3949-3956,najbolj,_,_,_,_,_,684,ADV,Rgs,advmod
683,3957-3966,podražiti,_,_,_,_,_,4,VERB,Vmep-pn,parataxis
684,3967-3971,olje,_,_,_,_,_,684,NOUN,Ncnpn,nsubj
685,3972-3974,in,_,_,_,_,_,687,CCONJ,Cc,cc
686,3975-3982,maščoba,_,_,_,_,_,685,NOUN,Ncfpa,conj
687,3983-3984,",",_,_,_,_,_,690,PUNCT,Z,punct
688,3985-3992,športen,_,_,_,_,_,690,ADJ,Agpfsn,amod
689,3993-3999,oprema,_,_,_,_,_,685,NOUN,Ncfsn,conj
690,4000-4001,",",_,_,_,_,_,693,PUNCT,Z,punct
691,4002-4007,svež,_,_,_,_,_,693,ADJ,Agpfsn,amod
692,4008-4017,zelenjava,_,_,_,_,_,685,NOUN,Ncfsn,conj
693,4018-4020,in,_,_,_,_,_,696,CCONJ,Cc,cc
694,4021-4026,sveže,_,_,_,_,_,696,ADJ,Agpnsn,amod
695,4027-4032,sadje,_,_,_,_,_,685,NOUN,Ncnsn,conj
696,4033-4034,",",_,_,_,_,_,693,PUNCT,Z,punct
697,4035-4038,med,_,_,_,_,_,699,ADP,Si,case
698,4039-4049,storitev,_,_,_,_,_,721,NOUN,Ncfpi,obl
699,4050-4052,pa,_,_,_,_,_,701,CCONJ,Cc,cc
700,4053-4061,storitev,_,_,_,_,_,690,NOUN,Ncfpn,conj
701,4062-4064,za,_,_,_,_,_,703,ADP,Sa,case
702,4065-4075,rekreacija,_,_,_,_,_,701,NOUN,Ncfsa,nmod
703,4076-4077,",",_,_,_,_,_,706,PUNCT,Z,punct
704,4078-4086,letalski,_,_,_,_,_,706,ADJ,Agpmpn,amod
705,4087-4094,prevoz,_,_,_,_,_,701,NOUN,Ncmpn,conj
706,4095-4096,",",_,_,_,_,_,708,PUNCT,Z,punct
707,4097-4107,telefonski,_,_,_,_,_,706,ADJ,Agpfpn,conj
708,4108-4110,in,_,_,_,_,_,710,CCONJ,Cc,cc
709,4111-4121,interneten,_,_,_,_,_,708,ADJ,Agpfpn,conj
710,4122-4130,storitev,_,_,_,_,_,706,NOUN,Ncfpn,conj
711,4131-4132,.,_,_,_,_,_,4,PUNCT,Z,punct
712,4133-4134,.,_,_,_,_,_,4,PUNCT,Z,punct
713,4135-4136,.,_,_,_,_,_,684,PUNCT,Z,punct
714,4137-4139,za,_,_,_,_,_,717,ADP,Sa,case
715,4140-4150,decembrski,_,_,_,_,_,717,ADJ,Agpfsa,amod
716,4151-4160,inflacija,_,_,_,_,_,721,NOUN,Ncfsa,obl
717,4161-4163,biti,_,_,_,_,_,721,AUX,Va-r3p-n,cop
718,4164-4168,tako,_,_,_,_,_,720,ADV,Rgp,advmod
719,4169-4176,najbolj,_,_,_,_,_,721,ADV,Rgs,advmod
720,4177-4185,zaslužen,_,_,_,_,_,684,ADJ,Agpfpn,conj
721,4186-4191,visok,_,_,_,_,_,723,ADJ,Agcfpa,amod
722,4192-4196,cena,_,_,_,_,_,721,NOUN,Ncfpn,obj
723,4197-4209,prehramben,_,_,_,_,_,725,ADJ,Agpmpg,amod
724,4210-4218,izdelek,_,_,_,_,_,723,NOUN,Ncmpg,nmod
725,4219-4220,",",_,_,_,_,_,733,PUNCT,Z,punct
726,4221-4223,ki,_,_,_,_,_,733,SCONJ,Cs,mark
727,4224-4226,biti,_,_,_,_,_,733,AUX,Va-r3p-n,aux
728,4227-4228,k,_,_,_,_,_,731,ADP,Sd,case
729,4229-4235,skupen,_,_,_,_,_,731,ADJ,Agpfsd,amod
730,4236-4241,rast,_,_,_,_,_,733,NOUN,Ncfsd,obl
731,4242-4245,cena,_,_,_,_,_,731,NOUN,Ncfpg,nmod
732,4246-4256,prispevati,_,_,_,_,_,725,VERB,Vmbp-pf,acl
733,4257-4260,"0,3",_,_,_,_,_,736,NUM,Mdc,nummod
734,4261-4269,odstoten,_,_,_,_,_,736,ADJ,Agpfsg,amod
735,4270-4275,točka,_,_,_,_,_,733,NOUN,Ncfsg,obj
736,4276-4277,",",_,_,_,_,_,733,PUNCT,Z,punct
737,4278-4280,po,_,_,_,_,_,741,ADP,Sa,case
738,4281-4284,"0,1",_,_,_,_,_,741,NUM,Mdc,nummod
739,4285-4293,odstoten,_,_,_,_,_,741,ADJ,Agpfpg,amod
740,4294-4299,točka,_,_,_,_,_,744,NOUN,Ncfpn,obl
741,4300-4302,pa,_,_,_,_,_,744,CCONJ,Cc,advmod
742,4303-4305,biti,_,_,_,_,_,773,AUX,Va-r3p-n,aux
743,4306-4316,prispevati,_,_,_,_,_,4,VERB,Vmbp-pf,parataxis
744,4317-4319,še,_,_,_,_,_,744,PART,Q,advmod
745,4320-4325,visok,_,_,_,_,_,747,ADJ,Agcfpa,amod
746,4326-4330,cena,_,_,_,_,_,733,NOUN,Ncfpa,obj
747,4331-4342,telefonski,_,_,_,_,_,751,ADJ,Agpfpg,amod
748,4343-4345,in,_,_,_,_,_,750,CCONJ,Cc,cc
749,4346-4357,interneten,_,_,_,_,_,748,ADJ,Agpfpg,conj
750,4358-4366,storitev,_,_,_,_,_,747,NOUN,Ncfpg,nmod
751,4367-4368,",",_,_,_,_,_,753,PUNCT,Z,punct
752,4369-4377,počitnica,_,_,_,_,_,751,NOUN,Ncfpg,conj
753,4378-4379,v,_,_,_,_,_,755,ADP,Sl,case
754,4380-4386,paket,_,_,_,_,_,753,NOUN,Ncmsl,nmod
755,4387-4390,ter,_,_,_,_,_,757,CCONJ,Cc,cc
756,4391-4399,storitev,_,_,_,_,_,751,NOUN,Ncfpa,conj
757,4400-4402,za,_,_,_,_,_,759,ADP,Sa,case
758,4403-4413,rekreacija,_,_,_,_,_,757,NOUN,Ncfsa,nmod
759,4414-4416,in,_,_,_,_,_,762,CCONJ,Cc,cc
760,4417-4424,športen,_,_,_,_,_,748,ADJ,Agpfsg,conj
761,4425-4431,oprema,_,_,_,_,_,759,NOUN,Ncfsg,conj
762,4432-4433,.,_,_,_,_,_,721,PUNCT,Z,punct
763,4434-4441,podobno,_,_,_,_,_,773,ADV,Rgp,advmod
764,4442-4445,kot,_,_,_,_,_,767,SCONJ,Cs,case
765,4446-4454,pretekel,_,_,_,_,_,767,ADJ,Appmsay,amod
766,4455-4460,mesec,_,_,_,_,_,773,NOUN,Ncmsan,obl
767,4461-4463,pa,_,_,_,_,_,773,CCONJ,Cc,advmod
768,4464-4466,biti,_,_,_,_,_,773,AUX,Va-r3p-n,aux
769,4467-4477,statistika,_,_,_,_,_,773,NOUN,Ncfsd,obj
770,4478-4482,tudi,_,_,_,_,_,773,PART,Q,advmod
771,4483-4491,december,_,_,_,_,_,773,NOUN,Ncmsg,obl
772,4492-4502,zabeležiti,_,_,_,_,_,4,VERB,Vmep-pm,parataxis
773,4503-4511,znižanje,_,_,_,_,_,773,NOUN,Ncnsa,obj
774,4512-4515,cena,_,_,_,_,_,774,NOUN,Ncfpg,nmod
775,4516-4518,le,_,_,_,_,_,773,PART,Q,advmod
776,4519-4520,v,_,_,_,_,_,779,ADP,Sl,case
777,4521-4525,dva,_,_,_,_,_,779,NUM,Mlcfdl,nummod
778,4526-4534,skupina,_,_,_,_,_,774,NOUN,Ncfdl,nmod
779,4535-4536,",",_,_,_,_,_,773,PUNCT,Z,punct
780,4537-4539,in,_,_,_,_,_,785,CCONJ,Cc,cc
781,4540-4545,sicer,_,_,_,_,_,783,PART,Q,advmod
782,4546-4552,obleka,_,_,_,_,_,779,NOUN,Ncfsn,conj
783,4553-4555,in,_,_,_,_,_,785,CCONJ,Cc,cc
784,4556-4562,obutev,_,_,_,_,_,783,NOUN,Ncfsn,conj
785,4563-4564,v,_,_,_,_,_,787,ADP,Sl,case
786,4565-4574,povprečje,_,_,_,_,_,783,NOUN,Ncnsl,nmod
787,4575-4577,za,_,_,_,_,_,790,ADP,Sa,case
788,4578-4581,"1,9",_,_,_,_,_,790,NUM,Mdc,nummod
789,4582-4590,odstotek,_,_,_,_,_,787,NOUN,Ncmsg,nmod
790,4591-4594,ter,_,_,_,_,_,792,CCONJ,Cc,cc
791,4595-4601,prevoz,_,_,_,_,_,790,NOUN,Ncmsan,conj
792,4602-4604,za,_,_,_,_,_,795,ADP,Sa,case
793,4605-4608,"0,1",_,_,_,_,_,795,NUM,Mdc,nummod
794,4609-4617,odstotek,_,_,_,_,_,792,NOUN,Ncmsg,nmod
795,4618-4619,.,_,_,_,_,_,773,PUNCT,Z,punct
796,4620-4625,mleko,_,_,_,_,_,816,NOUN,Ncnsa,obj
797,4626-4628,in,_,_,_,_,_,799,CCONJ,Cc,cc
798,4629-4634,jajce,_,_,_,_,_,795,NOUN,Ncnpa,conj
799,4635-4641,drag,_,_,_,_,_,4,ADJ,Agcfsn,parataxis
800,4642-4644,za,_,_,_,_,_,805,ADP,Sa,case
801,4645-4648,več,_,_,_,_,_,805,DET,Rgc,advmod
802,4649-4652,kot,_,_,_,_,_,802,SCONJ,Cs,fixed
803,4653-4655,21,_,_,_,_,_,805,NUM,Mdc,nummod
804,4656-4665,odstotek,_,_,_,_,_,800,NOUN,Ncmpg,obl
805,4666-4667,v,_,_,_,_,_,807,ADP,Sl,case
806,4668-4678,primerjava,_,_,_,_,_,805,NOUN,Ncfsl,nmod
807,4679-4680,z,_,_,_,_,_,811,ADP,Si,case
808,4681-4689,zadnji,_,_,_,_,_,811,ADJ,Agpnpi,amod
809,4690-4695,trije,_,_,_,_,_,811,NUM,Mlcnpi,nummod
810,4696-4700,leto,_,_,_,_,_,807,NOUN,Ncnpi,nmod
811,4701-4703,biti,_,_,_,_,_,816,AUX,Va-r3s-n,cop
812,4704-4706,za,_,_,_,_,_,814,ADP,Sa,case
813,4707-4711,leto,_,_,_,_,_,816,NOUN,Ncnsa,obl
814,4712-4716,2007,_,_,_,_,_,814,NUM,Mdc,nummod
815,4717-4725,značilen,_,_,_,_,_,805,ADJ,Agpfsn,amod
816,4726-4734,bistveno,_,_,_,_,_,818,ADV,Rgp,advmod
817,4735-4743,hiter,_,_,_,_,_,819,ADJ,Agcfsn,amod
818,4744-4748,rast,_,_,_,_,_,816,NOUN,Ncfsn,nsubj
819,4749-4752,cena,_,_,_,_,_,819,NOUN,Ncfpg,nmod
820,4753-4758,hrana,_,_,_,_,_,820,NOUN,Ncfsg,nmod
821,4759-4761,in,_,_,_,_,_,824,CCONJ,Cc,cc
822,4762-4776,brezalkoholen,_,_,_,_,_,824,ADJ,Agpfpg,amod
823,4777-4782,pijača,_,_,_,_,_,820,NOUN,Ncfpg,conj
824,4783-4784,+,_,_,_,_,_,824,NOUN,Ncmsn,nmod
825,4785-4789,"12,9",_,_,_,_,_,827,NUM,Mdc,nummod
826,4790-4798,odstotek,_,_,_,_,_,820,NOUN,Ncmsg,nmod
827,4799-4802,ter,_,_,_,_,_,832,CCONJ,Cc,cc
828,4803-4813,gostinski,_,_,_,_,_,832,ADJ,Agpfpg,amod
829,4814-4816,in,_,_,_,_,_,831,CCONJ,Cc,cc
830,4817-4830,nastanitven,_,_,_,_,_,829,ADJ,Agpfpg,conj
831,4831-4839,storitev,_,_,_,_,_,827,NOUN,Ncfpg,conj
832,4840-4841,+,_,_,_,_,_,835,NOUN,Ncmsn,nmod
833,4842-4845,"8,6",_,_,_,_,_,835,NUM,Mdc,nummod
834,4846-4854,odstotek,_,_,_,_,_,832,NOUN,Ncmsg,nmod
835,4855-4856,.,_,_,_,_,_,835,PUNCT,Z,punct
836,4857-4868,številen,_,_,_,_,_,838,ADJ,Agcfsg,amod
837,4869-4879,podražitev,_,_,_,_,_,835,NOUN,Ncfsg,nmod
838,4880-4885,hrana,_,_,_,_,_,838,NOUN,Ncfsg,nmod
839,4886-4888,in,_,_,_,_,_,842,CCONJ,Cc,cc
840,4889-4903,brezalkoholen,_,_,_,_,_,842,ADJ,Agpfpg,amod
841,4904-4909,pijača,_,_,_,_,_,839,NOUN,Ncfpg,conj
842,4910-4918,beležiti,_,_,_,_,_,835,VERB,Vmpr1p,acl
843,4919-4921,že,_,_,_,_,_,843,PART,Q,advmod
844,4922-4924,od,_,_,_,_,_,846,ADP,Sg,case
845,4925-4929,maj,_,_,_,_,_,847,NOUN,Ncmsg,nmod
846,4930-4936,naprej,_,_,_,_,_,843,ADV,Rgp,advmod
847,4937-4938,.,_,_,_,_,_,843,PUNCT,Z,punct
848,4939-4942,kar,_,_,_,_,_,854,PRON,Pr-nsa,obj
849,4943-4948,nekaj,_,_,_,_,_,854,DET,Rgp,advmod
850,4949-4951,biti,_,_,_,_,_,854,AUX,Va-c,aux
851,4952-4955,on,_,_,_,_,_,854,PRON,Pp3mpa--y,obj
852,4956-4961,lahko,_,_,_,_,_,854,ADV,Rgp,advmod
853,4962-4971,pripisati,_,_,_,_,_,843,VERB,Vmep-pm,advcl
854,4972-4977,konec,_,_,_,_,_,854,NOUN,Ncmsd,obj
855,4978-4985,cenoven,_,_,_,_,_,857,ADJ,Agpfsg,amod
856,4986-4992,zaveza,_,_,_,_,_,855,NOUN,Ncfsg,nmod
857,4993-4994,",",_,_,_,_,_,854,PUNCT,Z,punct
858,4995-5000,drug,_,_,_,_,_,867,ADJ,Mlpfpn,nsubj
859,5001-5002,-,_,_,_,_,_,859,PUNCT,Z,punct
860,5003-5005,od,_,_,_,_,_,862,ADP,Sg,case
861,5006-5015,september,_,_,_,_,_,867,NOUN,Ncmsg,obl
862,5016-5022,naprej,_,_,_,_,_,862,ADV,Rgp,advmod
863,5023-5024,-,_,_,_,_,_,867,PUNCT,Z,punct
864,5025-5027,pa,_,_,_,_,_,867,CCONJ,Cc,advmod
865,5028-5035,trgovec,_,_,_,_,_,867,NOUN,Ncmpn,nsubj
866,5036-5047,pripisovati,_,_,_,_,_,854,VERB,Vmpr3p,conj
867,5048-5059,podražitev,_,_,_,_,_,867,NOUN,Ncfpd,obj
868,5060-5067,surovina,_,_,_,_,_,868,NOUN,Ncfpg,nmod
869,5068-5070,in,_,_,_,_,_,872,CCONJ,Cc,cc
870,5071-5077,visok,_,_,_,_,_,872,ADJ,Agcfpd,amod
871,5078-5083,cenam,_,_,_,_,_,868,NOUN,Ncfpd,conj
872,5084-5087,pri,_,_,_,_,_,874,ADP,Sl,case
873,5088-5100,dobavitelj,_,_,_,_,_,872,NOUN,Ncmpl,nmod
874,5101-5102,",",_,_,_,_,_,854,PUNCT,Z,punct
875,5103-5105,biti,_,_,_,_,_,901,AUX,Va-r3s-n,aux
876,5106-5114,povedati,_,_,_,_,_,4,VERB,Vmep-sf,parataxis
877,5115-5120,Maček,PER[10],0,*->9-3,*[9],3 - Nevtralno[15],877,PROPN,Npmsn,nsubj
878,5121-5128,Kenkov,PER[10],0,*->9-3,*[9],3 - Nevtralno[15],878,ADJ,Aspfsn,amod
879,5129-5130,.,_,_,_,_,_,854,PUNCT,Z,punct
880,5131-5136,letos,_,_,_,_,_,890,ADV,Rgp,advmod
881,5137-5139,biti,_,_,_,_,_,890,AUX,Va-r3s-n,aux
882,5140-5150,podražitev,_,_,_,_,_,890,NOUN,Ncfsn,nsubj
883,5151-5154,cena,_,_,_,_,_,883,NOUN,Ncfpg,nmod
884,5155-5160,hrana,_,_,_,_,_,884,NOUN,Ncfsg,nmod
885,5161-5163,in,_,_,_,_,_,888,CCONJ,Cc,cc
886,5164-5178,brezalkoholen,_,_,_,_,_,888,ADJ,Agpfpg,amod
887,5179-5184,pijača,_,_,_,_,_,885,NOUN,Ncfpg,conj
888,5185-5193,bistveno,_,_,_,_,_,890,ADV,Rgp,advmod
889,5194-5202,hiter,_,_,_,_,_,878,ADJ,Agcfsn,acl
890,5203-5204,.,_,_,_,_,_,890,PUNCT,Z,punct
891,5205-5209,foto,_,_,_,_,_,893,NOUN,Ncmsn,nmod
892,5210-5215,Kanal,ORG[11],0,*->10-1,*[10],3 - Nevtralno,890,NOUN,Ncmsn,nsubj
893,5216-5217,a,ORG[11],_,*->10-1,*[10],_,901,CCONJ,Cc,cc
894,5218-5221,med,_,_,_,_,_,896,ADP,Si,case
895,5222-5227,hrana,_,_,_,_,_,901,NOUN,Ncfsi,obl
896,5228-5230,biti,_,_,_,_,_,901,AUX,Va-r3p-n,aux
897,5231-5233,se,_,_,_,_,_,901,PRON,Px------y,expl
898,5234-5239,letos,_,_,_,_,_,901,ADV,Rgp,advmod
899,5240-5247,najbolj,_,_,_,_,_,901,ADV,Rgs,advmod
900,5248-5256,povišati,_,_,_,_,_,890,VERB,Vmep-pf,advcl
901,5257-5261,cena,_,_,_,_,_,901,NOUN,Ncfpn,nsubj
902,5262-5267,mleko,_,_,_,_,_,902,NOUN,Ncnsg,nmod
903,5268-5269,",",_,_,_,_,_,906,PUNCT,Z,punct
904,5270-5277,mlečen,_,_,_,_,_,906,ADJ,Agpmpg,amod
905,5278-5286,izdelek,_,_,_,_,_,903,NOUN,Ncmpg,conj
906,5287-5289,in,_,_,_,_,_,908,CCONJ,Cc,cc
907,5290-5294,jajce,_,_,_,_,_,903,NOUN,Ncnpg,conj
908,5295-5297,za,_,_,_,_,_,911,ADP,Sa,case
909,5298-5302,"21,2",_,_,_,_,_,911,NUM,Mdc,nummod
910,5303-5311,odstotek,_,_,_,_,_,908,NOUN,Ncmsg,nmod
911,5312-5313,",",_,_,_,_,_,913,PUNCT,Z,punct
912,5314-5319,sadje,_,_,_,_,_,911,NOUN,Ncnsg,conj
913,5320-5322,za,_,_,_,_,_,916,ADP,Sa,case
914,5323-5327,"20,6",_,_,_,_,_,916,NUM,Mdc,nummod
915,5328-5336,odstotek,_,_,_,_,_,913,NOUN,Ncmsg,nmod
916,5337-5338,",",_,_,_,_,_,918,PUNCT,Z,punct
917,5339-5343,olje,_,_,_,_,_,916,NOUN,Ncnsg,conj
918,5344-5346,in,_,_,_,_,_,920,CCONJ,Cc,cc
919,5347-5353,maščoba,_,_,_,_,_,916,NOUN,Ncfpg,conj
920,5354-5356,za,_,_,_,_,_,923,ADP,Sa,case
921,5357-5361,"20,1",_,_,_,_,_,923,NUM,Mdc,nummod
922,5362-5370,odstotek,_,_,_,_,_,920,NOUN,Ncmsg,nmod
923,5371-5374,ter,_,_,_,_,_,925,CCONJ,Cc,cc
924,5375-5380,kruh,_,_,_,_,_,923,NOUN,Ncmsg,conj
925,5381-5383,in,_,_,_,_,_,927,CCONJ,Cc,cc
926,5384-5390,drug,_,_,_,_,_,928,ADJ,Mlpmpg,amod
927,5391-5399,izdelek,_,_,_,_,_,923,NOUN,Ncmpg,conj
928,5400-5402,iz,_,_,_,_,_,930,ADP,Sg,case
929,5403-5406,žita,_,_,_,_,_,928,NOUN,Ncfpg,nmod
930,5407-5409,za,_,_,_,_,_,933,ADP,Sa,case
931,5410-5414,"18,3",_,_,_,_,_,933,NUM,Mdc,nummod
932,5415-5423,odstotek,_,_,_,_,_,930,NOUN,Ncmsg,nmod
933,5424-5425,.,_,_,_,_,_,890,PUNCT,Z,punct
934,5426-5429,med,_,_,_,_,_,939,ADP,Si,case
935,5430-5441,gostinski,_,_,_,_,_,939,ADJ,Agpfpi,amod
936,5442-5444,in,_,_,_,_,_,938,CCONJ,Cc,cc
937,5445-5459,nastanitven,_,_,_,_,_,936,ADJ,Agpfpi,conj
938,5460-5470,storitev,_,_,_,_,_,933,NOUN,Ncfpi,nmod
939,5471-5473,biti,_,_,_,_,_,942,AUX,Va-r3p-n,aux
940,5474-5481,najbolj,_,_,_,_,_,942,ADV,Rgs,advmod
941,5482-5491,izstopati,_,_,_,_,_,933,VERB,Vmpp-pf,acl
942,5492-5497,visok,_,_,_,_,_,944,ADJ,Agcfpn,amod
943,5498-5502,cena,_,_,_,_,_,942,NOUN,Ncfpn,nsubj
944,5503-5504,v,_,_,_,_,_,947,ADP,Sl,case
945,5505-5515,gostinski,_,_,_,_,_,947,ADJ,Agpmpl,amod
946,5516-5523,lokal,_,_,_,_,_,944,NOUN,Ncmpl,nmod
947,5524-5526,za,_,_,_,_,_,950,ADP,Sa,case
948,5527-5531,"11,4",_,_,_,_,_,950,NUM,Mdc,nummod
949,5532-5540,odstotek,_,_,_,_,_,947,NOUN,Ncmsg,nmod
950,5541-5542,",",_,_,_,_,_,942,PUNCT,Z,punct
951,5543-5546,med,_,_,_,_,_,954,ADP,Si,case
952,5547-5561,stanovanjski,_,_,_,_,_,954,ADJ,Agpfpi,amod
953,5562-5572,storitev,_,_,_,_,_,957,NOUN,Ncfpi,obl
954,5573-5575,pa,_,_,_,_,_,956,CCONJ,Cc,advmod
955,5576-5582,drag,_,_,_,_,_,950,ADJ,Agcnsn,amod
956,5583-5589,tekoč,_,_,_,_,_,956,ADJ,Appfsn,advcl
957,5590-5592,za,_,_,_,_,_,960,ADP,Sa,case
958,5593-5595,25,_,_,_,_,_,960,NUM,Mdc,nummod
959,5596-5605,odstotek,_,_,_,_,_,957,NOUN,Ncmpg,obl
960,5606-5608,in,_,_,_,_,_,962,CCONJ,Cc,cc
961,5609-5613,trd,_,_,_,_,_,963,ADJ,Agpnpn,amod
962,5614-5620,gorivo,_,_,_,_,_,960,NOUN,Ncnsg,conj
963,5621-5623,za,_,_,_,_,_,966,ADP,Sa,case
964,5624-5628,"12,6",_,_,_,_,_,966,NUM,Mdc,nummod
965,5629-5637,odstotek,_,_,_,_,_,963,NOUN,Ncmsg,nmod
966,5638-5639,.,_,_,_,_,_,956,PUNCT,Z,punct
967,5640-5644,rast,_,_,_,_,_,956,NOUN,Ncfsn,nsubj
968,5645-5648,cena,_,_,_,_,_,968,NOUN,Ncfpg,nmod
969,5649-5650,",",_,_,_,_,_,971,PUNCT,Z,punct
970,5651-5658,merjen,_,_,_,_,_,969,ADJ,Appfsn,amod
971,5659-5660,z,_,_,_,_,_,974,ADP,Si,case
972,5661-5675,harmoniziran,_,_,_,_,_,974,ADJ,Appmsi,amod
973,5676-5684,indeks,_,_,_,_,_,971,NOUN,Ncmsi,obl
974,5685-5688,cena,_,_,_,_,_,974,NOUN,Ncfpg,nmod
975,5689-5701,življenjski,_,_,_,_,_,977,ADJ,Agpfpg,amod
976,5702-5712,potrebščina,_,_,_,_,_,975,NOUN,Ncfpg,nmod
977,5713-5714,",",_,_,_,_,_,971,PUNCT,Z,punct
978,5715-5717,biti,_,_,_,_,_,987,AUX,Va-r3s-n,aux
979,5718-5722,biti,_,_,_,_,_,987,AUX,Va-p-sf,cop
980,5723-5724,v,_,_,_,_,_,982,ADP,Sl,case
981,5725-5733,december,_,_,_,_,_,987,NOUN,Ncmsl,obl
982,5734-5738,prav,_,_,_,_,_,984,PART,Q,advmod
983,5739-5743,tako,_,_,_,_,_,987,ADV,Rgp,advmod
984,5744-5747,"0,4",_,_,_,_,_,984,NUM,Mdc,nummod
985,5748-5749,-,_,_,_,_,_,987,PUNCT,Z,punct
986,5750-5758,odstoten,_,_,_,_,_,968,ADJ,Agpfsn,acl
987,5759-5760,.,_,_,_,_,_,987,PUNCT,Z,punct
988,5761-5766,leten,_,_,_,_,_,990,ADJ,Agpfsn,amod
989,5767-5771,rast,_,_,_,_,_,987,NOUN,Ncfsn,nsubj
990,5772-5775,cena,_,_,_,_,_,990,NOUN,Ncfpg,nmod
991,5776-5778,biti,_,_,_,_,_,996,AUX,Va-r3s-n,aux
992,5779-5783,biti,_,_,_,_,_,996,AUX,Va-p-sf,cop
993,5784-5787,"5,7",_,_,_,_,_,996,NUM,Mdc,nummod
994,5788-5789,-,_,_,_,_,_,996,PUNCT,Z,punct
995,5790-5798,odstoten,_,_,_,_,_,989,ADJ,Agpfsn,acl
996,5799-5803,lani,_,_,_,_,_,996,ADV,Rgp,advmod
997,5804-5806,le,_,_,_,_,_,996,PART,Q,advmod
998,5807-5818,triodstoten,_,_,_,_,_,996,ADJ,Agpfsn,conj
999,5819-5820,",",_,_,_,_,_,1001,PUNCT,Z,punct
1000,5821-5830,povprečen,_,_,_,_,_,999,ADJ,Agpfsn,conj
1001,5831-5836,leten,_,_,_,_,_,999,ADJ,Agpfsn,conj
1002,5837-5839,pa,_,_,_,_,_,1006,CCONJ,Cc,advmod
1003,5840-5843,"3,8",_,_,_,_,_,1006,NUM,Mdc,nummod
1004,5844-5845,-,_,_,_,_,_,1006,PUNCT,Z,punct
1005,5846-5854,odstoten,_,_,_,_,_,999,ADJ,Agpfsn,conj
1006,5855-5859,lani,_,_,_,_,_,1011,ADV,Rgp,advmod
1007,5860-5862,le,_,_,_,_,_,1011,PART,Q,advmod
1008,5863-5866,"2,5",_,_,_,_,_,1011,NUM,Mdc,nummod
1009,5867-5868,-,_,_,_,_,_,1011,PUNCT,Z,punct
1010,5869-5877,odstoten,_,_,_,_,_,1006,ADJ,Agpfsn,conj
1011,5878-5879,.,_,_,_,_,_,996,PUNCT,Z,punct
1012,5880-5889,Slovenija,ORG,2,*->6-11,*[6],2 - Negativno,1014,PROPN,Npfsn,nsubj
1013,5890-5893,imeti,_,_,_,_,_,1011,VERB,Vmpr3s-n,conj
1014,5894-5902,visok,_,_,_,_,_,1016,ADJ,Agsfsa,amod
1015,5903-5912,inflacija,_,_,_,_,_,1014,NOUN,Ncfsa,obj
1016,5913-5914,v,_,_,_,_,_,1018,ADP,Sl,case
1017,5915-5922,območje,_,_,_,_,_,1016,NOUN,Ncnsl,nmod
1018,5923-5927,evro,_,_,_,_,_,1018,NOUN,Ncmsg,nmod
1019,5928-5929,",",_,_,_,_,_,1021,PUNCT,Z,punct
1020,5930-5937,slediti,_,_,_,_,_,1011,VERB,Vmpr3d,conj
1021,5938-5945,Španija,ORG,2,*->11-1,*[11],2 - Negativno,1021,PROPN,Npfsn,nsubj
1022,5946-5948,in,_,_,_,_,_,1024,CCONJ,Cc,cc
1023,5949-5959,Luksemburg,ORG,2,*->12-1,*[12],2 - Negativno,1022,PROPN,Npmsn,conj
1024,5960-5961,.,_,_,_,_,_,1011,PUNCT,Z,punct
1025,5962-5963,v,_,_,_,_,_,1027,ADP,Sl,case
1026,5964-5972,november,_,_,_,_,_,1030,NOUN,Ncmsl,nmod
1027,5973-5975,biti,_,_,_,_,_,1039,AUX,Va-r3s-n,aux
1028,5976-5981,leten,_,_,_,_,_,1030,ADJ,Agpfsn,amod
1029,5982-5989,stopnja,_,_,_,_,_,1039,NOUN,Ncfsn,nsubj
1030,5990-5999,inflacija,_,_,_,_,_,1030,NOUN,Ncfsg,nmod
1031,6000-6001,v,_,_,_,_,_,1034,ADP,Sl,case
1032,6002-6004,13,_,_,_,_,_,1034,NUM,Mdc,nummod
1033,6005-6012,država,_,_,_,_,_,1030,NOUN,Ncfpl,nmod
1034,6013-6020,območje,_,_,_,_,_,1034,NOUN,Ncnsg,nmod
1035,6021-6025,evro,_,_,_,_,_,1035,NOUN,Ncmsg,nmod
1036,6026-6027,v,_,_,_,_,_,1038,ADP,Sl,case
1037,6028-6037,povprečje,_,_,_,_,_,1039,NOUN,Ncnsl,obl
1038,6038-6045,znašati,_,_,_,_,_,1021,VERB,Vmpp-sf,conj
1039,6046-6049,"3,1",_,_,_,_,_,1041,NUM,Mdc,nummod
1040,6050-6058,odstotek,_,_,_,_,_,1039,NOUN,Ncmsg,obl
1041,6059-6060,.,_,_,_,_,_,1054,PUNCT,Z,punct
1042,6061-6066,potem,_,_,_,_,_,1054,ADV,Rgp,mark
1043,6067-6069,ko,_,_,_,_,_,1043,SCONJ,Cs,fixed
1044,6070-6072,se,_,_,_,_,_,1054,PRON,Px------y,expl
1045,6073-6075,biti,_,_,_,_,_,1054,AUX,Va-r3s-n,aux
1046,6076-6080,kava,_,_,_,_,_,1054,NOUN,Ncfsn,nsubj
1047,6081-6082,v,_,_,_,_,_,1050,ADP,Sl,case
1048,6083-6093,gostinski,_,_,_,_,_,1050,ADJ,Agpmpl,amod
1049,6094-6101,lokal,_,_,_,_,_,1047,NOUN,Ncmpl,nmod
1050,6102-6106,samo,_,_,_,_,_,1054,PART,Q,advmod
1051,6107-6115,december,_,_,_,_,_,1054,NOUN,Ncmsg,obl
1052,6116-6120,lani,_,_,_,_,_,1052,ADV,Rgp,advmod
1053,6121-6130,podražiti,_,_,_,_,_,1039,VERB,Vmep-sf,advcl
1054,6131-6133,za,_,_,_,_,_,1057,ADP,Sa,case
1055,6134-6137,"3,6",_,_,_,_,_,1057,NUM,Mdc,nummod
1056,6138-6146,odstotek,_,_,_,_,_,1054,NOUN,Ncmsg,obl
1057,6147-6148,",",_,_,_,_,_,1054,PUNCT,Z,punct
1058,6149-6151,se,_,_,_,_,_,1069,PRON,Px------y,expl
1059,6152-6154,biti,_,_,_,_,_,1066,AUX,Va-r3s-n,aux
1060,6155-6160,letos,_,_,_,_,_,1066,ADV,Rgp,advmod
1061,6161-6163,še,_,_,_,_,_,1066,PART,Q,advmod
1062,6164-6166,za,_,_,_,_,_,1066,ADP,Sa,case
1063,6167-6175,dodaten,_,_,_,_,_,1066,ADJ,Agpmpg,amod
1064,6176-6178,15,_,_,_,_,_,1066,NUM,Mdc,nummod
1065,6179-6188,odstotek,_,_,_,_,_,1054,NOUN,Ncmpg,obl
1066,6189-6190,",",_,_,_,_,_,1069,PUNCT,Z,punct
1067,6191-6193,biti,_,_,_,_,_,1069,AUX,Va-r3p-n,aux
1068,6194-6204,izračunati,_,_,_,_,_,4,VERB,Vmep-pm,parataxis
1069,6205-6207,na,_,_,_,_,_,1072,ADP,Sl,case
1070,6208-6220,statističen,_,_,_,_,_,1072,ADJ,Agpmsl,amod
1071,6221-6226,urad,_,_,_,_,_,1069,NOUN,Ncmsl,obl
1072,6227-6228,.,_,_,_,_,_,1069,PUNCT,Z,punct
1073,6229-6232,riž,_,_,_,_,_,1089,NOUN,Ncmsan,obj
1074,6233-6234,",",_,_,_,_,_,1082,PUNCT,Z,punct
1075,6235-6237,ki,_,_,_,_,_,1082,SCONJ,Cs,mark
1076,6238-6240,se,_,_,_,_,_,1082,PRON,Px------y,expl
1077,6241-6243,biti,_,_,_,_,_,1082,AUX,Va-r3s-n,aux
1078,6244-6245,v,_,_,_,_,_,1080,ADP,Sl,case
1079,6246-6250,leto,_,_,_,_,_,1082,NOUN,Ncnsl,obl
1080,6251-6255,2006,_,_,_,_,_,1080,NUM,Mdc,nummod
1081,6256-6263,poceniti,_,_,_,_,_,1072,VERB,Vmep-sm,acl
1082,6264-6266,za,_,_,_,_,_,1085,ADP,Sa,case
1083,6267-6270,trije,_,_,_,_,_,1085,NUM,Mlcmpa,nummod
1084,6271-6279,odstotek,_,_,_,_,_,1082,NOUN,Ncmpa,obl
1085,6280-6281,",",_,_,_,_,_,1082,PUNCT,Z,punct
1086,6282-6284,biti,_,_,_,_,_,1089,AUX,Va-r3s-n,cop
1087,6285-6290,letos,_,_,_,_,_,1089,ADV,Rgp,advmod
1088,6291-6297,dražji,_,_,_,_,_,1066,ADJ,Agcmsny,acl
1089,6298-6300,za,_,_,_,_,_,1092,ADP,Sa,case
1090,6301-6303,16,_,_,_,_,_,1092,NUM,Mdc,nummod
1091,6304-6313,odstotek,_,_,_,_,_,1089,NOUN,Ncmpg,obl
1092,6314-6315,",",_,_,_,_,_,1105,PUNCT,Z,punct
1093,6316-6320,cena,_,_,_,_,_,1105,NOUN,Ncfsn,nsubj
1094,6321-6329,alpski,_,_,_,_,_,1096,ADJ,Agpnsg,amod
1095,6330-6335,mleko,_,_,_,_,_,1094,NOUN,Ncnsg,nmod
1096,6336-6338,pa,_,_,_,_,_,1105,CCONJ,Cc,advmod
1097,6339-6341,se,_,_,_,_,_,1105,PRON,Px------y,expl
1098,6342-6344,biti,_,_,_,_,_,1105,AUX,Va-r3s-n,aux
1099,6345-6347,po,_,_,_,_,_,1103,ADP,Sl,case
1100,6348-6354,lanski,_,_,_,_,_,1103,ADJ,Agpfsl,amod
1101,6355-6366,enoodstoten,_,_,_,_,_,1103,ADJ,Agpfsl,amod
1102,6367-6372,rast,_,_,_,_,_,1105,NOUN,Ncfsl,obl
1103,6373-6378,letos,_,_,_,_,_,1105,ADV,Rgp,advmod
1104,6379-6386,zvišati,_,_,_,_,_,1089,VERB,Vmep-sf,advcl
1105,6387-6389,za,_,_,_,_,_,1108,ADP,Sa,case
1106,6390-6392,16,_,_,_,_,_,1108,NUM,Mdc,nummod
1107,6393-6402,odstotek,_,_,_,_,_,1105,NOUN,Ncmpg,obl
1108,6403-6404,.,_,_,_,_,_,1105,PUNCT,Z,punct
1109,6405-6410,Marco,_,_,_,_,_,1111,PROPN,Npmsg,nmod
1110,6411-6416,letos,_,_,_,_,_,1115,ADV,Rgp,advmod
1111,6417-6419,se,_,_,_,_,_,1114,PRON,Px------y,expl
1112,6420-6422,biti,_,_,_,_,_,1114,AUX,Va-r3s-n,aux
1113,6423-6429,začeti,_,_,_,_,_,1105,VERB,Vmep-sn,conj
1114,6430-6437,dražiti,_,_,_,_,_,1114,VERB,Vmpn,xcomp
1115,6438-6442,tudi,_,_,_,_,_,1115,PART,Q,advmod
1116,6443-6450,kurilen,_,_,_,_,_,1118,ADJ,Agpnsa,amod
1117,6451-6455,olje,_,_,_,_,_,1115,NOUN,Ncnsa,obj
1118,6456-6457,",",_,_,_,_,_,1114,PUNCT,Z,punct
1119,6458-6466,letošnji,_,_,_,_,_,1121,ADJ,Agpfsn,amod
1120,6467-6477,podražitev,_,_,_,_,_,1123,NOUN,Ncfsn,nsubj
1121,6478-6482,tako,_,_,_,_,_,1123,ADV,Rgp,advmod
1122,6483-6488,znašati,_,_,_,_,_,1114,VERB,Vmpr3s,conj
1123,6489-6491,25,_,_,_,_,_,1125,NUM,Mdc,nummod
1124,6492-6501,odstotek,_,_,_,_,_,1123,NOUN,Ncmpg,obj
1125,6502-6503,",",_,_,_,_,_,1136,PUNCT,Z,punct
1126,6504-6510,medtem,_,_,_,_,_,1136,ADV,Rgp,mark
1127,6511-6513,ko,_,_,_,_,_,1127,SCONJ,Cs,fixed
1128,6514-6516,se,_,_,_,_,_,1136,PRON,Px------y,expl
1129,6517-6519,biti,_,_,_,_,_,1136,AUX,Va-r3s-n,aux
1130,6520-6521,v,_,_,_,_,_,1132,ADP,Sl,case
1131,6522-6526,leto,_,_,_,_,_,1136,NOUN,Ncnsl,obl
1132,6527-6531,2006,_,_,_,_,_,1132,NUM,Mdc,nummod
1133,6532-6539,njegov,_,_,_,_,_,1135,DET,Ps3fsnsm,det
1134,6540-6544,cena,_,_,_,_,_,1136,NOUN,Ncfsn,nsubj
1135,6545-6552,znižati,_,_,_,_,_,1123,VERB,Vmep-sf,advcl
1136,6553-6555,za,_,_,_,_,_,1139,ADP,Sa,case
1137,6556-6559,"1,6",_,_,_,_,_,1139,NUM,Mdc,nummod
1138,6560-6568,odstotek,_,_,_,_,_,1136,NOUN,Ncmsg,obl
1139,6569-6570,.,_,_,_,_,_,1123,PUNCT,Z,punct
1140,6571-6573,za,_,_,_,_,_,1143,ADP,Sa,case
1141,6574-6576,26,_,_,_,_,_,1143,NUM,Mdc,nummod
1142,6577-6586,odstotek,_,_,_,_,_,1147,NOUN,Ncmpg,obl
1143,6587-6589,se,_,_,_,_,_,1147,PRON,Px------y,expl
1144,6590-6592,biti,_,_,_,_,_,1147,AUX,Va-r3s-n,aux
1145,6593-6598,letos,_,_,_,_,_,1147,ADV,Rgp,advmod
1146,6599-6607,podražiti,_,_,_,_,_,1114,VERB,Vmep-sm,parataxis
1147,6608-6612,tudi,_,_,_,_,_,1147,PART,Q,advmod
1148,6613-6617,kruh,_,_,_,_,_,1147,NOUN,Ncmsan,obj
1149,6618-6619,",",_,_,_,_,_,1156,PUNCT,Z,punct
1150,6620-6628,kateri,_,_,_,_,_,1152,DET,Pq-msg,nmod
1151,6629-6633,cena,_,_,_,_,_,1156,NOUN,Ncfpn,nsubj
1152,6634-6636,biti,_,_,_,_,_,1156,AUX,Va-r3p-n,aux
1153,6637-6639,se,_,_,_,_,_,1156,PRON,Px------y,expl
1154,6640-6644,lani,_,_,_,_,_,1156,ADV,Rgp,advmod
1155,6645-6652,znižati,_,_,_,_,_,1149,VERB,Vmep-pf,acl
1156,6653-6655,za,_,_,_,_,_,1159,ADP,Sa,case
1157,6656-6660,osem,_,_,_,_,_,1159,NUM,Mlc-pa,nummod
1158,6661-6670,odstotek,_,_,_,_,_,1156,NOUN,Ncmpg,obl
1159,6671-6672,.,_,_,_,_,_,1147,PUNCT,Z,punct
1160,6673-6679,limona,_,_,_,_,_,1149,NOUN,Ncfsg,conj
1161,6680-6681,",",_,_,_,_,_,1167,PUNCT,Z,punct
1162,6682-6689,kateri,_,_,_,_,_,1167,DET,Pq-mpd,obj
1163,6690-6692,biti,_,_,_,_,_,1167,AUX,Va-r3s-n,aux
1164,6693-6697,cena,_,_,_,_,_,1167,NOUN,Ncfsn,nsubj
1165,6698-6702,lani,_,_,_,_,_,1167,ADV,Rgp,advmod
1166,6703-6712,poskočiti,_,_,_,_,_,1161,VERB,Vmep-sf,acl
1167,6713-6715,za,_,_,_,_,_,1170,ADP,Sa,case
1168,6716-6719,pet,_,_,_,_,_,1170,NUM,Mlc-pa,nummod
1169,6720-6729,odstotek,_,_,_,_,_,1167,NOUN,Ncmpg,obl
1170,6730-6731,",",_,_,_,_,_,1167,PUNCT,Z,punct
1171,6732-6734,pa,_,_,_,_,_,1178,CCONJ,Cc,advmod
1172,6735-6737,biti,_,_,_,_,_,1178,AUX,Va-r3p-n,aux
1173,6738-6740,se,_,_,_,_,_,1178,PRON,Px------y,expl
1174,6741-6742,v,_,_,_,_,_,1176,ADP,Sl,case
1175,6743-6747,leto,_,_,_,_,_,1178,NOUN,Ncnsl,obl
1176,6748-6752,2007,_,_,_,_,_,1176,NUM,Mdc,nummod
1177,6753-6762,podražiti,_,_,_,_,_,1167,VERB,Vmep-pf,conj
1178,6763-6766,kar,_,_,_,_,_,1182,ADV,Rgp,advmod
1179,6767-6769,za,_,_,_,_,_,1182,ADP,Sa,case
1180,6770-6772,70,_,_,_,_,_,1182,NUM,Mdc,nummod
1181,6773-6782,odstotek,_,_,_,_,_,1178,NOUN,Ncmpg,obl
