idx,chars_idx,token,entity_type,sentiment,idk_1,idk_2,orig_sentiment,heads,upos,xpos,deprel
0,0-5,možen,_,_,_,_,_,0,ADJ,Agpnsn,root
1,6-8,biti,_,_,_,_,_,1,AUX,Va-r3s-n,cop
2,9-10,",",_,_,_,_,_,10,PUNCT,Z,punct
3,11-13,da,_,_,_,_,_,10,SCONJ,Cs,mark
4,14-16,biti,_,_,_,_,_,10,AUX,Va-f3s-n,aux
5,17-18,v,_,_,_,_,_,7,ADP,Sl,case
6,19-26,skupina,_,_,_,_,_,10,NOUN,Ncfsl,obl
7,27-36,pivovarna,ORG[1],_,*->14-1,*[14],_,7,NOUN,Ncfsg,nmod
8,37-42,Laško,ORG[1]|LOC[2],_,*->14-1|*->1-1,*[14]|*[1],_,8,PROPN,Npnsn,nmod
9,43-49,priti,_,_,_,_,_,1,VERB,Vmep-sn,csubj
10,50-52,do,_,_,_,_,_,12,ADP,Sg,case
11,53-70,prestrukturiranje,_,_,_,_,_,10,NOUN,Ncnsg,obl
12,71-73,in,_,_,_,_,_,14,CCONJ,Cc,cc
13,74-85,združevanje,_,_,_,_,_,12,NOUN,Ncnsg,conj
14,86-91,družba,_,_,_,_,_,14,NOUN,Ncfpg,nmod
15,92-93,",",_,_,_,_,_,10,PUNCT,Z,punct
16,94-95,a,_,_,_,_,_,24,CCONJ,Cc,cc
17,96-102,noben,_,_,_,_,_,24,DET,Pz-fsg,obj
18,103-105,od,_,_,_,_,_,20,ADP,Sg,case
19,106-111,družba,_,_,_,_,_,18,NOUN,Ncfpg,nmod
20,112-115,naj,_,_,_,_,_,24,PART,Q,advmod
21,116-118,ne,_,_,_,_,_,24,PART,Q,advmod
22,119-121,biti,_,_,_,_,_,24,AUX,Va-c,aux
23,122-128,zapreti,_,_,_,_,_,10,VERB,Vmep-pm,conj
24,129-130,.,_,_,_,_,_,10,PUNCT,Z,punct
25,131-134,pri,_,_,_,_,_,27,ADP,Sl,case
26,135-138,ta,_,_,_,_,_,30,DET,Pd-nsl,obl
27,139-141,pa,_,_,_,_,_,30,CCONJ,Cc,advmod
28,142-147,Zorko,PER,_,*->11-1,*[11],_,30,PROPN,Npmsn,nsubj
29,148-153,praviti,_,_,_,_,_,1,VERB,Vmbr3s,root
30,154-155,",",_,_,_,_,_,33,PUNCT,Z,punct
31,156-158,da,_,_,_,_,_,33,SCONJ,Cs,mark
32,159-161,biti,_,_,_,_,_,30,VERB,Va-r3s-n,ccomp
33,162-163,o,_,_,_,_,_,35,ADP,Sl,case
34,164-169,tožba,_,_,_,_,_,40,NOUN,Ncfsl,obl
35,170-175,proti,_,_,_,_,_,37,ADP,Sd,case
36,176-181,Šrot,PER,_,*->12-1,*[12],_,35,PROPN,Npmsd,nmod
37,182-184,še,_,_,_,_,_,40,PART,Q,advmod
38,185-194,prezgodaj,_,_,_,_,_,40,ADV,Rgp,advmod
39,195-203,govoriti,_,_,_,_,_,33,VERB,Vmpn,csubj
40,204-205,.,_,_,_,_,_,33,PUNCT,Z,punct
41,206-211,Dušan,PER[3],_,*->11-2,*[11],_,51,PROPN,Npmsn,nsubj
42,212-217,Zorko,PER[3],_,*->11-2,*[11],_,42,PROPN,Npmsn,flat:name
43,218-228,nadzornik,_,_,_,_,_,51,NOUN,Ncmpn,nsubj
44,229-238,pivovarna,ORG[4],_,*->14-2,*[14],_,42,NOUN,Ncfsg,nmod
45,239-244,Laško,ORG[4]|LOC[5],_,*->14-2|*->1-2,*[14]|*[1],_,45,PROPN,Npnsn,nmod
46,245-247,biti,_,_,_,_,_,51,AUX,Va-r3p-n,aux
47,248-250,na,_,_,_,_,_,50,ADP,Sl,case
48,251-261,včerajšnji,_,_,_,_,_,50,ADJ,Agpfsl,amod
49,262-266,seja,_,_,_,_,_,51,NOUN,Ncfsl,obl
50,267-275,naložiti,_,_,_,_,_,1,VERB,Vmep-pm,parataxis
51,276-282,uprava,_,_,_,_,_,51,NOUN,Ncfsd,iobj
52,283-284,",",_,_,_,_,_,55,PUNCT,Z,punct
53,285-288,naj,_,_,_,_,_,55,SCONJ,Cs,mark
54,289-297,pripraviti,_,_,_,_,_,51,VERB,Vmer3s,ccomp
55,298-305,projekt,_,_,_,_,_,55,NOUN,Ncmsan,obj
56,306-323,prestrukturiranje,_,_,_,_,_,56,NOUN,Ncnsg,nmod
57,324-326,in,_,_,_,_,_,59,CCONJ,Cc,cc
58,327-338,združevanje,_,_,_,_,_,57,NOUN,Ncnsg,conj
59,339-344,družba,_,_,_,_,_,59,NOUN,Ncfpg,nmod
60,345-347,iz,_,_,_,_,_,62,ADP,Sg,case
61,348-355,skupina,_,_,_,_,_,60,NOUN,Ncfsg,nmod
62,356-365,pivovarna,ORG[6],_,*->14-3,*[14],_,62,NOUN,Ncfsn,nmod
63,366-371,Laško,ORG[6]|LOC[7],_,*->14-3|*->1-3,*[14]|*[1],_,63,PROPN,Npnsn,nmod
64,372-373,",",_,_,_,_,_,68,PUNCT,Z,punct
65,374-376,ki,_,_,_,_,_,68,SCONJ,Cs,mark
66,377-379,se,_,_,_,_,_,68,PRON,Px------y,expl
67,380-389,ukvarjati,_,_,_,_,_,56,VERB,Vmpr3p,acl
68,390-391,z,_,_,_,_,_,70,ADP,Si,case
69,392-402,industrija,_,_,_,_,_,68,NOUN,Ncfsi,obl
70,403-408,pijača,_,_,_,_,_,70,NOUN,Ncfpg,nmod
71,409-410,.,_,_,_,_,_,51,PUNCT,Z,punct
72,411-413,in,_,_,_,_,_,81,CCONJ,Cc,cc
73,414-416,iz,_,_,_,_,_,75,ADP,Sg,case
74,417-424,skupina,_,_,_,_,_,70,NOUN,Ncfsg,conj
75,425-433,omenjen,_,_,_,_,_,77,ADJ,Appfsg,amod
76,434-443,pivovarna,_,_,*->14-4,*[14],_,75,NOUN,Ncfsg,nmod
77,444-446,se,_,_,_,_,_,81,PRON,Px------y,expl
78,447-448,z,_,_,_,_,_,80,ADP,Si,case
79,449-457,pijača,_,_,_,_,_,81,NOUN,Ncfpi,obl
80,458-467,ukvarjati,_,_,_,_,_,68,VERB,Vmpr3d,conj
81,468-477,pivovarna,_,_,_,_,_,81,NOUN,Ncfdn,nsubj
82,478-483,Laško,ORG,_,*->14-5,*[14],_,82,PROPN,Npnsn,nmod
83,484-486,in,_,_,_,_,_,85,CCONJ,Cc,cc
84,487-492,Union,ORG,_,*->2-1,*[2],_,83,PROPN,Npmsn,conj
85,493-496,ter,_,_,_,_,_,87,CCONJ,Cc,cc
86,497-503,družba,_,0,*->3-1,*[3],3 - Nevtralno[23],83,NOUN,Ncfsg,conj
87,504-512,Radenska,ORG,0,*->3-1,*[3],3 - Nevtralno[23],87,PROPN,Npfsn,nmod
88,513-514,",",_,_,_,_,_,90,PUNCT,Z,punct
89,515-522,Fructal,ORG,0,*->4-1,*[4],3 - Nevtralno,88,PROPN,Npmsn,conj
90,523-525,in,_,_,_,_,_,93,CCONJ,Cc,cc
91,526-531,Vital,ORG[8],_,*->5-1,*[5],_,93,PROPN,Npmsn,nmod
92,532-540,Mestinja,ORG[8],_,*->5-1,*[5],_,88,PROPN,Npfsn,conj
93,541-542,.,_,_,_,_,_,93,PUNCT,Z,punct
94,543-546,res,_,_,_,_,_,169,ADV,Rgp,advmod
95,547-549,biti,_,_,_,_,_,93,AUX,Va-r3s-n,cop
96,550-551,",",_,_,_,_,_,104,PUNCT,Z,punct
97,552-554,da,_,_,_,_,_,104,SCONJ,Cs,mark
98,555-557,biti,_,_,_,_,_,104,AUX,Va-r3p-n,cop
99,558-561,ves,_,_,_,_,_,102,DET,Pg-fpn,det
100,562-570,omenjen,_,_,_,_,_,102,ADJ,Appfpn,amod
101,571-577,družba,_,_,_,_,_,104,NOUN,Ncfpn,nsubj
102,578-587,lastniško,_,_,_,_,_,104,ADV,Rgp,advmod
103,588-596,povezan,_,_,_,_,_,93,ADJ,Appfpn,acl
104,597-598,",",_,_,_,_,_,104,PUNCT,Z,punct
105,599-605,vendar,_,_,_,_,_,113,CCONJ,Cc,cc
106,606-608,biti,_,_,_,_,_,113,AUX,Va-r3p-n,cop
107,609-611,še,_,_,_,_,_,111,PART,Q,advmod
108,612-617,vedno,_,_,_,_,_,111,ADV,Rgp,advmod
109,618-623,štirje,_,_,_,_,_,113,NUM,Mlcfpa,nummod
110,624-630,ločen,_,_,_,_,_,113,ADJ,Appfpa,amod
111,631-637,praven,_,_,_,_,_,113,ADJ,Agpfpa,amod
112,638-643,oseba,_,_,_,_,_,104,NOUN,Ncfpa,obj
113,644-645,.,_,_,_,_,_,104,PUNCT,Z,punct
114,646-652,skupaj,_,_,_,_,_,121,ADV,Rgp,advmod
115,653-654,z,_,_,_,_,_,117,ADP,Si,case
116,655-662,Vital,ORG[9],0,*->5-2,*[5],3 - Nevtralno[24],113,PROPN,Npmsi,nmod
117,663-671,Mestinja,ORG[9],0,*->5-2,*[5],3 - Nevtralno[24],117,PROPN,Npfsn,nmod
118,672-675,on,_,_,_,_,_,121,PRON,Pp3mpg--y,nmod
119,676-678,biti,_,_,_,_,_,121,AUX,Va-r3s-n,aux
120,679-682,pet,_,_,_,_,_,113,NUM,Mlc-pn,nummod
121,683-684,.,_,_,_,_,_,113,PUNCT,Z,punct
122,685-688,naš,_,_,*->14-6,*[14],_,124,DET,Ps1msnp,det
123,689-694,načrt,_,_,_,_,_,121,NOUN,Ncmsn,nsubj
124,695-697,biti,_,_,_,_,_,124,AUX,Va-r3s-n,cop
125,698-699,",",_,_,_,_,_,131,PUNCT,Z,punct
126,700-702,da,_,_,_,_,_,131,SCONJ,Cs,mark
127,703-705,biti,_,_,_,_,_,131,AUX,Va-c,aux
128,706-709,ves,_,_,_,_,_,130,DET,Pg-npa,det
129,710-718,podjetje,_,_,_,_,_,131,NOUN,Ncnpa,obj
130,719-727,povezati,_,_,*->14-7,*[14],_,124,VERB,Vmep-pm,acl
131,728-729,v,_,_,_,_,_,134,ADP,Sa,case
132,730-736,enoten,_,_,_,_,_,134,ADJ,Agpnsa,amod
133,737-745,podjetje,_,_,_,_,_,131,NOUN,Ncnsa,obl
134,746-747,",",_,_,_,_,_,141,PUNCT,Z,punct
135,748-750,ki,_,_,_,_,_,141,SCONJ,Cs,mark
136,751-753,biti,_,_,_,_,_,141,AUX,Va-f3s-n,aux
137,754-757,pod,_,_,_,_,_,140,ADP,Si,case
138,758-761,en,_,_,_,_,_,140,NUM,Mlpfsi,nummod
139,762-768,streha,_,_,_,_,_,141,NOUN,Ncfsa,obl
140,769-779,združevati,_,_,_,_,_,134,VERB,Vmpp-sn,acl
141,780-787,celoten,_,_,_,_,_,144,ADJ,Agpfsa,amod
142,788-797,slovenski,_,_,_,_,_,144,ADJ,Agpfsa,amod
143,798-808,industrija,_,_,_,_,_,141,NOUN,Ncfsa,obj
144,809-814,pijača,_,_,_,_,_,144,NOUN,Ncfpg,nmod
145,815-816,.,_,_,_,_,_,141,PUNCT,Z,punct
146,817-819,po,_,_,_,_,_,148,ADP,Sa,case
147,820-825,svoj,_,_,_,_,_,149,DET,Px-nsa,obl
148,826-829,iti,_,_,_,_,_,131,VERB,Vmbr3s,conj
149,830-832,za,_,_,_,_,_,151,ADP,Sa,case
150,833-845,nadaljevanje,_,_,_,_,_,149,NOUN,Ncnsa,obl
151,846-854,projekt,_,_,_,_,_,151,NOUN,Ncmsg,nmod
152,855-856,",",_,_,_,_,_,157,PUNCT,Z,punct
153,857-859,ki,_,_,_,_,_,157,SCONJ,Cs,mark
154,860-862,se,_,_,_,_,_,157,PRON,Px------y,expl
155,863-865,biti,_,_,_,_,_,157,AUX,Va-r3s-n,aux
156,866-871,začeti,_,_,_,_,_,152,VERB,Vmep-sm,acl
157,872-874,ob,_,_,_,_,_,159,ADP,Sl,case
158,875-883,prevzem,_,_,_,_,_,157,NOUN,Ncmsl,obl
159,884-893,pivovarna,ORG[10],0,*->2-2,*[2],3 - Nevtralno[25],159,NOUN,Ncfsg,nmod
160,894-899,Union,ORG[10],0,*->2-2,*[2],3 - Nevtralno[25],160,PROPN,Npmsn,nmod
161,900-901,",",_,_,_,_,_,157,PUNCT,Z,punct
162,902-904,biti,_,_,_,_,_,169,AUX,Va-r3s-n,aux
163,905-907,po,_,_,_,_,_,165,ADP,Sl,case
164,908-915,pisanje,_,_,_,_,_,169,NOUN,Ncnsl,obl
165,916-920,delo,ORG,_,*->6-1,*[6],_,165,NOUN,Ncnsg,nmod
166,921-928,celoten,_,_,_,_,_,168,ADJ,Agpfsa,amod
167,929-935,zadeva,_,_,_,_,_,169,NOUN,Ncfsa,obj
168,936-944,pojasniti,_,_,_,_,_,1,VERB,Vmep-sm,parataxis
169,945-955,predsednik,_,_,*->11-3,*[11],_,169,NOUN,Ncmsn,nsubj
170,956-962,uprava,_,_,*->11-3,*[11],_,170,NOUN,Ncfsg,nmod
171,963-972,pivovarna,ORG[11],_,*->11-3|*->14-8,*[11]|*[14],_,171,NOUN,Ncfsg,nmod
172,973-978,Laško,ORG[11]|LOC[12],_,*->11-3|*->14-8|*->1-4,*[11]|*[14]|*[1],_,171,PROPN,Npnsn,nmod
173,979-984,Dušan,PER[13],_,*->11-3,*[11],_,170,PROPN,Npmsn,nmod
174,985-990,Zorko,PER[13],_,*->11-3,*[11],_,174,PROPN,Npmsn,flat:name
175,991-992,.,_,_,_,_,_,184,PUNCT,Z,punct
176,993-996,ker,_,_,_,_,_,184,SCONJ,Cs,mark
177,997-999,se,_,_,_,_,_,184,PRON,Px------y,expl
178,1000-1001,v,_,_,_,_,_,182,ADP,Sl,case
179,1002-1012,slovenski,_,_,_,_,_,182,ADJ,Agpmsl,amod
180,1013-1025,gospodarski,_,_,_,_,_,182,ADJ,Agpmsl,amod
181,1026-1034,prostor,_,_,_,_,_,184,NOUN,Ncmsl,obl
182,1035-1037,že,_,_,_,_,_,184,PART,Q,advmod
183,1038-1048,pojavljati,_,_,_,_,_,169,VERB,Vmpr3p,advcl
184,1049-1060,informacija,_,_,_,_,_,184,NOUN,Ncfpn,nsubj
185,1061-1062,o,_,_,_,_,_,187,ADP,Sl,case
186,1063-1073,razprodaja,_,_,_,_,_,185,NOUN,Ncfsl,nmod
187,1074-1084,premoženje,_,_,_,_,_,187,NOUN,Ncnsg,nmod
188,1085-1094,pivovarna,_,_,_,_,_,188,NOUN,Ncfsg,nmod
189,1095-1096,",",_,_,_,_,_,184,PUNCT,Z,punct
190,1097-1099,biti,_,_,_,_,_,195,AUX,Va-r3s-n,cop
191,1100-1102,ta,_,_,_,_,_,195,DET,Pd-nsn,nsubj
192,1103-1108,lahko,_,_,_,_,_,195,ADV,Rgp,advmod
193,1109-1113,tudi,_,_,_,_,_,195,PART,Q,advmod
194,1114-1121,odgovor,_,_,_,_,_,1,NOUN,Ncmsn,parataxis
195,1122-1124,na,_,_,_,_,_,198,ADP,Sa,case
196,1125-1133,omenjen,_,_,_,_,_,198,ADJ,Appnsa,amod
197,1134-1143,vprašanje,_,_,_,_,_,195,NOUN,Ncnsa,nmod
198,1144-1145,",",_,_,_,_,_,184,PUNCT,Z,punct
199,1146-1148,pa,_,_,_,_,_,204,CCONJ,Cc,advmod
200,1149-1151,biti,_,_,_,_,_,204,AUX,Va-r3s-n,aux
201,1152-1157,Zorko,PER,_,*->11-4,*[11],_,204,PROPN,Npmsn,nsubj
202,1158-1162,del,ORG,_,*->6-2,*[6],_,204,NOUN,Ncnsd,obj
203,1163-1172,odgovoriti,_,_,_,_,_,195,VERB,Vmep-sm,conj
204,1173-1175,na,_,_,_,_,_,206,ADP,Sa,case
205,1176-1185,vprašanje,_,_,_,_,_,204,NOUN,Ncnsa,obl
206,1186-1187,",",_,_,_,_,_,217,PUNCT,Z,punct
207,1188-1191,ali,_,_,_,_,_,217,ADV,Rgp,mark
208,1192-1194,biti,_,_,_,_,_,217,AUX,Va-r3s-n,aux
209,1195-1196,v,_,_,_,_,_,211,ADP,Sl,case
210,1197-1203,ozadje,_,_,_,_,_,217,NOUN,Ncnsl,obl
211,1204-1211,načrt,_,_,_,_,_,211,NOUN,Ncmpg,nmod
212,1212-1214,za,_,_,_,_,_,214,ADP,Sa,case
213,1215-1232,prestrukturiranje,_,_,_,_,_,212,NOUN,Ncnsa,nmod
214,1233-1242,pivovarna,_,_,_,_,_,214,NOUN,Ncfsg,nmod
215,1243-1247,tudi,_,_,_,_,_,217,PART,Q,advmod
216,1248-1255,bojazen,_,_,_,_,_,206,NOUN,Ncfsn,acl
217,1256-1260,pred,_,_,_,_,_,220,ADP,Si,case
218,1261-1270,morebiten,_,_,_,_,_,220,ADJ,Agpfsi,amod
219,1271-1281,razprodaja,_,_,_,_,_,217,NOUN,Ncfsi,nmod
220,1282-1292,premoženje,_,_,_,_,_,220,NOUN,Ncnsg,nmod
221,1293-1295,iz,_,_,_,_,_,224,ADP,Sg,case
222,1296-1301,laški,_,_,_,_,_,224,ADJ,Agpfsg,amod
223,1302-1309,skupina,_,_,_,_,_,221,NOUN,Ncfsg,nmod
224,1310-1311,.,_,_,_,_,_,217,PUNCT,Z,punct
225,1312-1318,končen,_,_,_,_,_,227,ADJ,Agpmsny,amod
226,1319-1323,cilj,_,_,_,_,_,229,NOUN,Ncmsn,nsubj
227,1324-1326,biti,_,_,_,_,_,229,AUX,Va-r3s-n,cop
228,1327-1336,združitev,_,_,_,_,_,217,NOUN,Ncfsn,conj
229,1337-1341,ves,_,_,_,_,_,232,DET,Pg-npg,det
230,1342-1353,pijačarski,_,_,_,_,_,232,ADJ,Agpnpg,amod
231,1354-1362,podjetje,_,_,_,_,_,229,NOUN,Ncnpg,nmod
232,1363-1364,v,_,_,_,_,_,235,ADP,Sa,case
233,1365-1371,enoten,_,_,_,_,_,235,ADJ,Agpnsa,amod
234,1372-1380,podjetje,_,_,_,_,_,232,NOUN,Ncnsa,nmod
235,1381-1382,",",_,_,_,_,_,217,PUNCT,Z,punct
236,1383-1385,biti,_,_,_,_,_,240,AUX,Va-r3s-n,aux
237,1386-1388,za,_,_,_,_,_,239,ADP,Sa,case
238,1389-1393,delo,ORG,0,*->6-3,*[6],3 - Nevtralno,240,NOUN,Ncnsa,obl
239,1394-1399,dejati,_,_,_,_,_,1,VERB,Vmep-sm,parataxis
240,1400-1406,glaven,_,_,*->13-1,*[13],_,242,ADJ,Agpmsny,amod
241,1407-1416,nadzornik,_,_,*->13-1,*[13],_,240,NOUN,Ncmsn,nsubj
242,1417-1426,pivovarna,ORG,_,*->13-1|*->14-9,*[13]|*[14],_,242,NOUN,Ncfsg,nmod
243,1427-1432,Laško,LOC,_,*->13-1|*->14-9|*->1-5,*[13]|*[14]|*[1],_,243,PROPN,Npnsn,nmod
244,1433-1437,Tone,PER[14],_,*->13-1,*[13],_,242,PROPN,Npmsn,nmod
245,1438-1445,Turnšek,PER[14],_,*->13-1,*[13],_,245,PROPN,Npmsn,flat:name
246,1446-1447,",",_,_,_,_,_,251,PUNCT,Z,punct
247,1448-1450,ki,_,_,_,_,_,251,SCONJ,Cs,mark
248,1451-1453,biti,_,_,_,_,_,251,AUX,Va-r3s-n,aux
249,1454-1456,še,_,_,_,_,_,251,PART,Q,advmod
250,1457-1466,zagotoviti,_,_,*->13-2,*[13],_,243,VERB,Vmep-sm,acl
251,1467-1468,",",_,_,_,_,_,259,PUNCT,Z,punct
252,1469-1471,da,_,_,_,_,_,259,SCONJ,Cs,mark
253,1472-1478,noben,_,_,_,_,_,259,DET,Pz-fsg,obj
254,1479-1481,od,_,_,_,_,_,256,ADP,Sg,case
255,1482-1487,družba,_,_,_,_,_,259,NOUN,Ncfpg,obl
256,1488-1490,ne,_,_,_,_,_,259,PART,Q,advmod
257,1491-1495,biti,_,_,_,_,_,259,AUX,Va-f3p-n,aux
258,1496-1502,zapreti,_,_,*->14-10,*[14],_,251,VERB,Vmep-pm,ccomp
259,1503-1504,.,_,_,_,_,_,240,PUNCT,Z,punct
260,1505-1514,smotrnost,_,_,_,_,_,269,NOUN,Ncfsa,obj
261,1515-1517,ta,_,_,_,_,_,263,DET,Pd-fsg,det
262,1518-1524,poteza,_,_,_,_,_,261,NOUN,Ncfsg,nmod
263,1525-1529,biti,_,_,_,_,_,269,AUX,Va-f3p-n,aux
264,1530-1535,sicer,_,_,_,_,_,269,PART,Q,advmod
265,1536-1538,po,_,_,_,_,_,268,ADP,Sl,case
266,1539-1549,Turnškov,_,0,*->13-3,*[13],3 - Nevtralno,268,ADJ,Aspfpl,amod
267,1550-1557,beseda,_,_,_,_,_,269,NOUN,Ncfpl,obl
268,1558-1568,proučevati,_,_,*->14-11,*[14],_,259,VERB,Vmpp-pm,conj
269,1569-1573,tudi,_,_,_,_,_,269,PART,Q,advmod
270,1574-1575,z,_,_,_,_,_,273,ADP,Si,case
271,1576-1583,poseben,_,_,_,_,_,273,ADJ,Agpfsi,amod
272,1584-1591,študija,_,_,_,_,_,269,NOUN,Ncfsi,obl
273,1592-1593,",",_,_,_,_,_,275,PUNCT,Z,punct
274,1594-1602,naročen,_,_,_,_,_,273,ADJ,Appfsn,amod
275,1603-1607,prek,_,_,_,_,_,278,ADP,Sg,case
276,1608-1615,javen,_,_,_,_,_,278,ADJ,Agpmsg,amod
277,1616-1623,razpis,_,_,_,_,_,275,NOUN,Ncmsg,obl
278,1624-1625,.,_,_,_,_,_,269,PUNCT,Z,punct
279,1626-1632,uprava,_,_,_,_,_,284,NOUN,Ncfsn,nsubj
280,1633-1642,usmerjen,_,_,_,_,_,269,ADJ,Appfsn,conj
281,1643-1644,v,_,_,_,_,_,283,ADP,Sa,case
282,1645-1655,prihodnost,_,_,_,_,_,281,NOUN,Ncfsa,obl
283,1656-1664,zanimiv,_,_,_,_,_,283,ADJ,Agpnsn,nmod
284,1665-1667,biti,_,_,_,_,_,284,AUX,Va-r3s-n,cop
285,1668-1677,dogajanje,_,_,_,_,_,281,NOUN,Ncnsa,obj
286,1678-1682,tudi,_,_,_,_,_,284,PART,Q,advmod
287,1683-1685,na,_,_,_,_,_,290,ADP,Sl,case
288,1686-1691,drug,_,_,_,_,_,290,ADJ,Mlpfsl,amod
289,1692-1698,fronta,_,_,_,_,_,284,NOUN,Ncfsl,obl
290,1699-1708,pivovarna,ORG[15],_,*->14-12,*[14],_,290,NOUN,Ncfsg,nmod
291,1709-1714,Laško,ORG[15]|LOC[16],_,*->14-12|*->1-6,*[14]|*[1],_,291,PROPN,Npnsn,nmod
292,1715-1716,.,_,_,_,_,_,284,PUNCT,Z,punct
293,1717-1720,kot,_,_,_,_,_,295,SCONJ,Cs,case
294,1721-1730,poročanje,_,_,_,_,_,299,NOUN,Ncnsn,obl
295,1731-1738,časnik,_,0,*->7-1,*[7],3 - Nevtralno[26],295,NOUN,Ncmsg,nmod
296,1739-1744,dobro,ORG[17],0,*->7-1,*[7],3 - Nevtralno[26],298,ADJ,Agpnsn,amod
297,1745-1750,jutro,ORG[17],0,*->7-1,*[7],3 - Nevtralno[26],299,NOUN,Ncnsn,nsubj
298,1751-1760,povzemati,_,_,_,_,_,284,VERB,Vmpr3p,advcl
299,1761-1768,finance,ORG,0,*->8-1,*[8],3 - Nevtralno,299,NOUN,Ncmpa,obj
300,1769-1770,",",_,_,_,_,_,299,PUNCT,Z,punct
301,1771-1773,biti,_,_,_,_,_,309,AUX,Va-c,aux
302,1774-1776,se,_,_,_,_,_,309,PRON,Px---d--y,expl
303,1777-1782,Zorko,PER,_,*->11-5,*[11],_,309,PROPN,Npmsn,nsubj
304,1783-1785,za,_,_,_,_,_,306,ADP,Sa,case
305,1786-1793,delnica,_,_,_,_,_,309,NOUN,Ncfpa,obl
306,1794-1803,pivovarna,_,_,*->14-13,*[14],_,306,NOUN,Ncfsg,nmod
307,1804-1811,najbolj,_,_,_,_,_,309,ADV,Rgs,advmod
308,1812-1817,želeti,_,_,_,_,_,299,VERB,Vmpp-sm,conj
309,1818-1831,transparenten,_,_,_,_,_,311,ADJ,Agpfsg,amod
310,1832-1839,ponudba,_,_,_,_,_,309,NOUN,Ncfpg,obj
311,1840-1842,in,_,_,_,_,_,313,CCONJ,Cc,cc
312,1843-1847,ta,_,_,_,_,_,311,DET,Pd-nsg,conj
313,1848-1849,",",_,_,_,_,_,316,PUNCT,Z,punct
314,1850-1852,da,_,_,_,_,_,316,SCONJ,Cs,mark
315,1853-1857,dobiti,_,_,_,_,_,313,VERB,Vmer3s,acl
316,1858-1865,skupina,_,_,*->14-14,*[14],_,316,NOUN,Ncfsn,nsubj
317,1866-1874,razvojno,_,_,_,_,_,319,ADV,Rgp,advmod
318,1875-1886,orientiran,_,_,_,_,_,320,ADJ,Appmpa,amod
319,1887-1895,lastnik,_,_,_,_,_,316,NOUN,Ncmpa,obj
320,1896-1897,.,_,_,_,_,_,309,PUNCT,Z,punct
321,1898-1903,glede,_,_,_,_,_,323,ADP,Sg,case
322,1904-1911,delež,_,_,_,_,_,320,NOUN,Ncmpg,nmod
323,1912-1913,",",_,_,_,_,_,326,PUNCT,Z,punct
324,1914-1916,ki,_,_,_,_,_,326,SCONJ,Cs,mark
325,1917-1919,biti,_,_,_,_,_,323,VERB,Va-r3p-n,acl
326,1920-1925,sedaj,_,_,_,_,_,326,ADV,Rgp,advmod
327,1926-1927,v,_,_,_,_,_,329,ADP,Sl,case
328,1928-1933,last,_,_,_,_,_,326,NOUN,Ncfsl,obl
329,1934-1938,banka,_,_,_,_,_,329,NOUN,Ncfpg,nmod
330,1939-1940,",",_,_,_,_,_,326,PUNCT,Z,punct
331,1941-1944,sam,_,_,*->11-6,*[11],_,335,ADJ,Agpmsnn,obl
332,1945-1947,še,_,_,_,_,_,335,PART,Q,advmod
333,1948-1950,biti,_,_,_,_,_,335,AUX,Va-r3s-y,aux
334,1951-1956,dobiti,_,_,_,_,_,309,VERB,Vmep-sm,advcl
335,1957-1963,noben,_,_,_,_,_,337,DET,Pz-fsg,det
336,1964-1971,ponudba,_,_,_,_,_,335,NOUN,Ncfsg,obj
337,1972-1973,",",_,_,_,_,_,340,PUNCT,Z,punct
338,1974-1976,če,_,_,_,_,_,340,SCONJ,Cs,mark
339,1977-1980,imeti,_,_,_,_,_,335,VERB,Vmpr3s-n,advcl
340,1981-1984,kdo,_,_,_,_,_,340,PRON,Pq-msn,nsubj
341,1985-1989,drug,_,_,_,_,_,343,ADJ,Mlpmsnn,amod
342,1990-1997,ponudba,_,_,_,_,_,340,NOUN,Ncfpa,obj
343,1998-1999,",",_,_,_,_,_,340,PUNCT,Z,punct
344,2000-2002,pa,_,_,_,_,_,347,CCONJ,Cc,advmod
345,2003-2005,ne,_,_,_,_,_,347,PART,Q,advmod
346,2006-2008,vedeti,_,_,*->11-7,*[11],_,335,VERB,Vmpr3s,advcl
347,2009-2010,.,_,_,_,_,_,309,PUNCT,Z,punct
348,2011-2016,Zorko,PER,_,*->11-8,*[11],_,352,PROPN,Npmsn,nsubj
349,2017-2021,prav,_,_,_,_,_,351,PART,Q,advmod
350,2022-2026,tako,_,_,_,_,_,352,ADV,Rgp,advmod
351,2027-2030,up,_,_,_,_,_,335,VERB,Vmer3s,advcl
352,2031-2032,",",_,_,_,_,_,363,PUNCT,Z,punct
353,2033-2035,da,_,_,_,_,_,363,SCONJ,Cs,mark
354,2036-2039,nov,_,_,_,_,_,359,ADJ,Agpmsnn,amod
355,2040-2043,tuj,_,_,_,_,_,359,ADJ,Agpmsnn,amod
356,2044-2047,ali,_,_,_,_,_,358,CCONJ,Cc,cc
357,2048-2053,domač,_,_,_,_,_,356,ADJ,Agpmsnn,conj
358,2054-2061,partner,_,_,_,_,_,363,NOUN,Ncmsn,nsubj
359,2062-2064,ne,_,_,_,_,_,363,PART,Q,advmod
360,2065-2067,biti,_,_,_,_,_,363,AUX,Va-f3s-n,aux
361,2068-2076,finančen,_,_,_,_,_,363,ADV,Rgp,advmod
362,2077-2084,izčrpati,_,_,_,_,_,352,VERB,Vmep-sm,ccomp
363,2085-2094,pivovarna,_,_,*->14-15,*[14],_,363,NOUN,Ncfsg,obj
364,2095-2096,z,_,_,_,_,_,367,ADP,Si,case
365,2097-2105,velik,_,_,_,_,_,367,ADJ,Agpfpi,amod
366,2106-2117,dividenda,_,_,_,_,_,364,NOUN,Ncfpi,nmod
367,2118-2120,in,_,_,_,_,_,372,CCONJ,Cc,cc
368,2121-2123,da,_,_,_,_,_,372,SCONJ,Cs,mark
369,2124-2126,biti,_,_,_,_,_,372,AUX,Va-f3s-n,aux
370,2127-2137,dolgoročno,_,_,_,_,_,372,ADV,Rgp,advmod
371,2138-2144,gledati,_,_,_,_,_,363,VERB,Vmpp-sm,conj
372,2145-2147,na,_,_,_,_,_,374,ADP,Sa,case
373,2148-2154,razvoj,_,_,_,_,_,372,NOUN,Ncmsan,obl
374,2155-2156,.,_,_,_,_,_,363,PUNCT,Z,punct
375,2157-2161,foto,_,_,_,_,_,377,NOUN,Ncmsn,nmod
376,2162-2168,Damjan,PER[18],0,*->9-1,*[9],3 - Nevtralno[27],381,PROPN,Npmsn,nsubj
377,2169-2175,Žibert,PER[18],0,*->9-1,*[9],3 - Nevtralno[27],377,PROPN,Npmsn,flat:name
378,2176-2181,sicer,_,_,_,_,_,381,PART,Q,advmod
379,2182-2187,Zorko,PER,_,*->11-9,*[11],_,381,PROPN,Npmsn,nsubj
380,2188-2198,napovedovati,_,_,_,_,_,352,VERB,Vmpr3s,conj
381,2199-2200,",",_,_,_,_,_,387,PUNCT,Z,punct
382,2201-2203,da,_,_,_,_,_,387,SCONJ,Cs,mark
383,2204-2206,biti,_,_,_,_,_,387,AUX,Va-f3s-n,aux
384,2207-2216,pivovarna,ORG[19],_,*->14-16,*[14],_,387,NOUN,Ncfsn,nsubj
385,2217-2222,Laško,ORG[19]|LOC[20],0,*->14-16|*->1-7,*[14]|*[1],3 - Nevtralno,385,PROPN,Npnsn,nmod
386,2223-2232,uporabiti,_,_,_,_,_,381,VERB,Vmep-sf,ccomp
387,2233-2236,ves,_,_,_,_,_,391,DET,Pg-mpa,det
388,2237-2242,možen,_,_,_,_,_,391,ADJ,Agpmpa,amod
389,2243-2249,praven,_,_,_,_,_,391,ADJ,Agpmpa,amod
390,2250-2258,postopek,_,_,_,_,_,387,NOUN,Ncmpa,obj
391,2259-2261,in,_,_,_,_,_,393,CCONJ,Cc,cc
392,2262-2271,poskušati,_,_,*->14-17,*[14],_,387,VERB,Vmpp-sf,conj
393,2272-2280,povrniti,_,_,_,_,_,393,VERB,Vmen,xcomp
394,2281-2286,nekaj,_,_,_,_,_,396,DET,Rgp,det
395,2287-2297,premoženje,_,_,_,_,_,394,NOUN,Ncnsg,obj
396,2298-2299,",",_,_,_,_,_,401,PUNCT,Z,punct
397,2300-2302,ki,_,_,_,_,_,401,SCONJ,Cs,mark
398,2303-2305,on,_,_,_,_,_,401,PRON,Pp3msa--y,obj
399,2306-2308,biti,_,_,_,_,_,401,AUX,Va-r3s-n,aux
400,2309-2317,izgubiti,_,_,*->14-18,*[14],_,396,VERB,Vmep-sf,acl
401,2318-2319,z,_,_,_,_,_,403,ADP,Si,case
402,2320-2329,posojilo,_,_,_,_,_,401,NOUN,Ncnsi,obl
403,2330-2339,šrotov,_,_,*->12-2,*[12],_,405,ADJ,Aspmsd,amod
404,2340-2346,infond,ORG[21],2,*->10-1,*[10],2 - Negativno[28],403,NOUN,Ncmsd,nmod
405,2347-2355,holding,ORG[21],2,*->10-1,*[10],2 - Negativno[28],405,NOUN,Ncmsd,nmod
406,2356-2357,.,_,_,_,_,_,381,PUNCT,Z,punct
407,2358-2365,izhajati,_,_,*->11-10,*[11],_,381,VERB,Vmpr1s,parataxis
408,2366-2368,iz,_,_,_,_,_,410,ADP,Sg,case
409,2369-2373,ta,_,_,_,_,_,408,DET,Pd-nsg,obl
410,2374-2375,",",_,_,_,_,_,416,PUNCT,Z,punct
411,2376-2378,da,_,_,_,_,_,416,SCONJ,Cs,mark
412,2379-2381,ne,_,_,_,_,_,416,PART,Q,advmod
413,2382-2386,biti,_,_,_,_,_,416,AUX,Va-f1p-n,aux
414,2387-2394,nič,_,_,_,_,_,416,PRON,Pz-nsg,obj
415,2395-2401,dobiti,_,_,*->14-19,*[14],_,410,VERB,Vmep-pm,acl
416,2402-2407,nazaj,_,_,_,_,_,416,ADV,Rgp,advmod
417,2408-2409,.,_,_,_,_,_,381,PUNCT,Z,punct
418,2410-2413,ves,_,_,_,_,_,381,DET,Pg-nsn,nsubj
419,2414-2415,",",_,_,_,_,_,422,PUNCT,Z,punct
420,2416-2419,kar,_,_,_,_,_,422,PRON,Pr-nsn,nsubj
421,2420-2422,biti,_,_,_,_,_,419,VERB,Va-f3s-n,acl
422,2423-2426,več,_,_,_,_,_,422,PART,Q,advmod
423,2427-2428,",",_,_,_,_,_,422,PUNCT,Z,punct
424,2429-2431,biti,_,_,_,_,_,426,AUX,Va-f3s-n,cop
425,2432-2438,dober,_,_,_,_,_,419,ADJ,Agcnsn,acl
426,2439-2440,.,_,_,_,_,_,426,PUNCT,Z,punct
427,2441-2445,vsak,_,_,_,_,_,429,DET,Pg-msn,det
428,2446-2453,milijon,_,_,_,_,_,432,NOUN,Ncmsnn,nsubj
429,2454-2456,biti,_,_,_,_,_,432,AUX,Va-f3s-n,cop
430,2457-2462,nekaj,_,_,_,_,_,432,DET,Rgp,advmod
431,2463-2469,vreden,_,_,_,_,_,426,ADJ,Agpmsnn,conj
432,2470-2471,",",_,_,_,_,_,432,PUNCT,Z,punct
433,2472-2477,praviti,_,_,_,_,_,432,VERB,Vmbr3s,parataxis
434,2478-2483,Zorko,PER,_,*->11-11,*[11],_,434,PROPN,Npmsn,nsubj
435,2484-2485,.,_,_,_,_,_,426,PUNCT,Z,punct
436,2486-2492,dodajati,_,_,*->11-12,*[11],_,432,VERB,Vmpr3s,parataxis
437,2493-2494,",",_,_,_,_,_,443,PUNCT,Z,punct
438,2495-2497,da,_,_,_,_,_,443,SCONJ,Cs,mark
439,2498-2500,biti,_,_,_,_,_,443,AUX,Va-r3s-n,cop
440,2501-2508,skupina,_,_,_,_,_,443,NOUN,Ncfsn,nsubj
441,2509-2514,sicer,_,_,_,_,_,443,PART,Q,advmod
442,2515-2523,sposoben,_,_,_,_,_,437,ADJ,Agpfsn,ccomp
443,2524-2532,prenesti,_,_,_,_,_,443,VERB,Vmen,ccomp
444,2533-2535,ta,_,_,_,_,_,446,DET,Pd-fsa,det
445,2536-2541,škoda,_,_,_,_,_,444,NOUN,Ncfsa,obj
446,2542-2543,.,_,_,_,_,_,432,PUNCT,Z,punct
447,2544-2545,o,_,_,_,_,_,449,ADP,Sl,case
448,2546-2551,tožba,_,_,_,_,_,453,NOUN,Ncfsl,obl
449,2552-2557,proti,_,_,_,_,_,451,ADP,Sd,case
450,2558-2563,Boško,PER[22],2,*->12-3,*[12],2 - Negativno[29],449,PROPN,Npmsd,nmod
451,2564-2569,Šrot,PER[22],2,*->12-3,*[12],2 - Negativno[29],451,PROPN,Npmsd,flat:name
452,2570-2572,biti,_,_,_,_,_,443,VERB,Va-r3s-n,conj
453,2573-2575,po,_,_,_,_,_,456,ADP,Sl,case
454,2576-2584,zorkov,_,_,*->11-13,*[11],_,456,ADJ,Aspnsl,amod
455,2585-2591,mnenje,_,_,_,_,_,459,NOUN,Ncnsl,obl
456,2592-2594,še,_,_,_,_,_,459,PART,Q,advmod
457,2595-2604,prezgodaj,_,_,_,_,_,459,ADV,Rgp,advmod
458,2605-2613,govoriti,_,_,_,_,_,453,VERB,Vmpn,csubj
459,2614-2615,",",_,_,_,_,_,463,PUNCT,Z,punct
460,2616-2619,saj,_,_,_,_,_,463,CCONJ,Cc,cc
461,2620-2622,biti,_,_,_,_,_,463,AUX,Va-r3s-n,cop
462,2623-2631,potreben,_,_,_,_,_,453,ADJ,Agpnsn,conj
463,2632-2640,preučiti,_,_,_,_,_,463,VERB,Vmen,csubj
464,2641-2644,ves,_,_,_,_,_,467,DET,Pg-fpa,det
465,2645-2651,praven,_,_,_,_,_,467,ADJ,Agpfpa,amod
466,2652-2660,možnost,_,_,_,_,_,464,NOUN,Ncfpa,obj
467,2661-2662,",",_,_,_,_,_,470,PUNCT,Z,punct
468,2663-2664,a,_,_,_,_,_,470,CCONJ,Cc,cc
469,2665-2671,dodajati,_,_,*->11-14,*[11],_,464,VERB,Vmpr3s,conj
470,2672-2673,",",_,_,_,_,_,477,PUNCT,Z,punct
471,2674-2676,da,_,_,_,_,_,477,SCONJ,Cs,mark
472,2677-2681,biti,_,_,_,_,_,477,AUX,Va-f3p-n,aux
473,2682-2690,energija,_,_,_,_,_,477,NOUN,Ncfsa,obj
474,2691-2695,sam,_,_,_,_,_,477,ADJ,Agpmpn,obl
475,2696-2700,raje,_,_,_,_,_,477,ADV,Rgc,advmod
476,2701-2708,vlagati,_,1,*->14-20,*[14],4 - Pozitivno,470,VERB,Vmpp-pm,ccomp
477,2709-2710,v,_,_,_,_,_,479,ADP,Sa,case
478,2711-2721,prihodnost,_,_,_,_,_,477,NOUN,Ncfsa,obl
479,2722-2724,in,_,_,_,_,_,484,CCONJ,Cc,cc
480,2725-2727,ne,_,_,_,_,_,484,PART,Q,advmod
481,2728-2731,več,_,_,_,_,_,481,PART,Q,fixed
482,2732-2733,v,_,_,_,_,_,484,ADP,Sa,case
483,2734-2744,preteklost,_,_,_,_,_,479,NOUN,Ncfsa,conj
484,2745-2746,.,_,_,_,_,_,490,PUNCT,Z,punct
485,2747-2748,z,_,_,_,_,_,487,ADP,Si,case
486,2749-2761,preteklost,_,_,_,_,_,490,NOUN,Ncfsi,obl
487,2762-2764,se,_,_,_,_,_,490,PRON,Px------y,expl
488,2765-2769,biti,_,_,_,_,_,490,AUX,Va-f3p-n,aux
489,2770-2779,ukvarjati,_,_,_,_,_,453,VERB,Vmpp-pm,conj
490,2780-2788,pravnik,_,_,_,_,_,490,NOUN,Ncmpn,nsubj
491,2789-2790,",",_,_,_,_,_,493,PUNCT,Z,punct
492,2791-2801,pojasnjevati,_,_,_,_,_,490,VERB,Vmpr3s,conj
493,2802-2807,Zorko,PER,1,*->11-15,*[11],4 - Pozitivno,493,PROPN,Npmsn,nsubj
