idx,chars_idx,token,entity_type,sentiment,idk_1,idk_2,orig_sentiment,heads,upos,xpos,deprel
0,0-5,letos,_,_,_,_,_,22,ADV,Rgp,advmod
1,6-14,velik,_,_,_,_,_,4,ADJ,Agsmsny,amod
2,15-23,tedenski,_,_,_,_,_,4,ADJ,Agpmsny,amod
3,24-29,padec,_,_,_,_,_,119,NOUN,Ncmsn,nsubj
4,30-37,indeks,_,_,_,_,_,4,NOUN,Ncmsg,nmod
5,38-41,Dow,_,_,_,_,_,5,PROPN,Npmsn,nmod
6,42-47,Jones,_,_,_,_,_,6,PROPN,Npmsn,flat:name
7,48-50,po,_,_,_,_,_,9,ADP,Sl,case
8,51-60,razkritje,_,_,_,_,_,5,NOUN,Ncnsl,nmod
9,61-62,",",_,_,_,_,_,17,PUNCT,Z,punct
10,63-69,kakšen,_,_,_,_,_,12,DET,Pq-fsa,det
11,70-76,izguba,_,_,_,_,_,17,NOUN,Ncfsa,obj
12,77-79,biti,_,_,_,_,_,17,AUX,Va-r3s-n,aux
13,80-81,v,_,_,_,_,_,16,ADP,Sl,case
14,82-88,šest,_,_,_,_,_,16,NUM,Mlc-pl,nummod
15,89-95,teden,_,_,_,_,_,17,NOUN,Ncmpl,obl
16,96-104,ustvariti,_,_,_,_,_,4,VERB,Vmep-sm,acl
17,105-113,JPMorgan,ORG[1],_,*->3-1,*[3],_,17,PROPN,Npmsn,nsubj
18,114-119,Chase,ORG[1],_,*->3-1,*[3],_,18,PROPN,Npmsn,nmod
19,120-121,",",_,_,_,_,_,17,PUNCT,Z,punct
20,122-124,biti,_,_,_,_,_,22,AUX,Va-r3s-n,cop
21,125-130,jasen,_,_,_,_,_,0,ADJ,Agpnsn,root
22,131-132,",",_,_,_,_,_,72,PUNCT,Z,punct
23,133-135,da,_,_,_,_,_,27,SCONJ,Cs,mark
24,136-144,velik,_,_,_,_,_,26,ADJ,Agsfpn,amod
25,145-150,banka,_,_,_,_,_,27,NOUN,Ncfpn,nsubj
26,151-164,predstavljati,_,_,_,_,_,22,VERB,Vmpr3p,csubj
27,165-174,sistemski,_,_,_,_,_,29,ADJ,Agpnsa,amod
28,175-183,tveganje,_,_,_,_,_,27,NOUN,Ncnsa,obj
29,184-194,finančen,_,_,_,_,_,31,ADJ,Agpmsd,amod
30,195-202,sistem,_,_,_,_,_,29,NOUN,Ncmsd,nmod
31,203-204,",",_,_,_,_,_,27,PUNCT,Z,punct
32,205-208,saj,_,_,_,_,_,35,CCONJ,Cc,cc
33,209-211,biti,_,_,_,_,_,35,AUX,Va-r3p-n,cop
34,212-221,prevelik,_,_,_,_,_,27,ADJ,Agpfpn,conj
35,222-224,in,_,_,_,_,_,38,CCONJ,Cc,cc
36,225-231,preveč,_,_,_,_,_,38,DET,Rgp,advmod
37,232-242,kompleksen,_,_,_,_,_,35,ADJ,Agpfpn,conj
38,243-244,",",_,_,_,_,_,27,PUNCT,Z,punct
39,245-252,njihov,_,_,_,_,_,41,DET,Ps3fsnp,det
40,253-258,slast,_,_,_,_,_,44,NOUN,Ncfsn,nsubj
41,259-261,po,_,_,_,_,_,43,ADP,Sl,case
42,262-269,dobiček,_,_,_,_,_,41,NOUN,Ncmsl,nmod
43,270-279,nezadržen,_,_,_,_,_,22,ADJ,Agpfsn,parataxis
44,280-281,.,_,_,_,_,_,22,PUNCT,Z,punct
45,282-283,.,_,_,_,_,_,22,PUNCT,Z,punct
46,284-285,.,_,_,_,_,_,22,PUNCT,Z,punct
47,286-287,.,_,_,_,_,_,22,PUNCT,Z,punct
48,288-289,.,_,_,_,_,_,22,PUNCT,Z,punct
49,290-291,.,_,_,_,_,_,44,PUNCT,Z,punct
50,292-299,njihov,_,_,_,_,_,52,DET,Ps3fsgp,det
51,300-305,enota,_,_,_,_,_,59,NOUN,Ncfsg,obl
52,306-308,za,_,_,_,_,_,54,ADP,Sa,case
53,309-320,upravljanje,_,_,_,_,_,52,NOUN,Ncnsa,nmod
54,321-322,z,_,_,_,_,_,56,ADP,Si,case
55,323-331,tveganje,_,_,_,_,_,54,NOUN,Ncnpi,nmod
56,332-334,pa,_,_,_,_,_,59,CCONJ,Cc,advmod
57,335-339,tako,_,_,_,_,_,59,ADV,Rgp,advmod
58,340-347,tvegan,_,_,_,_,_,22,ADJ,Appfpn,parataxis
59,348-349,",",_,_,_,_,_,72,PUNCT,Z,punct
60,350-353,kot,_,_,_,_,_,72,SCONJ,Cs,mark
61,354-356,biti,_,_,_,_,_,64,AUX,Va-r3p-n,cop
62,357-364,tvegan,_,_,_,_,_,64,ADJ,Appfpn,amod
63,365-372,naložba,_,_,_,_,_,59,NOUN,Ncfpn,nsubj
64,373-374,",",_,_,_,_,_,72,PUNCT,Z,punct
65,375-377,ki,_,_,_,_,_,72,SCONJ,Cs,mark
66,378-381,naj,_,_,_,_,_,72,PART,Q,advmod
67,382-384,biti,_,_,_,_,_,72,AUX,Va-c,aux
68,385-388,on,_,_,_,_,_,72,PRON,Pp3mpa--y,obj
69,389-391,ta,_,_,_,_,_,71,DET,Pd-fpn,det
70,392-397,enota,_,_,_,_,_,72,NOUN,Ncfpn,nsubj
71,398-405,ščititi,_,_,_,_,_,64,VERB,Vmpp-pf,acl
72,406-407,.,_,_,_,_,_,59,PUNCT,Z,punct
73,408-413,Bruno,PER[2],_,*->1-1,*[1],_,59,PROPN,Npmsn,nsubj
74,414-419,Iksil,PER[2],_,*->1-1,*[1],_,74,PROPN,Npmsn,flat:name
75,420-421,",",_,_,_,_,_,77,PUNCT,Z,punct
76,422-430,zaposlen,_,_,*->1-2,*[1],_,74,ADJ,Appmsnn,amod
77,431-432,v,_,_,_,_,_,80,ADP,Sl,case
78,433-442,londonski,_,_,*->3-2,*[3],_,80,ADJ,Agpfsl,amod
79,443-453,podružnica,_,_,*->3-2,*[3],_,77,NOUN,Ncfsl,obl
80,454-462,velik,_,_,*->3-2,*[3],_,83,ADJ,Agsfsg,amod
81,463-471,ameriški,_,_,*->3-2,*[3],_,83,ADJ,Agpfsg,amod
82,472-477,banka,_,_,*->3-2,*[3],_,80,NOUN,Ncfsg,nmod
83,478-480,po,_,_,*->3-2,*[3],_,86,ADP,Sl,case
84,481-489,bilančen,_,_,*->3-2,*[3],_,86,ADJ,Agpfsl,amod
85,490-495,vsot,_,_,*->3-2,*[3],_,80,NOUN,Ncfsl,nmod
86,496-498,JP,ORG[3],_,*->3-2,*[3],_,86,PROPN,Npmsn,nmod
87,499-505,Morgan,ORG[3],_,*->3-2,*[3],_,87,PROPN,Npmsn,flat:name
88,506-508,in,_,_,_,_,_,91,CCONJ,Cc,cc
89,509-517,kateri,_,_,_,_,_,91,DET,Pq-msg,nmod
90,518-522,eden,_,_,_,_,_,88,NUM,Mlpmsn,appos
91,523-525,od,_,_,_,_,_,93,ADP,Sg,case
92,526-534,vzdevek,_,_,_,_,_,91,NOUN,Ncmpg,nmod
93,535-537,biti,_,_,_,_,_,91,AUX,Va-r3s-n,cop
94,538-542,bel,PER[4],_,*->1-3,*[1],_,96,ADJ,Agpmsny,amod
95,543-546,kit,PER[4],_,*->1-3,*[1],_,93,NOUN,Ncmsn,nmod
96,547-552,White,PER[5],_,*->1-4,*[1],_,98,PROPN,Npmsn,nmod
97,553-558,Whale,PER[5],_,*->1-4,*[1],_,96,PROPN,Npmsn,nmod
98,559-560,",",_,_,_,_,_,72,PUNCT,Z,punct
99,561-563,biti,_,_,_,_,_,119,AUX,Va-r3s-n,aux
100,564-566,od,_,_,_,_,_,102,ADP,Sg,case
101,567-574,začetek,_,_,_,_,_,119,NOUN,Ncmsg,obl
102,575-581,april,_,_,_,_,_,102,NOUN,Ncmsg,nmod
103,582-583,z,_,_,_,_,_,107,ADP,Si,case
104,584-593,nenavadno,_,_,_,_,_,106,ADV,Rgp,advmod
105,594-602,visok,_,_,_,_,_,107,ADJ,Agpfpi,amod
106,603-610,stava,_,_,_,_,_,103,NOUN,Ncfpi,nmod
107,611-613,na,_,_,_,_,_,109,ADP,Sl,case
108,614-618,trg,_,_,_,_,_,107,NOUN,Ncmsl,nmod
109,619-627,izmenjava,_,_,_,_,_,109,NOUN,Ncfpg,nmod
110,628-639,posojilen,_,_,_,_,_,112,ADJ,Agpnsg,amod
111,640-648,tveganje,_,_,_,_,_,110,NOUN,Ncnsg,nmod
112,649-654,svoj,_,_,_,_,_,114,DET,Px-fsd,det
113,655-660,enota,_,_,_,_,_,107,NOUN,Ncfsd,nmod
114,661-663,za,_,_,_,_,_,116,ADP,Sa,case
115,664-675,upravljanje,_,_,_,_,_,114,NOUN,Ncnsa,nmod
116,676-677,z,_,_,_,_,_,118,ADP,Si,case
117,678-686,tveganje,_,_,_,_,_,116,NOUN,Ncnpi,nmod
118,687-695,pridelati,_,_,_,_,_,22,VERB,Vmep-sm,csubj
119,696-699,dva,_,_,_,_,_,121,NUM,Mlcfda,nummod
120,700-709,milijarda,_,_,_,_,_,119,NOUN,Ncfda,obj
121,710-718,dolar,_,_,_,_,_,121,NOUN,Ncmpg,nmod
122,719-725,izguba,_,_,_,_,_,121,NOUN,Ncfsg,nmod
123,726-727,.,_,_,_,_,_,119,PUNCT,Z,punct
124,728-735,Škandal,_,_,_,_,_,131,PROPN,Npmsn,nsubj
125,736-738,za,_,_,_,_,_,127,ADP,Sa,case
126,739-744,banka,_,_,*->3-3,*[3],_,131,NOUN,Ncfsa,obl
127,745-753,verjetno,_,_,_,_,_,131,ADV,Rgp,advmod
128,754-756,ne,_,_,_,_,_,131,PART,Q,advmod
129,757-759,biti,_,_,_,_,_,131,AUX,Va-f3s-n,aux
130,760-764,imeti,_,_,_,_,_,119,VERB,Vmpp-sm,parataxis
131,765-776,dolgoročen,_,_,_,_,_,133,ADJ,Agpfpg,amod
132,777-785,posledica,_,_,_,_,_,131,NOUN,Ncfpg,obj
133,786-787,",",_,_,_,_,_,119,PUNCT,Z,punct
134,788-796,vsekakor,_,_,_,_,_,150,PART,Q,advmod
135,797-799,pa,_,_,_,_,_,135,CCONJ,Cc,fixed
136,800-808,šokanten,_,_,_,_,_,138,ADJ,Agpfsn,amod
137,809-815,izguba,_,_,_,_,_,131,NOUN,Ncfsn,nsubj
138,816-818,in,_,_,_,_,_,140,CCONJ,Cc,cc
139,819-824,način,_,_,_,_,_,138,NOUN,Ncmsn,conj
140,825-826,",",_,_,_,_,_,146,PUNCT,Z,punct
141,827-831,kako,_,_,_,_,_,146,ADV,Rgp,advmod
142,832-834,biti,_,_,_,_,_,146,AUX,Va-r3s-n,aux
143,835-840,banka,_,_,*->3-4,*[3],_,146,NOUN,Ncfsn,nsubj
144,841-849,javnost,_,_,_,_,_,144,NOUN,Ncfsg,nmod
145,850-861,predstaviti,_,_,_,_,_,140,VERB,Vmep-sf,acl
146,862-864,ta,_,_,_,_,_,148,DET,Pd-fsa,det
147,865-871,težava,_,_,_,_,_,146,NOUN,Ncfsa,obj
148,872-873,",",_,_,_,_,_,146,PUNCT,Z,punct
149,874-883,zniževati,_,_,_,_,_,146,VERB,Vmpr3d,conj
150,884-886,že,_,_,_,_,_,150,PART,Q,advmod
151,887-891,tako,_,_,_,_,_,153,ADV,Rgp,advmod
152,892-897,načet,_,_,_,_,_,154,ADJ,Agpmsan,amod
153,898-904,sloves,_,_,_,_,_,150,NOUN,Ncmsan,obj
154,905-914,pohlepen,_,_,_,_,_,156,ADJ,Agpmpg,amod
155,915-924,bankir,_,_,_,_,_,154,NOUN,Ncmpg,nmod
156,925-926,.,_,_,_,_,_,150,PUNCT,Z,punct
157,927-938,Volckerjev,PER,_,*->2-1,*[2],_,159,ADJ,Aspnsa,amod
158,939-946,pravilo,_,_,_,_,_,162,NOUN,Ncnsa,obj
159,947-949,biti,_,_,_,_,_,131,VERB,Va-f3s-n,conj
160,950-955,treba,_,_,_,_,_,160,ADV,Rgp,advmod
161,956-965,zaostriti,_,_,_,_,_,160,VERB,Vmen,csubj
162,966-974,pojavljati,_,_,_,_,_,160,VERB,Vmpr3s,csubj
163,975-977,se,_,_,_,_,_,163,PRON,Px------y,expl
164,978-983,vedno,_,_,_,_,_,166,ADV,Rgp,advmod
165,984-987,več,_,_,_,_,_,167,DET,Rgc,det
166,988-994,zahteva,_,_,_,_,_,162,NOUN,Ncfpg,obj
167,995-997,po,_,_,_,_,_,169,ADP,Sl,case
168,998-1007,okrepitev,_,_,_,_,_,167,NOUN,Ncfsl,nmod
169,1008-1021,Volckerjev,PER,_,*->2-2,*[2],_,171,ADJ,Aspnsg,amod
170,1022-1029,pravilo,_,_,_,_,_,169,NOUN,Ncnsg,nmod
171,1030-1031,",",_,_,_,_,_,176,PUNCT,Z,punct
172,1032-1034,ki,_,_,_,_,_,176,SCONJ,Cs,mark
173,1035-1044,posloven,_,_,_,_,_,175,ADJ,Agpfpd,amod
174,1045-1051,banka,_,_,_,_,_,176,NOUN,Ncfpd,iobj
175,1052-1063,prepovedovati,_,_,_,_,_,171,VERB,Vmpr3s,acl
176,1064-1076,špekulativen,_,_,_,_,_,178,ADJ,Agpnsa,amod
177,1077-1086,trgovanje,_,_,_,_,_,176,NOUN,Ncnsa,obj
178,1087-1089,za,_,_,_,_,_,181,ADP,Sa,case
179,1090-1096,lasten,_,_,_,_,_,181,ADJ,Agpmsan,amod
180,1097-1102,račun,_,_,_,_,_,178,NOUN,Ncmsan,nmod
181,1103-1104,.,_,_,_,_,_,176,PUNCT,Z,punct
182,1105-1113,tehnično,_,_,_,_,_,184,ADV,Rgp,advmod
183,1114-1121,gledano,_,_,_,_,_,160,ADJ,Agpnsn,csubj
184,1122-1123,",",_,_,_,_,_,184,PUNCT,Z,punct
185,1124-1129,Bruno,PER[6],_,*->1-5,*[1],_,191,PROPN,Npmsn,nsubj
186,1130-1135,Iksil,PER[6],_,*->1-5,*[1],_,186,PROPN,Npmsn,flat:name
187,1136-1141,sicer,_,_,_,_,_,191,PART,Q,advmod
188,1142-1149,pravilo,_,_,_,_,_,191,NOUN,Ncnpa,obj
189,1150-1152,biti,_,_,_,_,_,191,AUX,Va-r3s-y,aux
190,1153-1158,kršiti,_,2,*->1-6,*[1],2 - Negativno,184,VERB,Vmbp-sm,conj
191,1159-1166,pravilo,_,_,_,_,_,191,NOUN,Ncnsg,obj
192,1167-1168,",",_,_,_,_,_,196,PUNCT,Z,punct
193,1169-1171,ki,_,_,_,_,_,196,SCONJ,Cs,mark
194,1172-1174,se,_,_,_,_,_,196,PRON,Px------y,expl
195,1175-1182,imenovati,_,_,_,_,_,192,VERB,Vmbr3s,acl
196,1183-1185,po,_,_,_,_,_,199,ADP,Sl,case
197,1186-1195,nekdanji,_,_,_,_,_,199,ADJ,Agpmsl,amod
198,1196-1207,predsednik,_,0,*->2-3,*[2],3 - Nevtralno[16],196,NOUN,Ncmsl,obl
199,1208-1215,zvezen,ORG[7],0,*->2-3|*->6-1,*[2]|*[6],3 - Nevtralno[16]|3 - Nevtralno[17],201,ADJ,Agpfpg,amod
200,1216-1222,rezerva,ORG[7],0,*->2-3|*->6-1,*[2]|*[6],3 - Nevtralno[16]|3 - Nevtralno[17],199,NOUN,Ncfpg,nmod
201,1223-1224,",",_,_,_,_,_,196,PUNCT,Z,punct
202,1225-1229,toda,_,_,_,_,_,206,CCONJ,Cc,cc
203,1230-1238,marsikdo,_,_,_,_,_,206,PRON,Pi-msn,nsubj
204,1239-1241,se,_,_,_,_,_,206,PRON,Px------y,expl
205,1242-1248,zgražati,_,_,_,_,_,196,VERB,Vmpr3s,conj
206,1249-1250,",",_,_,_,_,_,210,PUNCT,Z,punct
207,1251-1255,kako,_,_,_,_,_,210,ADV,Rgp,advmod
208,1256-1258,biti,_,_,_,_,_,210,AUX,Va-r3s-n,cop
209,1259-1265,mogoč,_,_,_,_,_,206,ADJ,Agpnsn,ccomp
210,1266-1275,zaščititi,_,_,_,_,_,210,VERB,Vmen,csubj
211,1276-1280,nek,_,_,_,_,_,213,DET,Pi-fsa,det
212,1281-1288,naložba,_,_,_,_,_,211,NOUN,Ncfsa,obj
213,1289-1291,in,_,_,_,_,_,217,CCONJ,Cc,cc
214,1292-1295,pri,_,_,_,_,_,216,ADP,Sl,case
215,1296-1299,ta,_,_,_,_,_,217,DET,Pd-nsl,obl
216,1300-1308,izgubiti,_,_,_,_,_,211,VERB,Vmen,conj
217,1309-1312,kar,_,_,_,_,_,219,ADV,Rgp,advmod
218,1313-1316,dva,_,_,_,_,_,220,NUM,Mlcfda,nummod
219,1317-1326,milijarda,_,_,_,_,_,217,NOUN,Ncfda,obj
220,1327-1328,.,_,_,_,_,_,210,PUNCT,Z,punct
221,1329-1335,kakšen,_,_,_,_,_,220,DET,Pq-msn,acl
222,1336-1338,biti,_,_,_,_,_,222,AUX,Va-r3s-n,cop
223,1339-1345,smisel,_,_,_,_,_,222,NOUN,Ncmsn,nsubj
224,1346-1347,",",_,_,_,_,_,227,PUNCT,Z,punct
225,1348-1350,da,_,_,_,_,_,227,SCONJ,Cs,mark
226,1351-1354,iti,_,_,_,_,_,224,VERB,Vmbr3s,acl
227,1355-1360,hedga,_,_,_,_,_,227,NOUN,Ncmsn,nsubj
228,1361-1362,v,_,_,_,_,_,231,ADP,Sa,case
229,1363-1367,isti,_,_,_,_,_,231,DET,Pi-fsa,det
230,1368-1372,smer,_,_,_,_,_,227,NOUN,Ncfsa,obl
231,1373-1376,kot,_,_,_,_,_,234,SCONJ,Cs,case
232,1377-1384,tvegan,_,_,_,_,_,234,ADJ,Appfsn,amod
233,1385-1392,naložba,_,_,_,_,_,227,NOUN,Ncfsn,obl
234,1393-1399,tvoj,_,_,_,_,_,236,DET,Ps1fpgs,det
235,1400-1406,stranka,_,_,_,_,_,234,NOUN,Ncfpg,nmod
236,1407-1408,?,_,_,_,_,_,227,PUNCT,Z,punct
237,1409-1412,Fed,ORG,2,*->7-1,*[7],2 - Negativno,240,PROPN,Npmsn,nsubj
238,1413-1415,biti,_,_,_,_,_,240,AUX,Va-f3s-n,aux
239,1416-1421,morati,_,_,_,_,_,22,VERB,Vmpp-sm,parataxis
240,1422-1430,okrepiti,_,_,_,_,_,240,VERB,Vmen,xcomp
241,1431-1437,nadzor,_,_,_,_,_,241,NOUN,Ncmsan,obj
242,1438-1439,",",_,_,_,_,_,258,PUNCT,Z,punct
243,1440-1446,preden,_,_,_,_,_,258,SCONJ,Cs,mark
244,1447-1449,se,_,_,_,_,_,250,PRON,Px------y,expl
245,1450-1452,biti,_,_,_,_,_,250,AUX,Va-f3s-n,aux
246,1453-1456,kdo,_,_,_,_,_,250,PRON,Pq-msn,nsubj
247,1457-1459,še,_,_,_,_,_,250,PART,Q,advmod
248,1460-1467,močno,_,_,_,_,_,250,ADV,Rgc,advmod
249,1468-1474,opeči,_,_,_,_,_,242,VERB,Vmep-sm,acl
250,1475-1476,z,_,_,_,_,_,253,ADP,Si,case
251,1477-1487,finančen,_,_,_,_,_,253,ADJ,Agpmpi,amod
252,1488-1499,inštrument,_,_,_,_,_,250,NOUN,Ncmpi,obl
253,1500-1501,",",_,_,_,_,_,258,PUNCT,Z,punct
254,1502-1509,kateri,_,_,_,_,_,256,DET,Pq-npg,nmod
255,1510-1519,delovanje,_,_,_,_,_,258,NOUN,Ncnsg,obj
256,1520-1522,ne,_,_,_,_,_,258,PART,Q,advmod
257,1523-1529,razumeti,_,_,_,_,_,253,VERB,Vmbr3s,acl
258,1530-1534,niti,_,_,_,_,_,258,PART,Q,advmod
259,1535-1541,večina,_,_,_,_,_,258,NOUN,Ncfsn,nsubj
260,1542-1543,v,_,_,_,_,_,262,ADP,Sl,case
261,1544-1550,uprava,_,_,_,_,_,260,NOUN,Ncfsl,nmod
262,1551-1555,banka,_,_,_,_,_,262,NOUN,Ncfpg,nmod
263,1556-1557,.,_,_,_,_,_,250,PUNCT,Z,punct
264,1558-1565,zgoditi,_,_,_,_,_,22,VERB,Vmep-pf,parataxis
265,1566-1568,biti,_,_,_,_,_,273,AUX,Va-r3p-n,aux
266,1569-1571,se,_,_,_,_,_,265,PRON,Px------y,expl
267,1572-1583,nezaslišan,_,_,_,_,_,269,ADJ,Agpfpn,amod
268,1584-1590,napaka,_,_,_,_,_,265,NOUN,Ncfpn,nsubj
269,1591-1592,.,_,_,_,_,_,265,PUNCT,Z,punct
270,1593-1598,zame,_,_,_,_,_,273,PRON,Pp3mpa--b,obj
271,1599-1602,biti,_,_,_,_,_,273,AUX,Va-r1p-n,cop
272,1603-1608,kriv,_,_,_,_,_,265,ADJ,Agpmpn,conj
273,1609-1613,sam,_,_,*->3-5,*[3],_,273,ADJ,Agpmpn,obl
274,1614-1615,",",_,_,_,_,_,273,PUNCT,Z,punct
275,1616-1618,in,_,_,_,_,_,279,CCONJ,Cc,cc
276,1619-1621,ta,_,_,_,_,_,279,DET,Pd-nsn,nsubj
277,1622-1624,biti,_,_,_,_,_,279,AUX,Va-r3s-y,cop
278,1625-1630,način,_,_,_,_,_,273,NOUN,Ncmsn,conj
279,1631-1642,upravljanje,_,_,_,_,_,279,NOUN,Ncnsg,nmod
280,1643-1644,z,_,_,_,_,_,282,ADP,Si,case
281,1645-1653,tveganje,_,_,_,_,_,280,NOUN,Ncnpi,nmod
282,1654-1655,",",_,_,_,_,_,258,PUNCT,Z,punct
283,1656-1658,biti,_,_,_,_,_,293,AUX,Va-r3s-n,aux
284,1659-1662,biti,_,_,_,_,_,293,AUX,Va-p-sm,cop
285,1663-1665,po,_,_,_,_,_,287,ADP,Sl,case
286,1666-1675,razkritje,_,_,_,_,_,293,NOUN,Ncnsl,obl
287,1676-1677,o,_,_,_,_,_,290,ADP,Sl,case
288,1678-1682,dva,_,_,_,_,_,290,NUM,Mlcfdl,nummod
289,1683-1693,milijarda,_,_,_,_,_,287,NOUN,Ncfdl,nmod
290,1694-1700,izguba,_,_,_,_,_,290,NOUN,Ncfsg,nmod
291,1701-1713,samokritičen,_,_,_,_,_,293,ADJ,Agpmsnn,amod
292,1714-1724,predsednik,_,_,*->8-1,*[8],_,273,NOUN,Ncmsn,nsubj
293,1725-1731,uprava,_,_,*->8-1,*[8],_,293,NOUN,Ncfsg,nmod
294,1732-1737,banka,_,_,*->8-1,*[8],_,294,NOUN,Ncfsg,nmod
295,1738-1746,JPMorgan,ORG[8],_,*->8-1|*->3-6,*[8]|*[3],_,295,PROPN,Npmsn,nmod
296,1747-1752,Chase,ORG[8],_,*->8-1|*->3-6,*[8]|*[3],_,296,PROPN,Npmsn,nmod
297,1753-1758,Jamie,PER[9],_,*->8-1,*[8],_,293,PROPN,Npmsn,nmod
298,1759-1764,Dimon,PER[9],_,*->8-1,*[8],_,298,PROPN,Npmsn,flat:name
299,1765-1766,.,_,_,_,_,_,273,PUNCT,Z,punct
300,1767-1774,Ironija,_,_,_,_,_,298,PROPN,Npfsn,flat:name
301,1775-1777,biti,_,_,_,_,_,341,AUX,Va-r3s-n,aux
302,1778-1779,",",_,_,_,_,_,306,PUNCT,Z,punct
303,1780-1782,da,_,_,_,_,_,306,SCONJ,Cs,mark
304,1783-1788,Dimon,PER,_,*->8-2,*[8],_,306,PROPN,Npmsn,nsubj
305,1789-1794,veljati,_,_,_,_,_,293,VERB,Vmpr3s,acl
306,1795-1797,za,_,_,_,_,_,310,ADP,Sa,case
307,1798-1803,en,_,0,*->8-3,*[8],3 - Nevtralno[18],310,NUM,Mlpmsa,nummod
308,1804-1813,velik,_,0,*->8-3,*[8],3 - Nevtralno[18],310,ADJ,Agsmpg,amod
309,1814-1827,strokovnjak,_,0,*->8-3,*[8],3 - Nevtralno[18],306,NOUN,Ncmpg,obl
310,1828-1831,pri,_,0,*->8-3,*[8],3 - Nevtralno[18],312,ADP,Sl,case
311,1832-1843,upravljanje,_,0,*->8-3,*[8],3 - Nevtralno[18],310,NOUN,Ncnsl,nmod
312,1844-1845,z,_,0,*->8-3,*[8],3 - Nevtralno[18],314,ADP,Si,case
313,1846-1854,tveganje,_,0,*->8-3,*[8],3 - Nevtralno[18],312,NOUN,Ncnpi,nmod
314,1855-1856,.,_,_,_,_,_,306,PUNCT,Z,punct
315,1857-1860,več,_,_,_,_,_,318,DET,Rgc,advmod
316,1861-1862,v,_,_,_,_,_,318,ADP,Sl,case
317,1863-1870,rubrika,_,_,_,_,_,310,NOUN,Ncfsl,nmod
318,1871-1879,finančen,_,_,_,_,_,320,ADJ,Agpfsg,amod
319,1880-1888,krivulja,_,_,_,_,_,318,NOUN,Ncfsg,nmod
320,1889-1891,na,_,_,_,_,_,322,ADP,Sl,case
321,1892-1896,val,ORG[10],0,*->9-1,*[9],3 - Nevtralno[19],320,NOUN,Ncmsl,nmod
322,1897-1900,202,ORG[10],0,*->9-1,*[9],3 - Nevtralno[19],322,NUM,Mdc,nummod
323,1901-1902,.,_,_,_,_,_,316,PUNCT,Z,punct
324,1903-1908,letos,_,_,_,_,_,326,ADV,Rgp,advmod
325,1909-1917,velik,_,_,_,_,_,328,ADJ,Agsmsny,amod
326,1918-1926,tedenski,_,_,_,_,_,328,ADJ,Agpmsay,amod
327,1927-1932,padec,_,_,_,_,_,341,NOUN,Ncmsan,obj
328,1933-1940,indeks,_,_,_,_,_,328,NOUN,Ncmsg,nmod
329,1941-1944,Dow,_,_,_,_,_,329,PROPN,Npmsn,nmod
330,1945-1950,Jones,_,_,_,_,_,330,PROPN,Npmsn,nmod
331,1951-1958,delnica,_,_,_,_,_,331,NOUN,Ncfsg,nmod
332,1959-1964,banka,_,_,_,_,_,332,NOUN,Ncfsg,nmod
333,1965-1973,JPMorgan,ORG,_,*->3-7,*[3],_,333,PROPN,Npmsn,nmod
334,1974-1976,biti,_,_,_,_,_,341,AUX,Va-r3p-n,aux
335,1977-1978,v,_,_,_,_,_,337,ADP,Sa,case
336,1979-1984,petek,_,_,_,_,_,341,NOUN,Ncmsan,obl
337,1985-1987,ob,_,_,_,_,_,340,ADP,Sl,case
338,1988-1997,rekorden,_,_,_,_,_,340,ADJ,Agpmsl,amod
339,1998-2005,promet,_,_,_,_,_,341,NOUN,Ncmsl,obl
340,2006-2011,pasti,_,_,_,_,_,22,VERB,Vmep-pf,parataxis
341,2012-2014,za,_,_,_,_,_,345,ADP,Sa,case
342,2015-2021,skoraj,_,_,_,_,_,345,PART,Q,advmod
343,2022-2027,deset,_,_,_,_,_,345,NUM,Mlc-pa,nummod
344,2028-2037,odstotek,_,_,_,_,_,341,NOUN,Ncmpg,obl
345,2038-2040,in,_,_,_,_,_,348,CCONJ,Cc,cc
346,2041-2048,navzdol,_,_,_,_,_,348,ADV,Rgp,advmod
347,2049-2058,potisniti,_,_,_,_,_,341,VERB,Vmep-pf,conj
348,2059-2066,celoten,_,_,_,_,_,351,ADJ,Agpmsan,amod
349,2067-2075,finančen,_,_,_,_,_,351,ADJ,Agpmsay,amod
350,2076-2082,sektor,_,_,_,_,_,348,NOUN,Ncmsan,obj
351,2083-2084,",",_,_,_,_,_,360,PUNCT,Z,punct
352,2085-2087,ki,_,_,_,_,_,360,SCONJ,Cs,mark
353,2088-2090,biti,_,_,_,_,_,360,AUX,Va-r3s-n,aux
354,2091-2092,v,_,_,_,_,_,358,ADP,Sl,case
355,2093-2098,prvi,_,_,_,_,_,358,ADJ,Mlonsl,amod
356,2099-2108,letošnji,_,_,_,_,_,358,ADJ,Agpnsl,amod
357,2109-2119,četrtletje,_,_,_,_,_,360,NOUN,Ncnsl,obl
358,2120-2127,občutno,_,_,_,_,_,360,ADV,Rgp,advmod
359,2128-2138,pridobivati,_,_,_,_,_,351,VERB,Vmpp-sm,acl
360,2139-2140,+,_,_,_,_,_,360,NOUN,Ncmsa,obj
361,2141-2145,"21,5",_,_,_,_,_,363,NUM,Mdc,nummod
362,2146-2154,odstotek,_,_,_,_,_,361,NOUN,Ncmsg,nmod
363,2155-2156,",",_,_,_,_,_,360,PUNCT,Z,punct
364,2157-2161,zdaj,_,_,_,_,_,389,ADV,Rgp,advmod
365,2162-2164,pa,_,_,_,_,_,389,CCONJ,Cc,advmod
366,2165-2167,biti,_,_,_,_,_,389,AUX,Va-r3p-n,aux
367,2168-2176,ameriški,_,_,_,_,_,370,ADJ,Agpfpn,amod
368,2177-2185,finančen,_,_,_,_,_,370,ADJ,Agpfpn,amod
369,2186-2193,delnica,_,_,_,_,_,389,NOUN,Ncfpn,nsubj
370,2194-2195,v,_,_,_,_,_,372,ADP,Sl,case
371,2196-2205,povprečje,_,_,_,_,_,370,NOUN,Ncnsl,nmod
372,2206-2208,le,_,_,_,_,_,389,PART,Q,advmod
373,2209-2211,še,_,_,_,_,_,376,PART,Q,advmod
374,2212-2216,"13,6",_,_,_,_,_,376,NUM,Mdc,nummod
375,2217-2225,odstotek,_,_,_,_,_,370,NOUN,Ncmsg,nmod
376,2226-2229,nad,_,_,_,_,_,378,ADP,Si,case
377,2230-2240,vrednost,_,_,_,_,_,376,NOUN,Ncfsi,nmod
378,2241-2242,z,_,_,_,_,_,380,ADP,Sg,case
379,2243-2250,začetek,_,_,_,_,_,378,NOUN,Ncmsg,nmod
380,2251-2255,leto,_,_,_,_,_,380,NOUN,Ncnsg,nmod
381,2256-2257,.,_,_,_,_,_,22,PUNCT,Z,punct
382,2258-2261,Dow,_,_,_,_,_,376,PROPN,Npmsn,nmod
383,2262-2267,Jones,_,_,_,_,_,383,PROPN,Npmsn,flat:name
384,2268-2270,se,_,_,_,_,_,389,PRON,Px------y,expl
385,2271-2273,biti,_,_,_,_,_,389,AUX,Va-r3s-n,aux
386,2274-2282,pretekel,_,_,_,_,_,388,ADJ,Appmsay,amod
387,2283-2288,teden,_,_,_,_,_,389,NOUN,Ncmsan,obl
388,2289-2295,znižati,_,_,_,_,_,22,VERB,Vmep-sm,parataxis
389,2296-2298,za,_,_,_,_,_,392,ADP,Sa,case
390,2299-2302,"1,7",_,_,_,_,_,392,NUM,Mdc,nummod
391,2303-2311,odstotek,_,_,_,_,_,389,NOUN,Ncmsg,obl
392,2312-2313,",",_,_,_,_,_,395,PUNCT,Z,punct
393,2314-2317,kar,_,_,_,_,_,395,PRON,Pr-nsn,nsubj
394,2318-2324,pomeniti,_,_,_,_,_,392,VERB,Vmbr3s,acl
395,2325-2333,velik,_,_,_,_,_,398,ADJ,Agsmsay,amod
396,2334-2342,tedenski,_,_,_,_,_,398,ADJ,Agpmsay,amod
397,2343-2348,padec,_,_,_,_,_,395,NOUN,Ncmsan,obj
398,2349-2354,letos,_,_,_,_,_,398,ADV,Rgp,advmod
399,2355-2356,.,_,_,_,_,_,389,PUNCT,Z,punct
400,2357-2364,Škandal,_,_,_,_,_,389,PROPN,Npmsn,nsubj
401,2365-2366,v,_,_,_,_,_,403,ADP,Sl,case
402,2367-2376,Jpmorgan,ORG,2,*->3-8,*[3],2 - Negativno,401,PROPN,Npmsl,nmod
403,2377-2379,biti,_,_,_,_,_,408,AUX,Va-r3s-n,aux
404,2380-2382,za,_,_,_,_,_,407,ADP,Sa,case
405,2383-2391,finančen,_,_,_,_,_,407,ADJ,Agpmpa,amod
406,2392-2396,trg,_,_,_,_,_,408,NOUN,Ncmpa,obl
407,2397-2403,priti,_,_,_,_,_,389,VERB,Vmep-sm,advcl
408,2404-2405,v,_,_,_,_,_,411,ADP,Sl,case
409,2406-2417,neprimeren,_,_,_,_,_,411,ADJ,Agpmsl,amod
410,2418-2426,trenutek,_,_,_,_,_,408,NOUN,Ncmsl,obl
411,2427-2428,",",_,_,_,_,_,408,PUNCT,Z,punct
412,2429-2432,saj,_,_,_,_,_,468,CCONJ,Cc,cc
413,2433-2435,biti,_,_,_,_,_,448,AUX,Va-r3s-n,aux
414,2436-2442,zadnji,_,_,_,_,_,416,ADJ,Agpmpa,amod
415,2443-2447,čas,_,_,_,_,_,420,NOUN,Ncmpa,nmod
416,2448-2450,že,_,_,_,_,_,420,PART,Q,advmod
417,2451-2455,tako,_,_,_,_,_,419,ADV,Rgp,advmod
418,2456-2462,veliko,_,_,_,_,_,420,DET,Rgp,det
419,2463-2474,negotovost,_,_,_,_,_,408,NOUN,Ncfsg,obj
420,2475-2481,zaradi,_,_,_,_,_,424,ADP,Sg,case
421,2482-2490,evropski,_,_,_,_,_,424,ADJ,Agpfsg,amod
422,2491-2500,dolžniški,_,_,_,_,_,424,ADJ,Agpfsg,amod
423,2501-2506,kriza,_,_,_,_,_,420,NOUN,Ncfsg,nmod
424,2507-2509,in,_,_,_,_,_,426,CCONJ,Cc,cc
425,2510-2516,znak,_,_,_,_,_,424,NOUN,Ncmpg,conj
426,2517-2518,",",_,_,_,_,_,434,PUNCT,Z,punct
427,2519-2521,da,_,_,_,_,_,434,SCONJ,Cs,mark
428,2522-2524,se,_,_,_,_,_,434,PRON,Px------y,expl
429,2525-2533,kitajski,_,_,_,_,_,432,ADJ,Agpfsn,amod
430,2534-2545,gospodarski,_,_,_,_,_,432,ADJ,Agpfsn,amod
431,2546-2550,rast,_,_,_,_,_,434,NOUN,Ncfsn,nsubj
432,2551-2558,nevarno,_,_,_,_,_,434,ADV,Rgp,advmod
433,2559-2570,upočasnjevati,_,_,_,_,_,420,VERB,Vmpr3s,acl
434,2571-2572,.,_,_,_,_,_,434,PUNCT,Z,punct
435,2573-2575,na,_,_,_,_,_,437,ADP,Sl,case
436,2576-2582,poteza,_,_,_,_,_,448,NOUN,Ncfsl,obl
437,2583-2587,spet,_,_,_,_,_,448,ADV,Rgp,advmod
438,2588-2596,evropski,_,_,_,_,_,440,ADJ,Agpmpn,amod
439,2597-2606,voditelj,_,_,_,_,_,448,NOUN,Ncmpn,nsubj
440,2607-2608,v,_,_,_,_,_,442,ADP,Sa,case
441,2609-2615,sobota,_,_,_,_,_,448,NOUN,Ncfsa,obl
442,2616-2618,se,_,_,_,_,_,448,PRON,Px------y,expl
443,2619-2621,biti,_,_,_,_,_,448,AUX,Va-r3s-n,aux
444,2622-2630,kitajski,_,_,_,_,_,447,ADJ,Agpfsn,amod
445,2631-2640,centralen,_,_,_,_,_,447,ADJ,Agpfsn,amod
446,2641-2646,banka,_,_,_,_,_,448,NOUN,Ncfsn,nsubj
447,2647-2655,odločiti,_,_,_,_,_,22,VERB,Vmep-sf,parataxis
448,2656-2658,za,_,_,_,_,_,451,ADP,Sa,case
449,2659-2662,nov,_,_,_,_,_,451,ADJ,Agpmsan,amod
450,2663-2668,ukrep,_,_,_,_,_,448,NOUN,Ncmsan,obl
451,2669-2670,",",_,_,_,_,_,455,PUNCT,Z,punct
452,2671-2673,da,_,_,_,_,_,455,SCONJ,Cs,mark
453,2674-2676,biti,_,_,_,_,_,455,AUX,Va-c,aux
454,2677-2687,spodbuditi,_,_,_,_,_,451,VERB,Vmep-sf,acl
455,2688-2700,gospodarstvo,_,_,_,_,_,455,NOUN,Ncnsa,obj
456,2701-2702,",",_,_,_,_,_,455,PUNCT,Z,punct
457,2703-2706,saj,_,_,_,_,_,468,CCONJ,Cc,cc
458,2707-2709,biti,_,_,_,_,_,468,AUX,Va-f3s-n,aux
459,2710-2711,z,_,_,_,_,_,461,ADP,Si,case
460,2712-2714,18,_,_,_,_,_,463,NUM,Mdc,nummod
461,2715-2716,.,_,_,_,_,_,448,PUNCT,Z,punct
462,2717-2722,maj,_,_,_,_,_,468,NOUN,Ncmsi,obl
463,2723-2725,za,_,_,_,_,_,467,ADP,Sa,case
464,2726-2729,pol,_,_,_,_,_,467,DET,Rgp,det
465,2730-2738,odstoten,_,_,_,_,_,467,ADJ,Agpfsg,amod
466,2739-2744,točka,_,_,_,_,_,463,NOUN,Ncfsg,nmod
467,2745-2752,znižati,_,_,_,_,_,455,VERB,Vmep-sf,conj
468,2753-2760,stopnja,_,_,_,_,_,468,NOUN,Ncfsa,obj
469,2761-2769,obvezen,_,_,_,_,_,471,ADJ,Agpfpg,amod
470,2770-2776,rezerva,_,_,_,_,_,469,NOUN,Ncfpg,nmod
471,2777-2778,",",_,_,_,_,_,475,PUNCT,Z,punct
472,2779-2781,ki,_,_,_,_,_,475,SCONJ,Cs,mark
473,2782-2785,on,_,_,_,_,_,476,PRON,Pp3mpa--y,obj
474,2786-2792,morati,_,_,_,_,_,471,VERB,Vmpr3p,acl
475,2793-2798,imeti,_,_,_,_,_,475,VERB,Vmpn,xcomp
476,2799-2807,posloven,_,_,_,_,_,478,ADJ,Agpfsg,amod
477,2808-2813,banka,_,_,_,_,_,476,NOUN,Ncfpa,obj
478,2814-2815,.,_,_,_,_,_,468,PUNCT,Z,punct
479,2816-2820,tudi,_,_,_,_,_,483,PART,Q,advmod
480,2821-2827,Evropa,ORG,2,*->10-1,*[10],2 - Negativno,483,PROPN,Npfsn,nsubj
481,2828-2830,biti,_,_,_,_,_,483,AUX,Va-f3s-n,aux
482,2831-2837,morati,_,_,_,_,_,22,VERB,Vmpp-sf,parataxis
483,2838-2843,najti,_,_,_,_,_,483,VERB,Vmen,xcomp
484,2844-2849,način,_,_,_,_,_,484,NOUN,Ncmsan,obj
485,2850-2851,",",_,_,_,_,_,489,PUNCT,Z,punct
486,2852-2856,kako,_,_,_,_,_,489,ADV,Rgp,advmod
487,2857-2859,se,_,_,_,_,_,489,PRON,Px------y,expl
488,2860-2868,izkopati,_,_,_,_,_,485,VERB,Vmen,acl
489,2869-2871,iz,_,_,_,_,_,491,ADP,Sg,case
490,2872-2877,kriza,_,_,_,_,_,489,NOUN,Ncfsg,obl
491,2878-2879,.,_,_,_,_,_,475,PUNCT,Z,punct
492,2880-2887,razmera,_,_,_,_,_,500,NOUN,Ncfpn,nsubj
493,2888-2890,se,_,_,_,_,_,500,PRON,Px------y,expl
494,2891-2897,zlasti,_,_,_,_,_,500,PART,Q,advmod
495,2898-2899,v,_,_,_,_,_,497,ADP,Sl,case
496,2900-2906,Grčija,ORG,2,*->11-1,*[11],2 - Negativno,500,PROPN,Npfsl,obl
497,2907-2909,in,_,_,_,_,_,499,CCONJ,Cc,cc
498,2910-2917,Španija,ORG,2,*->12-1,*[12],2 - Negativno,497,PROPN,Npfsl,conj
499,2918-2930,poslabševati,_,_,_,_,_,22,VERB,Vmpr3p,parataxis
500,2931-2932,.,_,_,_,_,_,500,PUNCT,Z,punct
501,2933-2937,samo,_,_,_,_,_,505,PART,Q,advmod
502,2938-2948,varčevanje,_,_,_,_,_,505,NOUN,Ncnsn,nsubj
503,2949-2951,ne,_,_,_,_,_,505,PART,Q,advmod
504,2952-2956,moči,_,_,_,_,_,500,VERB,Vmpr3s,conj
505,2957-2961,biti,_,_,_,_,_,508,AUX,Va-n,cop
506,2962-2967,pravi,_,_,_,_,_,508,ADJ,Agpmsny,amod
507,2968-2975,odgovor,_,_,_,_,_,505,NOUN,Ncmsn,xcomp
508,2976-2977,.,_,_,_,_,_,489,PUNCT,Z,punct
509,2978-2979,v,_,_,_,_,_,511,ADP,Sa,case
510,2980-2990,ponedeljek,_,_,_,_,_,515,NOUN,Ncmsan,obl
511,2991-2993,biti,_,_,_,_,_,515,AUX,Va-f3s-n,cop
512,2994-2995,v,_,_,_,_,_,514,ADP,Sl,case
513,2996-3003,Bruselj,LOC,0,*->13-1,*[13],3 - Nevtralno,515,PROPN,Npmsl,obl
514,3004-3013,zasedanje,_,_,_,_,_,508,NOUN,Ncnsn,nsubj
515,3014-3023,finančen,_,_,_,_,_,517,ADJ,Agpmpg,amod
516,3024-3033,minister,_,_,_,_,_,515,NOUN,Ncmpg,nmod
517,3034-3042,evrski,_,_,_,_,_,519,ADJ,Agpnsg,amod
518,3043-3050,območje,_,_,_,_,_,517,NOUN,Ncnsg,nmod
519,3051-3052,",",_,_,_,_,_,515,PUNCT,Z,punct
520,3053-3056,dan,_,_,_,_,_,524,NOUN,Ncmsn,conj
521,3057-3064,kasno,_,_,_,_,_,524,ADV,Rgc,advmod
522,3065-3067,pa,_,_,_,_,_,524,CCONJ,Cc,advmod
523,3068-3077,zasedanje,_,_,_,_,_,515,NOUN,Ncnsn,conj
524,3078-3087,minister,_,_,_,_,_,524,NOUN,Ncmpg,nmod
525,3088-3092,ves,_,_,_,_,_,528,DET,Pg-fpg,det
526,3093-3095,27,_,_,_,_,_,528,NUM,Mdc,nummod
527,3096-3102,članica,_,_,_,_,_,525,NOUN,Ncfpg,nmod
528,3103-3111,evropski,ORG[11],2,*->14-1,*[14],2 - Negativno[20],530,ADJ,Agpfsg,amod
529,3112-3117,unija,ORG[11],2,*->14-1,*[14],2 - Negativno[20],528,NOUN,Ncfsg,nmod
530,3118-3119,.,_,_,_,_,_,524,PUNCT,Z,punct
531,3120-3125,konec,_,_,_,_,_,533,ADP,Sg,case
532,3126-3131,teden,_,_,_,_,_,539,NOUN,Ncmsg,obl
533,3132-3134,se,_,_,_,_,_,539,PRON,Px------y,expl
534,3135-3139,biti,_,_,_,_,_,539,AUX,Va-f3p-n,aux
535,3140-3149,voditelj,_,_,_,_,_,539,NOUN,Ncmpn,nsubj
536,3150-3155,država,_,_,_,_,_,536,NOUN,Ncfpg,nmod
537,3156-3158,G8,_,_,_,_,_,537,PROPN,Npfsg,nmod
538,3159-3166,srečati,_,_,_,_,_,524,VERB,Vmep-pm,acl
539,3167-3168,v,_,_,_,_,_,542,ADP,Sl,case
540,3169-3173,Camp,ORG[12],0,*->15-1,*[15],3 - Nevtralno[21],542,PROPN,Npmsl,nmod
541,3174-3180,David,ORG[12],0,*->15-1,*[15],3 - Nevtralno[21],539,PROPN,Npmsl,obl
542,3181-3182,",",_,_,_,_,_,544,PUNCT,Z,punct
543,3183-3189,gostiti,_,_,_,_,_,539,VERB,Vmpp-sm,conj
544,3190-3193,on,_,_,_,_,_,544,PRON,Pp3mpa--y,obj
545,3194-3196,biti,_,_,_,_,_,544,AUX,Va-f3s-n,aux
546,3197-3205,ameriški,_,0,*->16-1,*[16],3 - Nevtralno[22],548,ADJ,Agpmsny,amod
547,3206-3215,presednik,_,0,*->16-1,*[16],3 - Nevtralno[22],544,NOUN,Ncmsn,nsubj
548,3216-3222,Barack,PER[13],0,*->16-1,*[16],3 - Nevtralno[22],548,PROPN,Npmsn,nmod
549,3223-3228,Obam,PER[13],0,*->16-1,*[16],3 - Nevtralno[22],549,PROPN,Npmsn,flat:name
550,3229-3230,.,_,_,_,_,_,539,PUNCT,Z,punct
551,3231-3234,Dow,_,_,_,_,_,556,PROPN,Npmsn,nmod
552,3235-3246,jones12.820,_,_,_,_,_,554,NUM,Mdc,nummod
553,3247-3251,točka,_,_,_,_,_,544,NOUN,Ncfpg,obj
554,3252-3263,Nasdaq2.933,_,_,_,_,_,556,NUM,Mdc,nummod
555,3264-3269,dax30,_,_,_,_,_,554,NOUN,Ncmpg,nmod
556,3270-3279,Frankfurt,LOC,0,*->17-1,*[17],3 - Nevtralno,556,PROPN,Npmsn,nmod
557,3280-3285,6.579,_,_,_,_,_,556,NUM,Mdc,nummod
558,3286-3298,FTSEurofirst,_,_,_,_,_,556,PROPN,Npmsn,nmod
559,3299-3307,3001.022,_,_,_,_,_,559,NUM,Mdc,nummod
560,3308-3314,Nikkei,_,_,_,_,_,562,PUNCT,Z,punct
561,3315-3325,"tokio8,953",_,_,_,_,_,560,NUM,Mdc,conj
562,3326-3328,10,_,_,_,_,_,565,NUM,Mdc,nummod
563,3329-3330,-,_,_,_,_,_,565,PUNCT,Z,punct
564,3331-3336,leten,_,_,_,_,_,566,ADJ,Agpfsg,amod
565,3337-3339,am,_,_,_,_,_,562,PROPN,Npmsn,nmod
566,3340-3341,.,_,_,_,_,_,562,PUNCT,Z,punct
567,3342-3354,obvezn.donos,_,_,_,_,_,570,NUM,Mdc,nummod
568,3355-3359,"1,84",_,_,_,_,_,570,NUM,Mdc,nummod
569,3360-3361,%,_,_,_,_,_,566,NOUN,Ncmsn,appos
570,3362-3365,eur,_,_,_,_,_,570,NUM,Mdc,nummod
571,3366-3367,/,_,_,_,_,_,573,PUNCT,Z,punct
572,3368-3377,"usd1,2916",_,_,_,_,_,571,NUM,Mdc,conj
573,3378-3381,USD,_,_,_,_,_,570,NOUN,Ncmsn,nmod
574,3382-3383,/,_,_,_,_,_,576,PUNCT,Z,punct
575,3384-3392,"JPY79,93",_,_,_,_,_,571,NUM,Mdc,conj
576,3393-3396,eur,_,_,_,_,_,574,NOUN,Ncmsn,nmod
577,3397-3398,/,_,_,_,_,_,579,PUNCT,Z,punct
578,3399-3407,"CHF1,201",_,_,_,_,_,577,NUM,Mdc,nummod
579,3408-3413,nafta,_,_,_,_,_,577,NOUN,Ncfsn,appos
580,3414-3425,"brent112,26",_,_,_,_,_,580,NUM,Mdc,nummod
581,3426-3429,USD,_,_,_,_,_,580,NOUN,Ncmsn,nmod
582,3430-3440,Zlato1.578,_,_,_,_,_,585,NUM,Mdc,nummod
583,3441-3444,USD,_,_,_,_,_,585,NOUN,Ncmsn,nmod
584,3445-3452,Euribor,_,_,_,_,_,580,PROPN,Npmsn,nmod
585,3453-3454,",",_,_,_,_,_,585,PUNCT,Z,punct
586,3455-3456,6,_,_,_,_,_,590,NUM,Mdc,nummod
587,3457-3458,-,_,_,_,_,_,589,PUNCT,Z,punct
588,3459-3471,"mesečni0,977",_,_,_,_,_,587,NUM,Mdc,conj
589,3472-3473,%,_,_,_,_,_,585,NOUN,Ncmsg,nmod
590,3474-3476,biti,_,_,_,_,_,593,AUX,Va-r3s-y,cop
591,3477-3483,realen,_,_,_,_,_,593,ADJ,Agpfsg,amod
592,3484-3490,osnova,_,_,_,_,_,590,NOUN,Ncfsg,nmod
593,3491-3493,za,_,_,_,_,_,595,ADP,Sa,case
594,3494-3499,padec,_,_,_,_,_,593,NOUN,Ncmsan,nmod
595,3500-3507,krkin,ORG,_,*->4-1,*[4],_,597,ADJ,Aspfpg,amod
596,3508-3514,delnica,_,_,_,_,_,595,NOUN,Ncfpg,nmod
597,3515-3521,indeks,_,_,_,_,_,605,NOUN,Ncmsn,nsubj
598,3522-3525,SBI,_,_,_,_,_,598,PROPN,Npmsn,nmod
599,3526-3529,TOP,_,_,_,_,_,599,PROPN,Npmsn,nmod
600,3530-3532,biti,_,_,_,_,_,605,AUX,Va-r3s-n,aux
601,3533-3535,na,_,_,_,_,_,604,ADP,Sl,case
602,3536-3544,tedenski,_,_,_,_,_,604,ADJ,Agpfsl,amod
603,3545-3550,raven,_,_,_,_,_,605,NOUN,Ncfsl,obl
604,3551-3558,izgubiti,_,_,_,_,_,593,VERB,Vmep-sm,acl
605,3559-3562,več,_,_,_,_,_,609,DET,Rgc,advmod
606,3563-3566,kot,_,_,_,_,_,606,SCONJ,Cs,fixed
607,3567-3572,štirje,_,_,_,_,_,609,NUM,Mlcmpa,nummod
608,3573-3581,odstotek,_,_,_,_,_,605,NOUN,Ncmpa,obj
609,3582-3583,",",_,_,_,_,_,616,PUNCT,Z,punct
610,3584-3587,pri,_,_,_,_,_,612,ADP,Sl,case
611,3588-3593,kar,_,_,_,_,_,616,PRON,Pr-nsl,obl
612,3594-3596,biti,_,_,_,_,_,616,AUX,Va-r3p-n,aux
613,3597-3599,se,_,_,_,_,_,616,PRON,Px------y,expl
614,3600-3607,najbolj,_,_,_,_,_,616,ADV,Rgs,advmod
615,3608-3616,poceniti,_,_,_,_,_,609,VERB,Vmep-pf,acl
616,3617-3624,delnica,_,_,_,_,_,616,NOUN,Ncfpn,nsubj
617,3625-3635,Mercator,ORG,0,*->18-1,*[18],3 - Nevtralno,617,PROPN,Npmsg,nmod
618,3636-3638,za,_,_,_,_,_,622,ADP,Sa,case
619,3639-3645,skoraj,_,_,_,_,_,621,PART,Q,advmod
620,3646-3651,deset,_,_,_,_,_,622,NUM,Mlc-pa,nummod
621,3652-3661,odstotek,_,_,_,_,_,617,NOUN,Ncmpg,nmod
622,3662-3664,in,_,_,_,_,_,625,CCONJ,Cc,cc
623,3665-3669,nov,ORG[14],0,*->19-1,*[19],3 - Nevtralno[23],625,ADJ,Agpfsg,amod
624,3670-3673,KBM,ORG[14],0,*->19-1,*[19],3 - Nevtralno[23],622,PROPN,Npfsg,conj
625,3674-3676,za,_,_,_,_,_,628,ADP,Sa,case
626,3677-3681,šest,_,_,_,_,_,628,NUM,Mlc-pa,nummod
627,3682-3691,odstotek,_,_,_,_,_,625,NOUN,Ncmpg,nmod
628,3692-3693,.,_,_,_,_,_,616,PUNCT,Z,punct
629,3694-3699,padec,_,_,_,_,_,633,NOUN,Ncmsan,obj
630,3700-3702,biti,_,_,_,_,_,633,AUX,Va-c,aux
631,3703-3708,lahko,_,_,_,_,_,633,ADV,Rgp,advmod
632,3709-3717,povezati,_,_,_,_,_,616,VERB,Vmep-pm,conj
633,3718-3719,z,_,_,_,_,_,636,ADP,Si,case
634,3720-3732,varčevalen,_,_,_,_,_,636,ADJ,Agpmpi,amod
635,3733-3739,ukrep,_,_,_,_,_,633,NOUN,Ncmpi,obl
636,3740-3741,v,_,_,_,_,_,638,ADP,Sl,case
637,3742-3751,Slovenija,LOC,0,*->20-1,*[20],3 - Nevtralno,636,PROPN,Npfsl,nmod
638,3752-3753,",",_,_,_,_,_,646,PUNCT,Z,punct
639,3754-3756,ki,_,_,_,_,_,646,SCONJ,Cs,mark
640,3757-3759,biti,_,_,_,_,_,646,AUX,Va-r3p-n,aux
641,3760-3763,on,_,_,_,_,_,646,PRON,Pp3mpa--y,obj
642,3764-3768,malo,_,_,_,_,_,644,DET,Rgp,advmod
643,3769-3773,bolj,_,_,_,_,_,645,ADV,Rgc,advmod
644,3774-3779,resno,_,_,_,_,_,646,ADV,Rgp,advmod
645,3780-3785,vzeti,_,_,_,_,_,636,VERB,Vmep-pm,acl
646,3786-3790,tuj,_,_,_,_,_,648,ADJ,Agpmpn,amod
647,3791-3801,vlagatelj,_,_,_,_,_,646,NOUN,Ncmpn,nsubj
648,3802-3803,",",_,_,_,_,_,652,PUNCT,Z,punct
649,3804-3806,ki,_,_,_,_,_,652,SCONJ,Cs,mark
650,3807-3809,biti,_,_,_,_,_,652,AUX,Va-r3p-n,aux
651,3810-3820,pritisniti,_,_,_,_,_,648,VERB,Vmep-pm,acl
652,3821-3823,na,_,_,_,_,_,655,ADP,Sa,case
653,3824-3832,prodajen,_,_,_,_,_,655,ADJ,Agpfsa,amod
654,3833-3838,stran,_,_,_,_,_,652,NOUN,Ncfsa,obl
655,3839-3840,",",_,_,_,_,_,652,PUNCT,Z,punct
656,3841-3843,biti,_,_,_,_,_,658,AUX,Va-r3s-n,aux
657,3844-3852,pojasniti,_,_,_,_,_,22,VERB,Vmep-sm,parataxis
658,3853-3858,Marko,PER[15],_,*->5-1,*[5],_,658,PROPN,Npmsn,nsubj
659,3859-3867,Pavlović,PER[15],_,*->5-1,*[5],_,659,PROPN,Npmsn,flat:name
660,3868-3871,GBD,ORG,0,*->21-1,*[21],3 - Nevtralno,659,PROPN,Npmsn,flat:name
661,3872-3873,",",_,_,_,_,_,666,PUNCT,Z,punct
662,3874-3876,ki,_,_,_,_,_,666,SCONJ,Cs,mark
663,3877-3879,pa,_,_,_,_,_,666,CCONJ,Cc,advmod
664,3880-3886,vseeno,_,_,_,_,_,666,ADV,Rgp,advmod
665,3887-3894,verjeti,_,_,*->5-2,*[5],_,659,VERB,Vmbr3s,acl
666,3895-3896,",",_,_,_,_,_,674,PUNCT,Z,punct
667,3897-3899,da,_,_,_,_,_,674,SCONJ,Cs,mark
668,3900-3902,biti,_,_,_,_,_,674,AUX,Va-r3s-n,cop
669,3903-3906,rez,_,_,_,_,_,666,NOUN,Ncmsn,nsubj
670,3907-3908,v,_,_,_,_,_,673,ADP,Sa,case
671,3909-3914,javen,_,_,_,_,_,673,ADJ,Agpfsa,amod
672,3915-3921,poraba,_,_,_,_,_,670,NOUN,Ncfsa,nmod
673,3922-3927,korak,_,_,_,_,_,670,NOUN,Ncmsn,nmod
674,3928-3929,v,_,_,_,_,_,677,ADP,Sa,case
675,3930-3935,pravi,_,_,_,_,_,677,ADJ,Agpfsa,amod
676,3936-3940,smer,_,_,_,_,_,674,NOUN,Ncfsa,nmod
677,3941-3942,.,_,_,_,_,_,666,PUNCT,Z,punct
678,3943-3947,Krka,ORG,0,*->4-2,*[4],3 - Nevtralno,689,PROPN,Npfsn,nsubj
679,3948-3950,biti,_,_,_,_,_,689,AUX,Va-r3s-n,aux
680,3951-3953,po,_,_,_,_,_,682,ADP,Sl,case
681,3954-3960,objava,_,_,_,_,_,689,NOUN,Ncfsl,obl
682,3961-3971,rezultat,_,_,_,_,_,682,NOUN,Ncmpg,nmod
683,3972-3978,prvi,_,_,_,_,_,686,ADJ,Mlonsg,amod
684,3979-3989,letošnji,_,_,_,_,_,686,ADJ,Agpnsg,amod
685,3990-4000,četrtletje,_,_,_,_,_,683,NOUN,Ncnsg,nmod
686,4001-4002,v,_,_,_,_,_,688,ADP,Sa,case
687,4003-4010,četrtek,_,_,_,_,_,689,NOUN,Ncmsan,obl
688,4011-4016,pasti,_,_,_,_,_,674,VERB,Vmep-sf,acl
689,4017-4020,pod,_,_,_,_,_,692,ADP,Sa,case
690,4021-4023,45,_,_,_,_,_,692,NUM,Mdc,nummod
691,4024-4029,evro,_,_,_,_,_,689,NOUN,Ncmpg,obl
692,4030-4031,",",_,_,_,_,_,689,PUNCT,Z,punct
693,4032-4033,v,_,_,_,_,_,695,ADP,Sa,case
694,4034-4039,petek,_,_,_,_,_,697,NOUN,Ncmsan,obl
695,4040-4042,pa,_,_,_,_,_,697,CCONJ,Cc,advmod
696,4043-4051,okrevati,_,_,_,_,_,689,VERB,Vmpp-sf,conj
697,4052-4053,.,_,_,_,_,_,689,PUNCT,Z,punct
698,4054-4056,biti,_,_,_,_,_,697,AUX,Va-r3s-y,aux
699,4057-4061,nek,_,_,_,_,_,702,DET,Pi-fsg,det
700,4062-4068,realen,_,_,_,_,_,702,ADJ,Agpfsg,amod
701,4069-4075,osnova,_,_,_,_,_,697,NOUN,Ncfsg,obj
702,4076-4078,za,_,_,_,_,_,704,ADP,Sa,case
703,4079-4084,padec,_,_,_,_,_,702,NOUN,Ncmsan,nmod
704,4085-4091,tečaj,_,_,_,_,_,704,NOUN,Ncmsg,nmod
705,4092-4093,",",_,_,_,_,_,708,PUNCT,Z,punct
706,4094-4096,biti,_,_,_,_,_,708,AUX,Va-r3s-n,cop
707,4097-4106,prepričan,_,_,_,_,_,697,ADJ,Appmsnn,conj
708,4107-4115,Pavlovič,PER,0,*->5-3,*[5],3 - Nevtralno,708,PROPN,Npmsn,nsubj
709,4116-4117,.,_,_,_,_,_,697,PUNCT,Z,punct
710,4118-4120,biti,_,_,_,_,_,718,AUX,Va-r3s-n,cop
711,4121-4123,pa,_,_,_,_,_,718,CCONJ,Cc,advmod
712,4124-4126,ta,_,_,_,_,_,718,DET,Pd-msn,nsubj
713,4127-4129,po,_,_,_,_,_,717,ADP,Sl,case
714,4130-4134,ves,_,_,_,_,_,717,DET,Pg-fpl,det
715,4135-4140,naš,_,_,_,_,_,717,DET,Ps1fplp,det
716,4141-4149,analiza,_,_,_,_,_,718,NOUN,Ncfpl,obl
717,4150-4159,podcenjen,_,_,_,_,_,708,ADJ,Appmsnn,ccomp
718,4160-4161,",",_,_,_,_,_,718,PUNCT,Z,punct
719,4162-4164,biti,_,_,_,_,_,718,VERB,Va-r3s-n,conj
