idx,chars_idx,token,entity_type,sentiment,idk_1,idk_2,orig_sentiment,heads,upos,xpos,deprel
0,0-7,ugleden,_,_,_,_,_,2,ADJ,Agpmdn,amod
1,8-14,medij,_,_,_,_,_,5,NOUN,Ncmdn,root
2,15-18,biti,_,_,_,_,_,5,AUX,Va-r3d-n,aux
3,19-28,Slovenija,ORG,_,*->1-1,*[1],_,5,PROPN,Npfsa,obj
4,29-38,postaviti,_,_,_,_,_,0,VERB,Vmep-dm,root
5,39-41,ob,_,_,_,_,_,7,ADP,Sl,case
6,42-45,bok,_,_,_,_,_,5,NOUN,Ncmsl,obl
7,46-53,Španija,ORG,_,*->2-1,*[2],_,7,PROPN,Npfsl,nmod
8,54-55,v,_,_,_,_,_,10,ADP,Sl,case
9,56-60,dan,_,_,_,_,_,7,NOUN,Ncmpl,nmod
10,61-62,",",_,_,_,_,_,16,PUNCT,Z,punct
11,63-65,ko,_,_,_,_,_,16,SCONJ,Cs,mark
12,66-72,donos,_,_,_,_,_,16,NOUN,Ncmpn,nsubj
13,73-81,španski,_,_,_,_,_,15,ADJ,Agpfpg,amod
14,82-90,obveznica,_,_,_,_,_,13,NOUN,Ncfpg,nmod
15,91-99,dosegati,_,_,_,_,_,22,VERB,Vmpr3p,advcl
16,100-108,rekorden,_,_,_,_,_,18,ADJ,Agpfpa,amod
17,109-114,raven,_,_,_,_,_,16,NOUN,Ncfpa,obj
18,115-116,",",_,_,_,_,_,16,PUNCT,Z,punct
19,117-119,biti,_,_,_,_,_,22,AUX,Va-r3s-n,aux
20,120-129,dogajanje,_,_,_,_,_,22,NOUN,Ncnsa,obj
21,130-139,popestriti,_,_,_,_,_,5,VERB,Vmep-sm,parataxis
22,140-142,še,_,_,_,_,_,22,PART,Q,advmod
23,143-149,Moodys,ORG,_,*->3-1,*[3],_,22,PROPN,Npmsn,nsubj
24,150-151,",",_,_,_,_,_,59,PUNCT,Z,punct
25,152-154,ki,_,_,_,_,_,153,SCONJ,Cs,mark
26,155-157,biti,_,_,_,_,_,32,AUX,Va-r3s-n,aux
27,158-162,trije,_,_,_,_,_,31,NUM,Mlcfpd,nummod
28,163-174,prvovrsten,_,_,_,_,_,31,ADJ,Agpfpd,amod
29,175-184,evropski,_,_,_,_,_,31,ADJ,Agpfpd,amod
30,185-194,dolžnica,_,_,_,_,_,32,NOUN,Ncfpd,iobj
31,195-203,zagroziti,_,_,_,_,_,24,VERB,Vmep-sm,acl
32,204-205,",",_,_,_,_,_,35,PUNCT,Z,punct
33,206-208,da,_,_,_,_,_,35,SCONJ,Cs,mark
34,209-217,utegniti,_,_,_,_,_,32,VERB,Vmbr3p,ccomp
35,218-224,ostati,_,_,_,_,_,35,VERB,Vmen,xcomp
36,225-229,brez,_,_,_,_,_,38,ADP,Sg,case
37,230-235,ocena,_,_,_,_,_,36,NOUN,Ncfsg,obl
38,236-242,trojen,_,_,_,_,_,36,ADJ,Mlomsn,nsubj
39,243-244,a,_,_,_,_,_,42,CCONJ,Cc,cc
40,245-246,.,_,_,_,_,_,35,PUNCT,Z,punct
41,247-254,Nemčija,ORG,2,*->9-1,*[9],2 - Negativno,22,PROPN,Npfsn,nsubj
42,255-256,",",_,_,_,_,_,44,PUNCT,Z,punct
43,257-267,nizozemski,ORG,2,*->10-1,*[10],2 - Negativno,42,ADJ,Agpfsn,conj
44,268-270,in,_,_,_,_,_,46,CCONJ,Cc,cc
45,271-281,Luksemburg,ORG,2,*->11-1,*[11],2 - Negativno,44,PROPN,Npmsn,conj
46,282-284,biti,_,_,_,_,_,113,AUX,Va-r3p-n,aux
47,285-291,država,_,_,_,_,_,22,NOUN,Ncfpn,nsubj
48,292-293,",",_,_,_,_,_,59,PUNCT,Z,punct
49,294-296,ki,_,_,_,_,_,59,SCONJ,Cs,mark
50,297-300,on,_,_,_,_,_,59,PRON,Pp3mpd--y,iobj
51,301-303,biti,_,_,_,_,_,59,AUX,Va-r3s-n,aux
52,304-313,boniteten,_,_,*->3-2,*[3],_,54,ADJ,Agpfsn,amod
53,314-322,agencija,_,_,*->3-2,*[3],_,59,NOUN,Ncfsn,nsubj
54,323-329,Moodys,ORG,_,*->3-2,*[3],_,54,PROPN,Npmsn,nmod
55,330-331,v,_,_,_,_,_,57,ADP,Sa,case
56,332-342,ponedeljek,_,_,_,_,_,59,NOUN,Ncmsan,obl
57,343-349,zvečer,_,_,_,_,_,57,ADV,Rgp,advmod
58,350-357,znižati,_,_,_,_,_,48,VERB,Vmep-sf,acl
59,358-366,napoved,_,_,_,_,_,59,NOUN,Ncfpa,obj
60,367-369,za,_,_,_,_,_,64,ADP,Sa,case
61,370-379,dober,_,_,_,_,_,64,ADJ,Agsfsa,amod
62,380-389,boniteten,_,_,_,_,_,64,ADJ,Agpfsa,amod
63,390-395,ocena,_,_,_,_,_,60,NOUN,Ncfsa,nmod
64,396-402,trojen,_,_,_,_,_,64,ADJ,Mlomsn,amod
65,403-404,a,_,_,_,_,_,68,CCONJ,Cc,cc
66,405-407,iz,_,_,_,_,_,68,ADP,Sg,case
67,408-417,stabilen,_,_,_,_,_,65,ADJ,Agpmpg,obl
68,418-419,v,_,_,_,_,_,70,ADP,Sa,case
69,420-429,negativen,_,_,_,_,_,68,ADJ,Agpmpa,amod
70,430-431,.,_,_,_,_,_,68,PUNCT,Z,punct
71,432-437,vzrok,_,_,_,_,_,68,NOUN,Ncmsan,nmod
72,438-440,biti,_,_,_,_,_,79,AUX,Va-r3s-n,aux
73,441-447,seveda,_,_,_,_,_,77,PART,Q,advmod
74,448-456,evropski,_,_,_,_,_,77,ADJ,Agpfsn,amod
75,457-466,dolžniški,_,_,_,_,_,77,ADJ,Agpfsn,amod
76,467-472,kriza,_,_,_,_,_,113,NOUN,Ncfsn,nsubj
77,473-474,.,_,_,_,_,_,22,PUNCT,Z,punct
78,475-483,zapisati,_,_,*->3-3,*[3],_,5,VERB,Vmep-pm,parataxis
79,484-486,biti,_,_,*->3-3,*[3],_,79,AUX,Va-r3p-n,aux
80,487-489,še,_,_,_,_,_,79,PART,Q,advmod
81,490-491,",",_,_,_,_,_,86,PUNCT,Z,punct
82,492-494,da,_,_,_,_,_,86,SCONJ,Cs,mark
83,495-497,biti,_,_,_,_,_,86,AUX,Va-r3s-n,cop
84,498-503,vedno,_,_,_,_,_,86,ADV,Rgp,advmod
85,504-509,velik,_,_,_,_,_,79,ADJ,Agcfsn,ccomp
86,510-520,verjetnost,_,_,_,_,_,86,NOUN,Ncfsn,nsubj
87,521-522,",",_,_,_,_,_,92,PUNCT,Z,punct
88,523-525,da,_,_,_,_,_,92,SCONJ,Cs,mark
89,526-528,biti,_,_,_,_,_,92,AUX,Va-f3s-n,aux
90,529-535,Grčija,ORG,_,*->5-1,*[5],_,92,PROPN,Npfsn,nsubj
91,536-545,zapustiti,_,_,_,_,_,87,VERB,Vmep-sf,acl
92,546-552,evrski,_,_,_,_,_,94,ADJ,Agpnsa,amod
93,553-560,območje,_,_,_,_,_,92,NOUN,Ncnsa,obj
94,561-563,in,_,_,_,_,_,101,CCONJ,Cc,cc
95,564-566,da,_,_,_,_,_,101,SCONJ,Cs,mark
96,567-572,biti,_,_,_,_,_,101,AUX,Va-f3d-n,aux
97,573-580,Španija,ORG,_,*->2-2,*[2],_,101,PROPN,Npfsn,nsubj
98,581-583,in,_,_,_,_,_,100,CCONJ,Cc,cc
99,584-591,Italija,ORG,_,*->4-1,*[4],_,98,PROPN,Npfsn,conj
100,592-603,potrebovati,_,_,_,_,_,92,VERB,Vmpp-dm,conj
101,604-609,pomoč,_,_,_,_,_,101,NOUN,Ncfsa,obj
102,610-611,.,_,_,_,_,_,101,PUNCT,Z,punct
103,612-614,na,_,_,_,_,_,106,ADP,Sa,case
104,615-623,finančen,_,_,_,_,_,106,ADJ,Agpmpa,amod
105,624-628,trg,_,_,_,_,_,113,NOUN,Ncmpa,obl
106,629-634,danes,_,_,_,_,_,113,ADV,Rgp,advmod
107,635-641,mnenje,_,_,_,_,_,113,NOUN,Ncnsn,nsubj
108,642-650,agencija,_,_,*->3-4,*[3],_,108,NOUN,Ncfsg,nmod
109,651-657,Moodys,ORG,2,*->3-4,*[3],2 - Negativno,109,PROPN,Npfsn,nmod
110,658-660,biti,_,_,_,_,_,112,AUX,Va-r3s-y,cop
111,661-669,bistven,_,_,_,_,_,113,ADJ,Agpnsn,advcl
112,670-678,vplivati,_,_,_,_,_,102,VERB,Vmpp-sn,acl
113,679-680,.,_,_,_,_,_,112,PUNCT,Z,punct
114,681-689,prepoved,_,_,_,_,_,113,NOUN,Ncfsa,obj
115,690-698,šortanj,_,_,_,_,_,115,NOUN,Ncnsg,nmod
116,699-700,v,_,_,_,_,_,118,ADP,Sl,case
117,701-708,Madrid,LOC,0,*->12-1,*[12],3 - Nevtralno,116,PROPN,Npmsl,nmod
118,709-711,in,_,_,_,_,_,120,CCONJ,Cc,cc
119,712-718,Milan,LOC,0,*->13-1,*[13],3 - Nevtralno,118,PROPN,Npmsl,conj
120,719-727,evropski,_,_,_,_,_,122,ADJ,Agpfsg,amod
121,728-733,borza,_,_,_,_,_,120,NOUN,Ncfsg,nmod
122,734-736,biti,_,_,_,_,_,127,AUX,Va-r3p-n,aux
123,737-739,že,_,_,_,_,_,127,PART,Q,advmod
124,740-741,v,_,_,_,_,_,126,ADP,Sa,case
125,742-752,ponedeljek,_,_,_,_,_,127,NOUN,Ncmsan,obl
126,753-761,potoniti,_,_,_,_,_,112,VERB,Vmep-pf,advcl
127,762-764,in,_,_,_,_,_,130,CCONJ,Cc,cc
128,765-767,se,_,_,_,_,_,130,PRON,Px------y,expl
129,768-776,spustiti,_,_,_,_,_,127,VERB,Vmep-pf,conj
130,777-781,tudi,_,_,_,_,_,130,PART,Q,advmod
131,782-785,pod,_,_,_,_,_,134,ADP,Sa,case
132,786-794,podporen,_,_,_,_,_,134,ADJ,Agpfpa,amod
133,795-800,raven,_,_,_,_,_,130,NOUN,Ncfpa,obl
134,801-802,",",_,_,_,_,_,137,PUNCT,Z,punct
135,803-806,kar,_,_,_,_,_,137,PRON,Pr-nsn,nsubj
136,807-815,nakazovati,_,_,_,_,_,134,VERB,Vmpr3s,acl
137,816-825,nadaljnji,_,_,_,_,_,139,ADJ,Agpmpa,amod
138,826-831,padec,_,_,_,_,_,137,NOUN,Ncmpa,obj
139,832-833,.,_,_,_,_,_,137,PUNCT,Z,punct
140,834-844,vlagatelj,_,_,_,_,_,144,NOUN,Ncmpa,nmod
141,845-847,biti,_,_,_,_,_,144,AUX,Va-r3s-n,cop
142,848-856,predvsem,_,_,_,_,_,141,PART,Q,advmod
143,857-862,strah,_,_,_,_,_,113,NOUN,Ncmsn,nsubj
144,863-864,",",_,_,_,_,_,153,PUNCT,Z,punct
145,865-867,da,_,_,_,_,_,153,SCONJ,Cs,mark
146,868-870,biti,_,_,_,_,_,153,AUX,Va-f3s-n,aux
147,871-878,Španija,ORG,_,*->2-3,*[2],_,153,PROPN,Npfsn,nsubj
148,879-884,donos,_,_,_,_,_,153,NOUN,Ncmsn,nsubj
149,885-895,desetleten,_,_,_,_,_,151,ADJ,Agpfsg,amod
150,896-905,obveznica,_,_,_,_,_,149,NOUN,Ncfsg,nmod
151,906-908,biti,_,_,_,_,_,153,AUX,Va-r3s-n,aux
152,909-917,preseči,_,_,_,_,_,144,VERB,Vmep-sm,acl
153,918-921,"7,5",_,_,_,_,_,155,NUM,Mdc,nummod
154,922-930,odstotek,_,_,_,_,_,153,NOUN,Ncmsg,obj
155,931-932,",",_,_,_,_,_,153,PUNCT,Z,punct
156,933-935,še,_,_,_,_,_,158,PART,Q,advmod
157,936-941,visok,_,_,_,_,_,155,ADJ,Agcmsny,amod
158,942-944,pa,_,_,_,_,_,158,CCONJ,Cc,advmod
159,945-947,biti,_,_,_,_,_,158,AUX,Va-r3s-n,aux
160,948-953,donos,_,_,_,_,_,158,NOUN,Ncmsn,nsubj
161,954-962,petleten,_,_,_,_,_,163,ADJ,Agpfsg,amod
162,963-972,obveznica,_,_,_,_,_,161,NOUN,Ncfsg,nmod
163,973-979,četrti,_,_,_,_,_,165,ADJ,Mlofsn,amod
164,980-986,država,_,_,_,_,_,161,NOUN,Ncfsn,nmod
165,987-995,evrski,_,_,_,_,_,167,ADJ,Agpnsg,amod
166,996-1003,območje,_,_,_,_,_,165,NOUN,Ncnsg,nmod
167,1004-1005,",",_,_,_,_,_,172,PUNCT,Z,punct
168,1006-1008,ki,_,_,_,_,_,172,SCONJ,Cs,mark
169,1009-1011,se,_,_,_,_,_,172,PRON,Px------y,expl
170,1012-1014,biti,_,_,_,_,_,172,AUX,Va-f3s-n,aux
171,1015-1022,zlomiti,_,_,_,_,_,167,VERB,Vmep-sf,acl
172,1023-1026,pod,_,_,_,_,_,174,ADP,Sa,case
173,1027-1031,teža,_,_,_,_,_,172,NOUN,Ncfsa,obl
174,1032-1042,previsok,_,_,_,_,_,176,ADJ,Agpmpg,amod
175,1043-1051,strošek,_,_,_,_,_,174,NOUN,Ncmpg,nmod
176,1052-1064,zadolževanje,_,_,_,_,_,176,NOUN,Ncnsg,nmod
177,1065-1066,.,_,_,_,_,_,5,PUNCT,Z,punct
178,1067-1075,prepoved,_,_,_,_,_,158,NOUN,Ncfsa,obj
179,1076-1082,prodaja,_,_,_,_,_,179,NOUN,Ncfpg,nmod
180,1083-1085,na,_,_,_,_,_,183,ADP,Sa,case
181,1086-1092,kratek,_,_,_,_,_,183,ADJ,Agpnsa,amod
182,1093-1102,shortanje,_,_,_,_,_,180,NOUN,Ncnsa,nmod
183,1103-1104,-,_,_,_,_,_,185,PUNCT,Z,punct
184,1105-1115,strategija,_,_,_,_,_,179,NOUN,Ncfsn,conj
185,1116-1117,",",_,_,_,_,_,189,PUNCT,Z,punct
186,1118-1121,pri,_,_,_,_,_,188,ADP,Sl,case
187,1122-1128,kateri,_,_,_,_,_,189,DET,Pq-fsl,obl
188,1129-1135,služiti,_,_,_,_,_,185,VERB,Vmpr2s,acl
189,1136-1137,z,_,_,_,_,_,191,ADP,Si,case
190,1138-1145,prodaja,_,_,_,_,_,189,NOUN,Ncfsi,obl
191,1146-1152,delnica,_,_,_,_,_,191,NOUN,Ncfpg,nmod
192,1153-1154,v,_,_,_,_,_,194,ADP,Sl,case
193,1155-1162,Italija,LOC,2,*->4-2,*[4],2 - Negativno,192,PROPN,Npfsl,nmod
194,1163-1165,in,_,_,_,_,_,196,CCONJ,Cc,cc
195,1166-1173,Španija,ORG,_,*->2-4,*[2],_,194,PROPN,Npfsl,conj
196,1174-1175,v,_,_,_,_,_,200,ADP,Sl,case
197,1176-1186,naslednji,_,_,_,_,_,200,ADJ,Agpmpl,amod
198,1187-1191,trije,_,_,_,_,_,200,NUM,Mlcmpl,nummod
199,1192-1199,mesec,_,_,_,_,_,203,NOUN,Ncmpl,obl
200,1200-1202,biti,_,_,_,_,_,203,AUX,Va-r3s-n,aux
201,1203-1211,nekoliko,_,_,_,_,_,203,ADV,Rgp,advmod
202,1212-1219,omiliti,_,_,_,_,_,189,VERB,Vmep-sf,conj
203,1220-1226,izguba,_,_,_,_,_,203,NOUN,Ncfpa,obj
204,1227-1229,na,_,_,_,_,_,207,ADP,Sl,case
205,1230-1234,oba,_,_,_,_,_,207,DET,Pg-mdl,det
206,1235-1240,trg,_,_,_,_,_,204,NOUN,Ncmdl,nmod
207,1241-1242,",",_,_,_,_,_,189,PUNCT,Z,punct
208,1243-1245,biti,_,_,_,_,_,211,AUX,Va-r3s-y,aux
209,1246-1248,pa,_,_,_,_,_,211,CCONJ,Cc,advmod
210,1249-1259,spremeniti,_,_,_,_,_,5,VERB,Vmep-sf,parataxis
211,1260-1271,negativen,_,_,_,_,_,213,ADJ,Agpnsg,amod
212,1272-1279,gibanje,_,_,_,_,_,211,NOUN,Ncnsg,obj
213,1280-1281,.,_,_,_,_,_,211,PUNCT,Z,punct
214,1282-1291,spodbuden,_,_,_,_,_,216,ADJ,Agpmsan,amod
215,1292-1299,podatek,_,_,_,_,_,211,NOUN,Ncmsan,obj
216,1300-1301,z,_,_,_,_,_,218,ADP,Sg,case
217,1302-1310,Kitajska,LOC,0,*->14-1,*[14],3 - Nevtralno,216,PROPN,Npfsg,nmod
218,1311-1322,vseevropski,_,_,_,_,_,221,ADJ,Agpmsny,amod
219,1323-1331,delniški,_,_,_,_,_,221,ADJ,Agpmsny,amod
220,1332-1338,indeks,_,_,_,_,_,216,NOUN,Ncmsn,nmod
221,1339-1342,the,_,_,_,_,_,223,X,Xf,nmod
222,1343-1355,FTSEurofirst,_,_,_,_,_,221,PROPN,Npmsn,nmod
223,1356-1359,300,_,_,_,_,_,226,NUM,Mdc,nummod
224,1360-1365,1.024,_,_,_,_,_,226,NUM,Mdc,nummod
225,1366-1370,točka,_,_,_,_,_,221,NOUN,Ncfpg,nmod
226,1371-1373,se,_,_,_,_,_,229,PRON,Px------y,expl
227,1374-1376,biti,_,_,_,_,_,229,AUX,Va-r3s-n,aux
228,1377-1383,znižati,_,_,_,_,_,5,VERB,Vmep-sm,parataxis
229,1384-1386,za,_,_,_,_,_,232,ADP,Sa,case
230,1387-1390,"2,4",_,_,_,_,_,232,NUM,Mdc,nummod
231,1391-1399,odstotek,_,_,_,_,_,229,NOUN,Ncmsg,obl
232,1400-1401,.,_,_,_,_,_,229,PUNCT,Z,punct
233,1402-1406,spet,_,_,_,_,_,243,ADV,Rgp,advmod
234,1407-1410,biti,_,_,_,_,_,243,AUX,Va-r1p-n,aux
235,1411-1417,blizu,_,_,_,_,_,237,ADV,Rgc,advmod
236,1418-1422,rob,_,_,_,_,_,243,NOUN,Ncmsd,obj
237,1423-1430,prepad,_,_,_,_,_,237,NOUN,Ncmsg,nmod
238,1431-1432,.,_,_,_,_,_,229,PUNCT,Z,punct
239,1433-1442,sistemski,_,_,_,_,_,241,ADJ,Agpnsn,amod
240,1443-1451,tveganje,_,_,_,_,_,243,NOUN,Ncnsn,nsubj
241,1452-1454,se,_,_,_,_,_,243,PRON,Px------y,expl
242,1455-1463,povečevati,_,_,_,_,_,5,VERB,Vmpr3s,parataxis
243,1464-1465,",",_,_,_,_,_,243,PUNCT,Z,punct
244,1466-1470,kazati,_,_,_,_,_,229,VERB,Vmpr3s,conj
245,1471-1473,pa,_,_,_,_,_,245,CCONJ,Cc,advmod
246,1474-1475,",",_,_,_,_,_,254,PUNCT,Z,punct
247,1476-1478,da,_,_,_,_,_,254,SCONJ,Cs,mark
248,1479-1483,biti,_,_,_,_,_,254,AUX,Va-f3p-n,aux
249,1484-1492,evropski,_,_,_,_,_,251,ADJ,Agpmpn,amod
250,1493-1502,voditelj,_,_,_,_,_,254,NOUN,Ncmpn,nsubj
251,1503-1514,pomemben,_,_,_,_,_,253,ADJ,Agcfsa,amod
252,1515-1524,odločitev,_,_,_,_,_,254,NOUN,Ncfsa,obj
253,1525-1533,sprejeti,_,_,_,_,_,245,VERB,Vmep-pm,ccomp
254,1534-1538,šele,_,_,_,_,_,257,PART,Q,advmod
255,1539-1540,v,_,_,_,_,_,257,ADP,Sl,case
256,1541-1548,primer,_,_,_,_,_,254,NOUN,Ncmsl,obl
257,1549-1550,",",_,_,_,_,_,261,PUNCT,Z,punct
258,1551-1553,če,_,_,_,_,_,261,SCONJ,Cs,mark
259,1554-1556,biti,_,_,_,_,_,261,AUX,Va-f3s-n,aux
260,1557-1562,pasti,_,_,_,_,_,254,VERB,Vmep-sf,advcl
261,1563-1568,velik,_,_,_,_,_,263,ADJ,Agcfsn,amod
262,1569-1574,banka,_,_,_,_,_,261,NOUN,Ncfsn,nsubj
263,1575-1578,ali,_,_,_,_,_,268,CCONJ,Cc,cc
264,1579-1581,če,_,_,_,_,_,268,SCONJ,Cs,mark
265,1582-1584,biti,_,_,_,_,_,268,AUX,Va-f3s-n,aux
266,1585-1591,Grčija,ORG,2,*->5-2,*[5],2 - Negativno,268,PROPN,Npfsn,nsubj
267,1592-1601,izstopiti,_,_,_,_,_,261,VERB,Vmep-sf,advcl
268,1602-1604,iz,_,_,_,_,_,271,ADP,Sg,case
269,1605-1613,evrski,_,_,_,_,_,271,ADJ,Agpnsg,amod
270,1614-1621,območje,_,_,_,_,_,268,NOUN,Ncnsg,obl
271,1622-1623,",",_,_,_,_,_,268,PUNCT,Z,punct
272,1624-1626,biti,_,_,_,_,_,274,AUX,Va-r3s-n,aux
273,1627-1634,povedati,_,_,_,_,_,5,VERB,Vmep-sm,parataxis
274,1635-1643,analitik,_,_,_,_,_,274,NOUN,Ncmsn,nsubj
275,1644-1647,pri,_,_,_,_,_,278,ADP,Sl,case
276,1648-1652,Saxo,ORG[1],0,*->15-1,*[15],3 - Nevtralno[10],278,PROPN,Npmsn,nmod
277,1653-1658,banka,ORG[1],0,*->15-1,*[15],3 - Nevtralno[10],275,PROPN,Npfsl,nmod
278,1659-1660,.,_,_,_,_,_,274,PUNCT,Z,punct
279,1661-1662,v,_,_,_,_,_,281,ADP,Sa,case
280,1663-1668,torek,_,_,_,_,_,278,NOUN,Ncmsan,nmod
281,1669-1677,dopoldne,_,_,_,_,_,281,ADV,Rgp,advmod
282,1678-1680,biti,_,_,_,_,_,296,AUX,Va-r3s-n,aux
283,1681-1685,biti,_,_,_,_,_,296,AUX,Va-p-sn,aux
284,1686-1688,na,_,_,_,_,_,287,ADP,Sl,case
285,1689-1697,zahoden,_,_,_,_,_,287,ADJ,Agpmpl,amod
286,1698-1703,trg,_,_,_,_,_,289,NOUN,Ncmpl,nmod
287,1704-1707,kar,_,_,_,_,_,289,ADV,Rgp,advmod
288,1708-1713,mirno,_,_,_,_,_,282,ADV,Rgp,advmod
289,1714-1715,",",_,_,_,_,_,289,PUNCT,Z,punct
290,1716-1718,za,_,_,_,_,_,293,ADP,Sa,case
291,1719-1724,nekaj,_,_,_,_,_,293,DET,Rgp,det
292,1725-1734,optimizem,_,_,_,_,_,296,NOUN,Ncmsg,obl
293,1735-1737,pa,_,_,_,_,_,296,CCONJ,Cc,advmod
294,1738-1740,biti,_,_,_,_,_,296,AUX,Va-r3s-n,aux
295,1741-1750,poskrbeti,_,_,_,_,_,5,VERB,Vmep-sf,parataxis
296,1751-1759,julijski,_,_,_,_,_,298,ADJ,Agpfsn,amod
297,1760-1764,rast,_,_,_,_,_,296,NOUN,Ncfsn,nsubj
298,1765-1775,kitajski,_,_,_,_,_,300,ADJ,Agpmsg,amod
299,1776-1783,indeks,_,_,_,_,_,298,NOUN,Ncmsg,nmod
300,1784-1792,nabaven,_,_,_,_,_,302,ADJ,Agpmpg,amod
301,1793-1804,menedžer,_,_,_,_,_,300,NOUN,Ncmpg,nmod
302,1805-1807,po,_,_,_,_,_,304,ADP,Sl,case
303,1808-1817,izračun,_,_,_,_,_,300,NOUN,Ncmpl,nmod
304,1818-1823,banka,_,0,*->16-1,*[16],3 - Nevtralno[11],304,NOUN,Ncfsg,nmod
305,1824-1828,HSBC,ORG,0,*->16-1,*[16],3 - Nevtralno[11],305,PROPN,Npfsn,nmod
306,1829-1831,na,_,_,_,_,_,309,ADP,Sa,case
307,1832-1836,"49,5",_,_,_,_,_,309,NUM,Mdc,nummod
308,1837-1842,točka,_,_,_,_,_,306,NOUN,Ncfsg,nmod
309,1843-1844,.,_,_,_,_,_,5,PUNCT,Z,punct
310,1845-1847,ta,_,_,_,_,_,328,DET,Pd-nsn,nsubj
311,1848-1850,biti,_,_,_,_,_,328,AUX,Va-r3s-n,aux
312,1851-1854,"1,3",_,_,_,_,_,314,NUM,Mdc,nummod
313,1855-1860,točka,_,_,_,_,_,315,NOUN,Ncfsg,nmod
314,1861-1864,več,_,_,_,_,_,322,DET,Rgc,advmod
315,1865-1868,kot,_,_,_,_,_,315,SCONJ,Cs,fixed
316,1869-1874,mesec,_,_,_,_,_,315,NOUN,Ncmsan,nmod
317,1875-1879,prej,_,_,_,_,_,317,ADV,Rgc,advmod
318,1880-1881,.,_,_,_,_,_,5,PUNCT,Z,punct
319,1882-1883,.,_,_,_,_,_,309,PUNCT,Z,punct
320,1884-1892,finančen,_,_,_,_,_,322,ADJ,Agpfsg,amod
321,1893-1901,krivulja,_,_,_,_,_,328,NOUN,Ncfsg,obj
322,1902-1904,na,_,_,_,_,_,324,ADP,Sl,case
323,1905-1909,val,ORG[2],0,*->17-1,*[17],3 - Nevtralno[12],322,NOUN,Ncmsl,nmod
324,1910-1913,202,ORG[2],0,*->17-1,*[17],3 - Nevtralno[12],326,NUM,Mdc,nummod
325,1914-1918,Suša,_,_,_,_,_,324,PROPN,Npfsn,nmod
326,1919-1924,močno,_,_,_,_,_,328,ADV,Rgp,advmod
327,1925-1934,prizadeti,_,_,_,_,_,5,VERB,Vmep-sf,parataxis
328,1935-1938,ZDA,LOC,0,*->18-1,*[18],3 - Nevtralno,328,PROPN,Npfpg,obj
329,1939-1941,in,_,_,_,_,_,331,CCONJ,Cc,cc
330,1942-1950,prinesti,_,_,_,_,_,328,VERB,Vmep-sf,conj
331,1951-1957,visok,_,_,_,_,_,334,ADJ,Agpfpa,amod
332,1958-1966,rekorden,_,_,_,_,_,334,ADJ,Agpfpa,amod
333,1967-1971,cena,_,_,_,_,_,331,NOUN,Ncfpa,obj
334,1972-1979,pšenica,_,_,_,_,_,334,NOUN,Ncfsg,nmod
335,1980-1981,",",_,_,_,_,_,337,PUNCT,Z,punct
336,1982-1988,koruza,_,_,_,_,_,335,NOUN,Ncfsg,conj
337,1989-1991,in,_,_,_,_,_,339,CCONJ,Cc,cc
338,1992-1996,soja,_,_,_,_,_,335,NOUN,Ncfpg,conj
339,1997-1998,.,_,_,_,_,_,328,PUNCT,Z,punct
340,1999-2003,cena,_,_,_,_,_,348,NOUN,Ncfsn,nsubj
341,2004-2010,koruza,_,_,_,_,_,341,NOUN,Ncfsg,nmod
342,2011-2013,biti,_,_,_,_,_,348,AUX,Va-r3s-n,aux
343,2014-2015,v,_,_,_,_,_,347,ADP,Sl,case
344,2016-2023,zadnji,_,_,_,_,_,347,ADJ,Agpmpl,amod
345,2024-2029,pet,_,_,_,_,_,347,NUM,Mlc-pl,nummod
346,2030-2036,teden,_,_,_,_,_,348,NOUN,Ncmpl,obl
347,2037-2044,porasti,_,_,_,_,_,5,VERB,Vmep-sf,parataxis
348,2045-2048,kar,_,_,_,_,_,352,ADV,Rgp,advmod
349,2049-2051,za,_,_,_,_,_,352,ADP,Sa,case
350,2052-2054,60,_,_,_,_,_,352,NUM,Mdc,nummod
351,2055-2064,odstotek,_,_,_,_,_,348,NOUN,Ncmpg,obl
352,2065-2066,.,_,_,_,_,_,348,PUNCT,Z,punct
353,2067-2075,kazalnik,_,_,_,_,_,359,NOUN,Ncmsn,nsubj
354,2076-2077,P,_,_,_,_,_,354,NOUN,Ncmsn,nmod
355,2078-2079,/,_,_,_,_,_,357,PUNCT,Z,punct
356,2080-2081,E,_,_,_,_,_,355,NOUN,Ncmsn,conj
357,2082-2084,ne,_,_,_,_,_,359,PART,Q,advmod
358,2085-2089,povedati,_,_,_,_,_,348,VERB,Vmer3s,conj
359,2090-2095,ves,_,_,_,_,_,362,DET,Pg-nsg,det
360,2096-2097,z,_,_,_,_,_,362,ADP,Si,case
361,2098-2107,delnica,_,_,_,_,_,359,NOUN,Ncfpi,obl
362,2108-2116,vodilen,_,_,_,_,_,365,ADJ,Agpfpg,amod
363,2117-2126,evropski,_,_,_,_,_,365,ADJ,Agpfpg,amod
364,2127-2132,družba,_,_,_,_,_,362,NOUN,Ncfpg,nmod
365,2133-2135,se,_,_,_,_,_,368,PRON,Px------y,expl
366,2136-2144,trenutno,_,_,_,_,_,368,ADV,Rgp,advmod
367,2145-2151,trgovati,_,_,_,_,_,359,VERB,Vmpr3s,conj
368,2152-2155,pri,_,_,_,_,_,372,ADP,Sl,case
369,2156-2159,"8,8",_,_,_,_,_,372,NUM,Mdc,nummod
370,2160-2161,-,_,_,_,_,_,372,PUNCT,Z,punct
371,2162-2170,kratnik,_,_,_,_,_,368,NOUN,Ncmsl,obl
372,2171-2183,napovedan,_,_,_,_,_,374,ADJ,Appmsg,amod
373,2184-2191,dobiček,_,_,_,_,_,372,NOUN,Ncmsg,nmod
374,2192-2194,za,_,_,_,_,_,378,ADP,Sa,case
375,2195-2205,naslednji,_,_,_,_,_,378,ADJ,Agpmpg,amod
376,2206-2208,12,_,_,_,_,_,378,NUM,Mdc,nummod
377,2209-2216,mesec,_,_,_,_,_,374,NOUN,Ncmpg,nmod
378,2217-2218,.,_,_,_,_,_,359,PUNCT,Z,punct
379,2219-2221,ta,_,_,_,_,_,382,DET,Pd-nsn,nsubj
380,2222-2224,biti,_,_,_,_,_,382,AUX,Va-r3s-n,cop
381,2225-2232,občuten,_,_,_,_,_,5,ADJ,Agpnsn,parataxis
382,2233-2236,pod,_,_,_,_,_,385,ADP,Si,case
383,2237-2248,desetleten,_,_,_,_,_,385,ADJ,Agpnsi,amod
384,2249-2259,povprečje,_,_,_,_,_,368,NOUN,Ncnsi,obl
385,2260-2264,"11,3",_,_,_,_,_,385,NUM,Mdc,nummod
386,2265-2266,.,_,_,_,_,_,382,PUNCT,Z,punct
387,2267-2273,čeprav,_,_,_,_,_,401,SCONJ,Cs,mark
388,2274-2276,biti,_,_,_,_,_,401,AUX,Va-r3p-n,aux
389,2277-2284,delnica,_,_,_,_,_,401,NOUN,Ncfpn,nsubj
390,2285-2294,evropski,_,_,_,_,_,392,ADJ,Agpnpg,amod
391,2295-2303,podjetje,_,_,_,_,_,390,NOUN,Ncnpg,nmod
392,2304-2306,po,_,_,_,_,_,394,ADP,Sl,case
393,2307-2316,kazalnik,_,_,_,_,_,401,NOUN,Ncmsl,obl
394,2317-2318,P,_,_,_,_,_,394,NOUN,Ncmsn,nmod
395,2319-2320,/,_,_,_,_,_,397,PUNCT,Z,punct
396,2321-2322,E,_,_,_,_,_,395,NOUN,Ncmsn,conj
397,2323-2331,trenutno,_,_,_,_,_,401,ADV,Rgp,advmod
398,2332-2336,zelo,_,_,_,_,_,400,ADV,Rgp,advmod
399,2337-2343,ugodno,_,_,_,_,_,401,ADV,Rgp,advmod
400,2344-2355,ovrednoten,_,_,_,_,_,385,ADJ,Appfpn,acl
401,2356-2357,",",_,_,_,_,_,401,PUNCT,Z,punct
402,2358-2360,pa,_,_,_,_,_,404,CCONJ,Cc,advmod
403,2361-2367,morati,_,_,_,_,_,382,VERB,Vmpr3p,advcl
404,2368-2372,biti,_,_,_,_,_,408,AUX,Va-n,cop
405,2373-2378,kupec,_,_,_,_,_,408,NOUN,Ncmpn,nsubj
406,2379-2383,zelo,_,_,_,_,_,408,ADV,Rgp,advmod
407,2384-2392,previden,_,_,_,_,_,404,ADJ,Agpmpn,xcomp
408,2393-2399,preveč,_,_,_,_,_,411,DET,Rgp,det
409,2400-2402,biti,_,_,_,_,_,408,AUX,Va-r3s-n,cop
410,2403-2414,negotovost,_,_,_,_,_,408,NOUN,Ncfsg,obj
411,2415-2416,",",_,_,_,_,_,414,PUNCT,Z,punct
412,2417-2423,preveč,_,_,_,_,_,414,DET,Rgp,det
413,2424-2431,neznanka,_,_,_,_,_,411,NOUN,Ncfpg,conj
414,2432-2433,",",_,_,_,_,_,419,PUNCT,Z,punct
415,2434-2438,kako,_,_,_,_,_,419,ADV,Rgp,advmod
416,2439-2441,se,_,_,_,_,_,419,PRON,Px------y,expl
417,2442-2444,biti,_,_,_,_,_,419,AUX,Va-f3s-n,aux
418,2445-2454,razplesti,_,_,_,_,_,414,VERB,Vmep-sf,acl
419,2455-2460,kriza,_,_,_,_,_,419,NOUN,Ncfsn,nsubj
420,2461-2462,.,_,_,_,_,_,359,PUNCT,Z,punct
421,2463-2467,zato,_,_,_,_,_,426,CCONJ,Cc,cc
422,2468-2470,biti,_,_,_,_,_,426,AUX,Va-r3s-n,cop
423,2471-2479,trenutno,_,_,_,_,_,426,ADV,Rgp,advmod
424,2480-2486,precej,_,_,_,_,_,426,ADV,Rgp,advmod
425,2487-2497,nesmiseln,_,_,_,_,_,419,ADJ,Agpnsn,conj
426,2498-2509,uporabljati,_,_,_,_,_,426,VERB,Vmpn,csubj
427,2510-2518,kazalnik,_,_,_,_,_,427,NOUN,Ncmsan,obj
428,2519-2520,P,_,_,_,_,_,428,NOUN,Ncmsn,nmod
429,2521-2522,/,_,_,_,_,_,431,PUNCT,Z,punct
430,2523-2524,E,_,_,_,_,_,429,NOUN,Ncmsn,conj
431,2525-2528,pri,_,_,_,_,_,434,ADP,Sl,case
432,2529-2537,nakupen,_,_,_,_,_,434,ADJ,Agpfpl,amod
433,2538-2548,odločitev,_,_,_,_,_,429,NOUN,Ncfpl,nmod
434,2549-2550,",",_,_,_,_,_,419,PUNCT,Z,punct
435,2551-2553,biti,_,_,_,_,_,437,AUX,Va-r3s-n,aux
436,2554-2561,povedati,_,_,_,_,_,5,VERB,Vmep-sm,parataxis
437,2562-2566,eden,_,_,_,_,_,437,NUM,Mlpmsn,nsubj
438,2567-2572,izmed,_,_,_,_,_,441,ADP,Sg,case
439,2573-2578,tuj,_,_,_,_,_,441,ADJ,Agpmpg,amod
440,2579-2589,analitik,_,_,_,_,_,438,NOUN,Ncmpg,nmod
441,2590-2591,.,_,_,_,_,_,426,PUNCT,Z,punct
442,2592-2598,tečaj,_,_,_,_,_,437,NOUN,Ncmpn,nsubj
443,2599-2605,delnica,_,_,_,_,_,443,NOUN,Ncfpg,nmod
444,2606-2608,na,_,_,_,_,_,446,ADP,Sl,case
445,2609-2611,Lj,ORG[3],_,*->6-1,*[6],_,444,PROPN,Npmsl,nmod
446,2612-2613,.,ORG[3],_,*->6-1,*[6],_,5,PUNCT,Z,punct
447,2614-2619,borz,ORG[3],_,*->6-1,*[6],_,458,NOUN,Ncfsl,nmod
448,2620-2627,gorenje,ORG,0,*->19-1,*[19],3 - Nevtralno,448,NOUN,Ncnsn,nmod
449,2628-2629,+,_,_,_,_,_,449,NOUN,Ncmsn,nmod
450,2630-2634,"2,13",_,_,_,_,_,452,NUM,Mdc,nummod
451,2635-2636,%,_,_,_,_,_,443,NOUN,Ncmsn,nmod
452,2637-2641,"4,80",_,_,_,_,_,454,NUM,Mdc,nummod
453,2642-2645,eur,_,_,_,_,_,452,NOUN,Ncmsn,nmod
454,2646-2652,petrol,ORG,0,*->20-1,*[20],3 - Nevtralno,454,NOUN,Ncmsn,nmod
455,2653-2654,+,_,_,_,_,_,454,NOUN,Ncmsn,nmod
456,2655-2659,"0,59",_,_,_,_,_,458,NUM,Mdc,nummod
457,2660-2661,%,_,_,_,_,_,454,NOUN,Ncmsn,nmod
458,2662-2668,"171,00",_,_,_,_,_,458,NUM,Mdc,nummod
459,2669-2673,Krka,ORG,0,*->21-1,*[21],3 - Nevtralno,458,PROPN,Npmsn,nmod
460,2674-2675,+,_,_,_,_,_,460,NOUN,Ncmsn,nmod
461,2676-2680,"0,24",_,_,_,_,_,463,NUM,Mdc,nummod
462,2681-2682,%,_,_,_,_,_,458,NOUN,Ncmsn,nmod
463,2683-2688,"41,80",_,_,_,_,_,463,NUM,Mdc,nummod
464,2689-2697,Mercator,ORG,0,*->22-1,*[22],3 - Nevtralno,463,PROPN,Npmsn,nmod
465,2698-2699,-,_,_,_,_,_,467,PUNCT,Z,punct
466,2700-2704,"0,77",_,_,_,_,_,468,NUM,Mdc,nummod
467,2705-2706,%,_,_,_,_,_,463,NOUN,Ncmsn,nmod
468,2707-2713,"122,05",_,_,_,_,_,468,NUM,Mdc,nummod
469,2714-2721,triglava,ORG,0,*->23-1,*[23],3 - Nevtralno,468,NOUN,Ncmsn,nmod
470,2722-2723,-,_,_,_,_,_,472,PUNCT,Z,punct
471,2724-2728,"0,83",_,_,_,_,_,473,NUM,Mdc,nummod
472,2729-2730,%,_,_,_,_,_,468,NOUN,Ncmsn,nmod
473,2731-2736,"11,90",_,_,_,_,_,473,NUM,Mdc,nummod
474,2737-2744,teleko,ORG,0,*->24-1,*[24],3 - Nevtralno,473,NOUN,Ncmsn,nmod
475,2745-2746,-,_,_,_,_,_,477,PUNCT,Z,punct
476,2747-2751,"1,61",_,_,_,_,_,478,NUM,Mdc,nummod
477,2752-2753,%,_,_,_,_,_,473,NOUN,Ncmsn,nmod
478,2754-2759,"61,01",_,_,_,_,_,478,NUM,Mdc,nummod
479,2760-2764,nov,ORG[4],0,*->25-1,*[25],3 - Nevtralno[13],481,ADJ,Agpfsn,amod
480,2765-2768,KBM,ORG[4],0,*->25-1,*[25],3 - Nevtralno[13],478,PROPN,Npfsn,nmod
481,2769-2770,-,_,_,_,_,_,484,PUNCT,Z,punct
482,2771-2775,"3,33",_,_,_,_,_,484,NUM,Mdc,nummod
483,2776-2777,%,_,_,_,_,_,481,NOUN,Ncmsn,appos
484,2778-2782,"1,45",_,_,_,_,_,484,NUM,Mdc,nummod
485,2783-2787,LUKA,ORG[5],0,*->26-1,*[26],3 - Nevtralno[14],484,PROPN,Npmsn,nmod
486,2788-2793,Koper,ORG[5]|LOC[6],0,*->26-1|*->27-1,*[26]|*[27],3 - Nevtralno[14]|3 - Nevtralno[15],486,PROPN,Npmsn,nmod
487,2794-2795,-,_,_,_,_,_,490,PUNCT,Z,punct
488,2796-2800,"3,64",_,_,_,_,_,490,NUM,Mdc,nummod
489,2801-2802,%,_,_,_,_,_,484,NOUN,Ncmsg,nmod
490,2803-2807,"7,42",_,_,_,_,_,490,NUM,Mdc,nummod
491,2808-2815,ugleden,_,_,_,_,_,493,ADJ,Agpmsn,amod
492,2816-2822,medij,_,_,_,_,_,484,NOUN,Ncmsg,nmod
493,2823-2824,o,_,_,_,_,_,495,ADP,Sl,case
494,2825-2834,Slovenija,ORG,_,*->1-2,*[1],_,493,PROPN,Npfsl,nmod
495,2835-2837,na,_,_,_,_,_,498,ADP,Sl,case
496,2838-2849,ljubljanski,ORG[7],2,*->6-2,*[6],2 - Negativno[16],498,ADJ,Agpfsl,amod
497,2850-2855,borz,ORG[7],2,*->6-2,*[6],2 - Negativno[16],495,NOUN,Ncfsl,nmod
498,2856-2858,biti,_,_,_,_,_,502,AUX,Va-r3p-n,cop
499,2859-2869,vlagatelj,_,_,_,_,_,502,NOUN,Ncmpn,nsubj
500,2870-2872,že,_,_,_,_,_,502,PART,Q,advmod
501,2873-2879,vajen,_,_,_,_,_,5,ADJ,Appmpn,parataxis
502,2880-2885,ves,_,_,_,_,_,504,DET,Pg-nsg,nmod
503,2886-2892,hud,_,_,_,_,_,502,ADJ,Agpnsg,obj
504,2893-2894,.,_,_,_,_,_,502,PUNCT,Z,punct
505,2895-2901,indeks,_,_,_,_,_,509,NOUN,Ncmsn,nsubj
506,2902-2905,SBI,_,_,_,_,_,506,NOUN,Ncmsn,nmod
507,2906-2909,TOP,_,_,_,_,_,507,NOUN,Ncmsn,nmod
508,2910-2912,biti,_,_,_,_,_,502,VERB,Va-r3s-n,conj
509,2913-2916,pri,_,_,_,_,_,512,ADP,Sl,case
510,2917-2920,517,_,_,_,_,_,512,NUM,Mdc,nummod
511,2921-2927,točka,_,_,_,_,_,509,NOUN,Ncfpl,obl
512,2928-2930,na,_,_,_,_,_,515,ADP,Sl,case
513,2931-2943,zgodovinski,_,_,_,_,_,515,ADJ,Agpnsl,amod
514,2944-2947,dno,_,_,_,_,_,512,NOUN,Ncnsl,nmod
515,2948-2950,in,_,_,_,_,_,520,CCONJ,Cc,cc
516,2951-2953,biti,_,_,_,_,_,520,AUX,Va-r3s-n,cop
517,2954-2956,od,_,_,_,_,_,519,ADP,Sg,case
518,2957-2964,rekord,_,_,_,_,_,520,NOUN,Ncmsg,obl
519,2965-2974,odmaknjen,_,_,_,_,_,509,ADJ,Appmsnn,conj
520,2975-2978,več,_,_,_,_,_,524,DET,Rgc,advmod
521,2979-2982,kot,_,_,_,_,_,521,SCONJ,Cs,fixed
522,2983-2985,80,_,_,_,_,_,524,NUM,Mdc,nummod
523,2986-2995,odstotek,_,_,_,_,_,520,NOUN,Ncmpg,obl
524,2996-2997,.,_,_,_,_,_,509,PUNCT,Z,punct
525,2998-3005,položaj,_,_,_,_,_,531,NOUN,Ncmsn,nsubj
526,3006-3015,Slovenija,ORG,_,*->1-3,*[1],_,526,PROPN,Npfsg,nmod
527,3016-3018,se,_,_,_,_,_,531,PRON,Px------y,expl
528,3019-3021,še,_,_,_,_,_,531,PART,Q,advmod
529,3022-3024,ne,_,_,_,_,_,531,PART,Q,advmod
530,3025-3035,izboljševati,_,_,_,_,_,509,VERB,Vmpr3s,parataxis
531,3036-3037,",",_,_,_,_,_,538,PUNCT,Z,punct
532,3038-3041,kar,_,_,_,_,_,538,PRON,Pr-nsa,obj
533,3042-3045,biti,_,_,_,_,_,538,AUX,Va-r3d-n,aux
534,3046-3047,v,_,_,_,_,_,537,ADP,Sl,case
535,3048-3057,pretekel,_,_,_,_,_,537,ADJ,Appmpl,amod
536,3058-3062,dan,_,_,_,_,_,538,NOUN,Ncmpl,obl
537,3063-3072,opozoriti,_,_,_,_,_,531,VERB,Vmep-dm,advcl
538,3073-3080,ugleden,_,_,_,_,_,540,ADJ,Agpmdn,amod
539,3081-3087,medij,_,_,_,_,_,538,NOUN,Ncmdn,nsubj
540,3088-3097,Financial,ORG[8],_,*->7-1,*[7],_,540,PROPN,Npmsn,nmod
541,3098-3103,Times,ORG[8],_,*->7-1,*[7],_,540,PROPN,Npmsn,nmod
542,3104-3106,in,_,_,_,_,_,544,CCONJ,Cc,cc
543,3107-3116,Bloomberg,ORG,_,*->8-1,*[8],_,542,PROPN,Npmsn,conj
544,3117-3118,.,_,_,_,_,_,531,PUNCT,Z,punct
545,3119-3128,Financial,ORG[9],0,*->7-2,*[7],3 - Nevtralno[17],547,PROPN,Npmsn,nmod
546,3129-3134,Times,ORG[9],0,*->7-2,*[7],3 - Nevtralno[17],551,PROPN,Npmsn,nsubj
547,3135-3137,biti,_,_,_,_,_,551,AUX,Va-r3s-n,aux
548,3138-3140,na,_,_,_,_,_,550,ADP,Sl,case
549,3141-3147,splet,_,_,_,_,_,551,NOUN,Ncmsl,obl
550,3148-3155,zapisati,_,_,_,_,_,538,VERB,Vmep-sm,conj
551,3156-3157,",",_,_,_,_,_,558,PUNCT,Z,punct
552,3158-3160,da,_,_,_,_,_,558,SCONJ,Cs,mark
553,3161-3163,biti,_,_,_,_,_,558,AUX,Va-c,aux
554,3164-3168,biti,_,_,_,_,_,558,AUX,Va-p-sf,cop
555,3169-3174,lahko,_,_,_,_,_,558,ADV,Rgp,advmod
556,3175-3184,Slovenija,ORG,2,*->1-4,*[1],2 - Negativno,558,PROPN,Npfsn,nsubj
557,3185-3194,naslednji,_,_,_,_,_,551,ADJ,Agpfsn,ccomp
558,3195-3196,",",_,_,_,_,_,563,PUNCT,Z,punct
559,3197-3199,ki,_,_,_,_,_,563,SCONJ,Cs,mark
560,3200-3202,biti,_,_,_,_,_,563,AUX,Va-c,aux
561,3203-3210,Bruselj,ORG,0,*->28-1,*[28],3 - Nevtralno,563,PROPN,Npmsa,obj
562,3211-3220,zaprositi,_,_,_,_,_,558,VERB,Vmep-sf,csubj
563,3221-3223,za,_,_,_,_,_,566,ADP,Sa,case
564,3224-3232,finančen,_,_,_,_,_,566,ADJ,Agpfsa,amod
565,3233-3238,pomoč,_,_,_,_,_,563,NOUN,Ncfsa,obl
566,3239-3240,.,_,_,_,_,_,551,PUNCT,Z,punct
567,3241-3250,Bloomberg,PER,0,*->8-2,*[8],3 - Nevtralno,569,PROPN,Npmsn,nsubj
568,3251-3259,opozarjati,_,_,_,_,_,551,VERB,Vmpr3s,parataxis
569,3260-3261,",",_,_,_,_,_,575,PUNCT,Z,punct
570,3262-3264,da,_,_,_,_,_,575,SCONJ,Cs,mark
571,3265-3267,se,_,_,_,_,_,575,PRON,Px------y,expl
572,3268-3276,velik,_,_,_,_,_,574,ADJ,Agsfsn,amod
573,3277-3282,banka,_,_,_,_,_,575,NOUN,Ncfsn,nsubj
574,3283-3292,utapljati,_,_,_,_,_,569,VERB,Vmpr3d,ccomp
575,3293-3294,v,_,_,_,_,_,578,ADP,Sl,case
576,3295-3301,slab,_,_,_,_,_,578,ADJ,Agpnpl,amod
577,3302-3311,posojilo,_,_,_,_,_,575,NOUN,Ncnpl,obl
578,3312-3313,.,_,_,_,_,_,582,PUNCT,Z,punct
579,3314-3317,kot,_,_,_,_,_,582,SCONJ,Cs,mark
580,3318-3320,biti,_,_,_,_,_,582,AUX,Va-r3s-n,cop
581,3321-3326,znan,_,_,_,_,_,575,ADJ,Appnsn,advcl
582,3327-3328,",",_,_,_,_,_,582,PUNCT,Z,punct
583,3329-3331,biti,_,_,_,_,_,575,VERB,Va-r3s-n,conj
584,3332-3335,ta,_,_,_,_,_,584,DET,Pd-mpg,nsubj
585,3336-3338,za,_,_,_,_,_,589,ADP,Sa,case
586,3339-3344,okrog,_,_,_,_,_,588,ADV,Rgp,advmod
587,3345-3347,12,_,_,_,_,_,589,NUM,Mdc,nummod
588,3348-3357,odstotek,_,_,_,_,_,584,NOUN,Ncmpg,obl
589,3358-3369,posojilen,_,_,_,_,_,591,ADJ,Agpmsg,amod
590,3370-3379,portfelje,_,_,_,_,_,589,NOUN,Ncmsg,nmod
591,3380-3381,",",_,_,_,_,_,594,PUNCT,Z,punct
592,3382-3385,kar,_,_,_,_,_,594,PRON,Pr-nsn,nsubj
593,3386-3388,biti,_,_,_,_,_,589,VERB,Va-r3s-n,acl
594,3389-3392,več,_,_,_,_,_,594,DET,Rgc,advmod
595,3393-3396,kot,_,_,_,_,_,598,SCONJ,Cs,case
596,3397-3398,v,_,_,_,_,_,598,ADP,Sl,case
597,3399-3406,Španija,ORG,2,*->2-5,*[2],2 - Negativno,594,PROPN,Npfsl,obl
