idx,chars_idx,token,entity_type,sentiment,idk_1,idk_2,orig_sentiment,heads,upos,xpos,deprel
0,0-7,juncker,PER,_,*->1-1,*[1],_,2,NOUN,Ncmsn,root
1,8-15,izraziti,_,_,_,_,_,11,VERB,Vmep-sm,advcl
2,16-26,zavezanost,_,_,_,_,_,2,NOUN,Ncfsa,obj
3,27-38,stabilnost,_,_,_,_,_,3,NOUN,Ncfsg,nmod
4,39-47,evrski,_,_,_,_,_,6,ADJ,Agpnsg,amod
5,48-55,območje,_,_,_,_,_,4,NOUN,Ncnsg,nmod
6,56-65,boniteten,_,_,*->5-1,*[5],_,8,ADJ,Agpfsn,amod
7,66-74,agencija,_,_,*->5-1,*[5],_,6,NOUN,Ncfsn,nmod
8,75-81,Moodys,ORG,_,*->5-1,*[5],_,8,PROPN,Npmsn,nmod
9,82-84,biti,_,_,_,_,_,11,AUX,Va-r3s-n,aux
10,85-92,znižati,_,_,_,_,_,0,VERB,Vmep-sf,root
11,93-101,napoved,_,_,_,_,_,11,NOUN,Ncfpa,obj
12,102-104,za,_,_,_,_,_,14,ADP,Sa,case
13,105-110,ocena,_,_,_,_,_,12,NOUN,Ncfsa,nmod
14,111-123,dolgoročen,_,_,_,_,_,17,ADJ,Agpmsg,amod
15,124-129,dolg,_,_,_,_,_,17,ADJ,Agpfsg,amod
16,130-137,Nemčija,ORG,_,*->2-1,*[2],_,14,PROPN,Npfsg,nmod
17,138-139,",",_,_,_,_,_,19,PUNCT,Z,punct
18,140-150,Nizozemska,ORG,_,*->3-1,*[3],_,17,PROPN,Npfsg,conj
19,151-153,in,_,_,_,_,_,21,CCONJ,Cc,cc
20,154-165,Luksemburg,ORG,_,*->4-1,*[4],_,17,PROPN,Npmsg,conj
21,166-167,",",_,_,_,_,_,29,PUNCT,Z,punct
22,168-172,tako,_,_,_,_,_,29,CCONJ,Cc,cc
23,173-175,da,_,_,_,_,_,29,SCONJ,Cs,mark
24,176-178,ta,_,_,_,_,_,29,DET,Pd-mpn,nsubj
25,179-185,poslej,_,_,_,_,_,29,ADV,Rgp,advmod
26,186-190,biti,_,_,_,_,_,29,AUX,Va-r3p-y,cop
27,191-194,več,_,_,_,_,_,29,PART,Q,advmod
28,195-203,stabilen,_,_,_,_,_,11,ADJ,Agpmpn,parataxis
29,204-205,",",_,_,_,_,_,32,PUNCT,Z,punct
30,206-212,temveč,_,_,_,_,_,32,CCONJ,Cc,cc
31,213-222,negativen,_,_,_,_,_,29,ADJ,Agpmpn,conj
32,223-224,.,_,_,_,_,_,29,PUNCT,Z,punct
33,225-228,ves,_,_,_,_,_,36,DET,Pg-fpn,det
34,229-232,trije,_,_,_,_,_,36,NUM,Mlcfpn,nummod
35,233-239,država,_,_,_,_,_,37,NOUN,Ncfpn,nsubj
36,240-245,imeti,_,_,_,_,_,2,VERB,Vmpr3p-n,parataxis
37,246-254,trenutno,_,_,_,_,_,40,ADJ,Agpfsa,amod
38,255-263,visok,_,_,_,_,_,40,ADJ,Agsfsa,amod
39,264-269,ocena,_,_,_,_,_,37,NOUN,Ncfsa,obj
40,270-273,Aaa,_,_,_,_,_,40,PROPN,Npfsg,nmod
41,274-275,.,_,_,_,_,_,37,PUNCT,Z,punct
42,276-284,agencija,_,_,*->5-2,*[5],_,49,NOUN,Ncfsn,nsubj
43,285-287,se,_,_,_,_,_,49,PRON,Px------y,expl
44,288-290,biti,_,_,_,_,_,49,AUX,Va-r3s-n,aux
45,291-293,za,_,_,_,_,_,48,ADP,Sa,case
46,294-296,ta,_,_,_,_,_,48,DET,Pd-msa,det
47,297-302,korak,_,_,_,_,_,49,NOUN,Ncmsan,obl
48,303-311,odločiti,_,_,_,_,_,37,VERB,Vmep-sf,conj
49,312-313,",",_,_,_,_,_,53,PUNCT,Z,punct
50,314-317,ker,_,_,_,_,_,53,SCONJ,Cs,mark
51,318-320,biti,_,_,_,_,_,53,AUX,Va-r3s-n,aux
52,321-328,oceniti,_,_,*->5-3,*[5],_,49,VERB,Vmep-sf,advcl
53,329-330,",",_,_,_,_,_,60,PUNCT,Z,punct
54,331-333,da,_,_,_,_,_,60,SCONJ,Cs,mark
55,334-343,dolžniški,_,_,_,_,_,57,ADJ,Agpfsn,amod
56,344-349,kriza,_,_,_,_,_,60,NOUN,Ncfsn,nsubj
57,350-358,evrski,_,_,_,_,_,59,ADJ,Agpnsg,amod
58,359-366,območje,_,_,_,_,_,57,NOUN,Ncnsg,nmod
59,367-373,ogrožati,_,_,_,_,_,53,VERB,Vmpr3s,ccomp
60,374-378,tudi,_,_,_,_,_,60,PART,Q,advmod
61,379-393,razik,_,_,_,_,_,64,ADJ,Agsfpa,amod
62,394-400,evrski,_,_,_,_,_,64,ADJ,Agpfpa,amod
63,401-407,država,_,_,_,_,_,60,NOUN,Ncfpa,obj
64,408-409,.,_,_,_,_,_,53,PUNCT,Z,punct
65,410-419,boniteten,_,_,*->5-4,*[5],_,67,ADJ,Agpfsn,amod
66,420-424,hiša,_,_,*->5-4,*[5],_,69,NOUN,Ncfsn,nsubj
67,425-427,biti,_,_,_,_,_,69,AUX,Va-r3s-n,aux
68,428-437,opozoriti,_,_,_,_,_,2,VERB,Vmep-sf,parataxis
69,438-440,na,_,_,_,_,_,75,ADP,Sa,case
70,441-447,mogoč,_,_,_,_,_,75,ADJ,Agpfpa,amod
71,448-459,proračunski,_,_,_,_,_,75,ADJ,Agpfpa,amod
72,460-462,in,_,_,_,_,_,74,CCONJ,Cc,cc
73,463-474,gospodarski,_,_,_,_,_,72,ADJ,Agpfpa,conj
74,475-484,posledica,_,_,_,_,_,69,NOUN,Ncfpa,obl
75,485-492,izstop,_,_,_,_,_,75,NOUN,Ncfsg,nmod
76,493-499,Grčija,ORG,2,*->8-1,*[8],2 - Negativno,76,PROPN,Npfsg,nmod
77,500-502,iz,_,_,_,_,_,80,ADP,Sg,case
78,503-511,evrski,_,_,_,_,_,80,ADJ,Agpnsg,amod
79,512-519,območje,_,_,_,_,_,77,NOUN,Ncnsg,nmod
80,520-521,.,_,_,_,_,_,69,PUNCT,Z,punct
81,522-524,po,_,_,_,_,_,84,ADP,Sl,case
82,525-530,njen,_,_,*->5-5,*[5],_,84,DET,Ps3fslsf,det
83,531-536,ocena,_,_,_,_,_,88,NOUN,Ncfsl,obl
84,537-539,biti,_,_,_,_,_,88,AUX,Va-r3s-n,cop
85,540-543,vse,_,_,_,_,_,87,ADV,Rgp,advmod
86,544-548,bolj,_,_,_,_,_,88,ADV,Rgc,advmod
87,549-555,mogoč,_,_,_,_,_,69,ADJ,Agpnsn,conj
88,556-557,",",_,_,_,_,_,107,PUNCT,Z,punct
89,558-560,da,_,_,_,_,_,107,SCONJ,Cs,mark
90,561-566,biti,_,_,_,_,_,107,AUX,Va-f3d-n,aux
91,567-574,splošen,_,_,_,_,_,94,ADJ,Agpfsa,amod
92,575-583,finančen,_,_,_,_,_,94,ADJ,Agpfsa,amod
93,584-589,pomoč,_,_,_,_,_,107,NOUN,Ncfsa,obj
94,590-599,začasen,_,_,_,_,_,96,ADJ,Agpmsg,amod
95,600-602,oz,_,_,_,_,_,94,NOUN,Ncmsg,nmod
96,603-604,.,_,_,_,_,_,88,PUNCT,Z,punct
97,605-613,stalen,_,_,_,_,_,99,ADJ,Agpmsg,amod
98,614-620,sklad,_,_,_,_,_,94,NOUN,Ncmsg,conj
99,621-623,za,_,_,_,_,_,101,ADP,Sa,case
100,624-631,zaščita,_,_,_,_,_,99,NOUN,Ncfsa,nmod
101,632-636,evro,_,_,_,_,_,101,NOUN,Ncmsg,nmod
102,637-641,EFSF,ORG,_,*->7-1,*[7],_,102,PROPN,Npmsg,nmod
103,642-644,oz,_,_,_,_,_,103,PROPN,Npmsg,flat:name
104,645-646,.,_,_,_,_,_,88,PUNCT,Z,punct
105,647-650,ESM,ORG,0,*->9-1,*[9],3 - Nevtralno,104,PROPN,Npfsn,nmod
106,651-662,potrebovati,_,_,_,_,_,88,VERB,Vmpp-dm,csubj
107,663-667,tudi,_,_,_,_,_,107,PART,Q,advmod
108,668-675,Španija,ORG,_,*->6-1,*[6],_,107,PROPN,Npfsn,nsubj
109,676-678,in,_,_,_,_,_,111,CCONJ,Cc,cc
110,679-686,Italija,ORG,2,*->10-1,*[10],2 - Negativno,109,PROPN,Npfsn,conj
111,687-688,.,_,_,_,_,_,107,PUNCT,Z,punct
112,689-696,Španija,ORG,2,*->6-2,*[6],2 - Negativno,119,PROPN,Npfsn,nsubj
113,697-699,biti,_,_,_,_,_,119,AUX,Va-r3s-n,aux
114,700-705,sicer,_,_,_,_,_,119,PART,Q,advmod
115,706-710,pred,_,_,_,_,_,117,ADP,Si,case
116,711-716,čas,_,_,_,_,_,119,NOUN,Ncmsi,obl
117,717-719,že,_,_,_,_,_,119,PART,Q,advmod
118,720-729,zaprositi,_,_,_,_,_,107,VERB,Vmep-sf,conj
119,730-732,za,_,_,_,_,_,123,ADP,Sa,case
120,733-735,do,_,_,_,_,_,123,ADP,Sg,case
121,736-739,100,_,_,_,_,_,123,NUM,Mdc,nummod
122,740-748,milijarda,_,_,_,_,_,119,NOUN,Ncfpg,obl
123,749-754,evro,_,_,_,_,_,123,NOUN,Ncmpg,nmod
124,755-763,posojilo,_,_,_,_,_,124,NOUN,Ncnsg,nmod
125,764-766,za,_,_,_,_,_,127,ADP,Sa,case
126,767-772,pomoč,_,_,_,_,_,125,NOUN,Ncfsa,nmod
127,773-780,svoj,_,_,_,_,_,130,DET,Px-msd,det
128,781-789,bančen,_,_,_,_,_,130,ADJ,Agpmsd,amod
129,790-798,sektor,_,_,_,_,_,127,NOUN,Ncmsd,nmod
130,799-800,",",_,_,_,_,_,134,PUNCT,Z,punct
131,801-803,če,_,_,_,_,_,134,SCONJ,Cs,mark
132,804-806,biti,_,_,_,_,_,134,AUX,Va-c,aux
133,807-811,biti,_,_,_,_,_,119,VERB,Va-p-sn,advcl
134,812-817,treba,_,_,_,_,_,134,ADV,Rgp,advmod
135,818-826,reševati,_,_,_,_,_,134,VERB,Vmpn,csubj
136,827-832,njen,_,_,_,_,_,138,DET,Ps3nsasf,det
137,833-845,gospodarstvo,_,_,_,_,_,136,NOUN,Ncnsa,obj
138,846-848,na,_,_,_,_,_,140,ADP,Sa,case
139,849-856,splošen,_,_,_,_,_,138,ADJ,Agpnsa,nmod
140,857-858,",",_,_,_,_,_,134,PUNCT,Z,punct
141,859-861,pa,_,_,_,_,_,148,CCONJ,Cc,advmod
142,862-864,biti,_,_,_,_,_,148,AUX,Va-c,aux
143,865-868,biti,_,_,_,_,_,148,AUX,Va-p-sm,cop
144,869-871,ta,_,_,_,_,_,148,DET,Pd-nsn,nsubj
145,872-878,precej,_,_,_,_,_,147,ADV,Rgp,advmod
146,879-884,velik,_,_,_,_,_,148,ADJ,Agpmsnn,amod
147,885-892,zalogaj,_,_,_,_,_,134,NOUN,Ncmsn,csubj
148,893-894,",",_,_,_,_,_,151,PUNCT,Z,punct
149,895-898,saj,_,_,_,_,_,151,CCONJ,Cc,cc
150,899-901,biti,_,_,_,_,_,148,VERB,Va-r3s-n,acl
151,902-911,približno,_,_,_,_,_,153,ADV,Rgp,advmod
152,912-919,dvakrat,_,_,_,_,_,154,ADV,Rgp,advmod
153,920-928,tolikšen,_,_,_,_,_,151,DET,Pd-nsn,nsubj
154,929-932,kot,_,_,_,_,_,156,SCONJ,Cs,case
155,933-938,grški,_,_,_,_,_,154,ADJ,Agpnsn,obl
156,939-940,",",_,_,_,_,_,158,PUNCT,Z,punct
157,941-952,portugalski,_,_,_,_,_,156,ADJ,Agpnsa,conj
158,953-955,in,_,_,_,_,_,160,CCONJ,Cc,cc
159,956-961,irski,_,_,_,_,_,156,ADJ,Agpnsa,conj
160,962-968,skupaj,_,_,_,_,_,151,ADV,Rgp,advmod
161,969-970,",",_,_,_,_,_,164,PUNCT,Z,punct
162,971-973,biti,_,_,_,_,_,164,AUX,Va-r3s-n,aux
163,974-982,opozoriti,_,_,_,_,_,2,VERB,Vmep-sm,parataxis
164,983-989,Moodys,ORG,_,*->5-6,*[5],_,164,PROPN,Npmsn,nsubj
165,990-991,.,_,_,_,_,_,164,PUNCT,Z,punct
166,992-997,sidro,_,_,_,_,_,164,NOUN,Ncnsn,nsubj
167,998-1009,stabilnost,_,_,_,_,_,167,NOUN,Ncfsg,nmod
168,1010-1011,v,_,_,_,_,_,170,ADP,Sl,case
169,1012-1019,primer,_,_,_,_,_,167,NOUN,Ncmsl,nmod
170,1020-1029,scenarija,_,_,_,_,_,170,NOUN,Ncmsg,nmod
171,1030-1031,",",_,_,_,_,_,176,PUNCT,Z,punct
172,1032-1034,po,_,_,_,_,_,174,ADP,Sl,case
173,1035-1042,kateri,_,_,_,_,_,176,DET,Pq-msl,obl
174,1043-1045,biti,_,_,_,_,_,176,AUX,Va-c,aux
175,1046-1050,biti,_,_,_,_,_,171,VERB,Va-p-sn,acl
176,1051-1056,treba,_,_,_,_,_,176,ADV,Rgp,advmod
177,1057-1065,reševati,_,_,_,_,_,176,VERB,Vmpn,csubj
178,1066-1072,Madrid,ORG,0,*->11-1,*[11],3 - Nevtralno,178,PROPN,Npmsan,obj
179,1073-1075,in,_,_,_,_,_,181,CCONJ,Cc,cc
180,1076-1079,Rim,ORG,0,*->12-1,*[12],3 - Nevtralno,179,PROPN,Npmsan,conj
181,1080-1081,",",_,_,_,_,_,176,PUNCT,Z,punct
182,1082-1086,biti,_,_,_,_,_,184,AUX,Va-f3p-n,aux
183,1087-1093,morati,_,_,_,_,_,2,VERB,Vmpp-pf,parataxis
184,1094-1099,močen,_,_,_,_,_,187,ADJ,Agpfpn,amod
185,1100-1106,evrski,_,_,_,_,_,187,ADJ,Agpfpn,amod
186,1107-1113,država,_,_,_,_,_,176,NOUN,Ncfpn,nsubj
187,1114-1118,nase,_,_,_,_,_,189,PRON,Px---a--b,iobj
188,1119-1127,prevzeti,_,_,_,_,_,184,VERB,Vmen,xcomp
189,1128-1130,še,_,_,_,_,_,189,PART,Q,advmod
190,1131-1136,velik,_,_,_,_,_,193,ADJ,Agcnsa,amod
191,1137-1145,finančen,_,_,_,_,_,193,ADJ,Agpnsa,amod
192,1146-1151,breme,_,_,_,_,_,189,NOUN,Ncnsa,obj
193,1152-1153,.,_,_,_,_,_,184,PUNCT,Z,punct
194,1154-1161,Nemčija,ORG,_,*->2-2,*[2],_,198,PROPN,Npfsn,nsubj
195,1162-1164,biti,_,_,_,_,_,198,AUX,Va-r3s-n,aux
196,1165-1166,",",_,_,_,_,_,198,PUNCT,Z,punct
197,1167-1173,deti,_,_,_,_,_,184,VERB,Vmem1p,advcl
198,1174-1175,",",_,_,_,_,_,200,PUNCT,Z,punct
199,1176-1182,država,_,_,*->2-3,*[2],_,226,NOUN,Ncfsn,nsubj
200,1183-1184,",",_,_,*->2-3,*[2],_,205,PUNCT,Z,punct
201,1185-1187,ki,_,_,*->2-3,*[2],_,205,SCONJ,Cs,mark
202,1188-1189,v,_,_,*->2-3,*[2],_,204,ADP,Sl,case
203,1190-1194,EFSF,ORG,0,*->2-3|*->7-2,*[2]|*[7],3 - Nevtralno,205,PROPN,Npfsl,obl
204,1195-1203,prispevati,_,_,*->2-3,*[2],_,200,VERB,Vmpr3s,acl
205,1204-1210,največ,_,_,*->2-3,*[2],_,205,DET,Rgs,advmod
206,1211-1212,.,_,_,_,_,_,198,PUNCT,Z,punct
207,1213-1219,nemški,_,_,_,_,_,210,ADJ,Agpfsg,amod
208,1220-1228,finančen,_,_,_,_,_,210,ADJ,Agpfsg,amod
209,1229-1240,institucija,_,_,_,_,_,205,NOUN,Ncfpg,obj
210,1241-1243,biti,_,_,_,_,_,214,AUX,Va-r3p-n,cop
211,1244-1248,tako,_,_,_,_,_,213,ADV,Rgp,advmod
212,1249-1254,močno,_,_,_,_,_,214,ADV,Rgp,advmod
213,1255-1268,izpostavljen,_,_,_,_,_,2,ADJ,Appfpn,parataxis
214,1269-1278,dolžniški,_,_,_,_,_,216,ADJ,Agpfsd,amod
215,1279-1284,kriza,_,_,_,_,_,214,NOUN,Ncfsd,obj
216,1285-1287,in,_,_,_,_,_,220,CCONJ,Cc,cc
217,1288-1290,biti,_,_,_,_,_,220,AUX,Va-c,aux
218,1291-1296,lahko,_,_,_,_,_,220,ADV,Rgp,advmod
219,1297-1302,imeti,_,_,_,_,_,214,VERB,Vmpp-pf,conj
220,1303-1309,težava,_,_,_,_,_,220,NOUN,Ncfpa,obj
221,1310-1311,z,_,_,_,_,_,224,ADP,Si,case
222,1312-1325,potencialen,_,_,_,_,_,224,ADJ,Agpfpi,amod
223,1326-1334,izguba,_,_,_,_,_,221,NOUN,Ncfpi,nmod
224,1335-1336,",",_,_,_,_,_,205,PUNCT,Z,punct
225,1337-1343,meniti,_,_,_,_,_,214,VERB,Vmpr3p,conj
226,1344-1345,v,_,_,_,_,_,229,ADP,Sl,case
227,1346-1355,boniteten,_,_,*->5-7,*[5],_,229,ADJ,Agpfsl,amod
228,1356-1364,agencija,_,_,*->5-7,*[5],_,226,NOUN,Ncfsl,obl
229,1365-1366,.,_,_,_,_,_,214,PUNCT,Z,punct
230,1367-1373,nemški,_,_,_,_,_,233,ADJ,Agpnsn,amod
231,1374-1382,finančen,_,_,_,_,_,233,ADJ,Agpnsn,amod
232,1383-1394,ministrstvo,_,_,_,_,_,240,NOUN,Ncnsn,nsubj
233,1395-1397,biti,_,_,_,_,_,240,AUX,Va-r3s-n,aux
234,1398-1399,v,_,_,_,_,_,236,ADP,Sl,case
235,1400-1406,odziv,_,_,_,_,_,240,NOUN,Ncmsl,obl
236,1407-1409,na,_,_,_,_,_,238,ADP,Sa,case
237,1410-1416,poteza,_,_,_,_,_,236,NOUN,Ncfsa,nmod
238,1417-1423,Moodys,ORG,_,*->5-8,*[5],_,238,PROPN,Npmsn,nmod
239,1424-1433,poudariti,_,_,_,_,_,226,VERB,Vmep-sn,conj
240,1434-1435,",",_,_,_,_,_,244,PUNCT,Z,punct
241,1436-1438,da,_,_,_,_,_,244,SCONJ,Cs,mark
242,1439-1446,Nemčija,ORG,_,*->2-4,*[2],_,244,PROPN,Npfsn,nsubj
243,1447-1453,ostajati,_,_,_,_,_,240,VERB,Vmpr3s,ccomp
244,1454-1459,sidro,_,_,_,_,_,244,NOUN,Ncnsa,obj
245,1460-1471,stabilnost,_,_,_,_,_,245,NOUN,Ncfsg,nmod
246,1472-1479,območje,_,_,_,_,_,246,NOUN,Ncnsg,nmod
247,1480-1484,evro,_,_,_,_,_,247,NOUN,Ncmsg,nmod
248,1485-1486,.,_,_,_,_,_,240,PUNCT,Z,punct
249,1487-1489,na,_,_,_,_,_,251,ADP,Sl,case
250,1490-1501,ministrstvo,_,_,_,_,_,253,NOUN,Ncnsl,obl
251,1502-1504,biti,_,_,_,_,_,253,AUX,Va-r3p-n,aux
252,1505-1514,pojasniti,_,_,_,_,_,240,VERB,Vmep-pm,conj
253,1515-1517,še,_,_,_,_,_,253,PART,Q,advmod
254,1518-1519,",",_,_,_,_,_,259,PUNCT,Z,punct
255,1520-1522,da,_,_,_,_,_,259,SCONJ,Cs,mark
256,1523-1525,biti,_,_,_,_,_,259,AUX,Va-r3p-n,aux
257,1526-1528,se,_,_,_,_,_,259,PRON,Px------y,expl
258,1529-1538,seznaniti,_,_,_,_,_,253,VERB,Vmep-pm,ccomp
259,1539-1540,z,_,_,_,_,_,261,ADP,Si,case
260,1541-1546,ocena,_,_,_,_,_,259,NOUN,Ncfsi,obl
261,1547-1556,boniteten,_,_,*->5-9,*[5],_,263,ADJ,Agpfsg,amod
262,1557-1561,hiša,_,_,*->5-9,*[5],_,261,NOUN,Ncfsg,nmod
263,1562-1563,",",_,_,_,_,_,259,PUNCT,Z,punct
264,1564-1567,pri,_,_,_,_,_,266,ADP,Sl,case
265,1568-1571,ta,_,_,_,_,_,268,DET,Pd-nsl,obl
266,1572-1574,pa,_,_,_,_,_,268,CCONJ,Cc,advmod
267,1575-1581,dodati,_,_,_,_,_,253,VERB,Vmep-pm,advcl
268,1582-1583,",",_,_,_,_,_,273,PUNCT,Z,punct
269,1584-1586,da,_,_,_,_,_,273,SCONJ,Cs,mark
270,1587-1589,se,_,_,_,_,_,273,PRON,Px------y,expl
271,1590-1592,ta,_,_,_,_,_,273,DET,Pd-fsn,nsubj
272,1593-1603,osredotočati,_,_,_,_,_,268,VERB,Vmpr3s,ccomp
273,1604-1606,na,_,_,_,_,_,276,ADP,Sa,case
274,1607-1618,kratkoročen,_,_,_,_,_,276,ADJ,Agpnpa,amod
275,1619-1627,tveganje,_,_,_,_,_,273,NOUN,Ncnpa,obl
276,1628-1629,.,_,_,_,_,_,2,PUNCT,Z,punct
277,1630-1638,tveganje,_,_,_,_,_,285,NOUN,Ncnsg,nsubj
278,1639-1640,",",_,_,_,_,_,282,PUNCT,Z,punct
279,1641-1643,ki,_,_,_,_,_,282,SCONJ,Cs,mark
280,1644-1647,on,_,_,_,_,_,282,PRON,Pp3mpa--y,obj
281,1648-1659,izpostavljati,_,_,_,_,_,278,VERB,Vmpr3s,acl
282,1660-1661,",",_,_,_,_,_,282,PUNCT,Z,punct
283,1662-1666,biti,_,_,_,_,_,285,AUX,Va-r3p-y,cop
284,1667-1671,nov,_,_,_,_,_,273,ADJ,Agpnpn,conj
285,1672-1673,",",_,_,_,_,_,282,PUNCT,Z,punct
286,1674-1676,biti,_,_,_,_,_,288,AUX,Va-r3p-n,aux
287,1677-1683,dejati,_,_,_,_,_,2,VERB,Vmep-pm,parataxis
288,1684-1685,.,_,_,_,_,_,285,PUNCT,Z,punct
289,1686-1691,vodja,_,_,*->1-2,*[1],_,304,NOUN,Ncmsn,nsubj
290,1692-1698,evrski,_,_,*->1-2,*[1],_,292,ADJ,Agpfsg,amod
291,1699-1706,skupina,_,_,*->1-2,*[1],_,290,NOUN,Ncfsg,nmod
292,1707-1709,in,_,_,*->1-2,*[1],_,295,CCONJ,Cc,cc
293,1710-1722,luksemburški,_,_,*->1-2,*[1],_,295,ADJ,Agpmsny,amod
294,1723-1730,premier,_,_,*->1-2,*[1],_,290,NOUN,Ncmsn,conj
295,1731-1735,Jean,PER[1],_,*->1-2,*[1],_,295,PROPN,Npmsn,nmod
296,1736-1737,-,PER[1],_,*->1-2,*[1],_,298,PUNCT,Z,punct
297,1738-1744,Claude,PER[1],_,*->1-2,*[1],_,296,PROPN,Npmsn,conj
298,1745-1752,Juncker,PER[1],_,*->1-2,*[1],_,298,PROPN,Npmsn,flat:name
299,1753-1755,pa,_,_,_,_,_,304,CCONJ,Cc,advmod
300,1756-1758,biti,_,_,_,_,_,304,AUX,Va-r3s-n,aux
301,1759-1760,v,_,_,_,_,_,303,ADP,Sl,case
302,1761-1767,odziv,_,_,_,_,_,304,NOUN,Ncmsl,obl
303,1768-1775,izraziti,_,_,_,_,_,2,VERB,Vmep-sm,parataxis
304,1776-1781,močen,_,_,_,_,_,306,ADJ,Agpfsa,amod
305,1782-1792,zavezanost,_,_,_,_,_,304,NOUN,Ncfsa,obj
306,1793-1804,stabilnost,_,_,_,_,_,306,NOUN,Ncfsg,nmod
307,1805-1812,območje,_,_,_,_,_,307,NOUN,Ncnsg,nmod
308,1813-1817,evro,_,_,_,_,_,308,NOUN,Ncmsg,nmod
309,1818-1819,.,_,_,_,_,_,304,PUNCT,Z,punct
310,1820-1821,v,_,_,_,_,_,312,ADP,Sl,case
311,1822-1833,prepričanje,_,_,_,_,_,304,NOUN,Ncnsl,obl
312,1834-1835,",",_,_,_,_,_,315,PUNCT,Z,punct
313,1836-1838,da,_,_,_,_,_,315,SCONJ,Cs,mark
314,1839-1844,imeti,_,_,_,_,_,312,VERB,Vmpr3p-n,acl
315,1845-1852,Nemčija,ORG,_,*->2-5,*[2],_,315,PROPN,Npfsn,nsubj
316,1853-1854,",",_,_,_,_,_,318,PUNCT,Z,punct
317,1855-1865,Nizozemska,ORG,_,*->3-2,*[3],_,316,PROPN,Npfsn,conj
318,1866-1868,in,_,_,_,_,_,320,CCONJ,Cc,cc
319,1869-1879,Luksemburg,ORG,_,*->4-2,*[4],_,316,PROPN,Npmsn,conj
320,1880-1885,močen,_,_,_,_,_,322,ADJ,Agpmpa,amod
321,1886-1893,temelje,_,_,_,_,_,320,NOUN,Ncmpa,nmod
322,1894-1895,",",_,_,_,_,_,315,PUNCT,Z,punct
323,1896-1898,biti,_,0,*->1-3,*[1],3 - Nevtralno[3],325,AUX,Va-r3s-n,aux
324,1899-1907,poudariti,_,0,*->1-3,*[1],3 - Nevtralno[3],2,VERB,Vmep-sm,parataxis
325,1908-1909,",",_,_,_,_,_,328,PUNCT,Z,punct
326,1910-1912,da,_,_,_,_,_,328,SCONJ,Cs,mark
327,1913-1921,ostajati,_,_,_,_,_,325,VERB,Vmpr3p,ccomp
328,1922-1930,zavezan,_,_,_,_,_,328,ADJ,Appmpn,xcomp
329,1931-1944,zagotavljanje,_,_,_,_,_,328,NOUN,Ncnsd,obj
330,1945-1956,stabilnost,_,_,_,_,_,330,NOUN,Ncfsg,nmod
331,1957-1965,evropski,_,_,_,_,_,334,ADJ,Agpfsg,amod
332,1966-1975,monetaren,_,_,_,_,_,334,ADJ,Agpfsg,amod
333,1976-1981,unija,_,_,_,_,_,331,NOUN,Ncfsg,nmod
334,1982-1985,kot,_,_,_,_,_,336,SCONJ,Cs,case
335,1986-1992,celota,_,_,_,_,_,334,NOUN,Ncfsg,nmod
336,1993-1994,.,_,_,_,_,_,328,PUNCT,Z,punct
337,1995-2002,Nemčija,ORG,_,*->2-6,*[2],_,348,PROPN,Npfsn,nsubj
338,2003-2005,še,_,_,_,_,_,348,PART,Q,advmod
339,2006-2010,brez,_,_,_,_,_,341,ADP,Sg,case
340,2011-2019,posledica,_,_,_,_,_,348,NOUN,Ncfpg,obl
341,2020-2025,kriza,_,_,_,_,_,341,NOUN,Ncfsg,nmod
342,2026-2032,Berlin,ORG,_,*->13-1,*[13],_,342,PROPN,Npmsn,nmod
343,2033-2038,sicer,_,_,_,_,_,348,PART,Q,advmod
344,2039-2045,doslej,_,_,_,_,_,348,ADV,Rgp,advmod
345,2046-2048,še,_,_,_,_,_,348,PART,Q,advmod
346,2049-2051,biti,_,_,_,_,_,348,AUX,Va-r3s-y,aux
347,2052-2057,čutiti,_,_,_,_,_,373,VERB,Vmpp-sm,conj
348,2058-2064,pravi,_,_,_,_,_,350,ADJ,Agpfpg,amod
349,2065-2073,posledica,_,_,_,_,_,348,NOUN,Ncfpg,obj
350,2074-2079,kriza,_,_,_,_,_,350,NOUN,Ncfsg,nmod
351,2080-2082,in,_,_,_,_,_,358,CCONJ,Cc,cc
352,2083-2085,se,_,_,_,_,_,358,PRON,Px------y,expl
353,2086-2088,biti,_,_,_,_,_,358,AUX,Va-r3s-n,aux
354,2089-2091,na,_,_,_,_,_,357,ADP,Sl,case
355,2092-2103,kapitalski,_,_,_,_,_,357,ADJ,Agpmpl,amod
356,2104-2109,trg,_,_,_,_,_,358,NOUN,Ncmpl,obl
357,2110-2120,zadolževati,_,2,*->13-2,*[13],2 - Negativno,348,VERB,Vmpp-sm,conj
358,2121-2125,celo,_,_,_,_,_,358,PART,Q,advmod
359,2126-2128,po,_,_,_,_,_,363,ADP,Sl,case
360,2129-2138,negativen,_,_,_,_,_,363,ADJ,Agpfsl,amod
361,2139-2147,obresten,_,_,_,_,_,363,ADJ,Agpfsl,amod
362,2148-2152,mera,_,_,_,_,_,358,NOUN,Ncfsl,obl
363,2153-2154,.,_,_,_,_,_,348,PUNCT,Z,punct
364,2155-2157,se,_,_,_,_,_,373,PRON,Px------y,expl
365,2158-2160,biti,_,_,_,_,_,373,AUX,Va-r3s-n,aux
366,2161-2163,pa,_,_,_,_,_,373,CCONJ,Cc,advmod
367,2164-2170,nemški,_,_,*->14-1,*[14],_,369,ADJ,Agpfsn,amod
368,2171-2180,kanclerka,_,_,*->14-1,*[14],_,373,NOUN,Ncfsn,nsubj
369,2181-2187,Angela,PER[2],_,*->14-1,*[14],_,369,PROPN,Npfsn,nmod
370,2188-2194,Merkel,PER[2],_,*->14-1,*[14],_,370,PROPN,Npfsn,flat:name
371,2195-2202,večkrat,_,_,_,_,_,373,ADV,Rgc,advmod
372,2203-2209,znajti,_,_,_,_,_,2,VERB,Vmep-sf,parataxis
373,2210-2211,v,_,_,_,_,_,375,ADP,Sl,case
374,2212-2220,središče,_,_,_,_,_,373,NOUN,Ncnsl,obl
375,2221-2231,političen,_,_,_,_,_,377,ADJ,Agpfpg,amod
376,2232-2238,nevihta,_,_,_,_,_,375,NOUN,Ncfpg,nmod
377,2239-2240,.,_,_,_,_,_,373,PUNCT,Z,punct
378,2241-2246,mnog,_,_,_,_,_,382,DET,Pi-mpn,nsubj
379,2247-2249,biti,_,_,_,_,_,382,AUX,Va-r3p-n,aux
380,2250-2256,namreč,_,_,_,_,_,382,CCONJ,Cc,advmod
381,2257-2265,kritičen,_,_,_,_,_,373,ADJ,Agpmpn,parataxis
382,2266-2268,do,_,_,_,_,_,387,ADP,Sg,case
383,2269-2276,njen,_,2,*->14-2,*[14],2 - Negativno,387,DET,Ps3msgsf,det
384,2277-2287,varčevalno,_,_,_,_,_,386,ADV,Rgp,advmod
385,2288-2299,usmerjen,_,_,_,_,_,387,ADJ,Appmsg,amod
386,2300-2308,pristop,_,_,_,_,_,382,NOUN,Ncmsg,obl
387,2309-2321,razreševanje,_,_,_,_,_,387,NOUN,Ncnsg,nmod
388,2322-2327,kriza,_,_,_,_,_,388,NOUN,Ncfsg,nmod
389,2328-2329,.,_,_,_,_,_,382,PUNCT,Z,punct
390,2330-2332,na,_,_,_,_,_,392,ADP,Sa,case
391,2333-2335,ta,_,_,_,_,_,394,DET,Pd-nsa,obl
392,2336-2338,biti,_,_,_,_,_,394,AUX,Va-r3s-n,aux
393,2339-2347,spomniti,_,_,_,_,_,382,VERB,Vmep-sf,advcl
394,2348-2352,tudi,_,_,_,_,_,394,PART,Q,advmod
395,2353-2362,boniteten,_,_,*->5-10,*[5],_,397,ADJ,Agpfsn,amod
396,2363-2371,agencija,_,_,*->5-10,*[5],_,394,NOUN,Ncfsn,nsubj
397,2372-2373,.,_,_,_,_,_,401,PUNCT,Z,punct
398,2374-2377,kot,_,_,_,_,_,401,SCONJ,Cs,mark
399,2378-2380,biti,_,_,*->5-11,*[5],_,401,AUX,Va-r3s-n,aux
400,2381-2390,poudariti,_,_,*->5-11,*[5],_,394,VERB,Vmep-sf,advcl
401,2391-2392,",",_,_,_,_,_,401,PUNCT,Z,punct
402,2393-2395,biti,_,_,_,_,_,413,AUX,Va-r3s-n,cop
403,2396-2405,odzivnost,_,_,_,_,_,413,NOUN,Ncfsn,nsubj
404,2406-2408,in,_,_,_,_,_,406,CCONJ,Cc,cc
405,2409-2419,postopnost,_,_,_,_,_,404,NOUN,Ncfsn,conj
406,2420-2431,političen,_,_,_,_,_,408,ADJ,Agpmsg,amod
407,2432-2440,odgovor,_,_,_,_,_,406,NOUN,Ncmsg,nmod
408,2441-2450,evropski,_,_,_,_,_,410,ADJ,Agpmpg,amod
409,2451-2461,voditelj,_,_,_,_,_,408,NOUN,Ncmpg,nmod
410,2462-2464,še,_,_,_,_,_,413,PART,Q,advmod
411,2465-2467,en,_,_,_,_,_,413,NUM,Mlpmsn,nummod
412,2468-2474,razlog,_,_,_,_,_,394,NOUN,Ncmsn,conj
413,2475-2477,za,_,_,_,_,_,415,ADP,Sa,case
414,2478-2491,zaskrbljenost,_,_,_,_,_,413,NOUN,Ncfsa,nmod
415,2492-2493,.,_,_,_,_,_,413,PUNCT,Z,punct
416,2494-2503,odločitev,_,_,_,_,_,413,NOUN,Ncfsa,nmod
417,2504-2510,Moodys,ORG,_,*->5-12,*[5],_,417,PROPN,Npmsn,nmod
418,2511-2512,",",_,_,_,_,_,424,PUNCT,Z,punct
419,2513-2515,da,_,_,_,_,_,424,SCONJ,Cs,mark
420,2516-2521,obeta,_,_,_,_,_,424,NOUN,Ncfpa,obj
421,2522-2531,omenjen,_,_,_,_,_,423,ADJ,Appfpg,amod
422,2532-2537,država,_,_,_,_,_,421,NOUN,Ncfpg,nmod
423,2538-2546,spremeniti,_,_,_,_,_,417,VERB,Vmer3s,acl
424,2547-2548,v,_,_,_,_,_,426,ADP,Sa,case
425,2549-2558,negativen,_,_,_,_,_,424,ADJ,Agpmpa,obl
426,2559-2560,",",_,_,_,_,_,424,PUNCT,Z,punct
427,2561-2563,po,_,_,_,_,_,429,ADP,Sl,case
428,2564-2573,poročanje,_,_,_,_,_,431,NOUN,Ncnsl,obl
429,2574-2577,dpa,_,_,_,_,_,429,PROPN,Npfsg,nmod
430,2578-2584,pomeniti,_,_,_,_,_,413,VERB,Vmbr3s,conj
431,2585-2586,",",_,_,_,_,_,436,PUNCT,Z,punct
432,2587-2589,da,_,_,_,_,_,436,SCONJ,Cs,mark
433,2590-2599,boniteten,_,_,*->5-13,*[5],_,435,ADJ,Agpfsn,amod
434,2600-2608,agencija,_,_,*->5-13,*[5],_,436,NOUN,Ncfsn,nsubj
435,2609-2618,razmišljati,_,_,_,_,_,431,VERB,Vmpr3s,ccomp
436,2619-2620,o,_,_,_,_,_,438,ADP,Sl,case
437,2621-2624,ta,_,_,_,_,_,436,DET,Pd-nsl,obl
438,2625-2626,",",_,_,_,_,_,449,PUNCT,Z,punct
439,2627-2629,da,_,_,_,_,_,449,SCONJ,Cs,mark
440,2630-2632,biti,_,_,_,_,_,449,AUX,Va-c,aux
441,2633-2634,",",_,_,_,_,_,447,PUNCT,Z,punct
442,2635-2637,če,_,_,_,_,_,447,SCONJ,Cs,mark
443,2638-2642,biti,_,_,_,_,_,447,AUX,Va-f3p-n,aux
444,2643-2652,negativen,_,_,_,_,_,446,ADJ,Agpmpn,amod
445,2653-2659,pogoj,_,_,_,_,_,447,NOUN,Ncmpn,nsubj
446,2660-2669,vztrajati,_,_,_,_,_,436,VERB,Vmpp-pm,advcl
447,2670-2671,",",_,_,_,_,_,447,PUNCT,Z,punct
448,2672-2679,znižati,_,_,*->5-14,*[5],_,438,VERB,Vmep-pf,acl
449,2680-2684,zdaj,_,_,_,_,_,449,ADV,Rgp,advmod
450,2685-2693,visok,_,_,_,_,_,453,ADJ,Agsfsg,amod
451,2694-2702,krediten,_,_,_,_,_,453,ADJ,Agpfsg,amod
452,2703-2708,ocena,_,_,_,_,_,449,NOUN,Ncfsg,obj
453,2709-2716,Nemčija,LOC,0,*->2-7,*[2],3 - Nevtralno,453,PROPN,Npfsg,nmod
454,2717-2718,",",_,_,_,_,_,456,PUNCT,Z,punct
455,2719-2729,Nizozemska,LOC,0,*->3-3,*[3],3 - Nevtralno,454,PROPN,Npfsg,conj
456,2730-2732,in,_,_,_,_,_,458,CCONJ,Cc,cc
457,2733-2744,Luksemburg,LOC,0,*->4-3,*[4],3 - Nevtralno,454,PROPN,Npmsg,conj
458,2745-2746,.,_,_,_,_,_,436,PUNCT,Z,punct
459,2747-2752,sicer,_,_,_,_,_,465,PART,Q,advmod
460,2753-2755,pa,_,_,_,_,_,465,CCONJ,Cc,advmod
461,2756-2758,biti,_,_,_,_,_,465,AUX,Va-r3s-n,aux
462,2759-2765,Moodys,ORG,0,*->5-15,*[5],3 - Nevtralno,465,PROPN,Npmsn,nsubj
463,2766-2771,danes,_,_,_,_,_,465,ADV,Rgp,advmod
464,2772-2779,ohraniti,_,_,_,_,_,2,VERB,Vmep-sm,parataxis
465,2780-2788,visok,_,_,_,_,_,467,ADJ,Agsfsa,amod
466,2789-2794,ocena,_,_,_,_,_,465,NOUN,Ncfsa,obj
467,2795-2798,Aaa,_,_,_,_,_,467,PROPN,Npfsg,nmod
468,2799-2801,za,_,_,_,_,_,470,ADP,Sa,case
469,2802-2810,Avstrija,ORG,1,*->15-1,*[15],4 - Pozitivno,468,PROPN,Npfsa,nmod
470,2811-2813,in,_,_,_,_,_,472,CCONJ,Cc,cc
471,2814-2822,Francija,ORG,1,*->16-1,*[16],4 - Pozitivno,470,PROPN,Npfsa,conj
472,2823-2824,",",_,_,_,_,_,480,PUNCT,Z,punct
473,2825-2827,ki,_,_,_,_,_,480,SCONJ,Cs,mark
474,2828-2832,on,_,_,_,_,_,480,PRON,Pp3mdd--y,iobj
475,2833-2835,biti,_,_,_,_,_,480,AUX,Va-r3s-n,aux
476,2836-2841,obeta,_,_,_,_,_,480,NOUN,Ncmpa,obj
477,2842-2843,v,_,_,_,_,_,479,ADP,Sa,case
478,2844-2853,negativen,_,_,_,_,_,477,ADJ,Agpmpa,amod
479,2854-2863,spremeniti,_,_,_,_,_,472,VERB,Vmep-sm,acl
480,2864-2873,februar,_,_,_,_,_,480,NOUN,Ncmsg,obl
481,2874-2875,.,_,_,_,_,_,486,PUNCT,Z,punct
482,2876-2881,poleg,_,_,_,_,_,484,ADP,Sg,case
483,2882-2886,ta,_,_,_,_,_,486,DET,Pd-nsg,obl
484,2887-2889,biti,_,_,_,_,_,486,AUX,Va-r3s-n,aux
485,2890-2897,potrditi,_,_,_,_,_,480,VERB,Vmep-sm,conj
486,2898-2906,visok,_,_,_,_,_,488,ADJ,Agsfsa,amod
487,2907-2912,ocena,_,_,_,_,_,486,NOUN,Ncfsa,obj
488,2913-2915,in,_,_,_,_,_,491,CCONJ,Cc,cc
489,2916-2924,stabilen,_,_,_,_,_,491,ADJ,Agpmpa,amod
490,2925-2930,obeta,_,_,_,_,_,488,NOUN,Ncmpa,conj
491,2931-2933,za,_,_,_,_,_,493,ADP,Sa,case
492,2934-2940,Finsko,ORG,1,*->17-1,*[17],4 - Pozitivno,491,PROPN,Npfsa,nmod
