idx,chars_idx,token,entity_type,sentiment,idk_1,idk_2,orig_sentiment,heads,upos,xpos,deprel
0,0-6,nemški,_,_,_,_,_,2,ADJ,Agpfsn,amod
1,7-14,prodaja,_,_,_,_,_,12,NOUN,Ncfsn,nsubj
2,15-17,na,_,_,_,_,_,8,ADP,Sl,case
3,18-24,drobno,_,_,_,_,_,8,ADV,Rgp,advmod
4,25-29,spet,_,_,_,_,_,12,ADV,Rgp,advmod
5,30-37,navzdol,_,_,_,_,_,7,ADV,Rgp,advmod
6,38-41,211,_,_,_,_,_,8,NUM,Mdc,nummod
7,42-50,milijarda,_,_,_,_,_,2,NOUN,Ncfpg,nmod
8,51-56,evro,_,_,_,_,_,8,NOUN,Ncmpg,nmod
9,57-59,biti,_,_,_,_,_,12,AUX,Va-r3s-n,aux
10,60-62,že,_,_,_,_,_,12,PART,Q,advmod
11,63-71,porabiti,_,_,_,_,_,0,VERB,Vmep-sf,root
12,72-80,evropski,ORG[1],_,*->1-1,*[1],_,15,ADJ,Agpfsn,amod
13,81-90,centralen,ORG[1],_,*->1-1,*[1],_,15,ADJ,Agpfsn,amod
14,91-96,banka,ORG[1],_,*->1-1,*[1],_,12,NOUN,Ncfsn,nsubj
15,97-99,za,_,_,_,_,_,17,ADP,Sa,case
16,100-106,nakup,_,_,_,_,_,15,NOUN,Ncmpa,nmod
17,107-115,obveznica,_,_,_,_,_,17,NOUN,Ncfpg,nmod
18,116-129,prezadolžen,_,_,_,_,_,20,ADJ,Appfpg,amod
19,130-135,država,_,_,_,_,_,18,NOUN,Ncfpg,nmod
20,136-137,",",_,_,_,_,_,28,PUNCT,Z,punct
21,138-142,toda,_,_,_,_,_,28,CCONJ,Cc,cc
22,143-144,v,_,_,_,_,_,25,ADP,Sl,case
23,145-154,dolžniški,_,_,_,_,_,25,ADJ,Agpfsl,amod
24,155-160,kriza,_,_,_,_,_,28,NOUN,Ncfsl,obl
25,161-163,ta,_,_,_,_,_,28,DET,Pd-nsn,nsubj
26,164-166,biti,_,_,_,_,_,28,AUX,Va-r3s-y,aux
27,167-175,pomeniti,_,_,_,_,_,12,VERB,Vmbp-sn,conj
28,176-185,preobrat,_,_,_,_,_,28,NOUN,Ncmsg,obj
29,186-187,.,_,_,_,_,_,33,PUNCT,Z,punct
30,188-193,zakaj,_,_,_,_,_,33,ADV,Rgp,advmod
31,194-196,biti,_,_,_,_,_,33,AUX,Va-c,aux
32,197-201,biti,_,_,_,_,_,29,VERB,Va-p-sn,acl
33,202-206,zdaj,_,_,_,_,_,33,ADV,Rgp,advmod
34,207-214,drugače,_,_,_,_,_,33,ADV,Rgp,advmod
35,215-216,?,_,_,_,_,_,33,PUNCT,Z,punct
36,217-225,finančen,_,_,_,_,_,38,ADJ,Agpmpn,amod
37,226-230,trg,_,_,_,_,_,42,NOUN,Ncmpn,nsubj
38,231-233,že,_,_,_,_,_,42,PART,Q,advmod
39,234-239,nekaj,_,_,_,_,_,41,DET,Rgp,det
40,240-243,dan,_,_,_,_,_,42,NOUN,Ncmpg,obl
41,244-251,ugibati,_,_,_,_,_,12,VERB,Vmpr3p,parataxis
42,252-253,",",_,_,_,_,_,47,PUNCT,Z,punct
43,254-257,kaj,_,_,_,_,_,47,PRON,Pq-nsa,obj
44,258-263,točno,_,_,_,_,_,47,ADV,Rgp,advmod
45,264-266,biti,_,_,_,_,_,47,AUX,Va-r3s-n,aux
46,267-271,imeti,_,_,_,_,_,42,VERB,Vmpp-sm,ccomp
47,272-273,v,_,_,_,_,_,49,ADP,Sl,case
48,274-280,misel,_,_,_,_,_,47,NOUN,Ncfpl,obl
49,281-291,predsednik,_,_,*->7-1,*[7],_,47,NOUN,Ncmsn,nsubj
50,292-295,ECB,ORG,_,*->7-1|*->1-2,*[7]|*[1],_,50,PROPN,Npmsn,nmod
51,296-297,-,_,_,*->7-1,*[7],_,53,PUNCT,Z,punct
52,298-300,ja,_,_,*->7-1,*[7],_,54,PART,Q,appos
53,301-306,Maria,PER[2],_,*->7-1,*[7],_,50,PROPN,Npmsn,nmod
54,307-313,Draghi,PER[2],_,*->7-1,*[7],_,54,PROPN,Npmsn,flat:name
55,314-315,",",_,_,_,_,_,61,PUNCT,Z,punct
56,316-318,ko,_,_,_,_,_,61,SCONJ,Cs,mark
57,319-321,biti,_,_,_,_,_,61,AUX,Va-r3s-n,aux
58,322-323,v,_,_,_,_,_,60,ADP,Sa,case
59,324-331,četrtek,_,_,_,_,_,61,NOUN,Ncmsan,obl
60,332-339,izjaviti,_,_,*->7-2,*[7],_,75,VERB,Vmep-sm,advcl
61,340-341,",",_,_,_,_,_,65,PUNCT,Z,punct
62,342-344,da,_,_,_,_,_,65,SCONJ,Cs,mark
63,345-347,biti,_,_,_,_,_,65,AUX,Va-f3s-n,aux
64,348-354,storiti,_,0,*->7-3,*[7],3 - Nevtralno,61,VERB,Vmep-sm,ccomp
65,355-358,ves,_,_,_,_,_,65,DET,Pg-nsa,obj
66,359-361,za,_,_,_,_,_,68,ADP,Sa,case
67,362-369,obramba,_,_,_,_,_,66,NOUN,Ncfsa,nmod
68,370-374,evro,_,_,_,_,_,68,NOUN,Ncmsg,nmod
69,375-376,.,_,_,_,_,_,65,PUNCT,Z,punct
70,377-378,v,_,_,_,_,_,72,ADP,Sa,case
71,379-386,četrtek,_,_,_,_,_,75,NOUN,Ncmsan,obl
72,387-389,se,_,_,_,_,_,75,PRON,Px------y,expl
73,390-392,biti,_,_,_,_,_,75,AUX,Va-f3s-n,aux
74,393-400,sestati,_,_,_,_,_,12,VERB,Vmep-sf,parataxis
75,401-409,evropski,ORG[3],_,*->1-3,*[1],_,78,ADJ,Agpfsn,amod
76,410-419,centralen,ORG[3],_,*->1-3,*[1],_,78,ADJ,Agpfsn,amod
77,420-425,banka,ORG[3],_,*->1-3,*[1],_,75,NOUN,Ncfsn,nsubj
78,426-428,in,_,_,_,_,_,81,CCONJ,Cc,cc
79,429-435,najbrž,_,_,_,_,_,81,PART,Q,advmod
80,436-444,najaviti,_,_,*->1-4,*[1],_,75,VERB,Vmep-sf,conj
81,445-449,nov,_,_,_,_,_,83,ADJ,Agpfpa,amod
82,450-456,odkup,_,_,_,_,_,81,NOUN,Ncfpa,obj
83,457-465,španski,_,_,_,_,_,87,ADJ,Agpfpg,amod
84,466-468,in,_,_,_,_,_,86,CCONJ,Cc,cc
85,469-481,italijanski,_,_,_,_,_,84,ADJ,Agpfpg,conj
86,482-490,obveznica,_,_,_,_,_,83,NOUN,Ncfpg,nmod
87,491-492,",",_,_,_,_,_,92,PUNCT,Z,punct
88,493-494,z,_,_,_,_,_,90,ADP,Si,case
89,495-500,kar,_,_,_,_,_,92,PRON,Pr-nsi,obl
90,501-503,biti,_,_,_,_,_,92,AUX,Va-c,aux
91,504-511,znižati,_,_,*->1-5,*[1],_,87,VERB,Vmep-sf,acl
92,512-519,njihov,_,_,_,_,_,95,DET,Ps3fsap,det
93,520-529,zahtevan,_,_,_,_,_,95,ADJ,Appfsa,amod
94,530-539,donosnost,_,_,_,_,_,92,NOUN,Ncfsa,obj
95,540-541,.,_,_,_,_,_,92,PUNCT,Z,punct
96,542-551,obveznica,_,_,_,_,_,100,NOUN,Ncfpa,obj
97,552-554,biti,_,_,_,_,_,100,AUX,Va-c,aux
98,555-561,seveda,_,_,_,_,_,100,PART,Q,advmod
99,562-570,kupovati,_,_,_,_,_,12,VERB,Vmpp-sf,parataxis
100,571-573,na,_,_,_,_,_,103,ADP,Sl,case
101,574-585,sekundaren,_,_,_,_,_,103,ADJ,Agpmsl,amod
102,586-590,trg,_,_,_,_,_,100,NOUN,Ncmsl,obl
103,591-592,",",_,_,_,_,_,92,PUNCT,Z,punct
104,593-596,saj,_,_,_,_,_,112,CCONJ,Cc,cc
105,597-599,on,_,_,_,_,_,112,PRON,Pp3fsd--y,obj
106,600-602,na,_,_,_,_,_,109,ADP,Sl,case
107,603-612,primaren,_,_,_,_,_,109,ADJ,Agpmsl,amod
108,613-617,trg,_,_,_,_,_,112,NOUN,Ncmsl,obl
109,618-620,ta,_,_,_,_,_,112,DET,Pd-nsn,nsubj
110,621-623,biti,_,_,_,_,_,112,AUX,Va-r3s-y,cop
111,624-633,dovoljen,_,_,_,_,_,100,ADJ,Appnsn,conj
112,634-635,.,_,_,_,_,_,112,PUNCT,Z,punct
113,636-642,glasen,_,_,_,_,_,112,ADJ,Agpfsn,csubj
114,643-650,kritika,_,_,_,_,_,112,NOUN,Ncfsd,obj
115,651-652,v,_,_,_,_,_,117,ADP,Sl,case
116,653-660,Nemčija,LOC,_,*->2-1,*[2],_,115,PROPN,Npfsl,nmod
117,661-667,zlasti,_,_,_,_,_,114,PART,Q,advmod
118,668-669,v,_,_,_,_,_,120,ADP,Sl,case
119,670-677,Nemčija,LOC,0,*->2-2,*[2],3 - Nevtralno,115,PROPN,Npfsl,nmod
120,678-680,biti,_,_,_,_,_,130,AUX,Va-r3s-n,cop
121,681-687,veliko,_,_,_,_,_,123,DET,Rgp,det
122,688-696,kritik,_,_,_,_,_,114,NOUN,Ncmpg,obj
123,697-705,program,_,_,*->8-1,*[8],_,123,NOUN,Ncmsg,nmod
124,706-709,SMP,ORG[4],_,*->8-1,*[8],_,124,NOUN,Ncmsn,nmod
125,710-720,Securities,ORG[4],_,*->8-1,*[8],_,125,PROPN,Npmsn,nmod
126,721-728,Markets,ORG[4],_,*->8-1,*[8],_,128,PROPN,Npmsn,nmod
127,729-738,Programme,ORG[4],_,*->8-1,*[8],_,126,PROPN,Npmsn,nmod
128,739-740,.,_,_,_,_,_,128,PUNCT,Z,punct
129,741-747,glasen,_,_,_,_,_,128,ADJ,Agpmpn,amod
130,748-750,biti,_,_,_,_,_,130,AUX,Va-r3p-n,aux
131,751-755,biti,_,_,_,_,_,130,AUX,Va-p-pm,cop
132,756-758,že,_,_,_,_,_,130,PART,Q,advmod
133,759-763,maj,_,_,_,_,_,130,NOUN,Ncmsg,obl
134,764-768,2010,_,_,_,_,_,134,NUM,Mdc,nummod
135,769-770,",",_,_,_,_,_,143,PUNCT,Z,punct
136,771-773,ko,_,_,_,_,_,143,SCONJ,Cs,mark
137,774-776,biti,_,_,_,_,_,143,AUX,Va-r3s-n,aux
138,777-785,evropski,ORG[5],_,*->1-6,*[1],_,141,ADJ,Agpfsn,amod
139,786-795,centralen,ORG[5],_,*->1-6,*[1],_,141,ADJ,Agpfsn,amod
140,796-801,banka,ORG[5],_,*->1-6,*[1],_,143,NOUN,Ncfsn,nsubj
141,802-807,prvič,_,_,_,_,_,143,ADV,Rgp,advmod
142,808-816,najaviti,_,_,_,_,_,134,VERB,Vmep-sf,acl
143,817-823,odkup,_,_,_,_,_,143,NOUN,Ncfpa,obj
144,824-832,obveznica,_,_,_,_,_,144,NOUN,Ncfpg,nmod
145,833-834,.,_,_,_,_,_,130,PUNCT,Z,punct
146,835-842,svariti,_,_,_,_,_,130,VERB,Vmpp-pm,parataxis
147,843-845,biti,_,_,_,_,_,147,AUX,Va-r3p-n,aux
148,846-847,",",_,_,_,_,_,151,PUNCT,Z,punct
149,848-850,da,_,_,_,_,_,151,SCONJ,Cs,mark
150,851-854,iti,_,_,_,_,_,147,VERB,Vmbr3s,ccomp
151,855-857,za,_,_,_,_,_,154,ADP,Sa,case
152,858-868,neposreden,_,_,_,_,_,154,ADJ,Agpnsa,amod
153,869-881,financiranje,_,_,_,_,_,151,NOUN,Ncnsa,obl
154,882-887,država,_,_,_,_,_,154,NOUN,Ncfpg,nmod
155,888-889,",",_,_,_,_,_,159,PUNCT,Z,punct
156,890-893,kar,_,_,_,_,_,159,PRON,Pr-nsn,nsubj
157,894-896,biti,_,_,_,_,_,159,AUX,Va-r3s-y,cop
158,897-906,dovoljen,_,_,_,_,_,155,ADJ,Appnsn,acl
159,907-908,.,_,_,_,_,_,159,PUNCT,Z,punct
160,909-913,Bali,_,_,_,_,_,159,PROPN,Npmsn,nsubj
161,914-916,biti,_,_,_,_,_,161,AUX,Va-r3p-n,aux
162,917-919,se,_,_,_,_,_,161,PRON,Px------y,expl
163,920-929,številen,_,_,_,_,_,166,ADJ,Agpfpg,amod
164,930-939,stranski,_,_,_,_,_,166,ADJ,Agpfpg,amod
165,940-948,posledica,_,_,_,_,_,161,NOUN,Ncfpg,nmod
166,949-950,",",_,_,_,_,_,169,PUNCT,Z,punct
167,951-957,zlasti,_,_,_,_,_,169,PART,Q,cc
168,958-967,inflacija,_,_,_,_,_,166,NOUN,Ncfpn,appos
169,968-969,.,_,_,_,_,_,159,PUNCT,Z,punct
170,970-975,poleg,_,_,_,_,_,172,ADP,Sg,case
171,976-980,ta,_,_,_,_,_,176,DET,Pd-nsg,obl
172,981-983,biti,_,_,_,_,_,176,AUX,Va-c,aux
173,984-997,problematičen,_,_,_,_,_,175,ADJ,Agpfpn,amod
174,998-1004,država,_,_,_,_,_,176,NOUN,Ncfpn,nsubj
175,1005-1011,začeti,_,_,_,_,_,12,VERB,Vmep-pf,parataxis
176,1012-1020,odlašati,_,_,_,_,_,176,VERB,Vmpn,xcomp
177,1021-1022,z,_,_,_,_,_,179,ADP,Si,case
178,1023-1032,reforma,_,_,_,_,_,177,NOUN,Ncfpi,obl
179,1033-1034,",",_,_,_,_,_,189,PUNCT,Z,punct
180,1035-1038,saj,_,_,_,_,_,189,CCONJ,Cc,cc
181,1039-1041,biti,_,_,_,_,_,189,AUX,Va-c,aux
182,1042-1045,on,_,_,_,_,_,189,PRON,Pp3mpa--y,obj
183,1046-1054,znižanje,_,_,_,_,_,189,NOUN,Ncnsn,nsubj
184,1055-1064,zahtevan,_,_,_,_,_,186,ADJ,Appfsg,amod
185,1065-1075,donosnost,_,_,_,_,_,184,NOUN,Ncfsg,nmod
186,1076-1084,obveznica,_,_,_,_,_,186,NOUN,Ncfpg,nmod
187,1085-1090,lahko,_,_,_,_,_,189,ADV,Rgp,advmod
188,1091-1099,uspavati,_,_,_,_,_,177,VERB,Vmpp-sn,conj
189,1100-1101,.,_,_,_,_,_,189,PUNCT,Z,punct
190,1102-1109,program,_,2,*->8-2,*[8],2 - Negativno[17],194,NOUN,Ncmsan,obj
191,1110-1113,SMP,ORG,2,*->8-2,*[8],2 - Negativno[17],191,NOUN,Ncmsn,nmod
192,1114-1116,biti,_,_,_,_,_,194,AUX,Va-r3s-y,aux
193,1117-1124,povrniti,_,_,_,_,_,12,VERB,Vmep-sm,parataxis
194,1125-1133,zaupanje,_,_,_,_,_,194,NOUN,Ncnsg,obj
195,1134-1142,evropski,ORG[6],_,*->1-7,*[1],_,198,ADJ,Agpfsn,amod
196,1143-1152,centralen,ORG[6],_,*->1-7,*[1],_,198,ADJ,Agpfsn,amod
197,1153-1158,banka,ORG[6],_,*->1-7,*[1],_,204,NOUN,Ncfsn,nsubj
198,1159-1161,biti,_,_,_,_,_,204,AUX,Va-r3s-n,aux
199,1162-1168,vseeno,_,_,_,_,_,204,ADV,Rgp,advmod
200,1169-1171,do,_,_,_,_,_,203,ADP,Sg,case
201,1172-1182,letošnji,_,_,_,_,_,203,ADJ,Agpmsg,amod
202,1183-1188,marec,_,_,_,_,_,204,NOUN,Ncmsg,obl
203,1189-1195,kupiti,_,_,_,_,_,194,VERB,Vmep-sf,conj
204,1196-1198,za,_,_,_,_,_,207,ADP,Sa,case
205,1199-1202,211,_,_,_,_,_,207,NUM,Mdc,nummod
206,1203-1211,milijarda,_,_,_,_,_,204,NOUN,Ncfpg,obl
207,1212-1217,evro,_,_,_,_,_,207,NOUN,Ncmpg,nmod
208,1218-1226,obveznica,_,_,_,_,_,208,NOUN,Ncfpg,nmod
209,1227-1229,in,_,_,_,_,_,213,CCONJ,Cc,cc
210,1230-1232,le,_,_,_,_,_,213,PART,Q,advmod
211,1233-1244,kratkoročno,_,_,_,_,_,213,ADV,Rgp,advmod
212,1245-1253,pomiriti,_,_,*->1-8,*[1],_,204,VERB,Vmep-sf,conj
213,1254-1262,finančen,_,_,_,_,_,215,ADJ,Agpmpa,amod
214,1263-1267,trg,_,_,_,_,_,213,NOUN,Ncmpa,obj
215,1268-1269,.,_,_,_,_,_,204,PUNCT,Z,punct
216,1270-1278,zaupanje,_,_,_,_,_,220,NOUN,Ncnsg,obj
217,1279-1290,vlagatelj,_,_,_,_,_,217,NOUN,Ncmpg,nmod
218,1291-1293,biti,_,_,*->1-9,*[1],_,220,AUX,Va-r3s-y,aux
219,1294-1302,povrniti,_,_,*->1-9,*[1],_,12,VERB,Vmep-sf,parataxis
220,1303-1304,.,_,_,_,_,_,220,PUNCT,Z,punct
221,1305-1313,spomniti,_,_,_,_,_,12,VERB,Vmer1p,parataxis
222,1314-1315,",",_,_,_,_,_,204,PUNCT,Z,punct
223,1316-1318,na,_,_,_,_,_,225,ADP,Sl,case
224,1319-1326,začetek,_,_,_,_,_,233,NOUN,Ncmsl,obl
225,1327-1337,prejšnji,_,_,_,_,_,227,ADJ,Agpmsg,amod
226,1338-1343,teden,_,_,_,_,_,225,NOUN,Ncmsg,nmod
227,1344-1346,biti,_,_,_,_,_,233,AUX,Va-r3s-n,aux
228,1347-1352,donos,_,_,_,_,_,233,NOUN,Ncmsn,nsubj
229,1353-1360,španski,_,_,_,_,_,232,ADJ,Agpfsg,amod
230,1361-1371,desetleten,_,_,_,_,_,232,ADJ,Agpfsg,amod
231,1372-1381,obveznica,_,_,_,_,_,229,NOUN,Ncfsg,nmod
232,1382-1390,preseči,_,_,_,_,_,12,VERB,Vmep-sm,parataxis
233,1391-1400,rekorden,_,_,_,_,_,236,ADJ,Agpmpg,amod
234,1401-1404,"7,5",_,_,_,_,_,236,NUM,Mdc,nummod
235,1405-1413,odstotek,_,_,_,_,_,233,NOUN,Ncmsg,obj
236,1414-1415,",",_,_,_,_,_,233,PUNCT,Z,punct
237,1416-1421,vedno,_,_,_,_,_,239,ADV,Rgp,advmod
238,1422-1431,glasen,_,_,_,_,_,233,ADJ,Agcfsn,conj
239,1432-1434,pa,_,_,_,_,_,239,CCONJ,Cc,advmod
240,1435-1437,biti,_,_,_,_,_,295,AUX,Va-r3p-n,aux
241,1438-1442,biti,_,_,_,_,_,239,AUX,Va-p-pn,cop
242,1443-1451,ugibanje,_,_,_,_,_,239,NOUN,Ncnpn,nsubj
243,1452-1453,",",_,_,_,_,_,248,PUNCT,Z,punct
244,1454-1457,ali,_,_,_,_,_,248,ADV,Rgp,mark
245,1458-1460,ne,_,_,_,_,_,248,PART,Q,advmod
246,1461-1463,biti,_,_,_,_,_,248,AUX,Va-f3s-n,aux
247,1464-1467,iti,_,_,_,_,_,243,VERB,Vmbp-sf,acl
248,1468-1470,še,_,_,_,_,_,248,PART,Q,advmod
249,1471-1478,Španija,ORG,2,*->9-1,*[9],2 - Negativno,248,PROPN,Npfsn,nsubj
250,1479-1481,po,_,_,_,_,_,252,ADP,Sl,case
251,1482-1486,pot,_,_,_,_,_,248,NOUN,Ncfsl,obl
252,1487-1493,Grčija,ORG,2,*->10-1,*[10],2 - Negativno,252,PROPN,Npfsg,nmod
253,1494-1495,",",_,_,_,_,_,255,PUNCT,Z,punct
254,1496-1501,Irska,ORG,2,*->11-1,*[11],2 - Negativno,253,PROPN,Npfsg,conj
255,1502-1504,in,_,_,_,_,_,257,CCONJ,Cc,cc
256,1505-1516,Portugalska,ORG,2,*->12-1,*[12],2 - Negativno,253,PROPN,Npfsg,conj
257,1517-1518,.,_,_,_,_,_,233,PUNCT,Z,punct
258,1519-1523,toda,_,_,_,_,_,293,CCONJ,Cc,cc
259,1524-1525,v,_,_,_,_,_,262,ADP,Sl,case
260,1526-1533,zadnji,_,_,_,_,_,262,ADJ,Agpmpl,amod
261,1534-1538,dan,_,_,_,_,_,293,NOUN,Ncmpl,obl
262,1539-1541,biti,_,_,_,_,_,293,AUX,Va-r3s-n,aux
263,1542-1548,zaradi,_,_,_,_,_,266,ADP,Sg,case
264,1549-1560,napovedan,_,_,_,_,_,266,ADJ,Appmpg,amod
265,1561-1568,ukrep,_,_,_,_,_,293,NOUN,Ncmpg,obl
266,1569-1572,ECB,ORG,1,*->1-10,*[1],4 - Pozitivno,266,PROPN,Npmsn,nmod
267,1573-1574,-,_,_,_,_,_,269,PUNCT,Z,punct
268,1575-1577,ja,_,_,_,_,_,267,PART,Q,conj
269,1578-1581,med,_,_,_,_,_,271,ADP,Si,case
270,1582-1592,vlagatelj,_,_,_,_,_,266,NOUN,Ncmpi,nmod
271,1593-1597,spet,_,_,_,_,_,269,ADV,Rgp,advmod
272,1598-1601,več,_,_,_,_,_,274,DET,Rgc,det
273,1602-1608,upanje,_,_,_,_,_,267,NOUN,Ncnsg,appos
274,1609-1611,na,_,_,_,_,_,276,ADP,Sa,case
275,1612-1619,rešitev,_,_,_,_,_,274,NOUN,Ncfsa,nmod
276,1620-1625,kriza,_,_,_,_,_,276,NOUN,Ncfsg,nmod
277,1626-1627,.,_,_,_,_,_,233,PUNCT,Z,punct
278,1628-1634,nemški,_,_,_,_,_,280,ADJ,Agpfsn,amod
279,1635-1642,prodaja,_,_,_,_,_,274,NOUN,Ncfsn,nmod
280,1643-1645,na,_,_,_,_,_,286,ADP,Sl,case
281,1646-1652,drobno,_,_,_,_,_,285,ADV,Rgp,advmod
282,1653-1657,spet,_,_,_,_,_,285,ADV,Rgp,advmod
283,1658-1665,navzdol,_,_,_,_,_,285,ADV,Rgp,advmod
284,1666-1678,frankfurtski,_,_,_,_,_,286,ADJ,Agpmsly,amod
285,1679-1684,DAX30,_,_,_,_,_,280,PROPN,Npmsl,nmod
286,1685-1687,biti,_,_,_,_,_,293,AUX,Va-r3s-n,aux
287,1688-1689,v,_,_,_,_,_,289,ADP,Sa,case
288,1690-1700,ponedeljek,_,_,_,_,_,293,NOUN,Ncmsan,obl
289,1701-1707,četrti,_,_,_,_,_,291,ADJ,Mlomsa,amod
290,1708-1711,dan,_,_,_,_,_,293,NOUN,Ncmsan,obl
291,1712-1719,zapored,_,_,_,_,_,293,ADV,Rgp,advmod
292,1720-1730,pridobivati,_,_,_,_,_,12,VERB,Vmpp-sm,parataxis
293,1731-1732,.,_,_,_,_,_,293,PUNCT,Z,punct
294,1733-1739,zvišati,_,_,_,_,_,293,VERB,Vmep-sm,conj
295,1740-1742,se,_,_,_,_,_,317,PRON,Px------y,expl
296,1743-1745,biti,_,_,_,_,_,295,AUX,Va-r3s-n,aux
297,1746-1748,za,_,_,_,_,_,300,ADP,Sa,case
298,1749-1753,"1,27",_,_,_,_,_,300,NUM,Mdc,nummod
299,1754-1762,odstotek,_,_,_,_,_,295,NOUN,Ncmsg,obl
300,1763-1765,in,_,_,_,_,_,305,CCONJ,Cc,cc
301,1766-1769,pri,_,_,_,_,_,304,ADP,Sl,case
302,1770-1775,6.774,_,_,_,_,_,304,NUM,Mdc,nummod
303,1776-1782,točka,_,_,_,_,_,305,NOUN,Ncfpl,obl
304,1783-1790,doseči,_,_,_,_,_,293,VERB,Vmep-sm,conj
305,1791-1799,visok,_,_,_,_,_,307,ADJ,Agsfsa,amod
306,1800-1805,raven,_,_,_,_,_,305,NOUN,Ncfsa,obj
307,1806-1808,po,_,_,_,_,_,309,ADP,Sl,case
308,1809-1813,maj,_,_,_,_,_,307,NOUN,Ncmsl,nmod
309,1814-1815,.,_,_,_,_,_,293,PUNCT,Z,punct
310,1816-1821,donos,_,_,_,_,_,317,NOUN,Ncmsn,nsubj
311,1822-1829,španski,_,_,_,_,_,314,ADJ,Agpfsg,amod
312,1830-1840,desetleten,_,_,_,_,_,314,ADJ,Agpfsg,amod
313,1841-1850,obveznica,_,_,_,_,_,311,NOUN,Ncfsg,nmod
314,1851-1853,se,_,_,_,_,_,317,PRON,Px------y,expl
315,1854-1856,biti,_,_,_,_,_,317,AUX,Va-r3s-n,aux
316,1857-1863,znižati,_,_,_,_,_,12,VERB,Vmep-sm,parataxis
317,1864-1866,na,_,_,_,_,_,320,ADP,Sa,case
318,1867-1871,"6,65",_,_,_,_,_,320,NUM,Mdc,nummod
319,1872-1880,odstotek,_,_,_,_,_,317,NOUN,Ncmsg,obl
320,1881-1882,.,_,_,_,_,_,317,PUNCT,Z,punct
321,1883-1891,vrednost,_,_,_,_,_,325,NOUN,Ncfsn,nsubj
322,1892-1896,evro,_,_,_,_,_,322,NOUN,Ncmsg,nmod
323,1897-1899,biti,_,_,_,_,_,325,AUX,Va-r3s-n,aux
324,1900-1907,znašati,_,_,_,_,_,317,VERB,Vmpp-sf,conj
325,1908-1913,"1,226",_,_,_,_,_,327,NUM,Mdc,nummod
326,1914-1921,dolar,_,_,_,_,_,325,NOUN,Ncmsg,obl
327,1922-1923,.,_,_,_,_,_,325,PUNCT,Z,punct
328,1924-1933,Frankfurt,ORG,1,*->13-1,*[13],4 - Pozitivno,333,PROPN,Npmsn,nsubj
329,1934-1936,biti,_,_,_,_,_,333,AUX,Va-r3s-n,aux
330,1937-1942,danes,_,_,_,_,_,333,ADV,Rgp,advmod
331,1943-1951,dopoldne,_,_,_,_,_,333,ADV,Rgp,advmod
332,1952-1962,nadaljevati,_,_,_,_,_,325,VERB,Vmpp-sm,advcl
333,1963-1967,rast,_,_,_,_,_,333,NOUN,Ncfsa,obj
334,1968-1969,",",_,_,_,_,_,349,PUNCT,Z,punct
335,1970-1976,čeprav,_,_,_,_,_,349,SCONJ,Cs,mark
336,1977-1979,biti,_,_,_,_,_,349,AUX,Va-r3s-n,aux
337,1980-1986,nemški,_,_,_,_,_,339,ADJ,Agpfsn,amod
338,1987-1994,prodaja,_,_,_,_,_,349,NOUN,Ncfsn,nsubj
339,1995-1997,na,_,_,_,_,_,342,ADP,Sl,case
340,1998-2004,drobno,_,_,_,_,_,342,ADV,Rgp,advmod
341,2005-2011,junij,_,_,_,_,_,344,NOUN,Ncmsg,nmod
342,2012-2013,v,_,_,_,_,_,344,ADP,Sl,case
343,2014-2024,primerjava,_,_,_,_,_,349,NOUN,Ncfsl,obl
344,2025-2026,z,_,_,_,_,_,348,ADP,Si,case
345,2027-2032,isti,_,_,_,_,_,348,DET,Pi-msi,det
346,2033-2040,lanski,_,_,_,_,_,348,ADJ,Agpmsi,amod
347,2041-2048,mesec,_,_,_,_,_,349,NOUN,Ncmsi,obl
348,2049-2057,zdrsniti,_,_,_,_,_,333,VERB,Vmep-sf,advcl
349,2058-2060,za,_,_,_,_,_,352,ADP,Sa,case
350,2061-2064,"2,9",_,_,_,_,_,352,NUM,Mdc,nummod
351,2065-2073,odstotek,_,_,_,_,_,349,NOUN,Ncmsg,obl
352,2074-2075,.,_,_,_,_,_,333,PUNCT,Z,punct
353,2076-2083,začetek,_,_,_,_,_,367,NOUN,Ncmsn,nsubj
354,2084-2093,obravnava,_,_,_,_,_,354,NOUN,Ncfsg,nmod
355,2094-2095,v,_,_,_,_,_,357,ADP,Sl,case
356,2096-2101,spor,_,_,_,_,_,355,NOUN,Ncmsl,nmod
357,2102-2107,Apple,ORG,_,*->3-1,*[3],_,357,PROPN,Npmsn,nmod
358,2108-2109,-,_,_,_,_,_,360,PUNCT,Z,punct
359,2110-2117,Samsung,ORG,_,*->4-1,*[4],_,358,PROPN,Npmsn,conj
360,2118-2119,v,_,_,_,_,_,363,ADP,Sl,case
361,2120-2123,New,LOC[7],0,*->14-1,*[14],3 - Nevtralno[18],363,PROPN,Npmsn,nmod
362,2124-2129,York,LOC[7],0,*->14-1,*[14],3 - Nevtralno[18],358,PROPN,Npmsl,nmod
363,2130-2132,se,_,_,_,_,_,367,PRON,Px------y,expl
364,2133-2135,biti,_,_,_,_,_,367,AUX,Va-r3s-n,aux
365,2136-2141,teden,_,_,_,_,_,367,NOUN,Ncmsan,obl
366,2142-2147,začeti,_,_,_,_,_,12,VERB,Vmep-sm,parataxis
367,2148-2152,brez,_,_,_,_,_,370,ADP,Sg,case
368,2153-2159,velik,_,_,_,_,_,370,ADJ,Agcfpg,amod
369,2160-2168,sprememba,_,_,_,_,_,367,NOUN,Ncfpg,obl
370,2169-2170,",",_,_,_,_,_,385,PUNCT,Z,punct
371,2171-2176,potem,_,_,_,_,_,385,ADV,Rgp,mark
372,2177-2179,ko,_,_,_,_,_,372,SCONJ,Cs,fixed
373,2180-2182,biti,_,_,_,_,_,385,AUX,Va-r3s-n,aux
374,2183-2190,širok,_,_,_,_,_,376,ADJ,Agcmsd,amod
375,2191-2198,indeks,_,_,_,_,_,385,NOUN,Ncmsd,obj
376,2199-2200,z,_,_,_,_,_,378,ADP,Si,case
377,2201-2202,&,_,_,_,_,_,376,NOUN,Ncmsi,nmod
378,2203-2204,P,_,_,_,_,_,378,NOUN,Ncmsn,nmod
379,2205-2208,500,_,_,_,_,_,379,NUM,Mdc,nummod
380,2209-2210,v,_,_,_,_,_,382,ADP,Sa,case
381,2211-2218,četrtek,_,_,_,_,_,385,NOUN,Ncmsan,obl
382,2219-2221,in,_,_,_,_,_,384,CCONJ,Cc,cc
383,2222-2227,petek,_,_,_,_,_,382,NOUN,Ncmsan,conj
384,2228-2234,uspeti,_,_,_,_,_,367,VERB,Vmep-sf,advcl
385,2235-2243,velik,_,_,_,_,_,389,ADJ,Agsfsn,amod
386,2244-2252,letošnji,_,_,_,_,_,389,ADJ,Agpfsn,amod
387,2253-2262,dvodneven,_,_,_,_,_,389,ADJ,Agpfsn,amod
388,2263-2267,rast,_,_,_,_,_,385,NOUN,Ncfsn,nsubj
389,2268-2269,+,_,_,_,_,_,389,NOUN,Ncmsn,nmod
390,2270-2273,"3,6",_,_,_,_,_,392,NUM,Mdc,nummod
391,2274-2282,odstotek,_,_,_,_,_,389,NOUN,Ncmsg,nmod
392,2283-2284,.,_,_,_,_,_,385,PUNCT,Z,punct
393,2285-2292,Applov,ORG,_,*->3-2,*[3],_,395,ADJ,Aspfsn,amod
394,2293-2300,delnica,_,_,_,_,_,398,NOUN,Ncfpn,nsubj
395,2301-2303,biti,_,_,_,_,_,398,AUX,Va-r3p-n,aux
396,2304-2306,se,_,_,_,_,_,398,PRON,Px------y,expl
397,2307-2316,podražiti,_,_,_,_,_,12,VERB,Vmep-pf,parataxis
398,2317-2319,za,_,_,_,_,_,401,ADP,Sa,case
399,2320-2323,"1,7",_,_,_,_,_,401,NUM,Mdc,nummod
400,2324-2332,odstotek,_,_,_,_,_,398,NOUN,Ncmsg,obl
401,2333-2335,na,_,_,_,_,_,404,ADP,Sa,case
402,2336-2339,595,_,_,_,_,_,404,NUM,Mdc,nummod
403,2340-2348,dolar,_,_,_,_,_,401,NOUN,Ncmpg,nmod
404,2349-2350,.,_,_,_,_,_,398,PUNCT,Z,punct
405,2351-2353,na,_,_,_,_,_,407,ADP,Sl,case
406,2354-2361,sodišče,_,_,_,_,_,413,NOUN,Ncnsl,obl
407,2362-2363,v,_,_,_,_,_,410,ADP,Sl,case
408,2364-2367,San,LOC[8],0,*->15-1,*[15],3 - Nevtralno[19],410,PROPN,Npmsl,nmod
409,2368-2374,Josej,LOC[8],0,*->15-1,*[15],3 - Nevtralno[19],407,PROPN,Npmsl,nmod
410,2375-2377,se,_,_,_,_,_,413,PRON,Px------y,expl
411,2378-2380,biti,_,_,_,_,_,413,AUX,Va-r3s-n,aux
412,2381-2387,začeti,_,_,_,_,_,12,VERB,Vmep-sf,parataxis
413,2388-2397,obravnava,_,_,_,_,_,413,NOUN,Ncfsn,nsubj
414,2398-2399,v,_,_,_,_,_,417,ADP,Sl,case
415,2400-2411,medsebojen,_,_,_,_,_,417,ADJ,Agpfpl,amod
416,2412-2418,tožba,_,_,_,_,_,414,NOUN,Ncfpl,nmod
417,2419-2430,tehnološki,_,_,_,_,_,419,ADJ,Agpmpg,amod
418,2431-2440,velikan,_,_,_,_,_,417,NOUN,Ncmpg,nmod
419,2441-2446,Apple,ORG,_,*->3-3,*[3],_,419,PROPN,Npmsn,nmod
420,2447-2449,in,_,_,_,_,_,422,CCONJ,Cc,cc
421,2450-2457,Samsung,ORG,_,*->4-2,*[4],_,420,PROPN,Npmsn,conj
422,2458-2459,.,_,_,_,_,_,413,PUNCT,Z,punct
423,2460-2465,Apple,ORG,_,*->3-4,*[3],_,425,PROPN,Npmsn,nsubj
424,2466-2470,tožiti,_,_,_,_,_,413,VERB,Vmpr3s,conj
425,2471-2478,Samsung,ORG,_,*->4-3,*[4],_,425,PROPN,Npmsan,obj
426,2479-2480,",",_,_,_,_,_,429,PUNCT,Z,punct
427,2481-2483,da,_,_,_,_,_,429,SCONJ,Cs,mark
428,2484-2490,kopirati,_,_,_,_,_,425,VERB,Vmpr3s,advcl
429,2491-2497,iphona,_,_,_,_,_,429,NOUN,Ncmsan,obj
430,2498-2500,in,_,_,_,_,_,432,CCONJ,Cc,cc
431,2501-2506,ipada,_,_,_,_,_,430,NOUN,Ncmpa,conj
432,2507-2508,",",_,_,_,_,_,429,PUNCT,Z,punct
433,2509-2516,Samsung,ORG,_,*->4-4,*[4],_,436,PROPN,Npmsn,nsubj
434,2517-2519,pa,_,_,_,_,_,436,CCONJ,Cc,advmod
435,2520-2524,trditi,_,_,_,_,_,425,VERB,Vmpr3s,advcl
436,2525-2526,",",_,_,_,_,_,442,PUNCT,Z,punct
437,2527-2529,da,_,_,_,_,_,442,SCONJ,Cs,mark
438,2530-2537,njegov,_,2,*->4-5,*[4],2 - Negativno,441,DET,Ps3fsasm,det
439,2538-2551,intelektualen,_,_,_,_,_,441,ADJ,Agpfsa,amod
440,2552-2560,lastnina,_,_,_,_,_,442,NOUN,Ncfsa,obj
441,2561-2566,krasti,_,_,_,_,_,436,VERB,Vmpr3s,ccomp
442,2567-2572,Apple,ORG,2,*->3-5,*[3],2 - Negativno,442,PROPN,Npmsn,nsubj
443,2573-2574,.,_,_,_,_,_,436,PUNCT,Z,punct
444,2575-2582,Torkov,_,_,_,_,_,446,ADJ,Aspmpn,amod
445,2583-2589,tečaj,_,_,_,_,_,443,NOUN,Ncmpn,conj
446,2590-2596,delnica,_,_,_,_,_,446,NOUN,Ncfpg,nmod
447,2597-2599,na,_,_,_,_,_,449,ADP,Sl,case
448,2600-2602,Lj,ORG[9],0,*->16-1,*[16],3 - Nevtralno[20],447,PROPN,Npmsl,nmod
449,2603-2604,.,ORG[9],0,*->16-1,*[16],3 - Nevtralno[20],12,PUNCT,Z,punct
450,2605-2610,borz,ORG[9],0,*->16-1,*[16],3 - Nevtralno[20],434,NOUN,Ncfsl,nmod
451,2611-2615,nov,ORG[10],_,*->5-1,*[5],_,453,ADJ,Agpfsn,amod
452,2616-2619,KBM,ORG[10],_,*->5-1,*[5],_,446,PROPN,Npfsn,nmod
453,2620-2621,+,_,_,_,_,_,456,PUNCT,Z,punct
454,2622-2626,"6,21",_,_,_,_,_,456,NUM,Mdc,nummod
455,2627-2628,%,_,_,_,_,_,453,NOUN,Ncmsn,appos
456,2629-2634,"1,487",_,_,_,_,_,458,NUM,Mdc,nummod
457,2635-2638,eur,_,_,_,_,_,456,NOUN,Ncmsn,nmod
458,2639-2643,Krka,ORG,_,*->6-1,*[6],_,458,PROPN,Npmsn,nmod
459,2644-2645,+,_,_,_,_,_,458,NOUN,Ncmsn,nmod
460,2646-2650,"0,60",_,_,_,_,_,462,NUM,Mdc,nummod
461,2651-2652,%,_,_,_,_,_,456,NOUN,Ncmsn,nmod
462,2653-2658,"41,85",_,_,_,_,_,462,NUM,Mdc,nummod
463,2659-2667,Mercator,ORG,0,*->17-1,*[17],3 - Nevtralno,462,PROPN,Npmsn,nmod
464,2668-2669,+,_,_,_,_,_,467,PUNCT,Z,punct
465,2670-2674,"0,41",_,_,_,_,_,467,NUM,Mdc,nummod
466,2675-2676,%,_,_,_,_,_,462,NOUN,Ncmsn,nmod
467,2677-2683,"122,00",_,_,_,_,_,467,NUM,Mdc,nummod
468,2684-2691,teleko,ORG,0,*->18-1,*[18],3 - Nevtralno,467,NOUN,Ncmsn,nmod
469,2692-2693,-,_,_,_,_,_,471,PUNCT,Z,punct
470,2694-2698,"0,00",_,_,_,_,_,472,NUM,Mdc,nummod
471,2699-2700,%,_,_,_,_,_,467,NOUN,Ncmsn,nmod
472,2701-2706,"61,50",_,_,_,_,_,474,NUM,Mdc,nummod
473,2707-2714,gorenje,ORG,0,*->19-1,*[19],3 - Nevtralno,472,NOUN,Ncnsn,nmod
474,2715-2716,-,_,_,_,_,_,476,PUNCT,Z,punct
475,2717-2721,"0,00",_,_,_,_,_,477,NUM,Mdc,nummod
476,2722-2723,%,_,_,_,_,_,472,NOUN,Ncmsn,nmod
477,2724-2728,"4,50",_,_,_,_,_,477,NUM,Mdc,nummod
478,2729-2735,petrol,ORG,0,*->20-1,*[20],3 - Nevtralno,477,NOUN,Ncmsn,nmod
479,2736-2737,-,_,_,_,_,_,481,PUNCT,Z,punct
480,2738-2742,"0,09",_,_,_,_,_,482,NUM,Mdc,nummod
481,2743-2744,%,_,_,_,_,_,477,NOUN,Ncmsn,nmod
482,2745-2751,"170,85",_,_,_,_,_,482,NUM,Mdc,nummod
483,2752-2756,LUKA,ORG[11],0,*->21-1,*[21],3 - Nevtralno[21],482,PROPN,Npmsn,nmod
484,2757-2762,Koper,ORG[11]|LOC[12],0,*->21-1|*->22-1,*[21]|*[22],3 - Nevtralno[21]|3 - Nevtralno[22],484,PROPN,Npmsn,nmod
485,2763-2764,-,_,_,_,_,_,488,PUNCT,Z,punct
486,2765-2769,"0,56",_,_,_,_,_,488,NUM,Mdc,nummod
487,2770-2771,%,_,_,_,_,_,482,NOUN,Ncmsn,appos
488,2772-2776,"7,16",_,_,_,_,_,488,NUM,Mdc,nummod
489,2777-2780,ZAV,ORG[13],0,*->23-1,*[23],3 - Nevtralno[23],488,NOUN,Ncmsn,nmod
490,2781-2782,.,ORG[13],0,*->23-1,*[23],3 - Nevtralno[23],482,PUNCT,Z,punct
491,2783-2790,Triglav,ORG[13]|LOC[14],0,*->23-1|*->24-1,*[23]|*[24],3 - Nevtralno[23]|3 - Nevtralno[24],510,PROPN,Npmsn,parataxis
492,2791-2792,-,_,_,_,_,_,494,PUNCT,Z,punct
493,2793-2797,"2,83",_,_,_,_,_,495,NUM,Mdc,nummod
494,2798-2799,%,_,_,_,_,_,510,NOUN,Ncmsn,nsubj
495,2800-2805,"12,00",_,_,_,_,_,495,NUM,Mdc,nummod
496,2806-2810,nov,ORG[15],_,*->5-2,*[5],_,498,ADJ,Agpfsn,amod
497,2811-2814,KBM,ORG[15],_,*->5-2,*[5],_,495,PROPN,Npfsg,nmod
498,2815-2817,ob,_,_,_,_,_,501,ADP,Sl,case
499,2818-2824,nizek,_,_,_,_,_,501,ADJ,Agpmsl,amod
500,2825-2832,promet,_,_,_,_,_,495,NOUN,Ncmsl,nmod
501,2833-2840,navzgor,_,_,_,_,_,510,ADV,Rgp,advmod
502,2841-2847,indeks,_,_,_,_,_,495,NOUN,Ncmsn,nmod
503,2848-2851,SBI,_,_,_,_,_,505,NOUN,Ncmsn,nmod
504,2852-2855,TOP,_,_,_,_,_,507,NOUN,Ncmsn,nmod
505,2856-2859,515,_,_,_,_,_,507,NUM,Mdc,nummod
506,2860-2864,točka,_,_,_,_,_,503,NOUN,Ncfpg,nmod
507,2865-2867,biti,_,_,_,_,_,510,AUX,Va-r3s-n,aux
508,2868-2873,danes,_,_,_,_,_,510,ADV,Rgp,advmod
509,2874-2882,pridobiti,_,_,_,_,_,12,VERB,Vmep-sm,parataxis
510,2883-2887,"0,12",_,_,_,_,_,512,NUM,Mdc,nummod
511,2888-2896,odstotek,_,_,_,_,_,510,NOUN,Ncmsg,obj
512,2897-2898,",",_,_,_,_,_,516,PUNCT,Z,punct
513,2899-2903,tako,_,_,_,_,_,516,CCONJ,Cc,cc
514,2904-2906,da,_,_,_,_,_,514,SCONJ,Cs,fixed
515,2907-2913,ostajati,_,_,_,_,_,510,VERB,Vmpr3s,advcl
516,2914-2917,tik,_,_,_,_,_,521,ADV,Rgp,advmod
517,2918-2921,nad,_,_,_,_,_,521,ADP,Si,case
518,2922-2933,zgodovinski,_,_,_,_,_,521,ADJ,Agpfsi,amod
519,2934-2939,nizek,_,_,_,_,_,521,ADJ,Agpfsi,amod
520,2940-2950,vrednost,_,_,_,_,_,516,NOUN,Ncfsi,obl
521,2951-2952,.,_,_,_,_,_,510,PUNCT,Z,punct
522,2953-2957,nov,ORG[16],_,*->5-3,*[5],_,524,ADJ,Agpfsn,amod
523,2958-2961,KBM,ORG[16],_,*->5-3,*[5],_,530,PROPN,Npfsn,nsubj
524,2962-2964,biti,_,_,_,_,_,530,AUX,Va-r3s-n,aux
525,2965-2967,po,_,_,_,_,_,529,ADP,Sl,case
526,2968-2975,visok,_,_,_,_,_,529,ADJ,Agpmsl,amod
527,2976-2989,ponedeljkov,_,_,_,_,_,529,ADJ,Aspmsl,amod
528,2990-2995,padec,_,_,_,_,_,530,NOUN,Ncmsl,obl
529,2996-3004,okrevati,_,_,_,_,_,516,VERB,Vmpp-sf,conj
530,3005-3007,in,_,_,_,_,_,533,CCONJ,Cc,cc
531,3008-3010,se,_,_,_,_,_,533,PRON,Px------y,expl
532,3011-3019,povzpeti,_,1,*->5-4,*[5],4 - Pozitivno,530,VERB,Vmep-sf,conj
533,3020-3022,do,_,_,_,_,_,536,ADP,Sg,case
534,3023-3027,"1,49",_,_,_,_,_,536,NUM,Mdc,nummod
535,3028-3032,evro,_,_,_,_,_,533,NOUN,Ncmsg,obl
536,3033-3034,.,_,_,_,_,_,530,PUNCT,Z,punct
537,3035-3045,sklenjen,_,_,_,_,_,540,ADJ,Appfpg,nsubj
538,3046-3048,biti,_,_,_,_,_,540,AUX,Va-r3s-n,aux
539,3049-3053,biti,_,_,_,_,_,530,VERB,Va-p-sn,advcl
540,3054-3056,le,_,_,_,_,_,540,PART,Q,advmod
541,3057-3061,šest,_,_,_,_,_,543,NUM,Mlc-pa,nummod
542,3062-3068,posel,_,_,_,_,_,540,NOUN,Ncmpg,nsubj
543,3069-3070,.,_,_,_,_,_,530,PUNCT,Z,punct
544,3071-3085,preprometen,_,_,_,_,_,546,ADJ,Agsfsn,amod
545,3086-3090,Krka,ORG,1,*->6-2,*[6],4 - Pozitivno,540,PROPN,Npfsn,nsubj
546,3091-3097,skoraj,_,_,_,_,_,548,PART,Q,advmod
547,3098-3101,pol,_,_,_,_,_,549,DET,Rgp,det
548,3102-3110,milijon,_,_,_,_,_,554,NOUN,Ncmsg,obj
549,3111-3116,evro,_,_,_,_,_,549,NOUN,Ncmpg,nmod
550,3117-3124,promet,_,_,_,_,_,550,NOUN,Ncmsg,nmod
551,3125-3127,se,_,_,_,_,_,554,PRON,Px------y,expl
552,3128-3130,biti,_,_,_,_,_,554,AUX,Va-r3s-n,aux
553,3131-3137,gibati,_,_,_,_,_,545,VERB,Vmpp-sf,acl
554,3138-3139,v,_,_,_,_,_,557,ADP,Sl,case
555,3140-3145,ozek,_,_,_,_,_,557,ADJ,Agpmsl,amod
556,3146-3150,pas,_,_,_,_,_,554,NOUN,Ncmsl,obl
557,3151-3154,med,_,_,_,_,_,562,ADP,Si,case
558,3155-3159,"41,8",_,_,_,_,_,562,NUM,Mdc,nummod
559,3160-3162,in,_,_,_,_,_,561,CCONJ,Cc,cc
560,3163-3168,"41,94",_,_,_,_,_,559,NUM,Mdc,conj
561,3169-3173,evro,_,_,_,_,_,557,NOUN,Ncmsg,nmod
