idx,chars_idx,token,entity_type,sentiment,idk_1,idk_2,orig_sentiment,heads,upos,xpos,deprel
0,0-2,na,_,_,_,_,_,3,ADP,Sl,case
1,3-13,februarski,_,_,_,_,_,3,ADJ,Agpfsl,amod
2,14-23,skupščina,_,_,_,_,_,16,NOUN,Ncfsl,obl
3,24-32,Telekom,ORG,_,*->4-1,*[4],_,3,PROPN,Npmsg,nmod
4,33-37,tudi,_,_,_,_,_,16,PART,Q,advmod
5,38-39,o,_,_,_,_,_,7,ADP,Sl,case
6,40-49,izplačilo,_,_,_,_,_,16,NOUN,Ncnsl,obl
7,50-58,dividend,_,_,_,_,_,7,NOUN,Ncfpg,nmod
8,59-67,agencija,ORG[1],_,*->1-1,*[1],_,16,NOUN,Ncfsn,nsubj
9,68-70,za,ORG[1],_,*->1-1,*[1],_,11,ADP,Sa,case
10,71-74,trg,ORG[1],_,*->1-1,*[1],_,9,NOUN,Ncmsan,nmod
11,75-86,vrednosten,ORG[1],_,*->1-1,*[1],_,13,ADJ,Agpmpg,amod
12,87-95,papir,ORG[1],_,*->1-1,*[1],_,11,NOUN,Ncmpg,nmod
13,96-98,biti,_,_,_,_,_,16,AUX,Va-r3s-n,aux
14,99-107,prepoved,_,_,_,_,_,16,NOUN,Ncfsa,obj
15,108-116,sprejeti,_,_,_,_,_,0,VERB,Vmep-sf,root
16,117-123,zaradi,_,_,_,_,_,19,ADP,Sg,case
17,124-131,državen,_,_,_,_,_,19,ADJ,Agpfsg,amod
18,132-139,kršitev,_,_,_,_,_,16,NOUN,Ncfsg,obl
19,140-146,zakon,_,_,_,_,_,19,NOUN,Ncmsg,nmod
20,147-148,o,_,_,_,_,_,22,ADP,Sl,case
21,149-158,prevzem,_,_,_,_,_,20,NOUN,Ncmpl,nmod
22,159-160,.,_,_,_,_,_,26,PUNCT,Z,punct
23,161-169,prepoved,_,_,_,_,_,26,NOUN,Ncfsn,nsubj
24,170-172,se,_,_,_,_,_,26,PRON,Px------y,expl
25,173-179,nanašati,_,_,_,_,_,16,VERB,Vmpr3s,parataxis
26,180-182,na,_,_,_,_,_,28,ADP,Sa,case
27,183-196,zavarovalnica,ORG[2],2,*->7-1,*[7],2 - Negativno[32],26,NOUN,Ncfsa,obl
28,197-204,Triglav,ORG[2]|LOC[3],0,*->7-1|*->8-1,*[7]|*[8],2 - Negativno[32]|3 - Nevtralno[33],28,PROPN,Npmsn,nmod
29,205-206,",",_,_,_,_,_,31,PUNCT,Z,punct
30,207-210,Sod,ORG,2,*->9-1,*[9],2 - Negativno,29,PROPN,Npmsn,conj
31,211-212,",",_,_,_,_,_,33,PUNCT,Z,punct
32,213-216,kad,ORG,2,*->10-1,*[10],2 - Negativno,29,NOUN,Ncmsn,conj
33,217-218,",",_,_,_,_,_,35,PUNCT,Z,punct
34,219-223,NKBM,ORG,2,*->11-1,*[11],2 - Negativno,29,PROPN,Npfsn,conj
35,224-225,",",_,_,_,_,_,37,PUNCT,Z,punct
36,226-234,aeroder,ORG[4],2,*->12-1,*[12],2 - Negativno[34],29,NOUN,Ncmsn,conj
37,235-244,Ljubljana,ORG[4]|LOC[5],0,*->12-1|*->13-1,*[12]|*[13],2 - Negativno[34]|3 - Nevtralno[35],37,PROPN,Npfsn,nmod
38,245-247,in,_,_,_,_,_,40,CCONJ,Cc,cc
39,248-253,sklad,ORG[6],2,*->14-1,*[14],2 - Negativno[36],38,NOUN,Ncmsn,conj
40,254-256,za,ORG[6],2,*->14-1,*[14],2 - Negativno[36],42,ADP,Sa,case
41,257-269,financiranje,ORG[6],2,*->14-1,*[14],2 - Negativno[36],40,NOUN,Ncnsa,nmod
42,270-280,razgradnja,ORG[6],2,*->14-1,*[14],2 - Negativno[36],42,NOUN,Ncfsg,nmod
43,281-284,nek,ORG[6]|ORG[7],2,*->14-1|*->15-1,*[14]|*[15],2 - Negativno[36]|2 - Negativno[37],43,ADJ,Agpmsnn,amod
44,285-286,-,_,_,_,_,_,44,PUNCT,Z,punct
45,287-288,a,_,_,_,_,_,44,CCONJ,Cc,cc
46,289-290,.,_,_,_,_,_,49,PUNCT,Z,punct
47,291-294,kot,_,_,_,_,_,49,SCONJ,Cs,mark
48,295-304,ugotavljati,_,_,_,_,_,44,VERB,Vmpr3s,advcl
49,305-309,atvp,ORG,_,*->1-2,*[1],_,49,NOUN,Ncmsn,nsubj
50,310-311,",",_,_,_,_,_,59,PUNCT,Z,punct
51,312-320,omenjen,_,_,_,_,_,53,ADJ,Appmpn,amod
52,321-329,lastnik,_,_,_,_,_,59,NOUN,Ncmpn,nsubj
53,330-338,Telekom,ORG,_,*->4-2,*[4],_,53,PROPN,Npmsg,nmod
54,339-345,skupaj,_,_,_,_,_,59,ADV,Rgp,advmod
55,346-347,z,_,_,_,_,_,57,ADP,Si,case
56,348-352,Luka,ORG[8],_,*->2-1,*[2],_,59,PROPN,Npfsi,obl
57,353-358,Koper,ORG[8]|LOC[9],_,*->2-1|*->3-1,*[2]|*[3],_,57,PROPN,Npmsi,nmod
58,359-367,delovati,_,_,_,_,_,16,VERB,Vmpr3p,parataxis
59,368-377,usklajen,_,_,_,_,_,59,ADJ,Appnsa,obj
60,378-379,.,_,_,_,_,_,59,PUNCT,Z,punct
61,380-389,prevzemen,_,_,_,_,_,63,ADJ,Agpmsay,amod
62,390-394,prag,_,_,_,_,_,65,NOUN,Ncmsan,obj
63,395-397,pa,_,_,_,_,_,65,CCONJ,Cc,advmod
64,398-406,dosegati,_,_,_,_,_,59,VERB,Vmpr3p,conj
65,407-409,in,_,_,_,_,_,67,CCONJ,Cc,cc
66,410-419,presegati,_,_,_,_,_,65,VERB,Vmpr3p,conj
67,420-423,ves,_,_,_,_,_,69,DET,Pg-mpn,det
68,424-432,omenjen,_,_,_,_,_,67,ADJ,Appmpn,nsubj
69,433-434,",",_,_,_,_,_,72,PUNCT,Z,punct
70,435-440,razen,_,_,_,_,_,72,ADP,Sg,case
71,441-445,Luka,ORG[10],0,*->2-2,*[2],3 - Nevtralno[38],69,PROPN,Npfsg,nmod
72,446-451,Koper,ORG[10]|LOC[11],0,*->2-2|*->3-2,*[2]|*[3],3 - Nevtralno[38]|3 - Nevtralno[39],72,PROPN,Npmsn,nmod
73,452-453,.,_,_,_,_,_,72,PUNCT,Z,punct
74,454-460,skupno,_,_,_,_,_,76,ADV,Rgp,advmod
75,461-466,imeti,_,_,_,_,_,16,VERB,Vmpr3p-n,parataxis
76,467-472,"72,86",_,_,_,_,_,78,NUM,Mdc,nummod
77,473-481,odstotek,_,_,_,_,_,76,NOUN,Ncmsg,obj
78,482-488,delnica,_,_,_,_,_,78,NOUN,Ncfpg,nmod
79,489-497,Telekom,ORG[12],_,*->4-3,*[4],_,79,PROPN,Npmsg,nmod
80,498-507,Slovenija,ORG[12]|LOC[13],_,*->4-3|*->5-1,*[4]|*[5],_,80,PROPN,Npfsg,flat:name
81,508-509,.,_,_,_,_,_,85,PUNCT,Z,punct
82,510-513,kot,_,_,_,_,_,85,SCONJ,Cs,mark
83,514-516,biti,_,_,_,_,_,85,AUX,Va-r3p-n,aux
84,517-526,sporočiti,_,_,_,_,_,76,VERB,Vmep-pm,advcl
85,527-529,iz,_,_,_,_,_,87,ADP,Sg,case
86,530-534,ATVP,ORG,0,*->1-3,*[1],3 - Nevtralno,85,PROPN,Npmsn,obl
87,535-536,-,_,_,_,_,_,89,PUNCT,Z,punct
88,537-539,ja,_,_,_,_,_,85,PART,Q,mark
89,540-541,",",_,_,_,_,_,89,PUNCT,Z,punct
90,542-550,prepoved,_,_,_,_,_,95,NOUN,Ncfsn,nsubj
91,551-564,uresničevanje,_,_,_,_,_,91,NOUN,Ncnsg,nmod
92,565-576,glasovalen,_,_,_,_,_,94,ADJ,Agpfpg,amod
93,577-583,pravica,_,_,_,_,_,92,NOUN,Ncfpg,nmod
94,584-589,začeti,_,_,_,_,_,85,VERB,Vmer3s,conj
95,590-597,veljati,_,_,_,_,_,95,VERB,Vmpn,xcomp
96,598-599,z,_,_,_,_,_,98,ADP,Si,case
97,600-604,dan,_,_,_,_,_,96,NOUN,Ncmsi,obl
98,605-616,dokončnost,_,_,_,_,_,98,NOUN,Ncfsg,nmod
99,617-624,odločba,_,_,_,_,_,99,NOUN,Ncfsg,nmod
100,625-627,in,_,_,_,_,_,102,CCONJ,Cc,cc
101,628-633,veljati,_,_,_,_,_,96,VERB,Vmpr3s,conj
102,634-635,",",_,_,_,_,_,112,PUNCT,Z,punct
103,636-642,dokler,_,_,_,_,_,112,SCONJ,Cs,mark
104,643-648,oseba,_,_,_,_,_,112,NOUN,Ncfpn,nsubj
105,649-650,",",_,_,_,_,_,108,PUNCT,Z,punct
106,651-653,ki,_,_,_,_,_,108,SCONJ,Cs,mark
107,654-662,delovati,_,_,_,_,_,105,VERB,Vmpr3p,acl
108,663-672,usklajen,_,_,_,_,_,108,ADJ,Appfsa,obj
109,673-674,",",_,_,_,_,_,108,PUNCT,Z,punct
110,675-677,ne,_,_,_,_,_,112,PART,Q,advmod
111,678-682,dati,_,_,_,_,_,102,VERB,Vmer3p,csubj
112,683-692,prevzemen,_,_,_,_,_,114,ADJ,Agpfsg,amod
113,693-700,ponudba,_,_,_,_,_,112,NOUN,Ncfsg,obj
114,701-703,za,_,_,_,_,_,116,ADP,Sa,case
115,704-711,delnica,_,_,_,_,_,114,NOUN,Ncfpa,nmod
116,712-720,Telekom,ORG[14],_,*->4-4,*[4],_,116,PROPN,Npmsg,nmod
117,721-730,Slovenija,ORG[14]|LOC[15],_,*->4-4|*->5-2,*[4]|*[5],_,117,PROPN,Npfsg,flat:name
118,731-732,",",_,_,_,_,_,108,PUNCT,Z,punct
119,733-740,skladno,_,_,_,_,_,122,ADV,Rgp,advmod
120,741-742,z,_,_,_,_,_,122,ADP,Si,case
121,743-750,zakon,_,_,_,_,_,116,NOUN,Ncmsi,conj
122,751-752,o,_,_,_,_,_,124,ADP,Sl,case
123,753-762,prevzem,_,_,_,_,_,122,NOUN,Ncmpl,nmod
124,763-764,",",_,_,_,_,_,122,PUNCT,Z,punct
125,765-768,ali,_,_,_,_,_,129,CCONJ,Cc,cc
126,769-775,dokler,_,_,_,_,_,129,SCONJ,Cs,mark
127,776-778,ne,_,_,_,_,_,129,PART,Q,advmod
128,779-786,znižati,_,_,_,_,_,112,VERB,Vmer3p,advcl
129,787-798,lastniški,_,_,_,_,_,131,ADJ,Agpmsg,amod
130,799-805,delež,_,_,_,_,_,129,NOUN,Ncmsg,obj
131,806-807,v,_,_,_,_,_,134,ADP,Sl,case
132,808-811,ta,_,_,_,_,_,134,DET,Pd-fsl,det
133,812-818,družba,_,_,*->4-5,*[4],_,131,NOUN,Ncfsl,nmod
134,819-820,",",_,_,_,_,_,143,PUNCT,Z,punct
135,821-825,tako,_,_,_,_,_,143,CCONJ,Cc,cc
136,826-828,da,_,_,_,_,_,136,SCONJ,Cs,fixed
137,829-840,prevzemen,_,_,_,_,_,139,ADJ,Agpmsg,amod
138,841-846,praga,_,_,_,_,_,143,NOUN,Ncmsg,obj
139,847-849,ne,_,_,_,_,_,143,PART,Q,advmod
140,850-854,biti,_,_,_,_,_,143,AUX,Va-f3p-n,aux
141,855-858,več,_,_,_,_,_,143,PART,Q,advmod
142,859-867,dosegati,_,_,_,_,_,129,VERB,Vmpp-pf,advcl
143,868-869,.,_,_,_,_,_,143,PUNCT,Z,punct
144,870-872,na,_,_,_,_,_,147,ADP,Sl,case
145,873-883,februarski,_,_,_,_,_,147,ADJ,Agpfsl,amod
146,884-893,skupščina,_,_,_,_,_,161,NOUN,Ncfsl,obl
147,894-898,tudi,_,_,_,_,_,143,PART,Q,advmod
148,899-900,o,_,_,_,_,_,150,ADP,Sl,case
149,901-910,izplačilo,_,_,_,_,_,143,NOUN,Ncnsl,obl
150,911-919,dividend,_,_,_,_,_,150,NOUN,Ncfpg,nmod
151,920-921,6,_,_,_,_,_,151,NUM,Mdc,nummod
152,922-923,.,_,_,_,_,_,143,PUNCT,Z,punct
153,924-933,februar,_,_,_,_,_,161,NOUN,Ncmsg,obl
154,934-938,biti,_,_,_,_,_,161,AUX,Va-f3p-n,aux
155,939-949,delničar,_,_,_,_,_,161,NOUN,Ncmpn,nsubj
156,950-958,Telekom,ORG[16],_,*->4-6,*[4],_,156,PROPN,Npmsg,nmod
157,959-968,Slovenija,ORG[16]|LOC[17],_,*->4-6|*->5-3,*[4]|*[5],_,157,PROPN,Npfsg,nmod
158,969-971,na,_,_,_,_,_,160,ADP,Sl,case
159,972-981,skupščina,_,_,_,_,_,161,NOUN,Ncfsl,obl
160,982-990,odločati,_,_,_,_,_,16,VERB,Vmpp-pm,parataxis
161,991-992,o,_,_,_,_,_,163,ADP,Sl,case
162,993-999,iztek,_,_,_,_,_,161,NOUN,Ncmsl,obl
163,1000-1007,mandat,_,_,_,_,_,163,NOUN,Ncmsg,nmod
164,1008-1014,šesti,_,_,_,_,_,166,ADJ,Mlompd,amod
165,1015-1021,član,_,_,_,_,_,164,NOUN,Ncmpd,nmod
166,1022-1032,nadzoren,_,_,_,_,_,168,ADJ,Agpmsg,amod
167,1033-1038,svet,_,_,_,_,_,166,NOUN,Ncmsg,nmod
168,1039-1040,",",_,_,_,_,_,170,PUNCT,Z,punct
169,1041-1051,imenovanje,_,_,_,_,_,166,NOUN,Ncnsl,conj
170,1052-1058,šest,_,_,_,_,_,173,NUM,Mlc-pg,nummod
171,1059-1064,nov,_,_,_,_,_,173,ADJ,Agpmpg,amod
172,1065-1071,član,_,_,_,_,_,170,NOUN,Ncmpg,nmod
173,1072-1074,in,_,_,_,_,_,176,CCONJ,Cc,cc
174,1075-1076,o,_,_,_,_,_,176,ADP,Sl,case
175,1077-1086,izplačilo,_,_,_,_,_,170,NOUN,Ncnsl,conj
176,1087-1095,zakonski,_,_,_,_,_,178,ADV,Rgp,advmod
177,1096-1104,visok,_,_,_,_,_,181,ADJ,Agsfsg,amod
178,1105-1114,dovoljen,_,_,_,_,_,181,ADJ,Appfsg,amod
179,1115-1121,vmesen,_,_,_,_,_,181,ADJ,Agpfsg,amod
180,1122-1131,dividenda,_,_,_,_,_,176,NOUN,Ncfsg,nmod
181,1132-1133,.,_,_,_,_,_,161,PUNCT,Z,punct
182,1134-1141,zahteva,_,_,_,_,_,188,NOUN,Ncfsa,obj
183,1142-1144,za,_,_,_,_,_,185,ADP,Sa,case
184,1145-1150,sklic,_,_,_,_,_,183,NOUN,Ncmsan,nmod
185,1151-1160,skupščina,_,_,_,_,_,185,NOUN,Ncfsg,nmod
186,1161-1163,biti,_,_,_,_,_,188,AUX,Va-r3s-n,aux
187,1164-1170,podati,_,_,_,_,_,16,VERB,Vmbp-sf,parataxis
188,1171-1173,še,_,_,_,_,_,188,PART,Q,advmod
189,1174-1182,agencija,ORG[18],_,*->6-1,*[6],_,188,NOUN,Ncfsn,nsubj
190,1183-1185,za,ORG[18],_,*->6-1,*[6],_,192,ADP,Sa,case
191,1186-1197,upravljanje,ORG[18],_,*->6-1,*[6],_,190,NOUN,Ncnsa,nmod
192,1198-1209,kapitalski,ORG[18],_,*->6-1,*[6],_,194,ADJ,Agpfpg,amod
193,1210-1216,naložba,ORG[18],_,*->6-1,*[6],_,192,NOUN,Ncfpg,nmod
194,1217-1223,država,_,_,_,_,_,194,NOUN,Ncfsg,nmod
195,1224-1225,.,_,_,_,_,_,188,PUNCT,Z,punct
196,1226-1230,AUKN,ORG,_,*->6-2,*[6],_,207,PROPN,Npfsn,nsubj
197,1231-1233,biti,_,_,_,_,_,207,AUX,Va-r3s-n,aux
198,1234-1236,do,_,_,_,_,_,200,ADP,Sg,case
199,1237-1248,uveljavitev,_,_,_,_,_,207,NOUN,Ncfsg,obl
200,1249-1255,zakon,_,_,_,_,_,200,NOUN,Ncmsg,nmod
201,1256-1257,o,_,_,_,_,_,205,ADP,Sl,case
202,1258-1268,slovenski,ORG[19],0,*->16-1,*[16],3 - Nevtralno[40],205,ADJ,Agpmsl,amod
203,1269-1277,državen,ORG[19],0,*->16-1,*[16],3 - Nevtralno[40],205,ADJ,Agpmsl,amod
204,1278-1286,holding,ORG[19],0,*->16-1,*[16],3 - Nevtralno[40],201,NOUN,Ncmsl,nmod
205,1287-1293,namreč,_,_,_,_,_,207,CCONJ,Cc,advmod
206,1294-1302,zastopati,_,_,_,_,_,16,VERB,Vmpp-sm,parataxis
207,1303-1309,država,_,_,*->5-4,*[5],_,207,NOUN,Ncfsa,obj
208,1310-1313,kot,_,_,_,_,_,213,SCONJ,Cs,case
209,1314-1319,"62,54",_,0,*->5-5,*[5],3 - Nevtralno[41],212,NUM,Mdc,nummod
210,1320-1321,-,_,0,*->5-5,*[5],3 - Nevtralno[41],212,PUNCT,Z,punct
211,1322-1332,odstoten,_,0,*->5-5,*[5],3 - Nevtralno[41],213,ADJ,Agpmsa,amod
212,1333-1341,lastnik,_,0,*->5-5,*[5],3 - Nevtralno[41],207,NOUN,Ncmsay,obj
213,1342-1350,Telekom,ORG,0,*->5-5|*->4-7,*[5]|*[4],3 - Nevtralno[41],213,PROPN,Npmsg,nmod
214,1351-1352,.,_,_,_,_,_,207,PUNCT,Z,punct
215,1353-1355,po,_,_,_,_,_,217,ADP,Sl,case
216,1356-1364,predlog,_,_,_,_,_,221,NOUN,Ncmsl,obl
217,1365-1367,biti,_,_,_,_,_,221,AUX,Va-c,aux
218,1368-1370,se,_,_,_,_,_,221,PRON,Px------y,expl
219,1371-1380,skupščina,_,_,_,_,_,221,NOUN,Ncfsn,nsubj
220,1381-1390,seznaniti,_,_,_,_,_,16,VERB,Vmep-sf,parataxis
221,1391-1392,z,_,_,_,_,_,223,ADP,Si,case
222,1393-1396,ta,_,_,_,_,_,221,DET,Pd-nsi,obl
223,1397-1398,",",_,_,_,_,_,229,PUNCT,Z,punct
224,1399-1401,da,_,_,_,_,_,229,SCONJ,Cs,mark
225,1402-1404,26,_,_,_,_,_,229,NUM,Mdc,nsubj
226,1405-1406,.,_,_,_,_,_,221,PUNCT,Z,punct
227,1407-1413,april,_,_,_,_,_,229,NOUN,Ncmsg,obl
228,1414-1420,poteči,_,_,_,_,_,221,VERB,Vmer3s,advcl
229,1421-1427,mandat,_,_,_,_,_,229,NOUN,Ncmsn,nsubj
230,1428-1439,predsednik,_,0,*->17-1,*[17],3 - Nevtralno[42],230,NOUN,Ncmsd,nmod
231,1440-1450,nadzoren,_,0,*->17-1,*[17],3 - Nevtralno[42],233,ADJ,Agpmsg,amod
232,1451-1456,svet,_,0,*->17-1,*[17],3 - Nevtralno[42],231,NOUN,Ncmsg,nmod
233,1457-1463,Tomaž,PER[20],0,*->17-1,*[17],3 - Nevtralno[42],233,PROPN,Npmsd,nmod
234,1464-1472,Berginc,PER[20],0,*->17-1,*[17],3 - Nevtralno[42],234,PROPN,Npmsd,flat:name
235,1473-1475,in,_,_,_,_,_,237,CCONJ,Cc,cc
236,1476-1482,član,_,_,_,_,_,234,NOUN,Ncmpd,conj
237,1483-1491,Francij,PER[21],2,*->18-1,*[18],2 - Negativno[43],237,PROPN,Npmsd,nmod
238,1492-1501,Mugerlet,PER[21],2,*->18-1,*[18],2 - Negativno[43],238,PROPN,Npmsd,flat:name
239,1502-1503,",",_,_,_,_,_,241,PUNCT,Z,punct
240,1504-1510,Tomaž,PER[22],2,*->19-1,*[19],2 - Negativno[44],238,PROPN,Npmsd,conj
241,1511-1517,Kalin,PER[22],2,*->19-1,*[19],2 - Negativno[44],241,PROPN,Npmsd,flat:name
242,1518-1519,",",_,_,_,_,_,244,PUNCT,Z,punct
243,1520-1529,Jaroslav,PER[23],2,*->20-1,*[20],2 - Negativno[45],238,PROPN,Npmsd,conj
244,1530-1537,Berce,PER[23],2,*->20-1,*[20],2 - Negativno[45],244,PROPN,Npmsd,flat:name
245,1538-1539,",",_,_,_,_,_,247,PUNCT,Z,punct
246,1540-1545,Mark,PER[24],2,*->21-1,*[21],2 - Negativno[46],234,PROPN,Npmsd,conj
247,1546-1555,Hočevar,PER[24],2,*->21-1,*[21],2 - Negativno[46],247,PROPN,Npmsd,flat:name
248,1556-1558,in,_,_,_,_,_,250,CCONJ,Cc,cc
249,1559-1565,Nataša,PER[25],2,*->22-1,*[22],2 - Negativno[47],234,PROPN,Npmsd,conj
250,1566-1573,Štelcer,PER[25],2,*->22-1,*[22],2 - Negativno[47],250,PROPN,Npmsd,flat:name
251,1574-1575,.,_,_,_,_,_,241,PUNCT,Z,punct
252,1576-1578,za,_,_,_,_,_,255,ADP,Sa,case
253,1579-1589,štirileten,_,_,_,_,_,255,ADJ,Agpmsay,amod
254,1590-1596,mandat,_,_,_,_,_,266,NOUN,Ncmsan,obl
255,1597-1598,",",_,_,_,_,_,259,PUNCT,Z,punct
256,1599-1601,ki,_,_,_,_,_,259,SCONJ,Cs,mark
257,1602-1604,biti,_,_,_,_,_,259,AUX,Va-c,aux
258,1605-1610,začeti,_,_,_,_,_,255,VERB,Vmep-sm,acl
259,1611-1615,teči,_,_,_,_,_,259,VERB,Vmpn,xcomp
260,1616-1618,27,_,_,_,_,_,260,NUM,Mdc,obl
261,1619-1620,.,_,_,_,_,_,255,PUNCT,Z,punct
262,1621-1627,april,_,_,_,_,_,255,NOUN,Ncmsg,nmod
263,1628-1629,",",_,_,_,_,_,259,PUNCT,Z,punct
264,1630-1632,biti,_,_,_,_,_,266,AUX,Va-c,aux
265,1633-1642,imenovati,_,_,_,_,_,16,VERB,Vmbp-pm,parataxis
266,1643-1649,Adolf,PER[26],1,*->23-1,*[23],4 - Pozitivno[48],266,PROPN,Npmsay,obj
267,1650-1656,Zupan,PER[26],1,*->23-1,*[23],4 - Pozitivno[48],267,PROPN,Npmsay,flat:name
268,1657-1658,",",_,_,_,_,_,270,PUNCT,Z,punct
269,1659-1666,Matjaž,PER[27],1,*->24-1,*[24],4 - Pozitivno[49],267,PROPN,Npmsay,conj
270,1667-1672,Janšo,PER[27],1,*->24-1,*[24],4 - Pozitivno[49],270,PROPN,Npmsay,flat:name
271,1673-1674,",",_,_,_,_,_,273,PUNCT,Z,punct
272,1675-1682,Matjaž,PER[28],1,*->25-1,*[25],4 - Pozitivno[50],267,PROPN,Npmsay,conj
273,1683-1692,Savodnik,PER[28],1,*->25-1,*[25],4 - Pozitivno[50],273,PROPN,Npmsay,flat:name
274,1693-1694,",",_,_,_,_,_,276,PUNCT,Z,punct
275,1695-1699,Miho,PER[29],1,*->26-1,*[26],4 - Pozitivno[51],267,PROPN,Npmsay,conj
276,1700-1705,Klun,PER[29],1,*->26-1,*[26],4 - Pozitivno[51],276,PROPN,Npmsay,flat:name
277,1706-1707,",",_,_,_,_,_,279,PUNCT,Z,punct
278,1708-1714,Mateja,PER[30],1,*->27-1,*[27],4 - Pozitivno[52],267,PROPN,Npmsay,conj
279,1715-1721,Kovač,PER[30],1,*->27-1,*[27],4 - Pozitivno[52],279,PROPN,Npmsay,flat:name
280,1722-1724,in,_,_,_,_,_,282,CCONJ,Cc,cc
281,1725-1731,Tomaž,PER[31],1,*->28-1,*[28],4 - Pozitivno[53],267,PROPN,Npmsay,conj
282,1732-1742,Berločnik,PER[31],1,*->28-1,*[28],4 - Pozitivno[53],282,PROPN,Npmsay,flat:name
283,1743-1744,.,_,_,_,_,_,292,PUNCT,Z,punct
284,1745-1748,ker,_,_,_,_,_,292,SCONJ,Cs,mark
285,1749-1751,biti,_,_,_,_,_,292,AUX,Va-r3s-n,aux
286,1752-1754,po,_,_,_,_,_,288,ADP,Sl,case
287,1755-1764,napoved,_,_,_,_,_,292,NOUN,Ncfpl,obl
288,1765-1772,Telekom,ORG,_,*->4-8,*[4],_,290,PROPN,Npmsn,nmod
289,1773-1777,leto,_,_,_,_,_,292,NOUN,Ncnsa,obl
290,1778-1782,2012,_,_,_,_,_,290,NUM,Mdc,nummod
291,1783-1790,skleniti,_,_,_,_,_,299,VERB,Vmep-sm,advcl
292,1791-1792,z,_,_,_,_,_,295,ADP,Si,case
293,1793-1799,čist,_,_,_,_,_,295,ADJ,Agpmsi,amod
294,1800-1808,dobiček,_,_,_,_,_,292,NOUN,Ncmsi,obl
295,1809-1810,",",_,_,_,_,_,292,PUNCT,Z,punct
296,1811-1813,biti,_,_,_,_,_,299,AUX,Va-r3s-n,aux
297,1814-1818,AUKN,ORG,0,*->6-3,*[6],3 - Nevtralno,299,PROPN,Npfsa,obj
298,1819-1828,predlagati,_,_,_,_,_,16,VERB,Vmbp-sm,parataxis
299,1829-1838,izplačilo,_,_,_,_,_,299,NOUN,Ncnsa,obj
300,1839-1845,vmesen,_,_,_,_,_,302,ADJ,Agpfsg,amod
301,1846-1855,dividenda,_,_,_,_,_,300,NOUN,Ncfsg,nmod
302,1856-1857,.,_,_,_,_,_,299,PUNCT,Z,punct
303,1858-1860,po,_,_,_,_,_,305,ADP,Sl,case
304,1861-1868,statut,_,_,_,_,_,309,NOUN,Ncmsl,obl
305,1869-1871,biti,_,_,_,_,_,309,AUX,Va-r3s-n,cop
306,1872-1878,uprava,_,_,_,_,_,309,NOUN,Ncfsn,nsubj
307,1879-1885,družba,_,0,*->4-9,*[4],3 - Nevtralno,307,NOUN,Ncfsg,nmod
308,1886-1897,pooblaščen,_,_,_,_,_,299,ADJ,Appfsn,conj
309,1898-1899,",",_,_,_,_,_,313,PUNCT,Z,punct
310,1900-1902,da,_,_,_,_,_,313,SCONJ,Cs,mark
311,1903-1908,lahko,_,_,_,_,_,313,ADV,Rgp,advmod
312,1909-1918,izplačevati,_,_,_,_,_,309,VERB,Vmpr3s,ccomp
313,1919-1923,tudi,_,_,_,_,_,313,PART,Q,advmod
314,1924-1930,vmesen,_,_,_,_,_,316,ADJ,Agpfpa,amod
315,1931-1940,dividenda,_,_,_,_,_,313,NOUN,Ncfpa,obj
