idx,chars_idx,token,entity_type,sentiment,idk_1,idk_2,orig_sentiment,heads,upos,xpos,deprel
0,0-8,misterij,_,_,_,_,_,22,NOUN,Ncmsn,nsubj
1,9-15,ruski,_,_,_,_,_,3,ADJ,Agpmpg,amod
2,16-27,državljan,_,_,_,_,_,1,NOUN,Ncmpg,nmod
3,28-36,Slovenec,_,_,_,_,_,1,PROPN,Npmpn,nmod
4,37-40,biti,_,_,_,_,_,60,AUX,Va-r1p-n,aux
5,41-46,tisti,_,_,_,_,_,22,DET,Pd-mpn,nsubj
6,47-48,",",_,_,_,_,_,15,PUNCT,Z,punct
7,49-51,ki,_,_,_,_,_,15,SCONJ,Cs,mark
8,52-55,biti,_,_,_,_,_,15,AUX,Va-r1p-n,aux
9,56-59,med,_,_,_,_,_,11,ADP,Si,case
10,60-66,leto,_,_,_,_,_,15,NOUN,Ncndi,obl
11,67-71,2010,_,_,_,_,_,11,NUM,Mdc,nummod
12,72-74,in,_,_,_,_,_,14,CCONJ,Cc,cc
13,75-79,2012,_,_,_,_,_,12,NUM,Mdc,conj
14,80-86,kupiti,_,_,_,_,_,6,VERB,Vmep-pm,acl
15,87-93,največ,_,_,_,_,_,17,DET,Rgs,det
16,94-105,nepremičnina,_,_,_,_,_,15,NOUN,Ncfpg,obj
17,106-108,na,_,_,_,_,_,19,ADP,Sl,case
18,109-117,Hrvaško,LOC,_,*->1-1,*[1],_,17,PROPN,Npnsl,nmod
19,118-119,",",_,_,_,_,_,15,PUNCT,Z,punct
20,120-122,biti,_,_,_,_,_,22,AUX,Va-r3s-n,aux
21,123-131,objaviti,_,_,_,_,_,0,VERB,Vmep-sf,root
22,132-139,hrvaški,_,_,_,_,_,25,ADJ,Agpfsn,amod
23,140-146,davčen,_,_,_,_,_,25,ADJ,Agpfsn,amod
24,147-153,uprava,_,_,_,_,_,22,NOUN,Ncfsn,nsubj
25,154-155,.,_,_,_,_,_,22,PUNCT,Z,punct
26,156-166,državljan,_,_,_,_,_,22,NOUN,Ncmpn,nsubj
27,167-170,Bih,LOC,_,*->2-1,*[2],_,27,PROPN,Npmsn,nmod
28,171-172,-,_,_,_,_,_,33,PUNCT,Z,punct
29,173-174,a,_,_,_,_,_,33,CCONJ,Cc,cc
30,175-177,biti,_,_,_,_,_,33,AUX,Va-r3p-n,aux
31,178-182,lani,_,_,_,_,_,33,ADV,Rgp,advmod
32,183-189,kupiti,_,_,_,_,_,22,VERB,Vmep-pm,conj
33,190-195,ves,_,_,_,_,_,37,DET,Pg-msg,det
34,196-202,skupaj,_,_,_,_,_,33,ADV,Rgp,advmod
35,203-206,pet,_,_,_,_,_,37,NUM,Mlc-pa,nummod
36,207-218,nepremičnina,_,_,_,_,_,33,NOUN,Ncfpg,obj
37,219-221,na,_,_,_,_,_,39,ADP,Sl,case
38,222-230,Hrvaško,LOC,_,*->1-2,*[1],_,37,PROPN,Npnsl,nmod
39,231-232,",",_,_,_,_,_,15,PUNCT,Z,punct
40,233-237,Srb,_,_,_,_,_,44,PROPN,Npmpn,nmod
41,238-240,pa,_,_,_,_,_,44,CCONJ,Cc,cc
42,241-243,le,_,_,_,_,_,44,PART,Q,advmod
43,244-249,štirje,_,_,_,_,_,37,NUM,Mlcfpa,nummod
44,250-251,.,_,_,_,_,_,44,PUNCT,Z,punct
45,252-254,od,_,_,_,_,_,48,ADP,Sg,case
46,255-261,13.883,_,_,_,_,_,48,NUM,Mdc,nummod
47,262-273,nepremičnina,_,_,_,_,_,44,NOUN,Ncfpg,nmod
48,274-275,",",_,_,_,_,_,50,PUNCT,Z,punct
49,276-284,prodan,_,_,_,_,_,48,ADJ,Appmpg,amod
50,285-290,tuj,_,_,_,_,_,52,ADJ,Agpmpd,amod
51,291-302,državljan,_,_,_,_,_,50,NOUN,Ncmpd,obj
52,303-304,v,_,_,_,_,_,56,ADP,Sl,case
53,305-308,ta,_,_,_,_,_,56,DET,Pd-npl,det
54,309-313,trije,_,_,_,_,_,56,NUM,Mlcnpl,nummod
55,314-319,leto,_,_,_,_,_,52,NOUN,Ncnpl,nmod
56,320-321,",",_,_,_,_,_,15,PUNCT,Z,punct
57,322-325,biti,_,_,_,_,_,60,AUX,Va-r1p-n,aux
58,326-334,Slovenec,_,_,_,_,_,60,PROPN,Npmpn,nsubj
59,335-342,postati,_,_,_,_,_,22,VERB,Vmep-pm,parataxis
60,343-351,lastnik,_,_,_,_,_,60,NOUN,Ncmpn,nsubj
61,352-357,5.673,_,_,_,_,_,63,NUM,Mdc,nummod
62,358-369,nepremičnina,_,_,_,_,_,61,NOUN,Ncfpg,nmod
63,370-371,.,_,_,_,_,_,60,PUNCT,Z,punct
64,372-377,daleč,_,_,_,_,_,67,ADV,Rgp,advmod
65,378-380,za,_,_,_,_,_,67,ADP,Si,case
66,381-385,jaz,_,_,_,_,_,69,PRON,Pp1-pi,nmod
67,386-388,biti,_,_,_,_,_,69,AUX,Va-r3p-n,cop
68,389-394,Nemec,_,_,_,_,_,60,PROPN,Npmpn,nsubj
69,395-396,z,_,_,_,_,_,71,ADP,Si,case
70,397-402,1.757,_,_,_,_,_,69,NUM,Mdc,nummod
71,403-404,",",_,_,_,_,_,75,PUNCT,Z,punct
72,405-408,tik,_,_,_,_,_,75,ADV,Rgp,advmod
73,409-411,za,_,_,_,_,_,75,ADP,Si,case
74,412-417,on,_,_,_,_,_,78,PRON,Pp3mpi,nmod
75,418-420,pa,_,_,_,_,_,78,CCONJ,Cc,advmod
76,421-425,nato,_,_,_,_,_,78,ADV,Rgp,advmod
77,426-435,Italijan,_,_,_,_,_,69,PROPN,Npmpn,conj
78,436-437,z,_,_,_,_,_,82,ADP,Si,case
79,438-443,1.574,_,_,_,_,_,82,NUM,Mdc,nummod
80,444-454,kupljen,_,_,_,_,_,82,ADJ,Appfpi,amod
81,455-469,nepremičnina,_,_,_,_,_,78,NOUN,Ncfpi,nmod
82,470-471,.,_,_,_,_,_,75,PUNCT,Z,punct
83,472-478,davčen,ORG[1],0,*->4-1,*[4],3 - Nevtralno[5],85,ADJ,Agpfsn,amod
84,479-485,uprava,ORG[1],0,*->4-1,*[4],3 - Nevtralno[5],87,NOUN,Ncfsn,nsubj
85,486-491,sicer,_,_,_,_,_,87,PART,Q,advmod
86,492-500,poudarjati,_,_,_,_,_,22,VERB,Vmpr3s,parataxis
87,501-502,",",_,_,_,_,_,101,PUNCT,Z,punct
88,503-505,da,_,_,_,_,_,101,SCONJ,Cs,mark
89,506-508,se,_,_,_,_,_,101,PRON,Px------y,expl
90,509-516,število,_,_,_,_,_,101,NOUN,Ncnsn,nsubj
91,517-523,tujec,_,_,_,_,_,91,NOUN,Ncmpg,nmod
92,524-525,",",_,_,_,_,_,96,PUNCT,Z,punct
93,526-528,ki,_,_,_,_,_,96,SCONJ,Cs,mark
94,529-531,biti,_,_,_,_,_,96,AUX,Va-r3p-n,aux
95,532-538,kupiti,_,_,_,_,_,91,VERB,Vmep-pm,acl
96,539-551,nepremičnina,_,_,_,_,_,96,NOUN,Ncfpa,obj
97,552-554,na,_,_,_,_,_,99,ADP,Sl,case
98,555-563,Hrvaško,LOC,_,*->1-3,*[1],_,97,PROPN,Npnsl,nmod
99,564-565,",",_,_,_,_,_,96,PUNCT,Z,punct
100,566-575,zmanjševati,_,_,_,_,_,87,VERB,Vmpr3s,ccomp
101,576-577,.,_,_,_,_,_,101,PUNCT,Z,punct
102,578-582,tako,_,_,_,_,_,110,ADV,Rgp,advmod
103,583-585,biti,_,_,_,_,_,110,AUX,Va-r3p-n,aux
104,586-590,leto,_,_,_,_,_,110,NOUN,Ncnsg,obl
105,591-595,2010,_,_,_,_,_,105,NUM,Mdc,nummod
106,596-600,tuj,_,_,_,_,_,108,ADJ,Agpmpn,amod
107,601-611,državljan,_,_,_,_,_,110,NOUN,Ncmpn,nsubj
108,612-618,skupno,_,_,_,_,_,110,ADV,Rgp,advmod
109,619-625,kupiti,_,_,_,_,_,101,VERB,Vmep-pm,conj
110,626-631,5.445,_,_,_,_,_,112,NUM,Mdc,nummod
111,632-643,nepremičnina,_,_,_,_,_,110,NOUN,Ncfpg,obj
112,644-646,na,_,_,_,_,_,114,ADP,Sl,case
113,647-655,Hrvaško,LOC,_,*->1-4,*[1],_,112,PROPN,Npnsl,nmod
114,656-657,",",_,_,_,_,_,116,PUNCT,Z,punct
115,658-662,leto,_,_,_,_,_,110,NOUN,Ncnsg,obl
116,663-667,2011,_,_,_,_,_,116,NUM,Mdc,nummod
117,668-676,nekoliko,_,_,_,_,_,119,ADV,Rgp,advmod
118,677-681,manj,_,_,_,_,_,112,DET,Rgc,advmod
119,682-683,-,_,_,_,_,_,121,PUNCT,Z,punct
120,684-689,5.087,_,_,_,_,_,117,NUM,Mdc,conj
121,690-691,",",_,_,_,_,_,121,PUNCT,Z,punct
122,692-696,lani,_,_,_,_,_,128,ADV,Rgp,advmod
123,697-699,pa,_,_,_,_,_,123,CCONJ,Cc,advmod
124,700-702,le,_,_,_,_,_,128,PART,Q,advmod
125,703-705,še,_,_,_,_,_,128,PART,Q,advmod
126,706-711,3.351,_,_,_,_,_,128,NUM,Mdc,nummod
127,712-723,nepremičnina,_,_,_,_,_,116,NOUN,Ncfpg,appos
128,724-725,.,_,_,_,_,_,128,PUNCT,Z,punct
129,726-733,podoben,_,_,_,_,_,131,ADJ,Agpnsn,amod
130,734-741,gibanje,_,_,_,_,_,128,NOUN,Ncnsn,nsubj
131,742-744,biti,_,_,_,_,_,130,AUX,Va-r3s-n,cop
132,745-749,tudi,_,_,_,_,_,130,PART,Q,advmod
133,750-753,med,_,_,_,_,_,136,ADP,Si,case
134,754-765,slovenski,_,_,_,_,_,136,ADJ,Agpmpi,amod
135,766-771,kupec,_,_,_,_,_,128,NOUN,Ncmpi,obl
136,772-773,",",_,_,_,_,_,143,PUNCT,Z,punct
137,774-776,ki,_,_,_,_,_,143,SCONJ,Cs,mark
138,777-779,biti,_,_,_,_,_,143,AUX,Va-r3p-n,aux
139,780-782,se,_,_,_,_,_,143,PRON,Px------y,expl
140,783-787,leto,_,_,_,_,_,143,NOUN,Ncnsg,obl
141,788-792,2010,_,_,_,_,_,141,NUM,Mdc,nummod
142,793-801,odločiti,_,_,_,_,_,136,VERB,Vmep-pm,acl
143,802-804,za,_,_,_,_,_,145,ADP,Sa,case
144,805-810,nakup,_,_,_,_,_,143,NOUN,Ncmsan,obl
145,811-816,2.245,_,_,_,_,_,147,NUM,Mdc,nummod
146,817-828,nepremičnina,_,_,_,_,_,145,NOUN,Ncfpg,nmod
147,829-830,",",_,_,_,_,_,143,PUNCT,Z,punct
148,831-835,leto,_,_,_,_,_,150,NOUN,Ncnsa,nmod
149,836-843,pozno,_,_,_,_,_,155,ADV,Rgc,advmod
150,844-846,biti,_,_,_,_,_,155,AUX,Va-r3p-n,aux
151,847-850,kot,_,_,_,_,_,154,SCONJ,Cs,case
152,851-856,svoj,_,_,_,_,_,154,DET,Px-fsa,det
153,857-865,lastnina,_,_,_,_,_,155,NOUN,Ncfsa,obl
154,866-873,vpisati,_,_,_,_,_,143,VERB,Vmep-pm,advcl
155,874-879,2.141,_,_,_,_,_,157,NUM,Mdc,nummod
156,880-891,nepremičnina,_,_,_,_,_,155,NOUN,Ncfpg,obj
157,892-894,na,_,_,_,_,_,159,ADP,Sl,case
158,895-903,Hrvaško,LOC,_,*->1-5,*[1],_,157,PROPN,Npnsl,nmod
159,904-905,",",_,_,_,_,_,155,PUNCT,Z,punct
160,906-910,lani,_,_,_,_,_,172,ADV,Rgp,advmod
161,911-913,pa,_,_,_,_,_,163,CCONJ,Cc,cc
162,914-919,1.287,_,_,_,_,_,161,NUM,Mdc,nummod
163,920-921,.,_,_,_,_,_,155,PUNCT,Z,punct
164,922-927,kljub,_,_,_,_,_,167,ADP,Sd,case
165,928-937,občuten,_,_,_,_,_,167,ADJ,Agpnsd,amod
166,938-946,znižanje,_,_,_,_,_,172,NOUN,Ncnsd,obl
167,947-954,nakup,_,_,_,_,_,167,NOUN,Ncmpg,nmod
168,955-957,biti,_,_,_,_,_,172,AUX,Va-r3p-n,aux
169,958-960,se,_,_,_,_,_,172,PRON,Px------y,expl
170,961-969,Slovenec,_,_,_,_,_,172,PROPN,Npmpn,nsubj
171,970-978,obdržati,_,_,_,_,_,22,VERB,Vmep-pm,parataxis
172,979-981,na,_,_,_,_,_,175,ADP,Sl,case
173,982-987,prvi,_,_,_,_,_,175,ADJ,Mlonsl,amod
174,988-993,mesto,_,_,_,_,_,172,NOUN,Ncnsl,obl
175,994-995,",",_,_,_,_,_,186,PUNCT,Z,punct
176,996-999,ker,_,_,_,_,_,186,SCONJ,Cs,mark
177,1000-1002,biti,_,_,_,_,_,186,AUX,Va-r3p-n,aux
178,1003-1007,tudi,_,_,_,_,_,186,PART,Q,advmod
179,1008-1012,tuj,_,_,_,_,_,181,ADJ,Agpmpn,amod
180,1013-1023,državljan,_,_,_,_,_,186,NOUN,Ncmpn,nsubj
181,1024-1026,iz,_,_,_,_,_,184,ADP,Sg,case
182,1027-1033,drug,_,_,_,_,_,184,ADJ,Mlpfpg,amod
183,1034-1039,država,_,_,_,_,_,186,NOUN,Ncfpg,obl
184,1040-1044,lani,_,_,_,_,_,186,ADV,Rgp,advmod
185,1045-1051,kupiti,_,_,_,_,_,172,VERB,Vmep-pm,advcl
186,1052-1056,manj,_,_,_,_,_,188,DET,Rgc,det
187,1057-1068,nepremičnina,_,_,_,_,_,186,NOUN,Ncfpg,obj
188,1069-1072,kot,_,_,_,_,_,190,SCONJ,Cs,case
189,1073-1077,prej,_,_,_,_,_,188,ADV,Rgc,advmod
190,1078-1079,.,_,_,_,_,_,22,PUNCT,Z,punct
191,1080-1086,Srbija,LOC,0,*->5-1,*[5],3 - Nevtralno,172,PROPN,Npfsn,nsubj
192,1087-1089,in,_,_,_,_,_,194,CCONJ,Cc,cc
193,1090-1093,Bih,LOC,_,*->2-2,*[2],_,192,PROPN,Npmsn,conj
194,1094-1096,le,_,_,_,_,_,192,PART,Q,advmod
195,1097-1098,z,_,_,_,_,_,197,ADP,Si,case
196,1099-1106,peščica,_,_,_,_,_,192,NOUN,Ncfsi,conj
197,1107-1114,nakup,_,_,_,_,_,197,NOUN,Ncmpg,nmod
198,1115-1120,poleg,_,_,_,_,_,203,ADP,Sg,case
199,1121-1135,pogost,_,_,_,_,_,203,ADJ,Agsmpg,amod
200,1136-1144,hrvaški,_,_,_,_,_,203,ADJ,Agpmpg,amod
201,1145-1156,turističen,_,_,_,_,_,203,ADJ,Agpmpg,amod
202,1157-1163,gost,_,_,_,_,_,198,NOUN,Ncmpg,nmod
203,1164-1166,iz,_,_,_,_,_,205,ADP,Sg,case
204,1167-1176,Slovenija,LOC,1,*->6-1,*[6],4 - Pozitivno,203,PROPN,Npfsg,nmod
205,1177-1178,",",_,_,_,_,_,207,PUNCT,Z,punct
206,1179-1186,Nemčija,LOC,1,*->7-1,*[7],4 - Pozitivno,205,PROPN,Npfsg,conj
207,1187-1188,",",_,_,_,_,_,209,PUNCT,Z,punct
208,1189-1196,Italija,LOC,1,*->8-1,*[8],4 - Pozitivno,205,PROPN,Npfsg,conj
209,1197-1198,",",_,_,_,_,_,211,PUNCT,Z,punct
210,1199-1207,Avstrija,LOC,1,*->9-1,*[9],4 - Pozitivno,205,PROPN,Npfsg,conj
211,1208-1210,in,_,_,_,_,_,213,CCONJ,Cc,cc
212,1211-1220,Madžarska,LOC,1,*->10-1,*[10],4 - Pozitivno,205,PROPN,Npfsg,conj
213,1221-1222,",",_,_,_,_,_,228,PUNCT,Z,punct
214,1223-1225,ki,_,_,_,_,_,228,SCONJ,Cs,mark
215,1226-1228,biti,_,_,_,_,_,220,AUX,Va-r3p-n,cop
216,1229-1233,tudi,_,_,_,_,_,220,PART,Q,advmod
217,1234-1237,med,_,_,_,_,_,220,ADP,Si,case
218,1238-1247,vodilen,_,_,_,_,_,220,ADJ,Agpmpi,amod
219,1248-1253,kupec,_,_,_,_,_,228,NOUN,Ncmpi,obl
220,1254-1265,nepremičnina,_,_,_,_,_,220,NOUN,Ncfpg,nmod
221,1266-1268,na,_,_,_,_,_,223,ADP,Sl,case
222,1269-1277,Hrvaško,LOC,_,*->1-6,*[1],_,221,PROPN,Npnsl,nmod
223,1278-1279,",",_,_,_,_,_,186,PUNCT,Z,punct
224,1280-1282,biti,_,_,_,_,_,228,AUX,Va-r3p-n,aux
225,1283-1285,se,_,_,_,_,_,228,PRON,Px------y,expl
226,1286-1292,visoko,_,_,_,_,_,228,ADV,Rgp,advmod
227,1293-1301,uvrstiti,_,_,_,_,_,22,VERB,Vmep-pm,parataxis
228,1302-1307,Šved,_,_,_,_,_,228,PROPN,Npmpn,nsubj
229,1308-1309,",",_,_,_,_,_,234,PUNCT,Z,punct
230,1310-1312,ki,_,_,_,_,_,234,SCONJ,Cs,mark
231,1313-1318,sicer,_,_,_,_,_,234,PART,Q,advmod
232,1319-1321,ne,_,_,_,_,_,234,PART,Q,advmod
233,1322-1331,izstopati,_,_,_,_,_,229,VERB,Vmpr3p,acl
234,1332-1333,z,_,_,_,_,_,237,ADP,Si,case
235,1334-1340,svoj,_,_,_,_,_,237,DET,Px-nsi,det
236,1341-1349,število,_,_,_,_,_,234,NOUN,Ncnsi,obl
237,1350-1353,med,_,_,_,_,_,239,ADP,Si,case
238,1354-1361,turist,_,_,_,_,_,237,NOUN,Ncmpi,nmod
239,1362-1364,na,_,_,_,_,_,241,ADP,Sl,case
240,1365-1373,Hrvaško,LOC,_,*->1-7,*[1],_,239,PROPN,Npnsl,nmod
241,1374-1375,.,_,_,_,_,_,228,PUNCT,Z,punct
242,1376-1381,Šved,_,_,_,_,_,248,PROPN,Npmpn,nsubj
243,1382-1384,biti,_,_,_,_,_,248,AUX,Va-r3p-n,aux
244,1385-1386,v,_,_,_,_,_,247,ADP,Sl,case
245,1387-1391,trije,_,_,_,_,_,247,NUM,Mlcnpl,nummod
246,1392-1397,leto,_,_,_,_,_,248,NOUN,Ncnpl,obl
247,1398-1404,kupiti,_,_,_,_,_,22,VERB,Vmep-pm,parataxis
248,1405-1408,488,_,_,_,_,_,250,NUM,Mdc,nummod
249,1409-1420,nepremičnina,_,_,_,_,_,248,NOUN,Ncfpg,obj
250,1421-1422,",",_,_,_,_,_,253,PUNCT,Z,punct
251,1423-1426,kar,_,_,_,_,_,253,PRON,Pr-nsn,nsubj
252,1427-1429,biti,_,_,_,_,_,250,VERB,Va-r3s-n,acl
253,1430-1433,več,_,_,_,_,_,256,DET,Rgc,advmod
254,1434-1437,kot,_,_,_,_,_,254,SCONJ,Cs,fixed
255,1438-1448,državljan,_,_,_,_,_,253,NOUN,Ncmpn,obl
256,1449-1455,velik,LOC[2],0,*->11-1,*[11],3 - Nevtralno[6],258,ADJ,Agpfsg,amod
257,1456-1465,Britanija,LOC[2],0,*->11-1,*[11],3 - Nevtralno[6],256,PROPN,Npfsg,nmod
258,1466-1467,",",_,_,_,_,_,260,PUNCT,Z,punct
259,1468-1476,Slovaška,LOC,0,*->12-1,*[12],3 - Nevtralno,258,PROPN,Npfsg,conj
260,1477-1478,",",_,_,_,_,_,262,PUNCT,Z,punct
261,1479-1484,Češka,LOC,0,*->13-1,*[13],3 - Nevtralno,258,PROPN,Npfsg,conj
262,1485-1487,in,_,_,_,_,_,264,CCONJ,Cc,cc
263,1488-1496,Francija,LOC,0,*->14-1,*[14],3 - Nevtralno,258,PROPN,Npfsg,conj
264,1497-1498,",",_,_,_,_,_,270,PUNCT,Z,punct
265,1499-1501,ki,_,_,_,_,_,270,SCONJ,Cs,mark
266,1502-1504,biti,_,_,_,_,_,270,AUX,Va-r3p-n,cop
267,1505-1510,sicer,_,_,_,_,_,270,PART,Q,advmod
268,1511-1518,pogost,_,_,_,_,_,270,ADJ,Agpmpn,amod
269,1519-1525,gost,_,_,_,_,_,264,NOUN,Ncmpn,acl
270,1526-1528,na,_,_,_,_,_,272,ADP,Sl,case
271,1529-1537,Hrvaško,LOC,_,*->1-8,*[1],_,270,PROPN,Npnsl,nmod
272,1538-1539,.,_,_,_,_,_,22,PUNCT,Z,punct
273,1540-1550,državljan,_,_,_,_,_,253,NOUN,Ncmpn,nsubj
274,1551-1554,Bih,LOC,0,*->2-3,*[2],3 - Nevtralno,274,PROPN,Npfsn,nmod
275,1555-1556,-,_,_,_,_,_,280,PUNCT,Z,punct
276,1557-1558,a,_,_,_,_,_,280,CCONJ,Cc,cc
277,1559-1561,biti,_,_,_,_,_,280,AUX,Va-r3p-n,aux
278,1562-1566,lani,_,_,_,_,_,280,ADV,Rgp,advmod
279,1567-1573,kupiti,_,_,_,_,_,270,VERB,Vmep-pm,conj
280,1574-1576,le,_,_,_,_,_,280,PART,Q,advmod
281,1577-1580,pet,_,_,_,_,_,283,NUM,Mlc-pa,nummod
282,1581-1592,nepremičnina,_,_,_,_,_,280,NOUN,Ncfpg,obj
283,1593-1595,na,_,_,_,_,_,285,ADP,Sl,case
284,1596-1604,Hrvaško,LOC,_,*->1-9,*[1],_,283,PROPN,Npnsl,nmod
285,1605-1606,",",_,_,_,_,_,291,PUNCT,Z,punct
286,1607-1613,srbski,_,_,_,_,_,288,ADJ,Agpmpn,amod
287,1614-1624,državljan,_,_,_,_,_,291,NOUN,Ncmpn,nmod
288,1625-1627,pa,_,_,_,_,_,291,CCONJ,Cc,cc
289,1628-1630,le,_,_,_,_,_,288,PART,Q,advmod
290,1631-1636,štirje,_,_,_,_,_,283,NUM,Mlcfpa,nummod
291,1637-1638,.,_,_,_,_,_,280,PUNCT,Z,punct
292,1639-1644,sicer,_,_,_,_,_,299,PART,Q,advmod
293,1645-1647,pa,_,_,_,_,_,299,CCONJ,Cc,advmod
294,1648-1651,biti,_,_,_,_,_,299,AUX,Va-r3d-n,aux
295,1652-1655,dva,_,_,_,_,_,297,NUM,Mlcfdn,nummod
296,1656-1668,nepremičnina,_,_,_,_,_,299,NOUN,Ncfdn,nsubj
297,1669-1673,lani,_,_,_,_,_,299,ADV,Rgp,advmod
298,1674-1680,kupiti,_,_,_,_,_,291,VERB,Vmep-dm,acl
299,1681-1685,tudi,_,_,_,_,_,299,PART,Q,advmod
300,1686-1689,dva,_,_,_,_,_,302,NUM,Mlcmda,nummod
301,1690-1695,kupec,_,_,_,_,_,299,NOUN,Ncmda,obj
302,1696-1698,iz,_,_,_,_,_,304,ADP,Sg,case
303,1699-1703,Gane,LOC,0,*->15-1,*[15],3 - Nevtralno,302,PROPN,Npmsg,nmod
304,1704-1705,",",_,_,_,_,_,299,PUNCT,Z,punct
305,1706-1715,posamezen,_,_,_,_,_,307,ADJ,Agpmpn,amod
306,1716-1721,kupec,_,_,_,_,_,302,NOUN,Ncmpn,nsubj
307,1722-1724,biti,_,_,_,_,_,306,AUX,Va-r3p-n,aux
308,1725-1729,biti,_,_,_,_,_,307,AUX,Va-p-pm,cop
309,1730-1734,tudi,_,_,_,_,_,299,PART,Q,advmod
310,1735-1736,z,_,_,_,_,_,313,ADP,Sg,case
311,1737-1741,nov,LOC[3],0,*->16-1,*[16],3 - Nevtralno[7],313,ADJ,Agpfsg,amod
312,1742-1751,Zelandija,LOC[3],0,*->16-1,*[16],3 - Nevtralno[7],302,PROPN,Npfsg,nmod
313,1752-1753,",",_,_,_,_,_,317,PUNCT,Z,punct
314,1754-1756,iz,_,_,_,_,_,317,ADP,Sg,case
315,1757-1765,baltski,_,_,_,_,_,317,ADJ,Agpfpg,amod
316,1766-1771,država,_,_,_,_,_,313,NOUN,Ncfpg,conj
317,1772-1775,ter,_,_,_,_,_,320,CCONJ,Cc,cc
318,1776-1778,iz,_,_,_,_,_,320,ADP,Sg,case
319,1779-1785,Grčija,LOC,0,*->17-1,*[17],3 - Nevtralno,313,PROPN,Npfsg,conj
320,1786-1787,",",_,_,_,_,_,322,PUNCT,Z,punct
321,1788-1797,Bolgarija,LOC,0,*->18-1,*[18],3 - Nevtralno,320,PROPN,Npfsg,conj
322,1798-1800,in,_,_,_,_,_,324,CCONJ,Cc,cc
323,1801-1809,Romunija,LOC,0,*->19-1,*[19],3 - Nevtralno,320,PROPN,Npfsg,conj
324,1810-1811,.,_,_,_,_,_,317,PUNCT,Z,punct
325,1812-1815,kje,_,_,_,_,_,329,ADV,Rgp,advmod
326,1816-1818,pa,_,_,_,_,_,329,CCONJ,Cc,advmod
327,1819-1821,biti,_,_,_,_,_,329,AUX,Va-r3p-n,cop
328,1822-1826,Rus,_,_,_,_,_,320,PROPN,Npmpn,acl
329,1827-1828,?,_,_,_,_,_,317,PUNCT,Z,punct
330,1829-1836,hrvaški,_,0,*->20-1,*[20],3 - Nevtralno[8],332,ADJ,Agpmsny,amod
331,1837-1843,časnik,_,0,*->20-1,*[20],3 - Nevtralno[8],329,NOUN,Ncmsn,conj
332,1844-1852,posloven,ORG[4],0,*->20-1,*[20],3 - Nevtralno[8],334,ADJ,Agpmsny,amod
333,1853-1860,dnevnik,ORG[4],0,*->20-1,*[20],3 - Nevtralno[8],332,NOUN,Ncmsn,nmod
334,1861-1863,pa,_,_,_,_,_,338,CCONJ,Cc,advmod
335,1864-1867,kot,_,_,_,_,_,337,SCONJ,Cs,case
336,1868-1878,zanimivost,_,_,_,_,_,338,NOUN,Ncfsn,obl
337,1879-1887,poudarjati,_,_,_,_,_,329,VERB,Vmpr3s,acl
338,1888-1889,",",_,_,_,_,_,348,PUNCT,Z,punct
339,1890-1892,da,_,_,_,_,_,348,SCONJ,Cs,mark
340,1893-1896,med,_,_,_,_,_,342,ADP,Si,case
341,1897-1902,kupec,_,_,_,_,_,348,NOUN,Ncmpi,obl
342,1903-1914,nepremičnina,_,_,_,_,_,342,NOUN,Ncfpg,nmod
343,1915-1917,na,_,_,_,_,_,345,ADP,Sl,case
344,1918-1926,Hrvaško,LOC,_,*->1-10,*[1],_,343,PROPN,Npnsl,nmod
345,1927-1931,biti,_,_,_,_,_,348,AUX,Va-r3p-y,cop
346,1932-1940,omenjen,_,_,_,_,_,348,ADJ,Appmpn,amod
347,1941-1951,državljan,_,_,_,_,_,338,NOUN,Ncmpn,ccomp
348,1952-1958,Rusija,LOC,_,*->3-1,*[3],_,348,PROPN,Npfsg,nmod
349,1959-1960,.,_,_,_,_,_,338,PUNCT,Z,punct
350,1961-1964,kot,_,_,_,_,_,352,SCONJ,Cs,mark
351,1965-1975,pojasnjevati,_,_,_,_,_,348,VERB,Vmpr3s,acl
352,1976-1977,",",_,_,_,_,_,352,PUNCT,Z,punct
353,1978-1982,Rus,_,_,_,_,_,356,PROPN,Npmpn,nsubj
354,1983-1992,praviloma,_,_,_,_,_,356,ADV,Rgp,advmod
355,1993-2001,kupovati,_,_,_,_,_,348,VERB,Vmpr3p,acl
356,2002-2014,nepremičnina,_,_,_,_,_,356,NOUN,Ncfpa,obj
357,2015-2019,prek,_,_,_,_,_,359,ADP,Sg,case
358,2020-2028,podjetje,_,_,_,_,_,357,NOUN,Ncnpg,nmod
359,2029-2030,",",_,_,_,_,_,363,PUNCT,Z,punct
360,2031-2033,ki,_,_,_,_,_,363,SCONJ,Cs,mark
361,2034-2037,on,_,_,_,_,_,363,PRON,Pp3mpa--y,obj
362,2038-2046,odpirati,_,_,_,_,_,359,VERB,Vmpr3p,acl
363,2047-2049,na,_,_,_,_,_,365,ADP,Sl,case
364,2050-2058,Hrvaško,LOC,_,*->1-11,*[1],_,363,PROPN,Npnsl,obl
365,2059-2060,.,_,_,_,_,_,356,PUNCT,Z,punct
366,2061-2068,hrvaški,ORG,_,*->1-12,*[1],_,371,PROPN,Npfsn,nsubj
367,2069-2071,in,_,_,_,_,_,369,CCONJ,Cc,cc
368,2072-2078,Rusija,ORG,0,*->3-2,*[3],3 - Nevtralno,367,PROPN,Npfsn,conj
369,2079-2085,namreč,_,_,_,_,_,371,CCONJ,Cc,advmod
370,2086-2092,imeti,_,_,_,_,_,363,VERB,Vmpr3d-y,conj
371,2093-2106,dvostranski,_,_,_,_,_,373,ADJ,Agpmsg,amod
372,2107-2116,sporazum,_,_,_,_,_,371,NOUN,Ncmsg,obj
373,2117-2118,o,_,_,_,_,_,375,ADP,Sl,case
374,2119-2132,recipročnost,_,_,_,_,_,373,NOUN,Ncfsl,nmod
375,2133-2136,pri,_,_,_,_,_,377,ADP,Sl,case
376,2137-2143,nakup,_,_,_,_,_,375,NOUN,Ncmsl,nmod
377,2144-2155,nepremičnina,_,_,_,_,_,377,NOUN,Ncfpg,nmod
378,2156-2157,",",_,_,_,_,_,383,PUNCT,Z,punct
379,2158-2162,zato,_,_,_,_,_,383,CCONJ,Cc,cc
380,2163-2168,ruski,_,_,_,_,_,382,ADJ,Agpmpn,amod
381,2169-2179,državljan,_,_,_,_,_,383,NOUN,Ncmpn,nsubj
382,2180-2191,potrebovati,_,_,_,_,_,371,VERB,Vmpr3p,conj
383,2192-2199,poseben,_,_,_,_,_,385,ADJ,Agpnsa,amod
384,2200-2210,dovoljenje,_,_,_,_,_,383,NOUN,Ncnsa,obj
385,2211-2212,",",_,_,_,_,_,389,PUNCT,Z,punct
386,2213-2215,da,_,_,_,_,_,389,SCONJ,Cs,mark
387,2216-2218,biti,_,_,_,_,_,389,AUX,Va-c,aux
388,2219-2225,kupiti,_,_,_,_,_,385,VERB,Vmep-pm,acl
389,2226-2238,nepremičnina,_,_,_,_,_,389,NOUN,Ncfsa,obj
390,2239-2241,na,_,_,_,_,_,392,ADP,Sl,case
391,2242-2250,Hrvaško,LOC,0,*->1-13,*[1],3 - Nevtralno,390,PROPN,Npnsl,nmod
