idx,chars_idx,token,entity_type,sentiment,idk_1,idk_2,orig_sentiment,heads,upos,xpos,deprel
0,0-5,odziv,_,_,_,_,_,14,NOUN,Ncmsn,parataxis
1,6-8,na,_,_,_,_,_,3,ADP,Sa,case
2,9-18,poročanje,_,_,_,_,_,1,NOUN,Ncnsa,nmod
3,19-22,POP,ORG[1],_,*->12-1,*[12],_,3,PROPN,Npmsn,nmod
4,23-25,TV,ORG[1],_,*->12-1,*[12],_,3,PROPN,Npmsn,nmod
5,26-27,-,_,_,_,_,_,7,PUNCT,Z,punct
6,28-30,ja,_,_,_,_,_,14,PART,Q,advmod
7,31-32,v,_,_,_,_,_,10,ADP,Sl,case
8,33-43,mariborski,ORG[2],_,*->14-1,*[14],_,10,ADJ,Agpfsl,amod
9,44-54,nadškofija,ORG[2],_,*->14-1,*[14],_,14,NOUN,Ncfsl,obl
10,55-57,biti,_,_,_,_,_,14,AUX,Va-r3p-n,aux
11,58-61,kot,_,_,_,_,_,13,SCONJ,Cs,case
12,62-72,neresničen,_,_,_,_,_,14,ADJ,Agpfpn,obl
13,73-81,označiti,_,_,_,_,_,0,VERB,Vmep-pm,root
14,82-89,navedba,_,_,_,_,_,14,NOUN,Ncfpa,obj
15,90-97,medij,_,_,*->12-2,*[12],_,15,NOUN,Ncmpg,nmod
16,98-99,",",_,_,_,_,_,30,PUNCT,Z,punct
17,100-102,da,_,_,_,_,_,30,SCONJ,Cs,mark
18,103-106,naj,_,_,_,_,_,30,PART,Q,advmod
19,107-109,biti,_,_,_,_,_,30,AUX,Va-c,aux
20,110-113,NLB,ORG,_,*->13-1,*[13],_,30,PROPN,Npfsn,nsubj
21,114-120,zaradi,_,_,_,_,_,24,ADP,Sg,case
22,121-130,slamnat,_,_,_,_,_,24,ADJ,Agpnpg,amod
23,131-139,podjetje,_,_,_,_,_,30,NOUN,Ncnpg,obl
24,140-150,nadškofija,_,_,*->14-2,*[14],_,24,NOUN,Ncfsg,nmod
25,151-152,v,_,_,_,_,_,27,ADP,Sl,case
26,153-158,Bosna,LOC[3],_,*->1-1,*[1],_,25,PROPN,Npfsl,nmod
27,159-161,in,LOC[3],_,*->1-1,*[1],_,29,CCONJ,Cc,cc
28,162-173,Hercegovina,LOC[3],_,*->1-1,*[1],_,27,PROPN,Npfsl,conj
29,174-181,izgubiti,_,_,_,_,_,15,VERB,Vmep-sm,acl
30,182-187,sedem,_,_,_,_,_,32,NUM,Mlc-pa,nummod
31,188-197,milijon,_,_,_,_,_,30,NOUN,Ncmpg,obj
32,198-203,evro,_,_,_,_,_,32,NOUN,Ncmpg,nmod
33,204-205,.,_,_,_,_,_,30,PUNCT,Z,punct
34,206-209,POP,ORG[4],_,*->12-3,*[12],_,40,PROPN,Npmsn,nsubj
35,210-212,TV,ORG[4],_,*->12-3,*[12],_,35,PROPN,Npmsn,nmod
36,213-215,biti,_,_,_,_,_,40,AUX,Va-r3s-n,aux
37,216-217,v,_,_,_,_,_,39,ADP,Sa,case
38,218-225,nedelja,_,_,_,_,_,40,NOUN,Ncfsa,obl
39,226-233,poročati,_,_,_,_,_,14,VERB,Vmpp-sm,parataxis
40,234-235,",",_,_,_,_,_,50,PUNCT,Z,punct
41,236-238,da,_,_,_,_,_,50,SCONJ,Cs,mark
42,239-241,biti,_,_,_,_,_,50,AUX,Va-r3s-n,aux
43,242-245,NLB,ORG,_,*->13-2,*[13],_,50,PROPN,Npfsn,nsubj
44,246-250,prek,_,_,_,_,_,47,ADP,Sg,case
45,251-260,slamnat,_,_,_,_,_,47,ADJ,Agpnpg,amod
46,261-269,podjetje,_,_,_,_,_,50,NOUN,Ncnpg,obl
47,270-280,mariborski,_,_,_,_,_,49,ADJ,Agpfsg,amod
48,281-291,nadškofija,_,_,_,_,_,47,NOUN,Ncfsg,nmod
49,292-299,izgubiti,_,_,_,_,_,40,VERB,Vmep-sm,ccomp
50,300-305,sedem,_,_,_,_,_,52,NUM,Mlc-pa,nummod
51,306-315,milijon,_,_,_,_,_,50,NOUN,Ncmpg,obj
52,316-321,evro,_,_,_,_,_,52,NOUN,Ncmpg,nmod
53,322-323,v,_,_,_,_,_,55,ADP,Sl,case
54,324-329,Bosna,LOC[5],0,*->1-2,*[1],3 - Nevtralno[12],53,PROPN,Npfsl,nmod
55,330-332,in,LOC[5],0,*->1-2,*[1],3 - Nevtralno[12],57,CCONJ,Cc,cc
56,333-344,Hercegovina,LOC[5],0,*->1-2,*[1],3 - Nevtralno[12],55,PROPN,Npfsl,conj
57,345-346,.,_,_,_,_,_,50,PUNCT,Z,punct
58,347-349,po,_,_,_,_,_,60,ADP,Sl,case
59,350-359,poročanje,_,_,_,_,_,63,NOUN,Ncnsl,obl
60,360-370,televizija,_,_,*->12-4,*[12],_,60,NOUN,Ncfsg,nmod
61,371-373,ta,_,_,_,_,_,63,DET,Pd-nsa,obj
62,374-384,razkrivati,_,_,_,_,_,14,VERB,Vmpr3p,parataxis
63,385-394,dokument,_,_,_,_,_,63,NOUN,Ncmpn,nsubj
64,395-396,",",_,_,_,_,_,76,PUNCT,Z,punct
65,397-398,v,_,_,_,_,_,67,ADP,Sl,case
66,399-406,kateri,_,_,_,_,_,76,DET,Pq-mpl,obl
67,407-409,biti,_,_,_,_,_,76,AUX,Va-r3s-n,cop
68,410-417,lastnik,_,_,*->3-1,*[3],_,76,NOUN,Ncmsn,nsubj
69,418-426,podjetje,_,0,*->3-1|*->2-1,*[3]|*[2],3 - Nevtralno[13],69,NOUN,Ncnsg,nmod
70,427-431,FORŠ,ORG,0,*->3-1|*->2-1,*[3]|*[2],3 - Nevtralno[13],69,PROPN,Npmsn,nmod
71,432-438,Andrej,PER[6],_,*->3-1,*[3],_,69,PROPN,Npmsn,nmod
72,439-446,Mesarec,PER[6],_,*->3-1,*[3],_,72,PROPN,Npmsn,flat:name
73,447-448,",",_,_,_,_,_,76,PUNCT,Z,punct
74,449-454,sicer,_,_,_,_,_,76,PART,Q,advmod
75,455-463,zaposlen,_,_,_,_,_,64,ADJ,Appmsnn,acl
76,464-466,na,_,_,_,_,_,78,ADP,Sl,case
77,467-477,nadškofija,_,_,*->14-3,*[14],_,76,NOUN,Ncfsl,obl
78,478-479,",",_,_,_,_,_,76,PUNCT,Z,punct
79,480-486,uradno,_,_,_,_,_,81,ADV,Rgp,advmod
80,487-494,potrditi,_,_,_,_,_,63,VERB,Vmep-sm,advcl
81,495-496,",",_,_,_,_,_,88,PUNCT,Z,punct
82,497-499,da,_,_,_,_,_,88,SCONJ,Cs,mark
83,500-502,biti,_,_,_,_,_,88,AUX,Va-r3s-n,aux
84,503-508,svoj,_,_,_,_,_,86,DET,Px-nsa,det
85,509-512,ime,_,_,_,_,_,88,NOUN,Ncnsa,obj
86,513-518,zgolj,_,_,_,_,_,88,PART,Q,advmod
87,519-526,posoditi,_,_,_,_,_,81,VERB,Vmep-sm,ccomp
88,527-529,za,_,_,_,_,_,90,ADP,Sa,case
89,530-540,mahinacija,_,_,_,_,_,88,NOUN,Ncfpa,obl
90,541-543,po,_,_,_,_,_,93,ADP,Sl,case
91,544-548,ves,_,_,_,_,_,93,DET,Pg-msl,det
92,549-554,svet,_,_,_,_,_,90,NOUN,Ncmsl,nmod
93,555-556,.,_,_,_,_,_,88,PUNCT,Z,punct
94,557-564,Mesarec,PER,_,*->3-2,*[3],_,100,PROPN,Npmsn,nsubj
95,565-567,biti,_,_,_,_,_,100,AUX,Va-r3s-n,aux
96,568-575,nedavno,_,_,_,_,_,100,ADV,Rgp,advmod
97,576-584,stečajen,_,_,_,_,_,99,ADJ,Agpfsd,amod
98,585-598,upraviteljica,_,_,_,_,_,100,NOUN,Ncfsd,iobj
99,599-604,podati,_,_,_,_,_,14,VERB,Vmbp-sm,parataxis
100,605-611,izjava,_,_,_,_,_,100,NOUN,Ncfsa,obj
101,612-613,",",_,_,_,_,_,109,PUNCT,Z,punct
102,614-616,da,_,_,_,_,_,109,SCONJ,Cs,mark
103,617-618,o,_,_,_,_,_,105,ADP,Sl,case
104,619-629,poslovanje,_,_,_,_,_,109,NOUN,Ncnsl,obl
105,630-640,stečajen,_,_,_,_,_,107,ADJ,Agpmsg,amod
106,641-649,dolžnik,_,_,_,_,_,105,NOUN,Ncmsg,nmod
107,650-652,ne,_,_,_,_,_,109,PART,Q,advmod
108,653-655,vedeti,_,_,_,_,_,101,VERB,Vmpr3s,acl
109,656-663,nič,_,_,_,_,_,109,PRON,Pz-nsg,obj
110,664-665,",",_,_,_,_,_,109,PUNCT,Z,punct
111,666-669,saj,_,_,_,_,_,119,CCONJ,Cc,cc
112,670-673,naj,_,_,_,_,_,119,PART,Q,advmod
113,674-676,biti,_,_,_,_,_,119,AUX,Va-c,aux
114,677-686,odločitev,_,_,_,_,_,119,NOUN,Ncfpa,obj
115,687-688,o,_,_,_,_,_,117,ADP,Sl,case
116,689-699,poslovanje,_,_,_,_,_,115,NOUN,Ncnsl,nmod
117,700-708,podjetje,_,_,_,_,_,117,NOUN,Ncnsg,nmod
118,709-719,sprejemati,_,_,_,_,_,109,VERB,Vmpp-pm,conj
119,720-725,drug,_,_,_,_,_,119,ADJ,Mlpmpn,nsubj
120,726-727,",",_,_,_,_,_,119,PUNCT,Z,punct
121,728-731,pri,_,_,_,_,_,123,ADP,Sl,case
122,732-735,ta,_,_,_,_,_,126,DET,Pd-nsl,obl
123,736-738,pa,_,_,_,_,_,126,CCONJ,Cc,advmod
124,739-741,biti,_,0,*->3-3,*[3],3 - Nevtralno[14],126,AUX,Va-r3s-n,aux
125,742-748,našti,_,0,*->3-3,*[3],3 - Nevtralno[14],119,VERB,Vmep-sm,conj
126,749-754,oseba,_,_,_,_,_,126,NOUN,Ncfpa,obj
127,755-757,iz,_,_,_,_,_,129,ADP,Sg,case
128,758-763,zvona,ORG,0,*->4-1,*[4],3 - Nevtralno,127,NOUN,Ncmsg,nmod
129,764-765,",",_,_,_,_,_,132,PUNCT,Z,punct
130,766-768,biti,_,_,_,_,_,132,AUX,Va-r3s-n,aux
131,769-776,poročati,_,_,_,_,_,126,VERB,Vmpp-sm,parataxis
132,777-780,POP,ORG[7],_,*->12-5,*[12],_,134,PROPN,Npmsn,nmod
133,781-783,TV,ORG[7],_,*->12-5,*[12],_,127,PROPN,Npmsn,nmod
134,784-785,.,_,_,_,_,_,138,PUNCT,Z,punct
135,786-789,kot,_,_,_,_,_,138,SCONJ,Cs,mark
136,790-792,biti,_,_,_,_,_,138,AUX,Va-r3s-n,aux
137,793-801,poročati,_,_,_,_,_,132,VERB,Vmpp-sf,advcl
138,802-812,televizija,_,0,*->12-6,*[12],3 - Nevtralno,138,NOUN,Ncfsn,nsubj
139,813-814,",",_,_,_,_,_,138,PUNCT,Z,punct
140,815-823,neuradno,_,_,_,_,_,145,ADV,Rgp,advmod
141,824-826,že,_,_,_,_,_,145,PART,Q,advmod
142,827-832,nekaj,_,_,_,_,_,144,DET,Rgp,det
143,833-837,čas,_,_,_,_,_,145,NOUN,Ncmsg,obl
144,838-845,krožiti,_,_,_,_,_,138,VERB,Vmpr3p,conj
145,846-857,informacija,_,_,_,_,_,145,NOUN,Ncfpa,obj
146,858-859,",",_,_,_,_,_,154,PUNCT,Z,punct
147,860-862,da,_,_,_,_,_,154,SCONJ,Cs,mark
148,863-865,biti,_,_,_,_,_,154,AUX,Va-r3p-n,aux
149,866-867,v,_,_,_,_,_,151,ADP,Sl,case
150,868-878,nadškofija,_,_,*->14-4,*[14],_,154,NOUN,Ncfsl,obl
151,879-888,zaposlen,_,_,_,_,_,154,ADJ,Appmpn,nsubj
152,889-898,praktično,_,_,_,_,_,154,ADV,Rgp,advmod
153,899-908,prisiliti,_,_,_,_,_,146,VERB,Vmep-pm,acl
154,909-910,",",_,_,_,_,_,158,PUNCT,Z,punct
155,911-913,da,_,_,_,_,_,158,SCONJ,Cs,mark
156,914-916,biti,_,_,_,_,_,158,AUX,Va-r3p-n,aux
157,917-927,prevzemati,_,_,_,_,_,154,VERB,Vmpp-pm,ccomp
158,928-936,podjetje,_,_,_,_,_,158,NOUN,Ncnpa,obj
159,937-938,.,_,_,_,_,_,158,PUNCT,Z,punct
160,939-942,kot,_,_,_,_,_,174,SCONJ,Cs,mark
161,943-945,biti,_,_,_,_,_,174,AUX,Va-r3p-n,aux
162,946-947,v,_,_,_,_,_,164,ADP,Sl,case
163,948-954,odziv,_,_,_,_,_,174,NOUN,Ncmsl,obl
164,955-956,",",_,_,_,_,_,166,PUNCT,Z,punct
165,957-968,objavljen,_,_,_,_,_,164,ADJ,Appmsl,amod
166,969-971,na,_,_,_,_,_,169,ADP,Sl,case
167,972-979,spleten,_,_,_,_,_,169,ADJ,Agpfsl,amod
168,980-986,stran,_,_,_,_,_,166,NOUN,Ncfsl,obl
169,987-996,slovenski,_,_,_,_,_,172,ADJ,Agpfsg,amod
170,997-1006,škofovski,_,_,_,_,_,172,ADJ,Agpfsg,amod
171,1007-1017,konferenca,_,_,_,_,_,169,NOUN,Ncfsg,nmod
172,1018-1019,",",_,_,_,_,_,166,PUNCT,Z,punct
173,1020-1029,pojasniti,_,_,_,_,_,159,VERB,Vmep-pm,acl
174,1030-1031,v,_,_,_,_,_,177,ADP,Sl,case
175,1032-1042,mariborski,ORG[8],_,*->14-5,*[14],_,177,ADJ,Agpfsl,amod
176,1043-1053,nadškofija,ORG[8],_,*->14-5,*[14],_,174,NOUN,Ncfsl,obl
177,1054-1055,",",_,_,_,_,_,181,PUNCT,Z,punct
178,1056-1065,škofijski,ORG[9],0,*->5-1,*[5],3 - Nevtralno[15],181,ADJ,Agpmsay,amod
179,1066-1077,gospodarski,ORG[9],0,*->5-1,*[5],3 - Nevtralno[15],181,ADJ,Agpmsay,amod
180,1078-1082,svet,ORG[9],0,*->5-1,*[5],3 - Nevtralno[15],174,NOUN,Ncmsan,obj
181,1083-1084,",",_,_,_,_,_,185,PUNCT,Z,punct
182,1085-1093,kateri,_,_,_,_,_,184,DET,Pq-msa,nmod
183,1094-1102,članstvo,_,_,_,_,_,185,NOUN,Ncnsa,obj
184,1103-1114,sestavljati,_,_,_,_,_,181,VERB,Vmpr3p,acl
185,1115-1119,tudi,_,_,_,_,_,185,PART,Q,advmod
186,1120-1126,škofji,_,_,_,_,_,185,ADJ,Agpfpn,nsubj
187,1127-1129,in,_,_,_,_,_,189,CCONJ,Cc,cc
188,1130-1139,duhovnik,_,_,_,_,_,187,NOUN,Ncmpn,conj
189,1140-1141,",",_,_,_,_,_,185,PUNCT,Z,punct
190,1142-1144,biti,_,_,_,_,_,193,AUX,Va-r3s-y,aux
191,1145-1151,nikoli,_,_,_,_,_,193,ADV,Rgp,advmod
192,1152-1162,obravnavati,_,_,_,_,_,174,VERB,Vmpp-sm,advcl
193,1163-1166,ali,_,_,_,_,_,195,CCONJ,Cc,cc
194,1167-1174,potrditi,_,_,_,_,_,193,VERB,Vmep-sm,root
195,1175-1184,izvajanje,_,_,_,_,_,195,NOUN,Ncnsg,obj
196,1185-1195,goljufiv,_,_,_,_,_,199,ADJ,Agpfpg,amod
197,1196-1205,posloven,_,_,_,_,_,199,ADJ,Agpfpg,amod
198,1206-1215,mahinacija,_,_,_,_,_,196,NOUN,Ncfpg,nmod
199,1216-1218,in,_,_,_,_,_,201,CCONJ,Cc,cc
200,1219-1230,malverzacija,_,_,_,_,_,199,NOUN,Ncfpg,conj
201,1231-1233,po,_,_,_,_,_,203,ADP,Sl,case
202,1234-1239,svet,_,_,_,_,_,201,NOUN,Ncmsl,nmod
203,1240-1241,",",_,_,_,_,_,206,PUNCT,Z,punct
204,1242-1253,skrivaški,_,_,_,_,_,206,ADJ,Agpnsg,amod
205,1254-1264,plasiranje,_,_,_,_,_,199,NOUN,Ncnsg,conj
206,1265-1272,denar,_,_,_,_,_,206,NOUN,Ncmsg,nmod
207,1273-1275,po,_,_,_,_,_,210,ADP,Sl,case
208,1276-1281,tuj,_,_,_,_,_,210,ADJ,Agpfpl,amod
209,1282-1288,banka,_,_,_,_,_,207,NOUN,Ncfpl,nmod
210,1289-1290,",",_,_,_,_,_,212,PUNCT,Z,punct
211,1291-1304,prisiljevanje,_,_,_,_,_,210,NOUN,Ncnsg,conj
212,1305-1315,zaposlen,_,_,_,_,_,210,ADJ,Appmpg,amod
213,1316-1317,v,_,_,_,_,_,215,ADP,Sa,case
214,1318-1329,prevzemanje,_,_,_,_,_,213,NOUN,Ncnsa,obl
215,1330-1338,podjetje,_,_,_,_,_,215,NOUN,Ncnpg,nmod
216,1339-1341,in,_,_,_,_,_,218,CCONJ,Cc,cc
217,1342-1349,zloraba,_,_,_,_,_,215,NOUN,Ncfpa,conj
218,1350-1359,evropski,_,_,_,_,_,220,ADJ,Agpnpg,amod
219,1360-1368,sredstvo,_,_,_,_,_,218,NOUN,Ncnpg,nmod
220,1369-1376,oziroma,_,_,_,_,_,222,CCONJ,Cc,cc
221,1377-1386,zavajanje,_,_,_,_,_,220,NOUN,Ncnsg,conj
222,1387-1398,pristojen,_,_,_,_,_,224,ADJ,Agpnsg,amod
223,1399-1410,ministrstvo,_,_,_,_,_,222,NOUN,Ncnsg,nmod
224,1411-1412,.,_,_,_,_,_,14,PUNCT,Z,punct
225,1413-1424,odgovornost,_,_,_,_,_,206,NOUN,Ncfsa,conj
226,1425-1427,na,_,_,_,_,_,230,ADP,Sl,case
227,1428-1437,nadzoren,_,_,_,_,_,230,ADJ,Agpfpl,amod
228,1438-1444,svet,_,_,_,_,_,230,ADJ,Agpfpl,amod
229,1445-1456,odgovornost,_,_,_,_,_,226,NOUN,Ncfsa,nmod
230,1457-1459,za,_,_,_,_,_,235,ADP,Sa,case
231,1460-1468,zakonit,_,_,_,_,_,235,ADJ,Agpnsa,amod
232,1469-1471,in,_,_,_,_,_,234,CCONJ,Cc,cc
233,1472-1482,ekonomičen,_,_,_,_,_,232,ADJ,Agpnsa,conj
234,1483-1494,načrtovanje,_,_,_,_,_,230,NOUN,Ncnsa,nmod
235,1495-1496,",",_,_,_,_,_,237,PUNCT,Z,punct
236,1497-1506,izvajanje,_,_,_,_,_,235,NOUN,Ncnsa,conj
237,1507-1509,in,_,_,_,_,_,239,CCONJ,Cc,cc
238,1510-1522,nadzorovanje,_,_,_,_,_,235,NOUN,Ncnsa,conj
239,1523-1533,posamezen,_,_,_,_,_,241,ADJ,Agpmpg,amod
240,1534-1540,posel,_,_,_,_,_,239,NOUN,Ncmpg,nmod
241,1541-1552,gospodarski,_,_,_,_,_,243,ADJ,Agpfsg,amod
242,1553-1563,dejavnost,_,_,_,_,_,241,NOUN,Ncfsg,nmod
243,1564-1574,nadškofija,_,_,*->14-6,*[14],_,243,NOUN,Ncfsg,nmod
244,1575-1577,biti,_,_,_,_,_,249,AUX,Va-r3s-n,aux
245,1578-1582,tako,_,_,_,_,_,249,ADV,Rgp,advmod
246,1583-1587,biti,_,_,_,_,_,249,AUX,Va-p-sf,cop
247,1588-1593,vedno,_,_,_,_,_,249,ADV,Rgp,advmod
248,1594-1605,postavljen,_,_,_,_,_,14,ADJ,Appfsn,parataxis
249,1606-1608,na,_,_,_,_,_,256,ADP,Sa,case
250,1609-1617,poklicen,_,_,_,_,_,255,ADV,Rgp,advmod
251,1618-1627,imenovan,_,_,_,_,_,251,ADJ,Appmpa,fixed
252,1628-1630,in,_,_,_,_,_,255,CCONJ,Cc,cc
253,1631-1640,strokovno,_,_,_,_,_,255,ADV,Rgp,advmod
254,1641-1653,usposobljen,_,_,_,_,_,256,ADJ,Appmpa,amod
255,1654-1659,član,_,_,_,_,_,249,NOUN,Ncmpa,obl
256,1660-1665,uprava,_,_,_,_,_,256,NOUN,Ncfpg,nmod
257,1666-1668,in,_,_,_,_,_,260,CCONJ,Cc,cc
258,1669-1678,nadzoren,_,_,_,_,_,260,ADJ,Agpmpg,amod
259,1679-1685,svet,_,_,_,_,_,256,NOUN,Ncmpg,conj
260,1686-1697,samostojen,_,_,_,_,_,265,ADJ,Agpfpg,amod
261,1698-1700,in,_,_,_,_,_,263,CCONJ,Cc,cc
262,1701-1711,avtonomen,_,_,_,_,_,261,ADJ,Agpfpg,conj
263,1712-1724,gospodarski,_,_,_,_,_,265,ADJ,Agpfpg,amod
264,1725-1730,družba,_,_,_,_,_,256,NOUN,Ncfpg,conj
265,1731-1738,oziroma,_,_,_,_,_,267,CCONJ,Cc,cc
266,1739-1747,podjetje,_,_,_,_,_,265,NOUN,Ncnpg,conj
267,1748-1749,",",_,_,_,_,_,270,PUNCT,Z,punct
268,1750-1752,biti,_,_,_,_,_,270,AUX,Va-r3p-n,aux
269,1753-1760,navesti,_,_,_,_,_,14,VERB,Vmep-pm,parataxis
270,1761-1762,.,_,_,_,_,_,14,PUNCT,Z,punct
271,1763-1773,sodelovati,_,_,_,_,_,14,VERB,Vmpr3p,parataxis
272,1774-1775,z,_,_,_,_,_,275,ADP,Si,case
273,1776-1787,pristojen,_,_,_,_,_,275,ADJ,Agpmpi,amod
274,1788-1794,organ,_,_,_,_,_,280,NOUN,Ncmpi,obl
275,1795-1797,ob,_,_,_,_,_,277,ADP,Sl,case
276,1798-1801,ta,_,_,_,_,_,275,DET,Pd-nsl,det
277,1802-1804,na,_,_,_,_,_,279,ADP,Sl,case
278,1805-1815,nadškofija,_,_,*->14-7,*[14],_,280,NOUN,Ncfsl,obl
279,1816-1826,poudarjati,_,_,_,_,_,270,VERB,Vmpr3p,conj
280,1827-1828,",",_,_,_,_,_,284,PUNCT,Z,punct
281,1829-1831,da,_,_,_,_,_,284,SCONJ,Cs,mark
282,1832-1839,dejavno,_,_,_,_,_,284,ADV,Rgp,advmod
283,1840-1850,sodelovati,_,_,_,_,_,280,VERB,Vmpr3p,ccomp
284,1851-1852,z,_,_,_,_,_,288,ADP,Si,case
285,1853-1864,pristojen,_,_,_,_,_,288,ADJ,Agpmpi,amod
286,1865-1874,državen,_,_,_,_,_,288,ADJ,Agpmpi,amod
287,1875-1881,organ,_,_,_,_,_,284,NOUN,Ncmpi,obl
288,1882-1885,pri,_,_,_,_,_,290,ADP,Sl,case
289,1886-1897,preverjanje,_,_,_,_,_,288,NOUN,Ncnsl,nmod
290,1898-1909,pravilnost,_,_,_,_,_,290,NOUN,Ncfsg,nmod
291,1910-1912,in,_,_,_,_,_,293,CCONJ,Cc,cc
292,1913-1924,zakonitost,_,_,_,_,_,291,NOUN,Ncfsg,conj
293,1925-1935,poslovanje,_,_,_,_,_,293,NOUN,Ncnsg,nmod
294,1936-1948,gospodarski,_,_,_,_,_,296,ADJ,Agpfpg,amod
295,1949-1954,družba,_,_,_,_,_,294,NOUN,Ncfpg,nmod
296,1955-1957,oz,_,_,_,_,_,296,NOUN,Ncmsg,nmod
297,1958-1959,.,_,_,_,_,_,14,PUNCT,Z,punct
298,1960-1968,podjetje,_,_,_,_,_,280,NOUN,Ncnpg,obj
299,1969-1970,v,_,_,_,_,_,301,ADP,Sl,case
300,1971-1976,last,_,_,_,_,_,299,NOUN,Ncfsl,nmod
301,1977-1983,škof,_,_,_,_,_,301,NOUN,Ncfpg,nmod
302,1984-1986,in,_,_,_,_,_,307,CCONJ,Cc,cc
303,1987-1993,drug,_,_,_,_,_,307,ADJ,Mlpfpg,amod
304,1994-2003,cerkven,_,_,_,_,_,307,ADJ,Agpfpg,amod
305,2004-2011,praven,_,_,_,_,_,307,ADJ,Agpfpg,amod
306,2012-2016,oseba,_,_,_,_,_,302,NOUN,Ncfpg,conj
307,2017-2018,.,_,_,_,_,_,299,PUNCT,Z,punct
308,2019-2025,skupaj,_,_,_,_,_,326,ADV,Rgp,advmod
309,2026-2027,z,_,_,_,_,_,313,ADP,Si,case
310,2028-2039,pristojen,_,_,_,_,_,313,ADJ,Agpmpi,amod
311,2040-2049,državen,_,_,_,_,_,313,ADJ,Agpmpi,amod
312,2050-2056,organ,_,_,_,_,_,316,NOUN,Ncmpi,nmod
313,2057-2059,se,_,_,_,_,_,326,PRON,Px---d--y,expl
314,2060-2064,biti,_,_,_,_,_,326,AUX,Va-f3p-n,aux
315,2065-2077,predstavnik,_,_,_,_,_,272,NOUN,Ncmpn,nsubj
316,2078-2084,cerkev,ORG,2,*->6-1,*[6],2 - Negativno,316,NOUN,Ncfsg,nmod
317,2085-2086,v,_,_,_,_,_,319,ADP,Sl,case
318,2087-2096,Slovenija,LOC,0,*->7-1,*[7],3 - Nevtralno,316,PROPN,Npfsl,nmod
319,2097-2098,",",_,_,_,_,_,322,PUNCT,Z,punct
320,2099-2102,kot,_,_,_,_,_,322,SCONJ,Cs,mark
321,2103-2115,napovedovati,_,_,_,_,_,316,VERB,Vmpr3p,acl
322,2116-2117,",",_,_,_,_,_,322,PUNCT,Z,punct
323,2118-2120,še,_,_,_,_,_,326,PART,Q,advmod
324,2121-2127,naprej,_,_,_,_,_,326,ADV,Rgp,advmod
325,2128-2139,prizadevati,_,_,_,_,_,316,VERB,Vmpp-pm,acl
326,2140-2141,",",_,_,_,_,_,348,PUNCT,Z,punct
327,2142-2144,da,_,_,_,_,_,348,SCONJ,Cs,mark
328,2145-2147,biti,_,_,_,_,_,348,AUX,Va-c,aux
329,2148-2152,biti,_,_,_,_,_,348,AUX,Va-p-pf,cop
330,2153-2162,negativen,_,_,_,_,_,332,ADJ,Agpfpn,amod
331,2163-2172,posledica,_,_,_,_,_,348,NOUN,Ncfpn,nsubj
332,2173-2183,neuspel,_,_,_,_,_,334,ADJ,Agpnsg,amod
333,2184-2194,poslovanje,_,_,_,_,_,332,NOUN,Ncnsg,nmod
334,2195-2207,gospodarski,_,_,_,_,_,336,ADJ,Agpfpg,amod
335,2208-2213,družba,_,_,_,_,_,334,NOUN,Ncfpg,nmod
336,2214-2221,oziroma,_,_,_,_,_,338,CCONJ,Cc,cc
337,2222-2230,podjetje,_,_,_,_,_,336,NOUN,Ncnpg,conj
338,2231-2232,v,_,_,_,_,_,340,ADP,Sl,case
339,2233-2238,last,_,_,_,_,_,334,NOUN,Ncfsl,nmod
340,2239-2245,škof,_,_,_,_,_,340,NOUN,Ncfpg,nmod
341,2246-2248,in,_,_,_,_,_,343,CCONJ,Cc,cc
342,2249-2255,drug,_,_,_,_,_,346,ADJ,Mlpfpg,amod
343,2256-2265,cerkven,_,_,_,_,_,346,ADJ,Agpfpg,amod
344,2266-2273,praven,_,_,_,_,_,346,ADJ,Agpfpg,amod
345,2274-2278,oseba,_,_,_,_,_,341,NOUN,Ncfpg,conj
346,2279-2282,čim,_,_,_,_,_,348,ADV,Rgp,advmod
347,2283-2289,majhen,_,_,_,_,_,326,ADJ,Agcfpn,root
348,2290-2292,in,_,_,_,_,_,355,CCONJ,Cc,cc
349,2293-2296,čim,_,_,_,_,_,352,ADV,Rgp,advmod
350,2297-2301,manj,_,_,_,_,_,352,DET,Rgc,advmod
351,2302-2312,nepravično,_,_,_,_,_,355,ADV,Rgp,advmod
352,2313-2320,oziroma,_,_,_,_,_,354,CCONJ,Cc,cc
353,2321-2334,neenakopravno,_,_,_,_,_,352,ADV,Rgp,conj
354,2335-2347,porazdeljen,_,_,_,_,_,348,ADJ,Appfpn,advcl
355,2348-2350,in,_,_,_,_,_,367,CCONJ,Cc,cc
356,2351-2353,da,_,_,_,_,_,367,SCONJ,Cs,mark
357,2354-2356,se,_,_,_,_,_,367,PRON,Px------y,expl
358,2357-2361,biti,_,_,_,_,_,367,AUX,Va-f3p-n,aux
359,2362-2367,zoper,_,_,_,_,_,363,ADP,Sa,case
360,2368-2377,morebiten,_,_,_,_,_,363,ADJ,Agpfpa,amod
361,2378-2387,odgovoren,_,_,_,_,_,363,ADJ,Agpfpa,amod
362,2388-2393,oseba,_,_,_,_,_,367,NOUN,Ncfpa,obl
363,2394-2395,v,_,_,_,_,_,366,ADP,Sl,case
364,2396-2406,nahkrajen,_,_,_,_,_,366,ADJ,Agsmsl,amod
365,2407-2411,čas,_,_,_,_,_,367,NOUN,Ncmsl,obl
366,2412-2418,začeti,_,_,_,_,_,348,VERB,Vmep-pm,conj
367,2419-2427,postopek,_,_,_,_,_,367,NOUN,Ncmpn,nsubj
368,2428-2440,ugotavljanje,_,_,_,_,_,368,NOUN,Ncnsg,nmod
369,2441-2453,disciplinski,_,_,_,_,_,375,ADJ,Agpfsg,amod
370,2454-2455,",",_,_,_,_,_,372,PUNCT,Z,punct
371,2456-2468,odškodninski,_,_,_,_,_,370,ADJ,Agpfsg,conj
372,2469-2471,in,_,_,_,_,_,374,CCONJ,Cc,cc
373,2472-2480,kazenski,_,_,_,_,_,370,ADJ,Agpfsg,conj
374,2481-2493,odgovornost,_,_,_,_,_,369,NOUN,Ncfsg,nmod
375,2494-2495,.,_,_,_,_,_,14,PUNCT,Z,punct
376,2496-2501,stres,PER,_,*->11-1,*[11],_,378,NOUN,Ncmsn,nsubj
377,2502-2511,seznanjen,_,_,_,_,_,368,ADJ,Appmsnn,amod
378,2512-2514,le,_,_,_,_,_,378,PART,Q,advmod
379,2515-2516,z,_,_,_,_,_,382,ADP,Si,case
380,2517-2524,kroven,_,_,_,_,_,382,ADJ,Agpmsi,amod
381,2525-2534,dogovor,_,_,_,_,_,378,NOUN,Ncmsi,obl
382,2535-2537,na,_,_,_,_,_,384,ADP,Sl,case
383,2538-2548,nadškofija,_,_,*->14-8,*[14],_,382,NOUN,Ncfsl,nmod
384,2549-2551,biti,_,_,_,_,_,387,AUX,Va-r3p-n,aux
385,2552-2557,sicer,_,_,_,_,_,387,PART,Q,advmod
386,2558-2567,pojasniti,_,_,_,_,_,378,VERB,Vmep-pm,conj
387,2568-2570,še,_,_,_,_,_,387,PART,Q,advmod
388,2571-2572,",",_,_,_,_,_,408,PUNCT,Z,punct
389,2573-2575,da,_,_,_,_,_,408,SCONJ,Cs,mark
390,2576-2578,biti,_,_,_,_,_,408,AUX,Va-r3s-n,aux
391,2579-2582,biti,_,_,_,_,_,408,AUX,Va-p-sm,cop
392,2583-2584,v,_,_,_,_,_,394,ADP,Sl,case
393,2585-2593,povezava,_,_,_,_,_,408,NOUN,Ncfsl,obl
394,2594-2595,z,_,_,_,_,_,396,ADP,Si,case
395,2596-2603,zloraba,_,_,_,_,_,394,NOUN,Ncfsi,nmod
396,2604-2613,evropski,_,_,_,_,_,398,ADJ,Agpnpg,amod
397,2614-2622,sredstvo,_,_,_,_,_,396,NOUN,Ncnpg,nmod
398,2623-2625,za,_,_,_,_,_,400,ADP,Sa,case
399,2626-2632,obnova,_,_,_,_,_,396,NOUN,Ncfsa,nmod
400,2633-2639,dvorec,_,0,*->8-1,*[8],3 - Nevtralno[16],400,NOUN,Ncmsg,nmod
401,2640-2647,Betnava,LOC,0,*->8-1,*[8],3 - Nevtralno[16],401,PROPN,Npmsn,nmod
402,2648-2655,tedanji,_,_,*->11-2,*[11],_,404,ADJ,Agpmsny,amod
403,2656-2663,nadškof,_,_,*->11-2,*[11],_,408,NOUN,Ncmsn,nsubj
404,2664-2672,pomočnik,_,_,*->11-2,*[11],_,404,NOUN,Ncmsn,nmod
405,2673-2678,Anton,PER[10],_,*->11-2,*[11],_,405,PROPN,Npmsn,nmod
406,2679-2684,Stres,PER[10],_,*->11-2,*[11],_,406,PROPN,Npmsn,flat:name
407,2685-2694,seznanjen,_,_,_,_,_,387,ADJ,Appmsnn,ccomp
408,2695-2697,le,_,_,_,_,_,408,PART,Q,advmod
409,2698-2699,z,_,_,_,_,_,412,ADP,Si,case
410,2700-2707,kroven,_,_,_,_,_,412,ADJ,Agpmsi,amod
411,2708-2717,dogovor,_,_,_,_,_,408,NOUN,Ncmsi,obl
412,2718-2719,o,_,_,_,_,_,414,ADP,Sl,case
413,2720-2731,sodelovanje,_,_,_,_,_,412,NOUN,Ncnsl,nmod
414,2732-2735,med,_,_,_,_,_,416,ADP,Si,case
415,2736-2746,nadškofija,_,_,*->14-9,*[14],_,414,NOUN,Ncfsi,nmod
416,2747-2754,Maribor,LOC,0,*->14-9|*->9-1,*[14]|*[9],3 - Nevtralno,416,PROPN,Npmsn,nmod
417,2755-2757,in,_,_,_,_,_,419,CCONJ,Cc,cc
418,2758-2766,Vegrad,ORG,0,*->10-1,*[10],3 - Nevtralno,417,PROPN,Npmsi,conj
419,2767-2768,",",_,_,_,_,_,428,PUNCT,Z,punct
420,2769-2771,ki,_,_,_,_,_,428,SCONJ,Cs,mark
421,2772-2774,biti,_,_,_,_,_,428,AUX,Va-r3s-n,cop
422,2775-2776,z,_,_,_,_,_,424,ADP,Sg,case
423,2777-2783,vidik,_,_,_,_,_,428,NOUN,Ncmsg,obl
424,2784-2792,postopek,_,_,_,_,_,424,NOUN,Ncmsg,nmod
425,2793-2795,in,_,_,_,_,_,427,CCONJ,Cc,cc
426,2796-2807,zakonitost,_,_,_,_,_,425,NOUN,Ncfsg,conj
427,2808-2818,neoporečen,_,_,_,_,_,419,ADJ,Agpmsnn,acl
428,2819-2820,.,_,_,_,_,_,408,PUNCT,Z,punct
429,2821-2827,hkrati,_,_,_,_,_,432,ADV,Rgp,advmod
430,2828-2830,biti,_,_,_,_,_,432,AUX,Va-r3p-n,aux
431,2831-2839,zavrniti,_,_,_,_,_,14,VERB,Vmep-pm,parataxis
432,2840-2847,trditev,_,_,_,_,_,432,NOUN,Ncfsa,obj
433,2848-2849,",",_,_,_,_,_,449,PUNCT,Z,punct
434,2850-2852,da,_,_,_,_,_,449,SCONJ,Cs,mark
435,2853-2855,biti,_,_,_,_,_,449,AUX,Va-c,aux
436,2856-2859,biti,_,_,_,_,_,449,AUX,Va-p-sm,cop
437,2860-2861,o,_,_,_,_,_,440,ADP,Sl,case
438,2862-2871,zavesten,_,_,_,_,_,440,ADJ,Agpnsl,amod
439,2872-2881,zavajanje,_,_,_,_,_,449,NOUN,Ncnsl,obl
440,2882-2893,ministrstvo,_,_,_,_,_,440,NOUN,Ncnsg,nmod
441,2894-2895,",",_,_,_,_,_,445,PUNCT,Z,punct
442,2896-2898,da,_,_,_,_,_,445,SCONJ,Cs,mark
443,2899-2901,biti,_,_,_,_,_,445,AUX,Va-c,aux
444,2902-2908,dobiti,_,_,_,_,_,441,VERB,Vmep-pm,acl
445,2909-2917,evropski,_,_,_,_,_,447,ADJ,Agpnpa,amod
446,2918-2926,sredstvo,_,_,_,_,_,445,NOUN,Ncnpa,obj
447,2927-2928,",",_,_,_,_,_,445,PUNCT,Z,punct
448,2929-2937,obveščen,_,_,_,_,_,433,ADJ,Appmsnn,acl
449,2938-2942,tudi,_,_,_,_,_,449,PART,Q,advmod
450,2943-2948,stres,PER,2,*->11-3,*[11],2 - Negativno,449,NOUN,Ncmsn,nsubj
451,2949-2950,.,_,_,_,_,_,449,PUNCT,Z,punct
452,2951-2962,informacija,_,_,_,_,_,449,NOUN,Ncfsn,nsubj
453,2963-2964,",",_,_,_,_,_,458,PUNCT,Z,punct
454,2965-2967,da,_,_,_,_,_,458,SCONJ,Cs,mark
455,2968-2970,biti,_,_,_,_,_,458,AUX,Va-c,aux
456,2971-2973,ta,_,_,_,_,_,458,DET,Pd-nsa,obj
457,2974-2980,trditi,_,_,_,_,_,453,VERB,Vmpp-sf,acl
458,2981-2991,obdolženec,_,_,_,_,_,458,NOUN,Ncmsn,nsubj
459,2992-2994,in,_,_,_,_,_,462,CCONJ,Cc,cc
460,2995-3001,njegov,_,_,_,_,_,462,DET,Ps3msnsm,det
461,3002-3010,odvetnik,_,_,_,_,_,459,NOUN,Ncmsn,conj
462,3011-3012,",",_,_,_,_,_,458,PUNCT,Z,punct
463,3013-3015,biti,_,_,_,_,_,467,AUX,Va-r3s-n,cop
464,3016-3020,prav,_,_,_,_,_,466,PART,Q,advmod
465,3021-3025,tako,_,_,_,_,_,467,ADV,Rgp,advmod
466,3026-3036,neresničen,_,_,_,_,_,458,ADJ,Agpfsn,conj
467,3037-3039,in,_,_,_,_,_,469,CCONJ,Cc,cc
468,3040-3050,zavajajoč,_,_,_,_,_,467,ADJ,Appfsn,conj
469,3051-3052,",",_,_,_,_,_,473,PUNCT,Z,punct
470,3053-3056,kar,_,_,_,_,_,473,PRON,Pr-nsn,nsubj
471,3057-3059,biti,_,_,_,_,_,473,AUX,Va-r3s-n,cop
472,3060-3068,razviden,_,_,_,_,_,467,ADJ,Agpnsn,advcl
473,3069-3071,iz,_,_,_,_,_,475,ADP,Sg,case
474,3072-3081,zapisnik,_,_,_,_,_,473,NOUN,Ncmsg,obl
475,3082-3092,zaslišanje,_,_,_,_,_,475,NOUN,Ncnsg,nmod
476,3093-3094,.,_,_,_,_,_,467,PUNCT,Z,punct
477,3095-3097,na,_,_,_,_,_,479,ADP,Sl,case
478,3098-3108,nadškofija,_,0,*->14-10,*[14],3 - Nevtralno,484,NOUN,Ncfsl,obl
479,3109-3111,biti,_,_,_,_,_,484,AUX,Va-r3p-n,aux
480,3112-3114,ob,_,_,_,_,_,482,ADP,Sl,case
481,3115-3118,ta,_,_,_,_,_,484,DET,Pd-nsl,obl
482,3119-3124,znova,_,_,_,_,_,484,ADV,Rgp,advmod
483,3125-3134,poudariti,_,_,_,_,_,473,VERB,Vmep-pm,conj
484,3135-3136,",",_,_,_,_,_,491,PUNCT,Z,punct
485,3137-3139,da,_,_,_,_,_,491,SCONJ,Cs,mark
486,3140-3146,škofji,_,_,_,_,_,488,ADJ,Agpfpn,amod
487,3147-3157,ordinarija,_,_,_,_,_,491,NOUN,Ncfpn,nsubj
488,3158-3164,nikoli,_,_,_,_,_,491,ADV,Rgp,advmod
489,3165-3169,biti,_,_,_,_,_,491,AUX,Va-r3p-y,aux
490,3170-3178,odrediti,_,_,_,_,_,484,VERB,Vmep-pm,ccomp
491,3179-3182,ali,_,_,_,_,_,495,CCONJ,Cc,cc
492,3183-3188,kadar,_,_,_,_,_,495,SCONJ,Cs,mark
493,3189-3193,koli,_,_,_,_,_,493,PART,Q,fixed
494,3194-3202,odobriti,_,_,_,_,_,491,VERB,Vmep-pm,advcl
495,3203-3211,očitan,_,_,_,_,_,497,ADJ,Appmpg,amod
496,3212-3218,posel,_,_,_,_,_,495,NOUN,Ncmpg,obj
497,3219-3220,",",_,_,_,_,_,502,PUNCT,Z,punct
498,3221-3223,ki,_,_,_,_,_,502,SCONJ,Cs,mark
499,3224-3227,naj,_,_,_,_,_,502,PART,Q,advmod
500,3228-3230,biti,_,_,_,_,_,502,AUX,Va-c,aux
501,3231-3239,privesti,_,_,_,_,_,497,VERB,Vmep-pm,acl
502,3240-3242,do,_,_,_,_,_,504,ADP,Sg,case
503,3243-3254,oškodovanje,_,_,_,_,_,502,NOUN,Ncnsg,obl
504,3255-3259,nov,ORG[11],0,*->13-3,*[13],3 - Nevtralno[17],507,ADJ,Agpfsg,amod
505,3260-3271,ljubljanski,ORG[11],0,*->13-3,*[13],3 - Nevtralno[17],507,ADJ,Agpfsg,amod
506,3272-3277,banka,ORG[11],0,*->13-3,*[13],3 - Nevtralno[17],504,NOUN,Ncfsg,nmod
507,3278-3280,in,_,_,_,_,_,510,CCONJ,Cc,cc
508,3281-3291,nepravilen,_,_,_,_,_,510,ADJ,Agpfsg,amod
509,3292-3298,poraba,_,_,_,_,_,507,NOUN,Ncfsg,conj
510,3299-3308,evropski,_,_,_,_,_,512,ADJ,Agpnpg,amod
511,3309-3317,sredstvo,_,_,_,_,_,510,NOUN,Ncnpg,nmod
