idx,chars_idx,token,entity_type,sentiment,idk_1,idk_2,orig_sentiment,heads,upos,xpos,deprel
0,0-8,guverner,_,_,*->17-1,*[17],_,8,NOUN,Ncmsn,nsubj
1,9-16,Boštjan,PER[1],_,*->17-1,*[17],_,1,PROPN,Npmsn,nmod
2,17-23,Jazbec,PER[1],_,*->17-1,*[17],_,2,PROPN,Npmsn,flat:name
3,24-25,v,_,_,_,_,_,5,ADP,Sl,case
4,26-33,Odmev,_,_,_,_,_,6,PROPN,Npmpl,obl
5,34-40,mogoč,_,_,_,_,_,0,ADJ,Agpnsn,root
6,41-43,se,_,_,_,_,_,8,PRON,Px------y,expl
7,44-47,zdeti,_,_,_,_,_,6,VERB,Vmpr3s,csubj
8,48-49,",",_,_,_,_,_,22,PUNCT,Z,punct
9,50-52,da,_,_,_,_,_,22,SCONJ,Cs,mark
10,53-55,biti,_,_,_,_,_,22,AUX,Va-r3s-n,cop
11,56-65,Slovenija,LOC,_,*->14-1,*[14],_,14,PROPN,Npfsn,nsubj
12,66-74,poskusen,_,_,_,_,_,14,ADJ,Agpmsny,amod
13,75-80,zajec,_,_,_,_,_,8,NOUN,Ncmsn,advcl
14,81-82,",",_,_,_,_,_,22,PUNCT,Z,punct
15,83-84,a,_,_,_,_,_,17,CCONJ,Cc,cc
16,85-90,meniti,_,_,*->17-2,*[17],_,14,VERB,Vmpr1s,conj
17,91-92,",",_,_,_,_,_,22,PUNCT,Z,punct
18,93-95,da,_,_,_,_,_,22,SCONJ,Cs,mark
19,96-98,biti,_,_,_,_,_,22,AUX,Va-r3s-n,cop
20,99-101,ta,_,_,_,_,_,22,DET,Pd-nsn,nsubj
21,102-110,koristen,_,_,_,_,_,17,ADJ,Agpnsn,ccomp
22,111-112,",",_,_,_,_,_,22,PUNCT,Z,punct
23,113-116,saj,_,_,_,_,_,27,CCONJ,Cc,cc
24,117-121,biti,_,_,_,_,_,27,AUX,Va-f1p-n,aux
25,122-127,lahko,_,_,_,_,_,27,ADV,Rgp,advmod
26,128-138,pregledati,_,_,_,_,_,22,VERB,Vmep-pm,conj
27,139-145,stanje,_,_,_,_,_,27,NOUN,Ncnsa,obj
28,146-147,v,_,_,_,_,_,31,ADP,Sl,case
29,148-155,bančen,_,_,_,_,_,31,ADJ,Agpmsl,amod
30,156-163,sistem,_,_,_,_,_,28,NOUN,Ncmsl,nmod
31,164-165,",",_,_,_,_,_,22,PUNCT,Z,punct
32,166-167,o,_,_,_,_,_,34,ADP,Sl,case
33,168-177,reševanje,_,_,_,_,_,40,NOUN,Ncnsl,obl
34,178-182,banka,_,_,_,_,_,34,NOUN,Ncfpg,nmod
35,183-184,v,_,_,_,_,_,38,ADP,Sl,case
36,185-195,slovenski,_,_,_,_,_,38,ADJ,Agpmsl,amod
37,196-203,primer,_,_,_,_,_,40,NOUN,Ncmsl,obl
38,204-209,pravi,_,_,_,_,_,40,ADJ,Agpmsny,amod
39,210-218,guverner,_,_,*->17-3,*[17],_,27,NOUN,Ncmsnn,nsubj
40,219-224,banka,ORG[2],_,*->17-3|*->5-1,*[17]|*[5],_,40,NOUN,Ncfsg,nmod
41,225-234,Slovenija,ORG[2]|LOC[3],_,*->17-3|*->5-1|*->14-2,*[17]|*[5]|*[14],_,41,PROPN,Npfsg,nmod
42,235-236,.,_,_,_,_,_,40,PUNCT,Z,punct
43,237-246,odločitev,_,_,_,_,_,54,NOUN,Ncfsa,obj
44,247-248,o,_,_,_,_,_,47,ADP,Sl,case
45,249-260,nadzorovan,_,_,_,_,_,47,ADJ,Appfsl,amod
46,261-272,likvidacija,_,_,_,_,_,44,NOUN,Ncfsl,nmod
47,273-281,probanka,ORG,0,*->1-1,*[1],3 - Nevtralno,47,NOUN,Ncfsg,nmod
48,282-284,in,_,_,_,_,_,50,CCONJ,Cc,cc
49,285-291,Factor,ORG[4],0,*->2-1,*[2],3 - Nevtralno[17],48,PROPN,Npmsn,conj
50,292-297,banka,ORG[4],0,*->2-1,*[2],3 - Nevtralno[17],48,NOUN,Ncfsg,conj
51,298-299,v,_,_,_,_,_,53,ADP,Sl,case
52,300-311,evroskupina,ORG,_,*->3-1,*[3],_,54,NOUN,Ncfsl,obl
53,312-324,pozdravljati,_,_,_,_,_,40,VERB,Vmpr3p,conj
54,325-326,z,_,_,_,_,_,57,ADP,Si,case
55,327-338,pozitiven,_,_,_,_,_,57,ADJ,Agpnpi,amod
56,339-348,sporočiti,_,_,_,_,_,54,NOUN,Ncnpi,obl
57,349-350,",",_,_,_,_,_,22,PUNCT,Z,punct
58,351-352,a,_,_,_,_,_,61,CCONJ,Cc,cc
59,353-355,ta,_,_,_,_,_,61,DET,Pd-nsn,nsubj
60,356-358,biti,_,_,_,_,_,54,VERB,Va-r3s-n,conj
61,359-361,po,_,_,_,_,_,63,ADP,Sl,case
62,362-368,mnenje,_,_,_,_,_,61,NOUN,Ncnsl,obl
63,369-375,prvi,_,_,_,_,_,65,ADJ,Mlomsg,amod
64,376-380,mož,_,_,_,_,_,63,NOUN,Ncmsg,nmod
65,381-392,evroskupina,ORG,0,*->3-2,*[3],3 - Nevtralno,65,NOUN,Ncfsg,nmod
66,393-397,šele,_,_,_,_,_,68,PART,Q,advmod
67,398-405,začetek,_,_,_,_,_,66,NOUN,Ncmsn,nmod
68,406-407,",",_,_,_,_,_,70,PUNCT,Z,punct
69,408-416,potreben,_,_,_,_,_,68,ADJ,Agpmpn,amod
70,417-419,biti,_,_,_,_,_,70,AUX,Va-r3p-n,cop
71,420-429,nadaljnji,_,_,_,_,_,73,ADJ,Agpmpn,amod
72,430-436,korak,_,_,_,_,_,70,NOUN,Ncmpn,nsubj
73,437-438,.,_,_,_,_,_,70,PUNCT,Z,punct
74,439-440,o,_,_,_,_,_,76,ADP,Sl,case
75,441-444,ta,_,_,_,_,_,54,DET,Pd-nsl,obl
76,445-446,",",_,_,_,_,_,78,PUNCT,Z,punct
77,447-453,kakšen,_,_,_,_,_,76,DET,Pq-mpn,acl
78,454-458,biti,_,_,_,_,_,78,AUX,Va-f3p-n,cop
79,459-460,",",_,_,_,_,_,78,PUNCT,Z,punct
80,461-463,se,_,_,_,_,_,89,PRON,Px------y,expl
81,464-466,biti,_,_,_,_,_,89,AUX,Va-r3s-n,aux
82,467-471,Igor,PER[5],0,*->4-1,*[4],3 - Nevtralno[18],89,PROPN,Npmsn,nsubj
83,472-473,E,PER[5],0,*->4-1,*[4],3 - Nevtralno[18],83,PROPN,Npmsn,flat:name
84,474-475,.,PER[5],0,*->4-1,*[4],3 - Nevtralno[18],70,PUNCT,Z,punct
85,476-483,Bergant,PER[5],0,*->4-1,*[4],3 - Nevtralno[18],83,PROPN,Npmsn,conj
86,484-485,v,_,_,_,_,_,88,ADP,Sl,case
87,486-493,Odmev,_,_,_,_,_,89,PROPN,Npmpl,obl
88,494-504,pogovarjati,_,_,_,_,_,6,VERB,Vmpp-sm,parataxis
89,505-506,z,_,_,_,_,_,91,ADP,Si,case
90,507-518,guverner,_,_,*->17-4,*[17],_,89,NOUN,Ncmsi,obl
91,519-524,banka,ORG[6],0,*->17-4|*->5-2,*[17]|*[5],3 - Nevtralno[19],91,NOUN,Ncfsg,nmod
92,525-534,Slovenija,ORG[6]|LOC[7],0,*->17-4|*->5-2|*->14-3,*[17]|*[5]|*[14],3 - Nevtralno[19],92,PROPN,Npfsg,nmod
93,535-544,Boštjan,PER[8],_,*->17-4,*[17],_,92,PROPN,Npmsi,nmod
94,545-553,Jazbec,PER[8],_,*->17-4,*[17],_,94,PROPN,Npmsi,flat:name
95,554-555,.,_,_,_,_,_,89,PUNCT,Z,punct
96,556-565,Slovenija,LOC,_,*->14-4,*[14],_,94,PROPN,Npfsn,nmod
97,566-567,v,_,_,_,_,_,99,ADP,Sl,case
98,568-573,Vilna,LOC,_,*->16-1,*[16],_,97,PROPN,Npfsl,nmod
99,574-578,vsaj,_,_,_,_,_,101,PART,Q,advmod
100,579-585,uradno,_,_,_,_,_,106,ADV,Rgp,advmod
101,586-588,biti,_,_,_,_,_,101,AUX,Va-r3s-y,aux
102,589-593,biti,_,_,_,_,_,129,AUX,Va-p-sf,aux
103,594-597,med,_,_,_,_,_,106,ADP,Si,case
104,598-606,glaven,_,_,_,_,_,106,ADJ,Agpfpi,amod
105,607-613,tema,_,_,_,_,_,89,NOUN,Ncfpi,obl
106,614-615,.,_,_,_,_,_,89,PUNCT,Z,punct
107,616-621,kljub,_,_,_,_,_,109,ADP,Sd,case
108,622-627,ves,_,_,_,_,_,106,DET,Pg-nsd,conj
109,628-629,",",_,_,_,_,_,113,PUNCT,Z,punct
110,630-634,kako,_,_,_,_,_,113,ADV,Rgp,advmod
111,635-640,lahko,_,_,_,_,_,113,ADV,Rgp,advmod
112,641-649,razumeti,_,_,_,_,_,109,VERB,Vmbr1p,acl
113,650-659,nedvoumen,_,_,_,_,_,115,ADJ,Agpmsan,amod
114,660-665,namig,_,_,_,_,_,113,NOUN,Ncmsan,obj
115,666-673,Jeroen,PER[9],_,*->6-1,*[6],_,115,PROPN,Npfsg,nmod
116,674-687,Dijsselblo,PER[9],_,*->6-1,*[6],_,116,PROPN,Npfsn,flat:name
117,688-689,o,_,_,_,_,_,119,ADP,Sl,case
118,690-696,pomen,_,_,_,_,_,115,NOUN,Ncmsl,nmod
119,697-708,sodelovanje,_,_,_,_,_,119,NOUN,Ncnsg,nmod
120,709-718,slovenski,_,_,_,_,_,122,ADJ,Agpfsg,amod
121,719-724,vlada,ORG,_,*->11-1,*[11],_,120,NOUN,Ncfsg,nmod
122,725-726,z,_,_,_,_,_,126,ADP,Si,case
123,727-735,evropski,ORG[10],_,*->7-1,*[7],_,126,ADJ,Agpfsi,amod
124,736-745,centralen,ORG[10],_,*->7-1,*[7],_,126,ADJ,Agpfsi,amod
125,746-751,banka,ORG[10],_,*->7-1,*[7],_,122,NOUN,Ncfsi,nmod
126,752-753,.,_,_,_,_,_,113,PUNCT,Z,punct
127,754-757,sam,_,_,_,_,_,129,ADJ,Agpmsnn,obl
128,758-765,razumeti,_,_,_,_,_,6,VERB,Vmbr1s,parataxis
129,766-768,ta,_,_,_,_,_,129,DET,Pd-nsa,obj
130,769-772,kot,_,_,_,_,_,132,SCONJ,Cs,case
131,773-776,del,_,_,_,_,_,129,NOUN,Ncmsan,obl
132,777-786,Slovenija,LOC,_,*->14-5,*[14],_,132,PROPN,Npfsg,nmod
133,787-788,v,_,_,_,_,_,136,ADP,Sl,case
134,789-797,evropski,LOC[11],_,*->8-1,*[8],_,136,ADJ,Agpfsl,amod
135,798-803,unija,LOC[11],_,*->8-1,*[8],_,132,NOUN,Ncfsl,nmod
136,804-806,in,_,_,_,_,_,139,CCONJ,Cc,cc
137,807-816,centralen,_,_,*->7-2,*[7],_,139,ADJ,Agpfsl,amod
138,817-822,banka,_,_,*->7-2,*[7],_,136,NOUN,Ncfsl,conj
139,823-824,",",_,_,_,_,_,143,PUNCT,Z,punct
140,825-829,kjer,_,_,_,_,_,143,SCONJ,Cs,mark
141,830-832,biti,_,_,_,_,_,143,AUX,Va-r3s-n,cop
142,833-841,pomemben,_,_,_,_,_,139,ADJ,Agpfsn,acl
143,842-851,izmenjava,_,_,_,_,_,143,NOUN,Ncfsn,nsubj
144,852-862,informacija,_,_,_,_,_,144,NOUN,Ncfpg,nmod
145,863-864,.,_,_,_,_,_,6,PUNCT,Z,punct
146,865-870,meniti,_,_,_,_,_,6,VERB,Vmpr1s,parataxis
147,871-872,",",_,_,_,_,_,157,PUNCT,Z,punct
148,873-875,da,_,_,_,_,_,157,SCONJ,Cs,mark
149,876-878,ta,_,_,_,_,_,152,DET,Pd-nsn,det
150,879-881,biti,_,_,_,_,_,153,AUX,Va-r3s-y,cop
151,882-885,nič,_,_,_,_,_,147,PRON,Pz-nsn,ccomp
152,886-895,poseben,_,_,_,_,_,152,ADJ,Agpnsg,amod
153,896-897,",",_,_,_,_,_,157,PUNCT,Z,punct
154,898-901,ker,_,_,_,_,_,157,SCONJ,Cs,mark
155,902-905,biti,_,_,_,_,_,157,AUX,Va-r1p-n,cop
156,906-909,del,_,_,_,_,_,153,NOUN,Ncmsn,nsubj
157,910-919,centralen,_,_,*->7-3,*[7],_,159,ADJ,Agpfsg,amod
158,920-925,banka,_,_,*->7-3,*[7],_,157,NOUN,Ncfsg,nmod
159,926-928,in,_,_,_,_,_,161,CCONJ,Cc,cc
160,929-931,EU,LOC,_,*->8-2,*[8],_,159,PROPN,Npfsg,conj
161,932-933,-,_,_,_,_,_,163,PUNCT,Z,punct
162,934-936,ja,_,_,_,_,_,157,PART,Q,mark
163,937-938,",",_,_,_,_,_,167,PUNCT,Z,punct
164,939-943,kjer,_,_,_,_,_,167,SCONJ,Cs,mark
165,944-955,vsakodneven,_,_,_,_,_,167,ADV,Rgp,advmod
166,956-968,razpravljati,_,_,_,_,_,157,VERB,Vmpr1p,acl
167,969-971,in,_,_,_,_,_,169,CCONJ,Cc,cc
168,972-981,poskušati,_,_,_,_,_,167,VERB,Vmpr1p,conj
169,982-987,najti,_,_,_,_,_,169,VERB,Vmen,xcomp
170,988-995,rešitev,_,_,_,_,_,170,NOUN,Ncfpa,obj
171,996-998,za,_,_,_,_,_,176,ADP,Sa,case
172,999-1002,en,_,_,_,_,_,176,NUM,Mlpfsa,nummod
173,1003-1005,in,_,_,_,_,_,175,CCONJ,Cc,cc
174,1006-1011,drug,_,_,_,_,_,173,ADJ,Mlpfsg,conj
175,1012-1018,država,_,_,_,_,_,171,NOUN,Ncfsg,nmod
176,1019-1020,.,_,_,_,_,_,6,PUNCT,Z,punct
177,1021-1026,vodja,_,_,_,_,_,147,NOUN,Ncmsn,nsubj
178,1027-1033,evrski,_,_,_,_,_,180,ADJ,Agpfsg,amod
179,1034-1041,skupina,_,_,_,_,_,178,NOUN,Ncfsg,nmod
180,1042-1043,",",_,_,_,_,_,186,PUNCT,Z,punct
181,1044-1046,ki,_,_,_,_,_,186,SCONJ,Cs,mark
182,1047-1050,naj,_,_,_,_,_,186,PART,Q,advmod
183,1051-1053,biti,_,_,_,_,_,186,AUX,Va-c,aux
184,1054-1059,kmalu,_,_,_,_,_,186,ADV,Rgp,advmod
185,1060-1066,priti,_,_,_,_,_,180,VERB,Vmep-sm,acl
186,1067-1068,v,_,_,_,_,_,188,ADP,Sa,case
187,1069-1078,Slovenija,LOC,_,*->14-6,*[14],_,186,PROPN,Npfsa,obl
188,1079-1080,",",_,_,_,_,_,186,PUNCT,Z,punct
189,1081-1083,biti,_,_,_,_,_,192,AUX,Va-r3s-n,aux
190,1084-1088,tudi,_,_,_,_,_,192,PART,Q,advmod
191,1089-1098,napovedati,_,_,_,_,_,6,VERB,Vmep-sm,parataxis
192,1099-1100,",",_,_,_,_,_,217,PUNCT,Z,punct
193,1101-1103,da,_,_,_,_,_,202,SCONJ,Cs,mark
194,1104-1106,biti,_,_,_,_,_,202,AUX,Va-f3s-n,cop
195,1107-1114,pregled,_,_,_,_,_,202,NOUN,Ncmsn,nsubj
196,1115-1121,stanje,_,_,_,_,_,196,NOUN,Ncnsg,nmod
197,1122-1123,v,_,_,_,_,_,201,ADP,Sl,case
198,1124-1133,velik,_,_,_,_,_,201,ADJ,Agsfpl,amod
199,1134-1144,slovenski,_,_,_,_,_,201,ADJ,Agpfpl,amod
200,1145-1151,banka,_,_,_,_,_,202,NOUN,Ncfpl,obl
201,1152-1158,končan,_,_,_,_,_,192,ADJ,Appmsnn,ccomp
202,1159-1161,do,_,_,_,_,_,204,ADP,Sg,case
203,1162-1167,konec,_,_,_,_,_,202,NOUN,Ncmsg,obl
204,1168-1176,november,_,_,_,_,_,204,NOUN,Ncmsg,nmod
205,1177-1178,.,_,_,_,_,_,202,PUNCT,Z,punct
206,1179-1182,ali,_,_,_,_,_,211,ADV,Rgp,mark
207,1183-1185,ta,_,_,_,_,_,211,DET,Pd-nsn,nsubj
208,1186-1194,vendarle,_,_,_,_,_,211,CCONJ,Cc,advmod
209,1195-1197,ne,_,_,_,_,_,211,PART,Q,advmod
210,1198-1204,pomeniti,_,_,_,_,_,205,VERB,Vmbr3s,acl
211,1205-1206,",",_,_,_,_,_,217,PUNCT,Z,punct
212,1207-1209,da,_,_,_,_,_,217,SCONJ,Cs,mark
213,1210-1212,se,_,_,_,_,_,217,PRON,Px------y,expl
214,1213-1217,tako,_,_,_,_,_,217,ADV,Rgp,advmod
215,1218-1222,spet,_,_,_,_,_,217,ADV,Rgp,advmod
216,1223-1229,odmikati,_,_,_,_,_,211,VERB,Vmpr3s,ccomp
217,1230-1236,prenos,_,_,_,_,_,217,NOUN,Ncmsn,nsubj
218,1237-1243,slab,_,_,_,_,_,220,ADJ,Agpfpg,amod
219,1244-1252,terjatev,_,_,_,_,_,218,NOUN,Ncfpg,nmod
220,1253-1255,na,_,_,_,_,_,225,ADP,Sa,case
221,1256-1260,tako,_,_,_,_,_,225,ADV,Rgp,advmod
222,1261-1270,imenovan,_,_,_,_,_,222,ADJ,Appfsa,fixed
223,1271-1276,slab,_,_,_,_,_,225,ADJ,Agpfsa,amod
224,1277-1282,banka,_,_,_,_,_,220,NOUN,Ncfsa,nmod
225,1283-1284,?,_,_,_,_,_,217,PUNCT,Z,punct
226,1285-1287,ta,_,_,_,_,_,230,DET,Pd-nsn,nsubj
227,1288-1290,biti,_,_,_,_,_,230,AUX,Va-r3s-y,aux
228,1291-1294,nič,_,_,_,_,_,230,PRON,Pz-nsn,det
229,1295-1301,nov,_,_,_,_,_,6,ADJ,Agpnsg,parataxis
230,1302-1303,.,_,_,_,_,_,230,PUNCT,Z,punct
231,1304-1314,dogovoriti,_,_,_,_,_,230,VERB,Vmep-pm,parataxis
232,1315-1318,biti,_,_,_,_,_,232,AUX,Va-r1p-n,aux
233,1319-1321,se,_,_,_,_,_,232,PRON,Px------y,expl
234,1322-1323,",",_,_,_,_,_,242,PUNCT,Z,punct
235,1324-1326,da,_,_,_,_,_,242,SCONJ,Cs,mark
236,1327-1329,za,_,_,_,_,_,239,ADP,Sa,case
237,1330-1337,celoten,_,_,_,_,_,239,ADJ,Agpfsa,amod
238,1338-1345,skupina,_,_,_,_,_,242,NOUN,Ncfsa,obl
239,1346-1348,10,_,_,_,_,_,241,NUM,Mdc,nummod
240,1349-1353,banka,_,_,_,_,_,239,NOUN,Ncfpg,nmod
241,1354-1362,opraviti,_,_,_,_,_,232,VERB,Vmer1p,ccomp
242,1363-1376,obremenitven,_,_,_,_,_,244,ADJ,Agpmpa,amod
243,1377-1382,test,_,_,_,_,_,242,NOUN,Ncmpa,obj
244,1383-1385,in,_,_,_,_,_,246,CCONJ,Cc,cc
245,1386-1394,pregled,_,_,_,_,_,244,NOUN,Ncmpa,conj
246,1395-1404,kakovost,_,_,_,_,_,246,NOUN,Ncfsg,nmod
247,1405-1411,aktiva,_,_,_,_,_,247,NOUN,Ncfsg,nmod
248,1412-1414,do,_,_,_,_,_,250,ADP,Sg,case
249,1415-1420,konec,_,_,_,_,_,246,NOUN,Ncmsg,nmod
250,1421-1429,november,_,_,_,_,_,250,NOUN,Ncmsg,nmod
251,1430-1431,.,_,_,_,_,_,242,PUNCT,Z,punct
252,1432-1438,hkrati,_,_,_,_,_,256,ADV,Rgp,advmod
253,1439-1442,biti,_,_,_,_,_,256,AUX,Va-r1p-n,aux
254,1443-1445,se,_,_,_,_,_,256,PRON,Px---d--y,expl
255,1446-1456,izpogajati,_,_,_,_,_,6,VERB,Vmpp-pm,parataxis
256,1457-1458,",",_,_,_,_,_,265,PUNCT,Z,punct
257,1459-1461,da,_,_,_,_,_,265,SCONJ,Cs,mark
258,1462-1467,lahko,_,_,_,_,_,265,ADV,Rgp,advmod
259,1468-1472,prvi,_,_,_,_,_,261,ADJ,Mlompa,amod
260,1473-1480,prenos,_,_,_,_,_,265,NOUN,Ncmpa,obj
261,1481-1489,terjatev,_,_,_,_,_,261,NOUN,Ncfpg,nmod
262,1490-1492,za,_,_,_,_,_,264,ADP,Sa,case
263,1493-1496,NLB,ORG,_,*->9-1,*[9],_,262,PROPN,Npfsa,nmod
264,1497-1505,opraviti,_,_,_,_,_,256,VERB,Vmer1p,ccomp
265,1506-1508,že,_,_,_,_,_,265,PART,Q,advmod
266,1509-1516,oktober,_,_,_,_,_,265,NOUN,Ncmsg,obl
267,1517-1518,.,_,_,_,_,_,256,PUNCT,Z,punct
268,1519-1525,končen,_,_,_,_,_,270,ADJ,Agpfsn,amod
269,1526-1535,odločitev,_,_,_,_,_,272,NOUN,Ncfsn,nsubj
270,1536-1538,biti,_,_,_,_,_,272,AUX,Va-f3s-n,cop
271,1539-1544,znan,_,_,_,_,_,6,ADJ,Appfsn,parataxis
272,1545-1546,",",_,_,_,_,_,276,PUNCT,Z,punct
273,1547-1549,ko,_,_,_,_,_,276,SCONJ,Cs,mark
274,1550-1554,biti,_,_,_,_,_,276,AUX,Va-f1p-n,aux
275,1555-1560,imeti,_,_,_,_,_,272,VERB,Vmpp-pm,advcl
276,1561-1568,podatek,_,_,_,_,_,276,NOUN,Ncmpa,obj
277,1569-1571,za,_,_,_,_,_,281,ADP,Sa,case
278,1572-1576,nov,ORG[12],_,*->9-2,*[9],_,281,ADJ,Agpfsa,amod
279,1577-1588,ljubljanski,ORG[12],_,*->9-2,*[9],_,281,ADJ,Agpfsa,amod
280,1589-1594,banka,ORG[12],_,*->9-2,*[9],_,277,NOUN,Ncfsa,nmod
281,1595-1596,.,_,_,_,_,_,276,PUNCT,Z,punct
282,1597-1600,ali,_,_,_,_,_,292,ADV,Rgp,mark
283,1601-1606,lahko,_,_,_,_,_,292,ADV,Rgp,advmod
284,1607-1609,na,_,_,_,_,_,287,ADP,Sa,case
285,1610-1615,njen,_,0,*->9-3,*[9],3 - Nevtralno,287,DET,Ps3nsasf,det
286,1616-1625,delovanje,_,_,_,_,_,292,NOUN,Ncnsa,obl
287,1626-1628,na,_,_,_,_,_,291,ADP,Sa,case
288,1629-1636,kakršen,_,_,_,_,_,291,DET,Pq-msa,det
289,1637-1641,koli,_,_,_,_,_,222,PART,Q,fixed
290,1642-1647,način,_,_,_,_,_,292,NOUN,Ncmsan,obl
291,1648-1654,vplivati,_,_,_,_,_,281,VERB,Vmpr3s,acl
292,1655-1663,današnji,_,_,_,_,_,295,ADJ,Agpfsn,amod
293,1664-1670,vladen,_,_,_,_,_,295,ADJ,Agpfsn,amod
294,1671-1681,razrešitev,_,_,_,_,_,292,NOUN,Ncfsn,nsubj
295,1682-1693,neizvršen,_,_,*->10-1,*[10],_,297,ADJ,Agpmsg,amod
296,1694-1704,direktor,_,_,*->10-1,*[10],_,295,NOUN,Ncmsg,nmod
297,1705-1712,Andreja,PER[13],_,*->10-1,*[10],_,297,PROPN,Npmsg,nmod
298,1713-1720,Šircelj,PER[13],_,*->10-1,*[10],_,298,PROPN,Npmsg,flat:name
299,1721-1722,?,_,_,_,_,_,306,PUNCT,Z,punct
300,1723-1725,ta,_,_,_,_,_,306,DET,Pd-nsa,obj
301,1726-1729,biti,_,_,*->17-5,*[17],_,306,AUX,Va-r1s-n,aux
302,1730-1734,šele,_,_,_,_,_,305,PART,Q,advmod
303,1735-1739,pred,_,_,_,_,_,305,ADP,Si,case
304,1740-1747,kratek,_,_,_,_,_,306,ADJ,Agpnsi,obl
305,1748-1755,izvedeti,_,_,_,_,_,272,VERB,Vmep-sm,csubj
306,1756-1757,.,_,_,_,_,_,306,PUNCT,Z,punct
307,1758-1760,ta,_,_,_,_,_,310,DET,Pd-nsn,nsubj
308,1761-1763,biti,_,_,_,_,_,310,AUX,Va-r3s-n,cop
309,1764-1773,odločitev,_,_,_,_,_,306,NOUN,Ncfsn,nsubj
310,1774-1779,vlada,ORG,0,*->11-2,*[11],3 - Nevtralno,310,NOUN,Ncfsg,nmod
311,1780-1781,",",_,_,_,_,_,315,PUNCT,Z,punct
312,1782-1786,zato,_,_,_,_,_,315,CCONJ,Cc,cc
313,1787-1792,težko,_,_,_,_,_,315,ADV,Rgp,advmod
314,1793-1803,komentirati,_,_,*->17-6,*[17],_,310,VERB,Vmbr1s,acl
315,1804-1805,.,_,_,_,_,_,306,PUNCT,Z,punct
316,1806-1815,prebrati,_,_,_,_,_,310,VERB,Vmem2p,parataxis
317,1816-1820,tudi,_,_,_,_,_,315,PART,Q,advmod
318,1821-1833,Dijsselbloem,PER,0,*->6-2,*[6],3 - Nevtralno,322,PROPN,Npmsd,iobj
319,1834-1843,Slovenija,LOC,_,*->14-7,*[14],_,319,PROPN,Npfsn,nmod
320,1844-1848,morati,_,_,_,_,_,315,VERB,Vmpr3s,ccomp
321,1849-1855,iskati,_,_,_,_,_,321,VERB,Vmpn,xcomp
322,1856-1863,podpora,_,_,_,_,_,322,NOUN,Ncfsa,obj
323,1864-1867,pri,_,_,_,_,_,325,ADP,Sl,case
324,1868-1871,ECB,ORG,0,*->7-4,*[7],3 - Nevtralno,323,PROPN,Npmsl,nmod
325,1872-1873,-,_,_,_,_,_,330,PUNCT,Z,punct
326,1874-1876,on,_,_,_,_,_,322,PRON,Pp3mda--y,obj
327,1877-1879,in,_,_,_,_,_,330,CCONJ,Cc,cc
328,1880-1888,evropski,ORG[14],0,*->12-1,*[12],3 - Nevtralno[20],330,ADJ,Agpfsl,amod
329,1889-1897,komisija,ORG[14],0,*->12-1,*[12],3 - Nevtralno[20],325,NOUN,Ncfsl,conj
330,1898-1899,.,_,_,_,_,_,321,PUNCT,Z,punct
331,1900-1905,Medja,PER,0,*->13-1,*[13],3 - Nevtralno,330,PROPN,Npmsn,nmod
332,1906-1911,banka,_,_,_,_,_,332,NOUN,Ncfsg,nmod
333,1912-1917,lahko,_,_,_,_,_,335,ADV,Rgp,advmod
334,1918-1926,sanirati,_,_,_,_,_,330,VERB,Vmbr1p,acl
335,1927-1931,sam,_,_,_,_,_,335,ADJ,Agpmpn,obl
336,1932-1933,",",_,_,_,_,_,340,PUNCT,Z,punct
337,1934-1938,brez,_,_,_,_,_,340,ADP,Sg,case
338,1939-1943,tuj,_,_,_,_,_,340,ADJ,Agpfsg,amod
339,1944-1950,pomoč,_,_,_,_,_,335,NOUN,Ncfsg,obl
340,1951-1952,.,_,_,_,_,_,335,PUNCT,Z,punct
341,1953-1960,Šircelj,PER,0,*->10-2,*[10],3 - Nevtralno,340,PROPN,Npmsn,nmod
342,1961-1963,biti,_,_,_,_,_,350,AUX,Va-r3s-y,cop
343,1964-1967,več,_,_,_,_,_,350,PART,Q,advmod
344,1968-1977,neizvršen,_,_,_,_,_,346,ADJ,Agpmsny,amod
345,1978-1986,direktor,_,_,_,_,_,340,NOUN,Ncmsn,nmod
346,1987-1992,slab,_,_,_,_,_,348,ADJ,Agpfsg,amod
347,1993-1998,banka,_,_,_,_,_,346,NOUN,Ncfsg,nmod
348,1999-2008,popolnoma,_,_,_,_,_,350,ADV,Rgp,advmod
349,2009-2014,jasen,_,_,_,_,_,340,ADJ,Agpnsn,amod
350,2015-2017,biti,_,_,_,_,_,350,AUX,Va-r3s-n,cop
351,2018-2019,",",_,_,_,_,_,355,PUNCT,Z,punct
352,2020-2022,da,_,_,_,_,_,355,SCONJ,Cs,mark
353,2023-2025,biti,_,_,_,_,_,355,AUX,Va-r3s-n,cop
354,2026-2029,srž,_,_,_,_,_,350,NOUN,Ncmsn,csubj
355,2030-2032,in,_,_,_,_,_,361,CCONJ,Cc,cc
356,2033-2038,levji,_,_,_,_,_,358,ADJ,Agpmsay,amod
357,2039-2044,delež,_,_,_,_,_,355,NOUN,Ncmsan,conj
358,2045-2052,bančen,_,_,_,_,_,362,ADJ,Agpfpg,amod
359,2053-2055,in,_,_,_,_,_,361,CCONJ,Cc,cc
360,2056-2065,finančen,_,_,_,_,_,359,ADJ,Agpfpg,conj
361,2066-2071,težava,_,_,_,_,_,358,NOUN,Ncfpg,nmod
362,2072-2073,v,_,_,_,_,_,364,ADP,Sl,case
363,2074-2083,Slovenija,LOC,_,*->14-8,*[14],_,362,PROPN,Npfsl,nmod
364,2084-2085,.,_,_,_,_,_,350,PUNCT,Z,punct
365,2086-2091,kljub,_,_,_,_,_,367,ADP,Sd,case
366,2092-2097,ves,_,_,_,_,_,371,DET,Pg-nsd,obl
367,2098-2100,pa,_,_,_,_,_,371,CCONJ,Cc,advmod
368,2101-2103,biti,_,_,_,_,_,371,AUX,Va-r3s-n,aux
369,2104-2111,slišati,_,_,_,_,_,350,VERB,Vmbn,csubj
370,2112-2119,svariti,_,_,_,_,_,350,VERB,Vmpp-sf,parataxis
371,2120-2121,",",_,_,_,_,_,380,PUNCT,Z,punct
372,2122-2124,da,_,_,_,_,_,380,SCONJ,Cs,mark
373,2125-2128,naj,_,_,_,_,_,380,PART,Q,advmod
374,2129-2131,biti,_,_,_,_,_,380,AUX,Va-c,aux
375,2132-2136,biti,_,_,_,_,_,380,AUX,Va-p-sf,cop
376,2137-2146,Slovenija,LOC,_,*->14-9,*[14],_,380,PROPN,Npfsn,nsubj
377,2147-2155,nekakšen,_,_,_,_,_,380,DET,Pi-msn,det
378,2156-2164,poskusen,_,_,_,_,_,380,ADJ,Agpmsny,amod
379,2165-2170,zajec,_,_,_,_,_,371,NOUN,Ncmsn,ccomp
380,2171-2182,mednaroden,_,_,_,_,_,383,ADJ,Agpfpg,amod
381,2183-2192,finančen,_,_,_,_,_,383,ADJ,Agpfpg,amod
382,2193-2200,ustan,_,_,_,_,_,380,NOUN,Ncfpg,nmod
383,2201-2202,v,_,_,_,_,_,385,ADP,Sl,case
384,2203-2212,reševanje,_,_,_,_,_,383,NOUN,Ncnsl,nmod
385,2213-2217,banka,_,_,_,_,_,385,NOUN,Ncfpg,nmod
386,2218-2219,.,_,_,_,_,_,380,PUNCT,Z,punct
387,2220-2222,na,_,_,_,_,_,389,ADP,Sl,case
388,2223-2226,kaj,_,_,_,_,_,392,PRON,Pq-nsl,obl
389,2227-2229,biti,_,_,_,_,_,392,AUX,Va-c,aux
390,2230-2235,lahko,_,_,_,_,_,392,ADV,Rgp,advmod
391,2236-2245,temeljiti,_,_,_,_,_,386,VERB,Vmpp-sf,acl
392,2246-2250,tak,_,_,_,_,_,394,DET,Pd-npn,det
393,2251-2259,opažanje,_,_,_,_,_,392,NOUN,Ncnpn,nsubj
394,2260-2261,?,_,_,_,_,_,392,PUNCT,Z,punct
395,2262-2264,ta,_,_,_,_,_,397,DET,Pd-nsn,nsubj
396,2265-2272,temeljiti,_,_,_,_,_,371,VERB,Vmpr3s,root
397,2273-2275,na,_,_,_,_,_,399,ADP,Sl,case
398,2276-2283,dejstvo,_,_,_,_,_,397,NOUN,Ncnsl,obl
399,2284-2285,",",_,_,_,_,_,402,PUNCT,Z,punct
400,2286-2288,da,_,_,_,_,_,402,SCONJ,Cs,mark
401,2289-2295,morati,_,_,_,_,_,399,VERB,Vmpr1p,acl
402,2296-2304,opraviti,_,_,_,_,_,402,VERB,Vmen,xcomp
403,2305-2318,obremenitven,_,_,_,_,_,405,ADJ,Agpmpa,amod
404,2319-2324,test,_,_,_,_,_,403,NOUN,Ncmpa,obj
405,2325-2327,in,_,_,_,_,_,407,CCONJ,Cc,cc
406,2328-2336,pregled,_,_,_,_,_,405,NOUN,Ncmpa,conj
407,2337-2346,kakovost,_,_,_,_,_,407,NOUN,Ncfsg,nmod
408,2347-2353,aktiva,_,_,_,_,_,408,NOUN,Ncfsg,nmod
409,2354-2355,",",_,_,_,_,_,412,PUNCT,Z,punct
410,2356-2359,kar,_,_,_,_,_,412,PRON,Pr-nsn,nsubj
411,2360-2364,čakati,_,_,_,_,_,408,VERB,Vmpr3s,acl
412,2365-2368,ves,_,_,_,_,_,415,DET,Pg-fpa,det
413,2369-2377,evropski,_,_,_,_,_,415,ADJ,Agpfpa,amod
414,2378-2384,država,_,_,_,_,_,412,NOUN,Ncfpa,obj
415,2385-2386,v,_,_,_,_,_,417,ADP,Sl,case
416,2387-2398,evrooomočje,_,_,_,_,_,415,NOUN,Ncnsl,nmod
417,2399-2400,.,_,_,_,_,_,420,PUNCT,Z,punct
418,2401-2407,preden,_,_,_,_,_,420,SCONJ,Cs,mark
419,2408-2413,začeti,_,_,_,_,_,412,VERB,Vmer3s,advcl
420,2414-2422,delovati,_,_,_,_,_,420,VERB,Vmpn,xcomp
421,2423-2431,evropski,_,_,_,_,_,424,ADJ,Agpmsay,amod
422,2432-2440,nadzoren,_,_,_,_,_,424,ADJ,Agpmsay,amod
423,2441-2450,mehanizem,_,_,_,_,_,421,NOUN,Ncmsan,obj
424,2451-2452,",",_,_,_,_,_,420,PUNCT,Z,punct
425,2453-2459,morati,_,_,_,_,_,412,VERB,Vmpr3p,conj
426,2460-2463,ves,_,_,_,_,_,429,DET,Pg-fpn,det
427,2464-2472,evropski,_,_,_,_,_,429,ADJ,Agpfpn,amod
428,2473-2478,banka,_,_,_,_,_,430,NOUN,Ncfpn,nsubj
429,2479-2482,iti,_,_,_,_,_,426,VERB,Vmbn,xcomp
430,2483-2488,skozi,_,_,_,_,_,433,ADP,Sa,case
431,2489-2502,obremenitven,_,_,_,_,_,433,ADJ,Agpmpa,amod
432,2503-2508,test,_,_,_,_,_,430,NOUN,Ncmpa,obl
433,2509-2511,in,_,_,_,_,_,435,CCONJ,Cc,cc
434,2512-2521,preizkus,_,_,_,_,_,433,NOUN,Ncmpa,conj
435,2522-2531,kakovost,_,_,_,_,_,435,NOUN,Ncfsg,nmod
436,2532-2538,aktiva,_,_,_,_,_,436,NOUN,Ncfsg,nmod
437,2539-2540,.,_,_,_,_,_,412,PUNCT,Z,punct
438,2541-2547,mogoč,_,_,_,_,_,437,ADJ,Agpnsn,amod
439,2548-2550,se,_,_,_,_,_,441,PRON,Px------y,expl
440,2551-2554,zdeti,_,_,_,_,_,439,VERB,Vmpr3s,parataxis
441,2555-2556,",",_,_,_,_,_,447,PUNCT,Z,punct
442,2557-2559,da,_,_,_,_,_,447,SCONJ,Cs,mark
443,2560-2562,biti,_,_,_,_,_,447,AUX,Va-r3s-n,cop
444,2563-2572,Slovenija,LOC,_,*->14-10,*[14],_,447,PROPN,Npfsn,nsubj
445,2573-2581,poskusen,_,_,_,_,_,447,ADJ,Agpmsny,amod
446,2582-2587,zajec,_,_,_,_,_,441,NOUN,Ncmsn,csubj
447,2588-2589,",",_,_,_,_,_,447,PUNCT,Z,punct
448,2590-2591,a,_,_,_,_,_,450,CCONJ,Cc,cc
449,2592-2597,meniti,_,_,*->17-7,*[17],_,447,VERB,Vmpr1s,conj
450,2598-2599,",",_,_,_,_,_,455,PUNCT,Z,punct
451,2600-2602,da,_,_,_,_,_,455,SCONJ,Cs,mark
452,2603-2605,biti,_,_,_,_,_,455,AUX,Va-r3s-n,cop
453,2606-2608,ta,_,_,_,_,_,455,DET,Pd-nsn,nsubj
454,2609-2617,koristen,_,_,_,_,_,450,ADJ,Agpnsn,ccomp
455,2618-2619,",",_,_,_,_,_,455,PUNCT,Z,punct
456,2620-2623,saj,_,_,_,_,_,460,CCONJ,Cc,cc
457,2624-2628,biti,_,_,_,_,_,460,AUX,Va-f1p-n,aux
458,2629-2634,lahko,_,_,_,_,_,460,ADV,Rgp,advmod
459,2635-2645,pregledati,_,_,_,_,_,455,VERB,Vmep-pm,conj
460,2646-2652,stanje,_,_,_,_,_,460,NOUN,Ncnsa,obj
461,2653-2654,v,_,_,_,_,_,464,ADP,Sl,case
462,2655-2662,bančen,_,_,_,_,_,464,ADJ,Agpmsl,amod
463,2663-2670,sistem,_,_,_,_,_,461,NOUN,Ncmsl,nmod
464,2671-2672,.,_,_,_,_,_,455,PUNCT,Z,punct
465,2673-2677,kako,_,_,_,_,_,467,ADV,Rgp,advmod
466,2678-2686,koristen,_,_,_,_,_,460,ADJ,Agpnsn,ccomp
467,2687-2689,biti,_,_,_,_,_,467,AUX,Va-r3s-n,cop
468,2690-2692,ta,_,_,_,_,_,467,DET,Pd-nsn,nsubj
469,2693-2695,za,_,_,_,_,_,472,ADP,Sa,case
470,2696-2705,slovenski,_,_,_,_,_,472,ADJ,Agpmpa,amod
471,2706-2721,davkoplačevalec,_,_,_,_,_,461,NOUN,Ncmpa,nmod
472,2722-2723,",",_,_,_,_,_,475,PUNCT,Z,punct
473,2724-2726,ki,_,_,_,_,_,475,SCONJ,Cs,mark
474,2727-2735,reševati,_,_,_,_,_,472,VERB,Vmpr3p,acl
475,2736-2745,slovenski,_,_,_,_,_,477,ADJ,Agpfpa,amod
476,2746-2751,banka,_,_,_,_,_,475,NOUN,Ncfpa,obj
477,2752-2753,?,_,_,_,_,_,475,PUNCT,Z,punct
478,2754-2769,davkoplačevalec,_,_,_,_,_,488,NOUN,Ncmpn,nsubj
479,2770-2773,biti,_,_,_,_,_,488,AUX,Va-r1p-n,cop
480,2774-2777,ves,_,_,_,_,_,479,DET,Pg-mpn,det
481,2778-2779,",",_,_,_,_,_,483,PUNCT,Z,punct
482,2780-2787,strošek,_,_,_,_,_,488,NOUN,Ncmsn,nsubj
483,2788-2796,sanacija,_,_,_,_,_,483,NOUN,Ncfsg,nmod
484,2797-2801,banka,_,_,_,_,_,484,NOUN,Ncfpg,nmod
485,2802-2804,biti,_,_,_,_,_,488,AUX,Va-r3s-n,cop
486,2805-2810,vedno,_,_,_,_,_,488,ADV,Rgp,advmod
487,2811-2818,strošek,_,_,_,_,_,477,NOUN,Ncmsn,acl
488,2819-2835,davkoplačevalec,_,_,_,_,_,488,NOUN,Ncmpg,nmod
489,2836-2837,.,_,_,_,_,_,488,PUNCT,Z,punct
490,2838-2843,upati,_,_,_,_,_,488,VERB,Vmpr1p,conj
491,2844-2845,",",_,_,_,_,_,496,PUNCT,Z,punct
492,2846-2848,da,_,_,_,_,_,496,SCONJ,Cs,mark
493,2849-2851,ne,_,_,_,_,_,496,PART,Q,advmod
494,2852-2854,biti,_,_,_,_,_,496,AUX,Va-f3s-n,cop
495,2855-2860,velik,_,_,_,_,_,491,ADJ,Agcmsny,ccomp
496,2861-2863,od,_,_,_,_,_,498,ADP,Sg,case
497,2864-2877,pričakovan,_,_,_,_,_,496,ADJ,Appnsg,obl
498,2878-2879,.,_,_,_,_,_,488,PUNCT,Z,punct
499,2880-2882,se,_,_,_,_,_,503,PRON,Px------y,expl
500,2883-2888,lahko,_,_,_,_,_,503,ADV,Rgp,advmod
501,2889-2891,že,_,_,_,_,_,503,PART,Q,advmod
502,2892-2903,pogovarjati,_,_,_,_,_,488,VERB,Vmpr1p,conj
503,2904-2905,o,_,_,_,_,_,505,ADP,Sl,case
504,2906-2909,ta,_,_,_,_,_,503,DET,Pd-nsl,obl
505,2910-2911,",",_,_,_,_,_,512,PUNCT,Z,punct
506,2912-2918,koliko,_,_,_,_,_,512,DET,Rgp,advmod
507,2919-2922,jaz,_,_,_,_,_,512,PRON,Pp1-pa,obj
508,2923-2925,biti,_,_,_,_,_,512,AUX,Va-f3s-n,aux
509,2926-2929,ves,_,_,_,_,_,512,DET,Pg-nsn,nsubj
510,2930-2936,skupaj,_,_,_,_,_,512,ADV,Rgp,advmod
511,2937-2942,stati,_,_,_,_,_,505,VERB,Vmpp-sn,acl
512,2943-2944,?,_,_,_,_,_,520,PUNCT,Z,punct
513,2945-2952,kakršen,_,_,_,_,_,516,DET,Pq-fsn,det
514,2953-2957,koli,_,_,_,_,_,514,PART,Q,fixed
515,2958-2966,številka,_,_,_,_,_,520,NOUN,Ncfsn,nsubj
516,2967-2969,biti,_,_,_,_,_,520,AUX,Va-c,aux
517,2970-2974,biti,_,_,_,_,_,520,AUX,Va-p-sf,cop
518,2975-2980,zgolj,_,_,_,_,_,520,PART,Q,advmod
519,2981-2993,manipulacija,_,_,_,_,_,512,NOUN,Ncfsn,csubj
520,2994-2995,.,_,_,_,_,_,512,PUNCT,Z,punct
521,2996-3000,zato,_,_,_,_,_,524,CCONJ,Cc,cc
522,3001-3004,biti,_,_,_,_,_,524,AUX,Va-r1p-n,aux
523,3005-3011,najti,_,_,_,_,_,520,VERB,Vmep-pm,conj
524,3012-3019,zunanji,_,_,_,_,_,526,ADJ,Agpmpa,amod
525,3020-3030,svetovalec,_,_,_,_,_,524,NOUN,Ncmpa,obj
526,3031-3032,",",_,_,_,_,_,530,PUNCT,Z,punct
527,3033-3035,da,_,_,_,_,_,530,SCONJ,Cs,mark
528,3036-3039,jaz,_,_,_,_,_,530,PRON,Pp1-pd,iobj
529,3040-3048,narediti,_,_,_,_,_,526,VERB,Vmer3p,acl
530,3049-3062,obremenitven,_,_,_,_,_,532,ADJ,Agpmpa,amod
531,3063-3068,test,_,_,_,_,_,530,NOUN,Ncmpa,obj
532,3069-3071,in,_,_,_,_,_,534,CCONJ,Cc,cc
533,3072-3080,pregled,_,_,_,_,_,532,NOUN,Ncmpa,conj
534,3081-3090,kakovost,_,_,_,_,_,534,NOUN,Ncfsg,nmod
535,3091-3097,aktiva,_,_,_,_,_,535,NOUN,Ncfsg,nmod
536,3098-3099,",",_,_,_,_,_,541,PUNCT,Z,punct
537,3100-3102,da,_,_,_,_,_,541,SCONJ,Cs,mark
538,3103-3105,biti,_,_,_,_,_,541,AUX,Va-c,aux
539,3106-3108,se,_,_,_,_,_,541,PRON,Px------y,expl
540,3109-3117,izogniti,_,_,_,_,_,536,VERB,Vmep-pm,acl
541,3118-3121,ta,_,_,_,_,_,543,DET,Pd-fpd,det
542,3122-3134,špekulacija,_,_,_,_,_,541,NOUN,Ncfpd,obj
543,3135-3137,in,_,_,_,_,_,545,CCONJ,Cc,cc
544,3138-3144,dobiti,_,_,_,_,_,541,VERB,Vmep-pm,conj
545,3145-3150,pravi,_,_,_,_,_,547,ADJ,Agpfpa,amod
546,3151-3159,številka,_,_,_,_,_,545,NOUN,Ncfpa,obj
547,3160-3161,",",_,_,_,_,_,553,PUNCT,Z,punct
548,3162-3164,na,_,_,_,_,_,550,ADP,Sl,case
549,3165-3172,kateri,_,_,_,_,_,553,DET,Pq-mpl,obl
550,3173-3177,biti,_,_,_,_,_,553,AUX,Va-f1p-n,aux
551,3178-3183,lahko,_,_,_,_,_,553,ADV,Rgp,advmod
552,3184-3191,graditi,_,_,_,_,_,547,VERB,Vmpp-pm,acl
553,3192-3194,in,_,_,_,_,_,555,CCONJ,Cc,cc
554,3195-3203,očistiti,_,_,_,_,_,553,VERB,Vmep-pm,conj
555,3204-3213,slovenski,_,_,_,_,_,558,ADJ,Agpmsay,amod
556,3214-3220,bančen,_,_,_,_,_,558,ADJ,Agpmsay,amod
557,3221-3227,sistem,_,_,_,_,_,555,NOUN,Ncmsan,obj
558,3228-3229,.,_,_,_,_,_,573,PUNCT,Z,punct
559,3230-3232,če,_,_,_,_,_,565,SCONJ,Cs,mark
560,3233-3235,se,_,_,_,_,_,565,PRON,Px------y,expl
561,3236-3240,biti,_,_,_,_,_,573,AUX,Va-f3p-n,aux
562,3241-3243,ta,_,_,_,_,_,564,DET,Pd-fpn,det
563,3244-3252,številka,_,_,_,_,_,565,NOUN,Ncfpn,nsubj
564,3253-3261,izkazati,_,_,_,_,_,553,VERB,Vmep-pf,advcl
565,3262-3264,za,_,_,_,_,_,567,ADP,Sa,case
566,3265-3274,previsok,_,_,_,_,_,565,ADJ,Agpmpa,obl
567,3275-3276,",",_,_,_,_,_,573,PUNCT,Z,punct
568,3277-3279,ki,_,_,_,_,_,573,SCONJ,Cs,mark
569,3280-3283,on,_,_,_,_,_,573,PRON,Pp3mpa--y,obj
570,3284-3290,država,_,_,*->14-11,*[14],_,573,NOUN,Ncfsn,nsubj
571,3291-3293,ne,_,_,_,_,_,573,PART,Q,advmod
572,3294-3299,zmoči,_,_,_,_,_,567,VERB,Vmer3s,acl
573,3300-3301,",",_,_,_,_,_,573,PUNCT,Z,punct
574,3302-3306,biti,_,_,_,_,_,576,AUX,Va-f1p-n,aux
575,3307-3313,morati,_,_,_,_,_,6,VERB,Vmpp-pm,parataxis
576,3314-3323,zaprositi,_,_,_,_,_,576,VERB,Vmen,xcomp
577,3324-3326,za,_,_,_,_,_,579,ADP,Sa,case
578,3327-3332,pomoč,_,_,_,_,_,577,NOUN,Ncfsa,obl
579,3333-3334,?,_,_,_,_,_,573,PUNCT,Z,punct
580,3335-3337,ta,_,_,_,_,_,582,DET,Pd-fsn,det
581,3338-3345,možnost,_,_,_,_,_,584,NOUN,Ncfsn,nsubj
582,3346-3351,vedno,_,_,_,_,_,584,ADV,Rgp,advmod
583,3352-3359,obstajati,_,_,_,_,_,6,VERB,Vmpr3s,parataxis
584,3360-3362,in,_,_,_,_,_,589,CCONJ,Cc,cc
585,3363-3365,se,_,_,_,_,_,589,PRON,Px------y,expl
586,3366-3367,o,_,_,_,_,_,588,ADP,Sl,case
587,3368-3372,on,_,_,_,_,_,589,PRON,Pp3fsl,obl
588,3373-3384,pogovarjati,_,_,_,_,_,584,VERB,Vmpr1p,conj
589,3385-3386,",",_,_,_,_,_,593,PUNCT,Z,punct
590,3387-3392,sicer,_,_,_,_,_,593,PART,Q,advmod
591,3393-3395,biti,_,_,_,_,_,593,AUX,Va-c,aux
592,3396-3403,ravnati,_,_,_,_,_,584,VERB,Vmpp-pm,advcl
593,3404-3415,neodgovoren,_,_,_,_,_,593,ADV,Rgp,advmod
594,3416-3417,.,_,_,_,_,_,584,PUNCT,Z,punct
595,3418-3419,a,_,_,_,_,_,597,CCONJ,Cc,cc
596,3420-3429,poudarjati,_,_,*->17-8,*[17],_,593,VERB,Vmpr1s,conj
597,3430-3431,",",_,_,_,_,_,600,PUNCT,Z,punct
598,3432-3434,da,_,_,_,_,_,600,SCONJ,Cs,mark
599,3435-3443,delovati,_,_,_,_,_,597,VERB,Vmpr1p,ccomp
600,3444-3447,kot,_,_,_,_,_,602,SCONJ,Cs,case
601,3448-3451,del,_,_,_,_,_,600,NOUN,Ncmsan,obl
602,3452-3463,evrosist,_,_,_,_,_,602,NOUN,Ncmsg,nmod
603,3464-3465,",",_,_,_,_,_,600,PUNCT,Z,punct
604,3466-3470,zato,_,_,_,_,_,630,CCONJ,Cc,cc
605,3471-3473,biti,_,_,_,_,_,608,AUX,Va-r3p-n,aux
606,3474-3477,ves,_,_,_,_,_,608,DET,Pg-npn,det
607,3478-3487,pogajanje,_,_,_,_,_,630,NOUN,Ncnpn,nsubj
608,3488-3489,",",_,_,_,_,_,612,PUNCT,Z,punct
609,3490-3492,ki,_,_,_,_,_,612,SCONJ,Cs,mark
610,3493-3496,on,_,_,_,_,_,612,PRON,Pp3mpa--y,obj
611,3497-3505,omenjati,_,_,_,_,_,608,VERB,Vmpr1p,acl
612,3506-3509,kot,_,_,_,_,_,617,SCONJ,Cs,case
613,3510-3518,nadležen,_,_,_,_,_,617,ADJ,Agpnpa,amod
614,3519-3520,",",_,_,_,_,_,616,PUNCT,Z,punct
615,3521-3526,edin,_,_,_,_,_,614,ADJ,Agpmsay,conj
616,3527-3532,način,_,_,_,_,_,612,NOUN,Ncmsan,obl
617,3533-3534,",",_,_,_,_,_,622,PUNCT,Z,punct
618,3535-3537,na,_,_,_,_,_,620,ADP,Sa,case
619,3538-3546,kateri,_,_,_,_,_,622,DET,Pq-msa,obl
620,3547-3556,Slovenija,LOC,0,*->14-12,*[14],3 - Nevtralno,622,PROPN,Npfsn,nsubj
621,3557-3563,delovati,_,_,_,_,_,617,VERB,Vmpr3s,acl
622,3564-3565,v,_,_,_,_,_,625,ADP,Sl,case
623,3566-3574,evropski,LOC[15],0,*->8-3,*[8],3 - Nevtralno[21],625,ADJ,Agpfsl,amod
624,3575-3580,unija,LOC[15],0,*->8-3,*[8],3 - Nevtralno[21],622,NOUN,Ncfsl,obl
625,3581-3582,.,_,_,_,_,_,612,PUNCT,Z,punct
626,3583-3584,v,_,_,_,_,_,628,ADP,Sa,case
627,3585-3592,nedelja,_,_,_,_,_,630,NOUN,Ncfsa,obl
628,3593-3595,biti,_,_,_,_,_,630,AUX,Va-f3s-n,aux
629,3596-3602,miniti,_,_,_,_,_,6,VERB,Vmep-sn,parataxis
630,3603-3606,pet,_,_,_,_,_,632,NUM,Mlc-pa,nummod
631,3607-3610,leto,_,_,_,_,_,630,NOUN,Ncnpg,obl
632,3611-3613,od,_,_,_,_,_,634,ADP,Sg,case
633,3614-3621,propad,_,_,_,_,_,632,NOUN,Ncmsg,nmod
634,3622-3630,ameriški,_,2,*->15-1,*[15],2 - Negativno[22],636,ADJ,Agpfsg,amod
635,3631-3636,banka,_,2,*->15-1,*[15],2 - Negativno[22],634,NOUN,Ncfsg,nmod
636,3637-3643,Lehman,ORG[16],2,*->15-1,*[15],2 - Negativno[22],636,PROPN,Npfsg,nmod
637,3644-3652,Brothers,ORG[16],2,*->15-1,*[15],2 - Negativno[22],637,PROPN,Npmsn,flat:name
638,3653-3654,",",_,_,_,_,_,642,PUNCT,Z,punct
639,3655-3657,ki,_,_,_,_,_,642,SCONJ,Cs,mark
640,3658-3660,biti,_,_,_,_,_,642,AUX,Va-r3s-n,aux
641,3661-3669,zamajati,_,_,_,_,_,636,VERB,Vmpp-sf,acl
642,3670-3680,mednaroden,_,_,_,_,_,645,ADJ,Agpmsay,amod
643,3681-3689,finančen,_,_,_,_,_,645,ADJ,Agpmsay,amod
644,3690-3693,trg,_,_,_,_,_,642,NOUN,Ncmsan,obj
645,3694-3696,in,_,_,_,_,_,649,CCONJ,Cc,cc
646,3697-3701,tudi,_,_,_,_,_,642,PART,Q,advmod
647,3702-3710,svetoven,_,_,_,_,_,649,ADJ,Agpnsn,amod
648,3711-3723,gospodarstvo,_,_,_,_,_,645,NOUN,Ncnsn,conj
649,3724-3725,.,_,_,_,_,_,630,PUNCT,Z,punct
650,3726-3734,navkljub,_,_,_,_,_,653,ADP,Sd,case
651,3735-3744,pozeni,_,_,_,_,_,653,ADJ,Agcfpd,amod
652,3745-3753,reforma,_,_,_,_,_,657,NOUN,Ncfpd,obl
653,3754-3756,in,_,_,_,_,_,655,CCONJ,Cc,cc
654,3757-3764,zaveza,_,_,_,_,_,653,NOUN,Ncfpd,conj
655,3765-3768,ves,_,_,_,_,_,657,DET,Pg-nsn,nsubj
656,3769-3773,kazati,_,_,_,_,_,642,VERB,Vmpr3s,conj
657,3774-3775,",",_,_,_,_,_,666,PUNCT,Z,punct
658,3776-3778,da,_,_,_,_,_,666,SCONJ,Cs,mark
659,3779-3781,se,_,_,_,_,_,666,PRON,Px------y,expl
660,3782-3785,tak,_,_,_,_,_,662,DET,Pd-msn,det
661,3786-3791,potop,_,_,_,_,_,666,NOUN,Ncmsn,nsubj
662,3792-3794,še,_,_,_,_,_,666,PART,Q,advmod
663,3795-3800,vedno,_,_,_,_,_,666,ADV,Rgp,advmod
664,3801-3806,lahko,_,_,_,_,_,666,ADV,Rgp,advmod
665,3807-3812,zgoditi,_,_,_,_,_,657,VERB,Vmer3s,csubj
666,3813-3817,kjer,_,_,_,_,_,677,SCONJ,Cs,mark
667,3818-3822,koli,_,_,_,_,_,667,PART,Q,fixed
668,3823-3825,in,_,_,_,_,_,670,CCONJ,Cc,cc
669,3826-3831,kadar,_,_,_,_,_,668,SCONJ,Cs,fixed
670,3832-3836,koli,_,_,_,_,_,670,PART,Q,fixed
671,3837-3838,.,_,_,_,_,_,666,PUNCT,Z,punct
672,3839-3850,navsezadnje,_,_,_,_,_,677,ADV,Rgp,advmod
673,3851-3854,biti,_,_,_,_,_,677,AUX,Va-r2p-n,aux
674,3855-3856,v,_,_,_,_,_,676,ADP,Sl,case
675,3857-3862,Vilna,LOC,0,*->16-2,*[16],3 - Nevtralno,677,PROPN,Npfsl,obl
676,3863-3875,razpravljati,_,_,_,_,_,666,VERB,Vmpp-pm,advcl
677,3876-3877,o,_,_,_,_,_,679,ADP,Sl,case
678,3878-3887,reševanje,_,_,_,_,_,677,NOUN,Ncnsl,obl
679,3888-3897,številen,_,_,_,_,_,683,ADJ,Agpfpg,amod
680,3898-3905,načet,_,_,_,_,_,683,ADJ,Agpfpg,amod
681,3906-3915,evropski,_,_,_,_,_,683,ADJ,Agpfpg,amod
682,3916-3920,banka,_,_,_,_,_,679,NOUN,Ncfpg,nmod
683,3921-3922,z,_,_,_,_,_,686,ADP,Si,case
684,3923-3936,gromozanski,_,_,_,_,_,686,ADJ,Agpmpi,amod
685,3937-3944,dolg,_,_,_,_,_,683,NOUN,Ncmpi,nmod
686,3945-3946,.,_,_,_,_,_,666,PUNCT,Z,punct
687,3947-3953,deliti,_,_,_,_,_,692,VERB,Vmpr2p,conj
688,3954-3956,ta,_,_,_,_,_,690,DET,Pd-nsa,det
689,3957-3963,mnenje,_,_,_,_,_,688,NOUN,Ncnsa,obj
690,3964-3965,?,_,_,_,_,_,677,PUNCT,Z,punct
691,3966-3971,deliti,_,0,*->17-9,*[17],3 - Nevtralno,657,VERB,Vmpr1s,parataxis
692,3972-3973,",",_,_,_,_,_,698,PUNCT,Z,punct
693,3974-3977,ker,_,_,_,_,_,698,SCONJ,Cs,mark
694,3978-3980,biti,_,_,_,_,_,698,AUX,Va-r3p-n,cop
695,3981-3987,bančen,_,_,_,_,_,697,ADJ,Agpfpn,amod
696,3988-3993,kriza,_,_,_,_,_,698,NOUN,Ncfpn,nsubj
697,3994-3999,nekaj,_,_,_,_,_,692,PRON,Pi-nsn,advcl
698,4000-4009,popolnoma,_,_,_,_,_,700,ADV,Rgp,advmod
699,4010-4020,normalen,_,_,_,_,_,698,ADJ,Agpnsg,amod
700,4021-4022,v,_,_,_,_,_,704,ADP,Sl,case
701,4023-4029,vsak,_,_,_,_,_,704,DET,Pg-nsl,det
702,4030-4040,dinamičen,_,_,_,_,_,704,ADJ,Agpnsl,amod
703,4041-4053,gospodarstvo,_,_,_,_,_,698,NOUN,Ncnsl,obl
704,4054-4055,.,_,_,_,_,_,698,PUNCT,Z,punct
705,4056-4058,ta,_,_,_,_,_,707,DET,Pd-fsn,det
706,4059-4064,kriza,_,_,_,_,_,710,NOUN,Ncfsn,nsubj
707,4065-4067,biti,_,_,_,_,_,710,AUX,Va-r3s-y,cop
708,4068-4070,ne,_,_,_,_,_,710,CCONJ,Cc,cc:preconj
709,4071-4075,prvi,_,_,_,_,_,698,ADJ,Mlofsn,conj
710,4076-4078,in,_,_,_,_,_,713,CCONJ,Cc,cc
711,4079-4081,ne,_,_,_,_,_,713,PART,Q,advmod
712,4082-4088,zadnji,_,_,_,_,_,710,ADJ,Agpfsn,conj
713,4089-4090,.,_,_,_,_,_,710,PUNCT,Z,punct
714,4091-4099,nekateri,_,_,_,_,_,716,DET,Pi-fpn,det
715,4100-4106,država,_,_,_,_,_,710,NOUN,Ncfpn,nsubj
716,4107-4108,",",_,_,_,_,_,721,PUNCT,Z,punct
717,4109-4111,ki,_,_,_,_,_,721,SCONJ,Cs,mark
718,4112-4114,biti,_,_,_,_,_,721,AUX,Va-r3p-n,aux
719,4115-4119,prej,_,_,_,_,_,721,ADV,Rgc,advmod
720,4120-4130,pristopiti,_,_,_,_,_,716,VERB,Vmep-pf,acl
721,4131-4132,k,_,_,_,_,_,723,ADP,Sd,case
722,4133-4142,reševanje,_,_,_,_,_,721,NOUN,Ncnsd,obl
723,4143-4148,težava,_,_,_,_,_,723,NOUN,Ncfpg,nmod
724,4149-4150,v,_,_,_,_,_,727,ADP,Sl,case
725,4151-4158,bančen,_,_,_,_,_,727,ADJ,Agpmsl,amod
726,4159-4167,sektor,_,_,_,_,_,723,NOUN,Ncmsl,nmod
727,4168-4169,",",_,_,_,_,_,721,PUNCT,Z,punct
728,4170-4175,danes,_,_,_,_,_,731,ADV,Rgp,advmod
729,4176-4178,že,_,_,_,_,_,731,PART,Q,advmod
730,4179-4186,uživati,_,_,_,_,_,710,VERB,Vmpr3p,parataxis
731,4187-4193,sad,_,_,_,_,_,731,NOUN,Ncmpa,obj
732,4194-4199,visok,_,_,_,_,_,735,ADJ,Agcfsg,amod
733,4200-4211,gospodarski,_,_,_,_,_,735,ADJ,Agpfsg,amod
734,4212-4217,rast,_,_,_,_,_,732,NOUN,Ncfsg,nmod
735,4218-4220,in,_,_,_,_,_,741,CCONJ,Cc,cc
736,4221-4229,predvsem,_,_,_,_,_,731,PART,Q,advmod
737,4230-4238,normalno,_,_,_,_,_,739,ADV,Rgp,advmod
738,4239-4249,delujoč,_,_,_,_,_,741,ADJ,Appmsg,amod
739,4250-4258,bančen,_,_,_,_,_,741,ADJ,Agpmsg,amod
740,4259-4266,sistem,_,_,_,_,_,735,NOUN,Ncmsg,conj
