idx,chars_idx,token,entity_type,sentiment,idk_1,idk_2,orig_sentiment,heads,upos,xpos,deprel
0,0-12,gospodarstvo,_,_,_,_,_,3,NOUN,Ncnsn,nsubj
1,13-15,ne,_,_,_,_,_,3,PART,Q,advmod
2,16-23,prenesti,_,_,_,_,_,0,VERB,Vmer3s,root
3,24-29,nov,_,_,_,_,_,5,ADJ,Agpfpg,amod
4,30-41,obremenitev,_,_,_,_,_,3,NOUN,Ncfpg,obj
5,42-48,priti,_,_,_,_,_,3,VERB,Vmep-pm,advcl
6,49-52,biti,_,_,_,_,_,6,AUX,Va-r1p-n,aux
7,53-55,do,_,_,_,_,_,9,ADP,Sg,case
8,56-61,točka,_,_,_,_,_,6,NOUN,Ncfsg,obl
9,62-63,",",_,_,_,_,_,14,PUNCT,Z,punct
10,64-66,ko,_,_,_,_,_,14,SCONJ,Cs,mark
11,67-79,gospodarstvo,_,_,_,_,_,14,NOUN,Ncnsn,nsubj
12,80-82,ne,_,_,_,_,_,14,PART,Q,advmod
13,83-90,prenesti,_,_,_,_,_,9,VERB,Vmer3s,acl
14,91-94,več,_,_,_,_,_,14,PART,Q,advmod
15,95-103,dodaten,_,_,_,_,_,17,ADJ,Agpfpg,amod
16,104-115,obremenitev,_,_,_,_,_,14,NOUN,Ncfpg,obj
17,116-117,",",_,_,_,_,_,14,PUNCT,Z,punct
18,118-120,biti,_,_,_,_,_,20,AUX,Va-r3s-n,aux
19,121-126,dejati,_,_,_,_,_,6,VERB,Vmep-sm,parataxis
20,127-134,Boštjan,PER[1],_,*->12-1,*[12],_,20,PROPN,Npmsn,nsubj
21,135-141,Jazbec,PER[1],_,*->12-1,*[12],_,21,PROPN,Npmsn,flat:name
22,142-143,",",_,_,_,_,_,26,PUNCT,Z,punct
23,144-151,pozno,_,_,_,_,_,26,ADV,Rgc,advmod
24,152-154,pa,_,_,_,_,_,26,CCONJ,Cc,advmod
25,155-164,napovedati,_,_,*->12-2,*[12],_,20,VERB,Vmep-sm,root
26,165-167,še,_,_,_,_,_,26,PART,Q,advmod
27,168-169,",",_,_,_,_,_,35,PUNCT,Z,punct
28,170-172,da,_,_,_,_,_,35,SCONJ,Cs,mark
29,173-175,biti,_,_,_,_,_,35,AUX,Va-f3s-n,cop
30,176-177,v,_,_,_,_,_,32,ADP,Sl,case
31,178-184,mesec,_,_,_,_,_,35,NOUN,Ncmsl,obl
32,185-188,ali,_,_,_,_,_,34,CCONJ,Cc,cc
33,189-193,dva,_,_,_,_,_,32,NUM,Mlcmdl,conj
34,194-199,znan,_,_,_,_,_,26,ADJ,Appnsn,ccomp
35,200-201,",",_,_,_,_,_,40,PUNCT,Z,punct
36,202-205,kaj,_,_,_,_,_,40,PRON,Pq-nsa,obj
37,206-208,se,_,_,_,_,_,40,PRON,Px------y,expl
38,209-211,biti,_,_,_,_,_,40,AUX,Va-f3s-n,aux
39,212-219,zgoditi,_,_,_,_,_,35,VERB,Vmep-sn,csubj
40,220-221,z,_,_,_,_,_,43,ADP,Si,case
41,222-229,bančen,_,_,_,_,_,43,ADJ,Agpmsi,amod
42,230-238,sistem,_,_,_,_,_,40,NOUN,Ncmsi,obl
43,239-240,.,_,_,_,_,_,40,PUNCT,Z,punct
44,241-247,Jazbec,PER,_,*->12-3,*[12],_,59,PROPN,Npmsn,nsubj
45,248-250,biti,_,_,_,_,_,59,AUX,Va-r3s-n,aux
46,251-253,na,_,_,_,_,_,49,ADP,Sl,case
47,254-263,posloven,_,_,_,_,_,49,ADJ,Agpnsl,amod
48,264-270,kosilo,_,_,_,_,_,59,NOUN,Ncnsl,obl
49,271-272,v,_,_,_,_,_,51,ADP,Sl,case
50,273-285,organizacija,_,0,*->1-1,*[1],3 - Nevtralno[16],49,NOUN,Ncfsl,nmod
51,286-295,združenje,ORG[2],0,*->1-1,*[1],3 - Nevtralno[16],51,NOUN,Ncnsg,nmod
52,296-301,mreža,ORG[2],0,*->1-1,*[1],3 - Nevtralno[16],52,NOUN,Ncfsn,nmod
53,302-306,ideja,ORG[2],0,*->1-1,*[1],3 - Nevtralno[16],53,NOUN,Ncfpg,nmod
54,307-309,in,_,_,_,_,_,57,CCONJ,Cc,cc
55,310-321,akademski,ORG[3],0,*->2-1,*[2],3 - Nevtralno[17],57,ADJ,Agpnsg,amod
56,322-329,društvo,ORG[3],0,*->2-1,*[2],3 - Nevtralno[17],54,NOUN,Ncnsg,conj
57,330-337,pravnik,ORG[3],0,*->2-1,*[2],3 - Nevtralno[17],59,NOUN,Ncmsn,nsubj
58,338-345,spomniti,_,_,_,_,_,40,VERB,Vmep-sm,conj
59,346-347,",",_,_,_,_,_,62,PUNCT,Z,punct
60,348-350,da,_,_,_,_,_,62,SCONJ,Cs,mark
61,351-355,morati,_,_,_,_,_,59,VERB,Vmpr3s,ccomp
62,356-365,Slovenija,LOC,_,*->15-1,*[15],_,62,PROPN,Npfsn,nsubj
63,366-374,sanirati,_,_,_,_,_,62,VERB,Vmbn,xcomp
64,375-381,bančen,_,_,_,_,_,66,ADJ,Agpmsay,amod
65,382-388,sistem,_,_,_,_,_,64,NOUN,Ncmsan,obj
66,389-390,",",_,_,_,_,_,62,PUNCT,Z,punct
67,391-401,pripraviti,_,_,_,_,_,64,VERB,Vmen,conj
68,402-409,program,_,_,_,_,_,68,NOUN,Ncmsan,obj
69,410-417,ukrep,_,_,_,_,_,69,NOUN,Ncmpg,nmod
70,418-420,za,_,_,_,_,_,72,ADP,Sa,case
71,421-429,oživitev,_,_,_,_,_,70,NOUN,Ncfsa,nmod
72,430-442,gospodarstvo,_,_,_,_,_,72,NOUN,Ncnsg,nmod
73,443-445,in,_,_,_,_,_,75,CCONJ,Cc,cc
74,446-456,zagotoviti,_,_,_,_,_,68,VERB,Vmen,conj
75,457-466,političen,_,_,_,_,_,77,ADJ,Agpfsa,amod
76,467-477,stabilnost,_,_,_,_,_,75,NOUN,Ncfsa,obj
77,478-479,",",_,_,_,_,_,81,PUNCT,Z,punct
78,480-482,ki,_,_,_,_,_,81,SCONJ,Cs,mark
79,483-485,biti,_,_,_,_,_,81,AUX,Va-r3s-n,cop
80,486-494,pomemben,_,_,_,_,_,77,ADJ,Agpfsn,acl
81,495-497,za,_,_,_,_,_,83,ADP,Sa,case
82,498-509,uresničitev,_,_,_,_,_,81,NOUN,Ncfsa,obl
83,510-515,prvi,_,_,_,_,_,86,ADJ,Mlofpg,amod
84,516-520,dva,_,_,_,_,_,86,NUM,Mlcfdg,nummod
85,521-526,naloga,_,_,_,_,_,83,NOUN,Ncfdg,nmod
86,527-528,.,_,_,_,_,_,81,PUNCT,Z,punct
87,529-530,a,_,_,_,_,_,91,CCONJ,Cc,cc
88,531-533,ko,_,_,_,_,_,91,SCONJ,Cs,mark
89,534-538,biti,_,_,_,_,_,91,AUX,Va-f1p-n,aux
90,539-545,rešiti,_,_,_,_,_,81,VERB,Vmep-pm,advcl
91,546-551,banka,_,_,_,_,_,91,NOUN,Ncfpa,obj
92,552-553,",",_,_,_,_,_,91,PUNCT,Z,punct
93,554-556,se,_,_,_,_,_,95,PRON,Px------y,expl
94,557-564,postaviti,_,_,_,_,_,3,VERB,Vmer3s,parataxis
95,565-570,velik,_,_,_,_,_,97,ADJ,Agcnsa,amod
96,571-580,vprašanje,_,_,_,_,_,95,NOUN,Ncnsa,obj
97,581-582,-,_,_,_,_,_,100,PUNCT,Z,punct
98,583-586,kaj,_,_,_,_,_,100,PRON,Pq-nsn,nsubj
99,587-589,biti,_,_,_,_,_,97,VERB,Va-f3s-n,acl
100,590-592,po,_,_,_,_,_,102,ADP,Sl,case
101,593-596,ta,_,_,_,_,_,100,DET,Pd-nsl,obl
102,597-598,?,_,_,_,_,_,95,PUNCT,Z,punct
103,599-600,",",_,_,_,_,_,100,PUNCT,Z,punct
104,601-609,opozarjati,_,_,_,_,_,95,VERB,Vmpr3s,parataxis
105,610-616,Jazbec,PER,_,*->12-4,*[12],_,105,PROPN,Npmsn,nsubj
106,617-618,.,_,_,_,_,_,95,PUNCT,Z,punct
107,619-626,razmera,_,_,_,_,_,105,NOUN,Ncfpa,obj
108,627-628,v,_,_,_,_,_,111,ADP,Sl,case
109,629-636,bančen,_,_,_,_,_,111,ADJ,Agpmsl,amod
110,637-644,sistem,_,_,_,_,_,108,NOUN,Ncmsl,nmod
111,645-647,biti,_,_,_,_,_,117,AUX,Va-r3p-n,cop
112,648-650,po,_,_,_,_,_,115,ADP,Sl,case
113,651-659,njegov,_,_,_,_,_,115,DET,Ps3nslsm,det
114,660-666,mnenje,_,_,_,_,_,117,NOUN,Ncnsl,obl
115,667-674,zrcalen,_,_,_,_,_,117,ADJ,Agpfsn,amod
116,675-680,slika,_,_,_,_,_,105,NOUN,Ncfsn,nsubj
117,681-690,dogajanje,_,_,_,_,_,117,NOUN,Ncnsg,nmod
118,691-692,v,_,_,_,_,_,120,ADP,Sl,case
119,693-705,gospodarstvo,_,_,_,_,_,118,NOUN,Ncnsl,nmod
120,706-707,.,_,_,_,_,_,117,PUNCT,Z,punct
121,708-716,pomemben,_,_,_,_,_,123,ADJ,Agpfsn,amod
122,717-725,lastnica,_,_,_,_,_,117,NOUN,Ncfsn,nsubj
123,726-730,banka,_,_,_,_,_,123,NOUN,Ncfpg,nmod
124,731-733,in,_,_,_,_,_,126,CCONJ,Cc,cc
125,734-742,podjetje,_,_,_,_,_,124,NOUN,Ncnpg,conj
126,743-745,biti,_,_,_,_,_,128,AUX,Va-r3s-n,cop
127,746-752,država,_,_,*->15-2,*[15],_,123,NOUN,Ncfsn,nsubj
128,753-754,",",_,_,_,_,_,134,PUNCT,Z,punct
129,755-758,pri,_,_,_,_,_,131,ADP,Sl,case
130,759-764,kar,_,_,_,_,_,134,PRON,Pr-nsl,obl
131,765-767,biti,_,_,_,_,_,134,AUX,Va-r3s-n,aux
132,768-774,Jazbec,PER,_,*->12-5,*[12],_,134,PROPN,Npmsn,nsubj
133,775-782,spomniti,_,_,_,_,_,128,VERB,Vmep-sm,acl
134,783-784,",",_,_,_,_,_,140,PUNCT,Z,punct
135,785-787,da,_,_,_,_,_,140,SCONJ,Cs,mark
136,788-791,biti,_,_,_,_,_,140,AUX,Va-r1p-n,aux
137,792-796,sam,_,_,_,_,_,140,ADJ,Agpmpn,obl
138,797-801,se,_,_,_,_,_,140,PRON,Px---d,obj
139,802-810,dokazati,_,_,_,_,_,134,VERB,Vmep-pm,ccomp
140,811-812,",",_,_,_,_,_,144,PUNCT,Z,punct
141,813-815,da,_,_,_,_,_,144,SCONJ,Cs,mark
142,816-818,ne,_,_,_,_,_,144,PART,Q,advmod
143,819-824,znati,_,_,_,_,_,140,VERB,Vmpr1p,ccomp
144,825-835,učinkovito,_,_,_,_,_,146,ADV,Rgp,advmod
145,836-846,upravljati,_,_,_,_,_,144,VERB,Vmpn,xcomp
146,847-854,svoj,_,_,_,_,_,148,DET,Px-nsg,det
147,855-865,premoženje,_,_,_,_,_,146,NOUN,Ncnsg,obj
148,866-867,.,_,_,_,_,_,134,PUNCT,Z,punct
149,868-875,obstajati,_,_,_,_,_,134,VERB,Vmpr3s,parataxis
150,876-883,spodnji,_,_,_,_,_,152,ADJ,Agpfsn,amod
151,884-889,točka,_,_,_,_,_,150,NOUN,Ncfsn,nsubj
152,890-891,",",_,_,_,_,_,157,PUNCT,Z,punct
153,892-894,ko,_,_,_,_,_,157,SCONJ,Cs,mark
154,895-904,enostavno,_,_,_,_,_,157,ADV,Rgp,advmod
155,905-907,ne,_,_,_,_,_,157,PART,Q,advmod
156,908-915,zmoči,_,_,_,_,_,152,VERB,Vmer2p,acl
157,916-919,več,_,_,_,_,_,157,PART,Q,advmod
158,920-921,",",_,_,_,_,_,157,PUNCT,Z,punct
159,922-924,biti,_,_,*->12-6,*[12],_,161,AUX,Va-r3s-n,aux
160,925-930,dejati,_,_,*->12-6,*[12],_,123,VERB,Vmep-sm,acl
161,931-933,in,_,_,*->12-6,*[12],_,163,CCONJ,Cc,cc
162,934-939,dodati,_,_,*->12-6,*[12],_,161,VERB,Vmep-sm,root
163,940-941,",",_,_,_,_,_,170,PUNCT,Z,punct
164,942-944,da,_,_,_,_,_,170,SCONJ,Cs,mark
165,945-957,gospodarstvo,_,_,_,_,_,170,NOUN,Ncnsn,nsubj
166,958-966,dodaten,_,_,_,_,_,168,ADJ,Agpfpg,amod
167,967-978,obremenitev,_,_,_,_,_,166,NOUN,Ncfpg,nmod
168,979-981,ne,_,_,_,_,_,170,PART,Q,advmod
169,982-989,prenesti,_,_,_,_,_,163,VERB,Vmer3s,ccomp
170,990-993,več,_,_,_,_,_,170,PART,Q,advmod
171,994-995,.,_,_,_,_,_,177,PUNCT,Z,punct
172,996-998,če,_,_,_,_,_,177,SCONJ,Cs,mark
173,999-1001,se,_,_,_,_,_,177,PRON,Px------y,expl
174,1002-1014,gospodarstvo,_,_,_,_,_,177,NOUN,Ncnsn,nsubj
175,1015-1017,ne,_,_,_,_,_,177,PART,Q,advmod
176,1018-1025,postaviti,_,_,_,_,_,170,VERB,Vmer3s,advcl
177,1026-1028,na,_,_,_,_,_,179,ADP,Sa,case
178,1029-1033,noga,_,_,_,_,_,177,NOUN,Ncfpa,obl
179,1034-1035,",",_,_,_,_,_,177,PUNCT,Z,punct
180,1036-1044,sanacija,_,_,_,_,_,184,NOUN,Ncfsn,nsubj
181,1045-1049,banka,_,_,_,_,_,181,NOUN,Ncfpg,nmod
182,1050-1052,biti,_,_,_,_,_,184,AUX,Va-r3s-y,cop
183,1053-1061,smiseln,_,_,_,_,_,177,ADJ,Agpfsn,conj
184,1062-1071,Slovenija,LOC,_,*->15-3,*[15],_,191,PROPN,Npfsn,nsubj
185,1072-1074,biti,_,_,_,_,_,191,AUX,Va-r3s-n,cop
186,1075-1077,še,_,_,_,_,_,191,PART,Q,advmod
187,1078-1083,vedno,_,_,_,_,_,191,ADV,Rgp,advmod
188,1084-1093,relativno,_,_,*->15-4,*[15],_,190,ADV,Rgp,advmod
189,1094-1098,malo,_,_,*->15-4,*[15],_,191,DET,Rgp,advmod
190,1099-1108,zadolžen,_,_,*->15-4,*[15],_,184,ADJ,Appfsn,csubj
191,1109-1115,država,_,_,*->15-4,*[15],_,191,NOUN,Ncfsn,nsubj
192,1116-1117,",",_,_,_,_,_,191,PUNCT,Z,punct
193,1118-1119,a,_,_,_,_,_,199,CCONJ,Cc,cc
194,1120-1122,se,_,_,_,_,_,199,PRON,Px------y,expl
195,1123-1126,pri,_,_,*->15-5,*[15],_,197,ADP,Sl,case
196,1127-1130,jaz,_,_,*->15-5,*[15],_,199,PRON,Pp1-pl,obl
197,1131-1136,redek,_,_,_,_,_,199,ADJ,Agpmpn,nsubj
198,1137-1146,ukvarjati,_,_,_,_,_,191,VERB,Vmpr3p,conj
199,1147-1148,z,_,_,_,_,_,201,ADP,Si,case
200,1149-1159,vprašanje,_,_,_,_,_,199,NOUN,Ncnsi,obl
201,1160-1161,",",_,_,_,_,_,204,PUNCT,Z,punct
202,1162-1166,kako,_,_,_,_,_,204,ADV,Rgp,advmod
203,1167-1177,zagotoviti,_,_,_,_,_,201,VERB,Vmen,acl
204,1178-1184,pogoj,_,_,_,_,_,204,NOUN,Ncmpa,obj
205,1185-1187,za,_,_,_,_,_,209,ADP,Sa,case
206,1188-1193,visok,_,_,_,_,_,209,ADJ,Agcfsa,amod
207,1194-1205,gospodarski,_,_,_,_,_,209,ADJ,Agpfsa,amod
208,1206-1210,rast,_,_,_,_,_,205,NOUN,Ncfsa,nmod
209,1211-1214,ali,_,_,_,_,_,212,CCONJ,Cc,cc
210,1215-1219,vsaj,_,_,_,_,_,212,PART,Q,advmod
211,1220-1230,preprečiti,_,_,_,_,_,204,VERB,Vmen,conj
212,1231-1238,padanja,_,_,_,_,_,212,NOUN,Ncnsa,obj
213,1239-1250,gospodarski,_,_,_,_,_,215,ADJ,Agpfsg,amod
214,1251-1261,dejavnost,_,_,_,_,_,213,NOUN,Ncfsg,nmod
215,1262-1263,",",_,_,_,_,_,204,PUNCT,Z,punct
216,1264-1266,biti,_,_,*->12-7,*[12],_,218,AUX,Va-r3s-n,aux
217,1267-1272,dejati,_,_,*->12-7,*[12],_,3,VERB,Vmep-sm,parataxis
218,1273-1274,.,_,_,_,_,_,218,PUNCT,Z,punct
219,1275-1277,če,_,_,_,_,_,224,SCONJ,Cs,mark
220,1278-1281,jaz,_,_,_,_,_,224,PRON,Pp1-pd,obj
221,1282-1284,ne,_,_,_,_,_,224,PART,Q,advmod
222,1285-1287,biti,_,_,_,_,_,224,AUX,Va-f3s-n,aux
223,1288-1294,uspeti,_,_,_,_,_,212,VERB,Vmep-sn,advcl
224,1295-1305,zagotoviti,_,_,_,_,_,224,VERB,Vmen,xcomp
225,1306-1313,pogoj,_,_,_,_,_,225,NOUN,Ncmpg,obj
226,1314-1316,za,_,_,_,_,_,230,ADP,Sa,case
227,1317-1322,visok,_,_,_,_,_,230,ADJ,Agcfsa,amod
228,1323-1334,gospodarski,_,_,_,_,_,230,ADJ,Agpfsa,amod
229,1335-1339,rast,_,_,_,_,_,226,NOUN,Ncfsa,nmod
230,1340-1341,",",_,_,_,_,_,224,PUNCT,Z,punct
231,1342-1344,biti,_,_,_,_,_,244,AUX,Va-r3s-n,cop
232,1345-1352,kakršen,_,_,_,_,_,235,DET,Pq-msn,det
233,1353-1357,koli,_,_,_,_,_,233,PART,Q,fixed
234,1358-1365,pristop,_,_,_,_,_,244,NOUN,Ncmsn,nsubj
235,1366-1367,k,_,_,_,_,_,237,ADP,Sd,case
236,1368-1377,reševanje,_,_,_,_,_,235,NOUN,Ncnsd,nmod
237,1378-1386,bančen,_,_,_,_,_,239,ADJ,Agpmsg,amod
238,1387-1394,sistem,_,_,_,_,_,237,NOUN,Ncmsg,nmod
239,1395-1397,po,_,_,_,_,_,241,ADP,Sl,case
240,1398-1404,mnenje,_,_,_,_,_,239,NOUN,Ncnsl,nmod
241,1405-1415,guverner,_,_,*->12-8,*[12],_,241,NOUN,Ncmsg,nmod
242,1416-1425,popolnoma,_,_,_,_,_,244,ADV,Rgp,advmod
243,1426-1435,nesmiseln,_,_,_,_,_,230,ADJ,Agpmsnn,acl
244,1436-1437,.,_,_,_,_,_,244,PUNCT,Z,punct
245,1438-1444,Jazbec,PER,_,*->12-9,*[12],_,251,PROPN,Npmsn,nsubj
246,1445-1447,biti,_,_,_,_,_,251,AUX,Va-r3s-n,cop
247,1448-1453,kljub,_,_,_,_,_,249,ADP,Sd,case
248,1454-1458,ta,_,_,_,_,_,251,DET,Pd-nsd,obl
249,1459-1465,precej,_,_,_,_,_,251,ADV,Rgp,advmod
250,1466-1478,optimističen,_,_,_,_,_,244,ADJ,Agpmsnn,conj
251,1479-1480,.,_,_,_,_,_,254,PUNCT,Z,punct
252,1481-1484,kot,_,_,_,_,_,254,SCONJ,Cs,mark
253,1485-1490,praviti,_,_,_,_,_,251,VERB,Vmbr3s,advcl
254,1491-1492,",",_,_,_,_,_,254,PUNCT,Z,punct
255,1493-1496,biti,_,_,_,_,_,257,AUX,Va-r1p-n,aux
256,1497-1503,priti,_,_,_,_,_,251,VERB,Vmep-pm,parataxis
257,1504-1506,do,_,_,_,_,_,259,ADP,Sg,case
258,1507-1512,točka,_,_,_,_,_,257,NOUN,Ncfsg,obl
259,1513-1514,",",_,_,_,_,_,264,PUNCT,Z,punct
260,1515-1517,ko,_,_,_,_,_,264,SCONJ,Cs,mark
261,1518-1524,naprej,_,_,_,_,_,264,ADV,Rgp,advmod
262,1525-1527,ne,_,_,_,_,_,264,PART,Q,advmod
263,1528-1534,moči,_,_,_,_,_,259,VERB,Vmpr1p,acl
264,1535-1538,več,_,_,_,_,_,264,PART,Q,advmod
265,1539-1541,na,_,_,_,_,_,268,ADP,Sa,case
266,1542-1546,enak,_,_,_,_,_,268,DET,Pi-msa,det
267,1547-1552,način,_,_,_,_,_,264,NOUN,Ncmsan,obl
268,1553-1556,kot,_,_,_,_,_,271,SCONJ,Cs,case
269,1557-1559,do,_,_,_,_,_,271,ADP,Sg,case
270,1560-1564,zdaj,_,_,_,_,_,268,ADV,Rgp,advmod
271,1565-1566,.,_,_,_,_,_,274,PUNCT,Z,punct
272,1567-1569,ko,_,_,_,_,_,274,SCONJ,Cs,mark
273,1570-1577,priti,_,_,_,_,_,264,VERB,Vmer2p,advcl
274,1578-1580,do,_,_,_,_,_,277,ADP,Sg,case
275,1581-1583,ta,_,_,_,_,_,277,DET,Pd-fsg,det
276,1584-1589,točka,_,_,_,_,_,274,NOUN,Ncfsg,obl
277,1590-1591,",",_,_,_,_,_,274,PUNCT,Z,punct
278,1592-1595,biti,_,_,_,_,_,305,AUX,Va-r3d-n,aux
279,1596-1603,rešitev,_,_,_,_,_,305,NOUN,Ncfdn,nsubj
280,1604-1608,samo,_,_,_,_,_,282,PART,Q,advmod
281,1609-1612,dva,_,_,_,_,_,280,NUM,Mlcfdn,nummod
282,1613-1614,-,_,_,_,_,_,282,PUNCT,Z,punct
283,1615-1618,ali,_,_,_,_,_,285,CCONJ,Cc,cc
284,1619-1625,zbrati,_,_,_,_,_,282,VERB,Vmen,conj
285,1626-1629,ves,_,_,_,_,_,287,DET,Pg-msa,det
286,1630-1635,pogum,_,_,_,_,_,285,NOUN,Ncmsan,obj
287,1636-1638,in,_,_,_,_,_,289,CCONJ,Cc,cc
288,1639-1647,narediti,_,_,_,_,_,285,VERB,Vmen,conj
289,1648-1653,tisti,_,_,_,_,_,291,DET,Pd-msa,det
290,1654-1659,korak,_,_,_,_,_,289,NOUN,Ncmsan,obj
291,1660-1666,naprej,_,_,_,_,_,291,ADV,Rgp,advmod
292,1667-1670,ali,_,_,_,_,_,294,CCONJ,Cc,cc
293,1671-1678,pustiti,_,_,_,_,_,289,VERB,Vmen,conj
294,1679-1680,",",_,_,_,_,_,300,PUNCT,Z,punct
295,1681-1683,da,_,_,_,_,_,300,SCONJ,Cs,mark
296,1684-1686,ta,_,_,_,_,_,300,DET,Pd-nsa,obj
297,1687-1694,namesto,_,_,_,_,_,299,ADP,Sg,case
298,1695-1698,ti,_,_,_,_,_,300,PRON,Pp2-pa,obl
299,1699-1705,narediti,_,_,_,_,_,294,VERB,Vmer3s,ccomp
300,1706-1711,nekdo,_,_,_,_,_,300,PRON,Pi-msn,nsubj
301,1712-1716,drug,_,_,_,_,_,301,ADJ,Mlpmsnn,amod
302,1717-1718,",",_,_,_,_,_,300,PUNCT,Z,punct
303,1719-1721,biti,_,_,*->12-10,*[12],_,305,AUX,Va-r3s-n,aux
304,1722-1727,dejati,_,_,*->12-10,*[12],_,251,VERB,Vmep-sm,parataxis
305,1728-1729,.,_,_,_,_,_,305,PUNCT,Z,punct
306,1730-1731,a,_,_,_,_,_,308,CCONJ,Cc,cc
307,1732-1739,verjeti,_,_,*->12-11,*[12],_,305,VERB,Vmbr3s,conj
308,1740-1741,",",_,_,_,_,_,313,PUNCT,Z,punct
309,1742-1744,da,_,_,_,_,_,313,SCONJ,Cs,mark
310,1745-1748,jaz,_,_,_,_,_,313,PRON,Pp1-pd,obj
311,1749-1754,lahko,_,_,_,_,_,313,ADV,Rgp,advmod
312,1755-1759,uspeti,_,_,_,_,_,308,VERB,Vmer3s,ccomp
313,1760-1761,",",_,_,_,_,_,323,PUNCT,Z,punct
314,1762-1765,pri,_,_,_,_,_,323,ADP,Sl,mark
315,1766-1771,kar,_,_,_,_,_,323,PRON,Pr-nsl,obl
316,1772-1774,pa,_,_,_,_,_,323,CCONJ,Cc,advmod
317,1775-1779,biti,_,_,_,_,_,323,AUX,Va-f1p-n,aux
318,1780-1788,verjetno,_,_,_,_,_,323,ADV,Rgp,advmod
319,1789-1793,tako,_,_,_,_,_,323,ADV,Rgp,advmod
320,1794-1797,ali,_,_,_,_,_,322,CCONJ,Cc,cc
321,1798-1805,drugače,_,_,_,_,_,320,ADV,Rgp,conj
322,1806-1817,potrebovati,_,_,_,_,_,313,VERB,Vmpp-pm,advcl
323,1818-1826,nekakšen,_,_,_,_,_,325,DET,Pi-fsa,det
324,1827-1832,pomoč,_,_,_,_,_,323,NOUN,Ncfsa,obj
325,1833-1834,-,_,_,_,_,_,328,PUNCT,Z,punct
326,1835-1838,ali,_,_,_,_,_,328,CCONJ,Cc,cc
327,1839-1849,zasebnik,_,_,_,_,_,325,NOUN,Ncmpg,conj
328,1850-1853,ali,_,_,_,_,_,330,CCONJ,Cc,cc
329,1854-1864,institucija,_,_,_,_,_,325,NOUN,Ncfpg,conj
330,1865-1866,.,_,_,_,_,_,323,PUNCT,Z,punct
331,1867-1876,Slovenija,LOC,_,*->15-6,*[15],_,333,PROPN,Npfsn,nsubj
332,1877-1880,imeti,_,_,_,_,_,251,VERB,Vmpr3s-n,csubj
333,1881-1890,potencial,_,_,_,_,_,333,NOUN,Ncmsan,obj
334,1891-1892,",",_,_,_,_,_,342,PUNCT,Z,punct
335,1893-1895,ki,_,_,_,_,_,342,SCONJ,Cs,mark
336,1896-1898,pa,_,_,_,_,_,342,CCONJ,Cc,advmod
337,1899-1901,on,_,_,_,_,_,342,PRON,Pp3msa--y,obj
338,1902-1904,do,_,_,_,_,_,340,ADP,Sg,case
339,1905-1909,zdaj,_,_,_,_,_,342,ADV,Rgp,advmod
340,1910-1915,biti,_,_,_,_,_,342,AUX,Va-r1p-y,aux
341,1916-1926,prepoznati,_,_,_,_,_,334,VERB,Vmep-pm,acl
342,1927-1933,zaradi,_,_,_,_,_,345,ADP,Sg,case
343,1934-1943,različen,_,_,_,_,_,345,ADJ,Agpfpg,amod
344,1944-1948,igra,_,_,_,_,_,342,NOUN,Ncfpg,obl
345,1949-1950,",",_,_,_,_,_,342,PUNCT,Z,punct
346,1951-1953,biti,_,_,_,_,_,348,AUX,Va-r3s-n,aux
347,1954-1961,skleniti,_,_,_,_,_,3,VERB,Vmep-sm,parataxis
348,1962-1970,guverner,_,_,*->12-12,*[12],_,348,NOUN,Ncmsn,nsubj
349,1971-1972,.,_,_,_,_,_,348,PUNCT,Z,punct
350,1973-1982,izvoznik,_,_,_,_,_,353,NOUN,Ncmpn,nsubj
351,1983-1985,se,_,_,_,_,_,353,PRON,Px------y,expl
352,1986-1995,spopadati,_,_,_,_,_,348,VERB,Vmpr3p,advcl
353,1996-1997,z,_,_,_,_,_,356,ADP,Si,case
354,1998-2007,prehud,_,_,_,_,_,356,ADJ,Agpfpi,amod
355,2008-2017,zahteva,_,_,_,_,_,353,NOUN,Ncfpi,obl
356,2018-2022,banka,_,_,_,_,_,356,NOUN,Ncfpg,nmod
357,2023-2030,pozno,_,_,_,_,_,363,ADV,Rgc,advmod
358,2031-2033,pa,_,_,_,_,_,363,CCONJ,Cc,advmod
359,2034-2036,se,_,_,_,_,_,363,PRON,Px------y,expl
360,2037-2039,biti,_,_,_,_,_,363,AUX,Va-r3s-n,aux
361,2040-2048,guverner,_,_,*->12-13,*[12],_,363,NOUN,Ncmsn,nsubj
362,2049-2057,udeležiti,_,_,_,_,_,353,VERB,Vmep-sm,conj
363,2058-2062,tudi,_,_,_,_,_,363,PART,Q,advmod
364,2063-2067,seja,_,_,_,_,_,363,NOUN,Ncfsg,obj
365,2068-2077,upraven,_,_,_,_,_,367,ADJ,Agpmsg,amod
366,2078-2084,odbor,_,_,_,_,_,365,NOUN,Ncmsg,nmod
367,2085-2088,GZS,ORG,_,*->4-1,*[4],_,367,PROPN,Npmsn,nmod
368,2089-2090,-,_,_,_,_,_,370,PUNCT,Z,punct
369,2091-2093,ja,_,_,_,_,_,368,PART,Q,conj
370,2094-2096,in,_,_,_,_,_,373,CCONJ,Cc,cc
371,2097-2100,on,_,_,_,_,_,373,PRON,Pp3mpd--y,iobj
372,2101-2111,predstaviti,_,_,_,_,_,363,VERB,Vmep-sm,conj
373,2112-2116,svoj,_,_,_,_,_,375,DET,Px-msa,det
374,2117-2123,pogled,_,_,_,_,_,373,NOUN,Ncmsan,obj
375,2124-2126,na,_,_,_,_,_,377,ADP,Sa,case
376,2127-2136,reševanje,_,_,_,_,_,375,NOUN,Ncnsa,nmod
377,2137-2147,zapleten,_,_,_,_,_,382,ADJ,Agpfpg,amod
378,2148-2157,finančen,_,_,_,_,_,382,ADJ,Agpfpg,amod
379,2158-2160,in,_,_,_,_,_,381,CCONJ,Cc,cc
380,2161-2173,gospodarski,_,_,_,_,_,379,ADJ,Agpfpg,conj
381,2174-2180,razmera,_,_,_,_,_,377,NOUN,Ncfpg,nmod
382,2181-2182,.,_,_,_,_,_,353,PUNCT,Z,punct
383,2183-2187,prvi,_,_,*->3-1,*[3],_,385,ADJ,Mlomsn,amod
384,2188-2191,mož,_,_,*->3-1,*[3],_,353,NOUN,Ncmsn,nsubj
385,2192-2195,GZS,ORG,0,*->3-1|*->4-2,*[3]|*[4],3 - Nevtralno,385,PROPN,Npmsn,nmod
386,2196-2197,-,_,_,*->3-1,*[3],_,388,PUNCT,Z,punct
387,2198-2200,ja,_,_,*->3-1,*[3],_,394,PART,Q,advmod
388,2201-2205,samo,PER[4],_,*->3-1,*[3],_,388,PART,Q,fixed
389,2206-2212,Hribar,PER[4],_,*->3-1,*[3],_,385,PROPN,Npmsn,nmod
390,2213-2218,Milič,PER[4],_,*->3-1,*[3],_,390,PROPN,Npmsn,flat:name
391,2219-2221,on,_,_,*->12-14,*[12],_,394,PRON,Pp3msa--y,obj
392,2222-2224,biti,_,_,_,_,_,394,AUX,Va-r3s-n,aux
393,2225-2233,opozoriti,_,_,_,_,_,390,VERB,Vmep-sm,acl
394,2234-2235,",",_,_,_,_,_,397,PUNCT,Z,punct
395,2236-2238,da,_,_,_,_,_,397,SCONJ,Cs,mark
396,2239-2250,potrebovati,_,_,_,_,_,394,VERB,Vmpr1p,ccomp
397,2251-2256,zagon,_,_,_,_,_,397,NOUN,Ncmsan,obj
398,2257-2269,gospodarstvo,_,_,_,_,_,398,NOUN,Ncnsg,nmod
399,2270-2271,",",_,_,_,_,_,397,PUNCT,Z,punct
400,2272-2278,vendar,_,_,_,_,_,409,CCONJ,Cc,cc
401,2279-2281,pa,_,_,_,_,_,409,CCONJ,Cc,advmod
402,2282-2284,se,_,_,_,_,_,409,PRON,Px------y,expl
403,2285-2301,gospodarstvenik,_,_,_,_,_,409,NOUN,Ncmpn,nsubj
404,2302-2303,v,_,_,_,_,_,406,ADP,Sl,case
405,2304-2310,banka,_,_,_,_,_,409,NOUN,Ncfpl,obl
406,2311-2315,vsak,_,_,_,_,_,408,DET,Pg-msa,det
407,2316-2319,dan,_,_,_,_,_,409,NOUN,Ncmsan,obl
408,2320-2329,srečevati,_,_,_,_,_,394,VERB,Vmpr3p,conj
409,2330-2331,z,_,_,_,_,_,413,ADP,Si,case
410,2332-2336,zelo,_,_,_,_,_,412,ADV,Rgp,advmod
411,2337-2348,zapleten,_,_,_,_,_,413,ADJ,Agpfpi,amod
412,2349-2358,razmera,_,_,_,_,_,409,NOUN,Ncfpi,obl
413,2359-2360,.,_,_,_,_,_,409,PUNCT,Z,punct
414,2361-2362,z,_,_,_,_,_,416,ADP,Si,case
415,2363-2366,ta,_,_,_,_,_,419,DET,Pd-nsi,obl
416,2367-2369,biti,_,_,_,_,_,419,AUX,Va-r3p-n,aux
417,2370-2372,se,_,_,_,_,_,419,PRON,Px------y,expl
418,2373-2382,strinjati,_,_,_,_,_,409,VERB,Vmpp-pm,conj
419,2383-2387,tudi,_,_,_,_,_,419,PART,Q,advmod
420,2388-2396,prisoten,_,_,_,_,_,422,ADJ,Agpmpn,amod
421,2397-2407,podjetnik,_,_,_,_,_,419,NOUN,Ncmpn,nsubj
422,2408-2409,.,_,_,_,_,_,419,PUNCT,Z,punct
423,2410-2418,direktor,_,_,*->6-1,*[6],_,431,NOUN,Ncmsn,nsubj
424,2419-2425,družba,_,0,*->6-1|*->5-1,*[6]|*[5],3 - Nevtralno[18],424,NOUN,Ncfsg,nmod
425,2426-2431,Štore,ORG[5]|LOC[6],0,*->6-1|*->5-1|*->10-1,*[6]|*[5]|*[10],3 - Nevtralno[18]|3 - Nevtralno[19],425,PROPN,Npmsn,nmod
426,2432-2437,Steel,ORG[5],0,*->6-1|*->5-1,*[6]|*[5],3 - Nevtralno[18],428,PROPN,Npmsn,nmod
427,2438-2444,Marjan,PER[7],_,*->6-1,*[6],_,424,PROPN,Npmsn,nmod
428,2445-2453,Mačkošek,PER[7],_,*->6-1,*[6],_,428,PROPN,Npmsn,flat:name
429,2454-2456,se,_,_,_,_,_,431,PRON,Px------y,expl
430,2457-2461,bati,_,_,_,_,_,419,VERB,Vmpr3s,conj
431,2462-2463,",",_,_,_,_,_,442,PUNCT,Z,punct
432,2464-2466,da,_,_,_,_,_,442,SCONJ,Cs,mark
433,2467-2476,izvoznik,_,_,_,_,_,442,NOUN,Ncmpn,nsubj
434,2477-2483,zaradi,_,_,_,_,_,437,ADP,Sg,case
435,2484-2492,prehud,_,_,_,_,_,437,ADJ,Agpfpg,amod
436,2493-2499,zahteva,_,_,_,_,_,443,NOUN,Ncfpg,obl
437,2500-2504,banka,_,_,_,_,_,437,NOUN,Ncfpg,nmod
438,2505-2507,ne,_,_,_,_,_,442,PART,Q,advmod
439,2508-2512,biti,_,_,_,_,_,442,AUX,Va-f3p-n,aux
440,2513-2516,več,_,_,_,_,_,442,PART,Q,advmod
441,2517-2523,zmoči,_,_,_,_,_,431,VERB,Vmep-pm,ccomp
442,2524-2537,zadovoljevati,_,_,_,_,_,442,VERB,Vmpn,xcomp
443,2538-2544,potreba,_,_,_,_,_,443,NOUN,Ncfpg,obj
444,2545-2547,in,_,_,_,_,_,446,CCONJ,Cc,cc
445,2548-2555,naročiti,_,_,_,_,_,443,VERB,Vmep-sm,conj
446,2556-2558,iz,_,_,_,_,_,448,ADP,Sg,case
447,2559-2565,tujina,_,_,_,_,_,446,NOUN,Ncfsg,obl
448,2566-2567,.,_,_,_,_,_,431,PUNCT,Z,punct
449,2568-2574,Jazbec,PER,_,*->12-15,*[12],_,453,PROPN,Npmsn,nsubj
450,2575-2577,on,_,_,*->6-2,*[6],_,453,PRON,Pp3msd--y,obj
451,2578-2580,biti,_,_,_,_,_,453,AUX,Va-r3s-n,aux
452,2581-2590,odgovoriti,_,_,_,_,_,431,VERB,Vmep-sm,root
453,2591-2592,",",_,_,_,_,_,456,PUNCT,Z,punct
454,2593-2595,da,_,_,_,_,_,456,SCONJ,Cs,mark
455,2596-2599,up,_,_,_,_,_,453,VERB,Vmpr3s,ccomp
456,2600-2601,",",_,_,_,_,_,464,PUNCT,Z,punct
457,2602-2604,da,_,_,_,_,_,464,SCONJ,Cs,mark
458,2605-2607,biti,_,_,_,_,_,464,AUX,Va-f3s-n,aux
459,2608-2615,izvozen,_,_,_,_,_,461,ADJ,Agpmsny,amod
460,2616-2619,del,_,_,_,_,_,464,NOUN,Ncmsn,nsubj
461,2620-2631,slovenski,_,_,_,_,_,463,ADJ,Agpnsg,amod
462,2632-2644,gospodarstvo,_,_,_,_,_,461,NOUN,Ncnsg,nmod
463,2645-2651,zdržati,_,_,_,_,_,456,VERB,Vmep-sm,ccomp
464,2652-2656,vsaj,_,_,_,_,_,464,PART,Q,advmod
465,2657-2659,še,_,_,_,_,_,464,PART,Q,advmod
466,2660-2665,mesec,_,_,_,_,_,464,NOUN,Ncmsan,obl
467,2666-2669,ali,_,_,_,_,_,469,CCONJ,Cc,cc
468,2670-2673,dva,_,_,_,_,_,467,NUM,Mlcmda,conj
469,2674-2675,",",_,_,_,_,_,473,PUNCT,Z,punct
470,2676-2678,ko,_,_,_,_,_,473,SCONJ,Cs,mark
471,2679-2683,biti,_,_,_,_,_,473,AUX,Va-f1p-n,aux
472,2684-2690,videti,_,_,_,_,_,464,VERB,Vmbp-pm,advcl
473,2691-2692,",",_,_,_,_,_,478,PUNCT,Z,punct
474,2693-2696,kaj,_,_,_,_,_,478,PRON,Pq-nsn,nsubj
475,2697-2699,se,_,_,_,_,_,478,PRON,Px------y,expl
476,2700-2702,biti,_,_,_,_,_,478,AUX,Va-f3s-n,aux
477,2703-2710,zgoditi,_,_,_,_,_,473,VERB,Vmep-sn,ccomp
478,2711-2712,z,_,_,_,_,_,482,ADP,Si,case
479,2713-2723,slovenski,_,_,_,_,_,482,ADJ,Agpmsi,amod
480,2724-2731,bančen,_,_,_,_,_,482,ADJ,Agpmsi,amod
481,2732-2740,sistem,_,_,_,_,_,478,NOUN,Ncmsi,obl
482,2741-2742,.,_,_,_,_,_,473,PUNCT,Z,punct
483,2743-2752,pričakovati,_,_,*->12-16,*[12],_,453,VERB,Vmpr3s,vocative
484,2753-2754,",",_,_,_,_,_,502,PUNCT,Z,punct
485,2755-2757,da,_,_,_,_,_,502,SCONJ,Cs,mark
486,2758-2762,biti,_,_,_,_,_,502,AUX,Va-f3p-n,aux
487,2763-2768,banka,_,_,_,_,_,502,NOUN,Ncfpn,nsubj
488,2769-2771,po,_,_,_,_,_,490,ADP,Sl,case
489,2772-2779,začetek,_,_,_,_,_,502,NOUN,Ncmsl,obl
490,2780-2787,prenos,_,_,_,_,_,490,NOUN,Ncmsg,nmod
491,2788-2794,slab,_,_,_,_,_,493,ADJ,Agpfpg,amod
492,2795-2803,terjatev,_,_,_,_,_,491,NOUN,Ncfpg,nmod
493,2804-2806,na,_,_,_,_,_,495,ADP,Sa,case
494,2807-2813,družba,ORG[8],0,*->7-1,*[7],3 - Nevtralno[20],491,NOUN,Ncfsa,nmod
495,2814-2816,za,ORG[8],0,*->7-1,*[7],3 - Nevtralno[20],497,ADP,Sa,case
496,2817-2828,upravljanje,ORG[8],0,*->7-1,*[7],3 - Nevtralno[20],495,NOUN,Ncnsa,nmod
497,2829-2837,terjatev,ORG[8],0,*->7-1,*[7],3 - Nevtralno[20],497,NOUN,Ncfpg,nmod
498,2838-2842,banka,ORG[8],0,*->7-1,*[7],3 - Nevtralno[20],498,NOUN,Ncfpg,nmod
499,2843-2848,znova,_,_,_,_,_,502,ADV,Rgp,advmod
500,2849-2854,lahko,_,_,_,_,_,502,ADV,Rgp,advmod
501,2855-2862,razviti,_,_,_,_,_,484,VERB,Vmep-pf,ccomp
502,2863-2867,svoj,_,_,_,_,_,505,DET,Px-msa,det
503,2868-2876,krediten,_,_,_,_,_,505,ADJ,Agpmsay,amod
504,2877-2886,potencial,_,_,_,_,_,502,NOUN,Ncmsan,obj
505,2887-2888,",",_,_,_,_,_,502,PUNCT,Z,punct
506,2889-2893,zato,_,_,_,_,_,510,CCONJ,Cc,cc
507,2894-2896,se,_,_,_,_,_,510,PRON,Px------y,expl
508,2897-2899,on,_,_,*->12-17,*[12],_,510,PRON,Pp3msd--y,obj
509,2900-2903,zdeti,_,_,_,_,_,502,VERB,Vmpr3s,conj
510,2904-2911,ključen,_,_,_,_,_,510,ADJ,Agpnsn,xcomp
511,2912-2913,",",_,_,_,_,_,517,PUNCT,Z,punct
512,2914-2916,da,_,_,_,_,_,517,SCONJ,Cs,mark
513,2917-2919,se,_,_,_,_,_,517,PRON,Px------y,expl
514,2920-2923,čim,_,_,_,_,_,516,ADV,Rgp,advmod
515,2924-2931,hitro,_,_,_,_,_,517,ADV,Rgc,advmod
516,2932-2937,začeti,_,_,_,_,_,510,VERB,Vmer3s,csubj
517,2938-2946,čiščenje,_,_,_,_,_,517,NOUN,Ncnsn,nsubj
518,2947-2953,bilanca,_,_,_,_,_,518,NOUN,Ncfpg,nmod
519,2954-2955,.,_,_,_,_,_,510,PUNCT,Z,punct
520,2956-2964,reševati,_,_,_,_,_,510,VERB,Vmpn,csubj
521,2965-2970,tisti,_,_,_,_,_,521,DET,Pd-mpa,obj
522,2971-2972,",",_,_,_,_,_,526,PUNCT,Z,punct
523,2973-2975,ki,_,_,_,_,_,526,SCONJ,Cs,mark
524,2976-2978,še,_,_,_,_,_,526,PART,Q,advmod
525,2979-2984,imeti,_,_,_,_,_,522,VERB,Vmpr3p-n,acl
526,2985-2994,potencial,_,_,_,_,_,526,NOUN,Ncmsan,obj
527,2995-3003,direktor,_,_,*->11-1,*[11],_,527,NOUN,Ncmsn,nmod
528,3004-3010,družba,_,0,*->11-1|*->8-1,*[11]|*[8],3 - Nevtralno[21],528,NOUN,Ncfsg,nmod
529,3011-3016,Varis,ORG[9],0,*->11-1|*->8-1,*[11]|*[8],3 - Nevtralno[21],529,PROPN,Npmsn,nmod
530,3017-3024,Lendava,ORG[9]|LOC[10],0,*->11-1|*->8-1|*->9-1,*[11]|*[8]|*[9],3 - Nevtralno[21]|4 - Pozitivno[22],530,PROPN,Npfsn,nmod
531,3025-3031,Štefan,PER[11],_,*->11-1,*[11],_,528,PROPN,Npmsn,nmod
532,3032-3039,Sobočan,PER[11],_,*->11-1,*[11],_,532,PROPN,Npmsn,flat:name
533,3040-3042,pa,_,_,_,_,_,536,CCONJ,Cc,advmod
534,3043-3045,biti,_,_,_,_,_,536,AUX,Va-r3s-n,aux
535,3046-3054,opozoriti,_,_,_,_,_,521,VERB,Vmep-sm,conj
536,3055-3056,",",_,_,_,_,_,542,PUNCT,Z,punct
537,3057-3059,da,_,_,_,_,_,542,SCONJ,Cs,mark
538,3060-3069,izvoznik,_,_,_,_,_,542,NOUN,Ncmpa,obj
539,3070-3072,že,_,_,_,_,_,542,PART,Q,advmod
540,3073-3077,zdaj,_,_,_,_,_,542,ADV,Rgp,advmod
541,3078-3083,skrbeti,_,_,_,_,_,536,VERB,Vmpr3s,ccomp
542,3084-3085,",",_,_,_,_,_,546,PUNCT,Z,punct
543,3086-3090,kako,_,_,_,_,_,546,ADV,Rgp,advmod
544,3091-3095,biti,_,_,_,_,_,546,AUX,Va-f3p-n,aux
545,3096-3103,zdržati,_,_,_,_,_,542,VERB,Vmep-pm,ccomp
546,3104-3106,do,_,_,_,_,_,548,ADP,Sg,case
547,3107-3112,konec,_,_,_,_,_,546,NOUN,Ncmsg,obl
548,3113-3117,leto,_,_,_,_,_,548,NOUN,Ncnsg,nmod
549,3118-3119,.,_,_,_,_,_,542,PUNCT,Z,punct
550,3120-3124,meniti,_,_,*->11-2,*[11],_,542,VERB,Vmpr3s,conj
551,3125-3126,",",_,_,_,_,_,555,PUNCT,Z,punct
552,3127-3129,da,_,_,_,_,_,555,SCONJ,Cs,mark
553,3130-3132,biti,_,_,_,_,_,555,AUX,Va-c,aux
554,3133-3139,morati,_,_,_,_,_,551,VERB,Vmpp-pm,ccomp
555,3140-3145,takoj,_,_,_,_,_,557,ADV,Rgp,advmod
556,3146-3151,najti,_,_,_,_,_,555,VERB,Vmen,xcomp
557,3152-3157,način,_,_,_,_,_,557,NOUN,Ncmsan,obj
558,3158-3159,",",_,_,_,_,_,563,PUNCT,Z,punct
559,3160-3164,kako,_,_,_,_,_,563,ADV,Rgp,advmod
560,3165-3170,lahko,_,_,_,_,_,563,ADV,Rgp,advmod
561,3171-3177,država,_,_,*->15-7,*[15],_,563,NOUN,Ncfsn,nsubj
562,3178-3187,pripomoči,_,_,_,_,_,558,VERB,Vmer3s,acl
563,3188-3189,k,_,_,_,_,_,565,ADP,Sd,case
564,3190-3194,ta,_,_,_,_,_,563,DET,Pd-nsd,obl
565,3195-3196,",",_,_,_,_,_,570,PUNCT,Z,punct
566,3197-3199,da,_,_,_,_,_,570,SCONJ,Cs,mark
567,3200-3202,biti,_,_,_,_,_,570,AUX,Va-c,aux
568,3203-3211,podjetje,_,_,_,_,_,570,NOUN,Ncnpa,obj
569,3212-3218,dobiti,_,_,_,_,_,565,VERB,Vmep-sf,acl
570,3219-3227,posojilo,_,_,_,_,_,570,NOUN,Ncnpa,obj
571,3228-3230,za,_,_,_,_,_,574,ADP,Sa,case
572,3231-3238,obraten,_,_,_,_,_,574,ADJ,Agpmsay,amod
573,3239-3246,kapital,_,_,_,_,_,571,NOUN,Ncmsan,nmod
574,3247-3249,in,_,_,_,_,_,577,CCONJ,Cc,cc
575,3250-3256,bančen,_,_,_,_,_,577,ADJ,Agpfpa,amod
576,3257-3266,garancija,_,_,_,_,_,574,NOUN,Ncfpa,conj
577,3267-3268,.,_,_,_,_,_,570,PUNCT,Z,punct
578,3269-3274,treba,_,_,_,_,_,580,ADV,Rgp,advmod
579,3275-3277,biti,_,_,_,_,_,570,VERB,Va-r3s-n,conj
580,3278-3286,reševati,_,_,_,_,_,580,VERB,Vmpn,csubj
581,3287-3292,tisti,_,_,_,_,_,581,DET,Pd-mpa,obj
582,3293-3294,",",_,_,_,_,_,586,PUNCT,Z,punct
583,3295-3297,ki,_,_,_,_,_,586,SCONJ,Cs,mark
584,3298-3300,še,_,_,_,_,_,586,PART,Q,advmod
585,3301-3306,imeti,_,_,_,_,_,582,VERB,Vmpr1p-n,acl
586,3307-3316,potencial,_,_,_,_,_,586,NOUN,Ncmsan,obj
587,3317-3318,",",_,_,_,_,_,586,PUNCT,Z,punct
588,3319-3321,biti,_,0,*->11-3,*[11],3 - Nevtralno[23],590,AUX,Va-r3s-n,aux
589,3322-3327,dejati,_,0,*->11-3,*[11],3 - Nevtralno[23],580,VERB,Vmep-sm,parataxis
590,3328-3329,.,_,_,_,_,_,580,PUNCT,Z,punct
591,3330-3338,guverner,_,_,*->12-18,*[12],_,595,PROPN,Npmsn,nsubj
592,3339-3341,se,_,_,_,_,_,595,PRON,Px------y,expl
593,3342-3344,biti,_,_,_,_,_,595,AUX,Va-r3s-n,aux
594,3345-3353,strinjati,_,_,_,_,_,580,VERB,Vmpp-sm,parataxis
595,3354-3355,",",_,_,_,_,_,603,PUNCT,Z,punct
596,3356-3358,da,_,_,_,_,_,603,SCONJ,Cs,mark
597,3359-3363,biti,_,_,_,_,_,603,AUX,Va-f3p-n,cop
598,3364-3373,prihodnji,_,_,_,_,_,600,ADJ,Agpmpn,amod
599,3374-3379,teden,_,_,_,_,_,603,NOUN,Ncmpn,nsubj
600,3380-3382,in,_,_,_,_,_,602,CCONJ,Cc,cc
601,3383-3389,mesec,_,_,_,_,_,600,NOUN,Ncmpn,conj
602,3390-3397,ključen,_,_,_,_,_,595,ADJ,Agpmpn,ccomp
603,3398-3399,.,_,_,_,_,_,595,PUNCT,Z,punct
604,3400-3404,tudi,_,_,_,_,_,617,PART,Q,advmod
605,3405-3409,tuj,_,_,_,_,_,607,ADJ,Agpmpn,amod
606,3410-3422,investitor,_,_,_,_,_,603,NOUN,Ncmpn,nsubj
607,3423-3424,",",_,_,_,_,_,612,PUNCT,Z,punct
608,3425-3427,ki,_,_,_,_,_,612,SCONJ,Cs,mark
609,3428-3430,biti,_,_,_,_,_,612,AUX,Va-c,aux
610,3431-3435,biti,_,_,_,_,_,612,AUX,Va-p-pm,cop
611,3436-3448,pripravljen,_,_,_,_,_,607,ADJ,Appmpn,acl
612,3449-3456,vlagati,_,_,_,_,_,612,VERB,Vmpn,ccomp
613,3457-3458,v,_,_,_,_,_,615,ADP,Sa,case
614,3459-3468,Slovenija,LOC,_,*->15-8,*[15],_,613,PROPN,Npfsa,obl
615,3469-3470,",",_,_,_,_,_,612,PUNCT,Z,punct
616,3471-3477,čakati,_,_,_,_,_,603,VERB,Vmpr3p,conj
617,3478-3479,",",_,_,_,_,_,622,PUNCT,Z,punct
618,3480-3483,kaj,_,_,_,_,_,622,PRON,Pq-nsn,nsubj
619,3484-3486,se,_,_,_,_,_,622,PRON,Px------y,expl
620,3487-3489,biti,_,_,_,_,_,622,AUX,Va-f3s-n,aux
621,3490-3497,zgoditi,_,_,_,_,_,617,VERB,Vmep-sn,ccomp
622,3498-3499,",",_,_,_,_,_,622,PUNCT,Z,punct
623,3500-3502,biti,_,_,*->12-19,*[12],_,625,AUX,Va-r3s-n,aux
624,3503-3508,dejati,_,0,*->12-19,*[12],3 - Nevtralno[24],617,VERB,Vmep-sm,ccomp
625,3509-3511,in,_,0,*->12-19,*[12],3 - Nevtralno[24],627,CCONJ,Cc,cc
626,3512-3517,dodati,_,0,*->12-19,*[12],3 - Nevtralno[24],625,VERB,Vmep-sm,conj
627,3518-3519,",",_,_,_,_,_,630,PUNCT,Z,punct
628,3520-3522,da,_,_,_,_,_,630,SCONJ,Cs,mark
629,3523-3528,imeti,_,_,_,_,_,627,VERB,Vmpr3p-n,ccomp
630,3529-3530,z,_,_,_,_,_,632,ADP,Si,case
631,3531-3536,on,_,_,_,_,_,630,PRON,Pp3mpi,obl
632,3537-3548,vsakodneven,_,_,_,_,_,634,ADJ,Agpmpa,amod
633,3549-3554,stik,_,_,_,_,_,630,NOUN,Ncmpa,obj
634,3555-3556,.,_,_,_,_,_,580,PUNCT,Z,punct
635,3557-3563,trojka,_,_,_,_,_,640,NOUN,Ncfsn,nmod
636,3564-3565,-,_,_,_,_,_,638,PUNCT,Z,punct
637,3566-3570,manj,_,_,_,_,_,639,DET,Rgc,advmod
638,3571-3579,socialen,_,_,_,_,_,640,ADJ,Agpfsg,amod
639,3580-3586,država,_,_,_,_,_,634,NOUN,Ncfsg,conj
640,3587-3599,Viceguverner,_,_,*->13-1,*[13],_,640,PROPN,Npmsn,nmod
641,3600-3605,banka,ORG[12],0,*->13-1|*->14-1,*[13]|*[14],3 - Nevtralno[25],640,NOUN,Ncfsg,nmod
642,3606-3615,Slovenija,ORG[12]|LOC[13],0,*->13-1|*->14-1|*->15-9,*[13]|*[14]|*[15],3 - Nevtralno[25],642,PROPN,Npfsg,nmod
643,3616-3621,Janez,PER[14],_,*->13-1,*[13],_,640,PROPN,Npmsn,nmod
644,3622-3629,Fabijan,PER[14],_,*->13-1,*[13],_,644,PROPN,Npmsn,flat:name
645,3630-3632,pa,_,_,_,_,_,652,CCONJ,Cc,advmod
646,3633-3635,biti,_,_,_,_,_,652,AUX,Va-r3s-n,aux
647,3636-3638,na,_,_,_,_,_,649,ADP,Sa,case
648,3639-3648,vprašanje,_,_,_,_,_,652,NOUN,Ncnsa,obl
649,3649-3657,Hribar,PER[15],0,*->3-2,*[3],3 - Nevtralno[26],649,PROPN,Npmsg,nmod
650,3658-3664,Milič,PER[15],0,*->3-2,*[3],3 - Nevtralno[26],650,PROPN,Npmsg,flat:name
651,3665-3675,komentirati,_,_,_,_,_,636,VERB,Vmbp-sm,acl
652,3676-3680,tudi,_,_,_,_,_,652,PART,Q,advmod
653,3681-3690,morebiten,_,_,_,_,_,655,ADJ,Agpmsan,amod
654,3691-3697,prihod,_,_,_,_,_,652,NOUN,Ncmsan,obj
655,3698-3704,trojka,_,_,_,_,_,655,NOUN,Ncfsg,nmod
656,3705-3706,v,_,_,_,_,_,658,ADP,Sa,case
657,3707-3716,Slovenija,LOC,_,*->15-10,*[15],_,656,PROPN,Npfsa,nmod
658,3717-3718,.,_,_,_,_,_,652,PUNCT,Z,punct
659,3719-3724,dejati,_,0,*->13-2,*[13],3 - Nevtralno[27],652,VERB,Vmep-sm,conj
660,3725-3727,biti,_,0,*->13-2,*[13],3 - Nevtralno[27],660,AUX,Va-r3s-n,aux
661,3728-3729,",",_,_,_,_,_,666,PUNCT,Z,punct
662,3730-3732,da,_,_,_,_,_,666,SCONJ,Cs,mark
663,3733-3735,biti,_,_,_,_,_,666,AUX,Va-c,aux
664,3736-3738,ta,_,_,_,_,_,666,DET,Pd-nsn,nsubj
665,3739-3747,pomeniti,_,_,_,_,_,660,VERB,Vmbp-sn,ccomp
666,3748-3752,manj,_,_,_,_,_,669,DET,Rgc,det
667,3753-3761,socialen,_,_,_,_,_,669,ADJ,Agpfsg,amod
668,3762-3768,država,_,_,_,_,_,666,NOUN,Ncfsg,obj
669,3769-3770,",",_,_,_,_,_,666,PUNCT,Z,punct
670,3771-3774,saj,_,_,_,_,_,673,CCONJ,Cc,cc
671,3775-3777,biti,_,_,_,_,_,673,AUX,Va-c,aux
672,3778-3782,biti,_,_,_,_,_,666,VERB,Va-p-sn,conj
673,3783-3788,treba,_,_,_,_,_,673,ADV,Rgp,advmod
674,3789-3791,na,_,_,_,_,_,677,ADP,Sl,case
675,3792-3802,odhodkoven,_,_,_,_,_,677,ADJ,Agpfsl,amod
676,3803-3809,stran,_,_,_,_,_,679,NOUN,Ncfsl,obl
677,3810-3819,proračun,_,_,_,_,_,677,NOUN,Ncmsg,nmod
678,3820-3828,opraviti,_,_,_,_,_,673,VERB,Vmen,csubj
679,3829-3835,velik,_,_,_,_,_,681,ADJ,Agpfpa,amod
680,3836-3840,reza,_,_,_,_,_,679,NOUN,Ncfpa,obj
681,3841-3842,.,_,_,_,_,_,686,PUNCT,Z,punct
682,3843-3852,Slovenija,LOC,0,*->15-11,*[15],3 - Nevtralno,686,PROPN,Npfsn,nsubj
683,3853-3855,se,_,_,_,_,_,686,PRON,Px------y,expl
684,3856-3860,zato,_,_,_,_,_,686,ADV,Rgp,advmod
685,3861-3870,zadolževati,_,_,_,_,_,673,VERB,Vmpr3s,conj
686,3871-3875,zelo,_,_,_,_,_,688,ADV,Rgp,advmod
687,3876-3881,drag,_,_,_,_,_,686,ADJ,Agpnsa,obj
688,3882-3883,",",_,_,_,_,_,695,PUNCT,Z,punct
689,3884-3886,da,_,_,_,_,_,695,SCONJ,Cs,mark
690,3887-3889,se,_,_,_,_,_,695,PRON,Px------y,expl
691,3890-3892,ta,_,_,_,_,_,695,DET,Pd-nsn,nsubj
692,3893-3895,ne,_,_,_,_,_,695,PART,Q,advmod
693,3896-3898,biti,_,_,_,_,_,695,AUX,Va-c,aux
694,3899-3906,zgoditi,_,_,_,_,_,686,VERB,Vmep-sn,advcl
