idx,chars_idx,token,entity_type,sentiment,idk_1,idk_2,orig_sentiment,heads,upos,xpos,deprel
0,0-6,teči,_,_,_,_,_,0,VERB,Vmpr3p,root
1,7-15,pogovor,_,_,_,_,_,1,NOUN,Ncmpn,nsubj
2,16-19,med,_,_,_,_,_,4,ADP,Si,case
3,20-29,Gazprom,ORG,_,*->8-1,*[8],_,2,PROPN,Npmsi,nmod
4,30-32,in,_,_,_,_,_,7,CCONJ,Cc,cc
5,33-41,evropski,ORG[1],_,*->14-1,*[14],_,7,ADJ,Agpfsi,amod
6,42-50,komisija,ORG[1],_,*->14-1,*[14],_,4,NOUN,Ncfsi,conj
7,51-52,v,_,_,_,_,_,9,ADP,Sl,case
8,53-61,interes,_,_,_,_,_,7,NOUN,Ncmsl,nmod
9,62-71,Slovenija,LOC,_,*->11-1,*[11],_,9,PROPN,Npfsg,nmod
10,72-74,biti,_,_,_,_,_,1,AUX,Va-r3s-n,aux
11,75-76,",",_,_,_,_,_,15,PUNCT,Z,punct
12,77-79,da,_,_,_,_,_,15,SCONJ,Cs,mark
13,80-82,se,_,_,_,_,_,15,PRON,Px------y,expl
14,83-89,izvedeti,_,_,_,_,_,1,VERB,Vmer3s,advcl
15,90-101,investicija,_,_,_,_,_,15,NOUN,Ncfsn,nsubj
16,102-110,projekt,_,_,_,_,_,16,NOUN,Ncmsg,nmod
17,111-120,plinovod,_,_,*->10-1,*[10],_,17,NOUN,Ncmsg,nmod
18,121-126,južen,ORG[2],_,*->10-1,*[10],_,20,ADJ,Agpmsny,amod
19,127-130,tok,ORG[2],_,*->10-1,*[10],_,17,NOUN,Ncmsn,nmod
20,131-132,",",_,_,_,_,_,27,PUNCT,Z,punct
21,133-135,ki,_,_,_,_,_,27,SCONJ,Cs,mark
22,136-138,biti,_,_,_,_,_,27,AUX,Va-r3s-n,cop
23,139-141,za,_,_,_,_,_,25,ADP,Sa,case
24,142-151,Slovenija,LOC,_,*->11-2,*[11],_,27,PROPN,Npfsa,obl
25,152-156,zelo,_,_,_,_,_,27,ADV,Rgp,advmod
26,157-165,pomemben,_,_,_,_,_,20,ADJ,Agpmsnn,acl
27,166-167,",",_,_,_,_,_,27,PUNCT,Z,punct
28,168-173,pravi,_,_,_,_,_,30,ADJ,Agpmsny,amod
29,174-182,minister,_,_,*->1-1,*[1],_,27,NOUN,Ncmsn,nsubj
30,183-185,za,_,_,*->1-1,*[1],_,32,ADP,Sa,case
31,186-200,infrastruktura,_,_,*->1-1,*[1],_,30,NOUN,Ncfsa,nmod
32,201-203,in,_,_,*->1-1,*[1],_,34,CCONJ,Cc,cc
33,204-211,prostor,_,_,*->1-1,*[1],_,32,NOUN,Ncmsan,conj
34,212-216,samo,PER[3],_,*->1-1,*[1],_,36,PART,Q,advmod
35,217-224,Omerzel,PER[3],_,*->1-1,*[1],_,30,PROPN,Npmsn,nmod
36,225-226,.,_,_,_,_,_,27,PUNCT,Z,punct
37,227-235,minister,_,_,*->1-2,*[1],_,40,NOUN,Ncmsn,nsubj
38,236-238,biti,_,_,_,_,_,40,AUX,Va-r3s-n,aux
39,239-246,izraziti,_,_,_,_,_,1,VERB,Vmep-sm,parataxis
40,247-259,pričakovanje,_,_,_,_,_,40,NOUN,Ncnsa,obj
41,260-261,",",_,_,_,_,_,50,PUNCT,Z,punct
42,262-264,da,_,_,_,_,_,50,SCONJ,Cs,mark
43,265-267,biti,_,_,_,_,_,50,AUX,Va-f3s-n,aux
44,268-275,projekt,_,_,_,_,_,50,NOUN,Ncmsnn,nsubj
45,276-281,kljub,_,_,_,_,_,47,ADP,Sd,case
46,282-288,mnenje,_,_,_,_,_,50,NOUN,Ncnsd,obl
47,289-298,nekateri,_,_,_,_,_,49,DET,Pi-mpg,det
48,299-308,skeptik,_,_,_,_,_,47,NOUN,Ncmpg,nmod
49,309-317,izpeljan,_,_,_,_,_,41,ADJ,Appmsnn,acl
50,318-320,do,_,_,_,_,_,52,ADP,Sg,case
51,321-326,konec,_,_,_,_,_,50,NOUN,Ncmsg,obl
52,327-328,.,_,_,_,_,_,40,PUNCT,Z,punct
53,329-331,ob,_,_,_,_,_,55,ADP,Sl,case
54,332-335,ta,_,_,_,_,_,57,DET,Pd-nsl,obl
55,336-338,biti,_,0,*->1-3,*[1],3 - Nevtralno[14],57,AUX,Va-r3s-n,aux
56,339-346,spomniti,_,0,*->1-3,*[1],3 - Nevtralno[14],40,VERB,Vmep-sm,root
57,347-348,",",_,_,_,_,_,75,PUNCT,Z,punct
58,349-351,da,_,_,_,_,_,75,SCONJ,Cs,mark
59,352-360,pogovor,_,_,_,_,_,75,NOUN,Ncmpn,nsubj
60,361-364,med,_,_,_,_,_,62,ADP,Si,case
61,365-378,investitor,_,_,*->8-2,*[8],_,60,NOUN,Ncmsi,nmod
62,379-387,projekt,_,_,*->8-2,*[8],_,62,NOUN,Ncmsg,nmod
63,388-389,",",_,_,_,_,_,66,PUNCT,Z,punct
64,390-396,ruski,_,_,*->8-3,*[8],_,66,ADJ,Agpmsi,amod
65,397-406,Gazprom,ORG,_,*->8-3,*[8],_,63,PROPN,Npmsi,appos
66,407-408,",",_,_,_,_,_,66,PUNCT,Z,punct
67,409-411,in,_,_,_,_,_,70,CCONJ,Cc,cc
68,412-420,evropski,ORG[4],_,*->14-2,*[14],_,70,ADJ,Agpfsi,amod
69,421-429,komisija,ORG[4],_,*->14-2,*[14],_,63,NOUN,Ncfsi,conj
70,430-435,glede,_,_,_,_,_,72,ADP,Sg,case
71,436-447,spoštovanje,_,_,_,_,_,70,NOUN,Ncnsg,nmod
72,448-457,evropski,_,_,_,_,_,74,ADJ,Agpnpg,amod
73,458-464,pravilo,_,_,_,_,_,72,NOUN,Ncnpg,nmod
74,465-471,teči,_,_,_,_,_,57,VERB,Vmpr3p,ccomp
75,472-473,.,_,_,_,_,_,75,PUNCT,Z,punct
76,474-479,dober,_,_,_,_,_,78,ADJ,Agpfsn,amod
77,480-485,volja,_,_,_,_,_,82,NOUN,Ncfsn,nsubj
78,486-491,šteti,_,_,_,_,_,78,VERB,Vmpr3s,acl
79,492-494,da,_,_,_,_,_,82,SCONJ,Cs,mark
80,495-497,se,_,_,_,_,_,82,PRON,Px------y,expl
81,498-500,dati,_,_,_,_,_,75,VERB,Vmer3s,ccomp
82,501-508,projekt,_,_,_,_,_,87,NOUN,Ncmsnn,obj
83,509-510,z,_,_,_,_,_,86,ADP,Si,case
84,511-516,dober,_,_,_,_,_,86,ADJ,Agpfsi,amod
85,517-522,volja,_,_,_,_,_,83,NOUN,Ncfsi,nmod
86,523-532,izpeljati,_,_,_,_,_,82,VERB,Vmen,xcomp
87,533-534,",",_,_,_,_,_,82,PUNCT,Z,punct
88,535-537,biti,_,_,_,_,_,90,AUX,Va-r3s-n,aux
89,538-546,poudariti,_,_,_,_,_,1,VERB,Vmep-sm,parataxis
90,547-556,generalen,_,_,*->13-1,*[13],_,92,ADJ,Agpmsny,amod
91,557-565,direktor,_,_,*->13-1,*[13],_,90,NOUN,Ncmsn,nsubj
92,566-572,družba,_,_,*->13-1|*->2-1,*[13]|*[2],_,92,NOUN,Ncfsg,nmod
93,573-582,Plinovodi,ORG,_,*->13-1|*->2-1,*[13]|*[2],_,93,PROPN,Npmsn,nmod
94,583-589,Marjan,PER[5],_,*->13-1,*[13],_,92,PROPN,Npmsn,nmod
95,590-598,Eberlinc,PER[5],_,*->13-1,*[13],_,95,PROPN,Npmsn,flat:name
96,599-600,.,_,_,_,_,_,90,PUNCT,Z,punct
97,601-610,Plinovodi,ORG,_,*->2-2,*[2],_,101,PROPN,Npmsn,nsubj
98,611-613,biti,_,_,_,_,_,101,AUX,Va-r3p-n,cop
99,614-623,polovičen,_,_,*->2-3,*[2],_,101,ADJ,Agpmsny,amod
100,624-631,lastnik,_,_,*->2-3,*[2],_,1,NOUN,Ncmsn,parataxis
101,632-640,skupen,_,_,*->2-3,*[2],_,103,ADJ,Agpnsg,amod
102,641-649,podjetje,_,_,*->2-3|*->10-2,*[2]|*[10],_,92,NOUN,Ncnsg,nmod
103,650-655,južen,ORG[6],_,*->2-3|*->10-2,*[2]|*[10],_,105,ADJ,Agpmsny,amod
104,656-659,tok,ORG[6],_,*->2-3|*->10-2,*[2]|*[10],_,103,NOUN,Ncmsn,nmod
105,660-669,Slovenija,ORG[6]|LOC[7],_,*->2-3|*->10-2|*->11-3,*[2]|*[10]|*[11],_,105,PROPN,Npfsn,nmod
106,670-671,",",_,_,_,_,_,114,PUNCT,Z,punct
107,672-676,zato,_,_,_,_,_,114,CCONJ,Cc,cc
108,677-679,se,_,_,_,_,_,114,PRON,Px---d--y,expl
109,680-687,razvoj,_,_,_,_,_,114,NOUN,Ncmsg,obj
110,688-690,in,_,_,_,_,_,112,CCONJ,Cc,cc
111,691-701,dokončanje,_,_,_,_,_,110,NOUN,Ncnsg,conj
112,702-710,projekt,_,_,_,_,_,112,NOUN,Ncmsg,nmod
113,711-717,želeti,_,_,_,_,_,101,VERB,Vmpr3p,conj
114,718-719,.,_,_,_,_,_,114,PUNCT,Z,punct
115,720-728,Eberlinc,PER,_,*->13-2,*[13],_,118,PROPN,Npmsn,nsubj
116,729-731,biti,_,_,_,_,_,118,AUX,Va-r3s-n,aux
117,732-740,opozoriti,_,_,_,_,_,1,VERB,Vmep-sm,parataxis
118,741-743,na,_,_,_,_,_,120,ADP,Sa,case
119,744-751,zahteva,_,_,_,_,_,118,NOUN,Ncfpa,obl
120,752-760,Gazprom,ORG,_,*->8-4,*[8],_,120,PROPN,Npmsn,nmod
121,761-763,po,_,_,_,_,_,124,ADP,Sl,case
122,764-769,velik,_,_,_,_,_,124,ADJ,Agcfsl,amod
123,770-782,zmogljivost,_,_,_,_,_,121,NOUN,Ncfsl,nmod
124,783-792,plinovod,_,_,_,_,_,124,NOUN,Ncmsg,nmod
125,793-794,",",_,_,_,_,_,130,PUNCT,Z,punct
126,795-798,kar,_,_,_,_,_,130,PRON,Pr-nsn,nsubj
127,799-802,naj,_,_,_,_,_,130,PART,Q,advmod
128,803-805,biti,_,_,_,_,_,130,AUX,Va-c,aux
129,806-819,predstavljati,_,_,_,_,_,125,VERB,Vmpp-sn,acl
130,820-826,težava,_,_,_,_,_,130,NOUN,Ncfpa,obj
131,827-828,",",_,_,_,_,_,130,PUNCT,Z,punct
132,829-832,saj,_,_,_,_,_,134,CCONJ,Cc,cc
133,833-835,biti,_,_,_,_,_,130,VERB,Va-r3s-n,conj
134,836-841,treba,_,_,_,_,_,134,ADV,Rgp,advmod
135,842-846,ta,_,_,_,_,_,138,DET,Pd-nsd,obj
136,847-855,primeren,_,_,_,_,_,134,ADJ,Agpnsn,csubj
137,856-865,dograditi,_,_,_,_,_,137,VERB,Vmen,csubj
138,866-868,oz,_,_,_,_,_,138,NOUN,Ncmsa,obj
139,869-870,.,_,_,_,_,_,134,PUNCT,Z,punct
140,871-881,nadgraditi,_,_,_,_,_,134,VERB,Vmen,csubj
141,882-892,plinovoden,_,_,_,_,_,143,ADJ,Agpnsa,amod
142,893-900,omrežje,_,_,_,_,_,141,NOUN,Ncnsa,obj
143,901-902,.,_,_,_,_,_,134,PUNCT,Z,punct
144,903-908,sprva,_,_,_,_,_,147,ADV,Rgp,advmod
145,909-911,biti,_,_,_,_,_,147,AUX,Va-r3s-n,aux
146,912-916,biti,_,_,_,_,_,1,VERB,Va-p-sn,parataxis
147,917-928,predviden,_,_,_,_,_,150,ADJ,Appfpg,amod
148,929-933,osem,_,_,_,_,_,150,NUM,Mlc-pa,nummod
149,934-942,milijarda,_,_,_,_,_,153,NOUN,Ncfpg,nmod
150,943-951,kubičen,_,_,_,_,_,152,ADJ,Agpmpg,amod
151,952-958,meter,_,_,_,_,_,150,NOUN,Ncmpg,nmod
152,959-964,leten,_,_,_,_,_,147,ADJ,Agpnsn,csubj
153,965-966,",",_,_,_,_,_,157,PUNCT,Z,punct
154,967-971,nato,_,_,_,_,_,156,ADV,Rgp,advmod
155,972-976,"25,9",_,_,_,_,_,157,NUM,Mdc,nummod
156,977-986,milijarda,_,_,_,_,_,153,NOUN,Ncfsg,nmod
157,987-995,kubičen,_,_,_,_,_,159,ADJ,Agpmpg,amod
158,996-1002,meter,_,_,_,_,_,157,NOUN,Ncmpg,nmod
159,1003-1004,",",_,_,_,_,_,173,PUNCT,Z,punct
160,1005-1009,zdaj,_,_,_,_,_,173,ADV,Rgp,advmod
161,1010-1012,pa,_,_,_,_,_,173,CCONJ,Cc,advmod
162,1013-1015,biti,_,_,_,_,_,173,AUX,Va-r3s-n,aux
163,1016-1023,potreba,_,_,_,_,_,173,NOUN,Ncfpg,obj
164,1024-1026,po,_,_,_,_,_,169,ADP,Sl,case
165,1027-1030,več,_,_,_,_,_,169,DET,Rgc,advmod
166,1031-1034,kot,_,_,_,_,_,166,SCONJ,Cs,fixed
167,1035-1037,30,_,_,_,_,_,169,NUM,Mdc,nummod
168,1038-1048,milijarda,_,_,_,_,_,164,NOUN,Ncfpl,nmod
169,1049-1057,kubičen,_,_,_,_,_,171,ADJ,Agpmpg,amod
170,1058-1064,meter,_,_,_,_,_,169,NOUN,Ncmpg,nmod
171,1065-1070,plin,_,_,_,_,_,171,NOUN,Ncmsg,nmod
172,1071-1076,leten,_,_,_,_,_,1,ADJ,Agpnsn,parataxis
173,1077-1078,.,_,_,_,_,_,173,PUNCT,Z,punct
174,1079-1086,najprej,_,_,_,_,_,176,ADV,Rgs,advmod
175,1087-1096,obstoječ,_,_,_,_,_,173,ADJ,Appfsn,advcl
176,1097-1098,",",_,_,_,_,_,173,PUNCT,Z,punct
177,1099-1104,potem,_,_,_,_,_,179,ADV,Rgp,advmod
178,1105-1109,nov,_,_,_,_,_,180,ADJ,Agpfsn,amod
179,1110-1115,ideja,_,_,_,_,_,176,NOUN,Ncfsn,nsubj
180,1116-1118,biti,_,_,_,_,_,176,AUX,Va-r3s-n,cop
181,1119-1120,",",_,_,_,_,_,199,PUNCT,Z,punct
182,1121-1123,da,_,_,_,_,_,199,SCONJ,Cs,mark
183,1124-1126,se,_,_,_,_,_,199,PRON,Px------y,expl
184,1127-1128,v,_,_,_,_,_,187,ADP,Sl,case
185,1129-1133,prvi,_,_,_,_,_,187,ADJ,Mlofsl,amod
186,1134-1138,faza,_,_,_,_,_,199,NOUN,Ncfsl,obl
187,1139-1140,",",_,_,_,_,_,192,PUNCT,Z,punct
188,1141-1143,ko,_,_,_,_,_,192,SCONJ,Cs,mark
189,1144-1156,zmogljivost,_,_,_,_,_,192,NOUN,Ncfpn,nsubj
190,1157-1159,še,_,_,_,_,_,192,PART,Q,advmod
191,1160-1169,ustrezati,_,_,_,_,_,187,VERB,Vmpr3p,acl
192,1170-1171,",",_,_,_,_,_,192,PUNCT,Z,punct
193,1172-1174,za,_,_,_,_,_,196,ADP,Sa,case
194,1175-1180,južen,ORG[8],_,*->10-3,*[10],_,196,ADJ,Agpmsay,amod
195,1181-1184,tok,ORG[8],_,*->10-3,*[10],_,199,NOUN,Ncmsan,obl
196,1185-1186,v,_,_,_,_,_,198,ADP,Sl,case
197,1187-1193,celota,_,_,_,_,_,196,NOUN,Ncfsl,nmod
198,1194-1201,uporaba,_,_,_,_,_,180,VERB,Vmer3s,acl
199,1202-1211,obstoječ,_,_,_,_,_,202,ADJ,Appmsay,amod
200,1212-1222,plinovoden,_,_,_,_,_,202,ADJ,Agpmsay,amod
201,1223-1229,sistem,_,_,_,_,_,199,NOUN,Ncmsan,obj
202,1230-1231,",",_,_,_,_,_,192,PUNCT,Z,punct
203,1232-1236,nato,_,_,_,_,_,208,ADV,Rgp,advmod
204,1237-1239,pa,_,_,_,_,_,207,CCONJ,Cc,advmod
205,1240-1242,se,_,_,_,_,_,208,PRON,Px------y,expl
206,1243-1248,začeti,_,_,_,_,_,1,VERB,Vmer3s,parataxis
207,1249-1256,graditi,_,_,_,_,_,207,VERB,Vmpn,xcomp
208,1257-1260,nov,_,_,_,_,_,212,ADJ,Agpmsan,amod
209,1261-1262,",",_,_,_,_,_,211,PUNCT,Z,punct
210,1263-1275,zmogljiv,_,_,_,_,_,209,ADJ,Agcmsay,conj
211,1276-1284,plinovod,_,_,_,_,_,208,NOUN,Ncmsan,obj
212,1285-1286,",",_,_,_,_,_,215,PUNCT,Z,punct
213,1287-1295,predvsem,_,_,_,_,_,215,PART,Q,advmod
214,1296-1301,odsek,_,_,_,_,_,212,NOUN,Ncmsn,appos
215,1302-1308,Vodica,LOC,_,*->4-1,*[4],_,215,PROPN,Npfsg,nmod
216,1309-1310,-,_,_,_,_,_,218,PUNCT,Z,punct
217,1311-1317,Rateče,LOC,_,*->5-1,*[5],_,216,PROPN,Npfsn,conj
218,1318-1319,.,_,_,_,_,_,215,PUNCT,Z,punct
219,1320-1331,spremenjen,_,_,_,_,_,221,ADJ,Appfsn,amod
220,1332-1343,zmogljivost,_,_,_,_,_,223,NOUN,Ncfsn,nsubj
221,1344-1353,plinovod,_,_,_,_,_,221,NOUN,Ncmsg,nmod
222,1354-1360,vplivati,_,_,_,_,_,1,VERB,Vmpr3s,parataxis
223,1361-1365,tudi,_,_,_,_,_,223,PART,Q,advmod
224,1366-1368,na,_,_,_,_,_,226,ADP,Sa,case
225,1369-1377,postopek,_,_,_,_,_,223,NOUN,Ncmpa,obl
226,1378-1387,umeščanje,_,_,_,_,_,226,NOUN,Ncnsg,nmod
227,1388-1389,v,_,_,_,_,_,229,ADP,Sa,case
228,1390-1397,prostor,_,_,_,_,_,227,NOUN,Ncmsan,nmod
229,1398-1399,",",_,_,_,_,_,237,PUNCT,Z,punct
230,1400-1402,ki,_,_,_,_,_,237,SCONJ,Cs,mark
231,1403-1404,v,_,_,_,_,_,233,ADP,Sl,case
232,1405-1414,Slovenija,LOC,_,*->11-4,*[11],_,237,PROPN,Npfsl,obl
233,1415-1417,po,_,_,_,_,_,236,ADP,Sl,case
234,1418-1430,Eberlinčev,PER,_,*->13-3,*[13],_,236,ADJ,Aspfpl,amod
235,1431-1438,beseda,_,_,_,_,_,237,NOUN,Ncfpl,obl
236,1439-1447,potekati,_,_,_,_,_,229,VERB,Vmpr3p,acl
237,1448-1458,neverjetno,_,_,_,_,_,239,ADV,Rgp,advmod
238,1459-1464,dolgo,_,_,_,_,_,237,ADV,Rgp,advmod
239,1465-1466,.,_,_,_,_,_,223,PUNCT,Z,punct
240,1467-1474,projekt,_,_,_,_,_,243,NOUN,Ncmsn,nsubj
241,1475-1477,biti,_,_,_,_,_,243,AUX,Va-r3s-n,cop
242,1478-1487,razdeljen,_,_,_,_,_,1,ADJ,Appmsnn,parataxis
243,1488-1489,v,_,_,_,_,_,246,ADP,Sa,case
244,1490-1493,trije,_,_,_,_,_,246,NUM,Mlcfpa,nummod
245,1494-1498,faza,_,_,_,_,_,243,NOUN,Ncfpa,obl
246,1499-1506,Lendava,LOC,0,*->3-1,*[3],3 - Nevtralno,246,PROPN,Npfsn,nmod
247,1507-1508,-,_,_,_,_,_,249,PUNCT,Z,punct
248,1509-1518,Kidričevo,LOC,_,*->9-1,*[9],_,247,PROPN,Npfsn,conj
249,1519-1520,",",_,_,_,_,_,251,PUNCT,Z,punct
250,1521-1530,Kidričevo,LOC,_,*->9-2,*[9],_,247,PROPN,Npnsn,conj
251,1531-1532,-,_,_,_,_,_,253,PUNCT,Z,punct
252,1533-1539,Vodica,LOC,_,*->4-2,*[4],_,247,PROPN,Npfpn,conj
253,1540-1542,in,_,_,_,_,_,255,CCONJ,Cc,cc
254,1543-1549,Vodica,LOC,_,*->4-3,*[4],_,247,PROPN,Npfsn,conj
255,1550-1551,-,_,_,_,_,_,257,PUNCT,Z,punct
256,1552-1558,Rateče,LOC,0,*->5-2,*[5],3 - Nevtralno,255,PROPN,Npfsn,conj
257,1559-1560,",",_,_,_,_,_,265,PUNCT,Z,punct
258,1561-1569,dinamik,_,_,_,_,_,265,NOUN,Ncfsn,nsubj
259,1570-1579,umeščanje,_,_,_,_,_,259,NOUN,Ncnsg,nmod
260,1580-1581,v,_,_,_,_,_,262,ADP,Sa,case
261,1582-1589,prostor,_,_,_,_,_,260,NOUN,Ncmsan,nmod
262,1590-1592,pa,_,_,_,_,_,265,CCONJ,Cc,advmod
263,1593-1595,biti,_,_,_,_,_,265,AUX,Va-r3s-n,cop
264,1596-1604,različen,_,_,_,_,_,1,ADJ,Agpfsn,parataxis
265,1605-1606,.,_,_,_,_,_,265,PUNCT,Z,punct
266,1607-1612,velik,_,_,_,_,_,268,ADJ,Agcfsn,amod
267,1613-1624,zmogljivost,_,_,_,_,_,269,NOUN,Ncfsn,nsubj
268,1625-1633,spremeniti,_,_,_,_,_,1,VERB,Vmer3s,parataxis
269,1634-1638,tudi,_,_,_,_,_,269,PART,Q,advmod
270,1639-1647,tehničen,_,_,_,_,_,272,ADJ,Agpfsa,amod
271,1648-1655,zasnova,_,_,_,_,_,269,NOUN,Ncfsa,obj
272,1656-1657,-,_,_,_,_,_,276,PUNCT,Z,punct
273,1658-1660,tu,_,_,_,_,_,276,ADV,Rgp,advmod
274,1661-1664,jaz,_,_,_,_,_,276,PRON,Pp1-pa,obj
275,1665-1671,čakati,_,_,_,_,_,269,VERB,Vmpr3d,conj
276,1672-1677,resen,_,_,_,_,_,278,ADJ,Agpmsnn,amod
277,1678-1683,izziv,_,_,_,_,_,276,NOUN,Ncmsn,nsubj
278,1684-1686,in,_,_,_,_,_,280,CCONJ,Cc,cc
279,1687-1691,delo,_,_,_,_,_,278,NOUN,Ncnsn,conj
280,1692-1693,",",_,_,_,_,_,287,PUNCT,Z,punct
281,1694-1696,ki,_,_,_,_,_,287,SCONJ,Cs,mark
282,1697-1699,biti,_,_,_,_,_,287,AUX,Va-r3s-n,cop
283,1700-1701,v,_,_,_,_,_,286,ADP,Sl,case
284,1702-1709,dobršen,_,_,_,_,_,286,ADJ,Agpfsl,amod
285,1710-1714,mera,_,_,_,_,_,287,NOUN,Ncfsl,obl
286,1715-1722,odvisen,_,_,_,_,_,280,ADJ,Agpnsn,acl
287,1723-1727,tudi,_,_,_,_,_,287,PART,Q,advmod
288,1728-1730,od,_,_,_,_,_,290,ADP,Sg,case
289,1731-1738,Italija,LOC,0,*->6-1,*[6],3 - Nevtralno,287,PROPN,Npfsg,obl
290,1739-1741,in,_,_,_,_,_,292,CCONJ,Cc,cc
291,1742-1751,Madžarska,LOC,0,*->7-1,*[7],3 - Nevtralno,290,PROPN,Npfsg,conj
292,1752-1753,",",_,_,_,_,_,287,PUNCT,Z,punct
293,1754-1756,biti,_,_,_,_,_,295,AUX,Va-r3s-n,aux
294,1757-1762,dejati,_,_,_,_,_,1,VERB,Vmep-sm,parataxis
295,1763-1767,prvi,_,_,*->13-4,*[13],_,297,ADJ,Mlomsn,amod
296,1768-1771,mož,_,_,*->13-4,*[13],_,295,NOUN,Ncmsn,nsubj
297,1772-1782,Plinovod,ORG,0,*->13-4|*->2-4,*[13]|*[2],3 - Nevtralno,297,PROPN,Npmpg,nmod
298,1783-1784,.,_,_,_,_,_,295,PUNCT,Z,punct
299,1785-1790,glede,_,_,_,_,_,303,ADV,Rgp,advmod
300,1791-1793,na,_,_,_,_,_,303,ADP,Sa,case
301,1794-1805,spremenjen,_,_,_,_,_,303,ADJ,Appfpa,amod
302,1806-1816,okoliščina,_,_,_,_,_,297,NOUN,Ncfpa,appos
303,1817-1818,o,_,_,_,_,_,305,ADP,Sl,case
304,1819-1828,povečanje,_,_,_,_,_,303,NOUN,Ncnsl,nmod
305,1829-1836,količina,_,_,_,_,_,305,NOUN,Ncfpg,nmod
306,1837-1839,oz,_,_,_,_,_,306,NOUN,Ncfsg,nmod
307,1840-1841,.,_,_,_,_,_,295,PUNCT,Z,punct
308,1842-1848,zaradi,_,_,_,_,_,313,ADP,Sg,case
309,1849-1855,precej,_,_,_,_,_,311,ADV,Rgp,advmod
310,1856-1869,nedefiniran,_,_,_,_,_,313,ADJ,Agpmpg,amod
311,1870-1879,tehničen,_,_,_,_,_,313,ADJ,Agpmpg,amod
312,1880-1890,parameter,_,_,_,_,_,303,NOUN,Ncmpg,nmod
313,1891-1900,plinovod,_,_,_,_,_,313,NOUN,Ncmsg,nmod
314,1901-1903,se,_,_,_,_,_,317,PRON,Px------y,expl
315,1904-1906,biti,_,_,_,_,_,317,AUX,Va-f3s-n,aux
316,1907-1917,spremeniti,_,_,_,_,_,1,VERB,Vmep-sf,parataxis
317,1918-1922,tudi,_,_,_,_,_,317,PART,Q,advmod
318,1923-1936,investicijski,_,_,_,_,_,320,ADJ,Agpfsn,amod
319,1937-1941,cena,_,_,_,_,_,317,NOUN,Ncfsn,nsubj
320,1942-1951,plinovod,_,_,_,_,_,320,NOUN,Ncmsg,nmod
321,1952-1953,",",_,_,_,_,_,326,PUNCT,Z,punct
322,1954-1956,ki,_,_,_,_,_,326,SCONJ,Cs,mark
323,1957-1959,biti,_,_,_,_,_,326,AUX,Va-r3s-n,cop
324,1960-1964,zdaj,_,_,_,_,_,326,ADV,Rgp,advmod
325,1965-1973,ocenjen,_,_,_,_,_,320,ADJ,Appfsn,acl
326,1974-1976,na,_,_,_,_,_,330,ADP,Sa,case
327,1977-1983,skoraj,_,_,_,_,_,329,PART,Q,advmod
328,1984-1987,en,_,_,_,_,_,330,NUM,Mlpfsa,nummod
329,1988-1997,milijarda,_,_,_,_,_,326,NOUN,Ncfsa,obl
330,1998-2003,evro,_,_,_,_,_,330,NOUN,Ncmpg,nmod
331,2004-2005,.,_,_,_,_,_,317,PUNCT,Z,punct
332,2006-2007,v,_,_,_,_,_,334,ADP,Sl,case
333,2008-2015,študija,_,_,_,_,_,337,NOUN,Ncfsl,obl
334,2016-2029,izvedljivost,_,_,_,_,_,334,NOUN,Ncfsg,nmod
335,2030-2032,biti,_,_,_,_,_,344,AUX,Va-r3s-n,cop
336,2033-2040,stopnja,_,_,_,_,_,317,NOUN,Ncfsn,nsubj
337,2041-2049,tveganje,_,_,_,_,_,337,NOUN,Ncnsg,nmod
338,2050-2052,oz,_,_,_,_,_,338,NOUN,Ncmsg,nmod
339,2053-2054,.,_,_,_,_,_,337,PUNCT,Z,punct
340,2055-2064,deviacija,_,_,_,_,_,337,NOUN,Ncfsg,nmod
341,2065-2067,ta,_,_,_,_,_,343,DET,Pd-fsg,det
342,2068-2077,vrednost,_,_,_,_,_,341,NOUN,Ncfsg,nmod
343,2078-2089,postavljen,_,_,_,_,_,1,ADJ,Appfsn,parataxis
344,2090-2092,na,_,_,_,_,_,347,ADP,Sa,case
345,2093-2095,25,_,_,_,_,_,347,NUM,Mdc,nummod
346,2096-2105,odstotek,_,_,_,_,_,344,NOUN,Ncmpg,obl
347,2106-2107,",",_,_,_,_,_,350,PUNCT,Z,punct
348,2108-2112,tako,_,_,_,_,_,350,ADV,Rgp,advmod
349,2113-2120,navzgor,_,_,_,_,_,347,ADV,Rgp,advmod
350,2121-2124,kot,_,_,_,_,_,352,SCONJ,Cs,case
351,2125-2132,navzdol,_,_,_,_,_,350,ADV,Rgp,conj
352,2133-2134,.,_,_,_,_,_,350,PUNCT,Z,punct
353,2135-2142,ključen,_,_,_,_,_,355,ADJ,Agpnpa,amod
354,2143-2154,zavarovanje,_,_,_,_,_,358,NOUN,Ncnpa,nsubj
355,2155-2159,banka,_,_,_,_,_,355,NOUN,Ncfpg,nmod
356,2160-2164,tako,_,_,_,_,_,360,ADV,Rgp,advmod
357,2165-2167,biti,_,_,_,_,_,350,VERB,Va-r3s-n,conj
358,2168-2173,treba,_,_,_,_,_,358,ADV,Rgp,advmod
359,2174-2182,poiskati,_,_,_,_,_,358,VERB,Vmen,csubj
360,2183-2187,tudi,_,_,_,_,_,360,PART,Q,advmod
361,2188-2196,finančen,_,_,_,_,_,363,ADJ,Agpmpa,amod
362,2197-2201,vir,_,_,_,_,_,360,NOUN,Ncmpa,obj
363,2202-2203,",",_,_,_,_,_,369,PUNCT,Z,punct
364,2204-2206,ki,_,_,_,_,_,369,SCONJ,Cs,mark
365,2207-2209,še,_,_,_,_,_,369,PART,Q,advmod
366,2210-2214,biti,_,_,_,_,_,369,AUX,Va-r3p-y,cop
367,2215-2223,natančno,_,_,_,_,_,369,ADV,Rgp,advmod
368,2224-2232,določen,_,_,_,_,_,363,ADJ,Appmpn,acl
369,2233-2234,",",_,_,_,_,_,371,PUNCT,Z,punct
370,2235-2242,ključen,_,_,_,_,_,369,ADJ,Agpnpn,conj
371,2243-2245,biti,_,_,_,_,_,371,AUX,Va-r3p-n,cop
372,2246-2257,zavarovanje,_,_,_,_,_,371,NOUN,Ncnsg,obj
373,2258-2262,banka,_,_,_,_,_,373,NOUN,Ncfpg,nmod
374,2263-2264,.,_,_,_,_,_,358,PUNCT,Z,punct
375,2265-2270,najti,_,_,_,_,_,1,VERB,Vmep-pm,parataxis
376,2271-2273,biti,_,_,_,_,_,376,AUX,Va-r3p-n,aux
377,2274-2279,model,_,_,_,_,_,376,NOUN,Ncmsan,obj
378,2280-2281,",",_,_,_,_,_,386,PUNCT,Z,punct
379,2282-2284,ki,_,_,_,_,_,386,SCONJ,Cs,mark
380,2285-2292,južen,ORG[9],_,*->10-4,*[10],_,382,ADJ,Agpmsd,amod
381,2293-2297,tok,ORG[9],_,*->10-4,*[10],_,386,NOUN,Ncmsd,iobj
382,2298-2307,Slovenija,ORG[9]|LOC[10],_,*->10-4|*->11-5,*[10]|*[11],_,382,PROPN,Npfsn,nmod
383,2308-2310,in,_,_,_,_,_,385,CCONJ,Cc,cc
384,2311-2319,Gazprom,ORG,0,*->8-5,*[8],3 - Nevtralno,383,PROPN,Npmsd,conj
385,2320-2324,dajati,_,_,_,_,_,378,VERB,Vmpr3s,acl
386,2325-2330,trden,_,_,_,_,_,388,ADJ,Agpfsa,amod
387,2331-2338,podpora,_,_,_,_,_,386,NOUN,Ncfsa,obj
388,2339-2340,",",_,_,_,_,_,386,PUNCT,Z,punct
389,2341-2344,iti,_,_,_,_,_,1,VERB,Vmbr3s,parataxis
390,2345-2347,za,_,_,_,_,_,393,ADP,Sa,case
391,2348-2359,transporten,_,_,_,_,_,393,ADJ,Agpfsa,amod
392,2360-2367,pogodba,_,_,_,_,_,390,NOUN,Ncfsa,obl
393,2368-2369,",",_,_,_,_,_,396,PUNCT,Z,punct
394,2370-2372,ki,_,_,_,_,_,396,SCONJ,Cs,mark
395,2373-2382,nadomesti,_,_,_,_,_,393,VERB,Vmer3s,acl
396,2383-2389,bančen,_,_,_,_,_,398,ADJ,Agpfsa,amod
397,2390-2399,garancija,_,_,_,_,_,396,NOUN,Ncfsa,obj
398,2400-2401,",",_,_,_,_,_,403,PUNCT,Z,punct
399,2402-2404,če,_,_,_,_,_,403,SCONJ,Cs,mark
400,2405-2407,biti,_,_,_,_,_,403,AUX,Va-r3s-n,cop
401,2408-2410,ta,_,_,_,_,_,403,DET,Pd-nsn,nsubj
402,2411-2423,sprejemljiv,_,_,_,_,_,396,ADJ,Agpnsn,advcl
403,2424-2426,za,_,_,_,_,_,405,ADP,Sa,case
404,2427-2432,banka,_,_,_,_,_,403,NOUN,Ncfsa,obl
405,2433-2434,",",_,_,_,_,_,403,PUNCT,Z,punct
406,2435-2437,biti,_,_,*->13-5,*[13],_,408,AUX,Va-r3s-n,aux
407,2438-2446,pojasniti,_,_,*->13-5,*[13],_,1,VERB,Vmep-sm,parataxis
408,2447-2448,.,_,_,_,_,_,358,PUNCT,Z,punct
409,2449-2457,Plinovod,_,_,_,_,_,414,PROPN,Npmsn,nsubj
410,2458-2460,biti,_,_,_,_,_,414,AUX,Va-f3s-n,cop
411,2461-2462,v,_,_,_,_,_,413,ADP,Sl,case
412,2463-2472,Slovenija,LOC,_,*->11-6,*[11],_,414,PROPN,Npfsl,obl
413,2473-2477,dolg,_,_,_,_,_,408,ADJ,Agpmsnn,advcl
414,2478-2481,266,_,_,_,_,_,416,NUM,Mdc,nummod
415,2482-2492,kilometer,_,_,_,_,_,414,NOUN,Ncmpg,obl
416,2493-2494,",",_,_,_,_,_,418,PUNCT,Z,punct
417,2495-2499,imeti,_,_,_,_,_,414,VERB,Vmpp-sm,conj
418,2500-2502,biti,_,_,_,_,_,418,AUX,Va-f3s-n,aux
419,2503-2506,dva,_,_,_,_,_,422,NUM,Mlcfda,nummod
420,2507-2519,kompresorski,_,_,_,_,_,422,ADJ,Agpfda,amod
421,2520-2527,postaja,_,_,_,_,_,418,NOUN,Ncfda,obj
422,2528-2529,-,_,_,_,_,_,424,PUNCT,Z,punct
423,2530-2539,Kidričevo,LOC,0,*->9-3,*[9],3 - Nevtralno,422,PROPN,Npfsn,conj
424,2540-2542,in,_,_,_,_,_,426,CCONJ,Cc,cc
425,2543-2549,Vodica,LOC,0,*->4-4,*[4],3 - Nevtralno,424,PROPN,Npfpn,conj
426,2550-2551,",",_,_,_,_,_,432,PUNCT,Z,punct
427,2552-2558,zadnji,_,_,_,_,_,432,ADJ,Agpfsn,nsubj
428,2559-2561,še,_,_,_,_,_,432,PART,Q,advmod
429,2562-2564,biti,_,_,_,_,_,432,AUX,Va-r3s-y,cop
430,2565-2573,natančno,_,_,_,_,_,432,ADV,Rgp,advmod
431,2574-2582,določen,_,_,_,_,_,418,ADJ,Appfsn,advcl
432,2583-2584,.,_,_,_,_,_,414,PUNCT,Z,punct
433,2585-2593,trenutno,_,_,_,_,_,440,ADV,Rgp,advmod
434,2594-2596,na,_,_,_,_,_,436,ADP,Sl,case
435,2597-2605,projekt,_,_,_,_,_,440,NOUN,Ncmsl,obl
436,2606-2608,po,_,_,_,_,_,439,ADP,Sl,case
437,2609-2617,njegov,_,_,_,_,_,439,DET,Ps3fplsm,det
438,2618-2625,beseda,_,_,_,_,_,440,NOUN,Ncfpl,obl
439,2626-2632,potekati,_,_,_,_,_,432,VERB,Vmpr3s,advcl
440,2633-2639,veliko,_,_,_,_,_,443,DET,Rgp,det
441,2640-2651,operativen,_,_,_,_,_,443,ADJ,Agpfpg,amod
442,2652-2662,dejavnost,_,_,_,_,_,440,NOUN,Ncfpg,nsubj
443,2663-2664,",",_,_,_,_,_,440,PUNCT,Z,punct
444,2665-2671,družba,_,0,*->10-5,*[10],3 - Nevtralno[15],450,NOUN,Ncfsn,nsubj
445,2672-2677,južen,ORG[11],0,*->10-5,*[10],3 - Nevtralno[15],447,ADJ,Agpmsny,amod
446,2678-2681,tok,ORG[11],0,*->10-5,*[10],3 - Nevtralno[15],445,NOUN,Ncmsn,nmod
447,2682-2691,Slovenija,ORG[11]|LOC[12],0,*->10-5|*->11-7,*[10]|*[11],3 - Nevtralno[15],447,PROPN,Npfsg,nmod
448,2692-2694,biti,_,_,_,_,_,450,AUX,Va-r3s-n,aux
449,2695-2703,zaživeti,_,_,_,_,_,440,VERB,Vmep-sf,conj
450,2704-2706,in,_,_,_,_,_,452,CCONJ,Cc,cc
451,2707-2714,začenjati,_,_,_,_,_,450,VERB,Vmpr3s,conj
452,2715-2723,delovati,_,_,_,_,_,452,VERB,Vmpn,xcomp
453,2724-2725,.,_,_,_,_,_,440,PUNCT,Z,punct
454,2726-2736,spoštovati,_,_,_,_,_,450,VERB,Vmpn,conj
455,2737-2740,red,_,_,_,_,_,455,NOUN,Ncmsan,obj
456,2741-2749,Eberlinc,PER,_,*->13-6,*[13],_,456,PROPN,Npmsn,nmod
457,2750-2752,biti,_,_,_,_,_,459,AUX,Va-r3s-n,aux
458,2753-2760,spomniti,_,_,_,_,_,450,VERB,Vmep-sm,conj
459,2761-2763,še,_,_,_,_,_,459,PART,Q,advmod
460,2764-2765,",",_,_,_,_,_,475,PUNCT,Z,punct
461,2766-2768,da,_,_,_,_,_,475,SCONJ,Cs,mark
462,2769-2771,biti,_,_,_,_,_,475,AUX,Va-r3s-n,aux
463,2772-2775,biti,_,_,_,_,_,475,AUX,Va-p-sm,cop
464,2776-2784,sporazum,_,_,_,_,_,475,NOUN,Ncmsn,nsubj
465,2785-2788,med,_,_,_,_,_,467,ADP,Si,case
466,2789-2796,vlada,_,_,_,_,_,465,NOUN,Ncfdi,nmod
467,2797-2806,Slovenija,LOC,0,*->11-8,*[11],3 - Nevtralno,467,PROPN,Npfsg,nmod
468,2807-2809,in,_,_,_,_,_,470,CCONJ,Cc,cc
469,2810-2816,Rusija,LOC,0,*->12-1,*[12],3 - Nevtralno,468,PROPN,Npfsg,conj
470,2817-2818,o,_,_,_,_,_,472,ADP,Sl,case
471,2819-2830,sodelovanje,_,_,_,_,_,475,NOUN,Ncnsl,obl
472,2831-2834,pri,_,_,_,_,_,474,ADP,Sl,case
473,2835-2843,projekt,_,_,_,_,_,472,NOUN,Ncmsl,nmod
474,2844-2852,podpisan,_,_,_,_,_,483,ADJ,Appmsnn,ccomp
475,2853-2861,november,_,_,_,_,_,475,NOUN,Ncmsg,obl
476,2862-2866,2009,_,_,_,_,_,476,NUM,Mdc,nummod
477,2867-2869,in,_,_,_,_,_,479,CCONJ,Cc,cc
478,2870-2881,ratificiran,_,_,_,_,_,475,ADJ,Appmsnn,conj
479,2882-2887,marec,_,_,_,_,_,479,NOUN,Ncmsg,obl
480,2888-2892,2010,_,_,_,_,_,480,NUM,Mdc,nummod
481,2893-2894,.,_,_,_,_,_,459,PUNCT,Z,punct
482,2895-2903,poudariti,_,_,*->13-7,*[13],_,1,VERB,Vmep-sm,parataxis
483,2904-2906,biti,_,_,*->13-7,*[13],_,483,AUX,Va-r3s-n,aux
484,2907-2908,",",_,_,_,_,_,487,PUNCT,Z,punct
485,2909-2911,da,_,_,_,_,_,487,SCONJ,Cs,mark
486,2912-2914,biti,_,_,_,_,_,483,VERB,Va-r3s-n,ccomp
487,2915-2920,treba,_,_,_,_,_,487,ADV,Rgp,advmod
488,2921-2931,spoštovati,_,_,_,_,_,487,VERB,Vmpn,csubj
489,2932-2940,evropski,_,_,_,_,_,492,ADJ,Agpmsay,amod
490,2941-2947,praven,_,_,_,_,_,492,ADJ,Agpmsay,amod
491,2948-2951,red,_,_,_,_,_,489,NOUN,Ncmsan,obj
492,2952-2953,",",_,_,_,_,_,487,PUNCT,Z,punct
493,2954-2962,sprejemati,_,0,*->13-8,*[13],3 - Nevtralno,483,VERB,Vmpr3s,ccomp
494,2963-2965,pa,_,_,_,_,_,494,CCONJ,Cc,advmod
495,2966-2971,vsak,_,_,_,_,_,498,DET,Pg-fsa,det
496,2972-2977,drug,_,_,_,_,_,498,ADJ,Mlpfsa,amod
497,2978-2985,možnost,_,_,_,_,_,494,NOUN,Ncfsa,obj
498,2986-2988,za,_,_,_,_,_,500,ADP,Sa,case
499,2989-2995,razvoj,_,_,_,_,_,498,NOUN,Ncmsan,nmod
500,2996-3004,projekt,_,_,_,_,_,500,NOUN,Ncmsg,nmod
501,3005-3007,po,_,_,_,_,_,503,ADP,Sl,case
502,3008-3016,dogovor,_,_,_,_,_,500,NOUN,Ncmsl,nmod
503,3017-3018,z,_,_,_,_,_,506,ADP,Si,case
504,3019-3027,evropski,ORG[13],0,*->14-3,*[14],3 - Nevtralno[16],506,ADJ,Agpfsi,amod
505,3028-3036,komisija,ORG[13],0,*->14-3,*[14],3 - Nevtralno[16],503,NOUN,Ncfsi,nmod
