idx,chars_idx,token,entity_type,sentiment,idk_1,idk_2,orig_sentiment,heads,upos,xpos,deprel
0,0-5,Lojza,PER[1],_,*->13-1,*[13],_,19,PROPN,Npmsn,nsubj
1,6-13,Peterle,PER[1],_,*->13-1,*[13],_,1,PROPN,Npmsn,nmod
2,14-25,pričakovan,_,_,_,_,_,1,ADV,Rgp,advmod
3,26-28,in,_,_,_,_,_,5,CCONJ,Cc,cc
4,29-31,dr,_,_,*->19-1,*[19],_,1,PROPN,Npmsn,conj
5,32-33,.,_,_,*->19-1,*[19],_,5,PUNCT,Z,punct
6,34-40,Danilo,PER[2],_,*->19-1,*[19],_,1,PROPN,Npmsn,nmod
7,41-45,Turk,PER[2],_,*->19-1,*[19],_,7,PROPN,Npmsn,flat:name
8,46-48,po,_,_,_,_,_,11,ADP,Sl,case
9,49-55,tesen,_,_,_,_,_,11,ADJ,Agpmsl,amod
10,56-60,boj,_,_,_,_,_,19,NOUN,Ncmsl,obl
11,61-62,z,_,_,_,_,_,13,ADP,Si,case
12,63-68,Mitja,PER[3],_,*->2-1,*[2],_,11,PROPN,Npmsi,nmod
13,69-79,Gasparij,PER[3],_,*->2-1,*[2],_,13,PROPN,Npmsi,flat:name
14,80-85,biti,_,_,_,_,_,19,AUX,Va-f3d-n,aux
15,86-87,v,_,_,_,_,_,18,ADP,Sl,case
16,88-94,drug,_,_,_,_,_,18,ADJ,Mlpmsl,amod
17,95-100,krog,_,_,_,_,_,19,NOUN,Ncmsl,obl
18,101-109,odločati,_,_,_,_,_,42,VERB,Vmpp-dm,advcl
19,110-111,o,_,_,_,_,_,22,ADP,Sl,case
20,112-117,nov,_,_,_,_,_,22,ADJ,Agpmsl,amod
21,118-129,predsednik,_,_,_,_,_,19,NOUN,Ncmsl,obl
22,130-139,Slovenija,LOC,_,*->1-1,*[1],_,22,PROPN,Npfsg,nmod
23,140-141,.,_,_,_,_,_,25,PUNCT,Z,punct
24,142-147,Lojza,PER[4],_,*->13-2,*[13],_,1,PROPN,Npmsn,nmod
25,148-155,Peterle,PER[4],_,*->13-2,*[13],_,25,PROPN,Npmsn,flat:name
26,156-157,",",_,_,_,_,_,31,PUNCT,Z,punct
27,158-160,ki,_,_,_,_,_,31,SCONJ,Cs,mark
28,161-163,biti,_,_,_,_,_,31,AUX,Va-r3s-n,aux
29,164-175,kandidatura,_,_,_,_,_,31,NOUN,Ncfsa,obj
30,176-185,napovedati,_,_,_,_,_,25,VERB,Vmep-sm,acl
31,186-188,že,_,_,_,_,_,31,PART,Q,advmod
32,189-193,pred,_,_,_,_,_,34,ADP,Si,case
33,194-199,leto,_,_,_,_,_,31,NOUN,Ncnsi,obl
34,200-203,dan,_,_,_,_,_,34,NOUN,Ncmpg,nmod
35,204-205,",",_,_,_,_,_,31,PUNCT,Z,punct
36,206-208,se,_,_,_,_,_,42,PRON,Px------y,expl
37,209-211,biti,_,_,_,_,_,42,AUX,Va-r3s-n,aux
38,212-213,v,_,_,_,_,_,41,ADP,Sa,case
39,214-219,drug,_,_,_,_,_,41,ADJ,Mlpmsay,amod
40,220-224,krog,_,_,_,_,_,42,NOUN,Ncmsan,obl
41,225-232,uvrstiti,_,_,_,_,_,0,VERB,Vmep-sm,root
42,233-237,brez,_,_,_,_,_,44,ADP,Sg,case
43,238-243,težava,_,_,_,_,_,42,NOUN,Ncfpg,obl
44,244-245,.,_,_,_,_,_,42,PUNCT,Z,punct
45,246-257,predvolilen,_,_,_,_,_,47,ADJ,Agpfpn,amod
46,258-264,anket,_,_,_,_,_,51,NOUN,Ncfpn,nsubj
47,265-267,biti,_,_,_,_,_,51,AUX,Va-r3p-n,aux
48,268-270,on,_,_,*->13-3,*[13],_,51,PRON,Pp3msd--y,iobj
49,271-279,vseskozi,_,_,_,_,_,51,ADV,Rgp,advmod
50,280-292,napovedovati,_,_,_,_,_,42,VERB,Vmpp-pf,parataxis
51,293-299,visok,_,_,_,_,_,53,ADJ,Agpfsa,amod
52,300-307,podpora,_,_,_,_,_,51,NOUN,Ncfsa,obj
53,308-309,",",_,_,_,_,_,51,PUNCT,Z,punct
54,310-318,nekateri,_,_,_,_,_,60,DET,Pi-mpn,nsubj
55,319-321,pa,_,_,_,_,_,60,CCONJ,Cc,advmod
56,322-324,biti,_,_,_,_,_,60,AUX,Va-r3p-n,aux
57,325-330,dolgo,_,_,_,_,_,59,ADV,Rgp,advmod
58,331-335,čas,_,_,_,_,_,60,NOUN,Ncmsg,obl
59,336-348,napovedovati,_,_,_,_,_,42,VERB,Vmpp-pm,parataxis
60,349-350,",",_,_,_,_,_,66,PUNCT,Z,punct
61,351-353,da,_,_,_,_,_,66,SCONJ,Cs,mark
62,354-356,biti,_,_,_,_,_,66,AUX,Va-c,aux
63,357-359,on,_,_,*->13-4,*[13],_,66,PRON,Pp3msd--y,obj
64,360-365,lahko,_,_,_,_,_,66,ADV,Rgp,advmod
65,366-372,uspeti,_,_,_,_,_,60,VERB,Vmep-sn,ccomp
66,373-380,zmagati,_,_,_,_,_,66,VERB,Vmen,xcomp
67,381-385,celo,_,_,_,_,_,67,PART,Q,advmod
68,386-387,v,_,_,_,_,_,71,ADP,Sl,case
69,388-393,prvi,_,_,_,_,_,71,ADJ,Mlomsl,amod
70,394-399,krog,_,_,_,_,_,67,NOUN,Ncmsl,obl
71,400-401,.,_,_,_,_,_,66,PUNCT,Z,punct
72,402-411,Peterlet,PER,_,*->13-5,*[13],_,80,PROPN,Npmsd,obj
73,412-414,se,_,_,_,_,_,80,PRON,Px------y,expl
74,415-417,biti,_,_,_,_,_,80,AUX,Va-r3s-n,aux
75,418-425,zgodnji,_,_,_,_,_,77,ADJ,Agpfsn,amod
76,426-433,napoved,_,_,_,_,_,80,NOUN,Ncfsn,nsubj
77,434-445,kandidatura,_,_,_,_,_,77,NOUN,Ncfsg,nmod
78,446-451,močno,_,_,_,_,_,80,ADV,Rgp,advmod
79,452-463,obrestovati,_,_,_,_,_,60,VERB,Vmpp-sf,parataxis
80,464-465,",",_,_,_,_,_,80,PUNCT,Z,punct
81,466-468,že,_,_,_,_,_,91,PART,Q,advmod
82,469-471,ob,_,_,_,_,_,85,ADP,Sl,case
83,472-477,sam,_,_,_,_,_,85,ADJ,Agpmsl,amod
84,478-485,začetek,_,_,_,_,_,91,NOUN,Ncmsl,obl
85,486-488,pa,_,_,_,_,_,91,CCONJ,Cc,advmod
86,489-491,biti,_,_,_,_,_,91,AUX,Va-r3s-n,aux
87,492-493,v,_,_,_,_,_,90,ADP,Sl,case
88,494-503,šahovski,_,_,_,_,_,90,ADJ,Agpmsl,amod
89,504-511,žargon,_,_,_,_,_,91,NOUN,Ncmsl,obl
90,512-520,poudariti,_,_,_,_,_,80,VERB,Vmep-sm,conj
91,521-531,pomembnost,_,_,_,_,_,91,NOUN,Ncfsa,obj
92,532-533,',_,_,_,_,_,95,PUNCT,Z,punct
93,534-535,',_,_,_,_,_,95,PUNCT,Z,punct
94,536-545,otvoritev,_,_,_,_,_,92,NOUN,Ncfsg,nmod
95,546-547,',_,_,_,_,_,95,PUNCT,Z,punct
96,548-549,',_,_,_,_,_,95,PUNCT,Z,punct
97,550-551,.,_,_,_,_,_,91,PUNCT,Z,punct
98,552-559,Peterle,PER,_,*->13-6,*[13],_,107,PROPN,Npmsn,nsubj
99,560-562,biti,_,_,_,_,_,107,AUX,Va-r3s-n,aux
100,563-567,tudi,_,_,_,_,_,107,PART,Q,advmod
101,568-573,edin,_,_,_,_,_,107,ADJ,Agpmsny,obl
102,574-577,med,_,_,_,_,_,104,ADP,Si,case
103,578-587,kandidat,_,_,_,_,_,107,NOUN,Ncmpi,obl
104,588-592,vsaj,_,_,_,_,_,107,PART,Q,advmod
105,593-598,delno,_,_,_,_,_,107,ADV,Rgp,advmod
106,599-608,upoštevati,_,_,_,_,_,91,VERB,Vmbp-sm,conj
107,609-616,pravilo,_,_,_,_,_,107,NOUN,Ncnsa,obj
108,617-624,sodoben,_,_,_,_,_,110,ADJ,Agpfsg,amod
109,625-633,politika,_,_,_,_,_,108,NOUN,Ncfsg,nmod
110,634-635,",",_,_,_,_,_,116,PUNCT,Z,punct
111,636-638,da,_,_,_,_,_,116,SCONJ,Cs,mark
112,639-641,se,_,_,_,_,_,116,PRON,Px------y,expl
113,642-653,predvolilen,_,_,_,_,_,115,ADJ,Agpfsn,amod
114,654-662,kampanja,_,_,_,_,_,116,NOUN,Ncfsn,nsubj
115,663-668,začeti,_,_,_,_,_,110,VERB,Vmer3s,acl
116,669-674,takoj,_,_,_,_,_,119,ADV,Rgp,advmod
117,675-677,po,_,_,_,_,_,119,ADP,Sl,case
118,678-686,volitev,_,_,_,_,_,116,NOUN,Ncfpl,obl
119,687-688,.,_,_,_,_,_,107,PUNCT,Z,punct
120,689-691,Dr,_,_,*->19-2,*[19],_,116,PROPN,Npmsn,nsubj
121,692-693,.,_,_,*->19-2,*[19],_,107,PUNCT,Z,punct
122,694-700,Danilo,PER[5],_,*->19-2,*[19],_,121,PROPN,Npmsn,nmod
123,701-705,Türk,PER[5],_,*->19-2,*[19],_,123,PROPN,Npmsn,flat:name
124,706-708,biti,_,_,_,_,_,132,AUX,Va-r3s-n,aux
125,709-711,na,_,_,_,_,_,128,ADP,Sa,case
126,712-719,spolzek,_,_,_,_,_,128,ADJ,Agpnpa,amod
127,720-723,tla,_,_,_,_,_,132,NOUN,Ncnpa,obl
128,724-730,domač,_,_,_,_,_,131,ADJ,Agpfsg,amod
129,731-740,političen,_,_,_,_,_,131,ADJ,Agpfsg,amod
130,741-746,scena,_,_,_,_,_,128,NOUN,Ncfsg,nmod
131,747-754,vstopiti,_,_,_,_,_,107,VERB,Vmep-sm,advcl
132,755-758,kot,_,_,_,_,_,135,SCONJ,Cs,case
133,759-766,izkušen,_,_,*->19-3,*[19],_,135,ADJ,Agpmsnn,amod
134,767-775,diplomat,_,_,*->19-3,*[19],_,132,NOUN,Ncmsn,obl
135,776-777,",",_,_,_,_,_,138,PUNCT,Z,punct
136,778-780,ki,_,_,_,_,_,138,SCONJ,Cs,mark
137,781-790,nagovarjati,_,_,_,_,_,135,VERB,Vmpr3s,acl
138,791-798,celoten,_,_,_,_,_,141,ADJ,Agpnsa,amod
139,799-806,volilen,_,_,_,_,_,141,ADJ,Agpnsa,amod
140,807-811,telo,_,_,_,_,_,138,NOUN,Ncnsa,obj
141,812-813,.,_,_,_,_,_,132,PUNCT,Z,punct
142,814-815,v,_,_,_,_,_,144,ADP,Sl,case
143,816-824,javnost,_,_,_,_,_,141,NOUN,Ncfsl,nmod
144,825-832,nastop,_,_,_,_,_,144,NOUN,Ncmsg,nmod
145,833-836,kot,_,_,_,_,_,148,SCONJ,Cs,case
146,837-844,uglajen,_,_,*->19-4,*[19],_,148,ADJ,Appmsnn,amod
147,845-855,svetovljan,_,_,*->19-4,*[19],_,141,NOUN,Ncmsn,obl
148,856-857,",",_,_,_,_,_,156,PUNCT,Z,punct
149,858-860,ki,_,_,_,_,_,156,SCONJ,Cs,mark
150,861-863,se,_,_,_,_,_,156,PRON,Px---d--y,expl
151,864-866,biti,_,_,_,_,_,156,AUX,Va-r3s-n,aux
152,867-870,ime,_,_,_,_,_,156,NOUN,Ncnsa,obj
153,871-873,in,_,_,_,_,_,155,CCONJ,Cc,cc
154,874-879,ugled,_,_,_,_,_,153,NOUN,Ncmsan,conj
155,880-888,ustvariti,_,_,_,_,_,148,VERB,Vmep-sm,acl
156,889-891,na,_,_,_,_,_,159,ADP,Sl,case
157,892-903,mednaroden,_,_,_,_,_,159,ADJ,Agpmsl,amod
158,904-911,parket,_,_,_,_,_,156,NOUN,Ncmsl,obl
159,912-914,in,_,_,_,_,_,163,CCONJ,Cc,cc
160,915-923,predvsem,_,_,_,_,_,156,PART,Q,advmod
161,924-925,z,_,_,_,_,_,163,ADP,Si,case
162,926-931,delo,_,_,_,_,_,159,NOUN,Ncnsi,conj
163,932-933,v,_,_,_,_,_,166,ADP,Sl,case
164,934-943,združen,ORG[6],_,*->18-1,*[18],_,166,ADJ,Appmpl,amod
165,944-951,narod,ORG[6],_,*->18-1,*[18],_,163,NOUN,Ncmpl,nmod
166,952-953,.,_,_,_,_,_,156,PUNCT,Z,punct
167,954-961,njegov,_,_,*->19-5,*[19],_,169,DET,Ps3fsnsm,det
168,962-970,prednost,_,_,_,_,_,107,NOUN,Ncfsn,nsubj
169,971-975,pred,_,_,_,_,_,171,ADP,Si,case
170,976-986,Gasparij,PER,0,*->2-2,*[2],3 - Nevtralno,169,PROPN,Npmsi,nmod
171,987-989,biti,_,_,_,_,_,169,AUX,Va-r3s-n,aux
172,990-998,verjetno,_,_,_,_,_,181,ADV,Rgp,advmod
173,999-1003,biti,_,_,_,_,_,169,AUX,Va-p-sf,cop
174,1004-1005,",",_,_,_,_,_,181,PUNCT,Z,punct
175,1006-1008,da,_,_,_,_,_,181,SCONJ,Cs,mark
176,1009-1011,biti,_,_,_,_,_,181,AUX,Va-r3s-n,aux
177,1012-1013,v,_,_,_,_,_,180,ADP,Sa,case
178,1014-1026,predsedniški,_,_,_,_,_,180,ADJ,Agpfsa,amod
179,1027-1032,tekma,_,_,_,_,_,181,NOUN,Ncfsa,obl
180,1033-1040,vstopiti,_,_,_,_,_,169,VERB,Vmep-sm,acl
181,1041-1045,brez,_,_,_,_,_,185,ADP,Sg,case
182,1046-1057,pretiran,_,_,_,_,_,185,ADJ,Appmsg,amod
183,1058-1069,političen,_,_,_,_,_,185,ADJ,Agpmsg,amod
184,1070-1079,predznak,_,_,_,_,_,181,NOUN,Ncmsg,obl
185,1080-1081,",",_,_,_,_,_,181,PUNCT,Z,punct
186,1082-1087,drug,_,_,_,_,_,188,ADJ,Mlpmsny,amod
187,1088-1092,krog,_,_,_,_,_,191,NOUN,Ncmsn,nsubj
188,1093-1095,pa,_,_,_,_,_,191,CCONJ,Cc,advmod
189,1096-1098,biti,_,_,_,_,_,191,AUX,Va-f3s-n,aux
190,1099-1106,pokazati,_,_,_,_,_,181,VERB,Vmep-sm,conj
191,1107-1108,",",_,_,_,_,_,194,PUNCT,Z,punct
192,1109-1112,ali,_,_,_,_,_,194,ADV,Rgp,mark
193,1113-1118,zmoči,_,_,*->19-6,*[19],_,191,VERB,Vmer3s,ccomp
194,1119-1120,v,_,_,_,_,_,196,ADP,Sl,case
195,1121-1128,spopad,_,_,_,_,_,199,NOUN,Ncmsl,obl
196,1129-1130,z,_,_,_,_,_,198,ADP,Si,case
197,1131-1141,Peterlet,PER,_,*->13-7,*[13],_,196,PROPN,Npmsi,nmod
198,1142-1152,nagovoriti,_,_,_,_,_,194,VERB,Vmen,xcomp
199,1153-1157,tudi,_,_,_,_,_,199,PART,Q,advmod
200,1158-1163,tisti,_,_,_,_,_,205,DET,Pd-mpa,det
201,1164-1168,bolj,_,_,_,_,_,204,ADV,Rgc,advmod
202,1169-1174,desno,_,_,_,_,_,204,ADV,Rgp,advmod
203,1175-1186,orientiran,_,_,_,_,_,205,ADJ,Appmpa,amod
204,1187-1194,volilec,_,_,_,_,_,199,NOUN,Ncmpa,obj
205,1195-1196,",",_,_,_,_,_,210,PUNCT,Z,punct
206,1197-1200,ali,_,_,_,_,_,210,ADV,Rgp,mark
207,1201-1203,pa,_,_,_,_,_,210,CCONJ,Cc,advmod
208,1204-1206,biti,_,_,_,_,_,210,AUX,Va-f3s-n,aux
209,1207-1213,postati,_,_,_,_,_,205,VERB,Vmep-sm,acl
210,1214-1219,zgolj,_,_,_,_,_,210,PART,Q,advmod
211,1220-1226,simbol,_,_,_,_,_,210,NOUN,Ncmsn,nsubj
212,1227-1231,nov,_,_,_,_,_,214,ADJ,Agpfsg,amod
213,1232-1244,polarizacija,_,_,_,_,_,212,NOUN,Ncfsg,nmod
214,1245-1248,med,_,_,_,_,_,216,ADP,Si,case
215,1249-1255,levica,_,_,_,_,_,214,NOUN,Ncfsi,nmod
216,1256-1258,in,_,_,_,_,_,218,CCONJ,Cc,cc
217,1259-1266,desnica,_,_,_,_,_,216,NOUN,Ncfsi,conj
218,1267-1268,.,_,_,_,_,_,210,PUNCT,Z,punct
219,1269-1273,biti,_,_,_,_,_,222,AUX,Va-f3p-n,aux
220,1274-1281,orglica,_,_,_,_,_,222,NOUN,Ncfpn,nsubj
221,1282-1288,igrati,_,_,_,_,_,19,VERB,Vmpp-pf,parataxis
222,1289-1293,tudi,_,_,_,_,_,222,PART,Q,advmod
223,1294-1296,po,_,_,_,_,_,226,ADP,Sl,case
224,1297-1303,drug,_,_,_,_,_,226,ADJ,Mlpmsl,amod
225,1304-1309,krog,_,_,_,_,_,222,NOUN,Ncmsl,obl
226,1310-1311,?,_,_,_,_,_,222,PUNCT,Z,punct
227,1312-1319,Peterle,PER,_,*->13-8,*[13],_,241,PROPN,Npmsn,nsubj
228,1320-1322,biti,_,_,_,_,_,241,AUX,Va-r3s-n,aux
229,1323-1325,po,_,_,_,_,_,232,ADP,Sl,case
230,1326-1333,končan,_,_,_,_,_,232,ADJ,Appfsl,amod
231,1334-1343,gimnazija,_,_,_,_,_,241,NOUN,Ncfsl,obl
232,1344-1345,v,_,_,_,_,_,235,ADP,Sl,case
233,1346-1351,nov,LOC[7],0,*->3-1,*[3],3 - Nevtralno[29],235,ADJ,Agpnsl,amod
234,1352-1357,mesto,LOC[7],0,*->3-1,*[3],3 - Nevtralno[29],232,NOUN,Ncnsl,nmod
235,1358-1360,na,_,_,_,_,_,238,ADP,Sl,case
236,1361-1371,filozofski,ORG[8],0,*->4-1,*[4],3 - Nevtralno[30],238,ADJ,Agpfsl,amod
237,1372-1381,fakulteta,ORG[8],0,*->4-1,*[4],3 - Nevtralno[30],235,NOUN,Ncfsl,nmod
238,1382-1383,v,ORG[8],0,*->4-1,*[4],3 - Nevtralno[30],240,ADP,Sl,case
239,1384-1393,Ljubljana,ORG[8]|LOC[9],0,*->4-1|*->5-1,*[4]|*[5],3 - Nevtralno[30],238,PROPN,Npfsl,nmod
240,1394-1404,diplomirati,_,_,_,_,_,222,VERB,Vmbp-sm,conj
241,1405-1407,iz,_,_,_,_,_,243,ADP,Sg,case
242,1408-1418,geografija,_,_,_,_,_,241,NOUN,Ncfsg,obl
243,1419-1421,in,_,_,_,_,_,245,CCONJ,Cc,cc
244,1422-1431,zgodovina,_,_,_,_,_,243,NOUN,Ncfsg,conj
245,1432-1433,",",_,_,_,_,_,241,PUNCT,Z,punct
246,1434-1436,na,_,_,_,_,_,249,ADP,Sl,case
247,1437-1446,ekonomski,ORG[10],0,*->6-1,*[6],3 - Nevtralno[31],249,ADJ,Agpfsl,amod
248,1447-1456,fakulteta,ORG[10],0,*->6-1,*[6],3 - Nevtralno[31],258,NOUN,Ncfsl,obl
249,1457-1459,pa,_,_,_,_,_,253,CCONJ,Cc,cc
250,1460-1462,še,_,_,_,_,_,258,PART,Q,advmod
251,1463-1465,iz,_,_,_,_,_,253,ADP,Sg,case
252,1466-1475,ekonomija,_,_,_,_,_,249,NOUN,Ncfsg,conj
253,1476-1477,.,_,_,_,_,_,253,PUNCT,Z,punct
254,1478-1483,Marco,_,_,_,_,_,253,PROPN,Npmsg,nmod
255,1484-1488,1989,_,_,_,_,_,255,NUM,Mdc,nummod
256,1489-1491,biti,_,_,_,_,_,258,AUX,Va-r3s-n,aux
257,1492-1501,ustanoviti,_,_,_,_,_,19,VERB,Vmep-sm,parataxis
258,1502-1511,slovenski,ORG[11],0,*->7-1,*[7],3 - Nevtralno[32],262,ADJ,Agpnsa,amod
259,1512-1521,krščanski,ORG[11],0,*->7-1,*[7],3 - Nevtralno[32],262,ADJ,Agpnsa,amod
260,1522-1530,socialen,ORG[11],0,*->7-1,*[7],3 - Nevtralno[32],262,ADJ,Agpnsa,amod
261,1531-1538,gibanje,ORG[11],0,*->7-1,*[7],3 - Nevtralno[32],258,NOUN,Ncnsa,obj
262,1539-1540,",",_,_,_,_,_,269,PUNCT,Z,punct
263,1541-1543,ki,_,_,_,_,_,269,SCONJ,Cs,mark
264,1544-1546,se,_,_,_,_,_,269,PRON,Px------y,expl
265,1547-1549,biti,_,_,_,_,_,269,AUX,Va-r3s-n,aux
266,1550-1556,isti,_,_,_,_,_,268,DET,Pi-nsg,det
267,1557-1561,leto,_,_,_,_,_,269,NOUN,Ncnsg,obl
268,1562-1575,preoblikovati,_,_,_,_,_,262,VERB,Vmep-sn,acl
269,1576-1577,v,_,_,_,_,_,271,ADP,Sa,case
270,1578-1585,stranka,_,0,*->8-1,*[8],3 - Nevtralno[33],269,NOUN,Ncfsa,obl
271,1586-1596,slovenski,ORG[12],0,*->8-1,*[8],3 - Nevtralno[33],274,ADJ,Agpmpg,amod
272,1597-1607,krščanski,ORG[12],0,*->8-1,*[8],3 - Nevtralno[33],274,ADJ,Agpmpg,amod
273,1608-1618,demokrat,ORG[12],0,*->8-1,*[8],3 - Nevtralno[33],271,NOUN,Ncmpg,nmod
274,1619-1620,.,_,_,_,_,_,253,PUNCT,Z,punct
275,1621-1625,leto,_,_,_,_,_,284,NOUN,Ncnsg,obl
276,1626-1630,1990,_,_,_,_,_,276,NUM,Mdc,nummod
277,1631-1633,biti,_,_,_,_,_,284,AUX,Va-r3s-n,aux
278,1634-1637,biti,_,_,_,_,_,284,AUX,Va-p-sm,cop
279,1638-1640,na,_,_,_,_,_,283,ADP,Sl,case
280,1641-1646,prvi,_,_,_,_,_,283,ADJ,Mlofpl,amod
281,1647-1660,demokratičen,_,_,_,_,_,283,ADJ,Agpfpl,amod
282,1661-1669,volitev,_,_,_,_,_,284,NOUN,Ncfpl,obl
283,1670-1678,izvoljen,_,_,_,_,_,19,ADJ,Appmsnn,parataxis
284,1679-1680,v,_,_,_,_,_,287,ADP,Sa,case
285,1681-1688,državen,ORG[13],0,*->9-1,*[9],3 - Nevtralno[34],287,ADJ,Agpmsay,amod
286,1689-1693,zbor,ORG[13],0,*->9-1,*[9],3 - Nevtralno[34],284,NOUN,Ncmsan,obl
287,1694-1696,in,_,_,_,_,_,289,CCONJ,Cc,cc
288,1697-1703,postati,_,_,_,_,_,284,VERB,Vmep-sm,conj
289,1704-1714,predsednik,_,_,*->13-9,*[13],_,289,NOUN,Ncmsn,nsubj
290,1715-1719,prvi,_,_,*->13-9,*[13],_,295,ADJ,Mlofsg,amod
291,1720-1732,demokratično,_,_,*->13-9,*[13],_,293,ADV,Rgp,advmod
292,1733-1742,izvoljen,_,_,*->13-9,*[13],_,295,ADJ,Appfsg,amod
293,1743-1752,slovenski,_,0,*->13-9|*->10-1,*[13]|*[10],3 - Nevtralno[35],295,ADJ,Agpfsg,amod
294,1753-1758,vlada,ORG,0,*->13-9|*->10-1,*[13]|*[10],3 - Nevtralno[35],290,NOUN,Ncfsg,nmod
295,1759-1760,.,_,_,_,_,_,284,PUNCT,Z,punct
296,1761-1764,med,_,_,_,_,_,299,ADP,Si,case
297,1765-1773,njegov,_,_,*->13-10,*[13],_,299,DET,Ps3nsism,det
298,1774-1791,predsednikovanje,_,_,_,_,_,308,NOUN,Ncnsi,obl
299,1792-1793,(,_,_,_,_,_,301,PUNCT,Z,punct
300,1794-1798,1990,_,_,_,_,_,295,NUM,Mdc,nummod
301,1799-1801,do,_,_,_,_,_,303,ADP,Sg,case
302,1802-1806,1992,_,_,_,_,_,301,NUM,Mdc,conj
303,1807-1808,),_,_,_,_,_,301,PUNCT,Z,punct
304,1809-1811,se,_,_,_,_,_,308,PRON,Px------y,expl
305,1812-1814,biti,_,_,_,_,_,308,AUX,Va-r3s-n,aux
306,1815-1824,Slovenija,LOC,_,*->1-2,*[1],_,308,PROPN,Npfsn,nsubj
307,1825-1837,osamosvojiti,_,_,_,_,_,284,VERB,Vmep-sf,advcl
308,1838-1839,",",_,_,_,_,_,308,PUNCT,Z,punct
309,1840-1847,pozno,_,_,_,_,_,327,ADV,Rgc,advmod
310,1848-1850,biti,_,_,_,_,_,339,AUX,Va-r3s-n,aux
311,1851-1854,biti,_,_,_,_,_,327,AUX,Va-p-sm,aux
312,1855-1864,dvakraten,_,_,*->13-11,*[13],_,315,ADJ,Agpmsny,amod
313,1865-1872,zunanji,_,_,*->13-11,*[13],_,315,ADJ,Agpmsny,amod
314,1873-1881,minister,_,_,*->13-11,*[13],_,308,NOUN,Ncmsn,nsubj
315,1882-1883,",",_,_,_,_,_,327,PUNCT,Z,punct
316,1884-1888,leto,_,_,_,_,_,315,NOUN,Ncnsg,appos
317,1889-1893,2000,_,_,_,_,_,317,NUM,Mdc,nummod
318,1894-1896,pa,_,_,_,_,_,327,CCONJ,Cc,advmod
319,1897-1899,biti,_,_,*->13-12,*[13],_,327,AUX,Va-r3s-n,aux
320,1900-1906,skupaj,_,_,_,_,_,327,ADV,Rgp,advmod
321,1907-1908,z,_,_,_,_,_,323,ADP,Si,case
322,1909-1911,dr,_,0,*->11-1,*[11],3 - Nevtralno[36],327,PROPN,Npmsi,obl
323,1912-1913,.,_,0,*->11-1,*[11],3 - Nevtralno[36],308,PUNCT,Z,punct
324,1914-1922,Andrej,PER[14],0,*->11-1,*[11],3 - Nevtralno[36],323,PROPN,Npmsi,conj
325,1923-1930,Bajuk,PER[14],0,*->11-1,*[11],3 - Nevtralno[36],325,PROPN,Npmsi,flat:name
326,1931-1940,ustanoviti,_,_,_,_,_,339,VERB,Vmep-sm,advcl
327,1941-1945,nov,ORG[15],_,*->12-1,*[12],_,329,ADJ,Agpfsa,amod
328,1946-1955,Slovenija,ORG[15]|LOC[16],_,*->12-1|*->1-3,*[12]|*[1],_,327,PROPN,Npfsa,obj
329,1956-1957,-,_,_,_,_,_,331,PUNCT,Z,punct
330,1958-1967,krščanski,_,0,*->12-2,*[12],3 - Nevtralno[37],333,ADJ,Agpfsa,amod
331,1968-1975,ljudsko,_,0,*->12-2,*[12],3 - Nevtralno[37],333,ADJ,Agpfsa,amod
332,1976-1983,stranka,_,0,*->12-2,*[12],3 - Nevtralno[37],329,NOUN,Ncfsa,conj
333,1984-1985,.,_,_,_,_,_,327,PUNCT,Z,punct
334,1986-1990,leto,_,_,_,_,_,339,NOUN,Ncnsg,obl
335,1991-1995,2004,_,_,_,_,_,335,NUM,Mdc,nummod
336,1996-1998,biti,_,_,*->13-13,*[13],_,361,AUX,Va-r3s-n,aux
337,1999-2002,biti,_,_,*->13-13,*[13],_,339,AUX,Va-p-sm,cop
338,2003-2011,izvoljen,_,_,_,_,_,19,ADJ,Appmsnn,parataxis
339,2012-2014,za,_,_,_,_,_,342,ADP,Sa,case
340,2015-2025,evropski,_,_,_,_,_,342,ADJ,Agpmsa,amod
341,2026-2034,poslanec,_,_,_,_,_,339,NOUN,Ncmsay,obl
342,2035-2036,.,_,_,_,_,_,327,PUNCT,Z,punct
343,2037-2047,kandidirati,_,_,*->13-14,*[13],_,339,VERB,Vmbp-sm,parataxis
344,2048-2050,biti,_,_,*->13-14,*[13],_,344,AUX,Va-r3s-n,aux
345,2051-2052,z,_,_,_,_,_,347,ADP,Si,case
346,2053-2060,podpora,_,_,_,_,_,344,NOUN,Ncfsi,obl
347,2061-2069,volilec,_,_,_,_,_,347,NOUN,Ncmpg,nmod
348,2070-2071,",",_,_,_,_,_,350,PUNCT,Z,punct
349,2072-2079,podpreti,_,_,_,_,_,348,VERB,Vmep-pf,acl
350,2080-2082,pa,_,_,_,_,_,350,CCONJ,Cc,advmod
351,2083-2085,biti,_,_,_,_,_,350,AUX,Va-r3p-n,aux
352,2086-2088,on,_,_,_,_,_,350,PRON,Pp3msa--y,obj
353,2089-2093,tudi,_,_,_,_,_,350,PART,Q,advmod
354,2094-2102,pomladen,_,_,_,_,_,356,ADJ,Agpfpn,amod
355,2103-2110,stranka,_,_,_,_,_,350,NOUN,Ncfpn,nsubj
356,2111-2112,.,_,_,_,_,_,350,PUNCT,Z,punct
357,2113-2114,z,_,_,_,_,_,359,ADP,Si,case
358,2115-2124,orglica,_,_,_,_,_,361,NOUN,Ncfpi,obl
359,2125-2127,biti,_,0,*->13-15,*[13],3 - Nevtralno[38],361,AUX,Va-r3s-n,aux
360,2128-2136,navdušiti,_,0,*->13-15,*[13],3 - Nevtralno[38],350,VERB,Vmep-sm,conj
361,2137-2139,že,_,_,_,_,_,361,PART,Q,advmod
362,2140-2149,marsikdo,_,_,_,_,_,361,PRON,Pi-msa,obj
363,2150-2151,",",_,_,_,_,_,361,PUNCT,Z,punct
364,2152-2154,biti,_,_,_,_,_,369,AUX,Va-f3s-n,aux
365,2155-2156,v,_,_,_,_,_,368,ADP,Sl,case
366,2157-2163,drug,_,_,_,_,_,368,ADJ,Mlpmsl,amod
367,2164-2169,krog,_,_,_,_,_,369,NOUN,Ncmsl,obl
368,2170-2175,igrati,_,_,_,_,_,361,VERB,Vmpp-sm,advcl
369,2176-2182,vesel,_,_,_,_,_,371,ADJ,Agpfpa,amod
370,2183-2193,poskočnica,_,_,_,_,_,369,NOUN,Ncfpa,obj
371,2194-2195,?,_,_,_,_,_,369,PUNCT,Z,punct
372,2196-2198,po,_,_,_,_,_,376,ADP,Sl,case
373,2199-2205,bogat,_,_,_,_,_,376,ADJ,Agpfsl,amod
374,2206-2216,mednaroden,_,_,_,_,_,376,ADJ,Agpfsl,amod
375,2217-2224,kariera,_,_,_,_,_,379,NOUN,Ncfsl,obl
376,2225-2227,še,_,_,_,_,_,379,PART,Q,advmod
377,2228-2240,predsedniški,_,_,_,_,_,379,ADJ,Agpmsny,amod
378,2241-2248,stolček,_,_,_,_,_,369,NOUN,Ncmsn,nsubj
379,2249-2250,?,_,_,_,_,_,369,PUNCT,Z,punct
380,2251-2253,Dr,_,_,*->19-7,*[19],_,371,PROPN,Npmsn,conj
381,2254-2255,.,_,_,*->19-7,*[19],_,369,PUNCT,Z,punct
382,2256-2262,Danilo,PER[17],_,*->19-7,*[19],_,381,PROPN,Npmsn,nmod
383,2263-2267,Türk,PER[17],_,*->19-7,*[19],_,383,PROPN,Npmsn,flat:name
384,2268-2270,biti,_,_,_,_,_,390,AUX,Va-r3s-n,aux
385,2271-2273,na,_,_,_,_,_,389,ADP,Sl,case
386,2274-2285,ljubljanski,ORG[18],_,*->20-1,*[20],_,389,ADJ,Agpfsl,amod
387,2286-2292,praven,ORG[18],_,*->20-1,*[20],_,389,ADJ,Agpfsl,amod
388,2293-2302,fakulteta,ORG[18],_,*->20-1,*[20],_,390,NOUN,Ncfsl,obl
389,2303-2313,diplomirati,_,_,_,_,_,379,VERB,Vmbp-sm,acl
390,2314-2318,leto,_,_,_,_,_,390,NOUN,Ncnsg,obl
391,2319-2323,1975,_,_,_,_,_,391,NUM,Mdc,nummod
392,2324-2326,in,_,_,_,_,_,398,CCONJ,Cc,cc
393,2327-2330,čez,_,_,_,_,_,396,ADP,Sa,case
394,2331-2336,sedem,_,_,_,_,_,396,NUM,Mlc-pa,nummod
395,2337-2340,leto,_,_,_,_,_,398,NOUN,Ncnpg,obl
396,2341-2348,uspešno,_,_,_,_,_,398,ADV,Rgp,advmod
397,2349-2359,zagovarjati,_,_,_,_,_,390,VERB,Vmpp-sm,conj
398,2360-2369,doktorski,_,_,_,_,_,400,ADJ,Agpfsa,amod
399,2370-2381,disertacija,_,_,_,_,_,398,NOUN,Ncfsa,obj
400,2382-2383,.,_,_,_,_,_,390,PUNCT,Z,punct
401,2384-2388,leto,_,_,_,_,_,405,NOUN,Ncnsg,obl
402,2389-2393,1992,_,_,_,_,_,402,NUM,Mdc,nummod
403,2394-2396,biti,_,_,*->19-8,*[19],_,405,AUX,Va-r3s-n,aux
404,2397-2402,oditi,_,_,*->19-8,*[19],_,390,VERB,Vmep-sm,conj
405,2403-2404,v,_,_,_,_,_,408,ADP,Sl,case
406,2405-2408,New,LOC[19],0,*->14-1,*[14],3 - Nevtralno[39],408,PROPN,Npmsn,nmod
407,2409-2413,York,LOC[19],0,*->14-1,*[14],3 - Nevtralno[39],405,PROPN,Npmsn,obl
408,2414-2416,in,_,_,_,_,_,417,CCONJ,Cc,cc
409,2417-2426,tedanji,_,0,*->15-1,*[15],3 - Nevtralno[40],412,ADJ,Agpmsd,amod
410,2427-2438,generalen,_,0,*->15-1,*[15],3 - Nevtralno[40],412,ADJ,Agpmsd,amod
411,2439-2449,sekretar,_,0,*->15-1,*[15],3 - Nevtralno[40],417,NOUN,Ncmsd,iobj
412,2450-2459,združen,ORG[20],0,*->15-1|*->18-2,*[15]|*[18],3 - Nevtralno[40],414,ADJ,Appmpg,amod
413,2460-2467,narod,ORG[20],0,*->15-1|*->18-2,*[15]|*[18],3 - Nevtralno[40],412,NOUN,Ncmpg,nmod
414,2468-2475,Butros,PER[21],0,*->15-1,*[15],3 - Nevtralno[40],412,PROPN,Npmsd,nmod
415,2476-2482,Galij,PER[21],0,*->15-1,*[15],3 - Nevtralno[40],415,PROPN,Npmsd,flat:name
416,2483-2489,predati,_,_,_,_,_,405,VERB,Vmep-sm,csubj
417,2490-2499,poverilen,_,_,_,_,_,419,ADJ,Agpnsa,amod
418,2500-2505,pismo,_,_,_,_,_,417,NOUN,Ncnsa,obj
419,2506-2517,predsednik,_,_,_,_,_,419,NOUN,Ncmsg,nmod
420,2518-2527,Slovenija,LOC,_,*->1-4,*[1],_,420,PROPN,Npfsg,nmod
421,2528-2531,ter,_,_,_,_,_,424,CCONJ,Cc,cc
422,2532-2536,tako,_,_,_,_,_,424,ADV,Rgp,advmod
423,2537-2543,postati,_,_,_,_,_,417,VERB,Vmep-sm,conj
424,2544-2548,prvi,_,_,*->19-9,*[19],_,427,ADJ,Mlomsn,amod
425,2549-2558,slovenski,_,_,*->19-9,*[19],_,427,ADJ,Agpmsny,amod
426,2559-2571,veleposlanik,_,_,*->19-9,*[19],_,424,NOUN,Ncmsn,nsubj
427,2572-2575,pri,_,_,*->19-9,*[19],_,431,ADP,Sl,case
428,2576-2579,ta,_,_,*->19-9|*->18-3,*[19]|*[18],_,431,DET,Pd-fsl,det
429,2580-2588,svetoven,_,_,*->19-9|*->18-3,*[19]|*[18],_,431,ADJ,Agpfsl,amod
430,2589-2601,organizacija,_,_,*->19-9|*->18-3,*[19]|*[18],_,427,NOUN,Ncfsl,nmod
431,2602-2603,(,_,_,_,_,_,433,PUNCT,Z,punct
432,2604-2608,1992,_,_,_,_,_,431,NUM,Mdc,nummod
433,2609-2610,–,_,_,_,_,_,435,PUNCT,Z,punct
434,2611-2615,2000,_,_,_,_,_,433,NUM,Mdc,conj
435,2616-2617,),_,_,_,_,_,433,PUNCT,Z,punct
436,2618-2619,.,_,_,_,_,_,417,PUNCT,Z,punct
437,2620-2625,voditi,_,_,*->19-10,*[19],_,19,VERB,Vmpp-sm,parataxis
438,2626-2628,biti,_,_,*->19-10,*[19],_,438,AUX,Va-r3s-n,aux
439,2629-2637,kampanja,_,_,_,_,_,438,NOUN,Ncfsa,obj
440,2638-2640,za,_,_,_,_,_,442,ADP,Sa,case
441,2641-2650,izvolitev,_,_,_,_,_,440,NOUN,Ncfsa,nmod
442,2651-2660,Slovenija,LOC,0,*->1-5,*[1],3 - Nevtralno,442,PROPN,Npfsg,nmod
443,2661-2662,v,_,_,_,_,_,446,ADP,Sa,case
444,2663-2672,varnosten,ORG[22],_,*->16-1,*[16],_,446,ADJ,Agpmsay,amod
445,2673-2677,svet,ORG[22],_,*->16-1,*[16],_,442,NOUN,Ncmsan,nmod
446,2678-2687,združen,ORG[22]|ORG[23],_,*->16-1|*->18-4,*[16]|*[18],_,448,ADJ,Appmpg,amod
447,2688-2695,narod,ORG[22]|ORG[23],_,*->16-1|*->18-4,*[16]|*[18],_,446,NOUN,Ncmpg,nmod
448,2696-2698,in,_,_,_,_,_,457,CCONJ,Cc,cc
449,2699-2701,on,_,0,*->16-2,*[16],3 - Nevtralno,457,PRON,Pp3msd--y,obj
450,2702-2703,v,_,_,_,_,_,452,ADP,Sl,case
451,2704-2709,leto,_,_,_,_,_,457,NOUN,Ncnpl,obl
452,2710-2714,1998,_,_,_,_,_,452,NUM,Mdc,nummod
453,2715-2717,in,_,_,_,_,_,455,CCONJ,Cc,cc
454,2718-2722,1999,_,_,_,_,_,453,NUM,Mdc,conj
455,2723-2727,tudi,_,_,_,_,_,457,PART,Q,advmod
456,2728-2739,predsedovati,_,_,_,_,_,438,VERB,Vmpp-sm,conj
457,2740-2741,.,_,_,_,_,_,438,PUNCT,Z,punct
458,2742-2746,leto,_,_,_,_,_,467,NOUN,Ncnsg,obl
459,2747-2751,2000,_,_,_,_,_,459,NUM,Mdc,nummod
460,2752-2754,on,_,_,*->19-11,*[19],_,467,PRON,Pp3msd--y,iobj
461,2755-2757,biti,_,_,_,_,_,467,AUX,Va-r3s-n,aux
462,2758-2767,generalen,_,0,*->17-1,*[17],3 - Nevtralno[41],464,ADJ,Agpmsny,amod
463,2768-2776,sekretar,_,0,*->17-1,*[17],3 - Nevtralno[41],467,NOUN,Ncmsn,nsubj
464,2777-2781,Kofi,PER[24],0,*->17-1,*[17],3 - Nevtralno[41],464,PROPN,Npmsn,nmod
465,2782-2786,Anan,PER[24],0,*->17-1,*[17],3 - Nevtralno[41],465,PROPN,Npmsn,flat:name
466,2787-2794,ponuditi,_,_,_,_,_,19,VERB,Vmep-sm,parataxis
467,2795-2801,služba,_,_,_,_,_,467,NOUN,Ncfsa,obj
468,2802-2811,pomočnik,_,_,_,_,_,468,NOUN,Ncmsg,nmod
469,2812-2814,za,_,_,_,_,_,472,ADP,Sa,case
470,2815-2824,političen,_,_,_,_,_,472,ADJ,Agpfpa,amod
471,2825-2831,zadeva,_,_,_,_,_,469,NOUN,Ncfpa,nmod
472,2832-2833,",",_,_,_,_,_,477,PUNCT,Z,punct
473,2834-2836,ki,_,_,_,_,_,477,SCONJ,Cs,mark
474,2837-2839,on,_,_,_,_,_,477,PRON,Pp3fsa--y,obj
475,2840-2842,biti,_,_,_,_,_,477,AUX,Va-r3s-n,aux
476,2843-2850,sprejeti,_,_,_,_,_,472,VERB,Vmep-sm,acl
477,2851-2853,in,_,_,_,_,_,479,CCONJ,Cc,cc
478,2854-2863,opravljati,_,_,_,_,_,477,VERB,Vmpp-sm,conj
479,2864-2866,do,_,_,_,_,_,481,ADP,Sg,case
480,2867-2871,leto,_,_,_,_,_,479,NOUN,Ncnsg,obl
481,2872-2876,2005,_,_,_,_,_,481,NUM,Mdc,nummod
482,2877-2878,",",_,_,_,_,_,488,PUNCT,Z,punct
483,2879-2881,ko,_,_,_,_,_,488,SCONJ,Cs,mark
484,2882-2884,biti,_,_,_,_,_,488,AUX,Va-r3s-n,aux
485,2885-2893,združen,ORG[25],0,*->18-5,*[18],3 - Nevtralno[42],487,ADJ,Appmpa,amod
486,2894-2900,narod,ORG[25],0,*->18-5,*[18],3 - Nevtralno[42],488,NOUN,Ncmpa,obj
487,2901-2909,zapustiti,_,_,_,_,_,479,VERB,Vmep-sm,advcl
488,2910-2911,.,_,_,_,_,_,494,PUNCT,Z,punct
489,2912-2914,od,_,_,_,_,_,491,ADP,Sg,case
490,2915-2919,leto,_,_,_,_,_,494,NOUN,Ncnsg,obl
491,2920-2924,2005,_,_,_,_,_,491,NUM,Mdc,nummod
492,2925-2927,biti,_,_,_,_,_,494,AUX,Va-r3s-n,cop
493,2928-2939,predstojnik,_,_,*->19-12,*[19],_,488,NOUN,Ncmsn,nsubj
494,2940-2947,kateder,_,_,*->19-12,*[19],_,494,NOUN,Ncfsg,nmod
495,2948-2950,za,_,_,*->19-12,*[19],_,498,ADP,Sa,case
496,2951-2961,mednaroden,_,_,*->19-12,*[19],_,498,ADJ,Agpnsa,amod
497,2962-2967,pravo,_,_,*->19-12,*[19],_,495,NOUN,Ncnsa,nmod
498,2968-2969,.,_,_,_,_,_,494,PUNCT,Z,punct
499,2970-2972,in,_,_,_,_,_,501,CCONJ,Cc,cc
500,2973-2981,prodekan,_,0,*->19-13,*[19],3 - Nevtralno[43],494,ADJ,Appmsan,conj
501,2982-2984,za,_,0,*->19-13,*[19],3 - Nevtralno[43],504,ADP,Sa,case
502,2985-2994,študijski,_,0,*->19-13,*[19],3 - Nevtralno[43],504,ADJ,Agpfpa,amod
503,2995-3001,zadeva,_,0,*->19-13,*[19],3 - Nevtralno[43],501,NOUN,Ncfpa,obl
504,3002-3004,na,_,0,*->19-13,*[19],3 - Nevtralno[43],507,ADP,Sl,case
505,3005-3011,praven,ORG[26],0,*->19-13|*->20-2,*[19]|*[20],3 - Nevtralno[43]|3 - Nevtralno[44],507,ADJ,Agpfsl,amod
506,3012-3021,fakulteta,ORG[26],0,*->19-13|*->20-2,*[19]|*[20],3 - Nevtralno[43]|3 - Nevtralno[44],504,NOUN,Ncfsl,nmod
507,3022-3030,univerza,ORG[26]|ORG[27],0,*->19-13|*->20-2|*->21-1,*[19]|*[20]|*[21],3 - Nevtralno[43]|3 - Nevtralno[44]|3 - Nevtralno[45],507,NOUN,Ncfsg,nmod
508,3031-3032,v,ORG[26]|ORG[27],0,*->19-13|*->20-2|*->21-1,*[19]|*[20]|*[21],3 - Nevtralno[43]|3 - Nevtralno[44]|3 - Nevtralno[45],510,ADP,Sl,case
509,3033-3042,Ljubljana,ORG[26]|ORG[27]|LOC[28],0,*->19-13|*->20-2|*->21-1|*->5-2,*[19]|*[20]|*[21]|*[5],3 - Nevtralno[43]|3 - Nevtralno[44]|3 - Nevtralno[45]|3 - Nevtralno[46],508,PROPN,Npfsl,nmod
