idx,chars_idx,token,entity_type,sentiment,idk_1,idk_2,orig_sentiment,heads,upos,xpos,deprel
0,0-6,zaradi,_,_,_,_,_,2,ADP,Sg,case
1,7-14,selitev,_,_,_,_,_,15,NOUN,Ncfsg,obl
2,15-26,proizvodnja,_,_,_,_,_,2,NOUN,Ncfsg,nmod
3,27-28,v,_,_,_,_,_,5,ADP,Sa,case
4,29-35,Srbija,LOC,_,*->11-1,*[11],_,2,PROPN,Npfsa,nmod
5,36-38,biti,_,_,_,_,_,15,AUX,Va-r3s-n,aux
6,39-40,v,_,_,_,_,_,8,ADP,Sl,case
7,41-49,podjetje,_,_,*->13-1,*[13],_,15,NOUN,Ncnsl,obl
8,50-57,Gorenje,ORG[1]|ORG[2],_,*->13-1|*->15-1,*[13]|*[15],_,8,PROPN,Npnsn,nmod
9,58-62,Tiki,ORG[1],_,*->13-1,*[13],_,9,PROPN,Npmsn,nmod
10,63-67,brez,_,_,_,_,_,12,ADP,Sg,case
11,68-72,delo,_,_,_,_,_,15,NOUN,Ncnsg,obl
12,73-75,na,_,_,_,_,_,14,ADP,Sl,case
13,76-81,cesta,_,_,_,_,_,12,NOUN,Ncfsl,nmod
14,82-88,ostati,_,_,_,_,_,0,VERB,Vmep-sn,root
15,89-92,150,_,_,_,_,_,17,NUM,Mdc,nummod
16,93-98,človek,_,_,_,_,_,15,NOUN,Ncmpg,nsubj
17,99-100,",",_,_,_,_,_,42,PUNCT,Z,punct
18,101-103,še,_,_,_,_,_,42,PART,Q,advmod
19,104-112,dodaten,_,_,_,_,_,21,ADJ,Agpmpg,amod
20,113-115,50,_,_,_,_,_,42,NUM,Mdc,nummod
21,116-118,pa,_,_,_,_,_,42,CCONJ,Cc,advmod
22,119-122,on,_,_,_,_,_,42,PRON,Pp3mpa--y,obj
23,123-125,biti,_,_,_,_,_,42,AUX,Va-f3s-n,aux
24,126-130,brez,_,_,_,_,_,26,ADP,Sg,case
25,131-135,delo,_,_,_,_,_,42,NOUN,Ncnsg,obl
26,136-141,marec,_,_,_,_,_,26,NOUN,Ncmsg,nmod
27,142-151,prihodnji,_,_,_,_,_,29,ADJ,Agpnsa,amod
28,152-156,leto,_,_,_,_,_,26,NOUN,Ncnsa,nmod
29,157-158,.,_,_,_,_,_,31,PUNCT,Z,punct
30,159-167,podjetje,_,_,*->13-2,*[13],_,29,NOUN,Ncnsl,conj
31,168-169,",",_,_,_,_,_,37,PUNCT,Z,punct
32,170-171,v,_,_,_,_,_,34,ADP,Sl,case
33,172-179,kateri,_,_,_,_,_,37,DET,Pq-msl,obl
34,180-182,biti,_,_,_,_,_,37,AUX,Va-r3p-n,aux
35,183-187,rad,_,_,_,_,_,37,ADV,Rgp,advmod
36,188-194,delati,_,_,_,_,_,29,VERB,Vmpp-pm,acl
37,195-196,",",_,_,_,_,_,37,PUNCT,Z,punct
38,197-199,biti,_,_,_,_,_,42,AUX,Va-r3p-n,aux
39,200-201,v,_,_,_,_,_,41,ADP,Sa,case
40,202-207,slovo,_,_,_,_,_,42,NOUN,Ncnsa,obl
41,208-216,prižgati,_,_,_,_,_,15,VERB,Vmep-pm,parataxis
42,217-222,sveča,_,_,_,_,_,42,NOUN,Ncfpa,obj
43,223-224,.,_,_,_,_,_,42,PUNCT,Z,punct
44,225-233,podjetje,_,_,*->13-3,*[13],_,50,NOUN,Ncnsn,nsubj
45,234-241,Gorenje,ORG[3]|ORG[4],_,*->13-3|*->15-2,*[13]|*[15],_,45,PROPN,Npnsn,nmod
46,242-246,Tiki,ORG[3],_,*->13-3,*[13],_,45,PROPN,Npmsn,nmod
47,247-249,biti,_,_,_,_,_,50,AUX,Va-r3s-n,aux
48,250-254,biti,_,_,_,_,_,50,AUX,Va-p-sn,cop
49,255-267,ustanovljen,_,_,_,_,_,42,ADJ,Appnsn,parataxis
50,268-272,leto,_,_,_,_,_,50,NOUN,Ncnsg,obl
51,273-277,1951,_,_,_,_,_,51,NUM,Mdc,nummod
52,278-281,kot,_,_,_,_,_,54,SCONJ,Cs,case
53,282-290,inštitut,ORG[5],0,*->1-1,*[1],3 - Nevtralno[35],50,NOUN,Ncmsn,obl
54,291-299,kovinski,ORG[5],0,*->1-1,*[1],3 - Nevtralno[35],56,ADJ,Agpfsg,amod
55,300-310,industrija,ORG[5],0,*->1-1,*[1],3 - Nevtralno[35],54,NOUN,Ncfsg,nmod
56,311-320,Slovenija,ORG[5]|LOC[6],0,*->1-1|*->2-1,*[1]|*[2],3 - Nevtralno[35],56,PROPN,Npfsg,nmod
57,321-322,.,_,_,_,_,_,50,PUNCT,Z,punct
58,323-327,leto,_,_,_,_,_,63,NOUN,Ncnsg,obl
59,328-332,1962,_,_,_,_,_,59,NUM,Mdc,nummod
60,333-335,biti,_,_,_,_,_,62,AUX,Va-r3s-n,aux
61,336-342,začeti,_,_,_,_,_,50,VERB,Vmep-sn,parataxis
62,343-349,delati,_,_,_,_,_,62,VERB,Vmpn,xcomp
63,350-353,pod,_,_,_,_,_,65,ADP,Si,case
64,354-360,ime,_,_,_,_,_,63,NOUN,Ncnsi,obl
65,361-365,Tiki,ORG,_,*->13-4,*[13],_,65,PROPN,Npmsn,nmod
66,366-367,.,_,_,_,_,_,62,PUNCT,Z,punct
67,368-372,leto,_,_,_,_,_,63,NOUN,Ncnsg,obl
68,373-377,1978,_,_,_,_,_,68,NUM,Mdc,nummod
69,378-380,se,_,_,_,_,_,73,PRON,Px------y,expl
70,381-383,biti,_,_,_,_,_,73,AUX,Va-r3s-n,aux
71,384-388,Tiki,ORG,_,*->13-5,*[13],_,73,PROPN,Npmsn,nsubj
72,389-398,pridružiti,_,_,_,_,_,62,VERB,Vmep-sm,parataxis
73,399-406,gorenje,ORG[7]|ORG[8],_,*->3-1|*->15-3,*[3]|*[15],_,73,NOUN,Ncnsd,obj
74,407-414,Velenje,ORG[7]|LOC[9],0,*->3-1|*->4-1,*[3]|*[4],3 - Nevtralno,74,PROPN,Npnsn,nmod
75,415-416,.,_,_,_,_,_,73,PUNCT,Z,punct
76,417-424,delavec,_,_,_,_,_,83,NOUN,Ncmpn,nsubj
77,425-432,gorenje,ORG[10]|ORG[11],_,*->13-6|*->15-4,*[13]|*[15],_,77,PROPN,Npnsg,nmod
78,433-437,Tiki,ORG[10],_,*->13-6,*[13],_,78,PROPN,Npmsn,nmod
79,438-440,biti,_,_,_,_,_,83,AUX,Va-r3p-n,aux
80,441-443,se,_,_,_,_,_,83,PRON,Px------y,expl
81,444-449,danes,_,_,_,_,_,83,ADV,Rgp,advmod
82,450-459,pokloniti,_,_,_,_,_,73,VERB,Vmep-pm,parataxis
83,460-467,spomin,_,_,_,_,_,83,NOUN,Ncmsd,obj
84,468-470,na,_,_,_,_,_,86,ADP,Sa,case
85,471-479,podjetje,_,_,*->13-7,*[13],_,84,NOUN,Ncnsa,nmod
86,480-481,",",_,_,_,_,_,89,PUNCT,Z,punct
87,482-484,ki,_,_,_,_,_,89,SCONJ,Cs,mark
88,485-489,seleti,_,_,*->13-8,*[13],_,86,VERB,Vmpr3s,acl
89,490-495,svoj,_,_,_,_,_,91,DET,Px-fsa,det
90,496-507,proizvodnja,_,_,_,_,_,89,NOUN,Ncfsa,obj
91,508-509,v,_,_,_,_,_,93,ADP,Sa,case
92,510-516,Srbija,LOC,_,*->11-2,*[11],_,91,PROPN,Npfsa,nmod
93,517-518,.,_,_,_,_,_,83,PUNCT,Z,punct
94,519-528,slovenski,_,0,*->2-2,*[2],3 - Nevtralno,96,ADJ,Agpmpn,amod
95,529-536,delavec,_,_,_,_,_,99,NOUN,Ncmpn,nsubj
96,537-539,biti,_,_,_,_,_,99,AUX,Va-r3p-n,aux
97,540-544,tako,_,_,_,_,_,99,ADV,Rgp,advmod
98,545-551,ostati,_,_,_,_,_,83,VERB,Vmep-pm,conj
99,552-554,na,_,_,_,_,_,101,ADP,Sl,case
100,555-560,cesta,_,_,_,_,_,99,NOUN,Ncfsl,obl
101,561-562,.,_,_,_,_,_,99,PUNCT,Z,punct
102,563-566,žal,_,_,_,_,_,104,ADV,Rgp,advmod
103,567-570,iti,_,_,_,_,_,99,VERB,Vmbr3s,conj
104,571-573,za,_,_,_,_,_,109,ADP,Sa,case
105,574-578,tako,_,_,_,_,_,109,ADV,Rgp,advmod
106,579-588,imenovan,_,_,_,_,_,106,ADJ,Appfsa,fixed
107,589-598,navidezen,_,_,_,_,_,109,ADJ,Agpfsa,amod
108,599-603,smrt,_,_,_,_,_,104,NOUN,Ncfsa,obl
109,604-605,",",_,_,_,_,_,99,PUNCT,Z,punct
110,606-609,saj,_,_,_,_,_,115,CCONJ,Cc,cc
111,610-612,biti,_,_,_,_,_,115,AUX,Va-f3s-n,aux
112,613-620,Gorenje,ORG[12]|ORG[13],_,*->13-9|*->15-5,*[13]|*[15],_,115,PROPN,Npnsn,nsubj
113,621-625,Tiki,ORG[12],_,*->13-9,*[13],_,113,PROPN,Npmsn,nmod
114,626-631,živeti,_,_,_,_,_,104,VERB,Vmpp-sm,advcl
115,632-637,dalje,_,_,_,_,_,115,ADV,Rgp,advmod
116,638-639,",",_,_,_,_,_,119,PUNCT,Z,punct
117,640-641,v,_,_,_,_,_,119,ADP,Sl,case
118,642-647,srce,_,_,_,_,_,116,NOUN,Ncnpl,nmod
119,648-650,in,_,_,_,_,_,121,CCONJ,Cc,cc
120,651-657,žulj,_,_,_,_,_,119,NOUN,Ncmpl,conj
121,658-665,srbski,_,_,_,_,_,123,ADJ,Agpmpg,amod
122,666-674,delavec,_,_,_,_,_,121,NOUN,Ncmpg,nmod
123,675-676,",",_,_,_,_,_,127,PUNCT,Z,punct
124,677-678,v,_,_,_,_,_,127,ADP,Sl,case
125,679-684,star,LOC[14],_,*->5-1,*[5],_,127,ADJ,Agpfsl,amod
126,685-691,Pazova,LOC[14],_,*->5-1,*[5],_,123,PROPN,Npfsl,appos
127,692-693,",",_,_,_,_,_,127,PUNCT,Z,punct
128,694-701,praviti,_,_,_,_,_,15,VERB,Vmbr3p,parataxis
129,702-714,sindikalist,_,_,_,_,_,129,NOUN,Ncmpn,nsubj
130,715-716,.,_,_,_,_,_,129,PUNCT,Z,punct
131,717-722,usoda,_,_,_,_,_,139,NOUN,Ncfsn,nsubj
132,723-731,delavec,_,_,_,_,_,132,NOUN,Ncmpg,nmod
133,732-740,podjetje,_,_,*->13-10,*[13],_,133,NOUN,Ncnsg,nmod
134,741-748,Gorenje,ORG[15]|ORG[16],_,*->13-10|*->15-6,*[13]|*[15],_,134,PROPN,Npnsn,nmod
135,749-753,Tiki,ORG[15],_,*->13-10,*[13],_,135,PROPN,Npmsn,nmod
136,754-756,biti,_,_,_,_,_,150,AUX,Va-r3s-n,aux
137,757-761,biti,_,_,_,_,_,139,AUX,Va-p-sf,cop
138,762-767,znan,_,_,_,_,_,15,ADJ,Appfsn,parataxis
139,768-770,že,_,_,_,_,_,139,PART,Q,advmod
140,771-776,nekaj,_,_,_,_,_,142,DET,Rgp,det
141,777-784,mesec,_,_,_,_,_,139,NOUN,Ncmpg,obl
142,785-786,.,_,_,_,_,_,139,PUNCT,Z,punct
143,787-794,delavec,_,_,_,_,_,139,NOUN,Ncmpn,obj
144,795-796,",",_,_,_,_,_,150,PUNCT,Z,punct
145,797-803,skupaj,_,_,_,_,_,150,ADV,Rgp,advmod
146,804-807,on,_,_,_,_,_,150,PRON,Pp3mpa--y,obj
147,808-810,biti,_,_,_,_,_,150,AUX,Va-r3s-n,aux
148,811-815,Tiki,ORG,_,*->13-11,*[13],_,150,PROPN,Npmsn,nsubj
149,816-826,zaposlovati,_,_,_,_,_,139,VERB,Vmpp-sm,parataxis
150,827-830,306,_,_,_,_,_,150,NUM,Mdc,obl
151,831-832,",",_,_,_,_,_,150,PUNCT,Z,punct
152,833-835,biti,_,_,_,_,_,155,AUX,Va-r3p-n,aux
153,836-844,vseskozi,_,_,_,_,_,155,ADV,Rgp,advmod
154,845-854,vztrajati,_,_,_,_,_,150,VERB,Vmpp-pm,parataxis
155,855-856,",",_,_,_,_,_,159,PUNCT,Z,punct
156,857-859,da,_,_,_,_,_,159,SCONJ,Cs,mark
157,860-867,vodstvo,_,_,_,_,_,159,NOUN,Ncnsn,nsubj
158,868-875,uničevati,_,_,_,_,_,155,VERB,Vmpr3s,ccomp
159,876-882,zdrav,_,_,_,_,_,161,ADJ,Agpnsa,amod
160,883-891,podjetje,_,_,*->13-12,*[13],_,159,NOUN,Ncnsa,obj
161,892-893,.,_,_,_,_,_,150,PUNCT,Z,punct
162,894-895,a,_,_,_,_,_,167,CCONJ,Cc,cc
163,896-901,nihče,_,_,_,_,_,167,PRON,Pz-msn,nsubj
164,902-905,on,_,_,_,_,_,167,PRON,Pp3mpd--y,obj
165,906-908,biti,_,_,_,_,_,167,AUX,Va-r3s-y,aux
166,909-914,želeti,_,_,_,_,_,159,VERB,Vmpp-sm,conj
167,915-926,prisluhniti,_,_,_,_,_,167,VERB,Vmen,xcomp
168,927-928,.,_,_,_,_,_,150,PUNCT,Z,punct
169,929-933,Maja,_,_,_,_,_,181,PROPN,Npmsg,obl
170,934-939,letos,_,_,_,_,_,170,ADV,Rgp,advmod
171,940-942,biti,_,_,_,_,_,181,AUX,Va-r3s-n,aux
172,943-951,sindikat,ORG[17],_,*->6-1,*[6],_,181,NOUN,Ncmsn,nsubj
173,952-956,SKEI,ORG[17],_,*->6-1,*[6],_,173,PROPN,Npfsg,nmod
174,957-958,v,_,_,_,_,_,176,ADP,Sl,case
175,959-964,ime,_,_,_,_,_,181,NOUN,Ncnsl,obl
176,965-975,zaposlen,_,_,_,_,_,178,ADJ,Appmpg,amod
177,976-985,premier,_,_,*->7-1,*[7],_,176,NOUN,Ncmsg,nmod
178,986-992,Borut,PER[18],_,*->7-1,*[7],_,178,PROPN,Npmsg,nmod
179,993-1000,Pahorje,PER[18],_,*->7-1,*[7],_,179,PROPN,Npmsg,flat:name
180,1001-1007,pozvati,_,_,_,_,_,150,VERB,Vmep-sm,parataxis
181,1008-1009,",",_,_,_,_,_,184,PUNCT,Z,punct
182,1010-1013,naj,_,_,_,_,_,184,SCONJ,Cs,mark
183,1014-1022,preprečiti,_,_,*->7-2,*[7],_,181,VERB,Vmer3s,ccomp
184,1023-1030,selitev,_,_,_,_,_,184,NOUN,Ncfsa,obj
185,1031-1035,delo,_,_,_,_,_,185,NOUN,Ncnsg,nmod
186,1036-1047,proizvodnja,_,_,_,_,_,186,NOUN,Ncfsg,nmod
187,1048-1049,v,_,_,_,_,_,189,ADP,Sa,case
188,1050-1056,Srbija,LOC,_,*->11-3,*[11],_,187,PROPN,Npfsa,nmod
189,1057-1058,",",_,_,_,_,_,196,PUNCT,Z,punct
190,1059-1062,ker,_,_,_,_,_,196,SCONJ,Cs,mark
191,1063-1065,biti,_,_,_,_,_,196,AUX,Va-r3s-n,cop
192,1066-1069,tam,_,_,*->11-4,*[11],_,196,ADV,Rgp,advmod
193,1070-1077,deloven,_,_,_,_,_,195,ADJ,Agpfsn,amod
194,1078-1082,sila,_,_,_,_,_,196,NOUN,Ncfsn,nsubj
195,1083-1090,poceni,_,_,_,_,_,184,ADJ,Agcfsn,advcl
196,1091-1092,.,_,_,_,_,_,196,PUNCT,Z,punct
197,1093-1103,prepričan,_,_,*->6-2,*[6],_,196,ADJ,Appmpn,advcl
198,1104-1106,biti,_,_,_,_,_,198,AUX,Va-r3p-n,aux
199,1107-1111,biti,_,_,_,_,_,198,AUX,Va-p-pm,cop
200,1112-1113,",",_,_,_,_,_,204,PUNCT,Z,punct
201,1114-1116,da,_,_,_,_,_,204,SCONJ,Cs,mark
202,1117-1119,biti,_,_,_,_,_,204,AUX,Va-c,aux
203,1120-1125,morati,_,_,_,_,_,198,VERB,Vmpp-sm,advcl
204,1126-1131,Pahor,PER,_,*->7-3,*[7],_,204,PROPN,Npmsn,nsubj
205,1132-1133,v,_,_,_,_,_,207,ADP,Sl,case
206,1134-1139,kriza,_,_,_,_,_,208,NOUN,Ncfsl,obl
207,1140-1148,pomagati,_,_,_,_,_,204,VERB,Vmbn,xcomp
208,1149-1153,tudi,_,_,_,_,_,208,PART,Q,advmod
209,1154-1158,on,_,_,*->6-3,*[6],_,208,PRON,Pp3mpd,obj
210,1159-1160,.,_,_,_,_,_,204,PUNCT,Z,punct
211,1161-1162,a,_,_,_,_,_,216,CCONJ,Cc,cc
212,1163-1171,odgovor,_,_,_,_,_,216,NOUN,Ncmsg,obj
213,1172-1178,nikoli,_,_,_,_,_,216,ADV,Rgp,advmod
214,1179-1184,biti,_,_,_,_,_,216,AUX,Va-r1p-y,aux
215,1185-1192,prejeti,_,_,*->6-4,*[6],_,204,VERB,Vmep-pm,conj
216,1193-1194,",",_,_,_,_,_,204,PUNCT,Z,punct
217,1195-1197,biti,_,_,_,_,_,221,AUX,Va-r3s-n,aux
218,1198-1200,za,_,_,_,_,_,220,ADP,Sa,case
219,1201-1209,24ur.co,ORG,_,*->16-1,*[16],_,221,NUM,Mdc,obl
220,1210-1215,dejati,_,_,_,_,_,181,VERB,Vmep-sm,advcl
221,1216-1227,sindikalist,_,_,*->8-1,*[8],_,221,NOUN,Ncmsn,nsubj
222,1228-1234,Zlatko,PER[19],_,*->8-1,*[8],_,222,PROPN,Npmsn,nmod
223,1235-1242,Hernčič,PER[19],_,*->8-1,*[8],_,223,PROPN,Npmsn,flat:name
224,1243-1244,",",_,_,_,_,_,227,PUNCT,Z,punct
225,1245-1247,ki,_,_,_,_,_,227,SCONJ,Cs,mark
226,1248-1254,dodajati,_,0,*->8-2,*[8],3 - Nevtralno,222,VERB,Vmpr3s,acl
227,1255-1256,",",_,_,_,_,_,232,PUNCT,Z,punct
228,1257-1259,da,_,_,_,_,_,232,SCONJ,Cs,mark
229,1260-1262,biti,_,_,_,_,_,232,AUX,Va-r3p-n,aux
230,1263-1270,delavec,_,_,_,_,_,232,NOUN,Ncmpn,nsubj
231,1271-1277,dobiti,_,_,_,_,_,227,VERB,Vmep-pm,ccomp
232,1278-1287,poravnan,_,_,_,_,_,234,ADJ,Appfpa,amod
233,1288-1293,plača,_,_,_,_,_,232,NOUN,Ncfpa,obj
234,1294-1296,in,_,_,_,_,_,237,CCONJ,Cc,cc
235,1297-1302,drug,_,_,_,_,_,237,ADJ,Mlpfpa,amod
236,1303-1313,obveznost,_,_,_,_,_,234,NOUN,Ncfpa,conj
237,1314-1315,.,_,_,_,_,_,232,PUNCT,Z,punct
238,1316-1317,v,_,_,_,_,_,242,ADP,Sl,case
239,1318-1324,spodaj,_,_,_,_,_,242,DET,Pg-mpl,det
240,1325-1333,pripet,_,_,_,_,_,242,ADJ,Agpmpl,amod
241,1334-1344,dokument,_,_,_,_,_,245,NOUN,Ncmpl,obl
242,1345-1347,se,_,_,_,_,_,245,PRON,Px---d--y,expl
243,1348-1353,lahko,_,_,_,_,_,245,ADV,Rgp,advmod
244,1354-1363,prebrati,_,_,_,_,_,221,VERB,Vmer2p,conj
245,1364-1369,pismo,_,_,_,_,_,245,NOUN,Ncnsa,obj
246,1370-1371,",",_,_,_,_,_,252,PUNCT,Z,punct
247,1372-1374,ki,_,_,_,_,_,252,SCONJ,Cs,mark
248,1375-1377,biti,_,_,_,_,_,252,AUX,Va-r3p-n,aux
249,1378-1380,on,_,_,_,_,_,252,PRON,Pp3msa--y,obj
250,1381-1388,delavec,_,_,_,_,_,252,NOUN,Ncmpn,nsubj
251,1389-1397,nameniti,_,_,_,_,_,246,VERB,Vmep-pm,acl
252,1398-1407,premier,_,0,*->7-4,*[7],3 - Nevtralno[36],252,NOUN,Ncmsd,obj
253,1408-1415,Pahorje,PER,0,*->7-4,*[7],3 - Nevtralno[36],253,PROPN,Npmsd,nmod
254,1416-1417,",",_,_,_,_,_,252,PUNCT,Z,punct
255,1418-1420,in,_,_,_,_,_,257,CCONJ,Cc,cc
256,1421-1429,peticija,_,_,_,_,_,253,NOUN,Ncfsa,conj
257,1430-1431,",",_,_,_,_,_,262,PUNCT,Z,punct
258,1432-1434,ki,_,_,_,_,_,262,SCONJ,Cs,mark
259,1435-1437,biti,_,_,_,_,_,262,AUX,Va-r3p-n,aux
260,1438-1440,on,_,_,_,_,_,262,PRON,Pp3fsa--y,obj
261,1441-1452,podpisovati,_,_,_,_,_,257,VERB,Vmpp-pm,acl
262,1453-1454,.,_,_,_,_,_,252,PUNCT,Z,punct
263,1455-1458,ves,_,_,_,_,_,266,DET,Pg-nsn,nmod
264,1459-1465,očitno,_,_,_,_,_,266,ADV,Rgp,advmod
265,1466-1471,zaman,_,_,_,_,_,262,ADV,Rgp,advmod
266,1472-1473,.,_,_,_,_,_,266,PUNCT,Z,punct
267,1474-1481,vodstvo,_,_,_,_,_,271,NOUN,Ncnsn,nsubj
268,1482-1489,gorenje,ORG[20]|ORG[21],_,*->13-13|*->15-7,*[13]|*[15],_,268,PROPN,Npnsg,nmod
269,1490-1494,Tiki,ORG[20],_,*->13-13,*[13],_,269,PROPN,Npmsn,nmod
270,1495-1504,odgovarjati,_,_,_,_,_,266,VERB,Vmpr3s,acl
271,1505-1511,včeraj,_,_,_,_,_,285,ADV,Rgp,advmod
272,1512-1514,se,_,_,_,_,_,285,PRON,Px------y,expl
273,1515-1517,biti,_,_,_,_,_,285,AUX,Va-r3s-n,aux
274,1518-1519,v,_,_,_,_,_,276,ADP,Sl,case
275,1520-1526,sklad,_,_,_,_,_,285,NOUN,Ncmsl,obl
276,1527-1528,z,_,_,_,_,_,278,ADP,Si,case
277,1529-1536,načrt,_,_,_,_,_,276,NOUN,Ncmsi,nmod
278,1537-1538,o,_,_,_,_,_,280,ADP,Sl,case
279,1539-1550,likvidacija,_,_,_,_,_,278,NOUN,Ncfsl,nmod
280,1551-1552,v,_,_,_,_,_,282,ADP,Sl,case
281,1553-1560,Gorenj,ORG[22]|ORG[23],_,*->13-14|*->15-8,*[13]|*[15],_,280,PROPN,Npnsl,nmod
282,1561-1565,Tiki,ORG[22],_,*->13-14,*[13],_,282,PROPN,Npmsn,nmod
283,1566-1574,dokončno,_,_,_,_,_,285,ADV,Rgp,advmod
284,1575-1585,zaustaviti,_,_,_,_,_,271,VERB,Vmep-sf,conj
285,1586-1591,reden,_,_,_,_,_,287,ADJ,Agpfsn,amod
286,1592-1603,proizvodnja,_,_,_,_,_,285,NOUN,Ncfsn,nsubj
287,1604-1613,grelnik,_,_,_,_,_,287,NOUN,Ncmpg,nmod
288,1614-1618,voda,_,_,_,_,_,288,NOUN,Ncfsg,nmod
289,1619-1620,v,_,_,_,_,_,291,ADP,Sl,case
290,1621-1630,Ljubljana,LOC,0,*->9-1,*[9],3 - Nevtralno,288,PROPN,Npfsl,nmod
291,1631-1632,",",_,_,_,_,_,262,PUNCT,Z,punct
292,1633-1635,biti,_,_,_,_,_,297,AUX,Va-r3s-n,aux
293,1636-1638,za,_,_,_,_,_,296,ADP,Sa,case
294,1639-1647,24ur.co,ORG,0,*->16-2,*[16],3 - Nevtralno,296,NUM,Mdc,nummod
295,1648-1657,sporočilo,_,_,_,_,_,297,NOUN,Ncnsa,obl
296,1658-1665,vodstvo,_,_,_,_,_,285,NOUN,Ncnsn,nsubj
297,1666-1667,.,_,_,_,_,_,271,PUNCT,Z,punct
298,1668-1677,odločitev,_,_,_,_,_,308,NOUN,Ncfsn,nsubj
299,1678-1679,o,_,_,_,_,_,301,ADP,Sl,case
300,1680-1690,prenehanje,_,_,_,_,_,299,NOUN,Ncnsl,nmod
301,1691-1700,delovanje,_,_,_,_,_,301,NOUN,Ncnsg,nmod
302,1701-1707,družba,_,_,*->15-9,*[15],_,302,NOUN,Ncfsg,nmod
303,1708-1715,Gorenje,ORG[24]|ORG[25],_,*->15-9|*->13-15,*[15]|*[13],_,303,PROPN,Npnsn,nmod
304,1716-1720,Tiki,ORG[24],_,*->15-9,*[15],_,304,PROPN,Npmsn,nmod
305,1721-1723,biti,_,_,_,_,_,376,AUX,Va-r3s-n,aux
306,1724-1728,biti,_,_,_,_,_,376,AUX,Va-p-sf,cop
307,1729-1737,sprejet,_,_,_,_,_,15,ADJ,Appfsn,parataxis
308,1738-1744,junij,_,_,_,_,_,308,NOUN,Ncmsg,obl
309,1745-1750,letos,_,_,_,_,_,309,ADV,Rgp,advmod
310,1751-1757,zaradi,_,_,_,_,_,312,ADP,Sg,case
311,1758-1770,poglabljanje,_,_,_,_,_,309,NOUN,Ncnsg,nmod
312,1771-1777,izguba,_,_,_,_,_,312,NOUN,Ncfsg,nmod
313,1778-1788,poslovanje,_,_,_,_,_,313,NOUN,Ncnsg,nmod
314,1789-1791,in,_,_,_,_,_,316,CCONJ,Cc,cc
315,1792-1807,nerentabilnost,_,_,_,_,_,314,NOUN,Ncfsg,conj
316,1808-1820,proizvoden,_,_,_,_,_,318,ADJ,Agpmsg,amod
317,1821-1827,obrat,_,_,_,_,_,316,NOUN,Ncmsg,nmod
318,1828-1829,",",_,_,_,_,_,326,PUNCT,Z,punct
319,1830-1833,kar,_,_,_,_,_,326,PRON,Pr-nsa,obj
320,1834-1836,biti,_,_,_,_,_,326,AUX,Va-r3p-n,aux
321,1837-1838,v,_,_,_,_,_,323,ADP,Sl,case
322,1839-1845,Tikij,ORG,_,*->15-10,*[15],_,326,PROPN,Npmsl,obl
323,1846-1850,tudi,_,_,_,_,_,326,PART,Q,advmod
324,1851-1856,javno,_,_,_,_,_,326,ADV,Rgp,advmod
325,1857-1866,naznaniti,_,_,_,_,_,309,VERB,Vmep-pm,acl
326,1867-1868,",",_,_,_,_,_,326,PUNCT,Z,punct
327,1869-1871,biti,_,_,_,_,_,376,AUX,Va-r3p-n,aux
328,1872-1881,razložiti,_,_,_,_,_,15,VERB,Vmep-pm,parataxis
329,1882-1883,.,_,_,_,_,_,329,PUNCT,Z,punct
330,1884-1892,Krajnčič,PER,_,*->14-1,*[14],_,338,PROPN,Npmsn,nmod
331,1893-1904,obljubljen,_,_,_,_,_,333,ADJ,Appfsg,amod
332,1905-1911,pomoč,_,_,_,_,_,331,NOUN,Ncfsg,nmod
333,1912-1915,pri,_,_,_,_,_,335,ADP,Sl,case
334,1916-1928,zaposlovanje,_,_,_,_,_,333,NOUN,Ncnsl,nmod
335,1929-1931,ne,_,_,_,_,_,338,PART,Q,advmod
336,1932-1934,biti,_,_,_,_,_,338,AUX,Va-f3s-n,aux
337,1935-1946,predstavnik,_,_,*->14-2,*[14],_,271,NOUN,Ncmsn,nsubj
338,1947-1956,sindikat,_,_,*->14-2,*[14],_,338,NOUN,Ncmsg,nmod
339,1957-1958,v,_,_,*->14-2,*[14],_,341,ADP,Sl,case
340,1959-1966,Gorenj,ORG[26]|ORG[27],_,*->14-2|*->15-11|*->13-16,*[14]|*[15]|*[13],_,339,PROPN,Npnsl,nmod
341,1967-1971,Tiki,ORG[26],_,*->14-2|*->15-11,*[14]|*[15],_,341,PROPN,Npmsn,nmod
342,1972-1978,Gregor,PER[28],_,*->14-2,*[14],_,338,PROPN,Npmsn,nmod
343,1979-1987,Krajnčič,PER[28],_,*->14-2,*[14],_,343,PROPN,Npmsn,flat:name
344,1988-1990,biti,_,_,_,_,_,346,AUX,Va-r3s-n,aux
345,1991-1998,povedati,_,_,_,_,_,338,VERB,Vmep-sm,acl
346,1999-2000,",",_,_,_,_,_,353,PUNCT,Z,punct
347,2001-2003,da,_,_,_,_,_,353,SCONJ,Cs,mark
348,2004-2006,biti,_,_,_,_,_,353,AUX,Va-r3s-n,aux
349,2007-2009,na,_,_,_,_,_,352,ADP,Sa,case
350,2010-2018,pogreben,_,_,_,_,_,352,ADJ,Agpfsa,amod
351,2019-2029,slovesnost,_,_,_,_,_,353,NOUN,Ncfsa,obl
352,2030-2036,priti,_,_,_,_,_,346,VERB,Vmep-sn,ccomp
353,2037-2041,zelo,_,_,_,_,_,355,ADV,Rgp,advmod
354,2042-2046,malo,_,_,_,_,_,356,DET,Rgp,det
355,2047-2052,človek,_,_,_,_,_,353,NOUN,Ncmpg,nsubj
356,2053-2054,",",_,_,_,_,_,368,PUNCT,Z,punct
357,2055-2058,ker,_,_,_,_,_,368,SCONJ,Cs,mark
358,2059-2061,biti,_,_,_,_,_,368,AUX,Va-r3s-n,aux
359,2062-2070,direktor,_,_,_,_,_,368,NOUN,Ncmsn,nsubj
360,2071-2076,ravno,_,_,_,_,_,364,PART,Q,advmod
361,2077-2083,zaradi,_,_,_,_,_,364,ADP,Sg,case
362,2084-2096,napovedan,_,_,_,_,_,364,ADJ,Appmsg,amod
363,2097-2102,shod,_,_,_,_,_,368,NOUN,Ncmsg,obl
364,2103-2105,za,_,_,_,_,_,367,ADP,Sa,case
365,2106-2109,ves,_,_,_,_,_,367,DET,Pg-mpa,nmod
366,2110-2119,zaposlen,_,_,_,_,_,368,ADJ,Appmpa,obl
367,2120-2127,odrediti,_,_,_,_,_,353,VERB,Vmep-sm,advcl
368,2128-2138,kolektiven,_,_,_,_,_,370,ADJ,Agpmsay,amod
369,2139-2145,dopust,_,_,_,_,_,368,NOUN,Ncmsan,obj
370,2146-2147,.,_,_,_,_,_,368,PUNCT,Z,punct
371,2148-2150,že,_,_,_,_,_,376,PART,Q,advmod
372,2151-2159,prejšnji,_,_,_,_,_,374,ADJ,Agpmsay,amod
373,2160-2165,teden,_,_,_,_,_,376,NOUN,Ncmsan,obl
374,2166-2168,biti,_,_,_,_,_,376,AUX,Va-r3s-n,aux
375,2169-2173,biti,_,_,_,_,_,15,VERB,Va-p-sn,parataxis
376,2174-2180,veliko,_,_,_,_,_,378,DET,Rgp,det
377,2181-2188,jokanje,_,_,_,_,_,376,NOUN,Ncnsg,nsubj
378,2189-2190,v,_,_,_,_,_,380,ADP,Sl,case
379,2191-2199,podjetje,_,_,*->15-12,*[15],_,378,NOUN,Ncnsl,nmod
380,2200-2201,",",_,_,_,_,_,368,PUNCT,Z,punct
381,2202-2204,biti,_,_,*->14-3,*[14],_,451,AUX,Va-r3s-n,aux
382,2205-2210,dodati,_,_,*->14-3,*[14],_,376,VERB,Vmep-sm,parataxis
383,2211-2213,in,_,_,_,_,_,385,CCONJ,Cc,cc
384,2214-2222,pojasniti,_,_,*->14-4,*[14],_,376,VERB,Vmep-sm,conj
385,2223-2224,",",_,_,_,_,_,409,PUNCT,Z,punct
386,2225-2227,da,_,_,_,_,_,409,SCONJ,Cs,mark
387,2228-2233,danes,_,_,_,_,_,389,ADV,Rgp,advmod
388,2234-2238,ta,_,_,_,_,_,409,DET,Pd-nsg,obj
389,2239-2243,prav,_,_,_,_,_,391,PART,Q,advmod
390,2244-2250,veliko,_,_,_,_,_,389,DET,Rgp,advmod
391,2251-2253,biti,_,_,_,_,_,409,AUX,Va-r3s-y,aux
392,2254-2258,biti,_,_,_,_,_,409,AUX,Va-p-sn,cop
393,2259-2260,.,_,_,_,_,_,376,PUNCT,Z,punct
394,2261-2264,naš,_,_,_,_,_,396,DET,Ps1msnp,det
395,2265-2273,fotograf,_,_,_,_,_,399,NOUN,Ncmsn,nsubj
396,2274-2276,pa,_,_,_,_,_,399,CCONJ,Cc,advmod
397,2277-2279,biti,_,_,_,_,_,399,AUX,Va-r3s-n,aux
398,2280-2287,povedati,_,_,_,_,_,376,VERB,Vmep-sm,csubj
399,2288-2289,",",_,_,_,_,_,409,PUNCT,Z,punct
400,2290-2292,da,_,_,_,_,_,409,SCONJ,Cs,mark
401,2293-2295,biti,_,_,_,_,_,409,AUX,Va-r3p-n,aux
402,2296-2298,se,_,_,_,_,_,409,PRON,Px------y,expl
403,2299-2306,delavec,_,_,_,_,_,409,NOUN,Ncmpn,nsubj
404,2307-2308,",",_,_,_,_,_,409,PUNCT,Z,punct
405,2309-2317,nekateri,_,_,_,_,_,409,DET,Pi-mpn,nsubj
406,2318-2320,biti,_,_,_,_,_,409,AUX,Va-r3p-n,aux
407,2321-2327,skupaj,_,_,_,_,_,409,ADV,Rgp,advmod
408,2328-2333,delati,_,_,_,_,_,416,VERB,Vmpp-sm,advcl
409,2334-2338,tudi,_,_,_,_,_,409,PART,Q,advmod
410,2339-2342,več,_,_,_,_,_,414,DET,Rgc,advmod
411,2343-2346,kot,_,_,_,_,_,411,SCONJ,Cs,fixed
412,2347-2354,dvajset,_,_,_,_,_,414,NUM,Mlc-pa,nummod
413,2355-2358,leto,_,_,_,_,_,409,NOUN,Ncnpg,obl
414,2359-2360,",",_,_,_,_,_,409,PUNCT,Z,punct
415,2361-2372,poslavljati,_,_,_,_,_,399,VERB,Vmpp-pm,ccomp
416,2373-2374,.,_,_,_,_,_,416,PUNCT,Z,punct
417,2375-2383,Kranjčič,PER,_,*->14-5,*[14],_,419,PROPN,Npmsn,nsubj
418,2384-2394,pojasnjevati,_,_,_,_,_,416,VERB,Vmpr3s,conj
419,2395-2396,",",_,_,_,_,_,428,PUNCT,Z,punct
420,2397-2399,da,_,_,_,_,_,428,SCONJ,Cs,mark
421,2400-2402,biti,_,_,_,_,_,428,AUX,Va-r3p-n,aux
422,2403-2410,delavec,_,_,_,_,_,428,NOUN,Ncmpn,nsubj
423,2411-2412,v,_,_,_,_,_,425,ADP,Sl,case
424,2413-2422,povprečje,_,_,_,_,_,428,NOUN,Ncnsl,obl
425,2423-2424,v,_,_,_,_,_,427,ADP,Sl,case
426,2425-2433,podjetje,_,_,*->15-13,*[15],_,425,NOUN,Ncnsl,nmod
427,2434-2440,delati,_,_,_,_,_,419,VERB,Vmpp-pm,ccomp
428,2441-2444,več,_,_,_,_,_,432,DET,Rgc,advmod
429,2445-2448,kot,_,_,_,_,_,429,SCONJ,Cs,fixed
430,2449-2451,20,_,_,_,_,_,432,NUM,Mdc,nummod
431,2452-2455,leto,_,_,_,_,_,428,NOUN,Ncnpg,obj
432,2456-2457,.,_,_,_,_,_,428,PUNCT,Z,punct
433,2458-2460,po,_,_,_,_,_,436,ADP,Sl,case
434,2461-2469,njegov,_,_,*->14-6,*[14],_,436,DET,Ps3fplsm,det
435,2470-2476,besda,_,_,_,_,_,443,NOUN,Ncfpl,obl
436,2477-2479,biti,_,_,_,_,_,443,AUX,Va-r3s-n,aux
437,2480-2482,od,_,_,_,_,_,439,ADP,Sg,case
438,2483-2488,danes,_,_,_,_,_,443,ADV,Rgp,advmod
439,2489-2495,naprej,_,_,_,_,_,442,ADV,Rgp,advmod
440,2496-2500,brez,_,_,_,_,_,442,ADP,Sg,case
441,2501-2505,delo,_,_,_,_,_,443,NOUN,Ncnsg,obl
442,2506-2512,ostati,_,_,_,_,_,432,VERB,Vmep-sn,acl
443,2513-2518,okoli,_,_,_,_,_,446,ADV,Rgp,advmod
444,2519-2522,150,_,_,_,_,_,446,NUM,Mdc,nummod
445,2523-2528,človek,_,_,_,_,_,443,NOUN,Ncmpg,nsubj
446,2529-2530,.,_,_,_,_,_,443,PUNCT,Z,punct
447,2531-2536,nekaj,_,_,_,_,_,451,DET,Rgp,advmod
448,2537-2540,on,_,_,_,_,_,451,PRON,Pp3mpg--y,obj
449,2541-2543,biti,_,_,_,_,_,451,AUX,Va-f3s-n,aux
450,2544-2550,ostati,_,_,_,_,_,443,VERB,Vmep-sn,conj
451,2551-2552,v,_,_,_,_,_,453,ADP,Sl,case
452,2553-2561,podjetje,_,_,_,_,_,451,NOUN,Ncnsl,obl
453,2562-2564,do,_,_,_,_,_,455,ADP,Sg,case
454,2565-2570,konec,_,_,_,_,_,453,NOUN,Ncmsg,nmod
455,2571-2576,marec,_,_,_,_,_,455,NOUN,Ncmsg,nmod
456,2577-2578,",",_,_,_,_,_,470,PUNCT,Z,punct
457,2579-2582,saj,_,_,_,_,_,460,CCONJ,Cc,cc
458,2583-2587,biti,_,_,_,_,_,460,AUX,Va-f3p-n,aux
459,2588-2596,pomagati,_,_,_,_,_,451,VERB,Vmbp-pm,conj
460,2597-2600,pri,_,_,_,_,_,462,ADP,Sl,case
461,2601-2608,selitev,_,_,_,_,_,460,NOUN,Ncfsl,obl
462,2609-2620,proizvodnja,_,_,_,_,_,462,NOUN,Ncfsg,nmod
463,2621-2622,v,_,_,_,_,_,465,ADP,Sa,case
464,2623-2629,Srbija,LOC,2,*->11-5,*[11],2 - Negativno,463,PROPN,Npfsa,nmod
465,2630-2631,.,_,_,_,_,_,460,PUNCT,Z,punct
466,2632-2635,ta,_,_,_,_,_,470,DET,Pd-npg,nsubj
467,2636-2639,naj,_,_,_,_,_,470,PART,Q,advmod
468,2640-2642,biti,_,_,_,_,_,470,AUX,Va-c,aux
469,2643-2647,biti,_,_,_,_,_,451,VERB,Va-p-sn,advcl
470,2648-2653,okoli,_,_,_,_,_,472,ADV,Rgp,advmod
471,2654-2656,50,_,_,_,_,_,470,NUM,Mdc,obl
472,2657-2658,",",_,_,_,_,_,483,PUNCT,Z,punct
473,2659-2661,za,_,_,_,_,_,479,ADP,Sa,case
474,2662-2667,okoli,_,_,_,_,_,476,ADV,Rgp,advmod
475,2668-2670,30,_,_,_,_,_,479,NUM,Mdc,nummod
476,2671-2678,oziroma,_,_,_,_,_,478,CCONJ,Cc,cc
477,2679-2681,40,_,_,_,_,_,476,NUM,Mdc,conj
478,2682-2690,delavec,_,_,_,_,_,483,NOUN,Ncmpg,obl
479,2691-2693,pa,_,_,_,_,_,483,CCONJ,Cc,advmod
480,2694-2696,biti,_,_,_,_,_,483,AUX,Va-r3p-n,aux
481,2697-2701,delo,_,_,_,_,_,483,NOUN,Ncnsa,obj
482,2702-2707,najti,_,_,_,_,_,470,VERB,Vmep-pm,conj
483,2708-2709,v,_,_,_,_,_,486,ADP,Sl,case
484,2710-2716,drug,_,_,_,_,_,486,ADJ,Mlpmpl,amod
485,2717-2724,obrat,_,_,_,_,_,483,NOUN,Ncmpl,obl
486,2725-2732,gorenje,ORG,_,*->13-17,*[13],_,486,PROPN,Npnsg,nmod
487,2733-2734,.,_,_,_,_,_,15,PUNCT,Z,punct
488,2735-2740,pomoč,_,_,_,_,_,494,NOUN,Ncfsn,nsubj
489,2741-2744,pri,_,_,_,_,_,491,ADP,Sl,case
490,2745-2757,zaposlovanje,_,_,_,_,_,489,NOUN,Ncnsl,nmod
491,2758-2760,biti,_,_,_,_,_,494,AUX,Va-r3s-n,cop
492,2761-2766,sicer,_,_,_,_,_,494,PART,Q,advmod
493,2767-2774,Gorenje,ORG,_,*->13-18,*[13],_,483,PROPN,Npnsn,nsubj
494,2775-2776,",",_,_,_,_,_,494,PUNCT,Z,punct
495,2777-2780,pri,_,_,_,_,_,497,ADP,Sl,case
496,2781-2784,ta,_,_,_,_,_,499,DET,Pd-nsl,obl
497,2785-2793,Krajnčič,PER,_,*->14-7,*[14],_,499,PROPN,Npmsn,nsubj
498,2794-2800,spomniti,_,_,_,_,_,494,VERB,Vmer3s,acl
499,2801-2803,na,_,_,_,_,_,501,ADP,Sa,case
500,2804-2810,beseda,_,_,_,_,_,499,NOUN,Ncfpa,obl
501,2811-2821,direktor,_,0,*->10-1,*[10],3 - Nevtralno[37],501,NOUN,Ncmsg,nmod
502,2822-2828,uprava,_,0,*->10-1,*[10],3 - Nevtralno[37],502,NOUN,Ncfsg,nmod
503,2829-2835,družba,_,0,*->10-1,*[10],3 - Nevtralno[37],503,NOUN,Ncfsg,nmod
504,2836-2842,Franjo,PER[29],0,*->10-1,*[10],3 - Nevtralno[37],504,PROPN,Npmsg,nmod
505,2843-2850,Bobinc,PER[29],0,*->10-1,*[10],3 - Nevtralno[37],505,PROPN,Npmsg,flat:name
506,2851-2852,",",_,_,_,_,_,513,PUNCT,Z,punct
507,2853-2855,da,_,_,_,_,_,513,SCONJ,Cs,mark
508,2856-2865,odpuščanje,_,_,_,_,_,513,NOUN,Ncnpg,obj
509,2866-2868,ne,_,_,_,_,_,513,PART,Q,advmod
510,2869-2871,biti,_,_,_,_,_,513,AUX,Va-f3s-n,aux
511,2872-2873,",",_,_,_,_,_,513,PUNCT,Z,punct
512,2874-2882,ponuditi,_,_,_,_,_,504,VERB,Vmep-sn,acl
513,2883-2884,",",_,_,_,_,_,513,PUNCT,Z,punct
514,2885-2886,a,_,_,_,_,_,569,CCONJ,Cc,cc
515,2887-2889,biti,_,_,_,_,_,521,AUX,Va-r3s-n,aux
516,2890-2897,delavec,_,_,_,_,_,521,NOUN,Ncmpn,nsubj
517,2898-2906,večinoma,_,_,_,_,_,521,ADV,Rgp,advmod
518,2907-2911,biti,_,_,_,_,_,544,AUX,Va-r3p-y,aux
519,2912-2916,biti,_,_,_,_,_,544,AUX,Va-p-pm,aux
520,2917-2924,deležen,_,_,_,_,_,513,ADJ,Agpmpn,conj
521,2925-2926,",",_,_,_,_,_,524,PUNCT,Z,punct
522,2927-2932,pravi,_,_,_,_,_,524,ADJ,Agpmsny,amod
523,2933-2944,sindikalist,_,_,*->14-8,*[14],_,521,NOUN,Ncmsn,nsubj
524,2945-2946,.,_,_,_,_,_,494,PUNCT,Z,punct
525,2947-2958,sodelovanje,_,_,_,_,_,534,NOUN,Ncnsa,obj
526,2959-2960,z,_,_,_,_,_,528,ADP,Si,case
527,2961-2973,predstavnica,_,_,*->12-1,*[12],_,526,NOUN,Ncfsi,nmod
528,2974-2983,sindikat,_,_,*->12-1|*->6-5,*[12]|*[6],_,528,NOUN,Ncmsg,nmod
529,2984-2988,SKEI,ORG,_,*->12-1|*->6-5,*[12]|*[6],_,529,PROPN,Npfsg,nmod
530,2989-2994,Irena,PER[30],_,*->12-1,*[12],_,529,PROPN,Npfsi,nmod
531,2995-3000,Zupan,PER[30],_,*->12-1,*[12],_,531,PROPN,Npfsi,flat:name
532,3001-3003,biti,_,_,*->14-9,*[14],_,534,AUX,Va-r3s-n,aux
533,3004-3011,označiti,_,_,*->14-9,*[14],_,524,VERB,Vmep-sm,acl
534,3012-3014,za,_,_,_,_,_,536,ADP,Sa,case
535,3015-3020,slab,_,_,_,_,_,534,ADJ,Agpnsa,obl
536,3021-3022,",",_,_,_,_,_,534,PUNCT,Z,punct
537,3023-3025,biti,_,_,*->17-1,*[17],_,540,AUX,Va-r3s-y,cop
538,3026-3028,pa,_,_,_,_,_,540,CCONJ,Cc,advmod
539,3029-3035,mnenje,_,_,_,_,_,534,NOUN,Ncnsg,punct
540,3036-3037,",",_,_,_,_,_,544,PUNCT,Z,punct
541,3038-3040,da,_,_,_,_,_,544,SCONJ,Cs,mark
542,3041-3043,biti,_,_,_,_,_,544,AUX,Va-c,aux
543,3044-3050,nositi,_,_,*->6-6,*[6],_,540,VERB,Vmpp-sf,acl
544,3051-3055,kak,_,_,_,_,_,546,DET,Pq-fsa,det
545,3056-3067,odgovornost,_,_,_,_,_,544,NOUN,Ncfsa,obj
546,3068-3070,za,_,_,_,_,_,549,ADP,Sa,case
547,3071-3078,nastal,_,_,_,_,_,549,ADJ,Appfsa,amod
548,3079-3088,situacija,_,_,_,_,_,546,NOUN,Ncfsa,nmod
549,3089-3090,.,_,_,_,_,_,494,PUNCT,Z,punct
550,3091-3096,morda,_,_,_,_,_,554,PART,Q,advmod
551,3097-3099,biti,_,_,_,_,_,554,AUX,Va-c,aux
552,3100-3105,lahko,_,_,_,_,_,554,ADV,Rgp,advmod
553,3106-3110,biti,_,_,_,_,_,540,VERB,Va-p-sn,acl
554,3111-3115,malo,_,_,_,_,_,556,DET,Rgp,advmod
555,3116-3123,drugače,_,_,_,_,_,554,ADV,Rgp,advmod
556,3124-3125,",",_,_,_,_,_,562,PUNCT,Z,punct
557,3126-3128,če,_,_,_,_,_,562,SCONJ,Cs,mark
558,3129-3131,biti,_,_,_,_,_,562,AUX,Va-c,aux
559,3132-3134,se,_,_,_,_,_,562,PRON,Px------y,expl
560,3135-3139,bolj,_,_,_,_,_,562,ADV,Rgc,advmod
561,3140-3147,zavzeti,_,2,*->12-2,*[12],2 - Negativno,554,VERB,Vmep-sf,advcl
562,3148-3149,",",_,_,_,_,_,562,PUNCT,Z,punct
563,3150-3151,a,_,_,_,_,_,569,CCONJ,Cc,cc
564,3152-3160,bistveno,_,_,_,_,_,566,ADV,Rgp,advmod
565,3161-3168,drugače,_,_,_,_,_,569,ADV,Rgp,advmod
566,3169-3171,ne,_,_,_,_,_,569,PART,Q,advmod
567,3172-3174,biti,_,_,_,_,_,569,AUX,Va-c,aux
568,3175-3179,biti,_,_,_,_,_,562,VERB,Va-p-sn,conj
569,3180-3181,",",_,_,_,_,_,569,PUNCT,Z,punct
570,3182-3184,biti,_,_,*->14-10,*[14],_,572,AUX,Va-r3s-n,aux
571,3185-3192,povedati,_,_,*->14-10,*[14],_,15,VERB,Vmep-sm,parataxis
572,3193-3194,.,_,_,_,_,_,554,PUNCT,Z,punct
573,3195-3206,odgovornost,_,_,_,_,_,600,NOUN,Ncfsn,nsubj
574,3207-3209,za,_,_,_,_,_,576,ADP,Sa,case
575,3210-3217,selitev,_,_,_,_,_,574,NOUN,Ncfsa,nmod
576,3218-3229,proizvodnja,_,_,_,_,_,576,NOUN,Ncfsg,nmod
577,3230-3232,biti,_,_,_,_,_,600,AUX,Va-r3s-n,aux
578,3233-3235,po,_,_,_,_,_,580,ADP,Sl,case
579,3236-3242,mnenje,_,_,_,_,_,574,NOUN,Ncnsl,nmod
580,3243-3252,Krajnčič,_,_,*->14-11,*[14],_,580,PROPN,Npmsg,nmod
581,3253-3257,tudi,_,_,_,_,_,583,PART,Q,advmod
582,3258-3263,delno,_,_,_,_,_,581,ADV,Rgp,conj
583,3264-3266,na,_,_,_,_,_,585,ADP,Sl,case
584,3267-3272,vlada,_,_,_,_,_,583,NOUN,Ncfsl,nmod
585,3273-3274,",",_,_,_,_,_,589,PUNCT,Z,punct
586,3275-3277,ki,_,_,_,_,_,589,SCONJ,Cs,mark
587,3278-3280,biti,_,_,_,_,_,589,AUX,Va-r3s-n,aux
588,3281-3289,pristati,_,_,_,_,_,585,VERB,Vmep-sf,acl
589,3290-3292,na,_,_,_,_,_,592,ADP,Sa,case
590,3293-3297,tak,_,_,_,_,_,592,DET,Pd-fsa,det
591,3298-3304,poteza,_,_,_,_,_,589,NOUN,Ncfsa,obl
592,3305-3311,uprava,_,_,_,_,_,592,NOUN,Ncfsg,nmod
593,3312-3319,gorenje,ORG,_,*->13-19,*[13],_,593,PROPN,Npnsg,nmod
594,3320-3321,.,_,_,_,_,_,583,PUNCT,Z,punct
595,3322-3329,kasno,_,_,_,_,_,600,ADV,Rgc,advmod
596,3330-3332,biti,_,_,_,_,_,600,AUX,Va-r3s-n,aux
597,3333-3341,Kranjčič,PER,_,*->14-12,*[14],_,600,PROPN,Npmsn,nsubj
598,3342-3344,še,_,_,_,_,_,600,PART,Q,advmod
599,3345-3352,potrditi,_,_,_,_,_,15,VERB,Vmep-sm,parataxis
600,3353-3354,",",_,_,_,_,_,617,PUNCT,Z,punct
601,3355-3357,da,_,_,_,_,_,617,SCONJ,Cs,mark
602,3358-3360,biti,_,_,_,_,_,617,AUX,Va-r3p-n,aux
603,3361-3366,tisti,_,_,_,_,_,600,DET,Pd-mpn,nsubj
604,3367-3368,",",_,_,_,_,_,611,PUNCT,Z,punct
605,3369-3371,ki,_,_,_,_,_,611,SCONJ,Cs,mark
606,3372-3375,on,_,_,_,_,_,611,PRON,Pp3mpd--y,obj
607,3376-3378,biti,_,_,_,_,_,611,AUX,Va-r3s-n,aux
608,3379-3383,biti,_,_,_,_,_,611,AUX,Va-p-sn,cop
609,3384-3389,danes,_,_,_,_,_,611,ADV,Rgp,advmod
610,3390-3400,odpovedan,_,_,_,_,_,604,ADJ,Appnsn,acl
611,3401-3408,deloven,_,_,_,_,_,613,ADJ,Agpnsn,amod
612,3409-3417,razmerje,_,_,_,_,_,611,NOUN,Ncnsn,nsubj
613,3418-3419,",",_,_,_,_,_,611,PUNCT,Z,punct
614,3420-3425,danes,_,_,_,_,_,617,ADV,Rgp,advmod
615,3426-3434,popoldne,_,_,_,_,_,617,ADV,Rgp,advmod
616,3435-3441,dobiti,_,_,_,_,_,604,VERB,Vmep-pm,acl
617,3442-3451,izplačan,_,_,_,_,_,619,ADJ,Appfpa,amod
618,3452-3462,odpravnina,_,_,_,_,_,617,NOUN,Ncfpa,obj
619,3463-3464,",",_,_,_,_,_,617,PUNCT,Z,punct
620,3465-3466,z,_,_,_,_,_,623,ADP,Si,case
621,3467-3474,njihov,_,_,_,_,_,623,DET,Ps3fsip,det
622,3475-3481,višina,_,_,_,_,_,626,NOUN,Ncfsi,obl
623,3482-3484,pa,_,_,_,_,_,626,CCONJ,Cc,advmod
624,3485-3487,biti,_,_,_,_,_,626,AUX,Va-r3p-n,cop
625,3488-3498,zadovoljen,_,_,_,_,_,600,ADJ,Agpmpn,parataxis
626,3499-3500,",",_,_,_,_,_,629,PUNCT,Z,punct
627,3501-3503,še,_,_,_,_,_,629,PART,Q,advmod
628,3504-3510,dodajati,_,1,*->14-13,*[14],4 - Pozitivno,626,VERB,Vmpr3s,csubj
629,3511-3512,.,_,_,_,_,_,626,PUNCT,Z,punct
630,3513-3519,ostal,_,_,_,_,_,632,ADJ,Appfpa,amod
631,3520-3527,pravica,_,_,_,_,_,629,NOUN,Ncfpa,obj
632,3528-3538,zaposlen,_,_,_,_,_,632,ADJ,Appmpg,nmod
633,3539-3540,",",_,_,_,_,_,636,PUNCT,Z,punct
634,3541-3543,ki,_,_,_,_,_,636,SCONJ,Cs,mark
635,3544-3552,izhajati,_,_,_,_,_,632,VERB,Vmpr3p,acl
636,3553-3555,iz,_,_,_,_,_,639,ADP,Sg,case
637,3556-3565,deloven,_,_,_,_,_,639,ADJ,Agpnsg,amod
638,3566-3574,razmerje,_,_,_,_,_,636,NOUN,Ncnsg,obl
639,3575-3576,",",_,_,_,_,_,636,PUNCT,Z,punct
640,3577-3579,in,_,_,_,_,_,643,CCONJ,Cc,cc
641,3580-3585,sicer,_,_,_,_,_,643,PART,Q,advmod
642,3586-3591,plačati,_,_,_,_,_,636,VERB,Vmer3s,conj
643,3592-3594,za,_,_,_,_,_,645,ADP,Sa,case
644,3595-3600,mesec,_,_,_,_,_,643,NOUN,Ncmsan,obl
645,3601-3609,november,_,_,_,_,_,645,NOUN,Ncmsn,nmod
646,3610-3611,",",_,_,_,_,_,648,PUNCT,Z,punct
647,3612-3624,neizkoriščen,_,_,_,_,_,649,ADJ,Agpmsan,amod
648,3625-3631,dopust,_,_,_,_,_,646,NOUN,Ncmsan,conj
649,3632-3634,in,_,_,_,_,_,652,CCONJ,Cc,cc
650,3635-3642,poseben,_,_,_,_,_,652,ADJ,Agpmsan,amod
651,3643-3651,prejemek,_,_,_,_,_,649,NOUN,Ncmsan,conj
652,3652-3654,ob,_,_,_,_,_,654,ADP,Sl,case
653,3655-3660,konec,_,_,_,_,_,652,NOUN,Ncmsl,nmod
654,3661-3665,leto,_,_,_,_,_,654,NOUN,Ncnsg,nmod
655,3666-3667,",",_,_,_,_,_,658,PUNCT,Z,punct
656,3668-3672,biti,_,_,_,_,_,658,AUX,Va-f3p-n,cop
657,3673-3682,poplačan,_,_,_,_,_,648,ADJ,Appfpn,conj
658,3683-3685,15,_,_,_,_,_,658,NUM,Mdc,obl
659,3686-3687,.,_,_,_,_,_,658,PUNCT,Z,punct
660,3688-3696,december,_,_,_,_,_,658,NOUN,Ncmsg,obl
661,3697-3698,.,_,_,_,_,_,658,PUNCT,Z,punct
662,3699-3700,v,_,_,_,_,_,664,ADP,Sl,case
663,3701-3707,Tikij,ORG,_,*->15-14,*[15],_,667,PROPN,Npmsl,obl
664,3708-3710,biti,_,_,_,_,_,667,AUX,Va-r3s-n,aux
665,3711-3717,namreč,_,_,_,_,_,667,CCONJ,Cc,advmod
666,3718-3723,plačati,_,_,_,_,_,658,VERB,Vmer3s,parataxis
667,3724-3726,za,_,_,_,_,_,670,ADP,Sa,case
668,3727-3733,tekoč,_,_,_,_,_,670,ADJ,Appmsay,amod
669,3734-3739,mesec,_,_,_,_,_,672,NOUN,Ncmsan,obl
670,3740-3745,vedno,_,_,_,_,_,672,ADV,Rgp,advmod
671,3746-3755,izplačan,_,_,_,_,_,667,ADJ,Appfsn,xcomp
672,3756-3758,15,_,_,_,_,_,672,NUM,Mdc,nummod
673,3759-3760,.,_,_,_,_,_,667,PUNCT,Z,punct
674,3761-3764,dan,_,_,_,_,_,672,NOUN,Ncmsn,nsubj
675,3765-3776,naslednji,_,_,_,_,_,677,ADJ,Agpmsg,amod
676,3777-3783,mesec,_,_,_,_,_,675,NOUN,Ncmsg,nmod
677,3784-3785,",",_,_,_,_,_,681,PUNCT,Z,punct
678,3786-3788,pa,_,_,_,_,_,681,CCONJ,Cc,advmod
679,3789-3791,biti,_,_,_,_,_,681,AUX,Va-r3s-n,aux
680,3792-3800,zapisati,_,_,_,_,_,667,VERB,Vmep-sn,conj
681,3801-3808,vodstvo,_,_,_,_,_,681,NOUN,Ncnsa,obj
682,3809-3816,gorenje,ORG[31]|ORG[32],_,*->15-15|*->13-20,*[15]|*[13],_,682,PROPN,Npnsg,nmod
683,3817-3821,Tiki,ORG[31],_,*->15-15,*[15],_,683,PROPN,Npmsn,nmod
684,3822-3823,.,_,_,_,_,_,681,PUNCT,Z,punct
685,3824-3829,danes,_,_,_,_,_,689,ADV,Rgp,advmod
686,3830-3836,večina,_,_,_,_,_,689,NOUN,Ncfsd,obj
687,3837-3847,zaposlen,_,_,_,_,_,687,ADJ,Appmpg,amod
688,3848-3855,prenehati,_,_,_,_,_,681,VERB,Vmer3s,advcl
689,3856-3863,deloven,_,_,_,_,_,691,ADJ,Agpnsn,amod
690,3864-3872,razmerje,_,_,_,_,_,689,NOUN,Ncnsn,nsubj
691,3873-3881,postopek,_,_,_,_,_,691,NOUN,Ncmsn,nmod
692,3882-3893,likvidacija,_,_,_,_,_,692,NOUN,Ncfsg,nmod
693,3894-3901,oziroma,_,_,_,_,_,695,CCONJ,Cc,cc
694,3902-3912,prenehanje,_,_,_,_,_,693,NOUN,Ncnsg,conj
695,3913-3919,družba,_,_,*->15-16,*[15],_,693,NOUN,Ncfsg,conj
696,3920-3922,se,_,_,_,_,_,700,PRON,Px------y,expl
697,3923-3925,biti,_,_,_,_,_,700,AUX,Va-f3s-n,aux
698,3926-3936,predvidoma,_,_,_,_,_,700,ADV,Rgp,advmod
699,3937-3946,zaključiti,_,_,_,_,_,689,VERB,Vmep-sm,conj
700,3947-3952,konec,_,_,_,_,_,702,ADP,Sg,case
701,3953-3958,marec,_,_,_,_,_,700,NOUN,Ncmsg,obl
702,3959-3963,2011,_,_,_,_,_,702,NUM,Mdc,nummod
703,3964-3965,.,_,_,_,_,_,689,PUNCT,Z,punct
704,3966-3972,večina,_,_,_,_,_,689,NOUN,Ncfsd,obj
705,3973-3983,zaposlen,_,_,_,_,_,705,ADJ,Appmpg,amod
706,3984-3986,od,_,_,_,_,_,708,ADP,Sg,case
707,3987-3990,270,_,_,_,_,_,706,NUM,Mdc,nummod
708,3991-3992,",",_,_,_,_,_,712,PUNCT,Z,punct
709,3993-3995,ki,_,_,_,_,_,712,SCONJ,Cs,mark
710,3996-3998,biti,_,_,_,_,_,712,AUX,Va-r3p-n,aux
711,3999-4009,opravljati,_,_,_,_,_,708,VERB,Vmpp-pm,acl
712,4010-4014,delo,_,_,_,_,_,712,NOUN,Ncnsa,obj
713,4015-4016,v,_,_,_,_,_,715,ADP,Sl,case
714,4017-4028,proizvodnja,_,_,_,_,_,713,NOUN,Ncfsl,nmod
715,4029-4030,",",_,_,_,_,_,717,PUNCT,Z,punct
716,4031-4036,danes,_,_,_,_,_,715,ADV,Rgp,conj
717,4037-4038,",",_,_,_,_,_,719,PUNCT,Z,punct
718,4039-4041,30,_,_,_,_,_,715,NUM,Mdc,conj
719,4042-4043,.,_,_,_,_,_,706,PUNCT,Z,punct
720,4044-4052,november,_,_,_,_,_,708,NOUN,Ncmsg,conj
721,4053-4054,",",_,_,_,_,_,712,PUNCT,Z,punct
722,4055-4057,iz,_,_,_,_,_,725,ADP,Sg,case
723,4058-4067,posloven,_,_,_,_,_,725,ADJ,Agpmpg,amod
724,4068-4076,razlog,_,_,_,_,_,728,NOUN,Ncmpg,obl
725,4077-4083,zaradi,_,_,_,_,_,727,ADP,Sg,case
726,4084-4095,likvidacija,_,_,_,_,_,728,NOUN,Ncfsg,obl
727,4096-4103,prenehati,_,_,_,_,_,721,VERB,Vmer3s,acl
728,4104-4111,deloven,_,_,_,_,_,730,ADJ,Agpnsa,amod
729,4112-4120,razmerje,_,_,_,_,_,728,NOUN,Ncnsa,obj
730,4121-4122,v,_,_,_,_,_,732,ADP,Sl,case
731,4123-4131,podjetje,_,_,*->15-17,*[15],_,730,NOUN,Ncnsl,nmod
732,4132-4133,.,_,_,_,_,_,721,PUNCT,Z,punct
733,4134-4140,majhen,_,_,_,_,_,735,ADJ,Agcnsa,amod
734,4141-4148,število,_,_,_,_,_,730,NOUN,Ncnsa,conj
735,4149-4159,zaposlen,_,_,_,_,_,735,ADJ,Appmpg,amod
736,4160-4161,",",_,_,_,_,_,738,PUNCT,Z,punct
737,4162-4171,potreben,_,_,_,_,_,736,ADJ,Agpmpg,amod
738,4172-4174,za,_,_,_,_,_,740,ADP,Sa,case
739,4175-4185,dokončanje,_,_,_,_,_,738,NOUN,Ncnsa,obl
740,4186-4201,likvidacijski,_,_,_,_,_,742,ADJ,Agpmsg,amod
741,4202-4210,postopek,_,_,_,_,_,740,NOUN,Ncmsg,nmod
742,4211-4212,",",_,_,_,_,_,744,PUNCT,Z,punct
743,4213-4220,selitev,_,_,_,_,_,742,NOUN,Ncfsg,conj
744,4221-4227,oprema,_,_,_,_,_,744,NOUN,Ncfsg,nmod
745,4228-4229,v,_,_,_,_,_,748,ADP,Sa,case
746,4230-4238,Tikijev,_,_,*->15-18,*[15],_,748,ADJ,Aspfsa,amod
747,4239-4246,tovarna,_,_,_,_,_,740,NOUN,Ncfsa,conj
748,4247-4248,v,_,_,_,_,_,754,ADP,Sl,case
749,4249-4254,star,LOC[33],0,*->5-2,*[5],3 - Nevtralno[38],754,ADJ,Agpfsl,amod
750,4255-4261,Pazov,LOC[33],0,*->5-2,*[5],3 - Nevtralno[38],748,ADJ,Aspfsl,amod
751,4262-4264,in,_,_,_,_,_,753,CCONJ,Cc,cc
752,4265-4274,odprodaja,_,_,_,_,_,751,NOUN,Ncfsa,conj
753,4275-4280,zaloga,_,_,_,_,_,753,NOUN,Ncfpg,nmod
754,4281-4282,",",_,_,_,_,_,760,PUNCT,Z,punct
755,4283-4285,biti,_,_,_,_,_,760,AUX,Va-f3s-n,aux
756,4286-4287,v,_,_,_,_,_,759,ADP,Sl,case
757,4288-4296,deloven,_,_,_,_,_,759,ADJ,Agpnsl,amod
758,4297-4305,razmerje,_,_,_,_,_,760,NOUN,Ncnsl,obl
759,4306-4312,ostati,_,_,_,_,_,748,VERB,Vmep-sn,acl
760,4313-4323,kasno,_,_,_,_,_,763,ADV,Rgs,advmod
761,4324-4326,do,_,_,_,_,_,763,ADP,Sg,case
762,4327-4332,konec,_,_,_,_,_,760,NOUN,Ncmsg,obl
763,4333-4338,marec,_,_,_,_,_,763,NOUN,Ncmsg,nmod
764,4339-4343,2011,_,_,_,_,_,764,NUM,Mdc,nummod
765,4344-4345,.,_,_,_,_,_,772,PUNCT,Z,punct
766,4346-4355,približno,_,_,_,_,_,768,ADV,Rgp,advmod
767,4356-4358,40,_,_,_,_,_,769,NUM,Mdc,nummod
768,4359-4369,zaposlen,_,_,_,_,_,772,ADJ,Appmpd,obj
769,4370-4372,biti,_,_,_,_,_,772,AUX,Va-r3s-n,aux
770,4373-4377,biti,_,_,_,_,_,772,AUX,Va-p-sf,cop
771,4378-4387,omogočen,_,_,_,_,_,760,ADJ,Appfsn,conj
772,4388-4398,zaposlitev,_,_,_,_,_,772,NOUN,Ncfsn,nsubj
773,4399-4400,v,_,_,_,_,_,775,ADP,Sl,case
774,4401-4407,okvir,_,_,_,_,_,772,NOUN,Ncmsl,obl
775,4408-4415,skupina,ORG[34],1,*->13-21,*[13],4 - Pozitivno[39],775,NOUN,Ncfsg,nmod
776,4416-4423,Gorenje,ORG[34],1,*->13-21,*[13],4 - Pozitivno[39],776,PROPN,Npnsn,nmod
777,4424-4425,",",_,_,_,_,_,781,PUNCT,Z,punct
778,4426-4428,biti,_,_,_,_,_,781,AUX,Va-r3s-n,cop
779,4429-4431,še,_,_,_,_,_,781,PART,Q,advmod
780,4432-4441,sporočilo,_,_,_,_,_,772,NOUN,Ncnsa,nsubj
781,4442-4449,vodstvo,_,_,_,_,_,781,NOUN,Ncnsn,nmod
782,4450-4456,Tikija,ORG,2,*->15-19,*[15],2 - Negativno,782,PROPN,Npmsg,nmod
