idx,chars_idx,token,entity_type,sentiment,idk_1,idk_2,orig_sentiment,heads,upos,xpos,deprel
0,0-10,predsednik,_,_,*->15-1,*[15],_,25,NOUN,Ncmsn,nsubj
1,11-16,vlada,_,_,*->15-1,*[15],_,1,NOUN,Ncfsg,nmod
2,17-22,Janez,PER[1],_,*->15-1,*[15],_,1,PROPN,Npmsn,nmod
3,23-28,Janša,PER[1],_,*->15-1,*[15],_,3,PROPN,Npmsn,flat:name
4,29-30,",",_,_,_,_,_,9,PUNCT,Z,punct
5,31-33,ki,_,_,_,_,_,9,SCONJ,Cs,mark
6,34-36,biti,_,_,_,_,_,9,AUX,Va-r3s-n,aux
7,37-42,danes,_,_,_,_,_,9,ADV,Rgp,advmod
8,43-48,začeti,_,_,_,_,_,1,VERB,Vmep-sm,acl
9,49-55,uraden,_,_,_,_,_,11,ADJ,Agpmsay,amod
10,56-61,obisk,_,_,_,_,_,9,NOUN,Ncmsan,obj
11,62-64,na,_,_,_,_,_,13,ADP,Sl,case
12,65-74,Kitajsko,LOC,_,*->17-1,*[17],_,11,PROPN,Npnsl,nmod
13,75-76,",",_,_,_,_,_,9,PUNCT,Z,punct
14,77-79,se,_,_,_,_,_,25,PRON,Px------y,expl
15,80-82,biti,_,_,_,_,_,25,AUX,Va-r3s-n,aux
16,83-84,z,_,_,_,_,_,18,ADP,Si,case
17,85-96,gostitelj,_,_,*->10-1,*[10],_,25,NOUN,Ncmsi,obl
18,97-98,",",_,_,_,_,_,21,PUNCT,Z,punct
19,99-108,kitajski,_,_,*->10-2,*[10],_,21,ADJ,Agpmsi,amod
20,109-119,premier,_,_,*->10-2,*[10],_,18,NOUN,Ncmsi,appos
21,120-125,Weno,PER[2],_,*->10-2,*[10],_,21,PROPN,Npmsi,nmod
22,126-133,Jiaba,PER[2],_,*->10-2,*[10],_,22,PROPN,Npmsi,flat:name
23,134-135,",",_,_,_,_,_,21,PUNCT,Z,punct
24,136-146,pogovarjati,_,_,_,_,_,0,VERB,Vmpp-sm,root
25,147-155,predvsem,_,_,_,_,_,25,PART,Q,advmod
26,156-157,o,_,_,_,_,_,29,ADP,Sl,case
27,158-170,dvostranski,_,_,_,_,_,29,ADJ,Agpnsl,amod
28,171-182,sodelovanje,_,_,_,_,_,25,NOUN,Ncnsl,obl
29,183-184,.,_,_,_,_,_,25,PUNCT,Z,punct
30,185-190,Janša,PER,_,*->15-2,*[15],_,35,PROPN,Npmsn,nsubj
31,191-193,biti,_,_,_,_,_,35,AUX,Va-r3s-n,aux
32,194-196,po,_,_,_,_,_,34,ADP,Sl,case
33,197-205,srečanje,_,_,_,_,_,35,NOUN,Ncnsl,obl
34,206-213,povedati,_,_,_,_,_,25,VERB,Vmep-sm,parataxis
35,214-215,",",_,_,_,_,_,39,PUNCT,Z,punct
36,216-218,da,_,_,_,_,_,39,SCONJ,Cs,mark
37,219-222,biti,_,_,_,_,_,39,AUX,Va-r3d-n,aux
38,223-227,dati,_,_,_,_,_,35,VERB,Vmep-dm,ccomp
39,228-229,z,_,_,_,_,_,41,ADP,Si,case
40,230-235,Weno,PER,_,*->10-3,*[10],_,39,PROPN,Npmsi,obl
41,236-242,največ,_,_,_,_,_,43,DET,Rgs,det
42,243-251,poudarka,_,_,_,_,_,39,NOUN,Ncmsg,obj
43,252-264,gospodarstvo,_,_,_,_,_,43,NOUN,Ncnsd,nmod
44,265-267,in,_,_,_,_,_,46,CCONJ,Cc,cc
45,268-279,sodelovanje,_,_,_,_,_,43,NOUN,Ncnsd,conj
46,280-283,med,_,_,_,_,_,49,ADP,Si,case
47,284-292,evropski,LOC[3],_,*->2-1,*[2],_,49,ADJ,Agpfsi,amod
48,293-298,unija,LOC[3],_,*->2-1,*[2],_,46,NOUN,Ncfsi,nmod
49,299-301,in,_,_,_,_,_,51,CCONJ,Cc,cc
50,302-310,Kitajska,LOC,_,*->17-2,*[17],_,49,PROPN,Npfsi,conj
51,311-312,v,_,_,_,_,_,53,ADP,Sl,case
52,313-317,luč,_,_,_,_,_,46,NOUN,Ncfsl,nmod
53,318-325,priprava,_,_,_,_,_,53,NOUN,Ncfpg,nmod
54,326-328,na,_,_,_,_,_,56,ADP,Sa,case
55,329-332,vrh,_,_,_,_,_,54,NOUN,Ncmsan,nmod
56,333-335,EU,LOC,_,*->2-2,*[2],_,56,PROPN,Npfsg,nmod
57,336-337,–,_,_,_,_,_,59,PUNCT,Z,punct
58,338-346,Kitajska,LOC,_,*->17-3,*[17],_,57,PROPN,Npfsn,appos
59,347-348,",",_,_,_,_,_,94,PUNCT,Z,punct
60,349-351,ki,_,_,_,_,_,94,SCONJ,Cs,mark
61,352-354,biti,_,_,_,_,_,65,AUX,Va-f3s-n,cop
62,355-357,28,_,_,_,_,_,65,NUM,Mdc,nummod
63,358-359,.,_,_,_,_,_,59,PUNCT,Z,punct
64,360-368,november,_,_,_,_,_,54,NOUN,Ncmsg,nmod
65,369-370,v,_,_,_,_,_,67,ADP,Sl,case
66,371-378,Peking,LOC,_,*->1-1,*[1],_,65,PROPN,Npmsl,nmod
67,379-380,",",_,_,_,_,_,65,PUNCT,Z,punct
68,381-384,ter,_,_,_,_,_,71,CCONJ,Cc,cc
69,385-386,v,_,_,_,_,_,71,ADP,Sl,case
70,387-391,luč,_,_,_,_,_,65,NOUN,Ncfsl,conj
71,392-403,slovenski,_,_,_,_,_,73,ADJ,Agpnsg,amod
72,404-417,predsedovanje,_,_,_,_,_,71,NOUN,Ncnsg,nmod
73,418-420,EU,LOC,_,*->2-3,*[2],_,73,PROPN,Npfsg,nmod
74,421-422,v,_,_,_,_,_,77,ADP,Sl,case
75,423-427,prvi,_,_,_,_,_,77,ADJ,Mlofsl,amod
76,428-436,polovica,_,_,_,_,_,71,NOUN,Ncfsl,nmod
77,437-448,prihodnji,_,_,_,_,_,79,ADJ,Agpnsg,amod
78,449-453,leto,_,_,_,_,_,77,NOUN,Ncnsg,nmod
79,454-455,.,_,_,_,_,_,65,PUNCT,Z,punct
80,456-467,izpostaviti,_,_,_,_,_,25,VERB,Vmep-sf,parataxis
81,468-471,biti,_,_,_,_,_,81,AUX,Va-r3d-n,aux
82,472-476,tudi,_,_,_,_,_,81,PART,Q,advmod
83,477-486,vprašanje,_,_,_,_,_,81,NOUN,Ncnsa,obj
84,487-499,trgovinski,_,_,_,_,_,86,ADJ,Agpmsg,amod
85,500-513,primanjkljaj,_,_,_,_,_,84,NOUN,Ncmsg,nmod
86,514-515,",",_,_,_,_,_,94,PUNCT,Z,punct
87,516-518,ki,_,_,_,_,_,94,SCONJ,Cs,mark
88,519-521,on,_,_,_,_,_,94,PRON,Pp3msa--y,obj
89,522-523,v,_,_,_,_,_,91,ADP,Sl,case
90,524-532,trgovina,_,_,_,_,_,94,NOUN,Ncfsl,obl
91,533-534,z,_,_,_,_,_,93,ADP,Si,case
92,535-543,Kitajska,LOC,_,*->17-4,*[17],_,91,PROPN,Npfsi,nmod
93,544-555,ugotavljati,_,_,_,_,_,86,VERB,Vmpr3d,acl
94,556-560,tako,_,_,_,_,_,96,ADV,Rgp,advmod
95,561-570,Slovenija,LOC,_,*->8-1,*[8],_,94,PROPN,Npfsn,nsubj
96,571-574,kot,_,_,_,_,_,98,SCONJ,Cs,case
97,575-577,EU,LOC,_,*->2-4,*[2],_,96,PROPN,Npfsn,nmod
98,578-579,.,_,_,_,_,_,94,PUNCT,Z,punct
99,580-588,blagoven,_,_,_,_,_,101,ADJ,Agpfsn,amod
100,589-596,menjava,_,_,_,_,_,106,NOUN,Ncfsn,nsubj
101,597-600,med,_,_,_,_,_,103,ADP,Si,case
102,601-609,država,_,_,_,_,_,101,NOUN,Ncfdi,nmod
103,610-612,biti,_,_,_,_,_,106,AUX,Va-r3s-n,aux
104,613-617,lani,_,_,_,_,_,106,ADV,Rgp,advmod
105,618-625,znašati,_,_,_,_,_,25,VERB,Vmpp-sf,parataxis
106,626-631,"299,3",_,_,_,_,_,108,NUM,Mdc,nummod
107,632-640,milijon,_,_,_,_,_,106,NOUN,Ncmsg,obl
108,641-646,evro,_,_,_,_,_,108,NOUN,Ncmpg,nmod
109,647-648,",",_,_,_,_,_,139,PUNCT,Z,punct
110,649-652,kar,_,_,_,_,_,139,PRON,Pr-nsn,nsubj
111,653-655,biti,_,_,_,_,_,118,AUX,Va-r3s-n,aux
112,656-660,"28,4",_,_,_,_,_,114,NUM,Mdc,nummod
113,661-669,odstotek,_,_,_,_,_,115,NOUN,Ncmsg,nmod
114,670-673,več,_,_,_,_,_,124,DET,Rgc,advmod
115,674-677,kot,_,_,_,_,_,117,SCONJ,Cs,case
116,678-682,leto,_,_,_,_,_,115,NOUN,Ncnsa,nmod
117,683-687,prej,_,_,_,_,_,117,ADV,Rgc,advmod
118,688-689,",",_,_,_,_,_,118,PUNCT,Z,punct
119,690-696,skupaj,_,_,_,_,_,124,ADV,Rgp,advmod
120,697-698,z,_,_,_,_,_,124,ADP,Si,case
121,699-708,poseben,_,_,_,_,_,124,ADJ,Agpndi,amod
122,709-718,upraven,_,_,_,_,_,124,ADJ,Agpndi,amod
123,719-728,območje,_,_,_,_,_,139,NOUN,Ncndi,obl
124,729-739,Hongkong,LOC,0,*->3-1,*[3],3 - Nevtralno,124,PROPN,Npmsi,nmod
125,740-742,in,_,_,_,_,_,127,CCONJ,Cc,cc
126,743-749,Maca,LOC,0,*->4-1,*[4],3 - Nevtralno,125,PROPN,Npmsi,conj
127,750-752,pa,_,_,_,_,_,129,CCONJ,Cc,advmod
128,753-758,"335,7",_,_,_,_,_,130,NUM,Mdc,nummod
129,759-767,milijon,_,_,_,_,_,124,NOUN,Ncmsg,appos
130,768-773,evro,_,_,_,_,_,130,NOUN,Ncmpg,nmod
131,774-775,.,_,_,_,_,_,106,PUNCT,Z,punct
132,776-785,slovenski,_,_,_,_,_,134,ADJ,Agpmsny,amod
133,786-791,izvoz,_,_,_,_,_,139,NOUN,Ncmsn,nsubj
134,792-793,v,_,_,_,_,_,137,ADP,Sl,case
135,794-797,ta,_,_,_,_,_,137,DET,Pd-nsl,det
136,798-805,obdobje,_,_,_,_,_,134,NOUN,Ncnsl,nmod
137,806-808,biti,_,_,_,_,_,139,AUX,Va-r3s-n,aux
138,809-815,znašati,_,_,_,_,_,25,VERB,Vmpp-sm,parataxis
139,816-820,"79,1",_,_,_,_,_,141,NUM,Mdc,nummod
140,821-829,milijon,_,_,_,_,_,139,NOUN,Ncmsg,obj
141,830-835,evro,_,_,_,_,_,141,NOUN,Ncmpg,nmod
142,836-837,",",_,_,_,_,_,139,PUNCT,Z,punct
143,838-842,uvoz,_,_,_,_,_,154,NOUN,Ncmsn,nsubj
144,843-845,pa,_,_,_,_,_,147,CCONJ,Cc,cc
145,846-851,"256,6",_,_,_,_,_,147,NUM,Mdc,nummod
146,852-860,milijon,_,_,_,_,_,141,NOUN,Ncmsg,appos
147,861-862,.,_,_,_,_,_,139,PUNCT,Z,punct
148,863-871,kitajski,_,_,*->10-4,*[10],_,150,ADJ,Agpmsny,amod
149,872-879,premier,_,_,*->10-4,*[10],_,154,NOUN,Ncmsn,nsubj
150,880-882,biti,_,_,_,_,_,154,AUX,Va-r3s-n,aux
151,883-894,slovenski,_,_,*->15-3,*[15],_,153,ADJ,Agpmsa,amod
152,895-901,kolega,_,_,*->15-3,*[15],_,154,NOUN,Ncmsay,obj
153,902-909,sprejeti,_,_,_,_,_,139,VERB,Vmep-sm,conj
154,910-911,z,_,_,_,_,_,157,ADP,Si,case
155,912-921,vojaški,_,_,_,_,_,157,ADJ,Agpfpi,amod
156,922-928,čast,_,_,_,_,_,154,NOUN,Ncfpi,obl
157,929-930,.,_,_,_,_,_,154,PUNCT,Z,punct
158,931-932,©,_,_,_,_,_,160,PROPN,Npmsn,nmod
159,933-937,BOBO,_,_,_,_,_,162,PROPN,Npmsn,nsubj
160,938-943,Janša,PER,_,*->15-4,*[15],_,160,PROPN,Npmsn,flat:name
161,944-951,sprejet,_,_,_,_,_,154,ADJ,Appmsnn,conj
162,952-962,kraljevski,_,_,_,_,_,165,ADV,Rgp,advmod
163,963-964,z,_,_,_,_,_,165,ADP,Sg,case
164,965-976,ministrstvo,ORG[4],0,*->5-1,*[5],3 - Nevtralno[13],162,NOUN,Ncnsg,obl
165,977-979,za,ORG[4],0,*->5-1,*[5],3 - Nevtralno[13],167,ADP,Sa,case
166,980-992,gospodarstvo,ORG[4],0,*->5-1,*[5],3 - Nevtralno[13],165,NOUN,Ncnsa,nmod
167,993-995,biti,_,_,_,_,_,169,AUX,Va-r3p-n,aux
168,996-1005,sporočiti,_,_,_,_,_,154,VERB,Vmep-pm,conj
169,1006-1007,",",_,_,_,_,_,178,PUNCT,Z,punct
170,1008-1010,da,_,_,_,_,_,178,SCONJ,Cs,mark
171,1011-1014,biti,_,_,_,_,_,178,AUX,Va-r3d-n,aux
172,1015-1021,stran,_,_,_,_,_,178,NOUN,Ncfpn,nsubj
173,1022-1024,na,_,_,_,_,_,175,ADP,Sl,case
174,1025-1034,zasedanje,_,_,_,_,_,178,NOUN,Ncnsl,obl
175,1035-1046,gospodarski,_,_,_,_,_,177,ADJ,Agpfsg,amod
176,1047-1055,komisija,_,_,_,_,_,175,NOUN,Ncfsg,nmod
177,1056-1065,izmenjati,_,_,_,_,_,169,VERB,Vmpp-dm,ccomp
178,1066-1077,informacija,_,_,_,_,_,178,NOUN,Ncfpa,obj
179,1078-1079,o,_,_,_,_,_,181,ADP,Sl,case
180,1080-1086,stanje,_,_,_,_,_,179,NOUN,Ncnsl,nmod
181,1087-1099,gospodarstvo,_,_,_,_,_,181,NOUN,Ncnpg,nmod
182,1100-1101,",",_,_,_,_,_,178,PUNCT,Z,punct
183,1102-1112,pregledati,_,_,_,_,_,178,VERB,Vmep-pm,conj
184,1113-1119,razvoj,_,_,_,_,_,184,NOUN,Ncmsan,obj
185,1120-1133,dvostranski,_,_,_,_,_,188,ADJ,Agpnsg,amod
186,1134-1147,gospodarski,_,_,_,_,_,188,ADJ,Agpnsg,amod
187,1148-1159,sodelovanje,_,_,_,_,_,185,NOUN,Ncnsg,nmod
188,1160-1162,in,_,_,_,_,_,190,CCONJ,Cc,cc
189,1163-1171,določiti,_,_,_,_,_,184,VERB,Vmep-pm,conj
190,1172-1180,področje,_,_,_,_,_,190,NOUN,Ncnpa,obj
191,1181-1183,za,_,_,_,_,_,194,ADP,Sa,case
192,1184-1193,nadaljnji,_,_,_,_,_,194,ADJ,Agpmsay,amod
193,1194-1200,razvoj,_,_,_,_,_,191,NOUN,Ncmsan,nmod
194,1201-1212,sodelovanje,_,_,_,_,_,194,NOUN,Ncnsg,nmod
195,1213-1214,",",_,_,_,_,_,199,PUNCT,Z,punct
196,1215-1218,med,_,_,_,_,_,199,ADP,Si,case
197,1219-1225,drug,_,_,_,_,_,199,ADJ,Mlpnsi,amod
198,1226-1236,industrija,_,_,_,_,_,194,NOUN,Ncfsi,conj
199,1237-1238,",",_,_,_,_,_,202,PUNCT,Z,punct
200,1239-1245,visok,_,_,_,_,_,202,ADJ,Agpfpn,amod
201,1246-1257,tehnologija,_,_,_,_,_,194,NOUN,Ncfpg,conj
202,1258-1259,",",_,_,_,_,_,205,PUNCT,Z,punct
203,1260-1275,okoljevarstven,_,_,_,_,_,205,ADJ,Agpfpn,amod
204,1276-1287,tehnologija,_,_,_,_,_,199,NOUN,Ncfpn,conj
205,1288-1290,in,_,_,_,_,_,207,CCONJ,Cc,cc
206,1291-1298,turizem,_,_,_,_,_,205,NOUN,Ncmsn,conj
207,1299-1300,.,_,_,_,_,_,202,PUNCT,Z,punct
208,1301-1310,slovenski,_,_,_,_,_,212,ADJ,Agpmpn,amod
209,1311-1313,in,_,_,_,_,_,211,CCONJ,Cc,cc
210,1314-1322,kitajski,_,_,_,_,_,209,ADJ,Agpmpn,conj
211,1323-1335,predstavnik,_,_,_,_,_,215,NOUN,Ncmpn,nsubj
212,1336-1338,biti,_,_,_,_,_,215,AUX,Va-r3p-n,aux
213,1339-1341,se,_,_,_,_,_,215,PRON,Px------y,expl
214,1342-1352,dogovoriti,_,_,_,_,_,25,VERB,Vmep-pm,parataxis
215,1353-1357,tudi,_,_,_,_,_,215,PART,Q,advmod
216,1358-1360,za,_,_,_,_,_,218,ADP,Sa,case
217,1361-1370,okrepitev,_,_,_,_,_,215,NOUN,Ncfsa,obl
218,1371-1382,sodelovanje,_,_,_,_,_,218,NOUN,Ncnsg,nmod
219,1383-1386,med,_,_,_,_,_,221,ADP,Si,case
220,1387-1391,Luka,ORG[5],0,*->6-1,*[6],3 - Nevtralno[14],219,PROPN,Npfsi,nmod
221,1392-1397,Koper,ORG[5]|LOC[6],0,*->6-1|*->7-1,*[6]|*[7],3 - Nevtralno[14]|3 - Nevtralno[15],221,PROPN,Npmsi,flat:name
222,1398-1400,in,_,_,_,_,_,225,CCONJ,Cc,cc
223,1401-1411,kitajski,_,_,_,_,_,225,ADJ,Agpnpi,amod
224,1412-1423,pristanišče,_,_,_,_,_,221,NOUN,Ncnpi,conj
225,1424-1425,",",_,_,_,_,_,232,PUNCT,Z,punct
226,1426-1435,slovenski,_,_,_,_,_,228,ADJ,Agpfsn,amod
227,1436-1441,stran,_,_,_,_,_,232,NOUN,Ncfsn,nsubj
228,1442-1444,pa,_,_,_,_,_,232,CCONJ,Cc,advmod
229,1445-1447,biti,_,_,_,_,_,232,AUX,Va-r3s-n,aux
230,1448-1455,posebej,_,_,_,_,_,232,ADV,Rgp,advmod
231,1456-1467,izpostaviti,_,_,_,_,_,25,VERB,Vmep-sf,parataxis
232,1468-1473,javen,_,_,_,_,_,234,ADJ,Agpmsay,amod
233,1474-1480,razpis,_,_,_,_,_,232,NOUN,Ncmsan,obj
234,1481-1483,za,_,_,_,_,_,236,ADP,Sa,case
235,1484-1495,spodbujanje,_,_,_,_,_,234,NOUN,Ncnsa,nmod
236,1496-1501,tuj,_,_,_,_,_,239,ADJ,Agpfpg,amod
237,1502-1513,neposreden,_,_,_,_,_,239,ADJ,Agpfpg,amod
238,1514-1524,investicija,_,_,_,_,_,236,NOUN,Ncfpg,nmod
239,1525-1526,v,_,_,_,_,_,241,ADP,Sa,case
240,1527-1536,Slovenija,LOC,0,*->8-2,*[8],3 - Nevtralno,239,PROPN,Npfsa,nmod
241,1537-1538,.,_,_,_,_,_,232,PUNCT,Z,punct
242,1539-1548,slovenski,_,_,_,_,_,246,ADJ,Agpfsn,amod
243,1549-1551,in,_,_,_,_,_,245,CCONJ,Cc,cc
244,1552-1560,kitajski,_,_,_,_,_,243,ADJ,Agpfsn,conj
245,1561-1566,stran,_,_,_,_,_,249,NOUN,Ncfsn,nsubj
246,1567-1570,biti,_,_,_,_,_,249,AUX,Va-r3d-n,aux
247,1571-1576,danes,_,_,_,_,_,249,ADV,Rgp,advmod
248,1577-1586,podpisati,_,_,_,_,_,232,VERB,Vmep-dm,conj
249,1587-1591,tudi,_,_,_,_,_,249,PART,Q,advmod
250,1592-1595,pet,_,_,_,_,_,252,NUM,Mlc-pa,nummod
251,1596-1606,sporazum,_,_,_,_,_,249,NOUN,Ncmpg,obj
252,1607-1609,na,_,_,_,_,_,254,ADP,Sl,case
253,1610-1618,področje,_,_,_,_,_,252,NOUN,Ncnsl,nmod
254,1619-1626,obramba,_,_,_,_,_,254,NOUN,Ncfsg,nmod
255,1627-1628,",",_,_,_,_,_,257,PUNCT,Z,punct
256,1629-1636,kultura,_,_,_,_,_,255,NOUN,Ncfsg,conj
257,1637-1638,",",_,_,_,_,_,259,PUNCT,Z,punct
258,1639-1647,znanost,_,_,_,_,_,255,NOUN,Ncfsg,conj
259,1648-1650,in,_,_,_,_,_,261,CCONJ,Cc,cc
260,1651-1663,gospodarstvo,_,_,_,_,_,255,NOUN,Ncnsg,conj
261,1664-1665,.,_,_,_,_,_,249,PUNCT,Z,punct
262,1666-1674,kitajski,_,_,*->10-5,*[10],_,264,ADJ,Agpmsny,amod
263,1675-1682,premier,_,_,*->10-5,*[10],_,271,NOUN,Ncmsn,nsubj
264,1683-1685,biti,_,_,_,_,_,271,AUX,Va-r3s-n,aux
265,1686-1697,slovenski,_,_,*->15-5,*[15],_,267,ADJ,Agpmsa,amod
266,1698-1703,gost,_,_,*->15-5,*[15],_,271,NOUN,Ncmsay,obj
267,1704-1705,z,_,_,_,_,_,270,ADP,Si,case
268,1706-1715,vojaški,_,_,_,_,_,270,ADJ,Agpfpi,amod
269,1716-1722,čast,_,_,_,_,_,267,NOUN,Ncfpi,nmod
270,1723-1730,sprejeti,_,_,_,_,_,25,VERB,Vmep-sm,parataxis
271,1731-1732,v,_,_,_,_,_,274,ADP,Sl,case
272,1733-1739,velik,_,_,_,_,_,274,ADJ,Agpfsl,amod
273,1740-1747,dvorana,_,_,_,_,_,271,NOUN,Ncfsl,obl
274,1748-1756,ljudstvo,_,_,_,_,_,274,NOUN,Ncnsg,nmod
275,1757-1759,na,_,_,_,_,_,277,ADP,Sl,case
276,1760-1764,trg,LOC[7],0,*->9-1,*[9],3 - Nevtralno[16],274,NOUN,Ncmsl,nmod
277,1765-1774,nebeški,LOC[7],0,*->9-1,*[9],3 - Nevtralno[16],279,ADJ,Agpmsg,amod
278,1775-1779,mir,LOC[7],0,*->9-1,*[9],3 - Nevtralno[16],277,NOUN,Ncmsg,nmod
279,1780-1781,v,_,_,_,_,_,281,ADP,Sl,case
280,1782-1789,Peking,LOC,0,*->1-2,*[1],3 - Nevtralno,279,PROPN,Npmsl,nmod
281,1790-1791,",",_,_,_,_,_,288,PUNCT,Z,punct
282,1792-1794,po,_,_,_,_,_,284,ADP,Sl,case
283,1795-1804,pogovor,_,_,_,_,_,288,NOUN,Ncmpl,obl
284,1805-1807,pa,_,_,_,_,_,288,CCONJ,Cc,advmod
285,1808-1810,on,_,_,*->15-6,*[15],_,288,PRON,Pp3msd--y,obj
286,1811-1813,biti,_,0,*->10-6,*[10],3 - Nevtralno[17],288,AUX,Va-r3s-n,aux
287,1814-1822,prirediti,_,0,*->10-6,*[10],3 - Nevtralno[17],271,VERB,Vmep-sm,conj
288,1823-1825,še,_,_,_,_,_,288,PART,Q,advmod
289,1826-1833,svečano,_,_,_,_,_,291,ADJ,Appfsa,amod
290,1834-1841,večerja,_,_,_,_,_,288,NOUN,Ncfsa,obj
291,1842-1843,.,_,_,_,_,_,288,PUNCT,Z,punct
292,1844-1853,slovenski,_,_,_,_,_,294,ADJ,Agpfsn,amod
293,1854-1864,delegacija,_,_,_,_,_,299,NOUN,Ncfsn,nsubj
294,1865-1867,se,_,_,_,_,_,299,PRON,Px---d--y,expl
295,1868-1870,biti,_,_,_,_,_,299,AUX,Va-r3s-n,aux
296,1871-1875,pred,_,_,_,_,_,298,ADP,Si,case
297,1876-1879,ta,_,_,_,_,_,299,DET,Pd-nsi,obl
298,1880-1888,ogledati,_,_,_,_,_,288,VERB,Vmep-sf,conj
299,1889-1900,prepovedan,_,_,_,_,_,301,ADJ,Appnsa,amod
300,1901-1906,mesto,_,_,_,_,_,299,NOUN,Ncnsa,obj
301,1907-1909,in,_,_,_,_,_,304,CCONJ,Cc,cc
302,1910-1921,astronomski,_,_,_,_,_,304,ADJ,Agpmsay,amod
303,1922-1934,observatorij,_,_,_,_,_,301,NOUN,Ncmsan,conj
304,1935-1937,na,_,_,_,_,_,307,ADP,Sl,case
305,1938-1946,stražen,_,_,_,_,_,307,ADJ,Agpmsl,amod
306,1947-1953,stolp,_,_,_,_,_,304,NOUN,Ncmsl,nmod
307,1954-1958,Jian,_,_,_,_,_,307,PROPN,Npmsn,nmod
308,1959-1962,Guo,_,_,_,_,_,308,PROPN,Npmsn,nmod
309,1963-1966,Men,_,_,_,_,_,309,PROPN,Npmsn,flat:name
310,1967-1968,",",_,_,_,_,_,314,PUNCT,Z,punct
311,1969-1973,kjer,_,_,_,_,_,314,SCONJ,Cs,mark
312,1974-1976,biti,_,_,_,_,_,314,AUX,Va-r3s-n,aux
313,1977-1982,delati,_,_,_,_,_,307,VERB,Vmpp-sm,acl
314,1983-1987,tudi,_,_,_,_,_,314,PART,Q,advmod
315,1988-1997,slovenski,_,0,*->11-1,*[11],3 - Nevtralno[18],317,ADJ,Agpmsny,amod
316,1998-2004,jezuit,_,0,*->11-1,*[11],3 - Nevtralno[18],314,NOUN,Ncmsn,nsubj
317,2005-2007,in,_,0,*->11-1,*[11],3 - Nevtralno[18],319,CCONJ,Cc,cc
318,2008-2016,astronom,_,0,*->11-1,*[11],3 - Nevtralno[18],317,NOUN,Ncmsn,conj
319,2017-2025,Avguštin,PER[8],0,*->11-1,*[11],3 - Nevtralno[18],319,PROPN,Npmsn,nmod
320,2026-2035,Ferdinand,PER[8],0,*->11-1,*[11],3 - Nevtralno[18],320,PROPN,Npmsn,flat:name
321,2036-2039,von,PER[8],0,*->11-1,*[11],3 - Nevtralno[18],320,PROPN,Npmsn,flat:name
322,2040-2051,Hallerstein,PER[8],0,*->11-1,*[11],3 - Nevtralno[18],322,PROPN,Npmsn,flat:name
323,2052-2053,",",_,_,_,_,_,331,PUNCT,Z,punct
324,2054-2056,ki,_,_,_,_,_,331,SCONJ,Cs,mark
325,2057-2059,biti,_,_,_,_,_,331,AUX,Va-r3s-n,aux
326,2060-2061,v,_,_,_,_,_,330,ADP,Sl,case
327,2062-2064,17,_,_,_,_,_,330,NUM,Mdc,nummod
328,2065-2066,.,_,_,_,_,_,331,PUNCT,Z,punct
329,2067-2075,stoletje,_,_,_,_,_,331,NOUN,Ncnsl,obl
330,2076-2081,živeti,_,_,_,_,_,320,VERB,Vmpp-sm,acl
331,2082-2084,na,_,_,_,_,_,333,ADP,Sl,case
332,2085-2094,Kitajsko,LOC,_,*->17-5,*[17],_,331,PROPN,Npnsl,obl
333,2095-2096,.,_,_,_,_,_,314,PUNCT,Z,punct
334,2097-2104,zunanji,_,0,*->12-1,*[12],3 - Nevtralno[19],336,ADJ,Agpmsny,amod
335,2105-2113,minister,_,0,*->12-1,*[12],3 - Nevtralno[19],299,NOUN,Ncmsn,nsubj
336,2114-2122,Dimitrij,PER[9],0,*->12-1,*[12],3 - Nevtralno[19],336,PROPN,Npmsn,nmod
337,2123-2128,Rupel,PER[9],0,*->12-1,*[12],3 - Nevtralno[19],337,PROPN,Npmsn,flat:name
338,2129-2130,",",_,_,_,_,_,355,PUNCT,Z,punct
339,2131-2133,ki,_,_,_,_,_,355,SCONJ,Cs,mark
340,2134-2140,skupaj,_,_,_,_,_,355,ADV,Rgp,advmod
341,2141-2142,z,_,_,_,_,_,343,ADP,Si,case
342,2143-2152,minister,_,0,*->13-1,*[13],3 - Nevtralno[20],355,NOUN,Ncmsi,obl
343,2153-2155,za,_,0,*->13-1,*[13],3 - Nevtralno[20],345,ADP,Sa,case
344,2156-2168,gospodarstvo,_,0,*->13-1,*[13],3 - Nevtralno[20],343,NOUN,Ncnsa,nmod
345,2169-2177,Andrej,PER[10],0,*->13-1,*[13],3 - Nevtralno[20],345,PROPN,Npmsi,nmod
346,2178-2186,Vizjak,PER[10],0,*->13-1,*[13],3 - Nevtralno[20],346,PROPN,Npmsi,flat:name
347,2187-2189,in,_,_,_,_,_,349,CCONJ,Cc,cc
348,2190-2200,ministrica,_,0,*->14-1,*[14],3 - Nevtralno[21],346,NOUN,Ncfsi,conj
349,2201-2203,za,_,0,*->14-1,*[14],3 - Nevtralno[21],351,ADP,Sa,case
350,2204-2211,zdravje,_,0,*->14-1,*[14],3 - Nevtralno[21],349,NOUN,Ncnsa,nmod
351,2212-2218,Zofija,PER[11],0,*->14-1,*[14],3 - Nevtralno[21],349,PROPN,Npfsa,nmod
352,2219-2224,Mazej,PER[11],0,*->14-1,*[14],3 - Nevtralno[21],352,PROPN,Npfsa,flat:name
353,2225-2232,Kukovič,PER[11],0,*->14-1,*[14],3 - Nevtralno[21],353,PROPN,Npfsa,flat:name
354,2233-2241,spremljati,_,_,_,_,_,336,VERB,Vmpr3s,acl
355,2242-2251,premier,_,0,*->15-7,*[15],3 - Nevtralno,355,NOUN,Ncmsay,obj
356,2252-2254,na,_,_,_,_,_,358,ADP,Sl,case
357,2255-2261,obisk,_,_,_,_,_,356,NOUN,Ncmsl,nmod
358,2262-2264,na,_,_,_,_,_,360,ADP,Sl,case
359,2265-2274,Kitajsko,LOC,_,*->17-6,*[17],_,358,PROPN,Npnsl,nmod
360,2275-2276,",",_,_,_,_,_,355,PUNCT,Z,punct
361,2277-2279,pa,_,_,_,_,_,366,CCONJ,Cc,advmod
362,2280-2282,se,_,_,_,_,_,366,PRON,Px------y,expl
363,2283-2285,biti,_,_,_,_,_,366,AUX,Va-r3s-n,aux
364,2286-2291,danes,_,_,_,_,_,366,ADV,Rgp,advmod
365,2292-2298,sestati,_,_,_,_,_,355,VERB,Vmep-sm,conj
366,2299-2300,z,_,_,_,_,_,369,ADP,Si,case
367,2301-2310,kitajski,_,0,*->16-1,*[16],3 - Nevtralno[22],369,ADJ,Agpmsi,amod
368,2311-2318,kolega,_,0,*->16-1,*[16],3 - Nevtralno[22],366,NOUN,Ncmsi,obl
369,2319-2323,Yang,PER[12],0,*->16-1,*[16],3 - Nevtralno[22],369,PROPN,Npmsi,nmod
370,2324-2333,Jiechi,PER[12],0,*->16-1,*[16],3 - Nevtralno[22],370,PROPN,Npmsi,flat:name
371,2334-2335,.,_,_,_,_,_,366,PUNCT,Z,punct
372,2336-2342,Govor,_,_,_,_,_,370,PROPN,Npmsg,conj
373,2343-2345,biti,_,_,_,_,_,373,AUX,Va-r3s-n,aux
374,2346-2350,biti,_,_,_,_,_,366,AUX,Va-p-sn,aux
375,2351-2352,o,_,_,_,_,_,378,ADP,Sl,case
376,2353-2365,dvostranski,_,_,_,_,_,378,ADJ,Agpmpl,amod
377,2366-2373,odnos,_,_,_,_,_,366,NOUN,Ncmpl,obl
378,2374-2375,",",_,_,_,_,_,381,PUNCT,Z,punct
379,2376-2386,slovenski,_,_,_,_,_,381,ADJ,Agpnsl,amod
380,2387-2400,predsedovanje,_,_,_,_,_,378,NOUN,Ncnsl,conj
381,2401-2403,EU,LOC,_,*->2-5,*[2],_,381,PROPN,Npfsg,nmod
382,2404-2405,",",_,_,_,_,_,384,PUNCT,Z,punct
383,2406-2410,vrh,_,_,_,_,_,378,NOUN,Ncmsl,conj
384,2411-2413,EU,LOC,0,*->2-6,*[2],3 - Nevtralno,384,PROPN,Npfsg,nmod
385,2414-2415,–,_,_,_,_,_,387,PUNCT,Z,punct
386,2416-2424,Kitajska,LOC,0,*->17-7,*[17],3 - Nevtralno,385,PROPN,Npfsn,conj
387,2425-2428,ter,_,_,_,_,_,391,CCONJ,Cc,cc
388,2429-2430,o,_,_,_,_,_,391,ADP,Sl,case
389,2431-2440,aktualen,_,_,_,_,_,391,ADJ,Agpnpl,amod
390,2441-2451,vprašanje,_,_,_,_,_,378,NOUN,Ncnpl,conj
391,2452-2453,v,_,_,_,_,_,393,ADP,Sl,case
392,2454-2460,regija,_,_,_,_,_,391,NOUN,Ncfsl,nmod
393,2461-2462,",",_,_,_,_,_,397,PUNCT,Z,punct
394,2463-2471,predvsem,_,_,_,_,_,397,PART,Q,advmod
395,2472-2473,o,_,_,_,_,_,397,ADP,Sl,case
396,2474-2483,Pakistan,LOC,0,*->18-1,*[18],3 - Nevtralno,393,PROPN,Npmsl,conj
397,2484-2486,in,_,_,_,_,_,399,CCONJ,Cc,cc
398,2487-2492,Iran,LOC,0,*->19-1,*[19],3 - Nevtralno,397,PROPN,Npmsl,conj
