idx,chars_idx,token,entity_type,sentiment,idk_1,idk_2,orig_sentiment,heads,upos,xpos,deprel
0,0-6,finski,_,_,*->14-1,*[14],_,2,ADJ,Agpfsn,amod
1,7-15,policija,ORG,_,*->14-1,*[14],_,4,NOUN,Ncfsn,root
2,16-18,biti,_,_,_,_,_,4,AUX,Va-r3s-n,aux
3,19-28,sporočiti,_,_,_,_,_,0,VERB,Vmep-sf,root
4,29-30,",",_,_,_,_,_,45,PUNCT,Z,punct
5,31-33,da,_,_,_,_,_,45,SCONJ,Cs,mark
6,34-36,biti,_,_,_,_,_,45,AUX,Va-r3p-n,aux
7,37-38,v,_,_,_,_,_,9,ADP,Sl,case
8,39-45,okvir,_,_,_,_,_,45,NOUN,Ncmsl,obl
9,46-55,preiskava,_,_,_,_,_,9,NOUN,Ncfsg,nmod
10,56-57,",",_,_,_,_,_,17,PUNCT,Z,punct
11,58-61,ali,_,_,_,_,_,17,ADV,Rgp,mark
12,62-64,biti,_,_,_,_,_,17,AUX,Va-r3s-n,aux
13,65-71,finski,_,_,*->19-1,*[19],_,15,ADJ,Agpnsn,amod
14,72-80,podjetje,_,_,*->19-1,*[19],_,17,NOUN,Ncnsn,nsubj
15,81-87,Patria,ORG,_,*->19-1,*[19],_,15,PROPN,Npfsn,nmod
16,88-99,podkupovati,_,_,_,_,_,10,VERB,Vmpp-sn,acl
17,100-108,uradnik,_,_,_,_,_,17,NOUN,Ncmpa,obj
18,109-110,",",_,_,_,_,_,22,PUNCT,Z,punct
19,111-113,da,_,_,_,_,_,22,SCONJ,Cs,mark
20,114-116,biti,_,_,_,_,_,22,AUX,Va-c,aux
21,117-126,pridobiti,_,_,_,_,_,17,VERB,Vmep-sn,advcl
22,127-134,pogodba,_,_,_,_,_,22,NOUN,Ncfpa,obj
23,135-136,z,_,_,_,_,_,25,ADP,Si,case
24,137-146,Slovenija,LOC,_,*->21-1,*[21],_,23,PROPN,Npfsi,nmod
25,147-149,in,_,_,_,_,_,27,CCONJ,Cc,cc
26,150-155,Egipt,LOC,_,*->1-1,*[1],_,28,PROPN,Npmsn,nmod
27,156-164,podjetje,_,_,*->19-2,*[19],_,22,NOUN,Ncnsn,nsubj
28,165-171,Patria,ORG,_,*->19-2,*[19],_,28,PROPN,Npfsn,nmod
29,172-174,biti,_,_,_,_,_,32,AUX,Va-r3s-n,aux
30,175-181,Egipt,LOC,0,*->1-2,*[1],3 - Nevtralno,32,PROPN,Npmsd,iobj
31,182-189,prodati,_,_,_,_,_,22,VERB,Vmep-sn,conj
32,190-198,topniški,_,_,_,_,_,35,ADJ,Agpfsa,amod
33,199-209,proizvoden,_,_,_,_,_,35,ADJ,Agpfsa,amod
34,210-221,tehnologija,_,_,_,_,_,32,NOUN,Ncfsa,obj
35,222-223,",",_,_,_,_,_,37,PUNCT,Z,punct
36,224-233,Slovenija,LOC,_,*->21-2,*[21],_,32,PROPN,Npfsl,obl
37,234-236,pa,_,_,_,_,_,45,CCONJ,Cc,advmod
38,237-244,oklepen,_,_,_,_,_,40,ADJ,Agpnpa,amod
39,245-251,vozilo,_,_,_,_,_,35,NOUN,Ncnpa,conj
40,252-254,in,_,_,_,_,_,42,CCONJ,Cc,cc
41,255-259,topa,_,_,_,_,_,40,NOUN,Ncfpa,conj
42,260-261,.,_,_,_,_,_,45,PUNCT,Z,punct
43,262-271,preiskava,_,_,_,_,_,45,NOUN,Ncfsn,nsubj
44,272-278,potekati,_,_,_,_,_,4,VERB,Vmpr3s,parataxis
45,279-280,",",_,_,_,_,_,52,PUNCT,Z,punct
46,281-291,konkreten,_,_,_,_,_,48,ADJ,Agpmpg,amod
47,292-300,podatek,_,_,_,_,_,52,NOUN,Ncmpg,obj
48,301-303,še,_,_,_,_,_,52,PART,Q,advmod
49,304-306,biti,_,_,_,_,_,52,AUX,Va-r3s-y,aux
50,307-308,"""",_,_,_,_,_,52,PUNCT,Z,punct
51,309-320,preiskovati,_,_,*->6-1,*[6],_,45,VERB,Vmpr1p,csubj
52,321-322,",",_,_,_,_,_,62,PUNCT,Z,punct
53,323-326,ali,_,_,_,_,_,62,ADV,Rgp,mark
54,327-329,biti,_,_,_,_,_,62,AUX,Va-r3p-n,cop
55,330-338,podjetje,_,_,_,_,_,62,NOUN,Ncnsa,nsubj
56,339-346,oziroma,_,_,_,_,_,58,CCONJ,Cc,cc
57,347-355,nekateri,_,_,_,_,_,56,DET,Pi-mpn,conj
58,356-358,od,_,_,_,_,_,63,ADP,Sg,case
59,359-367,njihov,_,_,_,_,_,61,DET,Ps3mpgp,nmod
60,368-378,zaposlen,_,_,_,_,_,62,ADJ,Appmpg,obl
61,379-384,kriv,_,_,_,_,_,52,ADJ,Agpmpn,ccomp
62,385-397,podkupovanje,_,_,_,_,_,62,NOUN,Ncnpg,obj
63,398-399,",",_,_,_,_,_,62,PUNCT,Z,punct
64,400-401,"""",_,_,_,_,_,69,PUNCT,Z,punct
65,402-404,biti,_,_,_,_,_,69,AUX,Va-r3p-n,aux
66,405-406,v,_,_,_,_,_,68,ADP,Sl,case
67,407-413,izjava,_,_,_,_,_,69,NOUN,Ncfsl,obl
68,414-423,sporočiti,_,_,_,_,_,4,VERB,Vmep-pm,parataxis
69,424-425,z,_,_,_,_,_,73,ADP,Sg,case
70,426-434,finski,_,_,_,_,_,73,ADJ,Agpmsg,amod
71,435-444,državen,ORG[1],_,*->6-2,*[6],_,73,ADJ,Agpmsg,amod
72,445-450,urad,ORG[1],_,*->6-2,*[6],_,69,NOUN,Ncmsg,obl
73,451-453,za,ORG[1],_,*->6-2,*[6],_,75,ADP,Sa,case
74,454-463,preiskava,ORG[1],_,*->6-2,*[6],_,73,NOUN,Ncfpa,nmod
75,464-465,(,_,_,_,_,_,77,PUNCT,Z,punct
76,466-469,NBI,ORG,_,*->6-3,*[6],_,75,PROPN,Npmsn,appos
77,470-471,),_,_,_,_,_,77,PUNCT,Z,punct
78,472-473,.,_,_,_,_,_,69,PUNCT,Z,punct
79,474-477,nbi,ORG,_,*->6-4,*[6],_,82,SCONJ,Cs,mark
80,478-480,biti,_,_,_,_,_,82,AUX,Va-r3s-y,aux
81,481-486,hoteti,_,_,_,_,_,69,VERB,Vmpp-sm,advcl
82,487-498,komentirati,_,_,_,_,_,82,VERB,Vmbn,xcomp
83,499-504,vsota,_,_,_,_,_,83,NOUN,Ncfsg,obj
84,505-512,denar,_,_,_,_,_,84,NOUN,Ncmsg,nmod
85,513-514,",",_,_,_,_,_,91,PUNCT,Z,punct
86,515-517,ki,_,_,_,_,_,91,SCONJ,Cs,mark
87,518-521,naj,_,_,_,_,_,91,PART,Q,advmod
88,522-524,biti,_,_,_,_,_,91,AUX,Va-c,aux
89,525-528,biti,_,_,_,_,_,91,AUX,Va-p-sm,cop
90,529-538,porabljen,_,_,_,_,_,85,ADJ,Appmsnn,acl
91,539-541,za,_,_,_,_,_,93,ADP,Sa,case
92,542-552,podkupnina,_,_,_,_,_,91,NOUN,Ncfsa,obl
93,553-554,",",_,_,_,_,_,91,PUNCT,Z,punct
94,555-559,prav,_,_,_,_,_,96,PART,Q,advmod
95,560-564,tako,_,_,_,_,_,100,ADV,Rgp,advmod
96,565-567,pa,_,_,_,_,_,99,CCONJ,Cc,advmod
97,568-570,biti,_,_,*->6-5,*[6],_,99,AUX,Va-r3s-y,aux
98,571-576,hoteti,_,_,*->6-5,*[6],_,4,VERB,Vmpp-sm,parataxis
99,577-585,razkriti,_,_,*->6-5,*[6],_,99,VERB,Vmen,xcomp
100,586-596,narodnost,_,_,_,_,_,100,NOUN,Ncfsg,obj
101,597-608,osumljenec,_,_,_,_,_,101,NOUN,Ncmpg,nmod
102,609-610,.,_,_,_,_,_,106,PUNCT,Z,punct
103,611-614,kot,_,_,_,_,_,106,SCONJ,Cs,mark
104,615-617,biti,_,_,*->6-6,*[6],_,106,AUX,Va-r3p-n,aux
105,618-627,sporočiti,_,_,*->6-6,*[6],_,100,VERB,Vmep-pm,advcl
106,628-629,",",_,_,_,_,_,106,PUNCT,Z,punct
107,630-641,pričakovati,_,_,_,_,_,99,VERB,Vmpr3p,conj
108,642-643,",",_,_,_,_,_,112,PUNCT,Z,punct
109,644-646,da,_,_,_,_,_,112,SCONJ,Cs,mark
110,647-649,biti,_,_,_,_,_,112,AUX,Va-f3s-n,aux
111,650-653,iti,_,_,_,_,_,108,VERB,Vmbp-sn,ccomp
112,654-656,za,_,_,_,_,_,115,ADP,Sa,case
113,657-668,dolgotrajen,_,_,_,_,_,115,ADJ,Agpfsa,amod
114,669-678,preiskava,_,_,_,_,_,112,NOUN,Ncfsa,obl
115,679-680,.,_,_,_,_,_,108,PUNCT,Z,punct
116,681-690,oklepnik,_,_,_,_,_,112,NOUN,Ncmpn,obj
117,691-697,Patria,_,_,_,_,_,117,PROPN,Npmsg,nmod
118,698-701,8x8,_,_,_,_,_,120,NUM,Mdc,nummod
119,702-709,projekt,_,_,_,_,_,117,NOUN,Ncmsn,conj
120,710-711,.,_,_,_,_,_,112,PUNCT,Z,punct
121,712-721,slovenski,ORG[2],_,*->2-1,*[2],_,123,ADJ,Agpfsn,amod
122,722-728,vojska,ORG[2],_,*->2-1,*[2],_,129,NOUN,Ncfsn,nsubj
123,729-731,biti,_,_,_,_,_,129,AUX,Va-r3s-n,aux
124,732-733,v,_,_,_,_,_,126,ADP,Sl,case
125,734-741,začetek,_,_,_,_,_,129,NOUN,Ncmsl,obl
126,742-746,leto,_,_,_,_,_,129,NOUN,Ncnsg,obl
127,747-751,2006,_,_,_,_,_,127,NUM,Mdc,nummod
128,752-760,objaviti,_,_,_,_,_,4,VERB,Vmep-sf,root
129,761-764,278,_,_,_,_,_,131,NUM,Mdc,nummod
130,765-774,milijon,_,_,_,_,_,133,NOUN,Ncmpg,nmod
131,775-780,evro,_,_,_,_,_,131,NOUN,Ncmpg,nmod
132,781-786,težek,_,_,_,_,_,135,ADJ,Agpmsan,amod
133,787-792,javen,_,_,_,_,_,135,ADJ,Agpmsay,amod
134,793-799,razpis,_,_,_,_,_,129,NOUN,Ncmsan,obj
135,800-802,za,_,_,_,_,_,137,ADP,Sa,case
136,803-809,nabava,_,_,_,_,_,135,NOUN,Ncfsa,nmod
137,810-813,135,_,_,_,_,_,141,NUM,Mdc,nummod
138,814-820,lahek,_,_,_,_,_,141,ADJ,Agpmpg,amod
139,821-833,osemkolesen,_,_,_,_,_,141,ADJ,Agpmpg,amod
140,834-844,oklepnik,_,_,_,_,_,137,NOUN,Ncmpg,nmod
141,845-846,",",_,_,_,_,_,146,PUNCT,Z,punct
142,847-848,z,_,_,_,_,_,144,ADP,Si,case
143,849-857,kateri,_,_,_,_,_,146,DET,Pq-mpi,obl
144,858-862,biti,_,0,*->2-2,*[2],3 - Nevtralno[19],146,AUX,Va-f3p-n,aux
145,863-874,nadomestiti,_,0,*->2-2,*[2],3 - Nevtralno[19],141,VERB,Vmep-pm,acl
146,875-880,tanek,_,_,_,_,_,146,ADJ,Agpmpa,obj
147,881-882,",",_,_,_,_,_,151,PUNCT,Z,punct
148,883-885,ki,_,_,_,_,_,151,SCONJ,Cs,mark
149,886-888,ne,_,_,_,_,_,151,PART,Q,advmod
150,889-898,ustrezati,_,_,_,_,_,147,VERB,Vmpr3p,acl
151,899-906,Natov,ORG,0,*->3-1,*[3],3 - Nevtralno,153,ADJ,Aspfpd,amod
152,907-916,doktrina,_,_,_,_,_,151,NOUN,Ncfpd,obj
153,917-918,.,_,_,_,_,_,4,PUNCT,Z,punct
154,919-924,izbor,_,_,_,_,_,177,NOUN,Ncmsn,nsubj
155,925-926,.,_,_,_,_,_,155,PUNCT,Z,punct
156,927-930,med,_,_,_,_,_,160,ADP,Si,case
157,931-936,dva,_,_,_,_,_,160,NUM,Mlcmdi,nummod
158,937-950,močen,_,_,_,_,_,160,ADJ,Agsmdi,amod
159,951-960,tekmec,_,_,_,_,_,155,NOUN,Ncmdi,nmod
160,961-962,",",_,_,_,_,_,162,PUNCT,Z,punct
161,963-970,krpan,_,_,_,_,_,160,NOUN,Ncmsi,conj
162,971-973,iz,_,_,_,_,_,166,ADP,Sg,case
163,974-982,ravenski,_,0,*->4-1,*[4],3 - Nevtralno[20],166,ADJ,Agpfsg,amod
164,983-992,sistemski,ORG[3],0,*->4-1,*[4],3 - Nevtralno[20],166,ADJ,Agpfsg,amod
165,993-1000,tehnika,ORG[3],0,*->4-1,*[4],3 - Nevtralno[20],162,NOUN,Ncfsg,nmod
166,1001-1003,in,_,_,_,_,_,168,CCONJ,Cc,cc
167,1004-1014,oklepnik,_,_,_,_,_,166,NOUN,Ncmpi,conj
168,1015-1021,finski,_,_,*->19-3,*[19],_,170,ADJ,Agpfsg,amod
169,1022-1028,Patrie,ORG,_,*->19-3,*[19],_,168,PROPN,Npfsg,nmod
170,1029-1030,",",_,_,_,_,_,151,PUNCT,Z,punct
171,1031-1033,biti,_,_,_,_,_,187,AUX,Va-r3s-n,aux
172,1034-1037,biti,_,_,_,_,_,187,AUX,Va-p-sm,aux
173,1038-1044,izbran,_,_,_,_,_,4,ADJ,Appmsnn,parataxis
174,1045-1050,drug,_,_,_,_,_,174,ADJ,Mlpmsny,nsubj
175,1051-1052,.,_,_,_,_,_,4,PUNCT,Z,punct
176,1053-1061,izdelava,_,_,_,_,_,174,NOUN,Ncfsn,nsubj
177,1062-1063,.,_,_,_,_,_,177,PUNCT,Z,punct
178,1064-1065,v,_,_,_,_,_,182,ADP,Sl,case
179,1066-1076,prihodnji,_,_,_,_,_,182,ADJ,Agpnpl,amod
180,1077-1082,pet,_,_,_,_,_,182,NUM,Mlc-pl,nummod
181,1083-1088,leto,_,_,_,_,_,187,NOUN,Ncnpl,obl
182,1089-1093,biti,_,_,_,_,_,187,AUX,Va-f3p-n,aux
183,1094-1097,kar,_,_,_,_,_,185,ADV,Rgp,advmod
184,1098-1101,122,_,_,_,_,_,186,NUM,Mdc,nummod
185,1102-1112,oklepnik,_,_,_,_,_,187,NOUN,Ncmpg,obj
186,1113-1121,izdelati,_,_,_,_,_,4,VERB,Vmep-pm,parataxis
187,1122-1123,v,_,_,_,_,_,191,ADP,Sl,case
188,1124-1131,posebej,_,_,_,_,_,191,ADV,Rgp,advmod
189,1132-1134,za,_,_,_,_,_,191,ADP,Sa,case
190,1135-1137,ta,_,_,_,_,_,187,DET,Pd-nsa,obl
191,1138-1140,na,_,_,_,_,_,196,ADP,Sl,case
192,1141-1145,nov,_,_,_,_,_,194,ADV,Rgp,advmod
193,1146-1154,zgrajen,_,_,_,_,_,196,ADJ,Appfsl,amod
194,1155-1165,šoštanjski,_,_,*->15-1,*[15],_,196,ADJ,Agpfsl,amod
195,1166-1173,tovarna,_,_,*->15-1,*[15],_,191,NOUN,Ncfsl,nmod
196,1174-1181,Gorenje,ORG[4],_,*->15-1,*[15],_,196,PROPN,Npnsn,nmod
197,1182-1187,Indop,ORG[4],_,*->15-1,*[15],_,197,PROPN,Npmsn,nmod
198,1188-1189,.,_,_,_,_,_,187,PUNCT,Z,punct
199,1190-1197,podatek,_,_,_,_,_,187,NOUN,Ncmpn,nsubj
200,1198-1199,.,_,_,_,_,_,187,PUNCT,Z,punct
201,1200-1208,oklepnik,_,_,_,_,_,203,NOUN,Ncmsn,nsubj
202,1209-1212,imeti,_,_,_,_,_,187,VERB,Vmpr3s-n,conj
203,1213-1218,pogon,_,_,_,_,_,203,NOUN,Ncmsan,obj
204,1219-1221,na,_,_,_,_,_,208,ADP,Sl,case
205,1222-1226,ves,_,_,_,_,_,208,DET,Pg-mpl,det
206,1227-1231,osem,_,_,_,_,_,208,NUM,Mlc-pa,nummod
207,1232-1237,kolo,_,_,_,_,_,204,NOUN,Ncnpg,nmod
208,1238-1239,",",_,_,_,_,_,212,PUNCT,Z,punct
209,1240-1242,ki,_,_,_,_,_,212,SCONJ,Cs,mark
210,1243-1246,on,_,_,_,_,_,212,PRON,Pp3mpa--y,obj
211,1247-1254,poganjati,_,_,_,_,_,208,VERB,Vmpr3s,acl
212,1255-1260,motor,_,_,_,_,_,212,NOUN,Ncmsn,nsubj
213,1261-1262,z,_,_,_,_,_,218,ADP,Si,case
214,1263-1272,približno,_,_,_,_,_,216,ADV,Rgp,advmod
215,1273-1276,500,_,_,_,_,_,218,NUM,Mdc,nummod
216,1277-1286,konjski,_,_,_,_,_,218,ADJ,Agpfpi,amod
217,1287-1292,moč,_,_,_,_,_,212,NOUN,Ncfpi,obl
218,1293-1294,.,_,_,_,_,_,212,PUNCT,Z,punct
219,1295-1300,kljub,_,_,_,_,_,223,ADP,Sd,case
220,1301-1307,svoj,_,_,_,_,_,223,DET,Px-fpd,det
221,1308-1310,23,_,_,_,_,_,223,NUM,Mdc,nummod
222,1311-1316,tona,_,_,_,_,_,227,NOUN,Ncfpd,obl
223,1317-1321,tako,_,_,_,_,_,227,ADV,Rgp,advmod
224,1322-1324,na,_,_,_,_,_,226,ADP,Sl,case
225,1325-1331,cesta,_,_,_,_,_,227,NOUN,Ncfpl,obl
226,1332-1338,doseg,_,_,_,_,_,4,VERB,Vmpr3s,parataxis
227,1339-1347,hitrost,_,_,_,_,_,227,NOUN,Ncfsg,obj
228,1348-1352,prek,_,_,_,_,_,231,ADP,Sg,case
229,1353-1356,sto,_,_,_,_,_,231,NUM,Mlc-pa,nummod
230,1357-1367,kilometer,_,_,_,_,_,228,NOUN,Ncmpg,nmod
231,1368-1370,na,_,_,_,_,_,233,ADP,Sa,case
232,1371-1374,ura,_,_,_,_,_,231,NOUN,Ncfsa,nmod
233,1375-1376,.,_,_,_,_,_,227,PUNCT,Z,punct
234,1377-1383,Patria,ORG,_,*->19-4,*[19],_,249,PROPN,Npfsn,nsubj
235,1384-1386,biti,_,_,_,_,_,249,AUX,Va-r3s-n,aux
236,1387-1388,v,_,_,_,_,_,238,ADP,Sl,case
237,1389-1395,izjava,_,_,_,_,_,249,NOUN,Ncfsl,obl
238,1396-1397,",",_,_,_,_,_,243,PUNCT,Z,punct
239,1398-1400,ki,_,_,_,_,_,243,SCONJ,Cs,mark
240,1401-1403,on,_,_,_,_,_,243,PRON,Pp3fsa--y,obj
241,1404-1406,biti,_,_,_,_,_,243,AUX,Va-r3s-n,aux
242,1407-1415,objaviti,_,_,_,_,_,238,VERB,Vmep-sf,acl
243,1416-1418,na,_,_,_,_,_,247,ADP,Sl,case
244,1419-1424,svoj,_,_,_,_,_,247,DET,Px-fsl,det
245,1425-1432,spleten,_,_,_,_,_,247,ADJ,Agpfsl,amod
246,1433-1439,stran,_,_,_,_,_,243,NOUN,Ncfsl,obl
247,1440-1441,",",_,_,_,_,_,243,PUNCT,Z,punct
248,1442-1450,zanikati,_,_,_,_,_,231,VERB,Vmep-sf,acl
249,1451-1458,obtožba,_,_,_,_,_,249,NOUN,Ncfpa,obj
250,1459-1461,in,_,_,_,_,_,254,CCONJ,Cc,cc
251,1462-1464,ob,_,_,_,_,_,253,ADP,Sl,case
252,1465-1468,ta,_,_,_,_,_,254,DET,Pd-nsl,obl
253,1469-1477,povedati,_,_,_,_,_,249,VERB,Vmep-sf,conj
254,1478-1479,",",_,_,_,_,_,261,PUNCT,Z,punct
255,1480-1482,da,_,_,_,_,_,261,SCONJ,Cs,mark
256,1483-1485,biti,_,_,_,_,_,261,AUX,Va-r3s-n,aux
257,1486-1489,NBI,ORG,_,*->6-7,*[6],_,261,PROPN,Npmsn,nsubj
258,1490-1491,v,_,_,_,_,_,260,ADP,Sa,case
259,1492-1497,torek,_,_,_,_,_,261,NOUN,Ncmsan,obl
260,1498-1506,preiskati,_,_,_,_,_,254,VERB,Vmep-sm,ccomp
261,1507-1510,dva,_,_,_,_,_,261,NUM,Mlcfda,obl
262,1511-1513,od,_,_,_,_,_,265,ADP,Sg,case
263,1514-1520,njen,_,_,_,_,_,265,DET,Ps3fpgsf,det
264,1521-1527,pisarna,_,_,_,_,_,262,NOUN,Ncfpg,nmod
265,1528-1529,.,_,_,_,_,_,261,PUNCT,Z,punct
266,1530-1533,pri,_,_,_,_,_,268,ADP,Sl,case
267,1534-1543,preiskava,_,_,_,_,_,270,NOUN,Ncfsl,obl
268,1544-1546,biti,_,_,_,_,_,270,AUX,Va-r3p-n,aux
269,1547-1554,zaseči,_,_,_,_,_,4,VERB,Vmep-pm,parataxis
270,1555-1562,podatek,_,_,_,_,_,270,NOUN,Ncmpa,obj
271,1563-1564,v,_,_,_,_,_,273,ADP,Sl,case
272,1565-1570,zveza,_,_,_,_,_,271,NOUN,Ncfsl,nmod
273,1571-1572,z,_,_,_,_,_,275,ADP,Si,case
274,1573-1580,pogodba,_,_,_,_,_,273,NOUN,Ncfsi,nmod
275,1581-1582,z,_,_,_,_,_,277,ADP,Si,case
276,1583-1592,Slovenija,LOC,_,*->21-3,*[21],_,275,PROPN,Npfsi,nmod
277,1593-1595,in,_,_,_,_,_,280,CCONJ,Cc,cc
278,1596-1597,z,_,_,_,_,_,280,ADP,Si,case
279,1598-1603,delo,_,_,_,_,_,275,NOUN,Ncnsi,conj
280,1604-1605,",",_,_,_,_,_,284,PUNCT,Z,punct
281,1606-1608,ki,_,_,_,_,_,284,SCONJ,Cs,mark
282,1609-1611,biti,_,_,_,_,_,284,AUX,Va-r3s-n,aux
283,1612-1618,voditi,_,_,_,_,_,280,VERB,Vmpp-sn,acl
284,1619-1621,do,_,_,_,_,_,286,ADP,Sg,case
285,1622-1631,sklenitev,_,_,_,_,_,284,NOUN,Ncfsg,obl
286,1632-1639,pogodba,_,_,_,_,_,286,NOUN,Ncfsg,nmod
287,1640-1641,.,_,_,_,_,_,4,PUNCT,Z,punct
288,1642-1643,"""",_,_,_,_,_,296,PUNCT,Z,punct
289,1644-1649,poleg,_,_,_,_,_,291,ADP,Sg,case
290,1650-1654,ta,_,_,_,_,_,296,DET,Pd-nsg,obl
291,1655-1657,na,_,_,_,_,_,293,ADP,Sa,case
292,1658-1663,želja,_,_,_,_,_,291,NOUN,Ncfsa,nmod
293,1664-1672,podjetje,_,_,*->19-5,*[19],_,293,NOUN,Ncnsg,nmod
294,1673-1677,tudi,_,_,_,_,_,296,PART,Q,advmod
295,1678-1689,preiskovati,_,_,_,_,_,4,VERB,Vmpr1p,root
296,1690-1691,",",_,_,_,_,_,304,PUNCT,Z,punct
297,1692-1695,ali,_,_,_,_,_,304,ADV,Rgp,mark
298,1696-1698,biti,_,_,_,_,_,304,AUX,Va-r3p-n,aux
299,1699-1703,biti,_,_,_,_,_,304,AUX,Va-p-pm,cop
300,1704-1705,v,_,_,_,_,_,302,ADP,Sl,case
301,1706-1715,poročilo,_,_,_,_,_,304,NOUN,Ncnpl,obl
302,1716-1723,medij,_,_,_,_,_,302,NOUN,Ncmpg,nmod
303,1724-1734,objavljen,_,_,_,_,_,296,ADJ,Appmpn,ccomp
304,1735-1741,zaupen,_,_,_,_,_,307,ADJ,Agpmpn,amod
305,1742-1750,posloven,_,_,_,_,_,307,ADJ,Agpmpn,amod
306,1751-1758,podatek,_,_,_,_,_,304,NOUN,Ncmpn,nsubj
307,1759-1760,",",_,_,_,_,_,304,PUNCT,Z,punct
308,1761-1762,"""",_,_,_,_,_,311,PUNCT,Z,punct
309,1763-1765,biti,_,_,_,_,_,311,AUX,Va-r3s-n,aux
310,1766-1773,povedati,_,_,_,_,_,4,VERB,Vmep-sm,parataxis
311,1774-1780,visok,_,0,*->5-1,*[5],3 - Nevtralno[21],313,ADJ,Agpmsny,amod
312,1781-1792,predstavnik,_,0,*->5-1,*[5],3 - Nevtralno[21],311,NOUN,Ncmsn,nsubj
313,1793-1796,NBI,ORG,0,*->5-1|*->6-8,*[5]|*[6],3 - Nevtralno[21]|3 - Nevtralno[22],313,PROPN,Npmsn,nmod
314,1797-1802,Janne,PER[5],0,*->5-1,*[5],3 - Nevtralno[21],314,PROPN,Npmsn,flat:name
315,1803-1812,Jaervinen,PER[5],0,*->5-1,*[5],3 - Nevtralno[21],315,PROPN,Npmsn,flat:name
316,1813-1814,.,_,_,_,_,_,304,PUNCT,Z,punct
317,1815-1821,Finska,LOC,0,*->7-1,*[7],3 - Nevtralno,320,PROPN,Npfsn,nsubj
318,1822-1824,biti,_,_,_,_,_,320,AUX,Va-r3s-n,cop
319,1825-1833,lastnica,_,_,_,_,_,311,NOUN,Ncfsn,nsubj
320,1834-1836,73,_,_,_,_,_,323,NUM,Mdc,nummod
321,1837-1838,-,_,_,_,_,_,323,PUNCT,Z,punct
322,1839-1849,odstoten,_,_,_,_,_,324,ADJ,Agpmsg,amod
323,1850-1856,delež,_,_,_,_,_,320,NOUN,Ncmsg,nmod
324,1857-1863,Patrie,ORG,_,*->19-6,*[19],_,324,PROPN,Npfsg,nmod
325,1864-1865,",",_,_,_,_,_,330,PUNCT,Z,punct
326,1866-1872,medtem,_,_,_,_,_,330,ADV,Rgp,mark
327,1873-1875,ko,_,_,_,_,_,327,SCONJ,Cs,fixed
328,1876-1878,biti,_,_,_,_,_,330,AUX,Va-r3s-n,aux
329,1879-1889,preostal,_,_,_,_,_,324,ADJ,Appmpg,acl
330,1890-1892,27,_,_,_,_,_,332,NUM,Mdc,nummod
331,1893-1902,odstotek,_,_,_,_,_,330,NOUN,Ncmpg,nsubj
332,1903-1904,v,_,_,_,_,_,334,ADP,Sl,case
333,1905-1910,last,_,_,_,_,_,332,NOUN,Ncfsl,nmod
334,1911-1919,evropski,ORG[6],_,*->8-1,*[8],_,340,ADJ,Agpfsg,amod
335,1920-1932,aeronavtičen,ORG[6],_,*->8-1,*[8],_,340,ADJ,Agpfsg,amod
336,1933-1941,obramben,ORG[6],_,*->8-1,*[8],_,340,ADJ,Agpfsg,amod
337,1942-1944,in,ORG[6],_,*->8-1,*[8],_,339,CCONJ,Cc,cc
338,1945-1954,vesoljski,ORG[6],_,*->8-1,*[8],_,337,ADJ,Agpfsg,conj
339,1955-1963,agencija,ORG[6],_,*->8-1,*[8],_,334,NOUN,Ncfsg,nmod
340,1964-1965,(,_,_,_,_,_,342,PUNCT,Z,punct
341,1966-1970,EADS,ORG,0,*->8-2,*[8],3 - Nevtralno,340,PROPN,Npmsn,appos
342,1971-1972,),_,_,_,_,_,342,PUNCT,Z,punct
343,1973-1974,.,_,_,_,_,_,330,PUNCT,Z,punct
344,1975-1984,namestnik,_,_,*->20-1,*[20],_,356,NOUN,Ncmsn,nsubj
345,1985-1995,direktor,_,_,*->20-1,*[20],_,345,NOUN,Ncmsg,nmod
346,1996-2002,Patrie,ORG[7],_,*->20-1|*->19-7,*[20]|*[19],_,346,PROPN,Npfsg,nmod
347,2003-2012,Slovenija,ORG[7]|LOC[8],_,*->20-1|*->19-7|*->21-4,*[20]|*[19]|*[21],_,347,PROPN,Npfsn,nmod
348,2013-2019,Andrey,PER[9],_,*->20-1,*[20],_,345,PROPN,Npmsn,nmod
349,2020-2028,Mladen,PER[9],_,*->20-1,*[20],_,349,PROPN,Npmsg,flat:name
350,2029-2031,pa,_,_,_,_,_,356,CCONJ,Cc,advmod
351,2032-2034,biti,_,_,_,_,_,356,AUX,Va-r3s-n,aux
352,2035-2037,za,_,_,_,_,_,354,ADP,Sa,case
353,2038-2040,TV,ORG[10],0,*->22-1,*[22],3 - Nevtralno[23],356,PROPN,Npmsan,obl
354,2041-2050,Slovenija,ORG[10]|LOC[11],0,*->22-1|*->21-5,*[22]|*[21],3 - Nevtralno[23],354,PROPN,Npfsn,nmod
355,2051-2058,potrditi,_,_,_,_,_,4,VERB,Vmep-sm,parataxis
356,2059-2060,",",_,_,_,_,_,360,PUNCT,Z,punct
357,2061-2063,da,_,_,_,_,_,360,SCONJ,Cs,mark
358,2064-2067,biti,_,_,_,_,_,360,AUX,Va-r3d-n,aux
359,2068-2072,biti,_,_,_,_,_,356,VERB,Va-p-dm,ccomp
360,2073-2074,v,_,_,_,_,_,362,ADP,Sl,case
361,2075-2081,zadeva,_,_,_,_,_,360,NOUN,Ncfsl,obl
362,2082-2083,",",_,_,_,_,_,364,PUNCT,Z,punct
363,2084-2092,povezan,_,_,_,_,_,362,ADJ,Appmdn,amod
364,2093-2094,z,_,_,_,_,_,367,ADP,Si,case
365,2095-2105,slovenski,_,_,_,_,_,367,ADJ,Agpmsi,amod
366,2106-2115,projekt,_,_,_,_,_,364,NOUN,Ncmsi,obl
367,2116-2117,",",_,_,_,_,_,371,PUNCT,Z,punct
368,2118-2124,zaradi,_,_,_,_,_,370,ADP,Sg,case
369,2125-2135,zaslišanje,_,_,_,_,_,371,NOUN,Ncnsg,obl
370,2136-2145,pridržan,_,_,_,_,_,360,ADJ,Appfdn,advcl
371,2146-2149,dva,_,_,_,_,_,373,NUM,Mlcfdn,nummod
372,2150-2155,oseba,_,_,_,_,_,371,NOUN,Ncfda,nsubj
373,2156-2158,iz,_,_,_,_,_,376,ADP,Sg,case
374,2159-2165,finski,_,_,*->19-8,*[19],_,376,ADJ,Agpfsg,amod
375,2166-2172,Patrie,ORG,_,*->19-8,*[19],_,373,PROPN,Npfsg,nmod
376,2173-2174,.,_,_,_,_,_,356,PUNCT,Z,punct
377,2175-2176,"""",_,_,_,_,_,371,PUNCT,Z,punct
378,2177-2178,v,_,_,_,_,_,381,ADP,Sl,case
379,2179-2182,ta,_,_,_,_,_,381,DET,Pd-msl,det
380,2183-2191,trenutek,_,_,_,_,_,382,NOUN,Ncmsl,obl
381,2192-2197,imeti,_,_,_,_,_,371,VERB,Vmpr1s-y,advcl
382,2198-2205,noben,_,_,_,_,_,385,DET,Pz-fpg,det
383,2206-2212,drug,_,_,_,_,_,385,ADJ,Mlpfpg,amod
384,2213-2223,informacija,_,_,_,_,_,382,NOUN,Ncfpg,obj
385,2224-2225,",",_,_,_,_,_,382,PUNCT,Z,punct
386,2226-2231,lahko,_,_,_,_,_,389,ADV,Rgp,advmod
387,2232-2234,pa,_,_,_,_,_,389,CCONJ,Cc,advmod
388,2235-2244,zagotoviti,_,_,*->20-2,*[20],_,382,VERB,Vmer1s,conj
389,2245-2246,",",_,_,_,_,_,395,PUNCT,Z,punct
390,2247-2249,da,_,_,_,_,_,395,SCONJ,Cs,mark
391,2250-2256,Patria,ORG,2,*->19-9,*[19],2 - Negativno,395,PROPN,Npmsn,nsubj
392,2257-2258,v,_,_,_,_,_,394,ADP,Sl,case
393,2259-2265,celota,_,_,_,_,_,395,NOUN,Ncfsl,obl
394,2266-2274,sodelovati,_,_,_,_,_,389,VERB,Vmpr3s,ccomp
395,2275-2276,z,_,_,_,_,_,398,ADP,Si,case
396,2277-2291,preiskovalen,_,_,_,_,_,398,ADJ,Agpmpi,amod
397,2292-2298,organ,_,_,_,_,_,395,NOUN,Ncmpi,obl
398,2299-2300,",",_,_,_,_,_,395,PUNCT,Z,punct
399,2301-2302,"""",_,_,_,_,_,403,PUNCT,Z,punct
400,2303-2305,biti,_,_,_,_,_,403,AUX,Va-r3s-n,aux
401,2306-2308,še,_,_,_,_,_,403,PART,Q,advmod
402,2309-2316,povedati,_,_,_,_,_,4,VERB,Vmep-sm,parataxis
403,2317-2325,Mladenov,PER,0,*->20-3,*[20],3 - Nevtralno,403,ADJ,Aspmsnn,nsubj
404,2326-2327,.,_,_,_,_,_,4,PUNCT,Z,punct
405,2328-2335,Erjavec,PER,_,*->11-1,*[11],_,403,PROPN,Npmsn,nsubj
406,2336-2337,:,_,_,_,_,_,406,PUNCT,Z,punct
407,2338-2343,nihče,_,_,_,_,_,403,PRON,Pz-msn,nsubj
408,2344-2345,",",_,_,_,_,_,412,PUNCT,Z,punct
409,2346-2348,ki,_,_,_,_,_,412,SCONJ,Cs,mark
410,2349-2351,biti,_,_,_,_,_,412,AUX,Va-r3s-n,aux
411,2352-2361,sodelovati,_,_,_,_,_,408,VERB,Vmpp-sm,acl
412,2362-2363,z,_,_,_,_,_,415,ADP,Si,case
413,2364-2371,poln,_,_,_,_,_,415,ADJ,Agpnpi,amod
414,2372-2383,pooblastiti,_,_,_,_,_,412,NOUN,Ncnpi,obl
415,2384-2385,",",_,_,_,_,_,412,PUNCT,Z,punct
416,2386-2388,biti,_,_,_,_,_,418,AUX,Va-r3s-y,aux
417,2389-2395,prejeti,_,_,_,_,_,403,VERB,Vmep-sm,conj
418,2396-2402,noben,_,_,_,_,_,420,DET,Pz-fsg,det
419,2403-2413,podkupnina,_,_,_,_,_,418,NOUN,Ncfsg,obj
420,2414-2422,obramben,_,_,*->11-2,*[11],_,422,ADJ,Agpmsny,amod
421,2423-2431,minister,_,_,*->11-2,*[11],_,418,NOUN,Ncmsn,nsubj
422,2432-2436,Karl,PER[12],_,*->11-2,*[11],_,422,PROPN,Npmsn,nmod
423,2437-2444,Erjavec,PER[12],_,*->11-2,*[11],_,423,PROPN,Npmsn,flat:name
424,2445-2447,biti,_,_,_,_,_,429,AUX,Va-r3s-n,aux
425,2448-2450,za,_,_,_,_,_,427,ADP,Sa,case
426,2451-2456,Radia,ORG[13],0,*->9-1,*[9],3 - Nevtralno[24],429,PROPN,Npmsan,obl
427,2457-2466,Slovenija,ORG[13]|LOC[14],0,*->9-1|*->21-6,*[9]|*[21],3 - Nevtralno[24],427,PROPN,Npfsn,nmod
428,2467-2472,dejati,_,_,_,_,_,418,VERB,Vmep-sm,conj
429,2473-2474,",",_,_,_,_,_,435,PUNCT,Z,punct
430,2475-2477,da,_,_,_,_,_,435,SCONJ,Cs,mark
431,2478-2479,"""",_,_,_,_,_,435,PUNCT,Z,punct
432,2480-2483,kar,_,_,_,_,_,435,PRON,Pr-nsn,nsubj
433,2484-2486,se,_,_,_,_,_,435,PRON,Px------y,expl
434,2487-2491,tikati,_,_,_,_,_,429,VERB,Vmpr3s,ccomp
435,2492-2503,ministrstvo,ORG[15],0,*->10-1,*[10],3 - Nevtralno[25],435,NOUN,Ncnsg,obj
436,2504-2506,za,ORG[15],0,*->10-1,*[10],3 - Nevtralno[25],438,ADP,Sa,case
437,2507-2514,obramba,ORG[15],0,*->10-1,*[10],3 - Nevtralno[25],436,NOUN,Ncfsa,nmod
438,2515-2516,",",_,_,_,_,_,435,PUNCT,Z,punct
439,2517-2522,lahko,_,_,_,_,_,442,ADV,Rgp,advmod
440,2523-2532,odgovorno,_,_,_,_,_,442,ADV,Rgp,advmod
441,2533-2538,trditi,_,_,*->11-3,*[11],_,429,VERB,Vmpr1s,conj
442,2539-2540,",",_,_,_,_,_,455,PUNCT,Z,punct
443,2541-2543,da,_,_,_,_,_,455,SCONJ,Cs,mark
444,2544-2549,nihče,_,_,_,_,_,455,PRON,Pz-msn,nsubj
445,2550-2551,",",_,_,_,_,_,449,PUNCT,Z,punct
446,2552-2554,ki,_,_,_,_,_,449,SCONJ,Cs,mark
447,2555-2557,biti,_,_,_,_,_,449,AUX,Va-r3s-n,aux
448,2558-2567,sodelovati,_,_,_,_,_,445,VERB,Vmpp-sm,acl
449,2568-2569,z,_,_,_,_,_,452,ADP,Si,case
450,2570-2577,poln,_,_,_,_,_,452,ADJ,Agpnpi,amod
451,2578-2589,pooblastiti,_,_,_,_,_,449,NOUN,Ncnpi,obl
452,2590-2591,",",_,_,_,_,_,449,PUNCT,Z,punct
453,2592-2594,biti,_,_,_,_,_,455,AUX,Va-r3s-y,aux
454,2595-2601,prejeti,_,_,_,_,_,442,VERB,Vmep-sm,ccomp
455,2602-2608,noben,_,_,_,_,_,457,DET,Pz-fsg,det
456,2609-2619,podkupnina,_,_,_,_,_,455,NOUN,Ncfsg,obj
457,2620-2621,"""",_,_,_,_,_,455,PUNCT,Z,punct
458,2622-2623,.,_,_,_,_,_,442,PUNCT,Z,punct
459,2624-2631,Erjavec,PER,_,*->11-4,*[11],_,463,PROPN,Npmsn,nsubj
460,2632-2634,biti,_,_,_,_,_,463,AUX,Va-r3s-n,aux
461,2635-2637,še,_,_,_,_,_,463,PART,Q,advmod
462,2638-2645,povedati,_,_,_,_,_,4,VERB,Vmep-sm,parataxis
463,2646-2647,",",_,_,_,_,_,467,PUNCT,Z,punct
464,2648-2650,da,_,_,_,_,_,467,SCONJ,Cs,mark
465,2651-2653,biti,_,0,*->11-5,*[11],3 - Nevtralno[26],467,AUX,Va-r3s-n,cop
466,2654-2659,vesel,_,0,*->11-5,*[11],3 - Nevtralno[26],463,ADJ,Agpmsnn,ccomp
467,2660-2661,",",_,_,_,_,_,471,PUNCT,Z,punct
468,2662-2664,da,_,_,_,_,_,471,SCONJ,Cs,mark
469,2665-2667,biti,_,_,_,_,_,471,AUX,Va-r3s-n,aux
470,2668-2674,priti,_,_,_,_,_,463,VERB,Vmep-sn,ccomp
471,2675-2677,do,_,_,_,_,_,474,ADP,Sg,case
472,2678-2688,policijski,_,_,_,_,_,474,ADJ,Agpfsg,amod
473,2689-2698,preiskava,_,_,_,_,_,471,NOUN,Ncfsg,obl
474,2699-2700,",",_,_,_,_,_,485,PUNCT,Z,punct
475,2701-2704,ker,_,_,_,_,_,485,SCONJ,Cs,mark
476,2705-2707,se,_,_,_,_,_,485,PRON,Px------y,expl
477,2708-2710,biti,_,_,_,_,_,485,AUX,Va-f3s-n,aux
478,2711-2715,tako,_,_,_,_,_,481,ADV,Rgp,advmod
479,2716-2718,na,_,_,_,_,_,481,ADP,Sl,case
480,2719-2724,konec,_,_,_,_,_,485,NOUN,Ncmsl,obl
481,2725-2734,vprašanje,_,_,_,_,_,485,NOUN,Ncnsn,nsubj
482,2735-2746,morebiten,_,_,_,_,_,484,ADJ,Agpnsg,amod
483,2747-2759,podkupovanje,_,_,_,_,_,482,NOUN,Ncnsg,nmod
484,2760-2770,razjasniti,_,_,_,_,_,471,VERB,Vmep-sn,advcl
485,2771-2772,.,_,_,_,_,_,4,PUNCT,Z,punct
486,2773-2778,Cvikl,PER,_,*->12-1,*[12],_,490,PROPN,Npmsn,nsubj
487,2779-2780,:,_,_,_,_,_,487,PUNCT,Z,punct
488,2781-2786,biti,_,_,_,_,_,490,AUX,Va-r1s-y,cop
489,2787-2797,presenečen,_,_,_,_,_,4,ADJ,Appmsnn,parataxis
490,2798-2799,!,_,_,_,_,_,490,PUNCT,Z,punct
491,2800-2810,predsednik,_,_,*->12-2,*[12],_,490,NOUN,Ncmsn,nsubj
492,2811-2819,komisija,_,_,*->12-2,*[12],_,492,NOUN,Ncfsg,nmod
493,2820-2821,",",_,_,*->12-2,*[12],_,496,PUNCT,Z,punct
494,2822-2824,ki,_,_,*->12-2,*[12],_,496,SCONJ,Cs,mark
495,2825-2833,proučevati,_,_,*->12-2,*[12],_,493,VERB,Vmpr3s,acl
496,2834-2839,nakup,_,_,*->12-2,*[12],_,496,NOUN,Ncmsan,obj
497,2840-2850,oklepnik,_,_,*->12-2,*[12],_,497,NOUN,Ncmpg,nmod
498,2851-2854,8x8,_,_,*->12-2,*[12],_,498,NUM,Mdc,nummod
499,2855-2856,",",_,_,_,_,_,501,PUNCT,Z,punct
500,2857-2862,Milan,PER[16],_,*->12-3,*[12],_,504,PROPN,Npmsn,nmod
501,2863-2864,M,PER[16],_,*->12-3,*[12],_,501,PROPN,Npmsn,flat:name
502,2865-2866,.,PER[16],_,*->12-3,*[12],_,490,PUNCT,Z,punct
503,2867-2872,Cvikl,PER[16],_,*->12-3,*[12],_,493,PROPN,Npmsn,conj
504,2873-2874,",",_,_,_,_,_,504,PUNCT,Z,punct
505,2875-2878,nad,_,_,_,_,_,507,ADP,Si,case
506,2879-2885,zadeva,_,_,_,_,_,509,NOUN,Ncfsi,obl
507,2886-2888,biti,_,_,_,_,_,509,AUX,Va-r3s-y,cop
508,2889-2899,presenečen,_,_,_,_,_,504,ADJ,Appmsnn,parataxis
509,2900-2901,.,_,_,_,_,_,490,PUNCT,Z,punct
510,2902-2903,"""",_,_,_,_,_,509,PUNCT,Z,punct
511,2904-2906,jaz,_,_,_,_,_,516,PRON,Pp1-sd--y,obj
512,2907-2909,že,_,_,_,_,_,516,PART,Q,advmod
513,2910-2913,ves,_,_,_,_,_,515,DET,Pg-msa,det
514,2914-2917,čas,_,_,_,_,_,516,NOUN,Ncmsan,obl
515,2918-2924,trditi,_,_,_,_,_,509,VERB,Vmpr1p,conj
516,2925-2926,",",_,_,_,_,_,519,PUNCT,Z,punct
517,2927-2929,da,_,_,_,_,_,519,SCONJ,Cs,mark
518,2930-2933,iti,_,_,_,_,_,516,VERB,Vmbr3s,ccomp
519,2934-2936,za,_,_,_,_,_,524,ADP,Sa,case
520,2937-2949,negospodaren,_,_,_,_,_,524,ADJ,Agpmsan,amod
521,2950-2952,in,_,_,_,_,_,523,CCONJ,Cc,cc
522,2953-2968,netransparenten,_,_,_,_,_,521,ADJ,Agpmsan,conj
523,2969-2974,posel,_,_,_,_,_,519,NOUN,Ncmsan,obl
524,2975-2976,",",_,_,_,_,_,519,PUNCT,Z,punct
525,2977-2978,"""",_,_,_,_,_,527,PUNCT,Z,punct
526,2979-2986,pojasniti,_,_,_,_,_,516,VERB,Vmer3s,parataxis
527,2987-2992,Cvikl,PER,_,*->12-4,*[12],_,527,PROPN,Npmsn,nsubj
528,2993-2994,.,_,_,_,_,_,516,PUNCT,Z,punct
529,2995-2996,"""",_,_,_,_,_,533,PUNCT,Z,punct
530,2997-3001,zato,_,_,_,_,_,533,CCONJ,Cc,cc
531,3002-3006,tudi,_,_,_,_,_,533,PART,Q,advmod
532,3007-3012,voditi,_,_,*->12-5,*[12],_,527,VERB,Vmpr1s,conj
533,3013-3025,preiskovalen,_,_,_,_,_,535,ADJ,Agpfsa,amod
534,3026-3034,komisija,_,_,_,_,_,533,NOUN,Ncfsa,obj
535,3035-3036,",",_,_,_,_,_,549,PUNCT,Z,punct
536,3037-3039,ki,_,_,_,_,_,549,SCONJ,Cs,mark
537,3040-3042,biti,_,_,_,_,_,549,AUX,Va-r3s-n,aux
538,3043-3044,",",_,_,_,_,_,544,PUNCT,Z,punct
539,3045-3049,bolj,_,_,_,_,_,544,ADV,Rgc,mark
540,3050-3052,ko,_,_,_,_,_,540,SCONJ,Cs,fixed
541,3053-3055,se,_,_,_,_,_,544,PRON,Px------y,expl
542,3056-3058,biti,_,_,_,_,_,544,AUX,Va-r3s-n,aux
543,3059-3070,poglabljati,_,_,_,_,_,533,VERB,Vmpp-sf,advcl
544,3071-3072,v,_,_,_,_,_,547,ADP,Sa,case
545,3073-3075,ta,_,_,_,_,_,547,DET,Pd-msa,det
546,3076-3081,posel,_,_,_,_,_,544,NOUN,Ncmsan,obl
547,3082-3083,",",_,_,_,_,_,544,PUNCT,Z,punct
548,3084-3094,doživljati,_,_,_,_,_,535,VERB,Vmpp-sf,acl
549,3095-3098,ves,_,_,_,_,_,553,DET,Pg-mpa,det
550,3099-3107,močen,_,_,_,_,_,553,ADJ,Agcmpa,amod
551,3108-3117,političen,_,_,_,_,_,553,ADJ,Agpmpa,amod
552,3118-3126,pritisk,_,_,_,_,_,549,NOUN,Ncmpa,obj
553,3127-3128,.,_,_,_,_,_,533,PUNCT,Z,punct
554,3129-3136,pustiti,_,_,_,_,_,4,VERB,Vmem1p,parataxis
555,3137-3138,",",_,_,_,_,_,562,PUNCT,Z,punct
556,3139-3141,da,_,_,_,_,_,562,SCONJ,Cs,mark
557,3142-3146,biti,_,_,_,_,_,562,AUX,Va-f3p-n,aux
558,3147-3153,finski,_,0,*->14-2,*[14],3 - Nevtralno[27],560,ADJ,Agpmpn,amod
559,3154-3160,organ,_,0,*->14-2,*[14],3 - Nevtralno[27],562,NOUN,Ncmpn,nsubj
560,3161-3168,pregon,_,0,*->14-2,*[14],3 - Nevtralno[27],560,NOUN,Ncmsg,nmod
561,3169-3177,opraviti,_,_,_,_,_,555,VERB,Vmep-pm,ccomp
562,3178-3183,svoj,_,_,_,_,_,564,DET,Px-nsa,det
563,3184-3188,delo,_,_,_,_,_,562,NOUN,Ncnsa,obj
564,3189-3191,in,_,_,_,_,_,566,CCONJ,Cc,cc
565,3192-3202,pričakovati,_,0,*->12-6,*[12],3 - Nevtralno,562,VERB,Vmpr1s,conj
566,3203-3204,",",_,_,_,_,_,570,PUNCT,Z,punct
567,3205-3207,da,_,_,_,_,_,570,SCONJ,Cs,mark
568,3208-3212,biti,_,_,_,_,_,570,AUX,Va-f3p-n,aux
569,3213-3219,začeti,_,_,_,_,_,566,VERB,Vmep-pm,ccomp
570,3220-3226,delati,_,_,_,_,_,570,VERB,Vmpn,xcomp
571,3227-3231,tudi,_,_,_,_,_,571,PART,Q,advmod
572,3232-3241,slovenski,_,_,*->13-1,*[13],_,574,ADJ,Agpmpn,amod
573,3242-3248,organ,_,_,*->13-1,*[13],_,571,NOUN,Ncmpn,nsubj
574,3249-3256,pregon,_,_,*->13-1,*[13],_,574,NOUN,Ncmsg,nmod
575,3257-3258,.,_,_,_,_,_,562,PUNCT,Z,punct
576,3259-3260,"""",_,_,_,_,_,580,PUNCT,Z,punct
577,3261-3269,komentar,_,_,_,_,_,581,NOUN,Ncmsan,obj
578,3270-3273,biti,_,_,_,_,_,580,AUX,Va-r1p-n,aux
579,3274-3283,poskušati,_,_,_,_,_,4,VERB,Vmpp-pm,parataxis
580,3284-3290,dobiti,_,_,_,_,_,580,VERB,Vmen,xcomp
581,3291-3295,tudi,_,_,_,_,_,581,PART,Q,advmod
582,3296-3298,od,_,_,_,_,_,584,ADP,Sg,case
583,3299-3310,predsednik,_,_,*->16-1,*[16],_,581,NOUN,Ncmsg,obl
584,3311-3317,uprava,_,_,*->16-1,*[16],_,584,NOUN,Ncfsg,nmod
585,3318-3325,gorenje,ORG,0,*->16-1|*->15-2,*[16]|*[15],3 - Nevtralno,585,PROPN,Npnsg,nmod
586,3326-3327,",",_,_,_,_,_,588,PUNCT,Z,punct
587,3328-3334,Franjo,PER[17],0,*->16-2,*[16],3 - Nevtralno[28],586,PROPN,Npmsg,conj
588,3335-3342,Bobinc,PER[17],0,*->16-2,*[16],3 - Nevtralno[28],588,PROPN,Npmsg,flat:name
589,3343-3344,",",_,_,_,_,_,588,PUNCT,Z,punct
590,3345-3348,saj,_,_,_,_,_,594,CCONJ,Cc,cc
591,3349-3350,v,_,_,_,_,_,593,ADP,Sl,case
592,3351-3359,Šoštanj,LOC,0,*->17-1,*[17],3 - Nevtralno,594,PROPN,Npnsl,obl
593,3360-3370,izdelovati,_,_,_,_,_,581,VERB,Vmpr3p,conj
594,3371-3378,školjka,_,_,_,_,_,594,NOUN,Ncfsa,obj
595,3379-3388,oklepnik,_,_,_,_,_,595,NOUN,Ncmsg,nmod
596,3389-3390,",",_,_,_,_,_,594,PUNCT,Z,punct
597,3391-3397,vendar,_,_,_,_,_,602,CCONJ,Cc,cc
598,3398-3400,biti,_,_,_,_,_,602,AUX,Va-r3s-n,aux
599,3401-3407,njegov,_,_,_,_,_,601,DET,Ps3msnsm,det
600,3408-3415,telefon,_,_,_,_,_,602,NOUN,Ncmsn,nsubj
601,3416-3424,odzvoniti,_,_,_,_,_,594,VERB,Vmep-sm,conj
602,3425-3426,v,_,_,_,_,_,604,ADP,Sa,case
603,3427-3433,prazen,_,_,_,_,_,602,ADJ,Agpfsa,obl
604,3434-3435,.,_,_,_,_,_,594,PUNCT,Z,punct
605,3436-3442,ovadba,_,_,_,_,_,595,NOUN,Ncfsg,nmod
606,3443-3447,tudi,_,_,_,_,_,602,PART,Q,advmod
607,3448-3449,v,_,_,_,_,_,609,ADP,Sl,case
608,3450-3459,Slovenija,LOC,0,*->21-7,*[21],3 - Nevtralno,602,PROPN,Npfsl,obl
609,3460-3461,?,_,_,_,_,_,622,PUNCT,Z,punct
610,3462-3464,po,_,_,_,_,_,614,ADP,Sl,case
611,3465-3470,naš,_,_,_,_,_,614,DET,Ps1fplp,det
612,3471-3480,neuraden,_,_,_,_,_,614,ADJ,Agpfpl,amod
613,3481-3493,informacija,_,_,_,_,_,622,NOUN,Ncfpl,obl
614,3494-3496,pa,_,_,_,_,_,622,CCONJ,Cc,advmod
615,3497-3500,naj,_,_,_,_,_,622,PART,Q,advmod
616,3501-3503,biti,_,_,_,_,_,622,AUX,Va-c,aux
617,3504-3508,tudi,_,_,_,_,_,622,PART,Q,advmod
618,3509-3512,pri,_,_,_,_,_,620,ADP,Sl,case
619,3513-3516,jaz,_,_,_,_,_,622,PRON,Pp1-pl,obl
620,3517-3519,že,_,_,_,_,_,622,PART,Q,advmod
621,3520-3525,pasti,_,_,_,_,_,4,VERB,Vmep-pf,parataxis
622,3526-3530,prvi,_,_,_,_,_,625,ADJ,Mlofpa,amod
623,3531-3539,kazenski,_,_,_,_,_,625,ADJ,Agpfpa,amod
624,3540-3546,ovadba,_,_,_,_,_,622,NOUN,Ncfpa,obj
625,3547-3548,v,_,_,_,_,_,627,ADP,Sl,case
626,3549-3557,povezava,_,_,_,_,_,625,NOUN,Ncfsl,nmod
627,3558-3559,z,_,_,_,_,_,629,ADP,Si,case
628,3560-3567,nakup,_,_,_,_,_,627,NOUN,Ncmsi,nmod
629,3568-3578,oklepnik,_,_,_,_,_,629,NOUN,Ncmpg,nmod
630,3579-3580,.,_,_,_,_,_,641,PUNCT,Z,punct
631,3581-3589,tiskoven,_,0,*->18-1,*[18],3 - Nevtralno[29],633,ADJ,Agpmsny,amod
632,3590-3601,predstavnik,_,0,*->18-1,*[18],3 - Nevtralno[29],641,NOUN,Ncmsn,nsubj
633,3602-3610,policija,ORG,0,*->18-1|*->13-2,*[18]|*[13],3 - Nevtralno[29]|3 - Nevtralno[30],633,NOUN,Ncfsg,nmod
634,3611-3615,Leon,PER[18],0,*->18-1,*[18],3 - Nevtralno[29],633,PROPN,Npmsn,nmod
635,3616-3621,Keder,PER[18],0,*->18-1,*[18],3 - Nevtralno[29],635,PROPN,Npmsn,flat:name
636,3622-3625,jaz,_,_,_,_,_,642,PRON,Pp1-pd,obj
637,3626-3632,včeraj,_,_,_,_,_,642,ADV,Rgp,advmod
638,3633-3637,ta,_,_,_,_,_,642,DET,Pd-nsg,obj
639,3638-3640,biti,_,_,_,_,_,641,AUX,Va-r3s-y,aux
640,3641-3646,moči,_,_,_,_,_,622,VERB,Vmpp-sm,conj
641,3647-3656,preveriti,_,_,_,_,_,641,VERB,Vmen,xcomp
642,3657-3658,",",_,_,_,_,_,651,PUNCT,Z,punct
643,3659-3662,več,_,_,_,_,_,651,PART,Q,advmod
644,3663-3664,o,_,_,_,_,_,646,ADP,Sl,case
645,3665-3668,ta,_,_,_,_,_,651,DET,Pd-nsl,obl
646,3669-3671,pa,_,_,_,_,_,651,CCONJ,Cc,advmod
647,3672-3674,na,_,_,_,_,_,646,ADP,Sl,case
648,3675-3677,biti,_,_,_,_,_,651,AUX,Va-c,aux
649,3678-3682,biti,_,_,_,_,_,651,AUX,Va-p-sn,cop
650,3683-3690,znan,_,_,_,_,_,641,ADJ,Appmsg,advcl
651,3691-3692,v,_,_,_,_,_,653,ADP,Sa,case
652,3693-3700,četrtek,_,_,_,_,_,651,NOUN,Ncmsan,obl
