idx,chars_idx,token,entity_type,sentiment,idk_1,idk_2,orig_sentiment,heads,upos,xpos,deprel
0,0-2,na,_,_,_,_,_,3,ADP,Sl,case
1,3-11,okrožen,_,_,_,_,_,3,ADJ,Agpnsl,amod
2,12-19,sodišče,_,_,_,_,_,8,NOUN,Ncnsl,obl
3,20-21,v,_,_,_,_,_,5,ADP,Sl,case
4,22-30,Maribor,LOC,_,*->1-1,*[1],_,3,PROPN,Npmsl,nmod
5,31-33,se,_,_,_,_,_,8,PRON,Px------y,expl
6,34-36,biti,_,_,_,_,_,8,AUX,Va-r3s-n,aux
7,37-43,začeti,_,_,_,_,_,0,VERB,Vmep-sn,root
8,44-51,sojenje,_,_,_,_,_,8,NOUN,Ncnsn,nsubj
9,52-54,20,_,_,*->14-1,*[14],_,12,NUM,Mdc,nummod
10,55-56,-,_,_,*->14-1,*[14],_,12,PUNCT,Z,punct
11,57-64,leten,_,_,*->14-1,*[14],_,13,ADJ,Agpmsd,amod
12,65-77,Ljubljančan,_,_,*->14-1,*[14],_,9,PROPN,Npmsd,nmod
13,78-84,Elvis,PER[1],_,*->14-1,*[14],_,13,PROPN,Npmsd,flat:name
14,85-93,Livadić,PER[1],_,*->14-1,*[14],_,14,PROPN,Npmsd,flat:name
15,94-96,in,_,_,_,_,_,18,CCONJ,Cc,cc
16,97-102,peti,_,_,_,_,_,18,ADJ,Mlompd,amod
17,103-114,soobtožen,_,_,_,_,_,13,ADJ,Appmpd,conj
18,115-121,zaradi,_,_,_,_,_,20,ADP,Sg,case
19,122-127,umor,_,_,_,_,_,18,NOUN,Ncmsg,nmod
20,128-132,pred,_,_,_,_,_,23,ADP,Si,case
21,133-143,mariborski,_,0,*->2-1,*[2],3 - Nevtralno[17],23,ADJ,Agpfsi,amod
22,144-153,diskoteka,_,0,*->2-1,*[2],3 - Nevtralno[17],20,NOUN,Ncfsi,nmod
23,154-159,Trust,ORG,0,*->2-1,*[2],3 - Nevtralno[17],23,PROPN,Npmsn,nmod
24,160-161,.,_,_,_,_,_,8,PUNCT,Z,punct
25,162-169,Livadić,PER,_,*->14-2,*[14],_,31,PROPN,Npmsn,nsubj
26,170-173,naj,_,_,_,_,_,31,PART,Q,advmod
27,174-176,biti,_,_,_,_,_,31,AUX,Va-c,aux
28,177-179,po,_,_,_,_,_,30,ADP,Sl,case
29,180-190,prerivanje,_,_,_,_,_,31,NOUN,Ncnsl,obl
30,191-197,stopiti,_,_,_,_,_,8,VERB,Vmep-sm,parataxis
31,198-200,do,_,_,_,_,_,34,ADP,Sg,case
32,201-208,svoj,_,_,_,_,_,34,DET,Px-msg,det
33,209-213,avto,_,_,_,_,_,31,NOUN,Ncmsg,obl
34,214-215,",",_,_,_,_,_,36,PUNCT,Z,punct
35,216-220,vzeti,_,_,*->14-3,*[14],_,31,VERB,Vmep-sm,parataxis
36,221-229,japonski,_,_,_,_,_,38,ADJ,Agpmsay,amod
37,230-233,meč,_,_,_,_,_,36,NOUN,Ncmsan,obj
38,234-240,katan,_,_,_,_,_,38,NOUN,Ncmsg,nmod
39,241-243,in,_,_,_,_,_,44,CCONJ,Cc,cc
40,244-245,z,_,_,_,_,_,42,ADP,Si,case
41,246-250,on,_,_,_,_,_,44,PRON,Pp3msi,obl
42,251-255,Moma,PER,_,*->3-1,*[3],_,44,PROPN,Npmsn,nsubj
43,256-263,zabodeti,_,_,*->14-4,*[14],_,36,VERB,Vmep-sm,conj
44,264-265,v,_,_,_,_,_,47,ADP,Sa,case
45,266-271,prsen,_,_,_,_,_,47,ADJ,Agpmsay,amod
46,272-275,koš,_,_,_,_,_,44,NOUN,Ncmsan,obl
47,276-277,",",_,_,_,_,_,53,PUNCT,Z,punct
48,278-284,zaradi,_,_,_,_,_,50,ADP,Sg,case
49,285-290,kar,_,_,_,_,_,53,PRON,Pr-nsg,obl
50,291-293,biti,_,_,_,_,_,53,AUX,Va-r3s-n,aux
51,294-296,ta,_,_,*->3-2,*[3],_,53,DET,Pd-msn,nsubj
52,297-306,izkrvaveti,_,_,_,_,_,47,VERB,Vmep-sm,acl
53,307-308,v,_,_,_,_,_,56,ADP,Sl,case
54,309-314,nekaj,_,_,_,_,_,56,DET,Rgp,det
55,315-322,minuta,_,_,_,_,_,53,NOUN,Ncfpl,obl
56,323-324,.,_,_,_,_,_,53,PUNCT,Z,punct
57,325-326,©,_,_,_,_,_,65,NOUN,Ncmsn,nsubj
58,327-338,IStockphoto,_,_,_,_,_,65,PROPN,Npmsn,nsubj
59,339-345,medtem,_,_,_,_,_,65,ADV,Rgp,mark
60,346-348,ko,_,_,_,_,_,65,SCONJ,Cs,mark
61,349-351,biti,_,_,_,_,_,65,AUX,Va-r3s-n,aux
62,352-357,Elvis,PER[2],_,*->14-5,*[14],_,65,PROPN,Npmsn,nsubj
63,358-365,Livadić,PER[2],_,*->14-5,*[14],_,63,PROPN,Npmsn,flat:name
64,366-372,molčati,_,_,_,_,_,53,VERB,Vmpp-sm,advcl
65,373-374,",",_,_,_,_,_,65,PUNCT,Z,punct
66,375-377,biti,_,_,_,_,_,69,AUX,Va-r3p-n,aux
67,378-383,drug,_,_,_,_,_,69,ADJ,Mlpmpn,nsubj
68,384-390,podati,_,_,_,_,_,8,VERB,Vmbp-pm,parataxis
69,391-395,vsak,_,_,_,_,_,72,DET,Pg-msa,det
70,396-401,svoj,_,_,_,_,_,72,DET,Px-fsa,det
71,402-411,različica,_,_,_,_,_,69,NOUN,Ncfsa,obj
72,412-419,dogodek,_,_,_,_,_,72,NOUN,Ncmsg,nmod
73,420-421,",",_,_,_,_,_,77,PUNCT,Z,punct
74,422-428,zlasti,_,_,_,_,_,77,PART,Q,advmod
75,429-430,o,_,_,_,_,_,77,ADP,Sl,case
76,431-434,ta,_,_,_,_,_,69,DET,Pd-nsl,obl
77,435-436,",",_,_,_,_,_,82,PUNCT,Z,punct
78,437-440,kaj,_,_,_,_,_,82,PRON,Pq-nsn,nsubj
79,441-443,se,_,_,_,_,_,82,PRON,Px------y,expl
80,444-446,biti,_,_,_,_,_,82,AUX,Va-r3s-n,aux
81,447-455,dogajati,_,_,_,_,_,77,VERB,Vmpp-sn,acl
82,456-465,naslednji,_,_,_,_,_,84,ADJ,Agpmsny,amod
83,466-469,dan,_,_,_,_,_,82,NOUN,Ncmsan,obl
84,470-471,.,_,_,_,_,_,82,PUNCT,Z,punct
85,472-479,okrožen,_,_,*->4-1,*[4],_,87,ADJ,Agpfsn,amod
86,480-487,tožilka,_,_,*->4-1,*[4],_,125,NOUN,Ncfsn,nsubj
87,488-492,Alja,PER[3],_,*->4-1,*[4],_,87,PROPN,Npfsn,nmod
88,493-503,Kramberger,PER[3],_,*->4-1,*[4],_,88,PROPN,Npfsn,flat:name
89,504-510,Kirbiš,PER[3],_,*->4-1,*[4],_,88,PROPN,Npfsn,flat:name
90,511-513,biti,_,_,_,_,_,125,AUX,Va-r3s-n,aux
91,514-515,v,_,_,_,_,_,93,ADP,Sl,case
92,516-525,obtožnica,_,_,_,_,_,125,NOUN,Ncfsl,obl
93,526-535,pojasnilo,_,_,_,_,_,93,NOUN,Ncnsg,nmod
94,536-546,okoliščina,_,_,_,_,_,94,NOUN,Ncfsg,nmod
95,547-554,dogodek,_,_,_,_,_,95,NOUN,Ncmsg,nmod
96,555-556,",",_,_,_,_,_,101,PUNCT,Z,punct
97,557-559,ki,_,_,_,_,_,101,SCONJ,Cs,mark
98,560-562,biti,_,_,_,_,_,101,AUX,Va-r3p-n,aux
99,563-567,biti,_,_,_,_,_,101,AUX,Va-p-pf,cop
100,568-579,ugotovljen,_,_,_,_,_,96,ADJ,Appfpn,acl
101,580-581,v,_,_,_,_,_,104,ADP,Sl,case
102,582-595,preiskovalen,_,_,_,_,_,104,ADJ,Agpmsl,amod
103,596-604,postopek,_,_,_,_,_,101,NOUN,Ncmsl,obl
104,605-606,.,_,_,_,_,_,101,PUNCT,Z,punct
105,607-614,zabodeti,_,_,*->14-6,*[14],_,8,VERB,Vmep-sm,parataxis
106,615-617,on,_,_,*->3-3,*[3],_,106,PRON,Pp3msa--y,obj
107,618-620,biti,_,_,_,_,_,106,AUX,Va-r3s-n,aux
108,621-622,z,_,_,_,_,_,111,ADP,Si,case
109,623-632,japonski,_,_,_,_,_,111,ADJ,Agpmsi,amod
110,633-638,meč,_,_,_,_,_,106,NOUN,Ncmsi,obl
111,639-641,28,_,_,*->3-4,*[3],_,114,NUM,Mdc,nummod
112,642-643,-,_,_,*->3-4,*[3],_,114,PUNCT,Z,punct
113,644-649,leten,_,_,*->3-4,*[3],_,115,ADJ,Agpmsny,amod
114,650-656,Gregor,PER[4],_,*->3-4,*[3],_,125,PROPN,Npmsn,nsubj
115,657-660,Mom,PER[4],_,*->3-4,*[3],_,115,PROPN,Npmsn,flat:name
116,661-664,naj,_,_,_,_,_,125,PART,Q,advmod
117,665-667,biti,_,_,_,_,_,125,AUX,Va-c,aux
118,668-670,se,_,_,_,_,_,125,PRON,Px------y,expl
119,671-672,9,_,_,_,_,_,122,NUM,Mdc,nummod
120,673-674,.,_,_,_,_,_,106,PUNCT,Z,punct
121,675-683,december,_,_,_,_,_,125,NOUN,Ncmsg,obl
122,684-688,lani,_,_,_,_,_,122,ADV,Rgp,advmod
123,689-698,naključno,_,_,_,_,_,125,ADV,Rgp,advmod
124,699-703,spreti,_,_,_,_,_,8,VERB,Vmep-sm,parataxis
125,704-705,z,_,_,_,_,_,127,ADP,Si,case
126,706-715,Livadić,PER,_,*->14-7,*[14],_,125,PROPN,Npmsi,obl
127,716-717,",",_,_,_,_,_,125,PUNCT,Z,punct
128,718-720,ta,_,_,*->14-8,*[14],_,141,DET,Pd-msn,nsubj
129,721-723,pa,_,_,_,_,_,141,CCONJ,Cc,advmod
130,724-727,naj,_,_,_,_,_,141,PART,Q,advmod
131,728-730,biti,_,_,_,_,_,141,AUX,Va-c,aux
132,731-735,nato,_,_,_,_,_,141,ADV,Rgp,advmod
133,736-742,skupaj,_,_,_,_,_,141,ADV,Rgp,advmod
134,743-744,z,_,_,_,_,_,137,ADP,Si,case
135,745-754,preostati,_,_,_,_,_,137,ADJ,Appfsi,amod
136,755-763,peterica,_,_,_,_,_,141,NOUN,Ncfsi,obl
137,764-765,z,_,_,_,_,_,139,ADP,Si,case
138,766-770,on,_,_,*->3-5,*[3],_,137,PRON,Pp3msi,nmod
139,771-778,fizično,_,_,_,_,_,141,ADV,Rgp,advmod
140,779-788,obračunati,_,_,_,_,_,125,VERB,Vmep-sm,advcl
141,789-791,na,_,_,_,_,_,143,ADP,Sl,case
142,792-800,dvorišče,_,_,_,_,_,141,NOUN,Ncnsl,obl
143,801-802,.,_,_,_,_,_,141,PUNCT,Z,punct
144,803-810,Livadić,PER,_,*->14-9,*[14],_,150,PROPN,Npmsn,nsubj
145,811-814,naj,_,_,_,_,_,150,PART,Q,advmod
146,815-817,biti,_,_,_,_,_,150,AUX,Va-c,aux
147,818-820,po,_,_,_,_,_,149,ADP,Sl,case
148,821-831,prerivanje,_,_,_,_,_,150,NOUN,Ncnsl,obl
149,832-838,stopiti,_,_,_,_,_,141,VERB,Vmep-sm,conj
150,839-841,do,_,_,_,_,_,153,ADP,Sg,case
151,842-849,svoj,_,_,_,_,_,153,DET,Px-msg,det
152,850-854,avto,_,_,_,_,_,150,NOUN,Ncmsg,obl
153,855-856,",",_,_,_,_,_,150,PUNCT,Z,punct
154,857-861,vzeti,_,_,_,_,_,141,VERB,Vmep-sm,conj
155,862-870,japonski,_,_,_,_,_,157,ADJ,Agpmsay,amod
156,871-874,meč,_,_,_,_,_,155,NOUN,Ncmsan,obj
157,875-881,katan,_,_,_,_,_,157,NOUN,Ncmsg,nmod
158,882-884,in,_,_,_,_,_,163,CCONJ,Cc,cc
159,885-886,z,_,_,_,_,_,161,ADP,Si,case
160,887-891,on,_,_,_,_,_,163,PRON,Pp3msi,obl
161,892-896,Moma,PER,_,*->3-6,*[3],_,163,PROPN,Npmsn,nsubj
162,897-904,zabodeti,_,_,_,_,_,150,VERB,Vmep-sm,conj
163,905-906,v,_,_,_,_,_,166,ADP,Sa,case
164,907-912,prsen,_,_,_,_,_,166,ADJ,Agpmsay,amod
165,913-916,koš,_,_,_,_,_,163,NOUN,Ncmsan,obl
166,917-918,",",_,_,_,_,_,175,PUNCT,Z,punct
167,919-925,zaradi,_,_,_,_,_,182,ADP,Sg,case
168,926-931,kar,_,_,_,_,_,175,PRON,Pr-nsg,obl
169,932-934,biti,_,_,_,_,_,175,AUX,Va-r3s-n,aux
170,935-937,ta,_,_,*->3-7,*[3],_,175,DET,Pd-msn,nsubj
171,938-939,v,_,_,_,_,_,174,ADP,Sl,case
172,940-945,nekaj,_,_,_,_,_,174,DET,Rgp,det
173,946-953,minuta,_,_,_,_,_,175,NOUN,Ncfpl,obl
174,954-963,izkrvaveti,_,_,_,_,_,166,VERB,Vmep-sm,acl
175,964-965,.,_,_,_,_,_,8,PUNCT,Z,punct
176,966-976,Kramberger,PER[5],_,*->4-2,*[4],_,186,PROPN,Npmsn,nsubj
177,977-986,Kirbišev,PER[5],_,*->4-2,*[4],_,177,ADJ,Aspfsn,flat:name
178,987-989,biti,_,_,_,_,_,186,AUX,Va-r3s-n,aux
179,990-994,zato,_,_,_,_,_,186,ADV,Rgp,advmod
180,995-996,v,_,_,_,_,_,182,ADP,Sl,case
181,997-1006,obtožnica,_,_,_,_,_,186,NOUN,Ncfsl,obl
182,1007-1011,ves,_,_,_,_,_,185,DET,Pg-mpg,det
183,1012-1016,šest,_,_,_,_,_,185,NUM,Mlc-pa,nummod
184,1017-1028,udeleženec,_,_,_,_,_,182,NOUN,Ncmpg,nmod
185,1029-1037,obtožiti,_,_,_,_,_,8,VERB,Vmep-sf,parataxis
186,1038-1049,nasilništvo,_,_,_,_,_,186,NOUN,Ncnpa,obj
187,1050-1051,",",_,_,_,_,_,189,PUNCT,Z,punct
188,1052-1060,Livadić,PER,_,*->14-10,*[14],_,187,PROPN,Npmsay,conj
189,1061-1066,umor,_,_,_,_,_,189,NOUN,Ncmsay,flat:name
190,1067-1068,",",_,_,_,_,_,193,PUNCT,Z,punct
191,1069-1078,preostal,_,_,_,_,_,193,ADJ,Appfsa,amod
192,1079-1087,peterica,_,_,_,_,_,190,NOUN,Ncfsa,conj
193,1088-1089,",",_,_,_,_,_,197,PUNCT,Z,punct
194,1090-1092,21,_,_,*->5-1,*[5],_,197,NUM,Mdc,nummod
195,1093-1094,-,_,_,*->5-1,*[5],_,197,PUNCT,Z,punct
196,1095-1102,leten,_,_,*->5-1,*[5],_,198,ADJ,Agpmsd,amod
197,1103-1111,Gregorje,PER[6],_,*->5-1,*[5],_,189,PROPN,Npmsd,conj
198,1112-1122,Plahutnik,PER[6],_,*->5-1,*[5],_,198,PROPN,Npmsd,flat:name
199,1123-1125,in,_,_,_,_,_,201,CCONJ,Cc,cc
200,1126-1130,leto,_,_,*->6-1,*[6],_,198,NOUN,Ncnsa,conj
201,1131-1139,mlad,_,_,*->6-1,*[6],_,203,ADJ,Agcmsd,amod
202,1140-1145,brat,_,_,*->6-1,*[6],_,201,NOUN,Ncmsd,nmod
203,1146-1152,Dejan,PER[7],_,*->6-1,*[6],_,203,PROPN,Npmsd,nmod
204,1153-1163,Plahutnik,PER[7],_,*->6-1,*[6],_,204,PROPN,Npmsd,flat:name
205,1164-1166,iz,_,_,_,_,_,207,ADP,Sg,case
206,1167-1173,Škrilj,LOC[8],_,*->7-1,*[7],_,204,PROPN,Npfsg,nmod
207,1174-1177,pri,LOC[8],_,*->7-1,*[7],_,209,ADP,Sl,case
208,1178-1181,Igu,LOC[8]|LOC[9],_,*->7-1|*->10-1,*[7]|*[10],_,207,PROPN,Npmsl,nmod
209,1182-1183,",",_,_,_,_,_,214,PUNCT,Z,punct
210,1184-1186,23,_,0,*->8-1,*[8],3 - Nevtralno[18],213,NUM,Mdc,nummod
211,1187-1188,-,_,0,*->8-1,*[8],3 - Nevtralno[18],213,PUNCT,Z,punct
212,1189-1196,leten,_,0,*->8-1,*[8],3 - Nevtralno[18],214,ADJ,Agpmsd,amod
213,1197-1203,Tomaž,PER[10],0,*->8-1,*[8],3 - Nevtralno[18],207,PROPN,Npmsd,conj
214,1204-1213,Ropotar,PER[10],0,*->8-1,*[8],3 - Nevtralno[18],214,PROPN,Npmsd,flat:name
215,1214-1216,iz,_,_,_,_,_,217,ADP,Sg,case
216,1217-1225,Zagorica,LOC[11],0,*->9-1,*[9],3 - Nevtralno[19],214,PROPN,Npfsg,nmod
217,1226-1229,pri,LOC[11],0,*->9-1,*[9],3 - Nevtralno[19],219,ADP,Sl,case
218,1230-1233,Igu,LOC[11]|LOC[12],0,*->9-1|*->10-2,*[9]|*[10],3 - Nevtralno[19],214,PROPN,Npmsl,nmod
219,1234-1236,in,_,_,_,_,_,227,CCONJ,Cc,cc
220,1237-1239,23,_,_,_,_,_,227,NUM,Mdc,nummod
221,1240-1241,-,_,_,_,_,_,226,PUNCT,Z,punct
222,1242-1249,oziroma,_,_,_,_,_,226,CCONJ,Cc,cc
223,1250-1252,21,_,_,_,_,_,226,NUM,Mdc,nummod
224,1253-1254,-,_,_,_,_,_,226,PUNCT,Z,punct
225,1255-1262,leten,_,_,_,_,_,227,ADJ,Agpmdd,amod
226,1263-1270,brat,_,_,_,_,_,214,NOUN,Ncmpd,conj
227,1271-1278,Samir,PER,2,*->11-1,*[11],2 - Negativno,227,PROPN,Npmsd,nmod
228,1279-1281,in,_,_,_,_,_,230,CCONJ,Cc,cc
229,1282-1289,Damir,PER[13],_,*->12-1,*[12],_,227,PROPN,Npmsd,conj
230,1290-1296,Golić,PER[13],_,*->12-1,*[12],_,230,PROPN,Npmsd,flat:name
231,1297-1299,iz,_,_,_,_,_,234,ADP,Sg,case
232,1300-1304,iški,LOC[14],0,*->13-1,*[13],3 - Nevtralno[20],234,ADJ,Agpfsg,amod
233,1305-1309,vas,LOC[14],0,*->13-1,*[13],3 - Nevtralno[20],227,NOUN,Ncfsg,nmod
234,1310-1311,",",_,_,_,_,_,175,PUNCT,Z,punct
235,1312-1314,pa,_,_,_,_,_,238,CCONJ,Cc,advmod
236,1315-1317,biti,_,0,*->4-3,*[4],3 - Nevtralno[21],350,AUX,Va-f3s-n,aux
237,1318-1327,poskušati,_,0,*->4-3,*[4],3 - Nevtralno[21],8,VERB,Vmpp-sf,parataxis
238,1328-1336,dokazati,_,0,*->4-3,*[4],3 - Nevtralno[21],238,VERB,Vmen,xcomp
239,1337-1339,še,_,_,_,_,_,239,PART,Q,advmod
240,1340-1345,pomoč,_,_,_,_,_,239,NOUN,Ncfsa,obj
241,1346-1354,storilec,_,_,_,_,_,239,NOUN,Ncmsd,iobj
242,1355-1358,pri,_,_,_,_,_,245,ADP,Sl,case
243,1359-1367,kazniv,_,_,_,_,_,245,ADJ,Agpnsl,amod
244,1368-1375,dejanje,_,_,_,_,_,242,NOUN,Ncnsl,nmod
245,1376-1377,",",_,_,_,_,_,175,PUNCT,Z,punct
246,1378-1380,in,_,_,_,_,_,256,CCONJ,Cc,cc
247,1381-1386,sicer,_,_,_,_,_,253,PART,Q,advmod
248,1387-1388,z,_,_,_,_,_,250,ADP,Si,case
249,1389-1399,skrivanje,_,_,_,_,_,253,NOUN,Ncnsi,obl
250,1400-1412,obremenilen,_,_,_,_,_,252,ADJ,Agpmpg,amod
251,1413-1420,dokaz,_,_,_,_,_,250,NOUN,Ncmpg,nmod
252,1421-1422,–,_,_,_,_,_,256,PUNCT,Z,punct
253,1423-1425,že,_,_,_,_,_,253,PART,Q,advmod
254,1426-1436,omenjen,_,_,_,_,_,256,ADJ,Appmsg,amod
255,1437-1441,nož,_,_,_,_,_,242,NOUN,Ncmsg,conj
256,1442-1444,in,_,_,_,_,_,260,CCONJ,Cc,cc
257,1445-1455,Livadićev,PER,_,*->14-11,*[14],_,260,ADJ,Aspfsg,amod
258,1456-1467,okrvavljen,_,_,_,_,_,260,ADJ,Appfsg,amod
259,1468-1473,bunda,_,_,_,_,_,256,NOUN,Ncfsg,conj
260,1474-1475,.,_,_,_,_,_,8,PUNCT,Z,punct
261,1476-1481,povod,_,_,_,_,_,323,NOUN,Ncmsn,nsubj
262,1482-1484,za,_,_,_,_,_,264,ADP,Sa,case
263,1485-1493,incident,_,_,_,_,_,262,NOUN,Ncmsan,nmod
264,1494-1496,biti,_,_,_,_,_,323,AUX,Va-r3s-n,aux
265,1497-1500,biti,_,_,_,_,_,323,AUX,Va-p-sm,aux
266,1501-1508,alkohol,_,_,_,_,_,323,NOUN,Ncmsn,nsubj
267,1509-1515,zaradi,_,_,_,_,_,269,ADP,Sg,case
268,1516-1521,molka,_,_,_,_,_,267,NOUN,Ncmsg,nmod
269,1522-1536,prvoobtožen,_,_,*->14-12,*[14],_,276,ADJ,Appmsg,amod
270,1537-1539,in,_,_,_,_,_,272,CCONJ,Cc,cc
271,1540-1544,bolj,_,_,_,_,_,275,ADV,Rgc,advmod
272,1545-1548,ali,_,_,_,_,_,275,CCONJ,Cc,cc
273,1549-1553,manj,_,_,_,_,_,272,DET,Rgc,conj
274,1554-1563,podoben,_,_,_,_,_,276,ADJ,Agpnsg,amod
275,1564-1572,pričanje,_,_,_,_,_,269,NOUN,Ncnsg,nmod
276,1573-1576,vse,_,_,_,_,_,278,ADV,Rgp,advmod
277,1577-1586,preostal,_,_,_,_,_,279,ADJ,Appfpa,amod
278,1587-1595,peterica,_,_,_,_,_,276,NOUN,Ncfpa,nmod
279,1596-1597,o,_,_,_,_,_,281,ADP,Sl,case
280,1598-1601,ta,_,_,_,_,_,279,DET,Pd-nsl,nmod
281,1602-1603,",",_,_,_,_,_,286,PUNCT,Z,punct
282,1604-1607,kaj,_,_,_,_,_,286,PRON,Pq-nsn,nsubj
283,1608-1610,se,_,_,_,_,_,286,PRON,Px------y,expl
284,1611-1613,biti,_,_,_,_,_,286,AUX,Va-r3s-n,aux
285,1614-1622,dogajati,_,_,_,_,_,281,VERB,Vmpp-sn,acl
286,1623-1625,na,_,_,_,_,_,288,ADP,Sa,case
287,1626-1631,večer,_,_,_,_,_,286,NOUN,Ncmsan,obl
288,1632-1634,in,_,_,_,_,_,291,CCONJ,Cc,cc
289,1635-1636,v,_,_,_,_,_,291,ADP,Sl,case
290,1637-1641,noč,_,_,_,_,_,288,NOUN,Ncfsl,conj
291,1642-1647,umor,_,_,_,_,_,291,NOUN,Ncmsg,nmod
292,1648-1649,",",_,_,_,_,_,286,PUNCT,Z,punct
293,1650-1652,biti,_,_,_,_,_,323,AUX,Va-r3s-n,aux
294,1653-1656,biti,_,_,_,_,_,323,AUX,Va-p-sm,aux
295,1657-1665,poudarek,_,_,_,_,_,323,NOUN,Ncmsn,nsubj
296,1666-1668,na,_,_,_,_,_,299,ADP,Sl,case
297,1669-1673,prvi,_,_,_,_,_,299,ADJ,Mlofsl,amod
298,1674-1683,obravnava,_,_,_,_,_,296,NOUN,Ncfsl,nmod
299,1684-1692,predvsem,_,_,_,_,_,323,PART,Q,advmod
300,1693-1695,na,_,_,_,_,_,302,ADP,Sl,case
301,1696-1705,dogajanje,_,_,_,_,_,323,NOUN,Ncnsl,obl
302,1706-1715,naslednji,_,_,_,_,_,304,ADJ,Agpmsay,amod
303,1716-1719,dan,_,_,_,_,_,8,NOUN,Ncmsn,parataxis
304,1720-1721,",",_,_,_,_,_,310,PUNCT,Z,punct
305,1722-1724,ko,_,_,_,_,_,310,SCONJ,Cs,mark
306,1725-1727,biti,_,_,_,_,_,310,AUX,Va-r3p-n,aux
307,1728-1730,se,_,_,_,_,_,311,PRON,Px------y,expl
308,1731-1739,obtožen,_,_,_,_,_,310,ADJ,Appmpn,nsubj
309,1740-1749,poskušati,_,_,_,_,_,304,VERB,Vmpp-pm,acl
310,1750-1757,znebiti,_,_,_,_,_,310,VERB,Vmen,xcomp
311,1758-1767,omenjen,_,_,_,_,_,313,ADJ,Appmpg,amod
312,1768-1775,dokaz,_,_,_,_,_,311,NOUN,Ncmpg,obj
313,1776-1777,.,_,_,_,_,_,317,PUNCT,Z,punct
314,1778-1781,kot,_,_,_,_,_,317,SCONJ,Cs,mark
315,1782-1784,biti,_,_,_,_,_,317,AUX,Va-r3p-n,aux
316,1785-1793,povedati,_,_,_,_,_,310,VERB,Vmep-pm,advcl
317,1794-1795,",",_,_,_,_,_,317,PUNCT,Z,punct
318,1796-1798,biti,_,_,_,_,_,323,AUX,Va-r3p-n,aux
319,1799-1801,se,_,_,_,_,_,323,PRON,Px------y,expl
320,1802-1803,v,_,_,_,_,_,322,ADP,Sl,case
321,1804-1811,Maribor,LOC,0,*->1-2,*[1],3 - Nevtralno,323,PROPN,Npmsl,obl
322,1812-1821,odpraviti,_,_,_,_,_,8,VERB,Vmep-pm,parataxis
323,1822-1824,po,_,_,_,_,_,326,ADP,Sl,case
324,1825-1837,popoldanski,_,_,_,_,_,326,ADJ,Agpnsl,amod
325,1838-1850,pijančevanje,_,_,_,_,_,323,NOUN,Ncnsl,obl
326,1851-1855,dom,_,_,_,_,_,326,NOUN,Ncmsg,nmod
327,1856-1857,",",_,_,_,_,_,334,PUNCT,Z,punct
328,1858-1860,za,_,_,_,_,_,330,ADP,Sa,case
329,1861-1863,ta,_,_,_,_,_,334,DET,Pd-nsa,obl
330,1864-1866,pa,_,_,_,_,_,334,CCONJ,Cc,advmod
331,1867-1869,biti,_,_,_,_,_,334,AUX,Va-r3p-n,aux
332,1870-1872,se,_,_,_,_,_,334,PRON,Px------y,expl
333,1873-1881,odločiti,_,_,_,_,_,323,VERB,Vmep-pm,advcl
334,1882-1883,",",_,_,_,_,_,341,PUNCT,Z,punct
335,1884-1887,ker,_,_,_,_,_,341,SCONJ,Cs,mark
336,1888-1890,biti,_,_,_,_,_,341,AUX,Va-r3s-n,aux
337,1891-1896,Damir,PER[15],2,*->12-2,*[12],2 - Negativno[22],341,PROPN,Npmsn,nsubj
338,1897-1902,Golić,PER[15],2,*->12-2,*[12],2 - Negativno[22],338,PROPN,Npmsn,flat:name
339,1903-1906,tam,_,_,_,_,_,341,ADV,Rgp,advmod
340,1907-1912,želeti,_,_,_,_,_,334,VERB,Vmpp-sm,advcl
341,1913-1921,obiskati,_,_,_,_,_,341,VERB,Vmen,xcomp
342,1922-1927,svoj,_,_,_,_,_,344,DET,Px-nsa,det
343,1928-1933,dekle,_,_,_,_,_,342,NOUN,Ncnsa,obj
344,1934-1935,.,_,_,_,_,_,334,PUNCT,Z,punct
345,1936-1938,iz,_,_,_,_,_,347,ADP,Sg,case
346,1939-1948,zagovor,_,_,_,_,_,351,NOUN,Ncmpg,obl
347,1949-1958,obtožen,_,_,_,_,_,347,ADJ,Appfpg,amod
348,1959-1961,biti,_,_,_,_,_,350,AUX,Va-r3s-n,aux
349,1962-1966,biti,_,_,_,_,_,8,VERB,Va-p-sn,parataxis
350,1967-1975,sklepati,_,_,_,_,_,350,VERB,Vmpn,csubj
351,1976-1977,",",_,_,_,_,_,359,PUNCT,Z,punct
352,1978-1980,da,_,_,_,_,_,359,SCONJ,Cs,mark
353,1981-1983,biti,_,_,_,_,_,359,AUX,Va-r3p-n,aux
354,1984-1988,biti,_,_,_,_,_,359,AUX,Va-p-pm,cop
355,1989-1992,ves,_,_,_,_,_,359,DET,Pg-mpn,nsubj
356,1993-1996,kar,_,_,_,_,_,358,ADV,Rgp,advmod
357,1997-2003,precej,_,_,_,_,_,359,ADV,Rgp,advmod
358,2004-2011,vinjen,_,_,_,_,_,351,ADJ,Agpmpn,ccomp
359,2012-2013,",",_,_,_,_,_,361,PUNCT,Z,punct
360,2014-2021,Livadić,PER,_,*->14-13,*[14],_,359,PROPN,Npmsn,nsubj
361,2022-2023,",",_,_,_,_,_,370,PUNCT,Z,punct
362,2024-2026,ki,_,_,_,_,_,370,SCONJ,Cs,mark
363,2027-2029,biti,_,_,_,_,_,370,AUX,Va-r3s-n,aux
364,2030-2032,po,_,_,_,_,_,367,ADP,Sl,case
365,2033-2041,njihov,_,_,_,_,_,367,DET,Ps3nslp,det
366,2042-2048,mnenje,_,_,_,_,_,370,NOUN,Ncnsl,obl
367,2049-2055,precej,_,_,*->14-14,*[14],_,369,ADV,Rgp,advmod
368,2056-2066,konflikten,_,_,*->14-14,*[14],_,370,ADJ,Agpfsn,amod
369,2067-2072,oseba,_,_,*->14-14,*[14],_,359,NOUN,Ncfsn,conj
370,2073-2074,",",_,_,_,_,_,370,PUNCT,Z,punct
371,2075-2077,pa,_,_,_,_,_,376,CCONJ,Cc,advmod
372,2078-2080,se,_,_,_,_,_,376,PRON,Px------y,expl
373,2081-2083,biti,_,_,_,_,_,376,AUX,Va-r3s-n,aux
374,2084-2088,nato,_,_,_,_,_,376,ADV,Rgp,advmod
375,2089-2097,zapleteti,_,_,_,_,_,350,VERB,Vmep-sm,advcl
376,2098-2099,v,_,_,_,_,_,378,ADP,Sa,case
377,2100-2104,spor,_,_,_,_,_,376,NOUN,Ncmsan,obl
378,2105-2106,z,_,_,_,_,_,380,ADP,Si,case
379,2107-2112,Mom,PER,0,*->3-8,*[3],3 - Nevtralno,378,PROPN,Npmsi,nmod
380,2113-2114,.,_,_,_,_,_,385,PUNCT,Z,punct
381,2115-2121,čeprav,_,_,_,_,_,385,SCONJ,Cs,mark
382,2122-2124,biti,_,_,_,_,_,385,AUX,Va-r3p-n,aux
383,2125-2127,on,_,_,*->14-15,*[14],_,386,PRON,Pp3msa--y,obj
384,2128-2137,poskušati,_,_,_,_,_,376,VERB,Vmpp-pm,advcl
385,2138-2146,pomiriti,_,_,_,_,_,385,VERB,Vmen,xcomp
386,2147-2148,",",_,_,_,_,_,385,PUNCT,Z,punct
387,2149-2151,se,_,_,_,_,_,391,PRON,Px------y,expl
388,2152-2155,on,_,_,_,_,_,391,PRON,Pp3mpd--y,obj
389,2156-2158,biti,_,_,_,_,_,391,AUX,Va-r3s-n,aux
390,2159-2167,izmuzniti,_,_,_,_,_,376,VERB,Vmep-sm,advcl
391,2168-2170,in,_,_,_,_,_,395,CCONJ,Cc,cc
392,2171-2173,iz,_,_,_,_,_,394,ADP,Sg,case
393,2174-2178,avto,_,_,_,_,_,395,NOUN,Ncmsg,obl
394,2179-2187,prinesti,_,_,_,_,_,391,VERB,Vmep-sm,conj
395,2188-2196,morilski,_,_,_,_,_,397,ADJ,Agpnsa,amod
396,2197-2203,orožje,_,_,_,_,_,395,NOUN,Ncnsa,obj
397,2204-2207,ter,_,_,_,_,_,399,CCONJ,Cc,cc
398,2208-2214,steči,_,_,_,_,_,391,VERB,Vmep-sm,conj
399,2215-2217,za,_,_,_,_,_,401,ADP,Sa,case
400,2218-2225,žrtev,_,_,_,_,_,399,NOUN,Ncfsa,obl
401,2226-2227,.,_,_,_,_,_,391,PUNCT,Z,punct
402,2228-2230,po,_,_,_,_,_,405,ADP,Sl,case
403,2231-2239,nasilen,_,_,_,_,_,405,ADJ,Agpnsl,amod
404,2240-2247,dejanje,_,_,_,_,_,409,NOUN,Ncnsl,obl
405,2248-2250,biti,_,_,_,_,_,409,AUX,Va-r3p-n,aux
406,2251-2254,ves,_,_,_,_,_,409,DET,Pg-mpn,nsubj
407,2255-2261,skupaj,_,_,_,_,_,409,ADV,Rgp,advmod
408,2262-2267,oditi,_,_,_,_,_,8,VERB,Vmep-pm,parataxis
409,2268-2269,v,_,_,_,_,_,412,ADP,Sa,case
410,2270-2279,Livadićev,PER,_,*->14-16,*[14],_,412,ADJ,Aspmsan,amod
411,2280-2289,avtomobil,_,_,_,_,_,409,NOUN,Ncmsan,obl
412,2290-2292,in,_,_,_,_,_,415,CCONJ,Cc,cc
413,2293-2295,se,_,_,_,_,_,415,PRON,Px------y,expl
414,2296-2305,odpeljati,_,_,_,_,_,409,VERB,Vmep-pm,conj
415,2306-2311,proti,_,_,_,_,_,417,ADP,Sd,case
416,2312-2321,Ljubljana,LOC,_,*->15-1,*[15],_,415,PROPN,Npfsd,obl
417,2322-2323,.,_,_,_,_,_,409,PUNCT,Z,punct
418,2324-2335,Soobtožen,_,_,_,_,_,421,ADJ,Appnpd,amod
419,2336-2342,skupen,_,_,_,_,_,421,ADJ,Agpnsa,amod
420,2343-2350,kesanje,_,_,_,_,_,428,NOUN,Ncnsa,obj
421,2351-2355,vsak,_,_,_,_,_,428,DET,Pg-msn,nsubj
422,2356-2358,po,_,_,_,_,_,424,ADP,Sa,case
423,2359-2364,svoj,_,_,_,_,_,428,DET,Px-fsa,obl
424,2365-2367,biti,_,_,_,_,_,428,AUX,Va-r3p-n,aux
425,2368-2372,nato,_,_,_,_,_,428,ADV,Rgp,advmod
426,2373-2382,obtoženec,_,_,_,_,_,428,NOUN,Ncmpn,nsubj
427,2383-2394,predstaviti,_,_,_,_,_,409,VERB,Vmep-pm,conj
428,2395-2396,",",_,_,_,_,_,433,PUNCT,Z,punct
429,2397-2400,kaj,_,_,_,_,_,433,PRON,Pq-nsn,nsubj
430,2401-2403,se,_,_,_,_,_,433,PRON,Px------y,expl
431,2404-2406,biti,_,_,_,_,_,433,AUX,Va-r3s-n,aux
432,2407-2414,zgoditi,_,_,_,_,_,428,VERB,Vmep-sn,ccomp
433,2415-2417,po,_,_,_,_,_,436,ADP,Sl,case
434,2418-2427,jutranji,_,_,_,_,_,436,ADJ,Agpmsl,amod
435,2428-2435,prihod,_,_,_,_,_,433,NOUN,Ncmsl,obl
436,2436-2437,v,_,_,_,_,_,438,ADP,Sa,case
437,2438-2447,Ljubljana,LOC,0,*->15-2,*[15],3 - Nevtralno,436,PROPN,Npfsa,nmod
438,2448-2449,",",_,_,_,_,_,444,PUNCT,Z,punct
439,2450-2454,kjer,_,_,_,_,_,444,SCONJ,Cs,mark
440,2455-2457,biti,_,_,_,_,_,444,AUX,Va-r3p-n,aux
441,2458-2459,v,_,_,_,_,_,443,ADP,Sl,case
442,2460-2466,Jarše,LOC,0,*->16-1,*[16],3 - Nevtralno,444,PROPN,Npfpl,obl
443,2467-2476,zapustiti,_,_,_,_,_,438,VERB,Vmep-pm,acl
444,2477-2485,Livadić,PER,_,*->14-17,*[14],_,444,PROPN,Npmsay,obj
445,2486-2487,",",_,_,_,_,_,450,PUNCT,Z,punct
446,2488-2490,ki,_,_,_,_,_,450,SCONJ,Cs,mark
447,2491-2494,on,_,_,_,_,_,450,PRON,Pp3mpd--y,obj
448,2495-2497,biti,_,2,*->14-18,*[14],1 - Zelo negativno[23],450,AUX,Va-r3s-n,aux
449,2498-2504,predati,_,2,*->14-18,*[14],1 - Zelo negativno[23],445,VERB,Vmep-sm,acl
450,2505-2509,tudi,_,_,_,_,_,450,PART,Q,advmod
451,2510-2513,nož,_,_,_,_,_,450,NOUN,Ncmsnn,nsubj
452,2514-2516,in,_,_,_,_,_,454,CCONJ,Cc,cc
453,2517-2522,bunda,_,_,_,_,_,452,NOUN,Ncfsa,conj
454,2523-2524,",",_,_,_,_,_,450,PUNCT,Z,punct
455,2525-2527,in,_,_,_,_,_,461,CCONJ,Cc,cc
456,2528-2530,se,_,_,_,_,_,461,PRON,Px------y,expl
457,2531-2532,z,_,_,_,_,_,460,ADP,Si,case
458,2533-2546,Plahutnikov,PER,2,*->5-2,*[5],2 - Negativno,460,ADJ,Aspmsi,amod
459,2547-2558,avtomobil,_,_,_,_,_,461,NOUN,Ncmsi,obl
460,2559-2568,odpeljati,_,_,_,_,_,450,VERB,Vmep-pm,conj
461,2569-2574,proti,_,_,_,_,_,463,ADP,Sd,case
462,2575-2578,Igu,LOC,0,*->10-3,*[10],3 - Nevtralno,461,PROPN,Npmsd,obl
463,2579-2580,.,_,_,_,_,_,450,PUNCT,Z,punct
464,2581-2586,brat,_,2,*->17-1,*[17],2 - Negativno[24],473,PROPN,Npmsn,nsubj
465,2587-2596,Plahutnik,PER,2,*->17-1,*[17],2 - Negativno[24],465,PROPN,Npmsn,flat:name
466,2597-2600,biti,_,_,_,_,_,468,AUX,Va-r3d-n,aux
467,2601-2609,povedati,_,_,_,_,_,8,VERB,Vmep-dm,parataxis
468,2610-2611,",",_,_,_,_,_,473,PUNCT,Z,punct
469,2612-2614,da,_,_,_,_,_,473,SCONJ,Cs,mark
470,2615-2617,biti,_,_,_,_,_,473,AUX,Va-r3s-n,aux
471,2618-2624,katan,_,_,_,_,_,473,NOUN,Ncmsn,nsubj
472,2625-2631,ostati,_,_,_,_,_,468,VERB,Vmep-sf,ccomp
473,2632-2635,pri,_,_,_,_,_,475,ADP,Sl,case
474,2636-2641,on,_,_,_,_,_,473,PRON,Pp3mdl,obl
475,2642-2644,in,_,_,_,_,_,481,CCONJ,Cc,cc
476,2645-2648,biti,_,_,_,_,_,481,AUX,Va-r3d-n,aux
477,2649-2651,se,_,_,_,_,_,481,PRON,Px------y,expl
478,2652-2654,biti,_,_,_,_,_,481,AUX,Va-r3s-n,aux
479,2655-2662,pozno,_,_,_,_,_,481,ADV,Rgc,advmod
480,2663-2670,znebiti,_,_,_,_,_,473,VERB,Vmep-dm,conj
481,2671-2672,",",_,_,_,_,_,481,PUNCT,Z,punct
482,2673-2678,bunda,_,_,_,_,_,488,NOUN,Ncfsa,obj
483,2679-2681,pa,_,_,_,_,_,488,CCONJ,Cc,advmod
484,2682-2684,biti,_,_,_,_,_,488,AUX,Va-r3p-n,aux
485,2685-2686,z,_,_,_,_,_,487,ADP,Si,case
486,2687-2691,se,_,_,_,_,_,488,PRON,Px---i,obl
487,2692-2699,odnesti,_,_,_,_,_,506,VERB,Vmep-pm,csubj
488,2700-2709,preostal,_,_,_,_,_,490,ADJ,Appmpn,amod
489,2710-2715,trije,_,_,_,_,_,488,NUM,Mlcmpn,nsubj
490,2716-2717,",",_,_,_,_,_,497,PUNCT,Z,punct
491,2718-2720,ki,_,_,_,_,_,497,SCONJ,Cs,mark
492,2721-2723,biti,_,_,_,_,_,497,AUX,Va-r3p-n,aux
493,2724-2726,on,_,_,_,_,_,497,PRON,Pp3fsa--y,obj
494,2727-2731,nato,_,_,_,_,_,497,ADV,Rgp,advmod
495,2732-2736,tudi,_,_,_,_,_,497,PART,Q,advmod
496,2737-2744,zažgati,_,_,_,_,_,490,VERB,Vmep-pm,acl
497,2745-2746,.,_,_,_,_,_,488,PUNCT,Z,punct
498,2747-2752,sicer,_,_,_,_,_,506,PART,Q,advmod
499,2753-2755,pa,_,_,_,_,_,506,CCONJ,Cc,advmod
500,2756-2758,biti,_,_,_,_,_,506,AUX,Va-r3s-n,aux
501,2759-2763,biti,_,_,_,_,_,506,AUX,Va-p-sn,cop
502,2764-2771,izjava,_,_,_,_,_,506,NOUN,Ncfpd,obj
503,2772-2780,peterica,_,_,_,_,_,503,NOUN,Ncfsg,nmod
504,2781-2792,soobtožen,_,_,_,_,_,506,ADJ,Appmpg,csubj
505,2793-2799,skupen,_,_,_,_,_,8,ADJ,Agpnsn,parataxis
506,2800-2802,še,_,_,_,_,_,506,PART,Q,advmod
507,2803-2805,ta,_,_,_,_,_,506,DET,Pd-nsn,nsubj
508,2806-2807,",",_,_,_,_,_,511,PUNCT,Z,punct
509,2808-2810,da,_,_,_,_,_,511,SCONJ,Cs,mark
510,2811-2813,biti,_,_,_,_,_,508,VERB,Va-r3s-n,acl
511,2814-2818,ves,_,_,_,_,_,511,DET,Pg-npd,obj
512,2819-2822,žal,_,_,_,_,_,511,ADV,Rgp,advmod
513,2823-2825,za,_,_,_,_,_,515,ADP,Sa,case
514,2826-2828,ta,_,_,_,_,_,511,DET,Pd-nsa,obl
515,2829-2830,",",_,_,_,_,_,520,PUNCT,Z,punct
516,2831-2834,kar,_,_,_,_,_,520,PRON,Pr-nsn,nsubj
517,2835-2837,se,_,_,_,_,_,520,PRON,Px------y,expl
518,2838-2840,biti,_,_,_,_,_,520,AUX,Va-r3s-n,aux
519,2841-2848,zgoditi,_,_,_,_,_,515,VERB,Vmep-sn,acl
520,2849-2850,",",_,_,_,_,_,520,PUNCT,Z,punct
521,2851-2858,njihov,_,_,_,_,_,523,DET,Ps3nsnp,det
522,2859-2867,ravnanje,_,_,_,_,_,530,NOUN,Ncnsn,nsubj
523,2868-2870,po,_,_,_,_,_,525,ADP,Sl,case
524,2871-2878,dogodek,_,_,_,_,_,523,NOUN,Ncmsl,nmod
525,2879-2881,pa,_,_,_,_,_,530,CCONJ,Cc,advmod
526,2882-2884,biti,_,_,_,_,_,530,AUX,Va-r3s-n,aux
527,2885-2889,biti,_,_,_,_,_,530,AUX,Va-p-sn,cop
528,2890-2898,predvsem,_,_,_,_,_,530,PART,Q,advmod
529,2899-2908,posledica,_,_,_,_,_,8,NOUN,Ncfsn,parataxis
530,2909-2913,šoka,_,_,_,_,_,530,NOUN,Ncmsg,nmod
531,2914-2915,",",_,_,_,_,_,535,PUNCT,Z,punct
532,2916-2918,ko,_,_,_,_,_,535,SCONJ,Cs,mark
533,2919-2921,biti,_,_,_,_,_,535,AUX,Va-r3p-n,aux
534,2922-2930,izvedeti,_,_,_,_,_,530,VERB,Vmep-pm,advcl
535,2931-2933,za,_,_,_,_,_,537,ADP,Sa,case
536,2934-2940,novica,_,_,_,_,_,535,NOUN,Ncfsa,obl
537,2941-2942,o,_,_,_,_,_,539,ADP,Sl,case
538,2943-2948,smrt,_,_,_,_,_,537,NOUN,Ncfsl,nmod
539,2949-2956,njihov,_,_,_,_,_,542,DET,Ps3fsgp,det
540,2957-2962,nočen,_,_,_,_,_,542,ADJ,Agpfsg,amod
541,2963-2968,žrtev,_,_,_,_,_,539,NOUN,Ncfsg,nmod
542,2969-2970,.,_,_,_,_,_,505,PUNCT,Z,punct
543,2971-2978,sojenje,_,_,_,_,_,530,NOUN,Ncnsn,nsubj
544,2979-2980,",",_,_,_,_,_,548,PUNCT,Z,punct
545,2981-2983,ki,_,_,_,_,_,548,SCONJ,Cs,mark
546,2984-2986,on,_,_,_,_,_,548,PRON,Pp3msa--y,obj
547,2987-2991,voditi,_,_,_,_,_,544,VERB,Vmpr3s,acl
548,2992-3003,predsednica,_,0,*->18-1,*[18],3 - Nevtralno[25],548,NOUN,Ncfsn,nsubj
549,3004-3010,senat,_,0,*->18-1,*[18],3 - Nevtralno[25],549,NOUN,Ncmsg,nmod
550,3011-3018,Andreja,PER[16],0,*->18-1,*[18],3 - Nevtralno[25],550,PROPN,Npmsg,nmod
551,3019-3024,Lukeš,PER[16],0,*->18-1,*[18],3 - Nevtralno[25],551,PROPN,Npmsg,flat:name
552,3025-3026,",",_,_,_,_,_,548,PUNCT,Z,punct
553,3027-3029,se,_,_,_,_,_,560,PRON,Px------y,expl
554,3030-3032,biti,_,_,_,_,_,560,AUX,Va-f3s-n,aux
555,3033-3034,z,_,_,_,_,_,557,ADP,Si,case
556,3035-3043,nastop,_,_,_,_,_,560,NOUN,Ncmsi,obl
557,3044-3049,prvi,_,_,_,_,_,559,ADJ,Mlofpg,amod
558,3050-3054,priča,_,_,_,_,_,557,NOUN,Ncfpg,nmod
559,3055-3066,nadaljevati,_,_,_,_,_,506,VERB,Vmpp-sn,parataxis
560,3067-3069,že,_,_,_,_,_,560,PART,Q,advmod
561,3070-3071,v,_,_,_,_,_,563,ADP,Sa,case
562,3072-3079,četrtek,_,_,_,_,_,560,NOUN,Ncmsan,obl
