idx,chars_idx,token,entity_type,sentiment,idk_1,idk_2,orig_sentiment,heads,upos,xpos,deprel
0,0-7,sodišče,_,_,_,_,_,3,NOUN,Ncnsn,nsubj
1,8-10,biti,_,_,_,_,_,3,AUX,Va-r3s-n,aux
2,11-20,zamenjati,_,_,_,_,_,0,VERB,Vmep-sn,root
3,21-31,prisilen,_,_,*->20-1,*[20],_,5,ADJ,Agpmsa,amod
4,32-43,upravitelj,_,_,*->20-1,*[20],_,3,NOUN,Ncmsay,obj
5,44-47,SCT,ORG,_,*->20-1|*->16-1,*[20]|*[16],_,5,PROPN,Npmsn,nmod
6,48-49,.,_,_,_,_,_,14,PUNCT,Z,punct
7,50-58,prejšnji,_,_,*->20-2,*[20],_,9,ADJ,Agpfsn,amod
8,59-72,upraviteljica,_,_,*->20-2,*[20],_,14,NOUN,Ncfsn,nsubj
9,73-78,Darja,PER[1],_,*->20-2,*[20],_,9,PROPN,Npfsn,nmod
10,79-84,Erceg,PER[1],_,*->20-2,*[20],_,10,PROPN,Npfsn,flat:name
11,85-87,biti,_,_,_,_,_,14,AUX,Va-r3s-n,aux
12,88-94,namreč,_,_,_,_,_,14,CCONJ,Cc,advmod
13,95-104,zaprositi,_,_,_,_,_,3,VERB,Vmep-sf,parataxis
14,105-107,za,_,_,_,_,_,16,ADP,Sa,case
15,108-118,razrešitev,_,_,_,_,_,14,NOUN,Ncfsa,obl
16,119-120,",",_,_,_,_,_,22,PUNCT,Z,punct
17,121-123,da,_,_,_,_,_,22,SCONJ,Cs,mark
18,124-126,se,_,_,_,_,_,22,PRON,Px------y,expl
19,127-129,ne,_,_,_,_,_,22,PART,Q,advmod
20,130-132,biti,_,_,_,_,_,22,AUX,Va-c,aux
21,133-142,ustvarjati,_,_,_,_,_,16,VERB,Vmpp-sm,acl
22,143-148,videz,_,_,_,_,_,22,NOUN,Ncmsn,nsubj
23,149-165,nepristranskost,_,_,_,_,_,23,NOUN,Ncfsg,nmod
24,166-167,",",_,_,_,_,_,41,PUNCT,Z,punct
25,168-171,ker,_,_,_,_,_,58,SCONJ,Cs,mark
26,172-174,biti,_,_,_,_,_,28,AUX,Va-r3s-n,aux
27,175-186,predsednica,_,_,*->20-3,*[20],_,41,NOUN,Ncfsn,nsubj
28,187-197,nadzoren,_,_,*->20-3,*[20],_,30,ADJ,Agpmsg,amod
29,198-203,svet,_,_,*->20-3,*[20],_,28,NOUN,Ncmsg,nmod
30,204-210,upnik,_,_,*->20-3,*[20],_,30,NOUN,Ncmsg,nmod
31,211-214,SCT,ORG,_,*->20-3|*->16-2,*[20]|*[16],_,31,PROPN,Npmsn,nmod
32,215-216,.,_,_,_,_,_,22,PUNCT,Z,punct
33,217-225,prisilen,_,_,*->20-4,*[20],_,35,ADJ,Agpfsn,amod
34,226-239,upraviteljica,_,_,*->20-4,*[20],_,41,NOUN,Ncfsn,nsubj
35,240-243,SCT,ORG,_,*->20-4|*->16-3,*[20]|*[16],_,35,PROPN,Npmsn,nmod
36,244-249,Darja,PER[2],_,*->20-4,*[20],_,35,PROPN,Npfsn,nmod
37,250-255,Erceg,PER[2],_,*->20-4,*[20],_,37,PROPN,Npfsn,flat:name
38,256-258,biti,_,_,_,_,_,41,AUX,Va-r3s-n,aux
39,259-266,sodišče,_,_,_,_,_,41,NOUN,Ncnsd,iobj
40,267-277,predlagati,_,_,_,_,_,48,VERB,Vmbp-sf,advcl
41,278-283,svoj,_,_,*->20-5,*[20],_,43,DET,Px-fsa,det
42,284-294,razrešitev,_,_,_,_,_,41,NOUN,Ncfsa,obj
43,295-296,.,_,_,_,_,_,3,PUNCT,Z,punct
44,297-298,v,_,_,_,_,_,46,ADP,Sl,case
45,299-311,obrazložitev,_,_,_,_,_,48,NOUN,Ncfsl,obl
46,312-314,biti,_,_,*->20-6,*[20],_,48,AUX,Va-r3s-n,aux
47,315-323,zapisati,_,_,*->20-6,*[20],_,3,VERB,Vmep-sf,parataxis
48,324-325,",",_,_,_,_,_,52,PUNCT,Z,punct
49,326-328,da,_,_,_,_,_,52,SCONJ,Cs,mark
50,329-331,ne,_,_,_,_,_,52,PART,Q,advmod
51,332-336,želeti,_,_,*->20-7,*[20],_,48,VERB,Vmpr3s,ccomp
52,337-338,",",_,_,_,_,_,58,PUNCT,Z,punct
53,339-341,da,_,_,_,_,_,58,SCONJ,Cs,mark
54,342-344,biti,_,_,_,_,_,58,AUX,Va-c,aux
55,345-347,se,_,_,_,_,_,58,PRON,Px------y,expl
56,348-354,umeten,_,_,_,_,_,58,ADV,Rgp,advmod
57,355-365,ustvarjati,_,_,_,_,_,52,VERB,Vmpp-pf,ccomp
58,366-373,kakršen,_,_,_,_,_,61,DET,Pq-fpn,det
59,374-378,koli,_,_,_,_,_,59,PART,Q,fixed
60,379-389,okoliščina,_,_,_,_,_,58,NOUN,Ncfpn,nsubj
61,390-393,ali,_,_,_,_,_,63,CCONJ,Cc,cc
62,394-400,namig,_,_,_,_,_,61,NOUN,Ncmpn,conj
63,401-402,",",_,_,_,_,_,67,PUNCT,Z,punct
64,403-405,ki,_,_,_,_,_,67,SCONJ,Cs,mark
65,406-408,biti,_,_,_,_,_,67,AUX,Va-c,aux
66,409-417,vzbujati,_,_,_,_,_,63,VERB,Vmpp-pm,acl
67,418-427,morebiten,_,_,_,_,_,69,ADJ,Agpmsan,amod
68,428-432,dvom,_,_,_,_,_,67,NOUN,Ncmsan,obj
69,433-434,v,_,_,_,_,_,75,ADP,Sa,case
70,435-440,njen,_,_,*->20-8,*[20],_,75,DET,Ps3fsasf,det
71,441-450,strokoven,_,_,_,_,_,75,ADJ,Agpfsa,amod
72,451-453,in,_,_,_,_,_,74,CCONJ,Cc,cc
73,454-464,objektiven,_,_,_,_,_,72,ADJ,Agpfsa,conj
74,465-480,nepristranskost,_,_,_,_,_,69,NOUN,Ncfsa,nmod
75,481-482,.,_,_,_,_,_,67,PUNCT,Z,punct
76,483-491,Ercegov,PER,_,*->20-9,*[20],_,80,ADJ,Aspfsn,nsubj
77,492-494,biti,_,_,_,_,_,80,AUX,Va-r3s-n,cop
78,495-501,namreč,_,_,_,_,_,80,CCONJ,Cc,advmod
79,502-513,predsednica,_,_,*->20-10,*[20],_,3,NOUN,Ncfsn,parataxis
80,514-524,nadzoren,_,_,*->20-10,*[20],_,82,ADJ,Agpmsg,amod
81,525-530,svet,_,_,*->20-10,*[20],_,80,NOUN,Ncmsg,nmod
82,531-534,GPG,ORG,_,*->20-10|*->21-1,*[20]|*[21],_,82,PROPN,Npmsn,nmod
83,535-536,",",_,_,_,_,_,88,PUNCT,Z,punct
84,537-539,ki,_,_,_,_,_,88,SCONJ,Cs,mark
85,540-542,biti,_,_,_,_,_,88,AUX,Va-r3s-n,cop
86,543-547,tudi,_,_,_,_,_,88,PART,Q,advmod
87,548-552,eden,_,_,_,_,_,83,NUM,Mlpmsn,acl
88,553-558,izmed,_,_,_,_,_,90,ADP,Sg,case
89,559-566,upnik,_,_,_,_,_,88,NOUN,Ncmpg,nmod
90,567-570,SCT,ORG,_,*->16-4,*[16],_,90,PROPN,Npmsg,nmod
91,571-572,",",_,_,_,_,_,101,PUNCT,Z,punct
92,573-576,kar,_,_,_,_,_,101,PRON,Pr-nsn,nsubj
93,577-579,biti,_,_,_,_,_,101,AUX,Va-c,aux
94,580-585,lahko,_,_,_,_,_,101,ADV,Rgp,advmod
95,586-589,pri,_,_,_,_,_,98,ADP,Sl,case
96,590-597,ostal,_,_,_,_,_,98,ADJ,Appfpl,amod
97,598-606,stranka,_,_,_,_,_,101,NOUN,Ncfpl,obl
98,607-608,v,_,_,_,_,_,100,ADP,Sl,case
99,609-617,postopek,_,_,_,_,_,101,NOUN,Ncmsl,obl
100,618-625,zbuditi,_,_,_,_,_,88,VERB,Vmep-sn,acl
101,626-630,dvom,_,_,_,_,_,101,NOUN,Ncmsan,obj
102,631-632,v,_,_,_,_,_,105,ADP,Sa,case
103,633-638,njen,_,_,*->20-11,*[20],_,105,DET,Ps3fsasf,det
104,639-652,pristranskost,_,_,_,_,_,102,NOUN,Ncfsa,nmod
105,653-654,.,_,_,_,_,_,101,PUNCT,Z,punct
106,655-662,sodišče,_,_,_,_,_,110,NOUN,Ncnsn,nsubj
107,663-665,biti,_,_,_,_,_,110,AUX,Va-r3s-n,aux
108,666-674,Ercegov,PER,_,*->20-12,*[20],_,110,ADJ,Aspnsa,obj
109,675-684,razrešiti,_,_,_,_,_,3,VERB,Vmep-sn,parataxis
110,685-687,in,_,_,_,_,_,115,CCONJ,Cc,cc
111,688-690,na,_,_,_,_,_,114,ADP,Sa,case
112,691-696,njen,_,_,*->20-13,*[20],_,114,DET,Ps3nsasf,det
113,697-702,mesto,_,_,_,_,_,115,NOUN,Ncnsa,obl
114,703-712,imenovati,_,_,_,_,_,110,VERB,Vmbp-sn,conj
115,713-719,Marija,PER[3],_,*->4-1,*[4],_,115,PROPN,Npfsa,obj
116,720-729,magdalen,PER[3],_,*->4-1,*[4],_,118,ADJ,Agpfsa,amod
117,730-735,Šantl,PER[3],_,*->4-1,*[4],_,116,PROPN,Npfsa,flat:name
118,736-737,.,_,_,_,_,_,110,PUNCT,Z,punct
119,738-739,v,_,_,_,_,_,121,ADP,Sl,case
120,740-749,pojasnilo,_,_,_,_,_,126,NOUN,Ncnsl,obl
121,750-752,pa,_,_,_,_,_,126,CCONJ,Cc,advmod
122,753-755,biti,_,_,_,_,_,126,AUX,Va-r3s-n,aux
123,756-762,sodnik,_,_,_,_,_,126,NOUN,Ncmsn,nsubj
124,763-765,še,_,_,_,_,_,126,PART,Q,advmod
125,766-773,zapisati,_,_,_,_,_,3,VERB,Vmep-sm,parataxis
126,774-775,",",_,_,_,_,_,131,PUNCT,Z,punct
127,776-778,da,_,_,_,_,_,131,SCONJ,Cs,mark
128,779-781,biti,_,_,_,_,_,131,AUX,Va-r3s-n,cop
129,782-789,sodišče,_,_,_,_,_,131,NOUN,Ncnsn,nsubj
130,790-800,prepričan,_,_,_,_,_,126,ADJ,Appnsn,ccomp
131,801-802,",",_,_,_,_,_,138,PUNCT,Z,punct
132,803-805,da,_,_,_,_,_,138,SCONJ,Cs,mark
133,806-808,biti,_,_,_,_,_,138,AUX,Va-c,aux
134,809-817,Ercegov,PER,_,*->20-14,*[20],_,138,ADJ,Aspfsn,nsubj
135,818-819,v,_,_,_,_,_,137,ADP,Sl,case
136,820-828,postopek,_,_,_,_,_,138,NOUN,Ncmsl,obl
137,829-837,delovati,_,_,_,_,_,131,VERB,Vmpp-sf,csubj
138,838-851,nepristranski,_,_,_,_,_,138,ADJ,Agpfsa,xcomp
139,852-854,in,_,_,_,_,_,141,CCONJ,Cc,cc
140,855-864,strokoven,_,_,_,_,_,139,ADJ,Agpnsn,conj
141,865-866,.,_,_,_,_,_,138,PUNCT,Z,punct
142,867-872,njen,_,_,*->20-15,*[20],_,144,DET,Ps3fsdsf,det
143,873-880,prošnja,_,_,_,_,_,149,NOUN,Ncfsd,obj
144,881-883,za,_,_,_,_,_,146,ADP,Sa,case
145,884-894,razrešitev,_,_,_,_,_,144,NOUN,Ncfsa,nmod
146,895-897,pa,_,_,_,_,_,149,CCONJ,Cc,advmod
147,898-900,biti,_,_,_,_,_,149,AUX,Va-r3s-n,aux
148,901-908,ugoditi,_,_,_,_,_,3,VERB,Vmep-sn,parataxis
149,909-915,zaradi,_,_,_,_,_,152,ADP,Sg,case
150,916-923,možen,_,_,_,_,_,152,ADJ,Agpmsg,amod
151,924-930,videz,_,_,_,_,_,149,NOUN,Ncmsg,obl
152,931-947,nepristranskost,_,_,_,_,_,152,NOUN,Ncfsg,nmod
153,948-950,in,_,_,_,_,_,158,CCONJ,Cc,cc
154,951-954,čim,_,_,_,_,_,156,ADV,Rgp,advmod
155,955-959,bolj,_,_,_,_,_,157,ADV,Rgc,advmod
156,960-970,nemoten,_,_,_,_,_,158,ADJ,Agpmsg,obl
157,971-977,potekati,_,_,_,_,_,149,VERB,Vmpr3s,conj
158,978-986,postopek,_,_,_,_,_,158,NOUN,Ncmsg,obj
159,987-995,prisilen,_,_,_,_,_,161,ADJ,Agpfsg,amod
160,996-1005,poravnava,_,_,_,_,_,159,NOUN,Ncfsg,nmod
161,1006-1007,.,_,_,_,_,_,149,PUNCT,Z,punct
162,1008-1012,pred,_,_,_,_,_,164,ADP,Si,case
163,1013-1024,imenovanje,_,_,_,_,_,169,NOUN,Ncnsi,obl
164,1025-1033,Šantlov,PER,0,*->4-2,*[4],3 - Nevtralno,164,ADJ,Aspfsg,amod
165,1034-1036,se,_,_,_,_,_,169,PRON,Px------y,expl
166,1037-1039,biti,_,_,_,_,_,169,AUX,Va-r3s-n,aux
167,1040-1045,sicer,_,_,_,_,_,169,PART,Q,advmod
168,1046-1052,zgoditi,_,_,_,_,_,3,VERB,Vmep-sm,parataxis
169,1053-1055,še,_,_,_,_,_,169,PART,Q,advmod
170,1056-1058,en,_,_,_,_,_,172,NUM,Mlpmsn,nummod
171,1059-1065,zaplet,_,_,_,_,_,169,NOUN,Ncmsn,nsubj
172,1066-1067,",",_,_,_,_,_,138,PUNCT,Z,punct
173,1068-1071,saj,_,_,_,_,_,181,CCONJ,Cc,cc
174,1072-1074,biti,_,_,_,_,_,181,AUX,Va-r3s-n,aux
175,1075-1087,računalniški,_,_,_,_,_,177,ADJ,Agpmsny,amod
176,1088-1095,program,_,_,_,_,_,181,NOUN,Ncmsn,nsubj
177,1096-1099,kot,_,_,_,_,_,180,SCONJ,Cs,case
178,1100-1111,naslednji,_,_,*->23-1,*[23],_,180,ADJ,Agpmsg,amod
179,1112-1123,upravitelj,_,_,*->23-1,*[23],_,177,NOUN,Ncmsg,nmod
180,1124-1130,izbrati,_,_,_,_,_,169,VERB,Vmep-sm,conj
181,1131-1137,Boris,PER[4],_,*->23-2,*[23],_,181,PROPN,Npmsay,obj
182,1138-1146,Dolamič,PER[4],_,*->23-2,*[23],_,182,PROPN,Npmsay,flat:name
183,1147-1148,",",_,_,_,_,_,188,PUNCT,Z,punct
184,1149-1151,ki,_,_,_,_,_,188,SCONJ,Cs,mark
185,1152-1154,pa,_,_,_,_,_,188,CCONJ,Cc,advmod
186,1155-1157,biti,_,_,_,_,_,188,AUX,Va-r3s-n,cop
187,1158-1166,direktor,_,_,*->23-3,*[23],_,182,NOUN,Ncmsn,acl
188,1167-1170,GPG,ORG,0,*->23-3|*->21-2,*[23]|*[21],3 - Nevtralno,188,PROPN,Npmsn,nmod
189,1171-1172,.,_,_,_,_,_,181,PUNCT,Z,punct
190,1173-1180,sodišče,_,_,_,_,_,195,NOUN,Ncnsn,nsubj
191,1181-1183,biti,_,_,_,_,_,195,AUX,Va-r3s-n,aux
192,1184-1188,tudi,_,_,_,_,_,195,PART,Q,advmod
193,1189-1194,on,_,0,*->23-4,*[23],3 - Nevtralno,195,PRON,Pp3msa,obj
194,1195-1204,razrešiti,_,_,_,_,_,3,VERB,Vmep-sn,parataxis
195,1205-1207,iz,_,_,_,_,_,198,ADP,Sg,case
196,1208-1213,isti,_,_,_,_,_,198,DET,Pi-mpg,det
197,1214-1222,razlog,_,_,_,_,_,195,NOUN,Ncmpg,obl
198,1223-1226,kot,_,_,_,_,_,200,SCONJ,Cs,case
199,1227-1235,Ercegov,PER,0,*->20-16,*[20],3 - Nevtralno,198,ADJ,Aspnsa,obl
200,1236-1237,.,_,_,_,_,_,195,PUNCT,Z,punct
201,1238-1245,sodišče,_,_,_,_,_,207,NOUN,Ncnsn,nsubj
202,1246-1248,biti,_,_,_,_,_,207,AUX,Va-r3s-n,aux
203,1249-1257,postopek,_,_,_,_,_,207,NOUN,Ncmsan,obj
204,1258-1266,prisilen,_,_,_,_,_,206,ADJ,Agpfsg,amod
205,1267-1276,poravnava,_,_,_,_,_,204,NOUN,Ncfsg,nmod
206,1277-1283,začeti,_,_,_,_,_,195,VERB,Vmep-sn,conj
207,1284-1286,25,_,_,_,_,_,207,NUM,Mdc,obl
208,1287-1288,.,_,_,_,_,_,207,PUNCT,Z,punct
209,1289-1297,januar,_,_,_,_,_,207,NOUN,Ncmsg,obl
210,1298-1299,.,_,_,_,_,_,207,PUNCT,Z,punct
211,1300-1306,upnik,_,_,_,_,_,213,NOUN,Ncmpn,nsubj
212,1307-1312,imeti,_,_,_,_,_,207,VERB,Vmpr3p-n,parataxis
213,1313-1316,čas,_,_,_,_,_,213,NOUN,Ncmsan,obj
214,1317-1319,za,_,_,_,_,_,216,ADP,Sa,case
215,1320-1327,prijava,_,_,_,_,_,214,NOUN,Ncfsa,nmod
216,1328-1336,terjatev,_,_,_,_,_,216,NOUN,Ncfpg,nmod
217,1337-1339,do,_,_,_,_,_,219,ADP,Sg,case
218,1340-1342,25,_,_,_,_,_,217,NUM,Mdc,nummod
219,1343-1344,.,_,_,_,_,_,213,PUNCT,Z,punct
220,1345-1354,februar,_,_,_,_,_,210,NOUN,Ncmsg,nmod
221,1355-1356,.,_,_,_,_,_,210,PUNCT,Z,punct
222,1357-1364,sodišče,_,_,_,_,_,229,NOUN,Ncnsn,nsubj
223,1365-1367,biti,_,_,_,_,_,229,AUX,Va-r3s-n,aux
224,1368-1369,v,_,_,_,_,_,228,ADP,Sa,case
225,1370-1380,petčlanski,_,_,_,_,_,228,ADJ,Agpmsay,amod
226,1381-1388,upniški,_,_,_,_,_,228,ADJ,Agpmsay,amod
227,1389-1394,odbor,_,_,_,_,_,229,NOUN,Ncmsan,obl
228,1395-1404,imenovati,_,_,_,_,_,3,VERB,Vmbp-sn,parataxis
229,1405-1411,Petrol,ORG,0,*->14-1,*[14],3 - Nevtralno,229,PROPN,Npmsn,nsubj
230,1412-1413,",",_,_,_,_,_,232,PUNCT,Z,punct
231,1414-1417,NLB,ORG,0,*->22-1,*[22],3 - Nevtralno,230,PROPN,Npfsa,conj
232,1418-1419,",",_,_,_,_,_,234,PUNCT,Z,punct
233,1420-1426,Abanko,ORG,0,*->7-1,*[7],3 - Nevtralno,230,PROPN,Npfsa,conj
234,1427-1428,",",_,_,_,_,_,236,PUNCT,Z,punct
235,1429-1436,Salonit,ORG[5],0,*->13-1,*[13],3 - Nevtralno[13],230,PROPN,Npfsa,conj
236,1437-1443,Anhovo,ORG[5],0,*->13-1,*[13],3 - Nevtralno[13],236,PROPN,Npfsa,flat:name
237,1444-1446,in,_,_,_,_,_,239,CCONJ,Cc,cc
238,1447-1453,družba,_,_,_,_,_,230,NOUN,Ncfsa,conj
239,1454-1456,za,_,_,_,_,_,241,ADP,Sa,case
240,1457-1468,upravljanje,_,_,_,_,_,239,NOUN,Ncnsa,nmod
241,1469-1470,z,_,_,_,_,_,243,ADP,Si,case
242,1471-1482,avtocesta,_,_,_,_,_,241,NOUN,Ncfpi,nmod
243,1483-1484,v,_,_,_,_,_,245,ADP,Sl,case
244,1485-1495,Federacija,LOC[6],_,*->10-1,*[10],_,243,PROPN,Npfsl,nmod
245,1496-1499,Bih,LOC[6],_,*->10-1,*[10],_,245,PROPN,Npfsn,nmod
246,1500-1501,.,_,_,_,_,_,229,PUNCT,Z,punct
247,1502-1505,SCT,ORG,_,*->16-5,*[16],_,246,PROPN,Npmsn,nmod
248,1506-1514,pridobiti,_,_,_,_,_,3,VERB,Vmep-sm,parataxis
249,1515-1520,posel,_,_,_,_,_,249,NOUN,Ncmpa,obj
250,1521-1522,v,_,_,_,_,_,252,ADP,Sl,case
251,1523-1529,Srbija,LOC,_,*->3-1,*[3],_,250,PROPN,Npfsl,nmod
252,1530-1531,?,_,_,_,_,_,249,PUNCT,Z,punct
253,1532-1534,iz,_,_,_,_,_,255,ADP,Sg,case
254,1535-1538,SCT,ORG,_,*->16-6,*[16],_,257,PROPN,Npfsg,obl
255,1539-1541,biti,_,_,_,_,_,257,AUX,Va-r3p-n,aux
256,1542-1551,sporočiti,_,_,_,_,_,249,VERB,Vmep-pm,conj
257,1552-1553,",",_,_,_,_,_,264,PUNCT,Z,punct
258,1554-1556,da,_,_,_,_,_,264,SCONJ,Cs,mark
259,1557-1559,biti,_,_,_,_,_,264,AUX,Va-r3p-n,aux
260,1560-1565,kljub,_,_,_,_,_,263,ADP,Sd,case
261,1566-1574,prisilen,_,_,_,_,_,263,ADJ,Agpfsd,amod
262,1575-1584,poravnava,_,_,_,_,_,265,NOUN,Ncfsd,obl
263,1585-1591,uspeti,_,_,_,_,_,257,VERB,Vmep-pm,ccomp
264,1592-1601,pridobiti,_,_,_,_,_,264,VERB,Vmen,xcomp
265,1602-1605,več,_,_,_,_,_,267,DET,Rgc,det
266,1606-1612,posel,_,_,_,_,_,265,NOUN,Ncmpg,obj
267,1613-1614,v,_,_,_,_,_,269,ADP,Sl,case
268,1615-1621,Srbija,LOC,_,*->3-2,*[3],_,267,PROPN,Npfsl,nmod
269,1622-1623,.,_,_,_,_,_,264,PUNCT,Z,punct
270,1624-1631,njihov,_,_,*->16-7,*[16],_,273,DET,Ps3fsnp,det
271,1632-1641,hčerinski,_,0,*->12-1,*[12],3 - Nevtralno[14],273,ADJ,Agpfsn,amod
272,1642-1648,družba,_,0,*->12-1,*[12],3 - Nevtralno[14],282,NOUN,Ncfsn,nsubj
273,1649-1652,SCT,ORG[7]|ORG[8],0,*->12-1|*->16-8,*[12]|*[16],3 - Nevtralno[14],273,PROPN,Npmsn,nmod
274,1653-1654,&,ORG[7],0,*->12-1,*[12],3 - Nevtralno[14],276,NOUN,Ncmsn,nmod
275,1655-1657,CG,ORG[7],0,*->12-1,*[12],3 - Nevtralno[14],277,NOUN,Ncfsn,nmod
276,1658-1665,montaža,ORG[7],0,*->12-1,*[12],3 - Nevtralno[14],273,NOUN,Ncfsn,conj
277,1666-1668,iz,_,_,_,_,_,279,ADP,Sg,case
278,1669-1677,Beograd,LOC,0,*->8-1,*[8],3 - Nevtralno,277,PROPN,Npmsg,nmod
279,1678-1680,biti,_,_,_,_,_,282,AUX,Va-r3s-n,aux
280,1681-1685,tako,_,_,_,_,_,282,ADV,Rgp,advmod
281,1686-1695,pridobiti,_,_,_,_,_,3,VERB,Vmep-sf,parataxis
282,1696-1703,gradnja,_,_,_,_,_,282,NOUN,Ncfsa,obj
283,1704-1711,športen,_,0,*->15-1,*[15],3 - Nevtralno[15],287,ADJ,Agpnsn,amod
284,1712-1713,-,_,0,*->15-1,*[15],3 - Nevtralno[15],286,PUNCT,Z,punct
285,1714-1728,rekreacijski,_,0,*->15-1,*[15],3 - Nevtralno[15],284,ADJ,Agpmsg,conj
286,1729-1735,center,_,0,*->15-1,*[15],3 - Nevtralno[15],283,NOUN,Ncmsg,nmod
287,1736-1744,Voždovac,LOC,0,*->15-1|*->18-1,*[15]|*[18],3 - Nevtralno[15]|3 - Nevtralno[16],287,PROPN,Npmsn,nmod
288,1745-1746,z,_,_,_,_,_,291,ADP,Si,case
289,1747-1757,nogometen,_,_,_,_,_,291,ADJ,Agpnsi,amod
290,1758-1766,igrišče,_,_,_,_,_,287,NOUN,Ncnsi,nmod
291,1767-1769,na,_,_,_,_,_,293,ADP,Sl,case
292,1770-1776,streha,_,_,_,_,_,291,NOUN,Ncfsl,nmod
293,1777-1784,objekt,_,_,_,_,_,293,NOUN,Ncmsg,nmod
294,1785-1786,",",_,_,_,_,_,298,PUNCT,Z,punct
295,1787-1789,ki,_,_,_,_,_,298,SCONJ,Cs,mark
296,1790-1792,biti,_,_,_,_,_,298,AUX,Va-f3s-n,aux
297,1793-1803,razpolagati,_,_,_,_,_,294,VERB,Vmpp-sm,acl
298,1804-1805,z,_,_,_,_,_,302,ADP,Si,case
299,1806-1812,72.400,_,_,_,_,_,302,NUM,Mdc,nummod
300,1813-1824,kvadraten,_,_,_,_,_,302,ADJ,Agpmpi,amod
301,1825-1830,meter,_,_,_,_,_,298,NOUN,Ncmpi,obl
302,1831-1839,prostor,_,_,_,_,_,302,NOUN,Ncmsg,nmod
303,1840-1841,.,_,_,_,_,_,282,PUNCT,Z,punct
304,1842-1847,posel,_,_,_,_,_,307,NOUN,Ncmsn,nsubj
305,1848-1850,biti,_,_,_,_,_,307,AUX,Va-r3s-n,cop
306,1851-1857,vreden,_,_,_,_,_,3,ADJ,Agpmsnn,parataxis
307,1858-1860,22,_,_,_,_,_,309,NUM,Mdc,nummod
308,1861-1870,milijon,_,_,_,_,_,307,NOUN,Ncmpg,obl
309,1871-1876,evro,_,_,_,_,_,309,NOUN,Ncmpg,nmod
310,1877-1878,.,_,_,_,_,_,307,PUNCT,Z,punct
311,1879-1884,poleg,_,_,_,_,_,313,ADP,Sg,case
312,1885-1889,ta,_,_,_,_,_,316,DET,Pd-nsg,obl
313,1890-1892,biti,_,_,_,_,_,316,AUX,Va-f3s-n,aux
314,1893-1896,SCT,ORG,_,*->16-9,*[16],_,316,PROPN,Npmsn,nsubj
315,1897-1903,graditi,_,_,_,_,_,307,VERB,Vmpp-sm,advcl
316,1904-1908,tudi,_,_,_,_,_,316,PART,Q,advmod
317,1909-1919,logističen,_,_,*->5-1,*[5],_,319,ADJ,Agpmsny,amod
318,1920-1926,center,_,_,*->5-1,*[5],_,316,NOUN,Ncmsn,nsubj
319,1927-1930,PTT,ORG,0,*->5-1,*[5],3 - Nevtralno,319,PROPN,Npfsg,nmod
320,1931-1937,Srbija,LOC,0,*->5-1|*->3-3,*[5]|*[3],3 - Nevtralno,320,PROPN,Npfsg,nmod
321,1938-1939,v,_,_,_,_,_,323,ADP,Sl,case
322,1940-1946,Zemun,LOC,0,*->24-1,*[24],3 - Nevtralno,321,PROPN,Npmsl,nmod
323,1947-1948,",",_,_,_,_,_,325,PUNCT,Z,punct
324,1949-1958,sodelovati,_,_,*->17-1,*[17],_,316,VERB,Vmpp-sm,conj
325,1959-1962,pri,_,_,_,_,_,327,ADP,Sl,case
326,1963-1970,gradnja,_,_,_,_,_,325,NOUN,Ncfsl,obl
327,1971-1979,nemški,_,0,*->2-1,*[2],3 - Nevtralno[17],329,ADJ,Agpnsg,amod
328,1980-1988,podjetje,_,0,*->2-1,*[2],3 - Nevtralno[17],327,NOUN,Ncnsg,nmod
329,1989-1994,Norma,ORG[9],0,*->2-1,*[2],3 - Nevtralno[17],329,PROPN,Npfsn,nmod
330,1995-2000,Group,ORG[9],0,*->2-1,*[2],3 - Nevtralno[17],330,PROPN,Npmsn,nmod
331,2001-2002,v,_,_,_,_,_,333,ADP,Sl,case
332,2003-2011,Subotica,LOC,0,*->19-1,*[19],3 - Nevtralno,329,PROPN,Npfsl,nmod
333,2012-2015,ter,_,_,_,_,_,336,CCONJ,Cc,cc
334,2016-2022,plazz,ORG[10],0,*->11-1,*[11],3 - Nevtralno[18],336,ADJ,Agpmsg,amod
335,2023-2029,center,ORG[10],0,*->11-1,*[11],3 - Nevtralno[18],330,NOUN,Ncmsg,conj
336,2030-2031,v,_,_,_,_,_,338,ADP,Sl,case
337,2032-2042,Kragujevc,LOC,0,*->9-1,*[9],3 - Nevtralno,336,PROPN,Npmsl,nmod
338,2043-2044,.,_,_,_,_,_,325,PUNCT,Z,punct
339,2045-2051,skupen,_,_,_,_,_,341,ADJ,Agpfsn,amod
340,2052-2060,vrednost,_,_,_,_,_,344,NOUN,Ncfsn,nsubj
341,2061-2064,ta,_,_,_,_,_,343,DET,Pd-mpg,det
342,2065-2071,posel,_,_,_,_,_,341,NOUN,Ncmpg,nmod
343,2072-2077,znašati,_,_,_,_,_,3,VERB,Vmpr3s,parataxis
344,2078-2083,devet,_,_,_,_,_,346,NUM,Mlc-pa,nummod
345,2084-2093,milijon,_,_,_,_,_,344,NOUN,Ncmpg,obl
346,2094-2099,evro,_,_,_,_,_,346,NOUN,Ncmpg,nmod
347,2100-2101,.,_,_,_,_,_,344,PUNCT,Z,punct
348,2102-2103,v,_,_,_,_,_,350,ADP,Sa,case
349,2104-2109,sreda,_,_,_,_,_,353,NOUN,Ncfsa,obl
350,2110-2112,biti,_,_,_,_,_,353,AUX,Va-r3s-n,aux
351,2113-2118,sicer,_,_,_,_,_,353,PART,Q,advmod
352,2119-2125,priti,_,_,_,_,_,3,VERB,Vmep-sn,parataxis
353,2126-2128,na,_,_,_,_,_,355,ADP,Sa,case
354,2129-2132,dan,_,_,_,_,_,353,NOUN,Ncmsan,obl
355,2133-2134,",",_,_,_,_,_,364,PUNCT,Z,punct
356,2135-2137,da,_,_,_,_,_,364,SCONJ,Cs,mark
357,2138-2140,pa,_,_,_,_,_,364,CCONJ,Cc,advmod
358,2141-2143,biti,_,_,_,_,_,364,AUX,Va-r3s-n,aux
359,2144-2147,SCT,ORG,_,*->16-10,*[16],_,364,PROPN,Npmsn,nsubj
360,2148-2150,po,_,_,_,_,_,363,ADP,Sl,case
361,2151-2156,drug,_,_,_,_,_,363,ADJ,Mlpfsl,amod
362,2157-2163,stran,_,_,_,_,_,364,NOUN,Ncfsl,obl
363,2164-2171,izgubiti,_,_,_,_,_,355,VERB,Vmep-sm,acl
364,2172-2179,gradnja,_,_,_,_,_,364,NOUN,Ncfsa,obj
365,2180-2187,predor,_,_,_,_,_,365,NOUN,Ncmsg,nmod
366,2188-2195,Vijenac,_,_,_,_,_,366,PROPN,Npmsn,nmod
367,2196-2197,v,_,_,_,_,_,369,ADP,Sl,case
368,2198-2208,Federacija,LOC[11],_,*->10-2,*[10],_,366,PROPN,Npfsl,nmod
369,2209-2212,Bih,LOC[11],_,*->10-2,*[10],_,369,PROPN,Npmsn,nmod
370,2213-2214,.,_,_,_,_,_,353,PUNCT,Z,punct
371,2215-2222,pogodba,_,_,_,_,_,382,NOUN,Ncfsa,obj
372,2223-2224,",",_,_,_,_,_,376,PUNCT,Z,punct
373,2225-2231,vreden,_,_,_,_,_,375,ADV,Rgp,advmod
374,2232-2236,"54,6",_,_,_,_,_,376,NUM,Mdc,nummod
375,2237-2245,milijon,_,_,_,_,_,369,NOUN,Ncmsg,appos
376,2246-2251,evro,_,_,_,_,_,376,NOUN,Ncmpg,nmod
377,2252-2253,",",_,_,_,_,_,382,PUNCT,Z,punct
378,2254-2256,biti,_,_,_,_,_,382,AUX,Va-r3s-n,aux
379,2257-2258,v,_,_,_,_,_,381,ADP,Sa,case
380,2259-2264,sreda,_,_,_,_,_,382,NOUN,Ncfsa,obl
381,2265-2272,razdreti,_,_,_,_,_,353,VERB,Vmep-sf,parataxis
382,2273-2279,družba,_,_,_,_,_,382,NOUN,Ncfsn,nsubj
383,2280-2282,za,_,_,_,_,_,385,ADP,Sa,case
384,2283-2294,upravljanje,_,_,_,_,_,383,NOUN,Ncnsa,nmod
385,2295-2296,z,_,_,_,_,_,387,ADP,Si,case
386,2297-2308,avtocesta,_,_,_,_,_,385,NOUN,Ncfpi,nmod
387,2309-2310,v,_,_,_,_,_,389,ADP,Sl,case
388,2311-2321,Federacija,LOC[12],0,*->10-3,*[10],3 - Nevtralno[19],387,PROPN,Npfsl,nmod
389,2322-2325,Bih,LOC[12],0,*->10-3,*[10],3 - Nevtralno[19],389,PROPN,Npfsn,nmod
390,2326-2327,",",_,_,_,_,_,397,PUNCT,Z,punct
391,2328-2330,za,_,_,_,_,_,393,ADP,Sa,case
392,2331-2333,ta,_,_,_,_,_,397,DET,Pd-nsa,obl
393,2334-2336,pa,_,_,_,_,_,397,CCONJ,Cc,advmod
394,2337-2339,biti,_,_,_,_,_,397,AUX,Va-r3p-n,aux
395,2340-2342,se,_,_,_,_,_,397,PRON,Px------y,expl
396,2343-2351,odločiti,_,_,_,_,_,353,VERB,Vmep-pm,parataxis
397,2352-2354,po,_,_,_,_,_,399,ADP,Sl,case
398,2355-2363,pogovor,_,_,_,_,_,397,NOUN,Ncmsl,obl
399,2364-2365,z,_,_,_,_,_,401,ADP,Si,case
400,2366-2378,predstavnik,_,_,_,_,_,399,NOUN,Ncmpi,nmod
401,2379-2382,SCT,ORG,1,*->16-11,*[16],4 - Pozitivno,401,PROPN,Npmpg,nmod
402,2383-2385,in,_,_,_,_,_,404,CCONJ,Cc,cc
403,2386-2397,nadzornik,_,_,*->6-1,*[6],_,401,NOUN,Ncmsi,conj
404,2398-2405,gradnja,_,_,*->6-1,*[6],_,404,NOUN,Ncfsg,nmod
405,2406-2407,",",_,_,_,_,_,407,PUNCT,Z,punct
406,2408-2418,inštitut,_,_,*->6-2,*[6],_,405,NOUN,Ncmsi,conj
407,2419-2422,IGH,ORG,0,*->6-2|*->1-1,*[6]|*[1],3 - Nevtralno,3,PUNCT,Z,punct
