idx,chars_idx,token,entity_type,sentiment,idk_1,idk_2,orig_sentiment,heads,upos,xpos,deprel
0,0-7,premier,_,_,*->1-1,*[1],_,13,NOUN,Ncmsn,nsubj
1,8-13,Janez,PER[1],_,*->1-1,*[1],_,1,PROPN,Npmsn,nmod
2,14-19,Janša,PER[1],_,*->1-1,*[1],_,2,PROPN,Npmsn,flat:name
3,20-22,se,_,_,_,_,_,13,PRON,Px------y,expl
4,23-25,biti,_,_,_,_,_,13,AUX,Va-r3s-n,aux
5,26-27,z,_,_,_,_,_,8,ADP,Si,case
6,28-36,hrvaški,_,_,*->2-1,*[2],_,8,ADJ,Agpmsi,amod
7,37-49,predsednik,_,_,*->2-1,*[2],_,13,NOUN,Ncmsi,obl
8,50-58,Stipet,PER[2],_,*->2-1,*[2],_,8,PROPN,Npmsi,nmod
9,59-66,Mesić,PER[2],_,*->2-1,*[2],_,9,PROPN,Npmsi,flat:name
10,67-68,v,_,_,_,_,_,12,ADP,Sl,case
11,69-75,Pariz,LOC,_,*->3-1,*[3],_,13,PROPN,Npmsl,obl
12,76-86,pogovarjati,_,_,_,_,_,0,VERB,Vmpp-sm,root
13,87-91,tudi,_,_,_,_,_,13,PART,Q,advmod
14,92-93,o,_,_,_,_,_,16,ADP,Sl,case
15,94-102,vinjeta,_,_,_,_,_,13,NOUN,Ncfpl,obl
16,103-105,in,_,_,_,_,_,18,CCONJ,Cc,cc
17,106-113,zavrniti,_,_,_,_,_,13,VERB,Vmep-sm,conj
18,114-121,hrvaški,_,_,_,_,_,20,ADJ,Agpmpa,amod
19,122-128,očitek,_,_,_,_,_,18,NOUN,Ncmpa,obj
20,129-130,.,_,_,_,_,_,13,PUNCT,Z,punct
21,131-138,premier,_,_,*->1-2,*[1],_,36,NOUN,Ncmsn,nsubj
22,139-144,Janez,PER[3],_,*->1-2,*[1],_,22,PROPN,Npmsn,nmod
23,145-150,Janša,PER[3],_,*->1-2,*[1],_,23,PROPN,Npmsn,flat:name
24,151-153,se,_,_,_,_,_,36,PRON,Px------y,expl
25,154-156,biti,_,_,_,_,_,36,AUX,Va-r3s-n,aux
26,157-159,ob,_,_,_,_,_,28,ADP,Sl,case
27,160-164,rob,_,_,_,_,_,36,NOUN,Ncmsl,obl
28,165-169,vrh,_,_,_,_,_,28,NOUN,Ncmsg,nmod
29,170-181,ustanovitev,_,_,_,_,_,29,NOUN,Ncfsg,nmod
30,182-187,unija,ORG[4],0,*->4-1,*[4],3 - Nevtralno[7],30,NOUN,Ncfsg,nmod
31,188-190,za,ORG[4],0,*->4-1,*[4],3 - Nevtralno[7],33,ADP,Sa,case
32,191-202,Sredozemlje,ORG[4],0,*->4-1,*[4],3 - Nevtralno[7],30,PROPN,Npnsa,nmod
33,203-204,v,_,_,_,_,_,35,ADP,Sl,case
34,205-211,Pariz,LOC,0,*->3-2,*[3],3 - Nevtralno,33,PROPN,Npmsl,nmod
35,212-218,sestati,_,_,_,_,_,13,VERB,Vmep-sm,parataxis
36,219-220,z,_,_,_,_,_,39,ADP,Si,case
37,221-229,hrvaški,_,_,*->2-2,*[2],_,39,ADJ,Agpmsi,amod
38,230-242,predsednik,_,_,*->2-2,*[2],_,36,NOUN,Ncmsi,obl
39,243-251,Stipet,PER[5],_,*->2-2,*[2],_,39,PROPN,Npmsi,nmod
40,252-259,Mesić,PER[5],_,*->2-2,*[2],_,40,PROPN,Npmsi,flat:name
41,260-261,.,_,_,_,_,_,43,PUNCT,Z,punct
42,262-273,pogovarjati,_,_,_,_,_,36,VERB,Vmpp-dm,parataxis
43,274-277,biti,_,_,_,_,_,43,AUX,Va-r3d-n,aux
44,278-280,se,_,_,_,_,_,43,PRON,Px------y,expl
45,281-289,predvsem,_,_,_,_,_,43,PART,Q,advmod
46,290-291,o,_,_,_,_,_,48,ADP,Sl,case
47,292-301,reševanje,_,_,_,_,_,43,NOUN,Ncnsl,obl
48,302-311,vprašanje,_,_,_,_,_,48,NOUN,Ncnsg,nmod
49,312-316,meja,_,_,_,_,_,49,NOUN,Ncfsg,nmod
50,317-318,",",_,_,_,_,_,53,PUNCT,Z,punct
51,319-320,o,_,_,_,_,_,53,ADP,Sl,case
52,321-327,uvedba,_,_,_,_,_,49,NOUN,Ncfsl,conj
53,328-334,vinjet,_,_,_,_,_,53,NOUN,Ncnpg,nmod
54,335-336,v,_,_,_,_,_,56,ADP,Sl,case
55,337-346,Slovenija,LOC,_,*->5-1,*[5],_,54,PROPN,Npfsl,nmod
56,347-350,ter,_,_,_,_,_,59,CCONJ,Cc,cc
57,351-352,o,_,_,_,_,_,59,ADP,Sl,case
58,353-365,napredovanje,_,_,_,_,_,53,NOUN,Ncnsl,conj
59,366-373,Hrvaška,LOC,_,*->6-1,*[6],_,59,PROPN,Npfsg,nmod
60,374-376,na,_,_,_,_,_,62,ADP,Sl,case
61,377-381,pot,_,_,_,_,_,59,NOUN,Ncfsl,nmod
62,382-383,v,_,_,_,_,_,65,ADP,Sa,case
63,384-392,evropski,LOC[6],0,*->7-1,*[7],3 - Nevtralno[8],65,ADJ,Agpfsa,amod
64,393-398,unija,LOC[6],0,*->7-1,*[7],3 - Nevtralno[8],62,NOUN,Ncfsa,nmod
65,399-400,.,_,_,_,_,_,53,PUNCT,Z,punct
66,401-408,premier,_,_,*->1-3,*[1],_,69,NOUN,Ncmsn,vocative
67,409-411,biti,_,_,_,_,_,69,AUX,Va-r3s-n,aux
68,412-418,oceniti,_,_,_,_,_,13,VERB,Vmep-sm,parataxis
69,419-420,",",_,_,_,_,_,138,PUNCT,Z,punct
70,421-423,da,_,_,_,_,_,138,SCONJ,Cs,mark
71,424-426,biti,_,_,_,_,_,138,AUX,Va-r3s-n,aux
72,427-428,"""",_,_,_,_,_,76,PUNCT,Z,punct
73,429-434,nekaj,_,_,_,_,_,76,DET,Rgp,det
74,435-441,dober,_,_,_,_,_,76,ADJ,Agpmpg,amod
75,442-448,obet,_,_,_,_,_,101,NOUN,Ncmpg,obj
76,449-450,"""",_,_,_,_,_,76,PUNCT,Z,punct
77,451-454,pri,_,_,_,_,_,79,ADP,Sl,case
78,455-464,reševanje,_,_,_,_,_,76,NOUN,Ncnsl,nmod
79,465-472,odprt,_,_,_,_,_,81,ADJ,Appnpg,amod
80,473-481,vprašanje,_,_,_,_,_,79,NOUN,Ncnpg,nmod
81,482-486,meja,_,_,_,_,_,81,NOUN,Ncfsg,nmod
82,487-488,",",_,_,_,_,_,87,PUNCT,Z,punct
83,489-490,z,_,_,_,_,_,85,ADP,Si,case
84,491-499,kateri,_,_,_,_,_,87,DET,Pq-mpi,obl
85,500-502,se,_,_,_,_,_,87,PRON,Px------y,expl
86,503-512,ukvarjati,_,_,_,_,_,82,VERB,Vmpr3d,acl
87,513-519,mešan,_,_,_,_,_,89,ADJ,Appfdn,amod
88,520-528,komisija,_,_,_,_,_,87,NOUN,Ncfdn,nsubj
89,529-530,",",_,_,_,_,_,94,PUNCT,Z,punct
90,531-533,ki,_,_,_,_,_,94,SCONJ,Cs,mark
91,534-537,biti,_,_,_,_,_,94,AUX,Va-r3d-n,aux
92,538-540,on,_,_,_,_,_,94,PRON,Pp3mda--y,obj
93,541-551,ustanoviti,_,_,_,_,_,89,VERB,Vmep-dm,acl
94,552-557,vlada,_,_,_,_,_,94,NOUN,Ncfda,nsubj
95,558-559,.,_,_,_,_,_,87,PUNCT,Z,punct
96,560-561,"""",_,_,_,_,_,101,PUNCT,Z,punct
97,562-569,hrvaški,_,_,*->2-3,*[2],_,99,ADJ,Agpmsny,amod
98,570-580,predsednik,_,_,*->2-3,*[2],_,101,NOUN,Ncmsn,nsubj
99,581-583,biti,_,_,_,_,_,101,AUX,Va-r3s-n,aux
100,584-590,podpreti,_,_,_,_,_,13,VERB,Vmep-sm,parataxis
101,591-594,ves,_,_,_,_,_,103,DET,Pg-mpa,det
102,595-601,napor,_,_,_,_,_,101,NOUN,Ncmpa,obj
103,602-603,",",_,_,_,_,_,110,PUNCT,Z,punct
104,604-606,ki,_,_,_,_,_,110,SCONJ,Cs,mark
105,607-610,on,_,_,_,_,_,110,PRON,Pp3mpa--y,obj
106,611-612,v,_,_,_,_,_,109,ADP,Sl,case
107,613-620,zadnji,_,_,_,_,_,109,ADJ,Agpnsl,amod
108,621-625,leto,_,_,_,_,_,110,NOUN,Ncnsl,obl
109,626-633,vlagati,_,_,_,_,_,103,VERB,Vmpr1p,acl
110,634-635,v,_,_,_,_,_,112,ADP,Sa,case
111,636-638,ta,_,_,_,_,_,110,DET,Pd-nsa,obl
112,639-640,",",_,_,_,_,_,117,PUNCT,Z,punct
113,641-643,da,_,_,_,_,_,117,SCONJ,Cs,mark
114,644-650,odprt,_,_,_,_,_,116,ADJ,Appnpa,amod
115,651-660,vprašanje,_,_,_,_,_,117,NOUN,Ncnpa,obj
116,661-667,rešiti,_,_,_,_,_,112,VERB,Vmer1p,acl
117,668-672,tudi,_,_,_,_,_,117,PART,Q,advmod
118,673-674,z,_,_,_,_,_,120,ADP,Si,case
119,675-682,pomoč,_,_,_,_,_,117,NOUN,Ncfsi,obl
120,683-690,skupen,_,_,_,_,_,122,ADJ,Agpfpg,amod
121,691-698,komisija,_,_,_,_,_,120,NOUN,Ncfpg,nmod
122,699-701,in,_,_,_,_,_,138,CCONJ,Cc,cc
123,702-704,da,_,_,_,_,_,138,SCONJ,Cs,mark
124,705-710,tisti,_,_,_,_,_,126,DET,Pd-npn,det
125,711-720,vprašanje,_,_,_,_,_,138,NOUN,Ncnpn,nsubj
126,721-722,",",_,_,_,_,_,131,PUNCT,Z,punct
127,723-727,kjer,_,_,_,_,_,131,SCONJ,Cs,mark
128,728-731,biti,_,_,_,_,_,131,AUX,Va-r1p-n,aux
129,732-734,že,_,_,_,_,_,131,PART,Q,advmod
130,735-741,priti,_,_,_,_,_,126,VERB,Vmep-pm,acl
131,742-747,blizu,_,_,_,_,_,131,ADV,Rgp,advmod
132,748-749,",",_,_,_,_,_,131,PUNCT,Z,punct
133,750-755,izven,_,_,_,_,_,137,ADP,Sg,case
134,756-759,ta,_,_,_,_,_,137,DET,Pd-npg,det
135,760-766,mejen,_,_,_,_,_,137,ADJ,Agpnpg,amod
136,767-775,vprašanje,_,_,_,_,_,138,NOUN,Ncnpg,obl
137,776-783,zapreti,_,_,_,_,_,117,VERB,Vmer1p,conj
138,784-785,v,_,_,_,_,_,142,ADP,Sl,case
139,786-789,čim,_,_,_,_,_,141,ADV,Rgp,advmod
140,790-797,kratek,_,_,_,_,_,142,ADJ,Agcmsl,amod
141,798-802,čas,_,_,_,_,_,138,NOUN,Ncmsl,obl
142,803-804,",",_,_,_,_,_,138,PUNCT,Z,punct
143,805-810,tukaj,_,_,_,_,_,148,ADV,Rgp,advmod
144,811-813,biti,_,_,_,_,_,148,AUX,Va-r3s-n,cop
145,814-819,nekaj,_,_,_,_,_,148,DET,Rgp,det
146,820-826,dober,_,_,_,_,_,148,ADJ,Agpmpg,amod
147,827-833,obet,_,_,_,_,_,138,NOUN,Ncmpg,obj
148,834-835,",",_,_,_,_,_,138,PUNCT,Z,punct
149,836-837,"""",_,_,_,_,_,152,PUNCT,Z,punct
150,838-840,biti,_,_,_,_,_,152,AUX,Va-r3s-n,aux
151,841-848,povedati,_,_,_,_,_,13,VERB,Vmep-sm,parataxis
152,849-854,Janša,PER,_,*->1-4,*[1],_,152,PROPN,Npmsn,nsubj
153,855-856,.,_,_,_,_,_,13,PUNCT,Z,punct
154,857-862,Janša,PER,_,*->1-5,*[1],_,168,PROPN,Npmsn,parataxis
155,863-864,:,_,_,_,_,_,155,PUNCT,Z,punct
156,865-873,Slovenec,PER,_,*->8-1,*[8],_,159,PROPN,Npmpn,nsubj
157,874-876,biti,_,_,_,_,_,159,AUX,Va-c,aux
158,877-882,imeti,_,_,_,_,_,13,VERB,Vmpp-pm,parataxis
159,883-885,na,_,_,_,_,_,161,ADP,Sl,case
160,886-894,Hrvaško,LOC,_,*->6-2,*[6],_,159,PROPN,Npnsl,obl
161,895-899,raje,_,_,_,_,_,159,ADV,Rgc,advmod
162,900-907,vinjeta,_,_,_,_,_,168,NOUN,Ncfsg,obj
163,908-915,hrvaški,_,_,*->2-4,*[2],_,165,ADJ,Agpmsny,amod
164,916-926,predsednik,_,_,*->2-4,*[2],_,168,NOUN,Ncmsn,nsubj
165,927-929,biti,_,_,_,_,_,168,AUX,Va-r3s-n,aux
166,930-937,posebej,_,_,_,_,_,168,ADV,Rgp,advmod
167,938-946,opozoriti,_,_,_,_,_,159,VERB,Vmep-sm,conj
168,947-949,na,_,_,_,_,_,170,ADP,Sa,case
169,950-956,uvedba,_,_,_,_,_,168,NOUN,Ncfsa,obl
170,957-963,vinjet,_,_,_,_,_,170,NOUN,Ncnpg,nmod
171,964-965,v,_,_,_,_,_,173,ADP,Sl,case
172,966-975,Slovenija,LOC,0,*->5-2,*[5],3 - Nevtralno,171,PROPN,Npfsl,nmod
173,976-978,in,_,_,_,_,_,175,CCONJ,Cc,cc
174,979-987,poudariti,_,_,_,_,_,168,VERB,Vmep-sm,conj
175,988-989,",",_,_,_,_,_,181,PUNCT,Z,punct
176,990-992,da,_,_,_,_,_,181,SCONJ,Cs,mark
177,993-995,on,_,_,_,_,_,181,PRON,Pp3msd--y,obj
178,996-998,biti,_,_,_,_,_,181,AUX,Va-r3s-n,aux
179,999-1004,Janša,PER,_,*->1-6,*[1],_,181,PROPN,Npmsn,nsubj
180,1005-1012,zatrditi,_,_,_,_,_,175,VERB,Vmep-sm,ccomp
181,1013-1014,",",_,_,_,_,_,188,PUNCT,Z,punct
182,1015-1017,da,_,_,_,_,_,188,SCONJ,Cs,mark
183,1018-1020,ta,_,_,_,_,_,185,DET,Pd-msn,det
184,1021-1026,ukrep,_,_,_,_,_,188,NOUN,Ncmsn,nsubj
185,1027-1029,ne,_,_,_,_,_,188,PART,Q,advmod
186,1030-1032,biti,_,_,_,_,_,188,AUX,Va-f3s-n,cop
187,1033-1039,trajen,_,_,_,_,_,181,ADJ,Appmsnn,ccomp
188,1040-1041,",",_,_,_,_,_,188,PUNCT,Z,punct
189,1042-1045,saj,_,_,_,_,_,192,CCONJ,Cc,cc
190,1046-1048,se,_,_,_,_,_,192,PRON,Px------y,expl
191,1049-1058,pričakovati,_,_,_,_,_,188,VERB,Vmpr3s,conj
192,1059-1065,uvedba,_,_,_,_,_,192,NOUN,Ncfsn,nsubj
193,1066-1078,satelitski,_,_,_,_,_,195,ADJ,Agpnsg,amod
194,1079-1091,cestninjenje,_,_,_,_,_,193,NOUN,Ncnsg,nmod
195,1092-1093,.,_,_,_,_,_,181,PUNCT,Z,punct
196,1094-1095,"""",_,_,_,_,_,198,PUNCT,Z,punct
197,1096-1100,delo,_,_,_,_,_,193,NOUN,Ncnsg,nmod
198,1101-1103,se,_,_,_,_,_,219,PRON,Px------y,expl
199,1104-1106,na,_,_,_,_,_,201,ADP,Sl,case
200,1107-1110,ta,_,_,_,_,_,219,DET,Pd-nsl,obl
201,1111-1112,",",_,_,_,_,_,208,PUNCT,Z,punct
202,1113-1115,da,_,_,_,_,_,208,SCONJ,Cs,mark
203,1116-1118,se,_,_,_,_,_,208,PRON,Px------y,expl
204,1119-1121,biti,_,_,_,_,_,208,AUX,Va-f3s-n,aux
205,1122-1127,vsak,_,_,_,_,_,207,DET,Pg-nsn,det
206,1128-1134,vozilo,_,_,_,_,_,208,NOUN,Ncnsn,nsubj
207,1135-1145,spremljati,_,_,_,_,_,201,VERB,Vmpp-sn,acl
208,1146-1156,satelitski,_,_,_,_,_,208,ADJ,Agpnsn,nsubj
209,1157-1158,.,_,_,_,_,_,219,PUNCT,Z,punct
210,1159-1163,kdor,_,_,_,_,_,215,PRON,Pr-msn,nsubj
211,1164-1166,se,_,_,_,_,_,215,PRON,Px------y,expl
212,1167-1169,biti,_,_,_,_,_,215,AUX,Va-f3s-n,aux
213,1170-1173,več,_,_,_,_,_,215,DET,Rgc,det
214,1174-1179,vozilo,_,_,_,_,_,219,NOUN,Ncnpg,obj
215,1180-1181,",",_,_,_,_,_,208,PUNCT,Z,punct
216,1182-1184,biti,_,_,_,_,_,219,AUX,Va-f3s-n,aux
217,1185-1188,več,_,_,_,_,_,219,PART,Q,advmod
218,1189-1195,plačati,_,_,_,_,_,13,VERB,Vmep-sm,parataxis
219,1196-1197,",",_,_,_,_,_,219,PUNCT,Z,punct
220,1198-1199,"""",_,_,_,_,_,223,PUNCT,Z,punct
221,1200-1202,biti,_,_,_,_,_,223,AUX,Va-r3s-n,aux
222,1203-1210,povedati,_,_,_,_,_,13,VERB,Vmep-sm,parataxis
223,1211-1216,Mesić,PER,0,*->2-5,*[2],3 - Nevtralno,223,PROPN,Npmsn,nsubj
224,1217-1219,in,_,_,_,_,_,226,CCONJ,Cc,cc
225,1220-1225,dodati,_,_,_,_,_,223,VERB,Vmep-sm,conj
226,1226-1227,",",_,_,_,_,_,231,PUNCT,Z,punct
227,1228-1230,da,_,_,_,_,_,231,SCONJ,Cs,mark
228,1231-1233,se,_,_,_,_,_,231,PRON,Px------y,expl
229,1234-1236,on,_,_,_,_,_,231,PRON,Pp3msd--y,obj
230,1237-1240,zdeti,_,_,_,_,_,226,VERB,Vmpr3s,ccomp
231,1241-1243,ta,_,_,_,_,_,234,DET,Pd-nsn,det
232,1244-1249,dober,_,_,_,_,_,234,ADJ,Agpfsn,amod
233,1250-1257,rešitev,_,_,_,_,_,231,NOUN,Ncfsn,nsubj
234,1258-1259,.,_,_,_,_,_,219,PUNCT,Z,punct
235,1260-1267,premier,_,_,*->1-7,*[1],_,241,NOUN,Ncmsn,nsubj
236,1268-1273,Janša,PER,_,*->1-7,*[1],_,236,PROPN,Npmsn,nmod
237,1274-1276,biti,_,_,_,_,_,241,AUX,Va-r3s-n,aux
238,1277-1278,k,_,_,_,_,_,240,ADP,Sd,case
239,1279-1283,ta,_,_,_,_,_,241,DET,Pd-nsd,obl
240,1284-1289,dodati,_,_,_,_,_,231,VERB,Vmep-sm,conj
241,1290-1291,",",_,_,_,_,_,260,PUNCT,Z,punct
242,1292-1294,da,_,_,_,_,_,260,SCONJ,Cs,mark
243,1295-1297,biti,_,_,_,_,_,260,AUX,Va-c,aux
244,1298-1306,Slovenec,PER,0,*->8-2,*[8],3 - Nevtralno,260,PROPN,Npmpn,nsubj
245,1307-1308,",",_,_,_,_,_,252,PUNCT,Z,punct
246,1309-1311,ki,_,_,_,_,_,252,SCONJ,Cs,mark
247,1312-1316,prav,_,_,_,_,_,249,PART,Q,advmod
248,1317-1319,ta,_,_,_,_,_,250,DET,Pd-mpa,det
249,1320-1323,dan,_,_,_,_,_,252,NOUN,Ncmpa,obl
250,1324-1330,veliko,_,_,_,_,_,252,DET,Rgp,advmod
251,1331-1339,potovati,_,_,_,_,_,245,VERB,Vmpr3p,acl
252,1340-1342,po,_,_,_,_,_,254,ADP,Sl,case
253,1343-1351,Hrvaško,LOC,_,*->6-3,*[6],_,252,PROPN,Npnsl,obl
254,1352-1353,",",_,_,_,_,_,252,PUNCT,Z,punct
255,1354-1358,tudi,_,_,_,_,_,260,PART,Q,advmod
256,1359-1361,na,_,_,_,_,_,258,ADP,Sl,case
257,1362-1370,Hrvaško,LOC,0,*->6-4,*[6],3 - Nevtralno,260,PROPN,Npnsl,obl
258,1371-1375,raje,_,_,_,_,_,260,ADV,Rgc,advmod
259,1376-1383,plačati,_,_,_,_,_,241,VERB,Vmep-pm,ccomp
260,1384-1386,35,_,_,_,_,_,262,NUM,Mdc,nummod
261,1387-1392,evro,_,_,_,_,_,260,NOUN,Ncmpg,obj
262,1393-1395,za,_,_,_,_,_,265,ADP,Sa,case
263,1396-1404,polleten,_,_,_,_,_,265,ADJ,Agpfsa,amod
264,1405-1412,vinjeta,_,_,_,_,_,262,NOUN,Ncnsa,nmod
265,1413-1414,",",_,_,_,_,_,268,PUNCT,Z,punct
266,1415-1418,kot,_,_,_,_,_,268,SCONJ,Cs,mark
267,1419-1424,imeti,_,_,_,_,_,265,VERB,Vmpp-pm,acl
268,1425-1432,sedanji,_,_,_,_,_,270,ADJ,Agpmsay,amod
269,1433-1439,sistem,_,_,_,_,_,268,NOUN,Ncmsan,obj
270,1440-1441,.,_,_,_,_,_,260,PUNCT,Z,punct
271,1442-1444,za,_,_,_,_,_,273,ADP,Sa,case
272,1445-1451,večina,_,_,_,_,_,279,NOUN,Ncfsa,obl
273,1452-1463,uporabnik,_,_,_,_,_,273,NOUN,Ncmpg,nmod
274,1464-1472,avtocest,_,_,_,_,_,274,NOUN,Ncfpg,nmod
275,1473-1475,biti,_,_,_,_,_,279,AUX,Va-r3p-n,cop
276,1476-1483,vinjeta,_,_,_,_,_,279,NOUN,Ncfpn,nsubj
277,1484-1488,bolj,_,_,_,_,_,279,ADV,Rgc,advmod
278,1489-1497,pravičen,_,_,_,_,_,13,ADJ,Agpfpn,parataxis
279,1498-1500,od,_,_,_,_,_,282,ADP,Sg,case
280,1501-1511,prejšnji,_,_,_,_,_,282,ADJ,Agpnsg,amod
281,1512-1524,cestninjenje,_,_,_,_,_,279,NOUN,Ncnsg,nmod
282,1525-1526,",",_,_,_,_,_,287,PUNCT,Z,punct
283,1527-1532,poleg,_,_,_,_,_,285,ADP,Sg,case
284,1533-1537,ta,_,_,_,_,_,287,DET,Pd-nsg,obl
285,1538-1540,pa,_,_,_,_,_,287,CCONJ,Cc,advmod
286,1541-1543,biti,_,_,_,_,_,279,VERB,Va-r3p-n,advcl
287,1544-1546,na,_,_,_,_,_,289,ADP,Sa,case
288,1547-1552,volja,_,_,_,_,_,287,NOUN,Ncfsa,obl
289,1553-1557,tudi,_,_,_,_,_,287,PART,Q,advmod
290,1558-1563,drug,_,_,_,_,_,292,ADJ,Mlpfpn,amod
291,1564-1569,cesta,_,_,_,_,_,287,NOUN,Ncfpn,nsubj
292,1570-1571,",",_,_,_,_,_,296,PUNCT,Z,punct
293,1572-1574,ne,_,_,_,_,_,296,PART,Q,cc:preconj
294,1575-1577,le,_,_,_,_,_,294,PART,Q,fixed
295,1578-1587,avtocesta,_,_,_,_,_,292,NOUN,Ncfpn,conj
296,1588-1589,",",_,_,_,_,_,300,PUNCT,Z,punct
297,1590-1592,biti,_,_,_,_,_,300,AUX,Va-r3s-n,aux
298,1593-1600,premier,_,0,*->1-8,*[1],3 - Nevtralno,300,NOUN,Ncmsn,nsubj
299,1601-1608,zavrniti,_,_,_,_,_,287,VERB,Vmep-sm,conj
300,1609-1616,hrvaški,_,_,_,_,_,302,ADJ,Agpmpa,amod
301,1617-1623,očitek,_,_,_,_,_,300,NOUN,Ncmpa,obj
302,1624-1625,",",_,_,_,_,_,308,PUNCT,Z,punct
303,1626-1628,da,_,_,_,_,_,308,SCONJ,Cs,mark
304,1629-1636,vinjeta,_,_,_,_,_,308,NOUN,Ncfpn,nsubj
305,1637-1641,biti,_,_,_,_,_,308,AUX,Va-r3p-y,cop
306,1642-1650,pravičen,_,_,_,_,_,308,ADJ,Agpmsnn,amod
307,1651-1656,ukrep,_,_,_,_,_,302,NOUN,Ncmsn,acl
308,1657-1659,in,_,_,_,_,_,312,CCONJ,Cc,cc
309,1660-1662,da,_,_,_,_,_,312,SCONJ,Cs,mark
310,1663-1667,biti,_,_,_,_,_,312,AUX,Va-r3p-y,aux
311,1668-1677,zmanjšati,_,_,_,_,_,308,VERB,Vmep-pf,conj
312,1678-1683,gneča,_,_,_,_,_,312,NOUN,Ncfsg,obj
313,1684-1686,na,_,_,_,_,_,315,ADP,Sl,case
314,1687-1693,cesta,_,_,_,_,_,313,NOUN,Ncfpl,nmod
