idx,chars_idx,token,entity_type,sentiment,idk_1,idk_2,orig_sentiment,heads,upos,xpos,deprel
0,0-2,po,_,_,_,_,_,2,ADP,Sl,case
1,3-14,ustanovitev,_,_,_,_,_,20,NOUN,Ncfsl,obl
2,15-25,poslanski,_,_,_,_,_,4,ADJ,Agpfpg,amod
3,26-32,skupina,_,_,_,_,_,2,NOUN,Ncfpg,nmod
4,33-34,(,_,_,_,_,_,6,PUNCT,Z,punct
5,35-37,PS,_,_,_,_,_,4,PROPN,Npmsn,appos
6,38-39,),_,_,_,_,_,6,PUNCT,Z,punct
7,40-41,v,_,_,_,_,_,10,ADP,Sl,case
8,42-56,novoizvoljen,_,_,_,_,_,10,ADJ,Agpmsl,amod
9,57-63,sklic,_,_,_,_,_,20,NOUN,Ncmsl,obl
10,64-74,parlament,ORG,_,*->1-1,*[1],_,10,NOUN,Ncmsg,nmod
11,75-80,lahko,_,_,_,_,_,20,ADV,Rgp,advmod
12,81-85,zdaj,_,_,_,_,_,20,ADV,Rgp,advmod
13,86-96,predsednik,_,_,*->2-1,*[2],_,20,NOUN,Ncmsn,nsubj
14,97-103,država,_,_,*->2-1,*[2],_,14,NOUN,Ncfsg,nmod
15,104-106,po,_,_,_,_,_,17,ADP,Sl,case
16,107-114,posvet,_,_,_,_,_,20,NOUN,Ncmsl,obl
17,115-116,z,_,_,_,_,_,19,ADP,Si,case
18,117-122,on,_,_,_,_,_,17,PRON,Pp3mpi,nmod
19,123-131,predlagati,_,_,_,_,_,0,VERB,Vmbr3s,root
20,132-141,kandidat,_,_,_,_,_,20,NOUN,Ncmsay,obj
21,142-144,za,_,_,_,_,_,24,ADP,Sa,case
22,145-151,nov,_,_,_,_,_,24,ADJ,Agpmsa,amod
23,152-162,mandatar,_,_,_,_,_,21,NOUN,Ncmsay,nmod
24,163-164,.,_,_,_,_,_,26,PUNCT,Z,punct
25,165-170,teden,_,_,_,_,_,24,NOUN,Ncmsan,nmod
26,171-174,dan,_,_,_,_,_,26,NOUN,Ncmpg,nmod
27,175-177,po,_,_,_,_,_,30,ADP,Sl,case
28,178-187,ustanoven,_,_,_,_,_,30,ADJ,Agpfsl,amod
29,188-192,seja,_,_,_,_,_,27,NOUN,Ncfsl,nmod
30,193-202,državen,ORG[1],_,*->3-1,*[3],_,32,ADJ,Agpmsg,amod
31,203-208,zbor,ORG[1],_,*->3-1,*[3],_,30,NOUN,Ncmsg,nmod
32,209-210,",",_,_,_,_,_,40,PUNCT,Z,punct
33,211-216,torej,_,_,_,_,_,40,ADV,Rgp,advmod
34,217-222,danes,_,_,_,_,_,20,ADV,Rgp,advmod
35,223-224,",",_,_,_,_,_,40,PUNCT,Z,punct
36,225-227,se,_,_,_,_,_,40,PRON,Px------y,expl
37,228-230,biti,_,_,_,_,_,40,AUX,Va-r3s-n,aux
38,231-237,namreč,_,_,_,_,_,40,CCONJ,Cc,advmod
39,238-245,izteči,_,_,_,_,_,20,VERB,Vmep-sm,parataxis
40,246-249,rok,_,_,_,_,_,40,NOUN,Ncmsn,nsubj
41,250-251,",",_,_,_,_,_,45,PUNCT,Z,punct
42,252-254,do,_,_,_,_,_,44,ADP,Sg,case
43,255-263,kateri,_,_,_,_,_,45,DET,Pq-msg,obl
44,264-270,morati,_,_,_,_,_,41,VERB,Vmpr3p,acl
45,271-275,biti,_,_,_,_,_,47,AUX,Va-n,cop
46,276-288,ustanovljen,_,_,_,_,_,49,ADJ,Appfpn,amod
47,289-298,poslanski,_,_,_,_,_,49,ADJ,Agpfpn,amod
48,299-306,skupina,_,_,_,_,_,45,NOUN,Ncfpn,nsubj
49,307-308,v,_,_,_,_,_,51,ADP,Sl,case
50,309-319,parlament,ORG,0,*->1-2,*[1],3 - Nevtralno,49,NOUN,Ncmsl,nmod
51,320-321,.,_,_,_,_,_,45,PUNCT,Z,punct
52,322-326,nov,_,_,_,_,_,54,ADJ,Agpmpn,amod
53,327-332,vodja,_,_,_,_,_,58,NOUN,Ncmpn,nsubj
54,333-343,poslanski,_,_,_,_,_,56,ADJ,Agpfpg,amod
55,344-350,skupina,_,_,_,_,_,54,NOUN,Ncfpg,nmod
56,351-353,biti,_,_,_,_,_,58,AUX,Va-r3p-n,aux
57,354-360,morati,_,_,_,_,_,20,VERB,Vmpp-pm,parataxis
58,361-362,o,_,_,_,_,_,60,ADP,Sl,case
59,363-374,ustanovitev,_,_,_,_,_,63,NOUN,Ncfsl,obl
60,375-384,poslanski,_,_,_,_,_,62,ADJ,Agpfsg,amod
61,385-392,skupina,_,_,_,_,_,60,NOUN,Ncfsg,nmod
62,393-402,obvestiti,_,_,_,_,_,58,VERB,Vmen,xcomp
63,403-414,predsednik,_,_,*->4-1,*[4],_,63,NOUN,Ncmsay,obj
64,415-424,državen,ORG[2],_,*->4-1|*->3-2,*[4]|*[3],_,66,ADJ,Agpmsg,amod
65,425-430,zbor,ORG[2],_,*->4-1|*->3-2,*[4]|*[3],_,64,NOUN,Ncmsg,nmod
66,431-433,in,_,_,_,_,_,69,CCONJ,Cc,cc
67,434-436,on,_,_,_,_,_,69,PRON,Pp3msd--y,iobj
68,437-447,predložiti,_,_,_,_,_,63,VERB,Vmen,conj
69,448-454,seznam,_,_,_,_,_,69,NOUN,Ncmsan,obj
70,455-461,član,_,_,_,_,_,70,NOUN,Ncmpg,nmod
71,462-463,z,_,_,_,_,_,76,ADP,Si,case
72,464-473,njihov,_,_,_,_,_,76,DET,Ps3fpip,det
73,474-485,podpisan,_,_,_,_,_,76,ADJ,Appfpi,amod
74,486-497,pristopen,_,_,_,_,_,76,ADJ,Agpfpi,amod
75,498-506,izjava,_,_,_,_,_,71,NOUN,Ncfpi,nmod
76,507-508,.,_,_,_,_,_,58,PUNCT,Z,punct
77,509-519,predsednik,_,0,*->4-2,*[4],3 - Nevtralno[16],88,NOUN,Ncmsn,nsubj
78,520-522,DZ,ORG,0,*->4-2|*->3-3,*[4]|*[3],3 - Nevtralno[16],78,PROPN,Npmsg,nmod
79,523-528,Pavle,PER[3],0,*->4-2,*[4],3 - Nevtralno[16],78,PROPN,Npmsn,nmod
80,529-535,Gantar,PER[3],0,*->4-2,*[4],3 - Nevtralno[16],80,PROPN,Npmsn,flat:name
81,536-538,pa,_,_,_,_,_,88,CCONJ,Cc,advmod
82,539-541,biti,_,_,_,_,_,88,AUX,Va-r3s-n,aux
83,542-553,predsednik,_,_,*->2-2,*[2],_,88,NOUN,Ncmsd,iobj
84,554-563,republika,_,_,*->2-2,*[2],_,84,NOUN,Ncfsg,nmod
85,564-570,Danil,PER[4],_,*->2-2,*[2],_,84,PROPN,Npmsd,nmod
86,571-576,Türk,PER[4],_,*->2-2,*[2],_,86,PROPN,Npmsd,flat:name
87,577-587,posredovati,_,_,_,_,_,20,VERB,Vmbp-sm,parataxis
88,588-596,poročilo,_,_,_,_,_,88,NOUN,Ncnsa,obj
89,597-598,o,_,_,_,_,_,91,ADP,Sl,case
90,599-610,ustanovitev,_,_,_,_,_,89,NOUN,Ncfsl,nmod
91,611-621,poslanski,_,_,_,_,_,93,ADJ,Agpfpg,amod
92,622-628,skupina,_,_,_,_,_,91,NOUN,Ncfpg,nmod
93,629-630,.,_,_,_,_,_,88,PUNCT,Z,punct
94,631-633,za,_,_,_,_,_,96,ADP,Sa,case
95,634-643,izvolitev,_,_,_,_,_,97,NOUN,Ncfsa,obl
96,644-653,potreben,_,_,_,_,_,104,ADJ,Agpmpg,obl
97,654-661,najmanj,_,_,_,_,_,99,ADV,Rgs,advmod
98,662-664,46,_,_,_,_,_,100,NUM,Mdc,nummod
99,665-671,glas,_,_,_,_,_,97,NOUN,Ncmpg,nmod
100,672-683,predsednik,_,_,_,_,_,100,NOUN,Ncmsg,nmod
101,684-689,vlada,ORG,_,*->5-1,*[5],_,101,NOUN,Ncfsg,nmod
102,690-695,sicer,_,_,_,_,_,104,PART,Q,advmod
103,696-700,voliti,_,_,_,_,_,88,VERB,Vmbr3s,conj
104,701-708,državen,ORG[5],_,*->3-4,*[3],_,106,ADJ,Agpmsny,amod
105,709-713,zbor,ORG[5],_,*->3-4,*[3],_,104,NOUN,Ncmsn,nsubj
106,714-716,na,_,_,_,_,_,109,ADP,Sl,case
107,717-723,tajen,_,_,_,_,_,109,ADJ,Agpnsl,amod
108,724-734,glasovanje,_,_,_,_,_,106,NOUN,Ncnsl,nmod
109,735-736,",",_,_,_,_,_,114,PUNCT,Z,punct
110,737-739,za,_,_,_,_,_,112,ADP,Sa,case
111,740-749,izvolitev,_,_,_,_,_,114,NOUN,Ncfsa,obl
112,750-752,pa,_,_,_,_,_,114,CCONJ,Cc,advmod
113,753-762,potrebovati,_,_,_,_,_,104,VERB,Vmpr3s,parataxis
114,763-769,večina,_,_,_,_,_,114,NOUN,Ncfsa,obj
115,770-776,glas,_,_,_,_,_,115,NOUN,Ncmpg,nmod
116,777-781,ves,_,_,_,_,_,118,DET,Pg-mpg,det
117,782-791,poslanec,_,_,_,_,_,116,NOUN,Ncmpg,nmod
118,792-793,",",_,_,_,_,_,114,PUNCT,Z,punct
119,794-799,torej,_,_,_,_,_,122,ADV,Rgp,advmod
120,800-807,najmanj,_,_,_,_,_,122,ADV,Rgs,advmod
121,808-810,46,_,_,_,_,_,118,NUM,Mdc,nummod
122,811-812,.,_,_,_,_,_,114,PUNCT,Z,punct
123,813-826,novoizvoljen,_,_,_,_,_,125,ADJ,Agpmsny,amod
124,827-837,predsednik,_,_,_,_,_,128,NOUN,Ncmsn,nsubj
125,838-843,vlada,ORG,_,*->5-2,*[5],_,125,NOUN,Ncfsg,nmod
126,844-846,pa,_,_,_,_,_,128,CCONJ,Cc,advmod
127,847-851,morati,_,_,_,_,_,20,VERB,Vmpr3s,parataxis
128,852-856,nato,_,_,_,_,_,138,ADV,Rgp,advmod
129,857-858,v,_,_,_,_,_,132,ADP,Sl,case
130,859-861,15,_,_,_,_,_,132,NUM,Mdc,nummod
131,862-866,dan,_,_,_,_,_,138,NOUN,Ncmpl,obl
132,867-869,po,_,_,_,_,_,135,ADP,Sl,case
133,870-875,svoj,_,_,_,_,_,135,DET,Px-fsl,det
134,876-885,izvolitev,_,_,_,_,_,138,NOUN,Ncfsl,obl
135,886-895,državen,ORG[6],_,*->3-5,*[3],_,137,ADJ,Agpmsd,amod
136,896-901,zbor,ORG[6],_,*->3-5,*[3],_,138,NOUN,Ncmsd,iobj
137,902-912,predlagati,_,_,_,_,_,128,VERB,Vmbn,xcomp
138,913-923,imenovanje,_,_,_,_,_,138,NOUN,Ncnsa,obj
139,924-933,minister,_,_,_,_,_,139,NOUN,Ncmpg,nmod
140,934-935,.,_,_,_,_,_,128,PUNCT,Z,punct
141,936-945,poslanski,_,_,_,_,_,143,ADJ,Agpfsg,amod
142,946-953,skupina,_,_,_,_,_,145,NOUN,Ncfpn,nsubj
143,954-956,biti,_,_,_,_,_,145,AUX,Va-r3p-n,aux
144,957-963,morati,_,_,_,_,_,20,VERB,Vmpp-pf,parataxis
145,964-966,ob,_,_,_,_,_,147,ADP,Sl,case
146,967-978,ustanovitev,_,_,_,_,_,148,NOUN,Ncfsl,obl
147,979-987,določiti,_,_,_,_,_,145,VERB,Vmen,xcomp
148,988-992,tudi,_,_,_,_,_,148,PART,Q,advmod
149,993-998,svoj,_,_,_,_,_,151,DET,Px-mpa,det
150,999-1004,vodja,_,_,_,_,_,148,NOUN,Ncmpa,obj
151,1005-1007,in,_,_,_,_,_,154,CCONJ,Cc,cc
152,1008-1015,njihov,_,_,_,_,_,154,DET,Ps3mpap,det
153,1016-1026,namestnik,_,_,_,_,_,151,NOUN,Ncmpa,conj
154,1027-1028,.,_,_,_,_,_,145,PUNCT,Z,punct
155,1029-1038,poslanski,_,0,*->6-1,*[6],3 - Nevtralno[17],157,ADJ,Agpfsa,amod
156,1039-1046,skupina,_,0,*->6-1,*[6],3 - Nevtralno[17],160,NOUN,Ncfsa,obj
157,1047-1049,SD,ORG,0,*->6-1,*[6],3 - Nevtralno[17],157,PROPN,Npfsg,nmod
158,1050-1052,biti,_,_,_,_,_,160,AUX,Va-f3s-n,aux
159,1053-1058,voditi,_,_,_,_,_,20,VERB,Vmpp-sm,parataxis
160,1059-1064,Bojan,PER[7],0,*->7-1,*[7],3 - Nevtralno[18],160,PROPN,Npmsn,nsubj
161,1065-1071,Kontič,PER[7],0,*->7-1,*[7],3 - Nevtralno[18],161,PROPN,Npmsn,flat:name
162,1072-1073,",",_,_,_,_,_,164,PUNCT,Z,punct
163,1074-1082,poslanec,_,_,_,_,_,161,NOUN,Ncmpa,conj
164,1083-1086,SDS,ORG,0,*->10-1,*[10],3 - Nevtralno,164,PROPN,Npfsg,nmod
165,1087-1091,Jože,PER[8],0,*->8-1,*[8],3 - Nevtralno[19],161,PROPN,Npmsn,nmod
166,1092-1097,Tanko,PER[8],0,*->8-1,*[8],3 - Nevtralno[19],166,PROPN,Npfsn,flat:name
167,1098-1099,",",_,_,_,_,_,170,PUNCT,Z,punct
168,1100-1109,poslanski,_,0,*->9-1,*[9],3 - Nevtralno[20],170,ADJ,Agpfsa,amod
169,1110-1117,skupina,_,0,*->9-1,*[9],3 - Nevtralno[20],164,NOUN,Ncfsa,conj
170,1118-1123,zares,ORG,0,*->9-1,*[9],3 - Nevtralno[20],170,ADV,Rgp,advmod
171,1124-1130,Gregor,PER[9],0,*->11-1,*[11],3 - Nevtralno[21],161,PROPN,Npmsn,nmod
172,1131-1138,Golobič,PER[9],0,*->11-1,*[11],3 - Nevtralno[21],172,PROPN,Npmsn,flat:name
173,1139-1140,",",_,_,_,_,_,175,PUNCT,Z,punct
174,1141-1149,poslanec,_,_,_,_,_,172,NOUN,Ncmpa,conj
175,1150-1155,Desus,ORG,0,*->12-1,*[12],3 - Nevtralno,175,PROPN,Npmsn,nmod
176,1156-1161,Franc,PER[10],0,*->13-1,*[13],3 - Nevtralno[22],172,PROPN,Npmsn,nmod
177,1162-1171,Žnidaršič,PER[10],0,*->13-1,*[13],3 - Nevtralno[22],177,PROPN,Npmsn,flat:name
178,1172-1173,",",_,_,_,_,_,180,PUNCT,Z,punct
179,1174-1182,poslanec,_,_,_,_,_,177,NOUN,Ncmpa,conj
180,1183-1186,SNS,ORG,0,*->14-1,*[14],3 - Nevtralno,180,PROPN,Npfsg,nmod
181,1187-1192,Zmago,PER[11],0,*->15-1,*[15],3 - Nevtralno[23],161,PROPN,Npfsn,nmod
182,1193-1201,Jelinčič,PER[11],0,*->15-1,*[15],3 - Nevtralno[23],182,PROPN,Npmsn,flat:name
183,1202-1203,",",_,_,_,_,_,186,PUNCT,Z,punct
184,1204-1213,poslanski,_,0,*->16-1,*[16],3 - Nevtralno[24],186,ADJ,Agpfsa,amod
185,1214-1221,skupina,_,0,*->16-1,*[16],3 - Nevtralno[24],180,NOUN,Ncfsa,conj
186,1222-1225,SLS,ORG,0,*->16-1,*[16],3 - Nevtralno[24],186,PROPN,Npfsn,nmod
187,1226-1231,Jakob,PER[12],0,*->17-1,*[17],3 - Nevtralno[25],186,PROPN,Npmsn,nmod
188,1232-1241,Presečnik,PER[12],0,*->17-1,*[17],3 - Nevtralno[25],188,PROPN,Npmsn,flat:name
189,1242-1243,",",_,_,_,_,_,191,PUNCT,Z,punct
190,1244-1249,vodja,_,_,*->18-1,*[18],_,188,NOUN,Ncmsn,appos
191,1250-1259,poslanec,_,_,*->18-1,*[18],_,191,NOUN,Ncmpg,nmod
192,1260-1263,LDS,ORG,0,*->18-1|*->19-1,*[18]|*[19],3 - Nevtralno,192,PROPN,Npfsg,nmod
193,1264-1266,pa,_,_,_,_,_,202,CCONJ,Cc,advmod
194,1267-1269,biti,_,_,_,_,_,202,AUX,Va-f3s-n,cop
195,1270-1275,Borut,PER[13],0,*->18-2,*[18],3 - Nevtralno[26],191,PROPN,Npmsn,nmod
196,1276-1283,Sajovica,PER[13],0,*->18-2,*[18],3 - Nevtralno[26],196,PROPN,Npmsn,flat:name
197,1284-1285,.,_,_,_,_,_,191,PUNCT,Z,punct
198,1286-1297,mandatarski,_,_,_,_,_,200,ADJ,Agpmsny,amod
199,1298-1306,kandidat,_,_,_,_,_,202,NOUN,Ncmsn,nsubj
200,1307-1309,biti,_,_,_,_,_,202,AUX,Va-f3s-n,cop
201,1310-1314,znan,_,_,_,_,_,20,ADJ,Appmsnn,parataxis
202,1315-1316,v,_,_,_,_,_,204,ADP,Sl,case
203,1317-1324,začetek,_,_,_,_,_,202,NOUN,Ncmsl,obl
204,1325-1333,november,_,_,_,_,_,204,NOUN,Ncmsg,nmod
205,1334-1345,ustanovitev,_,_,_,_,_,205,NOUN,Ncfsg,nmod
206,1346-1356,poslanski,_,_,_,_,_,208,ADJ,Agpfpg,amod
207,1357-1363,skupina,_,_,_,_,_,206,NOUN,Ncfpg,nmod
208,1364-1366,biti,_,_,_,_,_,210,AUX,Va-r3s-n,cop
209,1367-1376,predpogoj,_,_,_,_,_,202,ADJ,Agpnsn,conj
210,1377-1378,",",_,_,_,_,_,216,PUNCT,Z,punct
211,1379-1381,da,_,_,_,_,_,216,SCONJ,Cs,mark
212,1382-1392,predsednik,_,_,*->2-3,*[2],_,216,NOUN,Ncmsn,nsubj
213,1393-1402,republika,_,_,*->2-3,*[2],_,213,NOUN,Ncfsg,nmod
214,1403-1408,lahko,_,_,_,_,_,216,ADV,Rgp,advmod
215,1409-1417,predlagati,_,_,_,_,_,210,VERB,Vmbr3s,csubj
216,1418-1427,kandidat,_,_,_,_,_,216,NOUN,Ncmsay,obj
217,1428-1430,za,_,_,_,_,_,220,ADP,Sa,case
218,1431-1437,nov,_,_,_,_,_,220,ADJ,Agpmsa,amod
219,1438-1448,mandatar,_,_,_,_,_,217,NOUN,Ncmsay,nmod
220,1449-1451,za,_,_,_,_,_,222,ADP,Sa,case
221,1452-1459,sestava,_,_,_,_,_,220,NOUN,Ncfsa,nmod
222,1460-1465,vlada,ORG,0,*->5-3,*[5],3 - Nevtralno,222,NOUN,Ncfsg,nmod
223,1466-1467,.,_,_,_,_,_,216,PUNCT,Z,punct
224,1468-1469,v,_,_,_,_,_,226,ADP,Sl,case
225,1470-1476,sklad,_,_,_,_,_,233,NOUN,Ncmsl,obl
226,1477-1478,z,_,_,_,_,_,228,ADP,Si,case
227,1479-1485,ustava,_,_,_,_,_,226,NOUN,Ncfsi,nmod
228,1486-1490,morati,_,_,_,_,_,20,VERB,Vmpr3s,parataxis
229,1491-1497,namreč,_,_,_,_,_,229,CCONJ,Cc,advmod
230,1498-1508,predsednik,_,_,*->2-4,*[2],_,229,NOUN,Ncmsn,nsubj
231,1509-1518,kandidat,_,_,_,_,_,231,NOUN,Ncmsg,nmod
232,1519-1529,predlagati,_,_,_,_,_,229,VERB,Vmbn,xcomp
233,1530-1532,po,_,_,_,_,_,235,ADP,Sl,case
234,1533-1545,posvetovanje,_,_,_,_,_,233,NOUN,Ncnsl,obl
235,1546-1547,z,_,_,_,_,_,237,ADP,Si,case
236,1548-1553,vodja,_,_,_,_,_,235,NOUN,Ncmsi,nmod
237,1554-1564,poslanski,_,_,_,_,_,239,ADJ,Agpfpg,amod
238,1565-1571,skupina,_,_,_,_,_,237,NOUN,Ncfpg,nmod
239,1572-1573,.,_,_,_,_,_,229,PUNCT,Z,punct
240,1574-1584,predsednik,_,_,*->2-5,*[2],_,247,NOUN,Ncmsn,nsubj
241,1585-1589,Türk,PER,_,*->2-5,*[2],_,241,PROPN,Npmsn,nmod
242,1590-1592,biti,_,_,_,_,_,247,AUX,Va-f3s-n,aux
243,1593-1598,sicer,_,_,_,_,_,247,PART,Q,advmod
244,1599-1608,razgovor,_,_,_,_,_,247,NOUN,Ncmpa,obj
245,1609-1619,predvidoma,_,_,_,_,_,247,ADV,Rgp,advmod
246,1620-1625,začeti,_,_,_,_,_,229,VERB,Vmep-sm,conj
247,1626-1628,po,_,_,_,_,_,249,ADP,Sl,case
248,1629-1631,28,_,_,_,_,_,247,NUM,Mdc,obl
249,1632-1633,.,_,_,_,_,_,247,PUNCT,Z,punct
250,1634-1641,oktober,_,_,_,_,_,247,NOUN,Ncmsl,obl
251,1642-1643,",",_,_,_,_,_,255,PUNCT,Z,punct
252,1644-1646,ko,_,_,_,_,_,255,SCONJ,Cs,mark
253,1647-1649,se,_,_,*->2-6,*[2],_,255,PRON,Px------y,expl
254,1650-1654,vrniti,_,_,*->2-6,*[2],_,247,VERB,Vmer3s,advcl
255,1655-1656,z,_,_,_,_,_,257,ADP,Sg,case
256,1657-1663,obisk,_,_,_,_,_,255,NOUN,Ncmsg,obl
257,1664-1666,na,_,_,_,_,_,259,ADP,Sl,case
258,1667-1676,Kitajsko,LOC,0,*->20-1,*[20],3 - Nevtralno,257,PROPN,Npnsl,nmod
259,1677-1678,",",_,_,_,_,_,255,PUNCT,Z,punct
260,1679-1691,posvetovanje,_,_,_,_,_,265,NOUN,Ncnsg,obj
261,1692-1694,pa,_,_,_,_,_,265,CCONJ,Cc,advmod
262,1695-1698,naj,_,0,*->2-7,*[2],3 - Nevtralno[27],265,PART,Q,advmod
263,1699-1701,biti,_,0,*->2-7,*[2],3 - Nevtralno[27],265,AUX,Va-c,aux
264,1702-1709,opraviti,_,0,*->2-7,*[2],3 - Nevtralno[27],247,VERB,Vmep-sm,advcl
265,1710-1712,do,_,_,_,_,_,267,ADP,Sg,case
266,1713-1718,konec,_,_,_,_,_,265,NOUN,Ncmsg,obl
267,1719-1725,mesec,_,_,_,_,_,267,NOUN,Ncmsg,nmod
268,1726-1729,ter,_,_,_,_,_,273,CCONJ,Cc,cc
269,1730-1731,v,_,_,_,_,_,271,ADP,Sl,case
270,1732-1739,začetek,_,_,_,_,_,273,NOUN,Ncmsl,obl
271,1740-1748,november,_,_,_,_,_,273,NOUN,Ncmsg,obl
272,1749-1758,predlagati,_,_,_,_,_,265,VERB,Vmbp-sm,conj
273,1759-1772,mandatarski,_,_,_,_,_,275,ADJ,Agpmsa,amod
274,1773-1782,kandidat,_,_,_,_,_,273,NOUN,Ncmsay,obj
275,1783-1784,.,_,_,_,_,_,265,PUNCT,Z,punct
276,1785-1789,seja,_,_,_,_,_,291,NOUN,Ncfsn,nsubj
277,1790-1799,državen,ORG[14],0,*->3-6,*[3],3 - Nevtralno[28],279,ADJ,Agpmsg,amod
278,1800-1805,zbor,ORG[14],0,*->3-6,*[3],3 - Nevtralno[28],277,NOUN,Ncmsg,nmod
279,1806-1807,",",_,_,_,_,_,285,PUNCT,Z,punct
280,1808-1810,na,_,_,_,_,_,282,ADP,Sl,case
281,1811-1817,kateri,_,_,_,_,_,285,DET,Pq-fsl,obl
282,1818-1822,biti,_,_,_,_,_,285,AUX,Va-f3p-n,aux
283,1823-1831,poslanec,_,_,_,_,_,285,NOUN,Ncmpn,nsubj
284,1832-1838,voliti,_,_,_,_,_,279,VERB,Vmbp-pm,acl
285,1839-1849,mandatar,_,_,_,_,_,285,NOUN,Ncmsay,obj
286,1850-1851,",",_,_,_,_,_,285,PUNCT,Z,punct
287,1852-1854,pa,_,_,_,_,_,291,CCONJ,Cc,advmod
288,1855-1857,biti,_,_,_,_,_,291,AUX,Va-f3s-n,cop
289,1858-1868,predvidoma,_,_,_,_,_,291,ADV,Rgp,advmod
290,1869-1877,sklican,_,_,_,_,_,20,ADJ,Appfsn,parataxis
291,1878-1888,pozno,_,_,_,_,_,294,ADV,Rgs,advmod
292,1889-1891,do,_,_,_,_,_,294,ADP,Sg,case
293,1892-1899,sredina,_,_,_,_,_,291,NOUN,Ncfsg,obl
294,1900-1908,november,_,_,_,_,_,294,NOUN,Ncmsg,nmod
295,1909-1910,.,_,_,_,_,_,291,PUNCT,Z,punct
296,1911-1918,vsebina,_,_,_,_,_,301,NOUN,Ncfsn,nsubj
297,1919-1930,koalicijski,_,_,_,_,_,299,ADJ,Agpfsg,amod
298,1931-1938,pogodba,_,_,_,_,_,297,NOUN,Ncfsg,nmod
299,1939-1949,predvidoma,_,_,_,_,_,301,ADV,Rgp,advmod
300,1950-1960,oblikovan,_,_,_,_,_,294,ADJ,Appfsn,acl
301,1961-1962,v,_,_,_,_,_,303,ADP,Sa,case
302,1963-1969,sobota,_,_,_,_,_,301,NOUN,Ncfsa,obl
303,1970-1984,velik,_,0,*->21-1,*[21],3 - Nevtralno[29],305,ADJ,Agsmsny,amod
304,1985-1993,mandatar,_,0,*->21-1,*[21],3 - Nevtralno[29],301,NOUN,Ncmsn,nsubj
305,1994-1999,Borut,PER[15],0,*->21-1,*[21],3 - Nevtralno[29],305,PROPN,Npmsn,nmod
306,2000-2005,Pahor,PER[15],0,*->21-1,*[21],3 - Nevtralno[29],306,PROPN,Npmsn,flat:name
307,2006-2008,biti,_,_,_,_,_,314,AUX,Va-r3s-n,aux
308,2009-2013,ves,_,_,_,_,_,310,DET,Pg-msi,det
309,2014-2026,predsednik,_,_,_,_,_,314,NOUN,Ncmsi,obj
310,2027-2037,morebiten,_,_,_,_,_,313,ADJ,Agpfpg,amod
311,2038-2050,koalicijski,_,_,_,_,_,313,ADJ,Agpfpg,amod
312,2051-2057,stranka,_,_,_,_,_,310,NOUN,Ncfpg,nmod
313,2058-2064,poslati,_,_,_,_,_,301,VERB,Vmep-sm,conj
314,2065-2073,čistopis,_,_,_,_,_,314,NOUN,Ncmsan,obj
315,2074-2082,predlog,_,_,_,_,_,315,NOUN,Ncmsg,nmod
316,2083-2094,koalicijski,_,_,_,_,_,318,ADJ,Agpfsg,amod
317,2095-2102,pogodba,_,_,_,_,_,316,NOUN,Ncfsg,nmod
318,2103-2104,.,_,_,_,_,_,301,PUNCT,Z,punct
319,2105-2112,stranka,_,_,_,_,_,325,NOUN,Ncfsg,obj
320,2113-2115,se,_,_,_,_,_,325,PRON,Px------y,expl
321,2116-2120,biti,_,_,_,_,_,325,AUX,Va-f3p-n,aux
322,2121-2123,do,_,_,_,_,_,324,ADP,Sg,case
323,2124-2132,predlog,_,_,_,_,_,325,NOUN,Ncmsg,obl
324,2133-2143,opredeliti,_,_,_,_,_,314,VERB,Vmep-pf,conj
325,2144-2146,do,_,_,_,_,_,327,ADP,Sg,case
326,2147-2153,sobota,_,_,_,_,_,325,NOUN,Ncfsg,obl
327,2154-2155,",",_,_,_,_,_,337,PUNCT,Z,punct
328,2156-2158,ko,_,_,_,_,_,337,SCONJ,Cs,mark
329,2159-2162,naj,_,_,_,_,_,337,PART,Q,advmod
330,2163-2165,biti,_,_,_,_,_,337,AUX,Va-c,aux
331,2166-2168,se,_,_,_,_,_,337,PRON,Px------y,expl
332,2169-2171,na,_,_,_,_,_,335,ADP,Sl,case
333,2172-2179,skupen,_,_,_,_,_,335,ADJ,Agpmsl,amod
334,2180-2188,sestanek,_,_,_,_,_,337,NOUN,Ncmsl,obl
335,2189-2197,dokončno,_,_,_,_,_,337,ADV,Rgp,advmod
336,2198-2208,dogovoriti,_,_,_,_,_,327,VERB,Vmep-pm,acl
337,2209-2211,in,_,_,_,_,_,339,CCONJ,Cc,cc
338,2212-2222,oblikovati,_,_,_,_,_,337,VERB,Vmpp-pm,conj
339,2223-2232,vsebinski,_,_,_,_,_,341,ADJ,Agpmsay,amod
340,2233-2236,del,_,_,_,_,_,339,NOUN,Ncmsan,obj
341,2237-2248,koalicijski,_,_,_,_,_,343,ADJ,Agpfsg,amod
342,2249-2256,pogodba,_,_,_,_,_,341,NOUN,Ncfsg,nmod
