idx,chars_idx,token,entity_type,sentiment,idk_1,idk_2,orig_sentiment,heads,upos,xpos,deprel
0,0-9,slovenski,_,_,_,_,_,3,ADJ,Agpmsny,amod
1,10-21,zdravstven,_,_,_,_,_,3,ADJ,Agpmsny,amod
2,22-28,sistem,_,_,_,_,_,19,NOUN,Ncmsn,nsubj
3,29-31,biti,_,_,_,_,_,19,AUX,Va-r3s-n,cop
4,32-34,po,_,_,_,_,_,6,ADP,Sl,case
5,35-46,prijaznost,_,_,_,_,_,19,NOUN,Ncfsl,obl
6,47-57,uporabnik,_,_,_,_,_,6,NOUN,Ncmsd,nmod
7,58-60,na,_,_,_,_,_,10,ADP,Sl,case
8,61-70,dvajset,_,_,_,_,_,10,ADJ,Mlonsl,amod
9,71-76,mesto,_,_,_,_,_,7,NOUN,Ncnsl,nmod
10,77-78,v,_,_,_,_,_,13,ADP,Sl,case
11,79-87,evropski,LOC[1],_,*->1-1,*[1],_,13,ADJ,Agpfsl,amod
12,88-93,unija,LOC[1],_,*->1-1,*[1],_,10,NOUN,Ncfsl,nmod
13,94-95,.,_,_,_,_,_,19,PUNCT,Z,punct
14,96-105,uvrstitev,_,_,_,_,_,19,NOUN,Ncfsn,nsubj
15,106-108,biti,_,_,_,_,_,19,AUX,Va-r3s-n,cop
16,109-111,za,_,_,_,_,_,18,ADP,Sa,case
17,112-117,mesto,_,_,_,_,_,19,NOUN,Ncnsa,obl
18,118-124,dober,_,_,_,_,_,0,ADJ,Agcfsn,root
19,125-127,od,_,_,_,_,_,22,ADP,Sg,case
20,128-136,lanski,_,_,_,_,_,22,ADJ,Agpnsg,amod
21,137-141,leto,_,_,_,_,_,19,NOUN,Ncnsg,nmod
22,142-143,.,_,_,_,_,_,19,PUNCT,Z,punct
23,144-153,slovenski,_,_,_,_,_,26,ADJ,Agpmsny,amod
24,154-165,zdravstven,_,_,_,_,_,26,ADJ,Agpmsny,amod
25,166-172,sistem,_,_,_,_,_,38,NOUN,Ncmsn,nsubj
26,173-175,biti,_,_,_,_,_,38,AUX,Va-r3s-n,aux
27,176-178,po,_,_,_,_,_,29,ADP,Sl,case
28,179-190,prijaznost,_,_,_,_,_,19,NOUN,Ncfsl,obl
29,191-201,uporabnik,_,_,_,_,_,29,NOUN,Ncmsd,nmod
30,202-204,na,_,_,_,_,_,33,ADP,Sl,case
31,205-214,dvajset,_,_,_,_,_,33,ADJ,Mlonsl,amod
32,215-220,mesto,_,_,_,_,_,30,NOUN,Ncnsl,nmod
33,221-222,v,_,_,_,_,_,36,ADP,Sl,case
34,223-231,evropski,LOC[2],_,*->1-2,*[1],_,36,ADJ,Agpfsl,amod
35,232-237,unija,LOC[2],_,*->1-2,*[1],_,33,NOUN,Ncfsl,nmod
36,238-239,",",_,_,_,_,_,38,PUNCT,Z,punct
37,240-244,kazati,_,_,_,_,_,19,VERB,Vmpr3s,parataxis
38,245-253,evropski,_,_,_,_,_,40,ADJ,Agpmsay,amod
39,254-260,indeks,_,_,_,_,_,38,NOUN,Ncmsn,nsubj
40,261-272,uporabnik,_,_,_,_,_,40,NOUN,Ncmpg,nmod
41,273-286,zdravstven,_,_,_,_,_,43,ADJ,Agpnsg,amod
42,287-294,varstvo,_,_,_,_,_,41,NOUN,Ncnsg,nmod
43,295-296,(,_,_,_,_,_,45,PUNCT,Z,punct
44,297-301,EHCI,_,_,_,_,_,43,PROPN,Npmsn,appos
45,302-303,),_,_,_,_,_,45,PUNCT,Z,punct
46,304-305,.,_,_,_,_,_,45,PUNCT,Z,punct
47,306-315,uvrstitev,_,_,_,_,_,38,NOUN,Ncfsn,nsubj
48,316-325,Slovenija,LOC,_,*->2-1,*[2],_,48,PROPN,Npfsg,nmod
49,326-328,biti,_,_,_,_,_,53,AUX,Va-r3s-n,cop
50,329-331,za,_,_,_,_,_,52,ADP,Sa,case
51,332-337,mesto,_,_,_,_,_,53,NOUN,Ncnsa,obl
52,338-344,dober,_,_,_,_,_,38,ADJ,Agcfsn,parataxis
53,345-347,od,_,_,_,_,_,55,ADP,Sg,case
54,348-352,lani,_,_,_,_,_,53,ADV,Rgp,advmod
55,353-354,",",_,_,_,_,_,65,PUNCT,Z,punct
56,355-362,verabo,_,_,_,_,_,65,ADV,Rgs,advmod
57,363-365,pa,_,_,_,_,_,65,CCONJ,Cc,advmod
58,366-368,se,_,_,_,_,_,65,PRON,Px------y,expl
59,369-371,biti,_,_,_,_,_,65,AUX,Va-r3s-n,aux
60,372-375,med,_,_,_,_,_,62,ADP,Si,case
61,376-378,31,_,_,_,_,_,64,NUM,Mdc,nummod
62,379-380,.,_,_,_,_,_,65,PUNCT,Z,punct
63,381-389,država,_,_,_,_,_,65,NOUN,Ncfpi,obl
64,390-398,uvrstiti,_,_,_,_,_,53,VERB,Vmep-sf,parataxis
65,399-409,nizozemski,LOC,_,*->3-1,*[3],_,65,ADJ,Agpfsn,nsubj
66,410-411,.,_,_,_,_,_,65,PUNCT,Z,punct
67,412-419,slediti,_,_,_,_,_,53,VERB,Vmpr3p,parataxis
68,420-422,on,_,_,_,_,_,68,PRON,Pp3fsd--y,obj
69,423-429,Danska,LOC,0,*->4-1,*[4],3 - Nevtralno,68,PROPN,Npfsn,nsubj
70,430-431,",",_,_,_,_,_,72,PUNCT,Z,punct
71,432-440,Avstrija,LOC,_,*->5-1,*[5],_,70,PROPN,Npfsn,conj
72,441-442,",",_,_,_,_,_,76,PUNCT,Z,punct
73,443-445,ki,_,_,_,_,_,76,SCONJ,Cs,mark
74,446-448,biti,_,0,*->5-2,*[5],3 - Nevtralno[5],76,AUX,Va-r3s-n,aux
75,449-454,pasti,_,0,*->5-2,*[5],3 - Nevtralno[5],70,VERB,Vmep-sf,acl
76,455-456,z,_,_,_,_,_,80,ADP,Sg,case
77,457-465,lanski,_,_,_,_,_,80,ADJ,Agpnsg,amod
78,466-472,prvi,_,_,_,_,_,80,ADJ,Mlonsg,amod
79,473-478,mesto,_,_,_,_,_,76,NOUN,Ncnsg,obl
80,479-480,",",_,_,_,_,_,82,PUNCT,Z,punct
81,481-491,Luksemburg,LOC,0,*->6-1,*[6],3 - Nevtralno,80,PROPN,Npmsn,conj
82,492-494,in,_,_,_,_,_,84,CCONJ,Cc,cc
83,495-502,Švedska,LOC,_,*->7-1,*[7],_,82,PROPN,Npfsn,conj
84,503-504,.,_,_,_,_,_,76,PUNCT,Z,punct
85,505-515,Deseterica,_,_,_,_,_,87,PROPN,Npfsa,obj
86,516-528,zaključevati,_,_,_,_,_,53,VERB,Vmpr3p,parataxis
87,529-536,Nemčija,LOC,0,*->8-1,*[8],3 - Nevtralno,87,PROPN,Npfsn,nsubj
88,537-538,",",_,_,_,_,_,90,PUNCT,Z,punct
89,539-544,Švica,LOC,_,*->9-1,*[9],_,88,PROPN,Npfsn,conj
90,545-546,",",_,_,_,_,_,92,PUNCT,Z,punct
91,547-555,Norveška,LOC,_,*->10-1,*[10],_,88,PROPN,Npfsn,conj
92,556-557,",",_,_,_,_,_,94,PUNCT,Z,punct
93,558-564,Finska,LOC,_,*->11-1,*[11],_,88,PROPN,Npfsn,conj
94,565-567,in,_,_,_,_,_,96,CCONJ,Cc,cc
95,568-576,Francija,LOC,0,*->12-1,*[12],3 - Nevtralno,88,PROPN,Npfsn,conj
96,577-578,.,_,_,_,_,_,92,PUNCT,Z,punct
97,579-583,prvi,_,_,_,_,_,102,ADJ,Mlofsn,amod
98,584-594,nizozemski,LOC,1,*->3-2,*[3],4 - Pozitivno,102,ADJ,Agpfsn,amod
99,595-596,",",_,_,_,_,_,101,PUNCT,Z,punct
100,597-603,zadnji,_,_,_,_,_,99,ADJ,Agpfsn,conj
101,604-611,Latvija,LOC,_,*->13-1,*[13],_,87,PROPN,Npfsn,nsubj
102,612-613,v,_,_,_,_,_,104,ADP,Sl,case
103,614-623,raziskava,_,_,_,_,_,102,NOUN,Ncfsl,nmod
104,624-625,",",_,_,_,_,_,108,PUNCT,Z,punct
105,626-628,ki,_,_,_,_,_,108,SCONJ,Cs,mark
106,629-631,on,_,_,_,_,_,108,PRON,Pp3fsa--y,obj
107,632-642,pripravljati,_,_,_,_,_,104,VERB,Vmpr3s,acl
108,643-655,raziskovalen,_,0,*->14-1,*[14],3 - Nevtralno[6],110,ADJ,Agpfsn,amod
109,656-668,organizacija,_,0,*->14-1,*[14],3 - Nevtralno[6],108,NOUN,Ncfsn,nsubj
110,669-675,Health,ORG[3],0,*->14-1,*[14],3 - Nevtralno[6],113,PROPN,Npmsn,nmod
111,676-684,Consumer,ORG[3],0,*->14-1,*[14],3 - Nevtralno[6],113,PROPN,Npmsn,nmod
112,685-695,Powerhouse,ORG[3],0,*->14-1,*[14],3 - Nevtralno[6],110,PROPN,Npmsn,nmod
113,696-697,",",_,_,_,_,_,108,PUNCT,Z,punct
114,698-700,biti,_,_,_,_,_,120,AUX,Va-r3p-n,aux
115,701-706,poleg,_,_,_,_,_,117,ADP,Sg,case
116,707-713,članica,_,_,_,_,_,120,NOUN,Ncfpg,obl
117,714-722,evropski,LOC[4],_,*->1-3,*[1],_,119,ADJ,Agpfsg,amod
118,723-728,unija,LOC[4],_,*->1-3,*[1],_,117,NOUN,Ncfsg,nmod
119,729-739,sodelovati,_,_,_,_,_,53,VERB,Vmpp-pf,parataxis
120,740-742,še,_,_,_,_,_,120,PART,Q,advmod
121,743-749,država,_,_,_,_,_,120,NOUN,Ncfsd,obj
122,750-760,kandidatka,_,_,_,_,_,120,NOUN,Ncfsd,obj
123,761-763,za,_,_,_,_,_,125,ADP,Sa,case
124,764-772,članstvo,_,_,_,_,_,123,NOUN,Ncnsa,nmod
125,773-774,v,_,_,_,_,_,127,ADP,Sl,case
126,775-783,povezava,_,_,_,_,_,125,NOUN,Ncfsl,nmod
127,784-785,(,_,_,_,_,_,129,PUNCT,Z,punct
128,786-793,hrvaški,LOC,_,*->15-1,*[15],_,127,PROPN,Npfsn,appos
129,794-796,in,_,_,_,_,_,131,CCONJ,Cc,cc
130,797-807,Makedonija,LOC,_,*->16-1,*[16],_,129,PROPN,Npfsn,conj
131,808-809,),_,_,_,_,_,129,PUNCT,Z,punct
132,810-813,ter,_,_,_,_,_,136,CCONJ,Cc,cc
133,814-822,Norveška,LOC,0,*->10-2,*[10],3 - Nevtralno,129,PROPN,Npfsn,conj
134,823-825,in,_,_,_,_,_,136,CCONJ,Cc,cc
135,826-831,Švica,LOC,_,*->9-2,*[9],_,134,PROPN,Npfsn,conj
136,832-833,.,_,_,_,_,_,120,PUNCT,Z,punct
137,834-836,za,_,_,_,_,_,139,ADP,Sa,case
138,837-846,Slovenija,LOC,_,*->2-2,*[2],_,142,PROPN,Npfsa,obl
139,847-849,se,_,_,_,_,_,142,PRON,Px------y,expl
140,850-852,biti,_,_,_,_,_,142,AUX,Va-r3s-n,aux
141,853-861,uvrstiti,_,_,_,_,_,53,VERB,Vmep-sf,parataxis
142,862-868,večina,_,_,_,_,_,142,NOUN,Ncfsn,nsubj
143,869-874,nov,_,_,_,_,_,145,ADJ,Agpfpg,amod
144,875-881,članica,_,_,_,_,_,143,NOUN,Ncfpg,nmod
145,882-887,unija,LOC,0,*->1-4,*[1],3 - Nevtralno,145,NOUN,Ncfsg,nmod
146,888-889,",",_,_,_,_,_,142,PUNCT,Z,punct
147,890-895,razen,_,_,_,_,_,149,ADP,Sg,case
148,896-901,Cipra,LOC,0,*->17-1,*[17],3 - Nevtralno,146,PROPN,Npfsg,appos
149,902-904,in,_,_,_,_,_,151,CCONJ,Cc,cc
150,905-910,Češka,LOC,0,*->18-1,*[18],3 - Nevtralno,149,PROPN,Npfsg,conj
151,911-912,(,_,_,_,_,_,153,PUNCT,Z,punct
152,913-919,deliti,_,_,_,_,_,146,VERB,Vmpr3d,acl
153,920-922,se,_,_,_,_,_,153,PRON,Px---d--y,expl
154,923-925,16,_,_,_,_,_,153,NUM,Mdc,nsubj
155,926-927,.,_,_,_,_,_,153,PUNCT,Z,punct
156,928-933,mesto,_,_,_,_,_,153,NOUN,Ncnsa,nsubj
157,934-935,),_,_,_,_,_,157,PUNCT,Z,punct
158,936-939,ter,_,_,_,_,_,160,CCONJ,Cc,cc
159,940-948,Estonija,LOC,0,*->19-1,*[19],3 - Nevtralno,155,PROPN,Npfsg,conj
160,949-950,(,_,_,_,_,_,162,PUNCT,Z,punct
161,951-953,11,_,_,_,_,_,160,NUM,Mdc,nummod
162,954-955,.,_,_,_,_,_,153,PUNCT,Z,punct
163,956-961,mesto,_,_,_,_,_,160,NOUN,Ncnsn,appos
164,962-963,),_,_,_,_,_,164,PUNCT,Z,punct
165,964-965,",",_,_,_,_,_,164,PUNCT,Z,punct
166,966-971,dobro,_,_,_,_,_,171,ADV,Rgc,advmod
167,972-974,pa,_,_,_,_,_,171,CCONJ,Cc,advmod
168,975-977,se,_,_,_,_,_,171,PRON,Px------y,expl
169,978-980,biti,_,_,_,_,_,171,AUX,Va-r3s-n,aux
170,981-989,odrezati,_,_,_,_,_,142,VERB,Vmep-sf,parataxis
171,990-994,tudi,_,_,_,_,_,171,PART,Q,advmod
172,995-997,od,_,_,_,_,_,174,ADP,Sg,case
173,998-1009,Portugalska,LOC,_,*->20-1,*[20],_,171,PROPN,Npfsg,obl
174,1010-1011,(,_,_,_,_,_,176,PUNCT,Z,punct
175,1012-1014,26,_,_,_,_,_,174,NUM,Mdc,nummod
176,1015-1016,.,_,_,_,_,_,171,PUNCT,Z,punct
177,1017-1022,mesto,_,_,_,_,_,174,NOUN,Ncnsn,appos
178,1023-1024,),_,_,_,_,_,178,PUNCT,Z,punct
179,1025-1026,.,_,_,_,_,_,171,PUNCT,Z,punct
180,1027-1034,hrvaški,LOC,0,*->15-2,*[15],3 - Nevtralno,185,PROPN,Npfsn,nsubj
181,1035-1037,in,_,_,_,_,_,183,CCONJ,Cc,cc
182,1038-1048,Makedonija,LOC,0,*->16-2,*[16],3 - Nevtralno,181,PROPN,Npfsn,conj
183,1049-1052,biti,_,_,_,_,_,185,AUX,Va-r3d-n,aux
184,1053-1060,zasesti,_,_,_,_,_,171,VERB,Vmep-df,conj
185,1061-1063,29,_,_,_,_,_,185,NUM,Mdc,obl
186,1064-1065,.,_,_,_,_,_,178,PUNCT,Z,punct
187,1066-1070,in30,_,_,_,_,_,185,NUM,Mdc,parataxis
188,1071-1072,.,_,_,_,_,_,19,PUNCT,Z,punct
189,1073-1078,mesto,_,_,_,_,_,181,NOUN,Ncnsa,conj
190,1079-1080,",",_,_,_,_,_,196,PUNCT,Z,punct
191,1081-1090,slabo,_,_,_,_,_,196,ADV,Rgs,advmod
192,1091-1093,pa,_,_,_,_,_,196,CCONJ,Cc,advmod
193,1094-1096,se,_,_,_,_,_,196,PRON,Px------y,expl
194,1097-1099,biti,_,_,_,_,_,196,AUX,Va-r3s-n,aux
195,1100-1108,odrezati,_,_,_,_,_,185,VERB,Vmep-sf,advcl
196,1109-1116,Latvija,LOC,2,*->13-2,*[13],2 - Negativno,196,PROPN,Npfsn,nsubj
197,1117-1118,.,_,_,_,_,_,196,PUNCT,Z,punct
198,1119-1123,šest,_,_,_,_,_,200,NUM,Mlc-pn,nummod
199,1124-1133,kategorij,_,_,_,_,_,206,NOUN,Ncfpg,obj
200,1134-1142,snovalec,_,_,_,_,_,206,NOUN,Ncmpn,nsubj
201,1143-1150,indeks,_,_,_,_,_,201,NOUN,Ncmsg,nmod
202,1151-1155,ehci,_,_,_,_,_,202,PUNCT,Z,nmod
203,1156-1161,vsak,_,_,_,_,_,205,DET,Pg-nsa,det
204,1162-1166,leto,_,_,_,_,_,206,NOUN,Ncnsa,obl
205,1167-1177,razvrščati,_,_,_,_,_,196,VERB,Vmpr3p,conj
206,1178-1186,evropski,_,_,_,_,_,210,ADJ,Agpmpa,amod
207,1187-1197,nacionalen,_,_,_,_,_,210,ADJ,Agpmpa,amod
208,1198-1209,zdravstven,_,_,_,_,_,210,ADJ,Agpmpa,amod
209,1210-1217,sistem,_,_,_,_,_,206,NOUN,Ncmpa,obj
210,1218-1223,glede,_,_,_,_,_,215,ADV,Rgp,advmod
211,1224-1226,na,_,_,_,_,_,215,ADP,Sa,case
212,1227-1231,šest,_,_,_,_,_,215,NUM,Mlc-pa,nummod
213,1232-1240,ključen,_,_,_,_,_,215,ADJ,Agpnpg,amod
214,1241-1249,področje,_,_,_,_,_,210,NOUN,Ncnpg,nmod
215,1250-1251,:,_,_,_,_,_,217,PUNCT,Z,punct
216,1252-1259,pravica,_,_,_,_,_,206,NOUN,Ncfpn,nsubj
217,1260-1262,in,_,_,_,_,_,219,CCONJ,Cc,cc
218,1263-1276,informiranost,_,_,_,_,_,217,NOUN,Ncfsa,conj
219,1277-1286,pacient,_,_,_,_,_,219,NOUN,Ncmpg,nmod
220,1287-1288,",",_,_,_,_,_,222,PUNCT,Z,punct
221,1289-1298,razvitost,_,_,_,_,_,217,NOUN,Ncfsn,conj
222,1299-1300,e,_,_,_,_,_,225,NOUN,Ncmsn,nmod
223,1301-1302,-,_,_,_,_,_,225,PUNCT,Z,punct
224,1303-1310,zdravje,_,_,_,_,_,222,NOUN,Ncnsg,nmod
225,1311-1312,",",_,_,_,_,_,228,PUNCT,Z,punct
226,1313-1320,čakalen,_,_,_,_,_,228,ADJ,Agpmsny,amod
227,1321-1324,čas,_,_,_,_,_,217,NOUN,Ncmsn,conj
228,1325-1327,na,_,_,_,_,_,230,ADP,Sa,case
229,1328-1339,zdravljenje,_,_,_,_,_,228,NOUN,Ncnsa,nmod
230,1340-1341,",",_,_,_,_,_,232,PUNCT,Z,punct
231,1342-1351,rezultat,_,_,_,_,_,217,NOUN,Ncmpn,conj
232,1352-1365,zdravstven,_,_,_,_,_,234,ADJ,Agpmsg,amod
233,1366-1373,sistem,_,_,_,_,_,232,NOUN,Ncmsg,nmod
234,1374-1375,",",_,_,_,_,_,236,PUNCT,Z,punct
235,1376-1382,razpon,_,_,_,_,_,217,NOUN,Ncmsn,conj
236,1383-1385,in,_,_,_,_,_,238,CCONJ,Cc,cc
237,1386-1396,dostopnost,_,_,_,_,_,217,NOUN,Ncfsn,conj
238,1397-1405,storitev,_,_,_,_,_,238,NOUN,Ncfpg,nmod
239,1406-1409,ter,_,_,_,_,_,242,CCONJ,Cc,cc
240,1410-1422,farmacevtski,_,_,_,_,_,242,ADJ,Agpmpn,amod
241,1423-1430,izdelek,_,_,_,_,_,217,NOUN,Ncmpn,conj
242,1431-1432,.,_,_,_,_,_,206,PUNCT,Z,punct
243,1433-1434,v,_,_,_,_,_,246,ADP,Sl,case
244,1435-1441,šest,_,_,_,_,_,246,NUM,Mlc-pl,nummod
245,1442-1453,kategorija,_,_,_,_,_,242,NOUN,Ncfpl,nmod
246,1454-1455,",",_,_,_,_,_,249,PUNCT,Z,punct
247,1456-1458,ki,_,_,_,_,_,249,SCONJ,Cs,mark
248,1459-1468,pokrivati,_,_,_,_,_,246,VERB,Vmpr3p,acl
249,1469-1471,34,_,_,_,_,_,251,NUM,Mdc,nummod
250,1472-1482,kazalnik,_,_,_,_,_,249,NOUN,Ncmpg,obj
251,1483-1493,uspešnost,_,_,_,_,_,251,NOUN,Ncfsg,nmod
252,1494-1495,",",_,_,_,_,_,249,PUNCT,Z,punct
253,1496-1498,biti,_,_,_,_,_,255,AUX,Va-r3s-n,cop
254,1499-1508,Slovenija,LOC,_,*->2-3,*[2],_,265,PROPN,Npfsn,nsubj
255,1509-1511,od,_,_,_,_,_,260,ADP,Sg,case
256,1512-1518,možen,_,_,_,_,_,260,ADJ,Agpmpg,amod
257,1519-1529,1000dobil,_,_,_,_,_,260,NUM,Mdc,nummod
258,1530-1533,582,_,_,_,_,_,260,NUM,Mdc,nummod
259,1534-1538,točka,_,_,_,_,_,265,NOUN,Ncfpg,obl
260,1539-1540,.,_,_,_,_,_,255,PUNCT,Z,punct
261,1541-1550,lepo,_,_,_,_,_,265,ADV,Rgs,advmod
262,1551-1553,se,_,_,*->2-4,*[2],_,265,PRON,Px------y,expl
263,1554-1556,biti,_,_,*->2-4,*[2],_,265,AUX,Va-r3s-n,aux
264,1557-1565,odrezati,_,_,*->2-4,*[2],_,19,VERB,Vmep-sf,parataxis
265,1566-1568,na,_,_,_,_,_,267,ADP,Sl,case
266,1569-1577,področje,_,_,_,_,_,265,NOUN,Ncnsl,obl
267,1578-1586,čakalen,_,_,_,_,_,269,ADJ,Agpfpg,amod
268,1587-1590,dob,_,_,_,_,_,267,NOUN,Ncfpg,nmod
269,1591-1592,",",_,_,_,_,_,280,PUNCT,Z,punct
270,1593-1597,kjer,_,_,_,_,_,280,SCONJ,Cs,mark
271,1598-1600,se,_,_,_,_,_,280,PRON,Px---d--y,expl
272,1601-1607,skupaj,_,_,_,_,_,280,ADV,Rgp,advmod
273,1608-1609,z,_,_,_,_,_,275,ADP,Si,case
274,1610-1616,Finsko,LOC,0,*->11-2,*[11],3 - Nevtralno,267,PROPN,Npfsi,nmod
275,1617-1618,",",_,_,_,_,_,277,PUNCT,Z,punct
276,1619-1630,Portugalska,LOC,0,*->20-2,*[20],3 - Nevtralno,275,PROPN,Npfsi,conj
277,1631-1633,in,_,_,_,_,_,279,CCONJ,Cc,cc
278,1634-1641,Švedska,LOC,0,*->7-2,*[7],3 - Nevtralno,275,PROPN,Npfsi,conj
279,1642-1646,del,_,_,_,_,_,275,NOUN,Ncfpi,conj
280,1647-1649,27,_,_,_,_,_,280,NUM,Mdc,nummod
281,1650-1651,.,_,_,_,_,_,265,PUNCT,Z,punct
282,1652-1657,mesto,_,_,_,_,_,265,NOUN,Ncnsn,nsubj
283,1658-1659,.,_,_,_,_,_,260,PUNCT,Z,punct
284,1660-1662,na,_,_,_,_,_,286,ADP,Sl,case
285,1663-1671,področje,_,_,_,_,_,291,NOUN,Ncnsl,obl
286,1672-1685,farmacevtski,_,_,_,_,_,288,ADJ,Agpmpg,amod
287,1686-1694,izdelek,_,_,_,_,_,286,NOUN,Ncmpg,nmod
288,1695-1697,biti,_,_,*->2-5,*[2],_,291,AUX,Va-r3s-n,aux
289,1698-1702,biti,_,_,*->2-5,*[2],_,291,AUX,Va-p-sf,cop
290,1703-1711,uvrščen,_,_,*->2-5,*[2],_,283,ADJ,Appfsn,acl
291,1712-1714,na,_,_,_,_,_,293,ADP,Sa,case
292,1715-1717,23,_,_,_,_,_,295,NUM,Mdc,nummod
293,1718-1719,.,_,_,_,_,_,295,PUNCT,Z,punct
294,1720-1725,mesto,_,_,_,_,_,291,NOUN,Ncnsa,obj
295,1726-1727,",",_,_,_,_,_,302,PUNCT,Z,punct
296,1728-1734,precej,_,_,_,_,_,298,ADV,Rgp,advmod
297,1735-1741,dober,_,_,_,_,_,299,ADJ,Agcfsa,amod
298,1742-1751,uvrstitev,_,_,_,_,_,302,NOUN,Ncfsa,obj
299,1752-1754,pa,_,_,_,_,_,302,CCONJ,Cc,advmod
300,1755-1757,biti,_,_,*->2-6,*[2],_,302,AUX,Va-r3s-n,aux
301,1758-1765,doseči,_,_,*->2-6,*[2],_,291,VERB,Vmep-sf,conj
302,1766-1768,na,_,_,_,_,_,304,ADP,Sl,case
303,1769-1777,področje,_,_,_,_,_,302,NOUN,Ncnsl,obl
304,1778-1788,rezultat,_,_,_,_,_,304,NOUN,Ncmpg,nmod
305,1789-1802,zdravstven,_,_,_,_,_,307,ADJ,Agpmsg,amod
306,1803-1810,sistem,_,_,_,_,_,305,NOUN,Ncmsg,nmod
307,1811-1812,",",_,_,_,_,_,313,PUNCT,Z,punct
308,1813-1817,kjer,_,_,_,_,_,313,SCONJ,Cs,mark
309,1818-1820,se,_,0,*->2-7,*[2],3 - Nevtralno,313,PRON,Px---d--y,expl
310,1821-1822,z,_,_,_,_,_,312,ADP,Si,case
311,1823-1828,Švico,LOC,0,*->9-3,*[9],3 - Nevtralno,313,PROPN,Npfsi,obl
312,1829-1833,del,_,_,_,_,_,307,VERB,Vmpr3p,acl
313,1834-1836,15,_,_,_,_,_,313,NUM,Mdc,obl
314,1837-1838,.,_,_,_,_,_,19,PUNCT,Z,punct
315,1839-1844,mesto,_,_,_,_,_,302,NOUN,Ncnsa,obj
