idx,chars_idx,token,entity_type,sentiment,idk_1,idk_2,orig_sentiment,heads,upos,xpos,deprel
0,0-7,premier,_,_,*->1-1,*[1],_,9,NOUN,Ncmsn,nsubj
1,8-13,Borut,PER[1],_,*->1-1,*[1],_,1,PROPN,Npmsn,nmod
2,14-19,Pahor,PER[1],_,*->1-1,*[1],_,2,PROPN,Npmsn,flat:name
3,20-22,biti,_,_,_,_,_,9,AUX,Va-r3s-n,aux
4,23-25,po,_,_,_,_,_,7,ADP,Sl,case
5,26-33,petkov,_,_,_,_,_,7,ADJ,Aspfsl,amod
6,34-38,seja,_,_,_,_,_,9,NOUN,Ncfsl,obl
7,39-44,vlada,ORG,_,*->2-1,*[2],_,7,NOUN,Ncfsg,nmod
8,45-52,povedati,_,_,_,_,_,0,VERB,Vmep-sm,root
9,53-54,",",_,_,_,_,_,15,PUNCT,Z,punct
10,55-57,da,_,_,_,_,_,15,SCONJ,Cs,mark
11,58-60,ne,_,_,_,_,_,15,PART,Q,advmod
12,61-63,biti,_,_,_,_,_,15,AUX,Va-f3s-n,aux
13,64-67,več,_,_,_,_,_,15,PART,Q,advmod
14,68-74,klicati,_,_,_,_,_,9,VERB,Vmpp-sm,ccomp
15,75-82,svoj,_,_,_,_,_,18,DET,Px-msg,det
16,83-92,hrvaški,_,_,*->3-1,*[3],_,18,ADJ,Agpmsg,amod
17,93-99,kolega,_,_,*->3-1,*[3],_,15,NOUN,Ncmsg,obj
18,100-103,Iva,PER[2],_,*->3-1,*[3],_,18,PROPN,Npmsg,nmod
19,104-113,Sanader,PER[2],_,*->3-1,*[3],_,19,PROPN,Npmsg,flat:name
20,114-115,.,_,_,_,_,_,15,PUNCT,Z,punct
21,116-118,ta,_,_,*->3-2,*[3],_,24,DET,Pd-msn,nsubj
22,119-121,pa,_,_,_,_,_,24,CCONJ,Cc,advmod
23,122-126,čakati,_,_,_,_,_,9,VERB,Vmpr3s,parataxis
24,127-129,na,_,_,_,_,_,26,ADP,Sa,case
25,130-137,odgovor,_,_,_,_,_,24,NOUN,Ncmsan,obl
26,138-140,na,_,_,_,_,_,28,ADP,Sa,case
27,141-145,noto,_,_,_,_,_,26,NOUN,Ncfsa,nmod
28,146-147,",",_,_,_,_,_,34,PUNCT,Z,punct
29,148-150,ki,_,_,_,_,_,34,SCONJ,Cs,mark
30,151-153,on,_,_,_,_,_,34,PRON,Pp3fsa--y,obj
31,154-156,biti,_,_,_,_,_,34,AUX,Va-r3s-n,aux
32,157-166,Slovenija,LOC,_,*->4-1,*[4],_,34,PROPN,Npfsn,nsubj
33,167-174,prejeti,_,_,_,_,_,28,VERB,Vmep-sf,acl
34,175-179,pred,_,_,_,_,_,37,ADP,Si,case
35,180-186,osem,_,_,_,_,_,37,NUM,Mlc-pi,nummod
36,187-192,dan,_,_,_,_,_,34,NOUN,Ncmpi,obl
37,193-194,.,_,_,_,_,_,34,PUNCT,Z,punct
38,195-196,"""",_,_,_,_,_,44,PUNCT,Z,punct
39,197-199,po,_,_,_,_,_,42,ADP,Sl,case
40,200-206,svoj,_,_,*->1-2,*[1],_,42,DET,Px-fpl,det
41,207-212,moč,_,_,_,_,_,45,NOUN,Ncfpl,obl
42,213-216,biti,_,_,_,_,_,44,AUX,Va-r1s-n,aux
43,217-223,skušati,_,_,_,_,_,9,VERB,Vmpp-sm,parataxis
44,224-229,priti,_,_,_,_,_,44,VERB,Vmen,xcomp
45,230-232,do,_,_,_,_,_,47,ADP,Sg,case
46,233-241,pogovor,_,_,_,_,_,45,NOUN,Ncmsg,obl
47,242-243,z,_,_,_,_,_,49,ADP,Si,case
48,244-254,Sanader,PER,_,*->3-3,*[3],_,47,PROPN,Npmsi,nmod
49,255-256,",",_,_,_,_,_,54,PUNCT,Z,punct
50,257-259,do,_,_,_,_,_,52,ADP,Sg,case
51,260-264,ta,_,_,_,_,_,54,DET,Pd-nsg,obl
52,265-267,biti,_,_,_,_,_,54,AUX,Va-r3s-y,aux
53,268-274,priti,_,_,_,_,_,45,VERB,Vmep-sn,advcl
54,275-276,.,_,_,_,_,_,54,PUNCT,Z,punct
55,277-284,razumeti,_,_,_,_,_,54,VERB,Vmbp-sm,parataxis
56,285-288,biti,_,_,_,_,_,56,AUX,Va-r1s-n,aux
57,289-290,",",_,_,_,_,_,62,PUNCT,Z,punct
58,291-293,da,_,_,_,_,_,62,SCONJ,Cs,mark
59,294-300,tak,_,_,_,_,_,61,DET,Pd-msg,det
60,301-309,interes,_,_,_,_,_,62,NOUN,Ncmsg,nsubj
61,310-312,biti,_,_,_,_,_,56,VERB,Va-r3s-y,ccomp
62,313-314,",",_,_,_,_,_,62,PUNCT,Z,punct
63,315-317,in,_,_,_,_,_,87,CCONJ,Cc,cc
64,318-319,z,_,_,_,_,_,67,ADP,Sg,case
65,320-324,moj,_,_,*->1-3,*[1],_,67,DET,Ps1fsgs,det
66,325-331,stran,_,_,_,_,_,80,NOUN,Ncfsg,obl
67,332-341,vnovičen,_,_,_,_,_,69,ADJ,Agpmpg,amod
68,342-350,poskus,_,_,_,_,_,80,NOUN,Ncmpg,obl
69,351-353,za,_,_,_,_,_,71,ADP,Sa,case
70,354-356,ta,_,_,_,_,_,69,DET,Pd-nsa,nmod
71,357-358,",",_,_,_,_,_,75,PUNCT,Z,punct
72,359-361,da,_,_,_,_,_,75,SCONJ,Cs,mark
73,362-364,biti,_,_,_,_,_,75,AUX,Va-c,aux
74,365-371,priti,_,_,_,_,_,71,VERB,Vmep-sn,acl
75,372-374,do,_,_,_,_,_,77,ADP,Sg,case
76,375-383,dogovor,_,_,_,_,_,75,NOUN,Ncmsg,obl
77,384-385,",",_,_,_,_,_,75,PUNCT,Z,punct
78,386-388,ne,_,_,_,_,_,80,PART,Q,advmod
79,389-391,biti,_,_,_,_,_,87,VERB,Va-f3s-n,advcl
80,392-393,.,_,_,_,_,_,80,PUNCT,Z,punct
81,394-398,zdaj,_,_,_,_,_,87,ADV,Rgp,advmod
82,399-401,se,_,_,*->1-4,*[1],_,87,PRON,Px------y,expl
83,402-404,ne,_,_,*->1-4,*[1],_,87,PART,Q,advmod
84,405-408,biti,_,_,*->1-4,*[1],_,87,AUX,Va-f1s-n,aux
85,409-412,več,_,_,_,_,_,87,PART,Q,advmod
86,413-419,truditi,_,_,_,_,_,9,VERB,Vmpp-sm,parataxis
87,420-421,",",_,_,_,_,_,87,PUNCT,Z,punct
88,422-423,"""",_,_,_,_,_,91,PUNCT,Z,punct
89,424-426,biti,_,_,_,_,_,91,AUX,Va-r3s-n,aux
90,427-435,pojasniti,_,_,_,_,_,9,VERB,Vmep-sm,parataxis
91,436-443,premier,_,_,*->1-5,*[1],_,91,NOUN,Ncmsn,nsubj
92,444-449,Borut,PER[3],_,*->1-5,*[1],_,92,PROPN,Npmsn,nmod
93,450-455,Pahor,PER[3],_,*->1-5,*[1],_,93,PROPN,Npmsn,flat:name
94,456-457,.,_,_,_,_,_,87,PUNCT,Z,punct
95,458-459,"""",_,_,_,_,_,97,PUNCT,Z,punct
96,460-466,misliti,_,_,*->1-6,*[1],_,9,VERB,Vmpr1s,parataxis
97,467-468,",",_,_,_,_,_,101,PUNCT,Z,punct
98,469-471,da,_,_,_,_,_,101,SCONJ,Cs,mark
99,472-475,biti,_,_,_,_,_,101,AUX,Va-r1s-n,aux
100,476-482,storiti,_,_,_,_,_,97,VERB,Vmep-sm,ccomp
101,483-485,ta,_,_,_,_,_,101,DET,Pd-nsa,obj
102,486-487,",",_,_,_,_,_,116,PUNCT,Z,punct
103,488-491,kar,_,_,_,_,_,116,PRON,Pr-nsn,obj
104,492-494,biti,_,_,_,_,_,106,AUX,Va-r3s-n,aux
105,495-501,praks,_,_,_,_,_,101,NOUN,Ncfsn,nsubj
106,502-503,v,_,_,_,_,_,109,ADP,Sl,case
107,504-514,mednaroden,_,_,_,_,_,109,ADJ,Agpfsl,amod
108,515-524,skupnost,_,_,_,_,_,106,NOUN,Ncfsl,nmod
109,525-528,med,_,_,_,_,_,111,ADP,Si,case
110,529-540,predsednik,_,_,_,_,_,109,NOUN,Ncmpi,nmod
111,541-545,vlad,_,_,_,_,_,111,NOUN,Ncfpg,nmod
112,546-547,",",_,_,_,_,_,116,PUNCT,Z,punct
113,548-550,da,_,_,_,_,_,116,SCONJ,Cs,mark
114,551-558,premier,_,_,_,_,_,116,NOUN,Ncmsn,nsubj
115,559-566,poklicati,_,_,_,_,_,112,VERB,Vmer3s,acl
116,567-578,sogovornik,_,_,_,_,_,116,NOUN,Ncmsay,obj
117,579-580,.,_,_,_,_,_,9,PUNCT,Z,punct
118,581-587,običaj,_,_,_,_,_,143,NOUN,Ncmsn,nsubj
119,588-590,biti,_,_,_,_,_,119,AUX,Va-r3s-n,cop
120,591-592,",",_,_,_,_,_,125,PUNCT,Z,punct
121,593-595,da,_,_,_,_,_,125,SCONJ,Cs,mark
122,596-603,premier,_,_,_,_,_,125,NOUN,Ncmsn,nsubj
123,604-608,nato,_,_,_,_,_,125,ADV,Rgp,advmod
124,609-613,vrniti,_,_,_,_,_,119,VERB,Vmer3s,acl
125,614-618,klic,_,_,_,_,_,125,NOUN,Ncmsan,obj
126,619-620,.,_,_,_,_,_,125,PUNCT,Z,punct
127,621-623,ta,_,_,_,_,_,129,DET,Pd-msn,det
128,624-630,običaj,_,_,_,_,_,133,NOUN,Ncmsn,nsubj
129,631-637,tokrat,_,_,_,_,_,133,ADV,Rgp,advmod
130,638-640,biti,_,_,_,_,_,133,AUX,Va-r3s-y,aux
131,641-644,biti,_,_,_,_,_,133,AUX,Va-p-sm,cop
132,645-654,upoštevan,_,_,_,_,_,9,ADJ,Appmsnn,parataxis
133,655-657,in,_,_,_,_,_,136,CCONJ,Cc,cc
134,658-661,jaz,_,_,*->1-7,*[1],_,136,PRON,Pp1-sn,nsubj
135,662-670,poskušati,_,_,_,_,_,133,VERB,Vmpr1s,conj
136,671-673,ta,_,_,_,_,_,138,DET,Pd-nsa,obj
137,674-682,razumeti,_,_,_,_,_,136,VERB,Vmbn,xcomp
138,683-684,",",_,_,_,_,_,136,PUNCT,Z,punct
139,685-686,"""",_,_,_,_,_,143,PUNCT,Z,punct
140,687-689,biti,_,_,*->1-8,*[1],_,143,AUX,Va-r3s-n,aux
141,690-692,še,_,_,_,_,_,143,PART,Q,advmod
142,693-700,povedati,_,_,_,_,_,9,VERB,Vmep-sm,parataxis
143,701-702,.,_,_,_,_,_,143,PUNCT,Z,punct
144,703-710,skesan,_,_,_,_,_,146,ADJ,Agpmsny,amod
145,711-716,Mesić,PER,_,*->5-1,*[5],_,148,PROPN,Npmsn,nmod
146,717-724,hrvaški,_,_,*->5-2,*[5],_,148,ADJ,Agpmsny,amod
147,725-735,predsednik,_,_,*->5-2,*[5],_,143,NOUN,Ncmsn,nsubj
148,736-741,Stipe,PER[4],_,*->5-2,*[5],_,148,PROPN,Npmsn,nmod
149,742-747,Mesić,PER[4],_,*->5-2,*[5],_,149,PROPN,Npmsn,flat:name
150,748-750,biti,_,_,_,_,_,157,AUX,Va-r3s-n,cop
151,751-754,med,_,_,_,_,_,153,ADP,Si,case
152,755-763,proslava,_,_,_,_,_,143,NOUN,Ncfsi,obl
153,764-766,ob,_,_,_,_,_,155,ADP,Sl,case
154,767-769,65,_,_,_,_,_,157,NUM,Mdc,nummod
155,770-771,.,_,_,_,_,_,143,PUNCT,Z,punct
156,772-781,obletnica,_,_,_,_,_,153,NOUN,Ncfsl,nmod
157,782-793,ustanovitev,_,_,_,_,_,157,NOUN,Ncfsg,nmod
158,794-803,istrski,_,_,_,_,_,161,ADJ,Agpmsg,amod
159,804-817,partizanski,_,_,_,_,_,161,ADJ,Agpmsg,amod
160,818-825,korpus,_,_,_,_,_,158,NOUN,Ncmsg,nmod
161,826-828,na,_,_,_,_,_,163,ADP,Sl,case
162,829-833,Reki,LOC,0,*->6-1,*[6],3 - Nevtralno,161,PROPN,Npfsl,nmod
163,834-840,omeniti,_,_,_,_,_,143,VERB,Vmep-sm,conj
164,841-842,",",_,_,_,_,_,178,PUNCT,Z,punct
165,843-845,da,_,_,_,_,_,178,SCONJ,Cs,mark
166,846-848,biti,_,_,_,_,_,178,AUX,Va-r3p-n,aux
167,849-856,hrvaški,_,_,_,_,_,170,ADJ,Agpfpn,amod
168,857-868,partizanski,_,_,_,_,_,170,ADJ,Agpfpn,amod
169,869-874,enota,_,_,_,_,_,178,NOUN,Ncfpn,nsubj
170,875-876,"""",_,_,_,_,_,178,PUNCT,Z,punct
171,877-883,skupaj,_,_,_,_,_,178,ADV,Rgp,advmod
172,884-885,z,_,_,_,_,_,175,ADP,Si,case
173,886-897,slovenski,_,_,_,_,_,175,ADJ,Agpmpi,amod
174,898-907,partizan,_,_,_,_,_,178,NOUN,Ncmpi,obl
175,908-912,leto,_,_,_,_,_,178,NOUN,Ncnsg,obl
176,913-917,1945,_,_,_,_,_,176,NUM,Mdc,nummod
177,918-928,osvoboditi,_,_,_,_,_,164,VERB,Vmep-pf,ccomp
178,929-933,Trst,LOC,0,*->7-1,*[7],3 - Nevtralno,178,PROPN,Npmsan,obj
179,934-936,in,_,_,_,_,_,181,CCONJ,Cc,cc
180,937-944,ozemlje,_,_,_,_,_,179,NOUN,Ncnsa,conj
181,945-947,do,_,_,_,_,_,183,ADP,Sg,case
182,948-952,Soče,LOC,0,*->8-1,*[8],3 - Nevtralno,181,PROPN,Npfsg,nmod
183,953-954,"""",_,_,_,_,_,178,PUNCT,Z,punct
184,955-956,.,_,_,_,_,_,178,PUNCT,Z,punct
185,957-961,tako,_,_,_,_,_,188,ADV,Rgp,advmod
186,962-964,biti,_,0,*->5-3,*[5],3 - Nevtralno[8],188,AUX,Va-r3s-n,aux
187,965-974,revidirati,_,0,*->5-3,*[5],3 - Nevtralno[8],178,VERB,Vmbp-sm,conj
188,975-980,svoj,_,_,_,_,_,191,DET,Px-fsa,det
189,981-988,nedavno,_,_,_,_,_,191,ADJ,Agpfsa,amod
190,989-995,izjava,_,_,_,_,_,188,NOUN,Ncfsa,obj
191,996-997,o,_,_,_,_,_,194,ADP,Sl,case
192,998-1006,hrvaški,_,_,_,_,_,194,ADJ,Agpnsl,amod
193,1007-1018,osvobajanje,_,_,_,_,_,191,NOUN,Ncnsl,nmod
194,1019-1028,slovenski,_,_,_,_,_,196,ADJ,Agpfsg,amod
195,1029-1038,Primorska,LOC,0,*->9-1,*[9],3 - Nevtralno,194,PROPN,Npfsg,nmod
196,1039-1040,.,_,_,_,_,_,188,PUNCT,Z,punct
197,1041-1046,Pahor,PER,_,*->1-9,*[1],_,201,PROPN,Npmsn,nsubj
198,1047-1048,:,_,_,_,_,_,201,PUNCT,Z,punct
199,1049-1051,ne,_,_,_,_,_,201,PART,Q,advmod
200,1052-1055,iti,_,_,_,_,_,188,VERB,Vmbr3s,advcl
201,1056-1058,za,_,_,_,_,_,203,ADP,Sa,case
202,1059-1066,prestiž,_,_,_,_,_,201,NOUN,Ncmsan,obl
203,1067-1068,"""",_,_,_,_,_,206,PUNCT,Z,punct
204,1069-1071,ne,_,_,_,_,_,206,PART,Q,advmod
205,1072-1075,iti,_,_,_,_,_,201,VERB,Vmbr3s,advcl
206,1076-1078,za,_,_,_,_,_,208,ADP,Sa,case
207,1079-1088,vprašanje,_,_,_,_,_,206,NOUN,Ncnsa,obl
208,1089-1095,moj,_,_,*->1-10,*[1],_,211,DET,Ps1msgs,det
209,1096-1104,oseben,_,_,_,_,_,211,ADJ,Agpmsg,amod
210,1105-1113,prestiža,_,_,_,_,_,208,NOUN,Ncmsg,nmod
211,1114-1115,",",_,_,_,_,_,201,PUNCT,Z,punct
212,1116-1121,ampak,_,_,_,_,_,215,CCONJ,Cc,cc
213,1122-1124,za,_,_,_,_,_,215,ADP,Sa,case
214,1125-1137,dostojanstvo,_,_,_,_,_,208,NOUN,Ncnsa,conj
215,1138-1146,položaj,_,_,_,_,_,215,NOUN,Ncmsg,nmod
216,1147-1148,",",_,_,_,_,_,220,PUNCT,Z,punct
217,1149-1151,ki,_,_,_,_,_,220,SCONJ,Cs,mark
218,1152-1154,on,_,_,_,_,_,220,PRON,Pp3msa--y,obj
219,1155-1162,zasedati,_,_,_,_,_,216,VERB,Vmpr1s,acl
220,1163-1164,",",_,_,_,_,_,220,PUNCT,Z,punct
221,1165-1166,"""",_,_,_,_,_,224,PUNCT,Z,punct
222,1167-1169,biti,_,_,_,_,_,224,AUX,Va-r3s-n,aux
223,1170-1177,zatrditi,_,_,_,_,_,9,VERB,Vmep-sm,parataxis
224,1178-1183,Pahor,PER,_,*->1-11,*[1],_,224,PROPN,Npmsn,nsubj
225,1184-1185,.,_,_,_,_,_,201,PUNCT,Z,punct
226,1186-1187,"""",_,_,_,_,_,232,PUNCT,Z,punct
227,1188-1191,kot,_,_,_,_,_,229,SCONJ,Cs,case
228,1192-1202,predsednik,_,_,*->1-12,*[1],_,225,NOUN,Ncmsn,obl
229,1203-1208,vlada,ORG,_,*->1-12|*->2-2,*[1]|*[2],_,229,NOUN,Ncfsg,nmod
230,1209-1212,biti,_,_,_,_,_,232,AUX,Va-r1s-n,aux
231,1213-1219,storiti,_,_,_,_,_,9,VERB,Vmep-sm,parataxis
232,1220-1223,ves,_,_,_,_,_,232,DET,Pg-nsa,obj
233,1224-1225,v,_,_,_,_,_,236,ADP,Sl,case
234,1226-1231,dober,_,_,_,_,_,236,ADJ,Agpfsl,amod
235,1232-1236,vera,_,_,_,_,_,233,NOUN,Ncfsl,nmod
236,1237-1239,in,_,_,_,_,_,240,CCONJ,Cc,cc
237,1240-1241,z,_,_,_,_,_,240,ADP,Si,case
238,1242-1251,iskren,_,_,_,_,_,240,ADJ,Agpmpi,amod
239,1252-1258,namen,_,_,_,_,_,236,NOUN,Ncmpi,conj
240,1259-1260,",",_,_,_,_,_,244,PUNCT,Z,punct
241,1261-1263,da,_,_,_,_,_,244,SCONJ,Cs,mark
242,1264-1266,biti,_,_,_,_,_,244,AUX,Va-c,aux
243,1267-1276,izmenjati,_,_,_,_,_,240,VERB,Vmpp-sf,acl
244,1277-1285,stališče,_,_,_,_,_,244,NOUN,Ncnpa,obj
245,1286-1287,",",_,_,_,_,_,254,PUNCT,Z,punct
246,1288-1292,kako,_,_,_,_,_,254,ADV,Rgp,advmod
247,1293-1299,naprej,_,_,_,_,_,254,ADV,Rgp,advmod
248,1300-1301,.,_,_,_,_,_,244,PUNCT,Z,punct
249,1302-1308,odziv,_,_,_,_,_,254,NOUN,Ncmsg,obj
250,1309-1316,hrvaški,_,_,_,_,_,252,ADJ,Agpfsg,amod
251,1317-1323,stran,_,_,_,_,_,250,NOUN,Ncfsg,nmod
252,1324-1326,biti,_,_,_,_,_,254,AUX,Va-r3s-y,aux
253,1327-1331,biti,_,_,_,_,_,240,VERB,Va-p-sn,acl
254,1332-1333,",",_,_,_,_,_,254,PUNCT,Z,punct
255,1334-1335,"""",_,_,_,_,_,258,PUNCT,Z,punct
256,1336-1338,biti,_,_,*->1-13,*[1],_,258,AUX,Va-r3s-n,aux
257,1339-1344,dejati,_,_,*->1-13,*[1],_,9,VERB,Vmep-sm,parataxis
258,1345-1346,.,_,_,_,_,_,254,PUNCT,Z,punct
259,1347-1352,Pahor,PER,_,*->1-14,*[1],_,263,PROPN,Npmsn,nsubj
260,1353-1355,biti,_,_,_,_,_,263,AUX,Va-r3s-n,aux
261,1356-1358,še,_,_,_,_,_,263,PART,Q,advmod
262,1359-1366,izraziti,_,_,_,_,_,9,VERB,Vmep-sm,parataxis
263,1367-1379,nestrinjanje,_,_,_,_,_,263,NOUN,Ncnsa,obj
264,1380-1381,z,_,_,_,_,_,266,ADP,Si,case
265,1382-1389,mnenje,_,_,_,_,_,264,NOUN,Ncnsi,nmod
266,1390-1399,hrvaški,_,_,*->3-4,*[3],_,268,ADJ,Agpmsg,amod
267,1400-1409,premier,_,_,*->3-4,*[3],_,266,NOUN,Ncmsg,nmod
268,1410-1413,Iva,PER[5],_,*->3-4,*[3],_,268,PROPN,Npmsg,nmod
269,1414-1423,Sanader,PER[5],_,*->3-4,*[3],_,269,PROPN,Npmsg,flat:name
270,1424-1425,",",_,_,_,_,_,273,PUNCT,Z,punct
271,1426-1428,da,_,_,_,_,_,273,SCONJ,Cs,mark
272,1429-1431,biti,_,_,_,_,_,268,VERB,Va-r3s-n,acl
273,1432-1437,treba,_,_,_,_,_,273,ADV,Rgp,advmod
274,1438-1444,odprt,_,_,_,_,_,276,ADJ,Appfpa,amod
275,1445-1451,stvar,_,_,_,_,_,279,NOUN,Ncfpa,obj
276,1452-1455,med,_,_,_,_,_,278,ADP,Si,case
277,1456-1464,država,_,_,_,_,_,276,NOUN,Ncfdi,nmod
278,1465-1472,urejati,_,_,_,_,_,273,VERB,Vmpn,csubj
279,1473-1475,po,_,_,_,_,_,282,ADP,Sl,case
280,1476-1488,diplomatski,_,_,_,_,_,282,ADJ,Agpmpl,amod
281,1489-1496,kanal,_,_,_,_,_,279,NOUN,Ncmpl,obl
282,1497-1498,.,_,_,_,_,_,263,PUNCT,Z,punct
283,1499-1500,"""",_,_,_,_,_,263,PUNCT,Z,punct
284,1501-1506,konec,_,_,_,_,_,286,ADP,Sg,case
285,1507-1513,konec,_,_,_,_,_,279,NOUN,Ncmpg,obl
286,1514-1515,",",_,_,_,_,_,290,PUNCT,Z,punct
287,1516-1519,kaj,_,_,_,_,_,290,PRON,Pq-nsn,nsubj
288,1520-1522,biti,_,_,_,_,_,290,AUX,Va-r3s-n,cop
289,1523-1533,pomemben,_,_,_,_,_,286,ADJ,Agcnsn,acl
290,1534-1536,od,_,_,_,_,_,292,ADP,Sg,case
291,1537-1541,ta,_,_,_,_,_,290,DET,Pd-nsg,obl
292,1542-1543,",",_,_,_,_,_,299,PUNCT,Z,punct
293,1544-1546,da,_,_,_,_,_,299,SCONJ,Cs,mark
294,1547-1549,biti,_,_,_,_,_,299,AUX,Va-r3s-n,cop
295,1550-1560,predsednik,_,_,_,_,_,299,NOUN,Ncmsn,nsubj
296,1561-1564,en,_,_,_,_,_,298,NUM,Mlpfsg,nummod
297,1565-1570,vlada,ORG,_,*->2-3,*[2],_,296,NOUN,Ncfsg,nmod
298,1571-1582,pripravljen,_,_,_,_,_,292,ADJ,Appmsnn,acl
299,1583-1592,poklicati,_,_,_,_,_,299,VERB,Vmen,ccomp
300,1593-1604,predsednik,_,_,_,_,_,300,NOUN,Ncmsay,obj
301,1605-1610,drug,_,_,_,_,_,303,ADJ,Mlpfsg,amod
302,1611-1616,vlada,ORG,0,*->2-4,*[2],3 - Nevtralno,301,NOUN,Ncfsg,nmod
303,1617-1619,po,_,_,_,_,_,305,ADP,Sl,case
304,1620-1628,telefon,_,_,_,_,_,303,NOUN,Ncmsl,nmod
305,1629-1630,",",_,_,_,_,_,299,PUNCT,Z,punct
306,1631-1632,"""",_,_,_,_,_,309,PUNCT,Z,punct
307,1633-1635,biti,_,_,_,_,_,309,AUX,Va-r3s-n,aux
308,1636-1643,vprašati,_,_,_,_,_,9,VERB,Vmep-sm,parataxis
309,1644-1651,premier,_,_,*->1-15,*[1],_,309,NOUN,Ncmsn,nsubj
310,1652-1653,.,_,_,_,_,_,309,PUNCT,Z,punct
311,1654-1661,Sanader,PER,_,*->3-5,*[3],_,315,PROPN,Npmsn,nsubj
312,1662-1664,biti,_,_,_,_,_,315,AUX,Va-c,aux
313,1665-1667,se,_,_,_,_,_,315,PRON,Px------y,expl
314,1668-1674,sestati,_,_,_,_,_,309,VERB,Vmep-sm,advcl
315,1675-1676,z,_,_,_,_,_,317,ADP,Si,case
316,1677-1685,Pahor,PER,_,*->1-16,*[1],_,315,PROPN,Npmsi,obl
317,1686-1687,.,_,_,_,_,_,9,PUNCT,Z,punct
318,1688-1689,.,_,_,_,_,_,9,PUNCT,Z,punct
319,1690-1691,.,_,_,_,_,_,315,PUNCT,Z,punct
320,1692-1693,"""",_,_,_,_,_,322,PUNCT,Z,punct
321,1694-1705,pripravljen,_,_,*->3-6,*[3],_,9,ADJ,Appmsnn,parataxis
322,1706-1709,biti,_,_,*->3-6,*[3],_,322,AUX,Va-r1s-n,cop
323,1710-1712,na,_,_,_,_,_,325,ADP,Sa,case
324,1713-1720,pogovor,_,_,_,_,_,322,NOUN,Ncmsan,obl
325,1721-1722,z,_,_,_,_,_,328,ADP,Si,case
326,1723-1733,slovenski,_,_,*->1-17,*[1],_,328,ADJ,Agpmsi,amod
327,1734-1741,kolega,_,_,*->1-17,*[1],_,325,NOUN,Ncmsi,nmod
328,1742-1745,ter,_,_,_,_,_,330,CCONJ,Cc,cc
329,1746-1757,pripravljen,_,_,_,_,_,322,ADJ,Appmsnn,conj
330,1758-1765,storiti,_,_,_,_,_,330,VERB,Vmen,ccomp
331,1766-1769,ves,_,_,_,_,_,331,DET,Pg-nsa,obj
332,1770-1771,",",_,_,_,_,_,338,PUNCT,Z,punct
333,1772-1774,da,_,_,_,_,_,338,SCONJ,Cs,mark
334,1775-1777,se,_,_,_,_,_,338,PRON,Px------y,expl
335,1778-1787,slovenski,_,_,_,_,_,337,ADJ,Agpfsn,amod
336,1788-1795,blokada,_,_,_,_,_,338,NOUN,Ncfsn,nsubj
337,1796-1801,končati,_,_,_,_,_,332,VERB,Vmer3s,acl
338,1802-1803,",",_,_,_,_,_,338,PUNCT,Z,punct
339,1804-1805,"""",_,_,_,_,_,347,PUNCT,Z,punct
340,1806-1808,biti,_,_,_,_,_,347,AUX,Va-r3s-n,aux
341,1809-1811,po,_,_,_,_,_,343,ADP,Sl,case
342,1812-1821,poročanje,_,_,_,_,_,347,NOUN,Ncnsl,obl
343,1822-1832,Jutarnje,ORG,_,*->10-1,*[10],_,343,PROPN,Npmsg,nmod
344,1833-1836,Ivo,PER[6],_,*->3-7,*[3],_,347,PROPN,Npmsn,nsubj
345,1837-1844,Sanader,PER[6],_,*->3-7,*[3],_,345,PROPN,Npmsn,flat:name
346,1845-1850,dejati,_,_,_,_,_,338,VERB,Vmep-sm,conj
347,1851-1852,v,_,_,_,_,_,349,ADP,Sa,case
348,1853-1858,petek,_,_,_,_,_,347,NOUN,Ncmsan,obl
349,1859-1860,.,_,_,_,_,_,347,PUNCT,Z,punct
350,1861-1867,omeniti,_,_,*->3-8,*[3],_,347,VERB,Vmep-sm,conj
351,1868-1869,",",_,_,_,_,_,355,PUNCT,Z,punct
352,1870-1872,da,_,_,_,_,_,355,SCONJ,Cs,mark
353,1873-1875,še,_,_,_,_,_,355,PART,Q,advmod
354,1876-1880,čakati,_,_,_,_,_,347,VERB,Vmpr3s,ccomp
355,1881-1883,na,_,_,_,_,_,357,ADP,Sa,case
356,1884-1891,odgovor,_,_,_,_,_,355,NOUN,Ncmsan,obl
357,1892-1901,Ljubljana,LOC,0,*->11-1,*[11],3 - Nevtralno,357,PROPN,Npfsg,nmod
358,1902-1904,na,_,_,_,_,_,360,ADP,Sa,case
359,1905-1909,noto,_,_,_,_,_,357,NOUN,Ncfsa,nmod
360,1910-1911,",",_,_,_,_,_,367,PUNCT,Z,punct
361,1912-1914,ki,_,_,_,_,_,367,SCONJ,Cs,mark
362,1915-1917,on,_,_,_,_,_,367,PRON,Pp3fsa--y,obj
363,1918-1920,biti,_,_,_,_,_,367,AUX,Va-r3s-n,aux
364,1921-1928,hrvaški,LOC,_,*->12-1,*[12],_,366,ADJ,Agpfsn,amod
365,1929-1938,Slovenija,LOC,_,*->4-2,*[4],_,367,PROPN,Npfsd,obj
366,1939-1946,poslati,_,_,_,_,_,360,VERB,Vmep-sf,acl
367,1947-1951,pred,_,_,_,_,_,370,ADP,Si,case
368,1952-1958,osem,_,_,_,_,_,370,NUM,Mlc-pi,nummod
369,1959-1964,dan,_,_,_,_,_,367,NOUN,Ncmpi,obl
370,1965-1967,in,_,_,_,_,_,376,CCONJ,Cc,cc
371,1968-1969,v,_,_,_,_,_,373,ADP,Sl,case
372,1970-1976,kateri,_,_,_,_,_,376,DET,Pq-fsl,obl
373,1977-1980,med,_,_,_,_,_,375,ADP,Si,case
374,1981-1987,drug,_,_,_,_,_,376,ADJ,Mlpmsi,obl
375,1988-1996,predlagati,_,_,*->3-9,*[3],_,367,VERB,Vmbr3s,conj
376,1997-2005,srečanje,_,_,_,_,_,376,NOUN,Ncnsa,obj
377,2006-2010,oba,_,_,_,_,_,379,DET,Pg-mdg,det
378,2011-2021,premier,_,_,_,_,_,377,NOUN,Ncmdg,nmod
379,2022-2023,.,_,_,_,_,_,367,PUNCT,Z,punct
380,2024-2031,Sanader,PER,2,*->3-10,*[3],2 - Negativno,383,PROPN,Npmsn,nsubj
381,2032-2034,biti,_,_,_,_,_,383,AUX,Va-r3s-y,aux
382,2035-2040,želeti,_,_,_,_,_,9,VERB,Vmpp-sm,parataxis
383,2041-2054,specificirati,_,_,_,_,_,383,VERB,Vmbn,xcomp
384,2055-2056,",",_,_,_,_,_,394,PUNCT,Z,punct
385,2057-2060,kje,_,_,_,_,_,394,ADV,Rgp,advmod
386,2061-2063,in,_,_,_,_,_,388,CCONJ,Cc,cc
387,2064-2068,kdaj,_,_,_,_,_,394,ADV,Rgp,mark
388,2069-2072,naj,_,_,_,_,_,394,PART,Q,advmod
389,2073-2075,biti,_,_,_,_,_,394,AUX,Va-c,aux
390,2076-2078,se,_,_,_,_,_,394,PRON,Px------y,expl
391,2079-2080,z,_,_,_,_,_,393,ADP,Si,case
392,2081-2089,Pahor,PER,0,*->1-18,*[1],3 - Nevtralno,394,PROPN,Npmsi,obl
393,2090-2097,srečati,_,_,_,_,_,384,VERB,Vmep-sf,ccomp
394,2098-2100,in,_,_,_,_,_,396,CCONJ,Cc,cc
395,2101-2107,omeniti,_,_,_,_,_,394,VERB,Vmep-sm,conj
396,2108-2109,",",_,_,_,_,_,399,PUNCT,Z,punct
397,2110-2112,da,_,_,_,_,_,399,SCONJ,Cs,mark
398,2113-2115,biti,_,_,_,_,_,396,VERB,Va-r3s-n,ccomp
399,2116-2117,"""",_,_,_,_,_,399,PUNCT,Z,punct
400,2118-2123,treba,_,_,_,_,_,399,ADV,Rgp,advmod
401,2124-2131,pustiti,_,_,_,_,_,399,VERB,Vmen,csubj
402,2132-2143,diplomacija,_,_,_,_,_,402,NOUN,Ncfsd,obj
403,2144-2145,",",_,_,_,_,_,406,PUNCT,Z,punct
404,2146-2148,da,_,_,_,_,_,406,SCONJ,Cs,mark
405,2149-2155,opraviti,_,_,_,_,_,403,VERB,Vmer3s,acl
406,2156-2160,svoj,_,_,_,_,_,408,DET,Px-msa,det
407,2161-2166,posel,_,_,_,_,_,406,NOUN,Ncmsan,obj
408,2167-2168,"""",_,_,_,_,_,408,PUNCT,Z,punct
409,2169-2170,.,_,_,_,_,_,394,PUNCT,Z,punct
410,2171-2173,po,_,_,_,_,_,412,ADP,Sl,case
411,2174-2186,informacija,_,_,_,_,_,402,NOUN,Ncfpl,obl
412,2187-2197,Jutarnje,ORG,0,*->10-2,*[10],3 - Nevtralno,412,PROPN,Npmsg,nmod
413,2198-2199,",",_,_,_,_,_,417,PUNCT,Z,punct
414,2200-2202,ki,_,_,_,_,_,417,SCONJ,Cs,mark
415,2203-2205,se,_,_,_,_,_,417,PRON,Px------y,expl
416,2206-2214,sklicevati,_,_,_,_,_,412,VERB,Vmpr3s,acl
417,2215-2217,na,_,_,_,_,_,419,ADP,Sa,case
418,2218-2221,vir,_,_,_,_,_,417,NOUN,Ncmsan,obl
419,2222-2224,na,_,_,_,_,_,422,ADP,Sl,case
420,2225-2233,zunanji,ORG[7],0,*->13-1,*[13],3 - Nevtralno[9],422,ADJ,Agpnsl,amod
421,2234-2245,ministrstvo,ORG[7],0,*->13-1,*[13],3 - Nevtralno[9],419,NOUN,Ncnsl,nmod
422,2246-2247,",",_,_,_,_,_,417,PUNCT,Z,punct
423,2248-2250,biti,_,_,_,_,_,428,AUX,Va-r3s-n,aux
424,2251-2258,hrvaški,LOC,_,*->12-2,*[12],_,428,PROPN,Npfsn,nsubj
425,2259-2260,v,_,_,_,_,_,427,ADP,Sl,case
426,2261-2265,not,_,_,_,_,_,428,NOUN,Ncfsl,obl
427,2266-2276,predlagati,_,_,_,_,_,9,VERB,Vmbp-sf,parataxis
428,2277-2278,",",_,_,_,_,_,433,PUNCT,Z,punct
429,2279-2281,da,_,_,_,_,_,433,SCONJ,Cs,mark
430,2282-2284,se,_,_,_,_,_,433,PRON,Px------y,expl
431,2285-2294,premier,_,_,_,_,_,433,NOUN,Ncmdn,nsubj
432,2295-2302,srečati,_,_,_,_,_,428,VERB,Vmer3d,ccomp
433,2303-2308,nekje,_,_,_,_,_,436,ADV,Rgp,advmod
434,2309-2311,na,_,_,_,_,_,436,ADP,Sl,case
435,2312-2320,Hrvaško,LOC,0,*->12-3,*[12],3 - Nevtralno,433,PROPN,Npnsl,obl
436,2321-2322,",",_,_,_,_,_,444,PUNCT,Z,punct
437,2323-2326,pri,_,_,_,_,_,439,ADP,Sl,case
438,2327-2332,kar,_,_,_,_,_,444,PRON,Pr-nsl,obl
439,2333-2336,naj,_,_,_,_,_,444,PART,Q,advmod
440,2337-2339,biti,_,_,_,_,_,444,AUX,Va-c,aux
441,2340-2343,biti,_,_,_,_,_,444,AUX,Va-p-sm,cop
442,2344-2351,izrecno,_,_,_,_,_,444,ADV,Rgp,advmod
443,2352-2359,omenjen,_,_,_,_,_,436,ADJ,Appmsnn,acl
444,2360-2366,Zagreb,LOC,0,*->14-1,*[14],3 - Nevtralno,444,PROPN,Npmsn,nsubj
445,2367-2368,.,_,_,_,_,_,444,PUNCT,Z,punct
446,2369-2375,vseeno,_,_,_,_,_,453,ADV,Rgp,advmod
447,2376-2379,naj,_,_,_,_,_,453,PART,Q,advmod
448,2380-2382,biti,_,_,_,_,_,453,AUX,Va-c,aux
449,2383-2387,biti,_,_,_,_,_,453,AUX,Va-p-sf,cop
450,2388-2395,hrvaški,_,_,_,_,_,452,ADJ,Agpfsn,amod
451,2396-2401,stran,_,_,_,_,_,453,NOUN,Ncfsn,nsubj
452,2402-2414,pripravljen,_,_,_,_,_,444,ADJ,Appfsn,conj
453,2415-2417,na,_,_,_,_,_,455,ADP,Sa,case
454,2418-2426,srečanje,_,_,_,_,_,453,NOUN,Ncnsa,obl
455,2427-2428,v,_,_,_,_,_,457,ADP,Sl,case
456,2429-2438,Slovenija,LOC,0,*->4-3,*[4],3 - Nevtralno,455,PROPN,Npfsl,nmod
