idx,chars_idx,token,entity_type,sentiment,idk_1,idk_2,orig_sentiment,heads,upos,xpos,deprel
0,0-4,upor,_,_,_,_,_,36,NOUN,Ncmsn,nsubj
1,5-6,.,_,_,_,_,_,1,PUNCT,Z,punct
2,7-13,župan,_,_,_,_,_,1,NOUN,Ncmsg,nmod
3,14-22,Hudoklin,PER,_,*->1-1,*[1],_,3,PROPN,Npmsn,nmod
4,23-25,in,_,_,_,_,_,6,CCONJ,Cc,cc
5,26-32,Škufca,PER,_,*->2-1,*[2],_,4,PROPN,Npfsn,conj
6,33-40,praviti,_,_,_,_,_,0,VERB,Vmpr3d,root
7,41-42,",",_,_,_,_,_,18,PUNCT,Z,punct
8,43-45,da,_,_,_,_,_,18,SCONJ,Cs,mark
9,46-53,pogodba,_,_,_,_,_,18,NOUN,Ncfpa,obj
10,54-55,o,_,_,_,_,_,12,ADP,Sl,case
11,56-70,sofinanciranje,_,_,_,_,_,10,NOUN,Ncnsl,nmod
12,71-80,knjižnica,ORG[1],_,*->3-1,*[3],_,12,NOUN,Ncfsg,nmod
13,81-87,Miran,ORG[1]|PER[2],_,*->3-1|*->4-1,*[3]|*[4],_,13,PROPN,Npmsg,nmod
14,88-93,Jarco,ORG[1]|PER[2],_,*->3-1|*->4-1,*[3]|*[4],_,14,PROPN,Npmsg,flat:name
15,94-96,ne,_,_,_,_,_,18,PART,Q,advmod
16,97-102,biti,_,_,_,_,_,18,AUX,Va-f3d-n,aux
17,103-112,podpisati,_,_,_,_,_,7,VERB,Vmep-dm,ccomp
18,113-114,.,_,_,_,_,_,18,PUNCT,Z,punct
19,115-117,ob,_,_,_,_,_,21,ADP,Sl,case
20,118-125,podpis,_,_,_,_,_,18,NOUN,Ncmsl,obl
21,126-133,pogodba,_,_,_,_,_,21,NOUN,Ncfsg,nmod
22,134-135,o,_,_,_,_,_,25,ADP,Sl,case
23,136-145,občinski,_,_,_,_,_,25,ADJ,Agpmsl,amod
24,146-159,sofinanciraj,_,_,_,_,_,22,NOUN,Ncmsl,nmod
25,160-169,knjižnica,ORG[3],_,*->3-2,*[3],_,25,NOUN,Ncfsg,nmod
26,170-176,Miran,ORG[3]|PER[4],_,*->3-2|*->4-2,*[3]|*[4],_,26,PROPN,Npmsg,nmod
27,177-182,Jarco,ORG[3]|PER[4],_,*->3-2|*->4-2,*[3]|*[4],_,27,PROPN,Npmsg,flat:name
28,183-187,nov,ORG[3]|LOC[5],_,*->3-2|*->5-1,*[3]|*[5],_,30,ADJ,Agpnsa,amod
29,188-193,mesto,ORG[3]|LOC[5],_,*->3-2|*->5-1,*[3]|*[5],_,36,NOUN,Ncnsa,obj
30,194-196,biti,_,_,_,_,_,36,AUX,Va-r3s-n,aux
31,197-208,direktorica,_,_,*->6-1,*[6],_,36,NOUN,Ncfsn,nsubj
32,209-216,Claudio,PER[6],_,*->6-1,*[6],_,32,PROPN,Npfsn,nmod
33,217-223,Jerin,PER[6],_,*->6-1,*[6],_,33,PROPN,Npfsn,flat:name
34,224-231,Mestnik,PER[6],_,*->6-1,*[6],_,33,PROPN,Npfsn,flat:name
35,232-242,napovedati,_,_,_,_,_,7,VERB,Vmep-sf,root
36,243-244,",",_,_,_,_,_,45,PUNCT,Z,punct
37,245-247,da,_,_,_,_,_,45,SCONJ,Cs,mark
38,248-251,naj,_,_,_,_,_,45,PART,Q,advmod
39,252-254,biti,_,_,_,_,_,45,AUX,Va-c,aux
40,255-257,on,_,_,_,_,_,45,PRON,Pp3fsa--y,obj
41,258-259,v,_,_,_,_,_,44,ADP,Sl,case
42,260-270,naslednji,_,_,_,_,_,44,ADJ,Agpmpl,amod
43,271-275,dan,_,_,_,_,_,45,NOUN,Ncmpl,obl
44,276-285,podpisati,_,_,_,_,_,36,VERB,Vmep-sf,ccomp
45,286-290,tudi,_,_,_,_,_,45,PART,Q,advmod
46,291-297,župan,_,_,_,_,_,45,NOUN,Ncmsn,nsubj
47,298-309,Šentjernej,LOC,_,*->7-1,*[7],_,47,PROPN,Npmsay,nmod
48,310-312,in,_,_,_,_,_,50,CCONJ,Cc,cc
49,313-323,Žužemberka,LOC,_,*->8-1,*[8],_,48,PROPN,Npmsay,conj
50,324-325,",",_,_,_,_,_,45,PUNCT,Z,punct
51,326-327,a,_,_,_,_,_,58,CCONJ,Cc,cc
52,328-333,Franc,PER[7],_,*->1-2,*[1],_,58,PROPN,Npmsn,nsubj
53,334-342,Hudoklin,PER[7],_,*->1-2,*[1],_,53,PROPN,Npmsn,flat:name
54,343-345,in,_,_,_,_,_,56,CCONJ,Cc,cc
55,346-351,Franc,PER[8],_,*->2-2,*[2],_,53,PROPN,Npmsn,conj
56,352-358,Škufca,PER[8],_,*->2-2,*[2],_,56,PROPN,Npmsn,flat:name
57,359-366,praviti,_,_,_,_,_,45,VERB,Vmpr3d,root
58,367-368,",",_,_,_,_,_,65,PUNCT,Z,punct
59,369-371,da,_,_,_,_,_,65,SCONJ,Cs,mark
60,372-374,se,_,_,_,_,_,65,PRON,Px------y,expl
61,375-377,ta,_,_,_,_,_,65,DET,Pd-nsn,nsubj
62,378-380,ne,_,_,_,_,_,65,PART,Q,advmod
63,381-383,biti,_,_,_,_,_,65,AUX,Va-f3s-n,aux
64,384-391,zgoditi,_,_,_,_,_,58,VERB,Vmep-sn,ccomp
65,392-393,.,_,_,_,_,_,36,PUNCT,Z,punct
66,394-395,“,_,_,_,_,_,83,PUNCT,Z,punct
67,396-398,na,_,_,_,_,_,70,ADP,Sa,case
68,399-402,tak,_,_,_,_,_,70,DET,Pd-msa,det
69,403-409,znesek,_,_,_,_,_,83,NOUN,Ncmsan,obl
70,410-411,",",_,_,_,_,_,76,PUNCT,Z,punct
71,412-415,kot,_,_,_,_,_,76,SCONJ,Cs,mark
72,416-418,biti,_,_,_,_,_,76,AUX,Va-r3p-n,aux
73,419-422,jaz,_,_,_,_,_,76,PRON,Pp1-pd,obj
74,423-425,on,_,_,_,_,_,76,PRON,Pp3msa--y,obj
75,426-434,ponuditi,_,_,_,_,_,70,VERB,Vmep-pm,acl
76,435-436,v,_,_,_,_,_,78,ADP,Sa,case
77,437-443,podpis,_,_,_,_,_,76,NOUN,Ncmsan,obl
78,444-445,",",_,_,_,_,_,76,PUNCT,Z,punct
79,446-448,ne,_,_,_,_,_,83,PART,Q,advmod
80,449-453,biti,_,_,_,_,_,83,AUX,Va-f1p-n,aux
81,454-460,nikoli,_,_,_,_,_,83,ADV,Rgp,advmod
82,461-469,pristati,_,_,_,_,_,65,VERB,Vmep-pm,conj
83,470-471,.,_,_,_,_,_,83,PUNCT,Z,punct
84,472-480,zavedati,_,_,_,_,_,83,VERB,Vmpr1p,conj
85,481-483,se,_,_,_,_,_,85,PRON,Px------y,expl
86,484-485,",",_,_,_,_,_,89,PUNCT,Z,punct
87,486-488,da,_,_,_,_,_,89,SCONJ,Cs,mark
88,489-495,uslugati,_,_,_,_,_,85,VERB,Vmer3p,ccomp
89,496-505,knjižnica,ORG[9],_,*->3-3,*[3],_,89,NOUN,Ncfpa,obj
90,506-512,Miran,ORG[9]|PER[10],_,*->3-3|*->4-3,*[3]|*[4],_,90,PROPN,Npmsay,nmod
91,513-518,Jarco,ORG[9]|PER[10],_,*->3-3|*->4-3,*[3]|*[4],_,91,PROPN,Npmsay,flat:name
92,519-530,potrebovati,_,_,_,_,_,89,VERB,Vmpr1p,punct
93,531-533,in,_,_,_,_,_,97,CCONJ,Cc,cc
94,534-536,da,_,_,_,_,_,97,SCONJ,Cs,mark
95,537-540,on,_,_,_,_,_,99,PRON,Pp3mpa--y,obj
96,541-543,biti,_,_,_,_,_,93,VERB,Va-r3s-n,conj
97,544-549,treba,_,_,_,_,_,97,ADV,Rgp,advmod
98,550-557,plačati,_,_,_,_,_,97,VERB,Vmen,csubj
99,558-559,",",_,_,_,_,_,105,PUNCT,Z,punct
100,560-561,a,_,_,_,_,_,105,CCONJ,Cc,cc
101,562-564,ne,_,_,_,_,_,105,PART,Q,cc:preconj
102,565-567,za,_,_,_,_,_,105,ADP,Sa,case
103,568-579,kakršenkoli,_,_,_,_,_,105,DET,Pq-fsa,det
104,580-584,cena,_,_,_,_,_,99,NOUN,Ncfsa,obl
105,585-586,",",_,_,_,_,_,105,PUNCT,Z,punct
106,587-588,”,_,_,_,_,_,109,PUNCT,Z,punct
107,589-591,biti,_,_,_,_,_,109,AUX,Va-r3s-n,cop
108,592-597,jasen,_,_,_,_,_,7,ADJ,Agpmsnn,parataxis
109,598-606,Hudoklin,PER,_,*->1-3,*[1],_,109,PROPN,Npmsn,nsubj
110,607-608,.,_,_,_,_,_,109,PUNCT,Z,punct
111,609-619,Šentjernej,LOC,_,*->7-2,*[7],_,110,PROPN,Npmsn,conj
112,620-621,",",_,_,_,_,_,124,PUNCT,Z,punct
113,622-624,ki,_,_,_,_,_,124,SCONJ,Cs,mark
114,625-627,biti,_,_,_,_,_,124,AUX,Va-r3s-n,aux
115,628-630,do,_,_,_,_,_,117,ADP,Sg,case
116,631-635,zdaj,_,_,_,_,_,124,ADV,Rgp,advmod
117,636-638,za,_,_,_,_,_,120,ADP,Sa,case
118,639-646,matičen,_,_,_,_,_,120,ADJ,Agpfsa,amod
119,647-656,knjižnica,_,_,_,_,_,124,NOUN,Ncfsa,obl
120,657-658,v,_,_,_,_,_,123,ADP,Sl,case
121,659-664,nov,LOC[11],0,*->5-2,*[5],3 - Nevtralno[26],123,ADJ,Agpnsl,amod
122,665-670,mesto,LOC[11],0,*->5-2,*[5],3 - Nevtralno[26],124,NOUN,Ncnsl,obl
123,671-680,prispevati,_,_,_,_,_,110,VERB,Vmbp-sm,acl
124,681-683,po,_,_,_,_,_,128,ADP,Sa,case
125,684-686,90,_,_,_,_,_,128,NUM,Mdc,nummod
126,687-692,tisoč,_,_,_,_,_,126,NUM,Mlc-pa,flat
127,693-698,evro,_,_,_,_,_,124,NOUN,Ncmpg,obl
128,699-701,na,_,_,_,_,_,130,ADP,Sa,case
129,702-706,leto,_,_,_,_,_,128,NOUN,Ncnsa,nmod
130,707-708,",",_,_,_,_,_,124,PUNCT,Z,punct
131,709-712,naj,_,_,_,_,_,138,PART,Q,advmod
132,713-715,biti,_,_,_,_,_,138,AUX,Va-c,aux
133,716-718,po,_,_,_,_,_,138,ADP,Sl,case
134,719-724,nov,_,_,_,_,_,138,ADJ,Agpmsl,amod
135,725-728,118,_,_,_,_,_,138,NUM,Mdc,nummod
136,729-734,tisoč,_,_,_,_,_,136,NUM,Mlc-pa,flat
137,735-740,evro,_,_,_,_,_,124,NOUN,Ncmpg,obl
138,741-742,",",_,_,_,_,_,138,PUNCT,Z,punct
139,743-752,Žužemberk,LOC,_,*->8-2,*[8],_,138,PROPN,Npmsn,appos
140,753-755,pa,_,_,_,_,_,143,CCONJ,Cc,advmod
141,756-763,namesto,_,_,_,_,_,143,ADP,Sg,case
142,764-775,dozdajšnji,_,_,_,_,_,144,ADJ,Agpmpg,amod
143,776-778,43,_,_,_,_,_,150,NUM,Mdc,nummod
144,779-784,tisoč,_,_,_,_,_,144,NUM,Mlc-pa,flat
145,785-790,nekaj,_,_,_,_,_,150,DET,Rgp,det
146,791-794,čez,_,_,_,_,_,150,ADP,Sa,case
147,795-797,90,_,_,_,_,_,150,NUM,Mdc,nummod
148,798-803,tisoč,_,_,_,_,_,148,NUM,Mlc-pa,flat
149,804-809,evro,_,_,_,_,_,138,NOUN,Ncmpg,appos
150,810-811,.,_,_,_,_,_,143,PUNCT,Z,punct
151,812-821,knjižnica,_,_,_,_,_,154,NOUN,Ncfsn,nsubj
152,822-824,biti,_,_,_,_,_,154,AUX,Va-r3s-n,cop
153,825-836,prerazkošen,_,_,_,_,_,150,ADJ,Agpfsn,amod
154,837-845,sestanek,_,_,_,_,_,154,NOUN,Ncmsan,obj
155,846-847,z,_,_,_,_,_,157,ADP,Si,case
156,848-858,ministrica,_,_,_,_,_,155,NOUN,Ncfsi,nmod
157,859-864,glede,_,_,_,_,_,159,ADP,Sg,case
158,865-875,zakonodaja,_,_,_,_,_,157,NOUN,Ncfsg,nmod
159,876-877,.,_,_,_,_,_,154,PUNCT,Z,punct
160,878-880,ob,_,_,_,_,_,162,ADP,Sl,case
161,881-888,podpis,_,_,_,_,_,159,NOUN,Ncmsl,nmod
162,889-895,pogodba,_,_,_,_,_,162,NOUN,Ncfpg,nmod
163,896-898,biti,_,_,_,_,_,174,AUX,Va-r3s-n,aux
164,899-906,Claudio,PER[12],_,*->6-2,*[6],_,154,PROPN,Npfsn,nsubj
165,907-913,Jerin,PER[12],_,*->6-2,*[6],_,165,PROPN,Npfsn,flat:name
166,914-921,Mestnik,PER[12],_,*->6-2,*[6],_,166,PROPN,Npfsn,flat:name
167,922-923,",",_,_,_,_,_,169,PUNCT,Z,punct
168,924-935,direktorica,_,_,*->6-3,*[6],_,165,NOUN,Ncfsn,appos
169,936-945,knjižnica,ORG[13],_,*->6-3|*->3-4,*[6]|*[3],_,169,NOUN,Ncfsg,nmod
170,946-952,Miran,ORG[13]|PER[14],_,*->6-3|*->3-4|*->4-4,*[6]|*[3]|*[4],_,170,PROPN,Npmsg,nmod
171,953-958,Jarco,ORG[13]|PER[14],_,*->6-3|*->3-4|*->4-4,*[6]|*[3]|*[4],_,171,PROPN,Npmsg,flat:name
172,959-960,",",_,_,_,_,_,169,PUNCT,Z,punct
173,961-967,dejati,_,_,_,_,_,165,VERB,Vmep-sf,acl
174,968-969,",",_,_,_,_,_,177,PUNCT,Z,punct
175,970-972,da,_,_,_,_,_,177,SCONJ,Cs,mark
176,973-976,imeti,_,_,_,_,_,174,VERB,Vmpr3s-n,ccomp
177,977-987,zagotovilo,_,_,_,_,_,177,NOUN,Ncnsa,obj
178,988-995,Stojan,PER[15],_,*->9-1,*[9],_,178,PROPN,Npmsay,nmod
179,996-1001,Pelka,PER[15],_,*->9-1,*[9],_,179,PROPN,Npmsg,flat:name
180,1002-1003,",",_,_,_,_,_,183,PUNCT,Z,punct
181,1004-1013,državen,_,_,*->9-2,*[9],_,183,ADJ,Agpmsg,amod
182,1014-1024,sekretar,_,_,*->9-2,*[9],_,179,NOUN,Ncmsg,appos
183,1025-1027,na,_,_,*->9-2,*[9],_,185,ADP,Sl,case
184,1028-1039,ministrstvo,ORG[16],_,*->9-2|*->10-1,*[9]|*[10],_,183,NOUN,Ncnsl,nmod
185,1040-1042,za,ORG[16],_,*->9-2|*->10-1,*[9]|*[10],_,187,ADP,Sa,case
186,1043-1050,kultura,ORG[16],_,*->9-2|*->10-1,*[9]|*[10],_,185,NOUN,Ncfsa,nmod
187,1051-1052,",",_,_,_,_,_,192,PUNCT,Z,punct
188,1053-1055,da,_,_,_,_,_,192,SCONJ,Cs,mark
189,1056-1061,biti,_,_,_,_,_,192,AUX,Va-f3d-n,aux
190,1062-1069,pogodba,_,_,_,_,_,192,NOUN,Ncfsa,obj
191,1070-1079,podpisati,_,_,_,_,_,183,VERB,Vmep-dm,acl
192,1080-1084,tudi,_,_,_,_,_,192,PART,Q,advmod
193,1085-1091,župan,_,_,_,_,_,192,NOUN,Ncmdn,nsubj
194,1092-1097,občina,_,_,_,_,_,194,NOUN,Ncfpg,nmod
195,1098-1108,Šentjernej,LOC,_,*->7-3,*[7],_,195,PROPN,Npmsn,nmod
196,1109-1111,in,_,_,_,_,_,198,CCONJ,Cc,cc
197,1112-1121,Žužemberk,LOC,_,*->8-3,*[8],_,196,PROPN,Npmsn,conj
198,1122-1123,.,_,_,_,_,_,177,PUNCT,Z,punct
199,1124-1125,“,_,_,_,_,_,202,PUNCT,Z,punct
200,1126-1135,državen,_,_,*->9-3,*[9],_,202,ADJ,Agpmsd,amod
201,1136-1146,sekretar,_,_,*->9-3,*[9],_,194,NOUN,Ncmsd,conj
202,1147-1152,Pelko,PER,_,*->9-3,*[9],_,202,PROPN,Npmsd,nmod
203,1153-1154,",",_,_,_,_,_,210,PUNCT,Z,punct
204,1155-1157,ki,_,_,_,_,_,210,SCONJ,Cs,mark
205,1158-1160,jaz,_,_,*->1-4,*[1],_,210,PRON,Pp1-sa--y,obj
206,1161-1163,biti,_,_,_,_,_,210,AUX,Va-r3s-n,aux
207,1164-1165,v,_,_,_,_,_,209,ADP,Sa,case
208,1166-1171,petek,_,_,_,_,_,210,NOUN,Ncmsan,obl
209,1172-1180,poklicati,_,_,_,_,_,194,VERB,Vmep-sm,acl
210,1181-1182,",",_,_,_,_,_,210,PUNCT,Z,punct
211,1183-1186,biti,_,_,*->1-5,*[1],_,213,AUX,Va-r1s-n,aux
212,1187-1194,povedati,_,_,*->1-5,*[1],_,174,VERB,Vmep-sm,root
213,1195-1196,",",_,_,_,_,_,218,PUNCT,Z,punct
214,1197-1199,da,_,_,_,_,_,218,SCONJ,Cs,mark
215,1200-1205,sicer,_,_,_,_,_,218,PART,Q,advmod
216,1206-1208,ne,_,_,_,_,_,218,PART,Q,advmod
217,1209-1215,bežiti,_,_,_,_,_,213,VERB,Vmpr1p,ccomp
218,1216-1218,od,_,_,_,_,_,220,ADP,Sg,case
219,1219-1229,obveznost,_,_,_,_,_,218,NOUN,Ncfsg,obl
220,1230-1231,",",_,_,_,_,_,225,PUNCT,Z,punct
221,1232-1234,da,_,_,_,_,_,225,SCONJ,Cs,mark
222,1235-1237,pa,_,_,_,_,_,225,CCONJ,Cc,advmod
223,1238-1240,se,_,_,_,_,_,226,PRON,Px------y,expl
224,1241-1247,želeti,_,_,_,_,_,220,VERB,Vmpr1p,acl
225,1248-1255,sestati,_,_,_,_,_,225,VERB,Vmen,xcomp
226,1256-1257,z,_,_,_,_,_,228,ADP,Si,case
227,1258-1266,vodstvo,_,_,_,_,_,226,NOUN,Ncnsi,obl
228,1267-1278,ministrstvo,_,_,*->10-2,*[10],_,228,NOUN,Ncnsg,nmod
229,1279-1281,in,_,_,_,_,_,232,CCONJ,Cc,cc
230,1282-1285,on,_,_,_,_,_,232,PRON,Pp3mpd--y,obj
231,1286-1294,dokazati,_,_,_,_,_,226,VERB,Vmen,conj
232,1295-1296,",",_,_,_,_,_,241,PUNCT,Z,punct
233,1297-1299,da,_,_,_,_,_,241,SCONJ,Cs,mark
234,1300-1302,biti,_,_,_,_,_,241,AUX,Va-r3s-n,cop
235,1303-1313,zakonodaja,_,_,_,_,_,241,NOUN,Ncfsn,nsubj
236,1314-1316,na,_,_,_,_,_,239,ADP,Sl,case
237,1317-1320,ta,_,_,_,_,_,239,DET,Pd-nsl,det
238,1321-1329,področje,_,_,_,_,_,241,NOUN,Ncnsl,obl
239,1330-1339,popolnoma,_,_,_,_,_,241,ADV,Rgp,advmod
240,1340-1353,neživljenjski,_,_,_,_,_,232,ADJ,Agpfsn,ccomp
241,1354-1355,",",_,_,_,_,_,241,PUNCT,Z,punct
242,1356-1357,”,_,_,_,_,_,241,PUNCT,Z,punct
243,1358-1360,biti,_,_,_,_,_,272,AUX,Va-r3s-n,aux
244,1361-1368,povedati,_,_,_,_,_,7,VERB,Vmep-sm,parataxis
245,1369-1374,Franc,PER[17],_,*->1-6,*[1],_,245,PROPN,Npmsn,nsubj
246,1375-1383,Hudoklin,PER[17],_,*->1-6,*[1],_,246,PROPN,Npmsn,flat:name
247,1384-1385,",",_,_,_,_,_,249,PUNCT,Z,punct
248,1386-1391,župan,_,_,*->1-7,*[1],_,246,NOUN,Ncmsn,appos
249,1392-1398,občina,LOC[18],_,*->1-7|*->7-4,*[1]|*[7],_,249,NOUN,Ncfsg,nmod
250,1399-1409,Šentjernej,LOC[18],_,*->1-7|*->7-4,*[1]|*[7],_,250,PROPN,Npmsn,nmod
251,1410-1411,.,_,_,_,_,_,7,PUNCT,Z,punct
252,1412-1418,očitek,_,_,_,_,_,246,NOUN,Ncmpa,conj
253,1419-1420,",",_,_,_,_,_,262,PUNCT,Z,punct
254,1421-1423,da,_,_,_,_,_,262,SCONJ,Cs,mark
255,1424-1426,biti,_,_,_,_,_,262,AUX,Va-r3s-n,aux
256,1427-1428,v,_,_,_,_,_,258,ADP,Sl,case
257,1429-1438,knjižnica,ORG[19],0,*->3-5,*[3],3 - Nevtralno[27],262,NOUN,Ncfsl,obl
258,1439-1445,Miran,ORG[19]|PER[20],0,*->3-5|*->4-5,*[3]|*[4],3 - Nevtralno[27]|3 - Nevtralno[28],258,PROPN,Npmsg,nmod
259,1446-1451,Jarco,ORG[19]|PER[20],0,*->3-5|*->4-5,*[3]|*[4],3 - Nevtralno[27]|3 - Nevtralno[28],259,PROPN,Npmsg,flat:name
260,1452-1458,preveč,_,_,_,_,_,262,DET,Rgp,advmod
261,1459-1469,zaposlen,_,_,_,_,_,253,ADJ,Appmpg,acl
262,1470-1472,in,_,_,_,_,_,265,CCONJ,Cc,cc
263,1473-1475,da,_,_,_,_,_,265,SCONJ,Cs,mark
264,1476-1481,imeti,_,_,_,_,_,262,VERB,Vmpr3p-n,conj
265,1482-1491,previsok,_,_,_,_,_,267,ADJ,Agpfpa,amod
266,1492-1497,plača,_,_,_,_,_,265,NOUN,Ncfpa,obj
267,1498-1499,",",_,_,_,_,_,262,PUNCT,Z,punct
268,1500-1502,biti,_,_,_,_,_,272,AUX,Va-r3s-n,aux
269,1503-1509,Jerin,PER[21],_,*->6-4,*[6],_,272,PROPN,Npfsn,nsubj
270,1510-1520,Mestnikov,PER[21],_,*->6-4,*[6],_,270,ADJ,Aspfsn,amod
271,1521-1528,slišati,_,_,_,_,_,262,VERB,Vmbp-sf,conj
272,1529-1531,že,_,_,_,_,_,272,PART,Q,advmod
273,1532-1534,na,_,_,_,_,_,276,ADP,Sl,case
274,1535-1544,občinski,_,_,_,_,_,276,ADJ,Agpfpl,amod
275,1545-1550,seja,_,_,_,_,_,272,NOUN,Ncfpl,obl
276,1551-1552,",",_,_,_,_,_,284,PUNCT,Z,punct
277,1553-1555,ko,_,_,_,_,_,284,SCONJ,Cs,mark
278,1556-1558,biti,_,_,_,_,_,284,AUX,Va-r3s-n,aux
279,1559-1561,po,_,_,_,_,_,283,ADP,Sl,case
280,1562-1567,osem,_,_,_,_,_,283,NUM,Mlc-pl,nummod
281,1568-1578,dolenjski,_,_,_,_,_,283,ADJ,Agpfpl,amod
282,1579-1586,občina,_,_,_,_,_,284,NOUN,Ncfpl,obl
283,1587-1600,predstavljati,_,_,_,_,_,276,VERB,Vmpp-sf,acl
284,1601-1615,sofinanciranje,_,_,_,_,_,284,NOUN,Ncnsa,obj
285,1616-1617,v,_,_,_,_,_,287,ADP,Sa,case
286,1618-1627,prihodnji,_,_,_,_,_,285,ADJ,Agpnsa,amod
287,1628-1629,.,_,_,_,_,_,272,PUNCT,Z,punct
288,1630-1631,“,_,_,_,_,_,284,PUNCT,Z,punct
289,1632-1641,dodaten,_,_,_,_,_,291,ADJ,Agpnsg,amod
290,1642-1654,zaposlovanje,_,_,_,_,_,297,NOUN,Ncnsg,nsubj
291,1655-1658,pri,_,_,_,_,_,293,ADP,Sl,case
292,1659-1662,jaz,_,_,_,_,_,291,PRON,Pp1-pl,nmod
293,1663-1665,že,_,_,_,_,_,297,PART,Q,advmod
294,1666-1671,nekaj,_,_,_,_,_,296,DET,Rgp,det
295,1672-1675,leto,_,_,_,_,_,297,NOUN,Ncnpg,obl
296,1676-1678,biti,_,_,_,_,_,272,VERB,Va-r3s-y,conj
297,1679-1680,",",_,_,_,_,_,297,PUNCT,Z,punct
298,1681-1686,glede,_,_,_,_,_,301,ADV,Rgp,advmod
299,1687-1689,na,_,_,_,_,_,301,ADP,Sa,case
300,1690-1699,normativa,_,_,_,_,_,306,NOUN,Ncmpa,obl
301,1700-1702,pa,_,_,_,_,_,306,CCONJ,Cc,advmod
302,1703-1705,biti,_,_,_,_,_,306,AUX,Va-c,aux
303,1706-1711,lahko,_,_,_,_,_,306,ADV,Rgp,advmod
304,1712-1716,celo,_,_,_,_,_,306,PART,Q,advmod
305,1717-1722,reči,_,_,_,_,_,297,VERB,Vmep-pm,csubj
306,1723-1724,",",_,_,_,_,_,309,PUNCT,Z,punct
307,1725-1727,da,_,_,_,_,_,309,SCONJ,Cs,mark
308,1728-1733,imeti,_,_,_,_,_,306,VERB,Vmpr1p-n,ccomp
309,1734-1744,zaposlen,_,_,_,_,_,311,ADJ,Appmpg,amod
310,1745-1752,premalo,_,_,_,_,_,309,ADV,Rgp,advmod
311,1753-1754,",",_,_,_,_,_,309,PUNCT,Z,punct
312,1755-1756,”,_,_,_,_,_,314,PUNCT,Z,punct
313,1757-1766,odgovarjati,_,_,*->6-5,*[6],_,306,VERB,Vmpr3s,parataxis
314,1767-1768,.,_,_,_,_,_,314,PUNCT,Z,punct
315,1769-1770,“,_,_,_,_,_,306,PUNCT,Z,punct
316,1771-1773,ta,_,_,_,_,_,314,DET,Pd-nsn,nsubj
317,1774-1775,",",_,_,_,_,_,320,PUNCT,Z,punct
318,1776-1778,da,_,_,_,_,_,320,SCONJ,Cs,mark
319,1779-1784,imeti,_,_,_,_,_,317,VERB,Vmpr3p-n,acl
320,1785-1791,preveč,_,_,_,_,_,322,DET,Rgp,advmod
321,1792-1802,zaposlen,_,_,_,_,_,320,ADJ,Appmpg,obj
322,1803-1804,",",_,_,_,_,_,320,PUNCT,Z,punct
323,1805-1807,in,_,_,_,_,_,325,CCONJ,Cc,cc
324,1808-1810,ta,_,_,_,_,_,320,DET,Pd-nsn,nsubj
325,1811-1812,v,_,_,_,_,_,329,ADP,Sl,case
326,1813-1820,visok,_,_,_,_,_,329,ADJ,Agpmpl,amod
327,1821-1830,plačilen,_,_,_,_,_,329,ADJ,Agpmpl,amod
328,1831-1839,razred,_,_,_,_,_,325,NOUN,Ncmpl,nmod
329,1840-1841,",",_,_,_,_,_,320,PUNCT,Z,punct
330,1842-1847,sicer,_,_,_,_,_,333,PART,Q,advmod
331,1848-1850,biti,_,_,_,_,_,333,AUX,Va-r3s-y,cop
332,1851-1857,krivd,_,_,_,_,_,314,NOUN,Ncfsn,conj
333,1858-1869,direktorica,_,0,*->6-6,*[6],3 - Nevtralno,333,NOUN,Ncfsg,nmod
334,1870-1871,",",_,_,_,_,_,337,PUNCT,Z,punct
335,1872-1877,ampak,_,_,_,_,_,337,CCONJ,Cc,cc
336,1878-1889,ministrstvo,ORG[22],2,*->10-3,*[10],2 - Negativno[29],334,NOUN,Ncnsg,conj
337,1890-1892,za,ORG[22],2,*->10-3,*[10],2 - Negativno[29],339,ADP,Sa,case
338,1893-1900,kultura,ORG[22],2,*->10-3,*[10],2 - Negativno[29],337,NOUN,Ncfsa,nmod
339,1901-1902,",",_,_,_,_,_,344,PUNCT,Z,punct
340,1903-1905,ki,_,_,_,_,_,344,SCONJ,Cs,mark
341,1906-1908,biti,_,_,_,_,_,344,AUX,Va-r3s-n,aux
342,1909-1911,ta,_,_,_,_,_,344,DET,Pd-nsa,obj
343,1912-1921,omogočiti,_,_,_,_,_,339,VERB,Vmep-sn,acl
344,1922-1923,",",_,_,_,_,_,344,PUNCT,Z,punct
345,1924-1925,”,_,_,_,_,_,347,PUNCT,Z,punct
346,1926-1930,meniti,_,_,_,_,_,337,VERB,Vmpr3s,acl
347,1931-1939,Hudoklin,PER,_,*->1-8,*[1],_,347,PROPN,Npmsn,nsubj
348,1940-1941,.,_,_,_,_,_,347,PUNCT,Z,punct
349,1942-1943,“,_,_,_,_,_,354,PUNCT,Z,punct
350,1944-1946,za,_,_,_,_,_,352,ADP,Sa,case
351,1947-1952,plača,_,_,_,_,_,354,NOUN,Ncfpa,obl
352,1953-1963,zaposlen,_,_,_,_,_,352,ADJ,Appmpg,amod
353,1964-1973,namenjati,_,_,_,_,_,347,VERB,Vmpr3p,advcl
354,1974-1980,preveč,_,_,_,_,_,356,DET,Rgp,det
355,1981-1988,denar,_,_,_,_,_,354,NOUN,Ncmsg,obj
356,1989-1990,",",_,_,_,_,_,365,PUNCT,Z,punct
357,1991-1995,samo,_,_,_,_,_,365,PART,Q,advmod
358,1996-2001,letos,_,_,_,_,_,365,ADV,Rgp,advmod
359,2002-2004,se,_,_,_,_,_,365,PRON,Px------y,expl
360,2005-2007,biti,_,_,_,_,_,365,AUX,Va-r3s-n,aux
361,2008-2010,ta,_,_,_,_,_,363,DET,Pd-msa,det
362,2011-2016,delež,_,_,_,_,_,365,NOUN,Ncmsnn,nsubj
363,2017-2025,strošek,_,_,_,_,_,363,NOUN,Ncmpg,nmod
364,2026-2033,povečati,_,_,_,_,_,354,VERB,Vmep-sm,conj
365,2034-2036,za,_,_,_,_,_,368,ADP,Sa,case
366,2037-2040,sto,_,_,_,_,_,368,NUM,Mlc-pa,nummod
367,2041-2050,odstotek,_,_,_,_,_,365,NOUN,Ncmpg,obl
368,2051-2052,",",_,_,_,_,_,365,PUNCT,Z,punct
369,2053-2054,”,_,_,_,_,_,371,PUNCT,Z,punct
370,2055-2065,pristavljati,_,_,_,_,_,365,VERB,Vmpr3s,conj
371,2066-2072,Škufca,PER,0,*->2-3,*[2],3 - Nevtralno,371,PROPN,Npfsn,nsubj
372,2073-2074,.,_,_,_,_,_,365,PUNCT,Z,punct
373,2075-2079,tudi,_,_,_,_,_,371,PART,Q,advmod
374,2080-2088,krajeven,_,_,_,_,_,376,ADJ,Agpfsd,amod
375,2089-2098,knjižnica,_,_,_,_,_,371,NOUN,Ncfsd,obj
376,2099-2103,tako,_,_,_,_,_,379,CCONJ,Cc,cc:preconj
377,2104-2105,v,_,_,_,_,_,379,ADP,Sl,case
378,2106-2117,Šentjernej,LOC,_,*->7-5,*[7],_,376,PROPN,Npmsl,nmod
379,2118-2121,kot,_,_,_,_,_,382,SCONJ,Cs,cc
380,2122-2124,na,_,_,_,_,_,382,ADP,Sl,case
381,2125-2130,Dvor,LOC,0,*->11-1,*[11],3 - Nevtralno,379,PROPN,Npmsl,conj
382,2131-2132,(,_,_,_,_,_,385,PUNCT,Z,punct
383,2133-2134,v,_,_,_,_,_,385,ADP,Sl,case
384,2135-2141,občina,LOC[23],_,*->8-4,*[8],_,382,NOUN,Ncfsl,appos
385,2142-2151,Žužemberk,LOC[23],_,*->8-4,*[8],_,385,PROPN,Npmsn,nmod
386,2152-2153,),_,_,_,_,_,385,PUNCT,Z,punct
387,2154-2159,imeti,_,_,_,_,_,382,VERB,Vmpr3p-n,acl
388,2160-2168,krajeven,_,_,_,_,_,390,ADJ,Agpfsd,amod
389,2169-2178,knjižnica,_,_,_,_,_,388,NOUN,Ncfsd,obj
390,2179-2180,",",_,_,_,_,_,395,PUNCT,Z,punct
391,2181-2183,ki,_,_,_,_,_,395,SCONJ,Cs,mark
392,2184-2186,še,_,_,_,_,_,395,PART,Q,advmod
393,2187-2194,dodatno,_,_,_,_,_,395,ADV,Rgp,advmod
394,2195-2204,bremeniti,_,_,_,_,_,390,VERB,Vmpr3d,acl
395,2205-2213,občinski,_,_,_,_,_,397,ADJ,Agpmsay,amod
396,2214-2222,proračun,_,_,_,_,_,395,NOUN,Ncmsan,obj
397,2223-2224,.,_,_,_,_,_,388,PUNCT,Z,punct
398,2225-2226,“,_,_,_,_,_,400,PUNCT,Z,punct
399,2227-2232,letos,_,_,_,_,_,412,ADV,Rgp,advmod
400,2233-2236,biti,_,_,_,_,_,412,AUX,Va-r1p-n,aux
401,2237-2238,v,_,_,_,_,_,405,ADP,Sa,case
402,2239-2243,nov,_,_,_,_,_,405,ADJ,Agpfsa,amod
403,2244-2252,krajeven,_,_,_,_,_,405,ADJ,Agpfsa,amod
404,2253-2262,knjižnica,_,_,_,_,_,412,NOUN,Ncfsa,obl
405,2263-2264,v,_,_,_,_,_,408,ADP,Sl,case
406,2265-2274,kulturen,ORG[24],0,*->12-1,*[12],3 - Nevtralno[30],408,ADJ,Agpmsl,amod
407,2275-2281,center,ORG[24],0,*->12-1,*[12],3 - Nevtralno[30],405,NOUN,Ncmsl,nmod
408,2282-2289,Primož,ORG[24]|PER[25],0,*->12-1|*->13-1,*[12]|*[13],3 - Nevtralno[30]|3 - Nevtralno[31],408,PROPN,Npmsg,nmod
409,2290-2298,Trubar,ORG[24]|PER[25],0,*->12-1|*->13-1,*[12]|*[13],3 - Nevtralno[30]|3 - Nevtralno[31],409,PROPN,Npmsg,flat:name
410,2299-2305,veliko,_,_,_,_,_,412,DET,Rgp,advmod
411,2306-2313,vložiti,_,_,_,_,_,388,VERB,Vmep-pm,conj
412,2314-2315,",",_,_,_,_,_,412,PUNCT,Z,punct
413,2316-2320,tako,_,_,_,_,_,416,CCONJ,Cc,cc:preconj
414,2321-2322,v,_,_,_,_,_,416,ADP,Sa,case
415,2323-2330,gradnja,_,_,_,_,_,424,NOUN,Ncfsa,obl
416,2331-2334,kot,_,_,_,_,_,418,SCONJ,Cs,cc
417,2335-2341,oprema,_,_,_,_,_,416,NOUN,Ncfsa,conj
418,2342-2344,in,_,_,_,_,_,420,CCONJ,Cc,cc
419,2345-2350,nakup,_,_,_,_,_,416,NOUN,Ncmsan,conj
420,2351-2363,knjižničen,_,_,_,_,_,422,ADJ,Agpnsg,amod
421,2364-2371,gradivo,_,_,_,_,_,420,NOUN,Ncnsg,nmod
422,2372-2373,.,_,_,_,_,_,412,PUNCT,Z,punct
423,2374-2383,plačevati,_,_,_,_,_,412,VERB,Vmpr1p,conj
424,2384-2388,tudi,_,_,_,_,_,424,PART,Q,advmod
425,2389-2394,redno,_,_,_,_,_,427,ADV,Rgp,advmod
426,2395-2406,zaposlen,_,_,_,_,_,430,ADJ,Appmsa,amod
427,2407-2409,in,_,_,_,_,_,429,CCONJ,Cc,cc
428,2410-2420,materialen,_,_,_,_,_,427,ADJ,Agpmpa,conj
429,2421-2428,strošek,_,_,_,_,_,424,NOUN,Ncmpa,obj
430,2429-2430,",",_,_,_,_,_,434,PUNCT,Z,punct
431,2431-2434,kar,_,_,_,_,_,434,PRON,Pr-nsa,obj
432,2435-2438,jaz,_,_,_,_,_,434,PRON,Pp1-pa,obj
433,2439-2444,stati,_,_,_,_,_,430,VERB,Vmpr3s,acl
434,2445-2447,od,_,_,_,_,_,436,ADP,Sg,case
435,2448-2450,25,_,_,_,_,_,440,NUM,Mdc,nummod
436,2451-2453,do,_,_,_,_,_,438,ADP,Sg,case
437,2454-2456,30,_,_,_,_,_,436,NUM,Mdc,conj
438,2457-2462,tisoč,_,_,_,_,_,438,NUM,Mlc-pa,flat
439,2463-2468,evro,_,_,_,_,_,434,NOUN,Ncmpg,obl
440,2469-2471,na,_,_,_,_,_,442,ADP,Sa,case
441,2472-2476,leto,_,_,_,_,_,440,NOUN,Ncnsa,nmod
442,2477-2478,",",_,_,_,_,_,434,PUNCT,Z,punct
443,2479-2483,zato,_,_,_,_,_,445,CCONJ,Cc,cc
444,2484-2490,želeti,_,_,_,_,_,434,VERB,Vmpr1p,conj
445,2491-2492,",",_,_,_,_,_,451,PUNCT,Z,punct
446,2493-2495,da,_,_,_,_,_,451,SCONJ,Cs,mark
447,2496-2498,biti,_,_,_,_,_,451,AUX,Va-r3s-n,cop
448,2499-2501,ta,_,_,_,_,_,450,DET,Pd-msn,det
449,2502-2508,znesek,_,_,_,_,_,451,NOUN,Ncmsn,nsubj
450,2509-2514,vštet,_,_,_,_,_,445,ADJ,Agpmsnn,ccomp
451,2515-2516,v,_,_,_,_,_,453,ADP,Sa,case
452,2517-2521,cena,_,_,_,_,_,451,NOUN,Ncfsa,obl
453,2522-2523,",",_,_,_,_,_,459,PUNCT,Z,punct
454,2524-2526,ki,_,_,_,_,_,459,SCONJ,Cs,mark
455,2527-2530,naj,_,_,_,_,_,459,PART,Q,advmod
456,2531-2533,biti,_,_,_,_,_,459,AUX,Va-c,aux
457,2534-2536,on,_,_,_,_,_,459,PRON,Pp3fsa--y,obj
458,2537-2546,plačevati,_,_,_,_,_,453,VERB,Vmpp-pm,acl
459,2547-2554,matičen,_,_,_,_,_,461,ADJ,Agpfsd,amod
460,2555-2564,knjižnica,_,_,_,_,_,459,NOUN,Ncfsd,obj
461,2565-2566,",",_,_,_,_,_,459,PUNCT,Z,punct
462,2567-2568,”,_,_,_,_,_,464,PUNCT,Z,punct
463,2569-2574,praviti,_,_,_,_,_,7,VERB,Vmbr3s,parataxis
464,2575-2583,Hudoklin,PER,0,*->1-9,*[1],3 - Nevtralno,464,PROPN,Npmsn,nsubj
465,2584-2585,.,_,_,_,_,_,434,PUNCT,Z,punct
466,2586-2587,v,_,_,_,_,_,468,ADP,Sl,case
467,2588-2598,Žužemberk,LOC,0,*->8-5,*[8],3 - Nevtralno,472,PROPN,Npmsl,obl
468,2599-2601,biti,_,_,_,_,_,472,AUX,Va-c,aux
469,2602-2607,sicer,_,_,_,_,_,472,PART,Q,advmod
470,2608-2615,pogodba,_,_,_,_,_,472,NOUN,Ncfsa,obj
471,2616-2625,podpisati,_,_,_,_,_,464,VERB,Vmep-pm,conj
472,2626-2627,",",_,_,_,_,_,477,PUNCT,Z,punct
473,2628-2630,če,_,_,_,_,_,477,SCONJ,Cs,mark
474,2631-2633,biti,_,_,_,_,_,477,AUX,Va-c,aux
475,2634-2638,biti,_,_,_,_,_,477,AUX,Va-p-sf,cop
476,2639-2651,pripravljen,_,_,_,_,_,472,ADJ,Appfsn,advcl
477,2652-2656,tako,_,_,_,_,_,484,ADV,Rgp,mark
478,2657-2658,",",_,_,_,_,_,478,PUNCT,Z,punct
479,2659-2661,da,_,_,_,_,_,478,SCONJ,Cs,fixed
480,2662-2664,biti,_,_,_,_,_,484,AUX,Va-c,aux
481,2665-2667,se,_,_,_,_,_,484,PRON,Px------y,expl
482,2668-2674,znesek,_,_,_,_,_,484,NOUN,Ncmsn,nsubj
483,2675-2684,povečevati,_,_,_,_,_,477,VERB,Vmpp-sm,advcl
484,2685-2687,iz,_,_,_,_,_,486,ADP,Sg,case
485,2688-2692,leto,_,_,_,_,_,484,NOUN,Ncnsg,obl
486,2693-2694,v,_,_,_,_,_,488,ADP,Sa,case
487,2695-2699,leto,_,_,_,_,_,484,NOUN,Ncnsa,obl
488,2700-2701,",",_,_,_,_,_,484,PUNCT,Z,punct
489,2702-2703,v,_,_,_,_,_,491,ADP,Sl,case
490,2704-2715,Šentjernej,LOC,0,*->7-6,*[7],3 - Nevtralno,496,PROPN,Npmsl,obl
491,2716-2718,pa,_,_,_,_,_,493,CCONJ,Cc,advmod
492,2719-2725,želeti,_,_,_,_,_,472,VERB,Vmpr3p,conj
493,2726-2733,matičen,_,_,_,_,_,495,ADJ,Agpfsa,amod
494,2734-2743,knjižnica,_,_,_,_,_,496,NOUN,Ncfsa,obj
495,2744-2753,plačevati,_,_,_,_,_,493,VERB,Vmpn,xcomp
496,2754-2756,po,_,_,_,_,_,499,ADP,Sl,case
497,2757-2766,dejanski,_,_,_,_,_,499,ADJ,Agpmpl,amod
498,2767-2775,strošek,_,_,_,_,_,496,NOUN,Ncmpl,obl
499,2776-2777,",",_,_,_,_,_,502,PUNCT,Z,punct
500,2778-2780,ki,_,_,_,_,_,502,SCONJ,Cs,mark
501,2781-2790,nastajati,_,_,_,_,_,499,VERB,Vmpr3p,acl
502,2791-2792,z,_,_,_,_,_,504,ADP,Si,case
503,2793-2800,obisk,_,_,_,_,_,502,NOUN,Ncmsi,obl
504,2801-2815,šentjernejski,_,_,_,_,_,506,ADJ,Agpmpg,amod
505,2816-2823,občan,_,_,_,_,_,504,NOUN,Ncmpg,nmod
506,2824-2826,in,_,_,_,_,_,510,CCONJ,Cc,cc
507,2827-2829,ne,_,_,_,_,_,510,PART,Q,advmod
508,2830-2832,po,_,_,_,_,_,510,ADP,Sl,case
509,2833-2840,število,_,_,_,_,_,504,NOUN,Ncnsl,conj
510,2841-2852,prebivalec,_,_,_,_,_,510,NOUN,Ncmpg,nmod
