idx,chars_idx,token,entity_type,sentiment,idk_1,idk_2,orig_sentiment,heads,upos,xpos,deprel
0,0-6,občina,_,_,*->1-1,*[1],_,2,NOUN,Ncfsn,nsubj
1,7-14,prodajati,_,_,_,_,_,0,VERB,Vmpr3s,root
2,15-16,.,_,_,_,_,_,2,PUNCT,Z,punct
3,17-23,nekdaj,_,_,_,_,_,5,ADV,Rgp,advmod
4,24-36,priljubljen,_,_,_,_,_,8,ADJ,Agpmpn,amod
5,37-45,delavski,_,_,_,_,_,8,ADJ,Agpmpn,amod
6,46-54,palomin,ORG,0,*->2-1,*[2],3 - Nevtralno,8,ADJ,Agpmpn,amod
7,55-61,bazen,_,_,_,_,_,2,NOUN,Ncmpn,nsubj
8,62-64,za,_,_,_,_,_,12,ADP,Sa,case
9,65-68,100,_,_,_,_,_,12,NUM,Mdc,nummod
10,69-74,tisoč,_,_,_,_,_,12,NUM,Mlc-pa,nummod
11,75-80,evro,_,_,_,_,_,8,NOUN,Ncmpg,nmod
12,81-82,.,_,_,_,_,_,16,PUNCT,Z,punct
13,83-92,zanimanje,_,_,_,_,_,16,NOUN,Ncnsg,obj
14,93-95,biti,_,_,_,_,_,16,AUX,Va-r3s-y,aux
15,96-103,pokazati,_,_,_,_,_,2,VERB,Vmep-sm,parataxis
16,104-106,še,_,_,_,_,_,16,PART,Q,advmod
17,107-112,nihče,_,_,_,_,_,16,PRON,Pz-msn,nsubj
18,113-114,.,_,_,_,_,_,16,PUNCT,Z,punct
19,115-122,Šentilj,LOC,_,*->1-2,*[1],_,16,PROPN,Npmsn,parataxis
20,123-124,.,_,_,_,_,_,16,PUNCT,Z,punct
21,125-126,“,_,_,_,_,_,24,PUNCT,Z,punct
22,127-133,človek,_,_,_,_,_,24,NOUN,Ncmsn,nsubj
23,134-138,morati,_,_,_,_,_,2,VERB,Vmpr3s,parataxis
24,139-149,neprestano,_,_,_,_,_,26,ADV,Rgp,advmod
25,150-156,živeti,_,_,_,_,_,24,VERB,Vmpn,xcomp
26,157-158,v,_,_,_,_,_,28,ADP,Sl,case
27,159-165,upanje,_,_,_,_,_,26,NOUN,Ncnsl,obl
28,166-167,",",_,_,_,_,_,35,PUNCT,Z,punct
29,168-170,da,_,_,_,_,_,35,SCONJ,Cs,mark
30,171-174,jaz,_,_,_,_,_,35,PRON,Pp1-pd,obj
31,175-177,biti,_,_,_,_,_,35,AUX,Va-f3s-n,aux
32,178-181,pri,_,_,_,_,_,34,ADP,Sl,case
33,182-189,prodaja,_,_,_,_,_,35,NOUN,Ncfsl,obl
34,190-196,uspeti,_,_,_,_,_,28,VERB,Vmep-sn,acl
35,197-198,",",_,_,_,_,_,35,PUNCT,Z,punct
36,199-200,”,_,_,_,_,_,35,PUNCT,Z,punct
37,201-203,še,_,_,_,_,_,46,PART,Q,advmod
38,204-207,en,_,_,_,_,_,40,NUM,Mlpfsa,nummod
39,208-215,prodaja,_,_,_,_,_,46,NOUN,Ncfsa,obj
40,216-226,občinski,_,_,_,_,_,43,ADJ,Agpnsg,amod
41,227-234,leten,_,_,_,_,_,43,ADJ,Agpnsg,amod
42,235-244,kopališče,_,_,_,_,_,40,NOUN,Ncnsg,nmod
43,245-251,sladek,LOC[1],0,*->3-1,*[3],3 - Nevtralno[12],45,ADJ,Agpmsay,amod
44,252-255,vrh,LOC[1],0,*->3-1,*[3],3 - Nevtralno[12],46,NOUN,Ncmsan,obj
45,256-266,pojasnjevati,_,_,_,_,_,2,VERB,Vmpr3s,parataxis
46,267-273,Edvard,PER[2],_,*->4-1,*[4],_,46,PROPN,Npmsn,nsubj
47,274-280,Čagran,PER[2],_,*->4-1,*[4],_,47,PROPN,Npmsn,flat:name
48,281-282,",",_,_,_,_,_,50,PUNCT,Z,punct
49,283-288,župan,_,_,*->4-2,*[4],_,47,NOUN,Ncmsn,appos
50,289-295,občina,LOC[3],_,*->4-2|*->1-3,*[4]|*[1],_,50,NOUN,Ncfsg,nmod
51,296-303,Šentilj,LOC[3],_,*->4-2|*->1-3,*[4]|*[1],_,51,PROPN,Npmsn,nmod
52,304-305,.,_,_,_,_,_,46,PUNCT,Z,punct
53,306-314,sredstvo,_,_,_,_,_,46,NOUN,Ncnpg,nsubj
54,315-317,za,_,_,_,_,_,57,ADP,Sa,case
55,318-328,mariborski,LOC[4],_,*->6-1,*[6],_,57,ADJ,Agpmsay,amod
56,329-333,otok,LOC[4],_,*->6-1,*[6],_,54,NOUN,Ncmsan,nmod
57,334-338,tudi,_,_,_,_,_,61,PART,Q,advmod
58,339-341,iz,_,_,_,_,_,60,ADP,Sg,case
59,342-344,EU,LOC,0,*->5-1,*[5],3 - Nevtralno,61,PROPN,Npfsg,nmod
60,345-352,prenova,_,_,_,_,_,54,NOUN,Ncfsn,nmod
61,353-354,.,_,_,_,_,_,46,PUNCT,Z,punct
62,355-365,mariborski,_,_,_,_,_,65,ADJ,Agpmsny,amod
63,366-372,mesten,_,_,_,_,_,65,ADJ,Agpmsny,amod
64,373-377,svet,_,_,_,_,_,70,NOUN,Ncmsn,nsubj
65,378-380,biti,_,_,_,_,_,70,AUX,Va-r3s-n,aux
66,381-382,v,_,_,_,_,_,68,ADP,Sl,case
67,383-390,začetek,_,_,_,_,_,70,NOUN,Ncmsl,obl
68,391-400,februar,_,_,_,_,_,70,NOUN,Ncmsg,obl
69,401-408,sprejeti,_,_,_,_,_,2,VERB,Vmep-sm,parataxis
70,409-417,dokument,_,_,_,_,_,70,NOUN,Ncmsan,obj
71,418-432,identifikacija,_,_,_,_,_,71,NOUN,Ncfsg,nmod
72,433-448,investicijski,_,_,_,_,_,74,ADJ,Agpmsg,amod
73,449-457,projekt,_,_,_,_,_,72,NOUN,Ncmsg,nmod
74,458-465,prenova,_,_,_,_,_,74,NOUN,Ncfsg,nmod
75,466-478,mariborski,LOC[5],0,*->6-2,*[6],3 - Nevtralno[13],77,ADJ,Agpmsg,amod
76,479-484,otok,LOC[5],0,*->6-2,*[6],3 - Nevtralno[13],75,NOUN,Ncmsg,nmod
77,485-486,",",_,_,_,_,_,80,PUNCT,Z,punct
78,487-495,kateri,_,_,_,_,_,80,DET,Pq-msg,obj
79,496-505,zastareti,_,_,_,_,_,77,VERB,Vmep-sf,acl
80,506-508,in,_,_,_,_,_,87,CCONJ,Cc,cc
81,509-518,dotrajan,_,_,_,_,_,83,ADJ,Appfsn,amod
82,519-525,podoba,_,_,_,_,_,87,NOUN,Ncfsn,nsubj
83,526-528,biti,_,_,_,_,_,87,AUX,Va-r3s-n,aux
84,529-531,že,_,_,_,_,_,87,PART,Q,advmod
85,532-539,večkrat,_,_,_,_,_,87,ADV,Rgc,advmod
86,540-548,odmevati,_,_,_,_,_,80,VERB,Vmpp-sf,conj
87,549-550,v,_,_,_,_,_,89,ADP,Sl,case
88,551-559,javnost,_,_,_,_,_,87,NOUN,Ncfsl,obl
89,560-561,.,_,_,_,_,_,87,PUNCT,Z,punct
90,562-563,v,_,_,_,_,_,92,ADP,Sl,case
91,564-573,dokument,_,_,_,_,_,87,NOUN,Ncmsl,obl
92,574-575,",",_,_,_,_,_,97,PUNCT,Z,punct
93,576-578,ki,_,_,_,_,_,97,SCONJ,Cs,mark
94,579-581,biti,_,_,_,_,_,97,AUX,Va-r3p-n,aux
95,582-584,on,_,_,_,_,_,97,PRON,Pp3msa--y,obj
96,585-593,sprejeti,_,_,_,_,_,92,VERB,Vmep-pm,acl
97,594-602,svetnik,_,_,_,_,_,97,NOUN,Ncmpn,nsubj
98,603-604,",",_,_,_,_,_,97,PUNCT,Z,punct
99,605-607,biti,_,_,_,_,_,101,AUX,Va-r3s-n,cop
100,608-619,predviden,_,_,_,_,_,70,ADJ,Appmpg,conj
101,620-625,okoli,_,_,_,_,_,104,ADV,Rgp,advmod
102,626-631,deset,_,_,_,_,_,104,NUM,Mlc-pa,nummod
103,632-641,milijon,_,_,_,_,_,101,NOUN,Ncmpg,obl
104,642-647,evro,_,_,_,_,_,104,NOUN,Ncmpg,nmod
105,648-656,sredstvo,_,_,_,_,_,105,NOUN,Ncnpg,nmod
106,657-658,",",_,_,_,_,_,117,PUNCT,Z,punct
107,659-661,ki,_,_,_,_,_,117,SCONJ,Cs,mark
108,662-664,pa,_,_,_,_,_,117,CCONJ,Cc,advmod
109,665-668,naj,_,_,_,_,_,117,PART,Q,advmod
110,669-671,biti,_,_,_,_,_,117,AUX,Va-c,aux
111,672-675,on,_,_,_,_,_,117,PRON,Pp3mpa--y,obj
112,676-678,po,_,_,_,_,_,114,ADP,Sl,case
113,679-686,beseda,_,_,_,_,_,117,NOUN,Ncfpl,obl
114,687-696,podžupan,_,_,*->7-1,*[7],_,116,ADJ,Appmsg,amod
115,697-704,Verlič,PER,_,*->7-1,*[7],_,114,PROPN,Npmsg,nmod
116,705-715,zagotoviti,_,_,_,_,_,106,VERB,Vmep-pm,acl
117,716-720,tako,_,_,_,_,_,121,ADV,Rgp,advmod
118,721-723,iz,_,_,_,_,_,121,ADP,Sg,case
119,724-734,občinski,_,_,_,_,_,121,ADJ,Agpmsg,amod
120,735-744,proračun,_,_,_,_,_,117,NOUN,Ncmsg,obl
121,745-748,kot,_,_,_,_,_,124,SCONJ,Cs,case
122,749-750,z,_,_,_,_,_,124,ADP,Si,case
123,751-760,prijava,_,_,_,_,_,121,NOUN,Ncfpi,obl
124,761-763,na,_,_,_,_,_,127,ADP,Sa,case
125,764-772,evropski,_,_,_,_,_,127,ADJ,Agpmpa,amod
126,773-780,razpis,_,_,_,_,_,124,NOUN,Ncmpa,nmod
127,781-782,.,_,_,_,_,_,131,PUNCT,Z,punct
128,783-785,če,_,_,_,_,_,131,SCONJ,Cs,mark
129,786-788,biti,_,_,_,_,_,131,AUX,Va-f3s-n,aux
130,789-792,iti,_,_,_,_,_,117,VERB,Vmbp-sn,advcl
131,793-796,ves,_,_,_,_,_,131,DET,Pg-nsn,nsubj
132,797-799,po,_,_,_,_,_,134,ADP,Sl,case
133,800-806,načrt,_,_,_,_,_,131,NOUN,Ncmsl,obl
134,807-808,",",_,_,_,_,_,131,PUNCT,Z,punct
135,809-811,biti,_,_,_,_,_,140,AUX,Va-c,aux
136,812-814,se,_,_,_,_,_,140,PRON,Px------y,expl
137,815-820,lahko,_,_,_,_,_,140,ADV,Rgp,advmod
138,821-828,prenova,_,_,_,_,_,140,NOUN,Ncfsn,nsubj
139,829-836,pričeti,_,_,_,_,_,2,VERB,Vmep-sf,parataxis
140,837-839,že,_,_,_,_,_,140,PART,Q,advmod
141,840-844,maj,_,_,_,_,_,140,NOUN,Ncmsg,obl
142,845-849,2011,_,_,_,_,_,142,NUM,Mdc,nummod
143,850-851,",",_,_,_,_,_,145,PUNCT,Z,punct
144,852-861,dokončan,_,_,_,_,_,142,ADJ,Appfsn,acl
145,862-864,pa,_,_,_,_,_,145,CCONJ,Cc,advmod
146,865-868,naj,_,_,_,_,_,145,PART,Q,advmod
147,869-871,biti,_,_,_,_,_,171,AUX,Va-c,aux
148,872-876,biti,_,_,_,_,_,145,AUX,Va-p-sf,cop
149,877-879,do,_,_,_,_,_,151,ADP,Sg,case
150,880-884,leto,_,_,_,_,_,145,NOUN,Ncnsg,obl
151,885-889,2012,_,_,_,_,_,151,NUM,Mdc,nummod
152,890-891,",",_,_,_,_,_,164,PUNCT,Z,punct
153,892-894,ko,_,_,_,_,_,164,SCONJ,Cs,mark
154,895-897,biti,_,_,_,_,_,164,AUX,Va-f3s-n,cop
155,898-905,Maribor,LOC,_,*->8-1,*[8],_,158,PROPN,Npmsn,nsubj
156,906-914,evropski,_,_,*->8-2,*[8],_,158,ADJ,Agpfsn,amod
157,915-926,prestolnica,_,_,*->8-2,*[8],_,164,NOUN,Ncfsn,nsubj
158,927-934,kultura,_,_,*->8-2,*[8],_,158,NOUN,Ncfsg,nmod
159,935-936,.,_,_,_,_,_,145,PUNCT,Z,punct
160,937-949,interesent,_,_,_,_,_,158,NOUN,Ncmpg,nmod
161,950-952,še,_,_,_,_,_,164,PART,Q,advmod
162,953-955,biti,_,_,_,_,_,164,AUX,Va-r3s-y,cop
163,956-962,občina,LOC[6],_,*->1-4,*[1],_,171,NOUN,Ncfsn,advcl
164,963-970,Šentilj,LOC[6],_,*->1-4,*[1],_,164,PROPN,Npmsn,nmod
165,971-977,namreč,_,_,_,_,_,164,CCONJ,Cc,advmod
166,978-980,do,_,_,_,_,_,168,ADP,Sg,case
167,981-983,10,_,_,_,_,_,164,NUM,Mdc,nummod
168,984-985,.,_,_,_,_,_,164,PUNCT,Z,punct
169,986-990,maj,_,_,_,_,_,171,NOUN,Ncmsg,obl
170,991-996,zbirati,_,_,_,_,_,2,VERB,Vmpr3s,parataxis
171,997-1004,ponudba,_,_,_,_,_,171,NOUN,Ncfpa,obj
172,1005-1007,za,_,_,_,_,_,174,ADP,Sa,case
173,1008-1013,nakup,_,_,_,_,_,172,NOUN,Ncmsan,nmod
174,1014-1021,leten,_,_,_,_,_,176,ADJ,Agpnsg,amod
175,1022-1031,kopališče,_,_,_,_,_,174,NOUN,Ncnsg,nmod
176,1032-1033,v,_,_,_,_,_,179,ADP,Sl,case
177,1034-1040,skupen,_,_,_,_,_,179,ADJ,Agpfsl,amod
178,1041-1047,izmera,_,_,_,_,_,174,NOUN,Ncfsl,nmod
179,1048-1054,slab,_,_,_,_,_,183,ADJ,Agpmpg,amod
180,1055-1060,9.900,_,_,_,_,_,183,NUM,Mdc,nummod
181,1061-1071,kvadraten,_,_,_,_,_,183,ADJ,Agpmpg,amod
182,1072-1078,meter,_,_,_,_,_,179,NOUN,Ncmpg,nmod
183,1079-1080,.,_,_,_,_,_,171,PUNCT,Z,punct
184,1081-1085,zame,_,_,_,_,_,187,PRON,Pp3msa--b,obl
185,1086-1088,biti,_,_,_,_,_,187,AUX,Va-r3s-n,aux
186,1089-1098,postaviti,_,_,_,_,_,2,VERB,Vmep-sf,parataxis
187,1099-1109,izhodiščen,_,_,_,_,_,189,ADJ,Agpfsa,amod
188,1110-1114,cena,_,_,_,_,_,187,NOUN,Ncfsa,obj
189,1115-1121,98.900,_,_,_,_,_,191,NUM,Mdc,nummod
190,1122-1127,evro,_,_,_,_,_,189,NOUN,Ncmpg,nmod
191,1128-1132,brez,_,_,_,_,_,193,ADP,Sg,case
192,1133-1138,davek,_,_,_,_,_,191,NOUN,Ncmsg,nmod
193,1139-1140,.,_,_,_,_,_,187,PUNCT,Z,punct
194,1141-1142,“,_,_,_,_,_,200,PUNCT,Z,punct
195,1143-1150,tretjič,_,_,_,_,_,200,ADV,Rgp,advmod
196,1151-1154,ali,_,_,_,_,_,198,CCONJ,Cc,cc
197,1155-1162,četrtič,_,_,_,_,_,196,ADV,Rgp,conj
198,1163-1165,že,_,_,_,_,_,200,PART,Q,advmod
199,1166-1175,prodajati,_,_,_,_,_,187,VERB,Vmpr1p,advcl
200,1176-1178,ta,_,_,_,_,_,202,DET,Pd-nsa,det
201,1179-1188,kopališče,_,_,_,_,_,200,NOUN,Ncnsa,obj
202,1189-1190,.,_,_,_,_,_,200,PUNCT,Z,punct
203,1191-1193,na,_,_,_,_,_,206,ADP,Sl,case
204,1194-1205,dozdajšnji,_,_,_,_,_,206,ADJ,Agpmpl,amod
205,1206-1214,razpis,_,_,_,_,_,208,NOUN,Ncmpl,obl
206,1215-1217,biti,_,_,_,_,_,208,AUX,Va-r3s-y,aux
207,1218-1222,biti,_,_,_,_,_,2,VERB,Va-p-sn,parataxis
208,1223-1235,interesent,_,_,_,_,_,208,NOUN,Ncmpg,nsubj
209,1236-1237,",",_,_,_,_,_,208,PUNCT,Z,punct
210,1238-1242,zato,_,_,_,_,_,214,CCONJ,Cc,cc
211,1243-1246,biti,_,_,_,_,_,214,AUX,Va-r1p-n,aux
212,1247-1251,tudi,_,_,_,_,_,214,PART,Q,advmod
213,1252-1261,zniževati,_,_,_,_,_,208,VERB,Vmpp-pm,conj
214,1262-1272,izhodiščen,_,_,_,_,_,216,ADJ,Agpfsa,amod
215,1273-1277,cena,_,_,_,_,_,214,NOUN,Ncfsa,obj
216,1278-1279,.,_,_,_,_,_,208,PUNCT,Z,punct
217,1280-1284,tudi,_,_,_,_,_,222,PART,Q,advmod
218,1285-1291,tokrat,_,_,_,_,_,222,ADV,Rgp,advmod
219,1292-1294,biti,_,_,_,_,_,222,AUX,Va-r3p-n,cop
220,1295-1297,še,_,_,_,_,_,222,PART,Q,advmod
221,1298-1303,možen,_,_,_,_,_,2,ADJ,Agpnpn,parataxis
222,1304-1313,pogajanje,_,_,_,_,_,222,NOUN,Ncnpn,nsubj
223,1314-1319,glede,_,_,_,_,_,225,ADP,Sg,case
224,1320-1324,cena,_,_,_,_,_,223,NOUN,Ncfsg,nmod
225,1325-1326,.,_,_,_,_,_,222,PUNCT,Z,punct
226,1327-1331,vedeti,_,_,_,_,_,208,VERB,Vmpr1p,conj
227,1332-1333,",",_,_,_,_,_,234,PUNCT,Z,punct
228,1334-1336,da,_,_,_,_,_,234,SCONJ,Cs,mark
229,1337-1339,biti,_,_,_,_,_,234,AUX,Va-r3s-n,cop
230,1340-1342,ta,_,_,_,_,_,234,DET,Pd-fsn,nsubj
231,1343-1347,zdaj,_,_,_,_,_,234,ADV,Rgp,advmod
232,1348-1352,zelo,_,_,_,_,_,234,ADV,Rgp,advmod
233,1353-1359,ugoden,_,_,_,_,_,227,ADJ,Agpfsn,ccomp
234,1360-1361,",",_,_,_,_,_,234,PUNCT,Z,punct
235,1362-1367,ampak,_,_,_,_,_,238,CCONJ,Cc,cc
236,1368-1373,kupec,_,_,_,_,_,238,NOUN,Ncmsn,nsubj
237,1374-1378,morati,_,_,_,_,_,234,VERB,Vmpr3s,conj
238,1379-1388,izpolniti,_,_,_,_,_,238,VERB,Vmen,xcomp
239,1389-1394,pogoj,_,_,_,_,_,239,NOUN,Ncmsan,obj
240,1395-1397,in,_,_,_,_,_,242,CCONJ,Cc,cc
241,1398-1406,ohraniti,_,_,_,_,_,239,VERB,Vmen,conj
242,1407-1416,kopališče,_,_,_,_,_,242,NOUN,Ncnsa,obj
243,1417-1418,",",_,_,_,_,_,238,PUNCT,Z,punct
244,1419-1420,”,_,_,_,_,_,246,PUNCT,Z,punct
245,1421-1427,dodajati,_,_,_,_,_,222,VERB,Vmpr3s,csubj
246,1428-1434,Čagran,PER,_,*->4-3,*[4],_,246,PROPN,Npmsn,nsubj
247,1435-1436,.,_,_,_,_,_,234,PUNCT,Z,punct
248,1437-1439,na,_,_,_,_,_,251,ADP,Sa,case
249,1440-1448,letošnji,_,_,_,_,_,251,ADJ,Agpmsay,amod
250,1449-1455,razpis,_,_,_,_,_,256,NOUN,Ncmsan,obl
251,1456-1458,za,_,_,_,_,_,253,ADP,Sa,case
252,1459-1463,zdaj,_,_,_,_,_,256,ADV,Rgp,advmod
253,1464-1466,še,_,_,_,_,_,256,PART,Q,advmod
254,1467-1471,biti,_,_,_,_,_,256,AUX,Va-r3p-y,aux
255,1472-1479,prejeti,_,_,_,_,_,246,VERB,Vmep-pm,advcl
256,1480-1484,niti,_,_,_,_,_,256,PART,Q,advmod
257,1485-1488,en,_,_,_,_,_,259,NUM,Mlpfsg,nummod
258,1489-1496,ponudba,_,_,_,_,_,256,NOUN,Ncfsg,obj
259,1497-1499,in,_,_,_,_,_,261,CCONJ,Cc,cc
260,1500-1506,zanikati,_,_,_,_,_,256,VERB,Vmpr3s,conj
261,1507-1508,",",_,_,_,_,_,268,PUNCT,Z,punct
262,1509-1511,da,_,_,_,_,_,268,SCONJ,Cs,mark
263,1512-1514,biti,_,_,_,_,_,268,AUX,Va-c,aux
264,1515-1517,se,_,_,_,_,_,268,PRON,Px------y,expl
265,1518-1520,za,_,_,_,_,_,267,ADP,Sa,case
266,1521-1530,kopališče,_,_,_,_,_,268,NOUN,Ncnsa,obl
267,1531-1539,zanimati,_,_,_,_,_,261,VERB,Vmpp-dm,ccomp
268,1540-1544,tudi,_,_,_,_,_,268,PART,Q,advmod
269,1545-1550,znan,_,_,_,_,_,272,ADJ,Appmdn,amod
270,1551-1559,okoliški,_,_,_,_,_,272,ADJ,Agpmdn,amod
271,1560-1570,podjetnik,_,_,_,_,_,268,NOUN,Ncmdn,nsubj
272,1571-1576,Bojan,PER[7],0,*->9-1,*[9],3 - Nevtralno[14],272,PROPN,Npmsn,nmod
273,1577-1582,Belna,PER[7],0,*->9-1,*[9],3 - Nevtralno[14],273,PROPN,Npfsn,flat:name
274,1583-1585,in,_,_,_,_,_,276,CCONJ,Cc,cc
275,1586-1592,Renato,PER[8],0,*->10-1,*[10],3 - Nevtralno[15],273,PROPN,Npfsn,conj
276,1593-1598,Hlade,PER[8],0,*->10-1,*[10],3 - Nevtralno[15],276,PROPN,Npfsn,flat:name
277,1599-1600,.,_,_,_,_,_,268,PUNCT,Z,punct
278,1601-1607,občina,_,0,*->1-5,*[1],3 - Nevtralno,282,NOUN,Ncfsn,nsubj
279,1608-1610,za,_,_,_,_,_,281,ADP,Sa,case
280,1611-1618,prenova,_,_,_,_,_,279,NOUN,Ncfsa,nmod
281,1619-1623,imeti,_,_,_,_,_,297,VERB,Vmpr3s-y,conj
282,1624-1630,čeprav,_,_,_,_,_,285,SCONJ,Cs,mark
283,1631-1633,biti,_,_,_,_,_,285,AUX,Va-r3s-n,cop
284,1634-1639,leten,_,_,_,_,_,286,ADJ,Agpnsn,amod
285,1640-1649,kopališče,_,_,_,_,_,282,NOUN,Ncnsn,nsubj
286,1650-1651,v,_,_,_,_,_,289,ADP,Sl,case
287,1652-1660,občinski,_,_,_,_,_,289,ADJ,Agpfsl,amod
288,1661-1666,last,_,_,_,_,_,286,NOUN,Ncfsl,nmod
289,1667-1668,",",_,_,_,_,_,297,PUNCT,Z,punct
290,1669-1671,pa,_,_,_,_,_,297,CCONJ,Cc,advmod
291,1672-1674,ta,_,_,_,_,_,297,DET,Pd-msn,nsubj
292,1675-1676,v,_,_,_,_,_,294,ADP,Sl,case
293,1677-1681,on,_,_,_,_,_,297,PRON,Pp3msl,obl
294,1682-1686,zase,_,_,_,_,_,297,PRON,Px---a--b,obl
295,1687-1689,ne,_,_,_,_,_,297,PART,Q,advmod
296,1690-1694,videti,_,_,_,_,_,301,VERB,Vmbr3s,advcl
297,1695-1705,potencial,_,_,_,_,_,297,NOUN,Ncmsg,obj
298,1706-1707,.,_,_,_,_,_,282,PUNCT,Z,punct
299,1708-1709,“,_,_,_,_,_,301,PUNCT,Z,punct
300,1710-1716,imeti,_,_,_,_,_,2,VERB,Vmpr1p-y,parataxis
301,1717-1724,denar,_,_,_,_,_,301,NOUN,Ncmsg,obj
302,1725-1727,za,_,_,_,_,_,304,ADP,Sa,case
303,1728-1734,obnova,_,_,_,_,_,302,NOUN,Ncfsa,nmod
304,1735-1736,.,_,_,_,_,_,297,PUNCT,Z,punct
305,1737-1742,sicer,_,_,_,_,_,313,PART,Q,advmod
306,1743-1745,pa,_,_,_,_,_,313,CCONJ,Cc,advmod
307,1746-1748,biti,_,_,_,_,_,313,AUX,Va-r3p-n,aux
308,1749-1751,se,_,_,_,_,_,313,PRON,Px------y,expl
309,1752-1758,skoraj,_,_,_,_,_,311,PART,Q,advmod
310,1759-1762,ves,_,_,_,_,_,312,DET,Pg-fpn,det
311,1763-1769,občina,_,_,_,_,_,313,NOUN,Ncfpn,nsubj
312,1770-1780,odpovedati,_,_,_,_,_,2,VERB,Vmep-pf,parataxis
313,1781-1791,kopališče,_,_,_,_,_,313,NOUN,Ncnpd,iobj
314,1792-1793,.,_,_,_,_,_,313,PUNCT,Z,punct
315,1794-1805,potrebovati,_,_,_,_,_,313,VERB,Vmpr1p,parataxis
316,1806-1811,kupec,_,_,_,_,_,316,NOUN,Ncmsay,obj
317,1812-1813,",",_,_,_,_,_,321,PUNCT,Z,punct
318,1814-1816,ki,_,_,_,_,_,321,SCONJ,Cs,mark
319,1817-1819,biti,_,_,_,_,_,321,AUX,Va-f3s-n,aux
320,1820-1826,vlagati,_,_,_,_,_,317,VERB,Vmpp-sm,acl
321,1827-1828,",",_,_,_,_,_,321,PUNCT,Z,punct
322,1829-1832,saj,_,_,_,_,_,327,CCONJ,Cc,cc
323,1833-1835,biti,_,_,_,_,_,327,AUX,Va-r3s-n,cop
324,1836-1839,naš,_,_,_,_,_,326,DET,Ps1msnp,det
325,1840-1844,cilj,_,_,_,_,_,327,NOUN,Ncmsn,nsubj
326,1845-1851,obstoj,_,_,_,_,_,321,NOUN,Ncmsn,conj
327,1852-1861,kopališče,_,_,_,_,_,327,NOUN,Ncnsg,nmod
328,1862-1863,",",_,_,_,_,_,327,PUNCT,Z,punct
329,1864-1865,”,_,_,_,_,_,331,PUNCT,Z,punct
330,1866-1871,praviti,_,_,_,_,_,327,VERB,Vmbr3s,parataxis
331,1872-1878,Čagran,PER,_,*->4-4,*[4],_,331,PROPN,Npmsn,nsubj
332,1879-1881,in,_,_,_,_,_,334,CCONJ,Cc,cc
333,1882-1888,dodajati,_,_,_,_,_,331,VERB,Vmpr3s,conj
334,1889-1890,",",_,_,_,_,_,337,PUNCT,Z,punct
335,1891-1893,da,_,_,_,_,_,337,SCONJ,Cs,mark
336,1894-1900,želeti,_,_,_,_,_,334,VERB,Vmpr3p,ccomp
337,1901-1909,ohraniti,_,_,_,_,_,337,VERB,Vmen,xcomp
338,1910-1919,kopališče,_,_,_,_,_,338,NOUN,Ncnsa,obj
339,1920-1921,.,_,_,_,_,_,331,PUNCT,Z,punct
340,1922-1927,kljub,_,_,_,_,_,342,ADP,Sd,case
341,1928-1932,ta,_,_,_,_,_,346,DET,Pd-nsd,obl
342,1933-1935,pa,_,_,_,_,_,346,CCONJ,Cc,advmod
343,1936-1938,se,_,_,_,_,_,346,PRON,Px------y,expl
344,1939-1943,biti,_,_,_,_,_,346,AUX,Va-r3p-y,aux
345,1944-1952,odločiti,_,_,_,_,_,2,VERB,Vmep-pm,parataxis
346,1953-1954,",",_,_,_,_,_,351,PUNCT,Z,punct
347,1955-1957,da,_,_,_,_,_,351,SCONJ,Cs,mark
348,1958-1960,biti,_,_,_,_,_,351,AUX,Va-c,aux
349,1961-1963,se,_,_,_,_,_,351,PRON,Px------y,expl
350,1964-1972,povezati,_,_,_,_,_,346,VERB,Vmep-pm,ccomp
351,1973-1974,z,_,_,_,_,_,355,ADP,Si,case
352,1975-1981,pet,_,_,_,_,_,355,NUM,Mlc-pi,nummod
353,1982-1992,okoliški,_,_,_,_,_,355,ADJ,Agpfpi,amod
354,1993-2001,občina,_,_,_,_,_,351,NOUN,Ncfpi,obl
355,2002-2003,(,_,_,_,_,_,357,PUNCT,Z,punct
356,2004-2011,Kungota,LOC,0,*->11-1,*[11],3 - Nevtralno,355,PROPN,Npfsn,appos
357,2012-2013,",",_,_,_,_,_,359,PUNCT,Z,punct
358,2014-2019,Apače,LOC,0,*->12-1,*[12],3 - Nevtralno,357,PROPN,Npfpn,conj
359,2020-2021,",",_,_,_,_,_,362,PUNCT,Z,punct
360,2022-2027,svet,LOC[9],0,*->13-1,*[13],3 - Nevtralno[16],362,ADJ,Agpfsn,amod
361,2028-2031,Ana,LOC[9],0,*->13-1,*[13],3 - Nevtralno[16],357,PROPN,Npfsn,conj
362,2032-2033,",",_,_,_,_,_,364,PUNCT,Z,punct
363,2034-2041,Pesnica,LOC,0,*->14-1,*[14],3 - Nevtralno,357,PROPN,Npfsn,conj
364,2042-2044,in,_,_,_,_,_,366,CCONJ,Cc,cc
365,2045-2047,Sv,LOC[10],0,*->15-1,*[15],3 - Nevtralno[17],357,PROPN,Npfsn,conj
366,2048-2049,.,LOC[10],0,*->15-1,*[15],3 - Nevtralno[17],351,PUNCT,Z,punct
367,2050-2055,Jurij,LOC[10],0,*->15-1,*[15],3 - Nevtralno[17],362,PROPN,Npmsn,appos
368,2056-2057,v,LOC[10],0,*->15-1,*[15],3 - Nevtralno[17],371,ADP,Sl,case
369,2058-2068,slovenski,LOC[10],0,*->15-1,*[15],3 - Nevtralno[17],371,ADJ,Agpfpl,amod
370,2069-2076,gorica,LOC[10],0,*->15-1,*[15],3 - Nevtralno[17],368,NOUN,Ncfpl,nmod
371,2077-2078,),_,_,_,_,_,368,PUNCT,Z,punct
372,2079-2080,",",_,_,_,_,_,377,PUNCT,Z,punct
373,2081-2083,da,_,_,_,_,_,377,SCONJ,Cs,mark
374,2084-2086,biti,_,_,_,_,_,377,AUX,Va-c,aux
375,2087-2093,skupaj,_,_,_,_,_,377,ADV,Rgp,advmod
376,2094-2104,pristopiti,_,_,_,_,_,368,VERB,Vmep-pm,acl
377,2105-2106,k,_,_,_,_,_,379,ADP,Sd,case
378,2107-2118,investicija,_,_,_,_,_,377,NOUN,Ncfsd,obl
379,2119-2120,.,_,_,_,_,_,2,PUNCT,Z,punct
380,2121-2122,“,_,_,_,_,_,385,PUNCT,Z,punct
381,2123-2125,ta,_,_,_,_,_,385,DET,Pd-nsn,nsubj
382,2126-2128,biti,_,_,_,_,_,385,AUX,Va-r3s-y,aux
383,2129-2134,slab,_,_,_,_,_,385,ADJ,Agpfsn,amod
384,2135-2140,ideja,_,_,_,_,_,2,NOUN,Ncfsn,parataxis
385,2141-2143,in,_,_,_,_,_,390,CCONJ,Cc,cc
386,2144-2145,o,_,_,_,_,_,388,ADP,Sl,case
387,2146-2149,ta,_,_,_,_,_,390,DET,Pd-nsl,obl
388,2150-2153,biti,_,_,_,_,_,390,AUX,Va-r1p-n,aux
389,2154-2165,razmišljati,_,_,_,_,_,385,VERB,Vmpp-pm,conj
390,2166-2167,.,_,_,_,_,_,385,PUNCT,Z,punct
391,2168-2173,ampak,_,_,_,_,_,395,CCONJ,Cc,cc
392,2174-2179,danes,_,_,_,_,_,395,ADV,Rgp,advmod
393,2180-2184,vsak,_,_,_,_,_,395,DET,Pg-msn,nsubj
394,2185-2190,gledati,_,_,_,_,_,385,VERB,Vmpr3s,conj
395,2191-2195,zase,_,_,_,_,_,395,PRON,Px---a--b,obj
396,2196-2197,",",_,_,_,_,_,399,PUNCT,Z,punct
397,2198-2200,da,_,_,_,_,_,399,SCONJ,Cs,mark
398,2201-2208,preživeti,_,_,_,_,_,395,VERB,Vmer3s,csubj
399,2209-2210,.,_,_,_,_,_,395,PUNCT,Z,punct
400,2211-2216,sicer,_,_,_,_,_,404,PART,Q,advmod
401,2217-2219,pa,_,_,_,_,_,404,CCONJ,Cc,advmod
402,2220-2222,biti,_,_,_,_,_,404,AUX,Va-r3p-n,aux
403,2223-2232,kopališče,_,_,_,_,_,395,NOUN,Ncnpn,nsubj
404,2233-2237,tudi,_,_,_,_,_,404,PART,Q,advmod
405,2238-2239,v,_,_,_,_,_,408,ADP,Sl,case
406,2240-2249,okoliški,_,_,_,_,_,408,ADJ,Agpfpl,amod
407,2250-2257,občina,_,_,_,_,_,404,NOUN,Ncfpl,obl
408,2258-2259,",",_,_,_,_,_,411,PUNCT,Z,punct
409,2260-2261,”,_,_,_,_,_,408,PUNCT,Z,punct
410,2262-2268,Čagran,PER,0,*->4-5,*[4],3 - Nevtralno,408,PROPN,Npmsn,nmod
411,2269-2270,",",_,_,_,_,_,415,PUNCT,Z,punct
412,2271-2273,ki,_,_,_,_,_,415,SCONJ,Cs,mark
413,2274-2276,se,_,_,_,_,_,415,PRON,Px------y,expl
414,2277-2283,zavedati,_,_,_,_,_,411,VERB,Vmpr3s,acl
415,2284-2294,konkurenca,_,_,_,_,_,415,NOUN,Ncfsg,obj
416,2295-2296,",",_,_,_,_,_,415,PUNCT,Z,punct
417,2297-2305,predvsem,_,_,_,_,_,419,PART,Q,advmod
418,2306-2316,avstrijski,_,_,_,_,_,416,ADJ,Agpfpn,amod
419,2317-2318,",",_,_,_,_,_,415,PUNCT,Z,punct
420,2319-2322,saj,_,_,_,_,_,427,CCONJ,Cc,cc
421,2323-2325,biti,_,_,_,_,_,427,AUX,Va-r3s-n,cop
422,2326-2334,občinski,_,_,_,_,_,424,ADJ,Agpnsn,amod
423,2335-2344,kopališče,_,_,_,_,_,427,NOUN,Ncnsn,nsubj
424,2345-2346,v,_,_,_,_,_,426,ADP,Sl,case
425,2347-2354,Cmurek,LOC,0,*->16-1,*[16],3 - Nevtralno,424,PROPN,Npmsl,nmod
426,2355-2364,oddaljen,_,_,_,_,_,415,ADJ,Agpnsn,conj
427,2365-2367,le,_,_,_,_,_,427,PART,Q,advmod
428,2368-2373,štirje,_,_,_,_,_,430,NUM,Mlcmpa,nummod
429,2374-2383,kilometer,_,_,_,_,_,427,NOUN,Ncmpa,obl
430,2384-2386,in,_,_,_,_,_,436,CCONJ,Cc,cc
431,2387-2389,za,_,_,_,_,_,435,ADP,Sa,case
432,2390-2400,celodneven,_,_,_,_,_,435,ADJ,Agpfsa,amod
433,2401-2410,družinski,_,_,_,_,_,435,ADJ,Agpfsa,amod
434,2411-2420,vstopnica,_,_,_,_,_,436,NOUN,Ncfsa,obl
435,2421-2431,zaračunati,_,_,_,_,_,427,VERB,Vmer3p,conj
436,2432-2434,11,_,_,_,_,_,438,NUM,Mdc,nummod
437,2435-2440,evro,_,_,_,_,_,436,NOUN,Ncmpg,obj
438,2441-2442,.,_,_,_,_,_,427,PUNCT,Z,punct
439,2443-2445,10,_,_,_,_,_,441,NUM,Mdc,nummod
440,2446-2451,evro,_,_,_,_,_,447,NOUN,Ncmpg,obj
441,2452-2454,za,_,_,_,_,_,444,ADP,Sa,case
442,2455-2464,kvadraten,_,_,_,_,_,444,ADJ,Agpmsay,amod
443,2465-2470,meter,_,_,_,_,_,441,NOUN,Ncmsan,nmod
444,2471-2475,morati,_,_,_,_,_,430,VERB,Vmpr3s,acl
445,2476-2481,kupec,_,_,_,_,_,445,NOUN,Ncmsn,nsubj
446,2482-2489,odšteti,_,_,_,_,_,445,VERB,Vmen,xcomp
447,2490-2492,za,_,_,_,_,_,449,ADP,Sa,case
448,2493-2498,nakup,_,_,_,_,_,447,NOUN,Ncmsan,obl
449,2499-2509,bazenski,_,_,_,_,_,451,ADJ,Agpmsg,amod
450,2510-2519,kompleks,_,_,_,_,_,449,NOUN,Ncmsg,nmod
451,2520-2521,.,_,_,_,_,_,445,PUNCT,Z,punct
452,2522-2526,tudi,_,_,_,_,_,457,PART,Q,advmod
453,2527-2530,tam,ORG,_,*->17-1,*[17],_,457,ADV,Rgp,advmod
454,2531-2532,v,_,_,_,_,_,456,ADP,Sa,case
455,2533-2540,prodaja,_,_,_,_,_,457,NOUN,Ncfsa,obl
456,2541-2548,podoben,_,_,_,_,_,458,ADJ,Agpfsn,amod
457,2549-2554,usoda,_,_,_,_,_,461,NOUN,Ncfsn,nsubj
458,2555-2557,pa,_,_,_,_,_,461,CCONJ,Cc,advmod
459,2558-2560,se,_,_,_,_,_,461,PRON,Px------y,expl
460,2561-2566,obetati,_,_,_,_,_,2,VERB,Vmpr3s,parataxis
461,2567-2571,tudi,_,_,_,_,_,461,PART,Q,advmod
462,2572-2574,že,_,_,_,_,_,461,PART,Q,advmod
463,2575-2581,tretji,_,_,_,_,_,465,ADJ,Mlofsa,amod
464,2582-2588,sezona,_,_,_,_,_,466,NOUN,Ncfsa,nmod
465,2589-2597,zaprt,_,_,*->17-2,*[17],_,469,ADJ,Appnsd,amod
466,2598-2610,mariborski,_,_,*->17-2,*[17],_,469,ADJ,Agpnsd,amod
467,2611-2618,leten,_,_,*->17-2,*[17],_,469,ADJ,Agpnsd,amod
468,2619-2628,kopališče,_,_,*->17-2,*[17],_,461,NOUN,Ncnsd,obj
469,2629-2632,tam,ORG,_,*->17-2,*[17],_,469,ADV,Rgp,advmod
470,2633-2634,.,_,_,_,_,_,457,PUNCT,Z,punct
471,2635-2636,“,_,_,_,_,_,476,PUNCT,Z,punct
472,2637-2642,kriza,_,_,_,_,_,476,NOUN,Ncfsn,nsubj
473,2643-2645,biti,_,_,_,_,_,476,AUX,Va-r3s-n,aux
474,2646-2650,malo,_,_,_,_,_,476,DET,Rgp,advmod
475,2651-2659,ustaviti,_,_,_,_,_,461,VERB,Vmep-sf,advcl
476,2660-2663,ves,_,_,_,_,_,476,DET,Pg-nsa,obj
477,2664-2670,skupaj,_,_,_,_,_,476,ADV,Rgp,advmod
478,2671-2672,",",_,_,_,_,_,476,PUNCT,Z,punct
479,2673-2679,vendar,_,_,_,_,_,483,CCONJ,Cc,cc
480,2680-2682,še,_,_,_,_,_,483,PART,Q,advmod
481,2683-2688,vedno,_,_,_,_,_,483,ADV,Rgp,advmod
482,2689-2695,iskati,_,_,_,_,_,476,VERB,Vmpr1p,conj
483,2696-2708,investitor,_,_,_,_,_,483,NOUN,Ncmpa,obj
484,2709-2710,",",_,_,_,_,_,488,PUNCT,Z,punct
485,2711-2713,ki,_,_,_,_,_,488,SCONJ,Cs,mark
486,2714-2716,biti,_,_,_,_,_,488,AUX,Va-c,aux
487,2717-2723,kupiti,_,_,_,_,_,484,VERB,Vmep-pm,acl
488,2724-2732,tezenski,_,_,*->17-3,*[17],_,490,ADJ,Agpnsa,amod
489,2733-2742,kopališče,_,_,*->17-3,*[17],_,488,NOUN,Ncnsa,obj
490,2743-2744,.,_,_,_,_,_,476,PUNCT,Z,punct
491,2745-2751,želeti,_,_,_,_,_,476,VERB,Vmpr1p,conj
492,2752-2754,se,_,_,_,_,_,492,PRON,Px---d--y,expl
493,2755-2756,",",_,_,_,_,_,500,PUNCT,Z,punct
494,2757-2759,da,_,_,_,_,_,500,SCONJ,Cs,mark
495,2760-2762,biti,_,_,_,_,_,500,AUX,Va-c,aux
496,2763-2765,on,_,_,_,_,_,500,PRON,Pp3msa--y,obj
497,2766-2769,nov,_,_,_,_,_,499,ADJ,Agpmsnn,amod
498,2770-2780,investitor,_,_,_,_,_,500,NOUN,Ncmsn,nsubj
499,2781-2787,urediti,_,_,_,_,_,492,VERB,Vmep-sm,ccomp
500,2788-2789,",",_,_,_,_,_,500,PUNCT,Z,punct
501,2790-2798,dograditi,_,_,_,_,_,492,VERB,Vmep-sm,ccomp
502,2799-2801,in,_,_,_,_,_,508,CCONJ,Cc,cc
503,2802-2804,da,_,_,_,_,_,508,SCONJ,Cs,mark
504,2805-2807,biti,_,_,_,_,_,508,AUX,Va-c,aux
505,2808-2817,kopališče,_,_,*->17-4,*[17],_,508,NOUN,Ncnsn,nsubj
506,2818-2825,ponovno,_,_,_,_,_,508,ADV,Rgp,advmod
507,2826-2834,zaživeti,_,_,_,_,_,502,VERB,Vmep-sn,conj
508,2835-2836,",",_,_,_,_,_,508,PUNCT,Z,punct
509,2837-2838,”,_,_,_,_,_,512,PUNCT,Z,punct
510,2839-2841,biti,_,_,_,_,_,512,AUX,Va-r3s-n,aux
511,2842-2850,pojasniti,_,_,_,_,_,2,VERB,Vmep-sm,parataxis
512,2851-2857,Andrej,PER[11],_,*->7-2,*[7],_,512,PROPN,Npmsn,nsubj
513,2858-2864,Verlič,PER[11],_,*->7-2,*[7],_,513,PROPN,Npmsn,flat:name
514,2865-2866,",",_,_,_,_,_,516,PUNCT,Z,punct
515,2867-2875,podžupan,_,_,*->7-3,*[7],_,513,ADJ,Appmsnn,amod
516,2876-2886,mariborski,_,_,*->7-3|*->8-3,*[7]|*[8],_,518,ADJ,Agpfsg,amod
517,2887-2893,občina,_,_,*->7-3|*->8-3,*[7]|*[8],_,516,NOUN,Ncfsg,obj
518,2894-2895,",",_,_,_,_,_,516,PUNCT,Z,punct
519,2896-2898,in,_,_,_,_,_,521,CCONJ,Cc,cc
520,2899-2904,dodati,_,_,_,_,_,512,VERB,Vmep-sm,conj
521,2905-2906,",",_,_,_,_,_,528,PUNCT,Z,punct
522,2907-2909,da,_,_,_,_,_,528,SCONJ,Cs,mark
523,2910-2917,cenitev,_,_,_,_,_,528,NOUN,Ncfsn,nsubj
524,2918-2927,kopališče,_,_,*->17-5,*[17],_,524,NOUN,Ncnsg,nmod
525,2928-2930,še,_,_,_,_,_,528,PART,Q,advmod
526,2931-2933,biti,_,_,_,_,_,528,AUX,Va-r3s-y,cop
527,2934-2944,opravljen,_,_,_,_,_,521,ADJ,Appfsn,ccomp
528,2945-2946,",",_,_,_,_,_,528,PUNCT,Z,punct
529,2947-2951,zato,_,_,_,_,_,534,CCONJ,Cc,cc
530,2952-2960,izklicen,_,_,_,_,_,532,ADJ,Agpfsg,amod
531,2961-2965,cena,_,_,_,_,_,535,NOUN,Ncfsg,obj
532,2966-2968,ne,_,0,*->7-4,*[7],3 - Nevtralno[18],534,PART,Q,advmod
533,2969-2973,moči,_,0,*->7-4,*[7],3 - Nevtralno[18],528,VERB,Vmpr3s,conj
534,2974-2980,izdati,_,0,*->7-4,*[7],3 - Nevtralno[18],534,VERB,Vmen,xcomp
535,2981-2982,.,_,_,_,_,_,521,PUNCT,Z,punct
536,2983-2985,biti,_,_,_,_,_,544,AUX,Va-f3s-n,cop
537,2986-2988,pa,_,_,_,_,_,544,CCONJ,Cc,advmod
538,2989-2991,ta,_,_,_,_,_,543,DET,Pd-nsn,det
539,2992-2999,kopalen,_,_,_,_,_,541,ADJ,Agpfsn,amod
540,3000-3006,sezona,_,_,_,_,_,544,NOUN,Ncfsg,obl
541,3007-3009,ta,_,_,_,_,_,543,DET,Pd-nsn,det
542,3010-3019,kopališče,_,_,*->17-6,*[17],_,544,NOUN,Ncnsn,nsubj
543,3020-3033,nespremenjen,_,_,_,_,_,2,ADJ,Agpfsn,parataxis
544,3034-3035,",",_,_,_,_,_,544,PUNCT,Z,punct
545,3036-3039,saj,_,_,_,_,_,549,CCONJ,Cc,cc
546,3040-3042,na,_,_,_,_,_,548,ADP,Sl,case
547,3043-3049,občina,_,0,*->8-4,*[8],3 - Nevtralno,549,NOUN,Ncfsl,obl
548,3050-3058,računati,_,_,_,_,_,544,VERB,Vmpr3p,conj
549,3059-3060,",",_,_,_,_,_,561,PUNCT,Z,punct
550,3061-3063,da,_,_,_,_,_,561,SCONJ,Cs,mark
551,3064-3066,biti,_,_,_,_,_,561,AUX,Va-c,aux
552,3067-3072,lahko,_,_,_,_,_,561,ADV,Rgp,advmod
553,3073-3079,razpis,_,_,_,_,_,561,NOUN,Ncmsn,nsubj
554,3080-3082,za,_,_,_,_,_,556,ADP,Sa,case
555,3083-3088,nakup,_,_,_,_,_,561,NOUN,Ncmsan,obl
556,3089-3095,nekdaj,_,0,*->17-7,*[17],3 - Nevtralno[19],559,ADV,Rgp,advmod
557,3096-3100,zelo,_,0,*->17-7,*[17],3 - Nevtralno[19],559,ADV,Rgp,advmod
558,3101-3111,obiskan,_,0,*->17-7,*[17],3 - Nevtralno[19],560,ADJ,Appnsg,amod
559,3112-3121,kopališče,_,0,*->17-7,*[17],3 - Nevtralno[19],556,NOUN,Ncnsg,nmod
560,3122-3127,iziti,_,_,_,_,_,549,VERB,Vmep-sm,ccomp
561,3128-3137,prihodnji,_,_,_,_,_,563,ADJ,Agpnsa,amod
562,3138-3142,leto,_,_,_,_,_,561,NOUN,Ncnsa,obl
