idx,chars_idx,token,entity_type,sentiment,idk_1,idk_2,orig_sentiment,heads,upos,xpos,deprel
0,0-2,po,_,_,_,_,_,2,ADP,Sl,case
1,3-12,poročanje,_,_,_,_,_,9,NOUN,Ncnsl,obl
2,13-16,HAK,ORG,_,*->1-1,*[1],_,2,PROPN,Npfsn,nmod
3,17-19,biti,_,_,_,_,_,9,AUX,Va-r3s-n,cop
4,20-22,na,_,_,_,_,_,6,ADP,Sl,case
5,23-28,konec,_,_,_,_,_,9,NOUN,Ncmsl,obl
6,29-38,istrski,_,_,_,_,_,8,ADJ,Agpmsg,amod
7,39-47,ipsilon,_,_,_,_,_,6,NOUN,Ncmsg,nmod
8,48-54,dolg,_,_,_,_,_,0,ADJ,Agcfsn,root
9,55-61,kolona,_,_,_,_,_,9,NOUN,Ncfsn,nsubj
10,62-67,vozilo,_,_,_,_,_,10,NOUN,Ncnpg,nmod
11,68-69,v,_,_,_,_,_,13,ADP,Sl,case
12,70-75,smer,_,_,_,_,_,11,NOUN,Ncfsl,nmod
13,76-85,Slovenija,LOC,_,*->2-1,*[2],_,13,PROPN,Npfsg,nmod
14,86-87,.,_,_,_,_,_,9,PUNCT,Z,punct
15,88-93,gneča,_,_,_,_,_,24,NOUN,Ncfsn,nmod
16,94-98,tudi,_,_,_,_,_,16,PART,Q,fixed
17,99-101,na,_,_,_,_,_,20,ADP,Sl,case
18,102-112,slovenski,_,_,_,_,_,20,ADJ,Agpfpl,amod
19,113-119,cesta,_,_,_,_,_,16,NOUN,Ncfpl,nmod
20,120-121,.,_,_,_,_,_,20,PUNCT,Z,punct
21,122-125,pri,_,_,_,_,_,23,ADP,Sl,case
22,126-135,Grosupelj,LOC,0,*->3-1,*[3],3 - Nevtralno,20,PROPN,Npmsl,nmod
23,136-143,nesreča,_,_,_,_,_,38,NOUN,Ncfsn,nsubj
24,144-145,v,_,_,_,_,_,26,ADP,Sl,case
25,146-151,smer,_,_,_,_,_,24,NOUN,Ncfsl,nmod
26,152-158,nov,LOC[1],_,*->4-1,*[4],_,28,ADJ,Agpnsg,amod
27,159-164,mesto,LOC[1],_,*->4-1,*[4],_,26,NOUN,Ncnsg,nmod
28,165-166,.,_,_,_,_,_,9,PUNCT,Z,punct
29,167-169,na,_,_,_,_,_,32,ADP,Sl,case
30,170-179,dolenjski,_,_,_,_,_,32,ADJ,Agpfsl,amod
31,180-189,avtocesta,_,_,_,_,_,38,NOUN,Ncfsl,obl
32,190-191,v,_,_,_,_,_,34,ADP,Sl,case
33,192-197,smer,_,_,_,_,_,38,NOUN,Ncfsl,obl
34,198-204,nov,LOC[2],0,*->4-2,*[4],3 - Nevtralno[5],36,ADJ,Agpnsg,amod
35,205-210,mesto,LOC[2],0,*->4-2,*[4],3 - Nevtralno[5],34,NOUN,Ncnsg,nmod
36,211-213,biti,_,_,_,_,_,38,AUX,Va-r3s-n,aux
37,214-220,priti,_,_,_,_,_,9,VERB,Vmep-sn,parataxis
38,221-223,do,_,_,_,_,_,41,ADP,Sg,case
39,224-232,prometen,_,_,_,_,_,41,ADJ,Agpfsg,amod
40,233-240,nesreča,_,_,_,_,_,38,NOUN,Ncfsg,obl
41,241-242,",",_,_,_,_,_,45,PUNCT,Z,punct
42,243-245,ki,_,_,_,_,_,45,SCONJ,Cs,mark
43,246-251,močno,_,_,_,_,_,45,ADV,Rgp,advmod
44,252-257,ovirati,_,_,_,_,_,41,VERB,Vmpr3s,acl
45,258-264,promet,_,_,_,_,_,45,NOUN,Ncmsan,obj
46,265-266,.,_,_,_,_,_,38,PUNCT,Z,punct
47,267-276,posledica,_,_,_,_,_,46,NOUN,Ncfsg,conj
48,277-284,nesreča,_,_,_,_,_,48,NOUN,Ncfsg,nmod
49,285-286,",",_,_,_,_,_,54,PUNCT,Z,punct
50,287-289,do,_,_,_,_,_,52,ADP,Sg,case
51,290-296,kateri,_,_,_,_,_,54,DET,Pq-fsg,obl
52,297-299,biti,_,_,_,_,_,54,AUX,Va-r3s-n,aux
53,300-306,priti,_,_,_,_,_,49,VERB,Vmep-sn,acl
54,307-310,med,_,_,_,_,_,56,ADP,Si,case
55,311-323,priključek,_,_,_,_,_,54,NOUN,Ncmdi,obl
56,324-330,Šmar,LOC[3],0,*->5-1,*[5],3 - Nevtralno[6],56,PROPN,Npfsn,nmod
57,331-334,Sap,LOC[3],0,*->5-1,*[5],3 - Nevtralno[6],57,PROPN,Npmsn,nmod
58,335-337,in,_,_,_,_,_,60,CCONJ,Cc,cc
59,338-344,Cikav,LOC,0,*->6-1,*[6],3 - Nevtralno,58,PROPN,Npfsn,conj
60,345-346,v,_,_,_,_,_,62,ADP,Sl,case
61,347-352,smer,_,_,_,_,_,60,NOUN,Ncfsl,nmod
62,353-362,Dolenjska,LOC,0,*->7-1,*[7],3 - Nevtralno,62,PROPN,Npfsg,nmod
63,363-364,",",_,_,_,_,_,54,PUNCT,Z,punct
64,365-367,biti,_,_,_,_,_,67,AUX,Va-r3p-n,aux
65,368-370,že,_,_,_,_,_,67,PART,Q,advmod
66,371-381,odstraniti,_,_,_,_,_,9,VERB,Vmep-pm,parataxis
67,382-383,",",_,_,_,_,_,76,PUNCT,Z,punct
68,384-390,zastoj,_,_,_,_,_,76,NOUN,Ncmsan,obj
69,391-393,pa,_,_,_,_,_,76,CCONJ,Cc,advmod
70,394-396,biti,_,_,_,_,_,76,AUX,Va-r3s-n,aux
71,397-402,nekaj,_,_,_,_,_,75,DET,Rgp,det
72,403-406,čez,_,_,_,_,_,75,ADP,Sa,case
73,407-412,četri,_,_,_,_,_,75,ADJ,Agpfsa,amod
74,413-416,ura,_,_,_,_,_,76,NOUN,Ncfsa,obl
75,417-422,segati,_,_,_,_,_,67,VERB,Vmpp-sm,conj
76,423-425,že,_,_,_,_,_,76,PART,Q,advmod
77,426-428,od,_,_,_,_,_,81,ADP,Sg,case
78,429-440,ljubljanski,_,_,_,_,_,81,ADJ,Agpfsg,amod
79,441-448,vzhoden,_,_,_,_,_,81,ADJ,Agpfsg,amod
80,449-458,obvoznica,_,_,_,_,_,76,NOUN,Ncfsg,obl
81,459-461,od,_,_,_,_,_,83,ADP,Sg,case
82,462-469,predor,_,0,*->8-1,*[8],3 - Nevtralno[7],81,NOUN,Ncmsg,nmod
83,470-477,Golovec,LOC,0,*->8-1,*[8],3 - Nevtralno[7],83,PROPN,Npmsn,nmod
84,478-480,in,_,_,_,_,_,89,CCONJ,Cc,cc
85,481-483,na,_,_,_,_,_,89,ADP,Sa,case
86,484-495,ljubljanski,_,_,_,_,_,89,ADJ,Agpfsa,amod
87,496-501,južen,_,_,_,_,_,89,ADJ,Agpfsa,amod
88,502-511,obvoznica,_,_,_,_,_,83,NOUN,Ncfsa,conj
89,512-513,.,_,_,_,_,_,76,PUNCT,Z,punct
90,514-518,gost,_,_,_,_,_,92,ADJ,Agpmsnn,amod
91,519-525,promet,_,_,_,_,_,95,NOUN,Ncmsn,nsubj
92,526-527,z,_,_,_,_,_,94,ADP,Si,case
93,528-535,zastoj,_,_,_,_,_,92,NOUN,Ncmpi,nmod
94,536-538,biti,_,_,_,_,_,76,VERB,Va-r3s-n,conj
95,539-540,:,_,_,_,_,_,95,PUNCT,Z,punct
96,541-542,-,_,_,_,_,_,95,PUNCT,Z,punct
97,543-545,na,_,_,_,_,_,100,ADP,Sl,case
98,546-555,primorski,_,_,_,_,_,100,ADJ,Agpfsl,amod
99,556-565,avtocesta,_,_,_,_,_,38,NOUN,Ncfsl,obl
100,566-570,pred,_,_,_,_,_,103,ADP,Si,case
101,571-578,deloven,_,_,_,_,_,103,ADJ,Agpfsi,amod
102,579-585,zapora,_,_,_,_,_,100,NOUN,Ncfsi,nmod
103,586-589,med,_,_,_,_,_,105,ADP,Si,case
104,590-597,Vrhnika,LOC,_,*->9-1,*[9],_,103,PROPN,Npfsi,nmod
105,598-600,in,_,_,_,_,_,107,CCONJ,Cc,cc
106,601-609,Logatc,LOC,0,*->10-1,*[10],3 - Nevtralno,105,PROPN,Npmsi,conj
107,610-611,(,_,_,_,_,_,109,PUNCT,Z,punct
108,612-617,"1,5km",_,_,_,_,_,105,NUM,Mdc,nummod
109,618-619,),_,_,_,_,_,109,PUNCT,Z,punct
110,620-621,v,_,_,_,_,_,112,ADP,Sl,case
111,622-627,smer,_,_,_,_,_,103,NOUN,Ncfsl,nmod
112,628-633,Koper,LOC,_,*->11-1,*[11],_,112,PROPN,Npmsg,nmod
113,634-635,",",_,_,_,_,_,109,PUNCT,Z,punct
114,636-637,-,_,_,_,_,_,118,PUNCT,Z,punct
115,638-640,na,_,_,_,_,_,118,ADP,Sl,case
116,641-650,gorenjski,_,_,_,_,_,118,ADJ,Agpfsl,amod
117,651-660,avtocesta,_,_,_,_,_,103,NOUN,Ncfsl,conj
118,661-664,med,_,_,_,_,_,120,ADP,Si,case
119,665-675,Podtabor,LOC,0,*->12-1,*[12],3 - Nevtralno,118,PROPN,Npmsi,nmod
120,676-678,in,_,_,_,_,_,122,CCONJ,Cc,cc
121,679-687,predor,_,0,*->13-1,*[13],3 - Nevtralno[8],120,NOUN,Ncmsi,conj
122,688-694,Ljubno,LOC,0,*->13-1,*[13],3 - Nevtralno[8],122,PROPN,Npfsn,nmod
123,695-696,v,_,_,_,_,_,125,ADP,Sl,case
124,697-702,smer,_,_,_,_,_,123,NOUN,Ncfsl,nmod
125,703-710,Jesenice,LOC,0,*->14-1,*[14],3 - Nevtralno,125,PROPN,Npfpg,nmod
126,711-712,",",_,_,_,_,_,118,PUNCT,Z,punct
127,713-714,-,_,_,_,_,_,132,PUNCT,Z,punct
128,715-717,na,_,_,_,_,_,132,ADP,Sl,case
129,718-729,ljubljanski,_,_,_,_,_,132,ADJ,Agpfsl,amod
130,730-737,zahoden,_,_,_,_,_,132,ADJ,Agpfsl,amod
131,738-747,obvoznica,_,_,_,_,_,126,NOUN,Ncfsl,conj
132,748-750,na,_,_,_,_,_,134,ADP,Sl,case
133,751-758,razcep,_,0,*->15-1,*[15],3 - Nevtralno[9],132,NOUN,Ncmsl,nmod
134,759-766,Kozarje,LOC,0,*->15-1,*[15],3 - Nevtralno[9],134,PROPN,Npmsn,nmod
135,767-769,iz,_,_,_,_,_,137,ADP,Sg,case
136,770-775,smer,_,_,_,_,_,135,NOUN,Ncfsg,nmod
137,776-780,Brda,LOC,0,*->16-1,*[16],3 - Nevtralno,137,PROPN,Npnsn,nmod
138,781-786,proti,_,_,_,_,_,140,ADP,Sd,case
139,787-791,Vič,LOC,0,*->17-1,*[17],3 - Nevtralno,138,PROPN,Npmsd,nmod
140,792-793,",",_,_,_,_,_,140,PUNCT,Z,punct
141,794-795,-,_,_,_,_,_,144,PUNCT,Z,punct
142,796-798,na,_,_,_,_,_,144,ADP,Sl,case
143,799-805,cesta,_,_,_,_,_,137,NOUN,Ncfpl,nmod
144,806-812,Šmar,LOC,0,*->18-1,*[18],3 - Nevtralno,144,PROPN,Npfsn,nmod
145,813-814,-,_,_,_,_,_,147,PUNCT,Z,punct
146,815-820,Koper,LOC,0,*->11-2,*[11],3 - Nevtralno,145,PROPN,Npmsn,conj
147,821-822,",",_,_,_,_,_,149,PUNCT,Z,punct
148,823-832,Ljubljana,LOC,_,*->19-1,*[19],_,145,PROPN,Npfsn,conj
149,833-834,-,_,_,_,_,_,151,PUNCT,Z,punct
150,835-842,Vrhnik,LOC,0,*->9-2,*[9],3 - Nevtralno,145,PROPN,Npfsn,conj
151,843-844,",",_,_,_,_,_,153,PUNCT,Z,punct
152,845-854,Ljubljana,LOC,_,*->19-2,*[19],_,145,PROPN,Npfsn,conj
153,855-856,-,_,_,_,_,_,155,PUNCT,Z,punct
154,857-866,Škofljica,LOC,0,*->20-1,*[20],3 - Nevtralno,145,PROPN,Npfsn,conj
155,867-868,",",_,_,_,_,_,157,PUNCT,Z,punct
156,869-874,Brnik,LOC,0,*->21-1,*[21],3 - Nevtralno,159,PROPN,Npmsn,conj
157,875-876,-,_,_,_,_,_,159,PUNCT,Z,punct
158,877-882,Kranj,LOC,0,*->22-1,*[22],3 - Nevtralno,145,PROPN,Npmsn,conj
159,883-885,in,_,_,_,_,_,161,CCONJ,Cc,cc
160,886-891,Lesce,LOC,0,*->23-1,*[23],3 - Nevtralno,159,PROPN,Npmsn,conj
161,892-893,-,_,_,_,_,_,163,PUNCT,Z,punct
162,894-898,Bled,LOC,0,*->24-1,*[24],3 - Nevtralno,161,PROPN,Npmsn,conj
163,899-900,",",_,_,_,_,_,165,PUNCT,Z,punct
164,901-908,zgoščen,_,_,_,_,_,166,ADJ,Appmsnn,amod
165,909-915,promet,_,_,_,_,_,163,NOUN,Ncmsn,appos
166,916-918,biti,_,_,_,_,_,165,AUX,Va-r3s-n,cop
167,919-921,na,_,_,_,_,_,169,ADP,Sl,case
168,922-927,cesta,_,_,_,_,_,165,NOUN,Ncfsl,nmod
169,928-937,Ljubljana,LOC,0,*->19-3,*[19],3 - Nevtralno,169,PROPN,Npfsn,nmod
170,938-939,-,_,_,_,_,_,172,PUNCT,Z,punct
171,940-947,Medvoda,LOC,0,*->25-1,*[25],3 - Nevtralno,170,PROPN,Npfpn,conj
172,948-949,.,_,_,_,_,_,165,PUNCT,Z,punct
173,950-952,na,_,_,_,_,_,176,ADP,Sl,case
174,953-959,mejen,_,_,*->30-1,*[30],_,176,ADJ,Agpmsl,amod
175,960-967,prehod,_,_,*->30-1,*[30],_,169,NOUN,Ncmsl,nmod
176,968-975,obrežje,LOC,_,*->30-1,*[30],_,176,NOUN,Ncnsa,nmod
177,976-978,biti,_,_,_,_,_,180,AUX,Va-r3s-n,cop
178,979-986,čakalen,_,_,_,_,_,180,ADJ,Agpfsn,amod
179,987-991,doba,_,_,_,_,_,9,NOUN,Ncfsn,parataxis
180,992-1000,tovoren,_,_,_,_,_,182,ADJ,Agpnpg,amod
181,1001-1006,vozilo,_,_,_,_,_,180,NOUN,Ncnpg,nmod
182,1007-1010,pri,_,_,_,_,_,184,ADP,Sl,case
183,1011-1018,izstop,_,_,_,_,_,180,NOUN,Ncmsl,nmod
184,1019-1021,iz,_,_,_,_,_,186,ADP,Sg,case
185,1022-1028,država,_,_,_,_,_,184,NOUN,Ncfsg,nmod
186,1029-1030,1,_,_,_,_,_,188,NUM,Mdc,nummod
187,1031-1034,ura,_,_,_,_,_,186,NOUN,Ncfsa,nmod
188,1035-1036,.,_,_,_,_,_,180,PUNCT,Z,punct
189,1037-1044,hrvaški,LOC,_,*->26-1,*[26],_,180,PROPN,Npfsn,conj
190,1045-1046,:,_,_,_,_,_,190,PUNCT,Z,punct
191,1047-1061,petkilometrski,_,_,_,_,_,193,ADJ,Agpmsny,amod
192,1062-1068,zastoj,_,_,_,_,_,180,NOUN,Ncmsn,nsubj
193,1069-1074,proti,_,_,_,_,_,195,ADP,Sd,case
194,1075-1084,Slovenija,LOC,_,*->2-2,*[2],_,193,PROPN,Npfsd,nmod
195,1085-1087,po,_,_,_,_,_,197,ADP,Sl,case
196,1088-1096,podatek,_,_,_,_,_,193,NOUN,Ncmpl,nmod
197,1097-1106,hrvaški,ORG[4],_,*->1-2,*[1],_,199,ADJ,Agpmsg,amod
198,1107-1116,avtoklub,ORG[4],_,*->1-2,*[1],_,197,NOUN,Ncmsg,nmod
199,1117-1118,(,_,_,_,_,_,201,PUNCT,Z,punct
200,1119-1122,HAK,ORG,0,*->1-3,*[1],3 - Nevtralno,199,PROPN,Npmsn,appos
201,1123-1124,),_,_,_,_,_,201,PUNCT,Z,punct
202,1125-1127,pa,_,_,_,_,_,213,CCONJ,Cc,advmod
203,1128-1130,biti,_,_,_,_,_,213,AUX,Va-r3s-n,aux
204,1131-1133,na,_,_,_,_,_,206,ADP,Sl,case
205,1134-1139,konec,_,_,_,_,_,213,NOUN,Ncmsl,obl
206,1140-1145,hiter,_,_,_,_,_,208,ADJ,Agpfsg,amod
207,1146-1151,cesta,_,_,_,_,_,206,NOUN,Ncfsg,nmod
208,1152-1153,(,_,_,_,_,_,211,PUNCT,Z,punct
209,1154-1161,istrski,_,_,_,_,_,211,ADJ,Agpmsny,amod
210,1162-1169,ipsilon,_,_,_,_,_,208,NOUN,Ncmsn,appos
211,1170-1171,),_,_,_,_,_,211,PUNCT,Z,punct
212,1172-1178,dolg,_,_,_,_,_,214,ADJ,Agcfsn,amod
213,1179-1185,kolona,_,_,_,_,_,193,NOUN,Ncfsn,conj
214,1186-1191,vozilo,_,_,_,_,_,214,NOUN,Ncnpg,nmod
215,1192-1193,v,_,_,_,_,_,217,ADP,Sl,case
216,1194-1199,smer,_,_,_,_,_,215,NOUN,Ncfsl,nmod
217,1200-1209,Slovenija,LOC,0,*->2-3,*[2],3 - Nevtralno,217,PROPN,Npfsg,nmod
218,1210-1211,.,_,_,_,_,_,213,PUNCT,Z,punct
219,1212-1219,zastoj,_,_,_,_,_,214,NOUN,Ncmpn,nsubj
220,1220-1225,proti,_,_,_,_,_,223,ADP,Sd,case
221,1226-1233,mejen,_,_,_,_,_,223,ADJ,Agpmdd,amod
222,1234-1243,prehod,_,_,_,_,_,220,NOUN,Ncmdd,nmod
223,1244-1252,Dragonj,LOC,0,*->27-1,*[27],3 - Nevtralno,223,PROPN,Npfsn,nmod
224,1253-1255,in,_,_,_,_,_,226,CCONJ,Cc,cc
225,1256-1264,Sečovlje,LOC,0,*->28-1,*[28],3 - Nevtralno,224,PROPN,Npfsn,conj
226,1265-1267,biti,_,_,_,_,_,228,AUX,Va-r3p-n,cop
227,1268-1273,dolg,_,_,_,_,_,235,ADJ,Agpmpn,conj
228,1274-1277,pet,_,_,_,_,_,230,NUM,Mlc-pa,nummod
229,1278-1288,kilometer,_,_,_,_,_,228,NOUN,Ncmpg,obl
230,1289-1290,.,_,_,_,_,_,213,PUNCT,Z,punct
231,1291-1297,promet,_,_,_,_,_,235,NOUN,Ncmsn,nsubj
232,1298-1300,biti,_,_,_,_,_,235,AUX,Va-r3s-n,cop
233,1301-1306,sicer,_,_,_,_,_,235,PART,Q,advmod
234,1307-1314,zgoščen,_,_,_,_,_,9,ADJ,Appmsnn,parataxis
235,1315-1317,na,_,_,_,_,_,239,ADP,Sl,case
236,1318-1322,ves,_,_,_,_,_,239,DET,Pg-fpl,det
237,1323-1335,pomemben,_,_,_,_,_,239,ADJ,Agcfpl,amod
238,1336-1342,cesta,_,_,_,_,_,235,NOUN,Ncfpl,obl
239,1343-1348,proti,_,_,_,_,_,241,ADP,Sd,case
240,1349-1360,notranjost,_,_,_,_,_,239,NOUN,Ncfsd,nmod
241,1361-1368,Hrvaška,LOC,0,*->26-2,*[26],3 - Nevtralno,241,PROPN,Npfsg,nmod
242,1369-1370,",",_,_,_,_,_,246,PUNCT,Z,punct
243,1371-1377,zlasti,_,_,_,_,_,246,PART,Q,advmod
244,1378-1380,na,_,_,_,_,_,246,ADP,Sl,case
245,1381-1391,avtocesta,_,_,_,_,_,241,NOUN,Ncfpl,conj
246,1392-1397,proti,_,_,_,_,_,248,ADP,Sd,case
247,1398-1407,Gruškovje,LOC,0,*->29-1,*[29],3 - Nevtralno,246,PROPN,Npnsd,nmod
248,1408-1410,in,_,_,_,_,_,250,CCONJ,Cc,cc
249,1411-1418,obrežje,LOC,0,*->30-2,*[30],3 - Nevtralno,248,NOUN,Ncnsd,conj
250,1419-1420,.,_,_,_,_,_,254,PUNCT,Z,punct
251,1421-1426,danes,_,_,_,_,_,254,ADV,Rgp,advmod
252,1427-1434,zastoj,_,_,_,_,_,254,NOUN,Ncmpa,obj
253,1435-1446,pričakovati,_,_,_,_,_,9,VERB,Vmpr3p,parataxis
254,1447-1451,tudi,_,_,_,_,_,254,PART,Q,advmod
255,1452-1454,na,_,_,_,_,_,258,ADP,Sl,case
256,1455-1464,jadranski,_,_,_,_,_,258,ADJ,Agpfsl,amod
257,1465-1475,magistral,_,_,_,_,_,254,NOUN,Ncfsl,obl
258,1476-1477,v,_,_,_,_,_,260,ADP,Sl,case
259,1478-1485,bližina,_,_,_,_,_,258,NOUN,Ncfsl,nmod
260,1486-1492,velik,_,_,_,_,_,263,ADJ,Agcnpg,amod
261,1493-1504,turističen,_,_,_,_,_,263,ADJ,Agpnpg,amod
262,1505-1512,središče,_,_,_,_,_,260,NOUN,Ncnpg,nmod
