idx,chars_idx,token,entity_type,sentiment,idk_1,idk_2,orig_sentiment,heads,upos,xpos,deprel
0,0-10,ministrica,_,_,*->1-1,*[1],_,4,NOUN,Ncfsn,nsubj
1,11-19,Katarina,PER[1],_,*->1-1,*[1],_,1,PROPN,Npfsn,nmod
2,20-26,Kresal,PER[1],_,*->1-1,*[1],_,2,PROPN,Npfsn,flat:name
3,27-35,zatrjevati,_,_,_,_,_,0,VERB,Vmpr3s,root
4,36-37,:,_,_,_,_,_,11,PUNCT,Z,punct
5,38-41,MNZ,ORG,_,*->2-1,*[2],_,8,PROPN,Npnsn,vocative
6,42-44,biti,_,_,_,_,_,8,AUX,Va-r3s-y,aux
7,45-51,iskati,_,_,_,_,_,4,VERB,Vmpp-sn,root
8,52-54,in,_,_,_,_,_,11,CCONJ,Cc,cc
9,55-57,ne,_,_,_,_,_,11,PART,Q,advmod
10,58-62,iskati,_,_,_,_,_,8,VERB,Vmpr3s,conj
11,63-68,kupec,_,_,_,_,_,11,NOUN,Ncmsg,obj
12,69-71,za,_,_,_,_,_,14,ADP,Sa,case
13,72-78,stavba,_,_,_,_,_,12,NOUN,Ncfsa,nmod
14,79-82,NPU,ORG,_,*->3-1,*[3],_,14,PROPN,Npmsg,nmod
15,83-84,.,_,_,_,_,_,8,PUNCT,Z,punct
16,85-87,še,_,_,_,_,_,20,PART,Q,advmod
17,88-94,nikoli,_,_,_,_,_,20,ADV,Rgp,advmod
18,95-97,biti,_,_,*->1-2,*[1],_,20,AUX,Va-r3s-y,aux
19,98-105,slišati,_,_,*->1-2,*[1],_,4,VERB,Vmbp-sf,parataxis
20,106-108,za,_,_,_,_,_,22,ADP,Sa,case
21,109-121,predstavnik,_,_,*->4-1,*[4],_,20,NOUN,Ncmsay,obl
22,122-132,Reiffeisen,ORG[2],_,*->4-1|*->5-1,*[4]|*[5],_,22,PROPN,Npmsg,nmod
23,133-141,Leasing,ORG[2],_,*->4-1|*->5-1,*[4]|*[5],_,23,PROPN,Npmsg,flat:name
24,142-143,",",_,_,_,_,_,27,PUNCT,Z,punct
25,144-146,ki,_,_,_,_,_,27,SCONJ,Cs,mark
26,147-151,trditi,_,_,_,_,_,22,VERB,Vmpr3s,acl
27,152-153,",",_,_,_,_,_,35,PUNCT,Z,punct
28,154-156,da,_,_,_,_,_,35,SCONJ,Cs,mark
29,157-159,se,_,_,*->4-2,*[4],_,35,PRON,Px------y,expl
30,160-162,biti,_,_,*->4-2,*[4],_,35,AUX,Va-r3s-n,aux
31,163-164,o,_,_,_,_,_,34,ADP,Sl,case
32,165-169,nov,_,_,_,_,_,34,ADJ,Agpfsl,amod
33,170-177,pogodba,_,_,_,_,_,35,NOUN,Ncfsl,obl
34,178-188,pogovarjati,_,_,_,_,_,27,VERB,Vmpp-sm,ccomp
35,189-199,neposredno,_,_,_,_,_,35,ADV,Rgp,advmod
36,200-201,z,_,_,_,_,_,38,ADP,Si,case
37,202-205,on,_,_,*->1-3,*[1],_,35,PRON,Pp3fsi,obl
38,206-207,.,_,_,_,_,_,35,PUNCT,Z,punct
39,208-216,notranji,_,_,*->1-4,*[1],_,41,ADJ,Agpfsn,amod
40,217-227,ministrica,_,_,*->1-4,*[1],_,35,NOUN,Ncfsn,nsubj
41,228-230,in,_,_,*->1-4,*[1],_,43,CCONJ,Cc,cc
42,231-242,predsednica,_,_,*->1-4,*[1],_,41,NOUN,Ncfsn,conj
43,243-246,LDS,ORG,_,*->1-4|*->6-1,*[1]|*[6],_,43,PROPN,Npfsg,nmod
44,247-255,Katarina,PER[3],_,*->1-4,*[1],_,41,PROPN,Npfsn,nmod
45,256-262,Kresal,PER[3],_,*->1-4,*[1],_,45,PROPN,Npfsn,flat:name
46,263-265,se,_,_,_,_,_,50,PRON,Px------y,expl
47,266-268,biti,_,_,_,_,_,50,AUX,Va-r3s-n,aux
48,269-274,ostro,_,_,_,_,_,50,ADV,Rgp,advmod
49,275-282,odzvati,_,_,_,_,_,4,VERB,Vmep-sf,parataxis
50,283-285,na,_,_,_,_,_,53,ADP,Sa,case
51,286-294,sinočnji,_,_,_,_,_,53,ADJ,Agpnsa,amod
52,295-304,poročanje,_,_,_,_,_,50,NOUN,Ncnsa,obl
53,305-306,v,_,_,_,_,_,55,ADP,Sl,case
54,307-314,medij,_,_,_,_,_,53,NOUN,Ncmpl,nmod
55,315-316,",",_,_,_,_,_,58,PUNCT,Z,punct
56,317-319,da,_,_,_,_,_,58,SCONJ,Cs,mark
57,320-324,želeti,_,_,_,_,_,55,VERB,Vmpr3s,acl
58,325-328,MNZ,ORG,_,*->2-2,*[2],_,60,PROPN,Npfsa,obj
59,329-337,skleniti,_,_,_,_,_,58,VERB,Vmen,xcomp
60,338-342,nov,_,_,_,_,_,62,ADJ,Agpfsa,amod
61,343-350,pogodba,_,_,_,_,_,60,NOUN,Ncfsa,obj
62,351-352,o,_,_,_,_,_,64,ADP,Sl,case
63,353-359,najem,_,_,_,_,_,62,NOUN,Ncmsl,nmod
64,360-366,stavba,_,_,_,_,_,64,NOUN,Ncfsg,nmod
65,367-379,nacionalen,ORG[4],_,*->3-2,*[3],_,68,ADJ,Agpmsg,amod
66,380-394,preiskovalen,ORG[4],_,*->3-2,*[3],_,68,ADJ,Agpmsg,amod
67,395-400,urad,ORG[4],_,*->3-2,*[3],_,65,NOUN,Ncmsg,nmod
68,401-402,(,_,_,_,_,_,70,PUNCT,Z,punct
69,403-406,NPU,ORG,_,*->3-3,*[3],_,68,PROPN,Npmsn,appos
70,407-408,),_,_,_,_,_,70,PUNCT,Z,punct
71,409-411,na,_,_,_,_,_,73,ADP,Sl,case
72,412-420,Dimičev,_,_,_,_,_,68,ADJ,Aspfsl,nmod
73,421-422,.,_,_,_,_,_,70,PUNCT,Z,punct
74,423-429,včeraj,_,_,_,_,_,78,ADV,Rgp,advmod
75,430-432,biti,_,_,_,_,_,78,AUX,Va-r3s-n,aux
76,433-439,namreč,_,_,_,_,_,78,CCONJ,Cc,advmod
77,440-446,priti,_,_,_,_,_,4,VERB,Vmep-sn,parataxis
78,447-449,na,_,_,_,_,_,80,ADP,Sa,case
79,450-453,dan,_,_,_,_,_,78,NOUN,Ncmsan,obl
80,454-455,",",_,_,_,_,_,112,PUNCT,Z,punct
81,456-458,da,_,_,_,_,_,112,SCONJ,Cs,mark
82,459-461,biti,_,_,_,_,_,90,AUX,Va-r3s-n,aux
83,462-472,Reiffeisen,ORG[5],_,*->5-2,*[5],_,90,PROPN,Npmsn,nsubj
84,473-480,Leasing,ORG[5],_,*->5-2,*[5],_,84,PROPN,Npmsn,flat:name
85,481-483,na,_,_,_,_,_,87,ADP,Sl,case
86,484-487,MNZ,ORG,_,*->2-3,*[2],_,90,PROPN,Npfsl,obl
87,488-493,sredi,_,_,_,_,_,89,ADP,Sg,case
88,494-498,maj,_,_,_,_,_,90,NOUN,Ncmsg,obl
89,499-505,poslati,_,_,_,_,_,78,VERB,Vmep-sm,csubj
90,506-512,uraden,_,_,_,_,_,92,ADJ,Agpmsay,amod
91,513-520,predlog,_,_,_,_,_,90,NOUN,Ncmsan,obj
92,521-528,pogodba,_,_,_,_,_,92,NOUN,Ncfsg,nmod
93,529-530,",",_,_,_,_,_,112,PUNCT,Z,punct
94,531-533,po,_,_,_,_,_,96,ADP,Sl,case
95,534-540,kateri,_,_,_,_,_,112,DET,Pq-fsl,obl
96,541-543,biti,_,_,*->5-3,*[5],_,112,AUX,Va-c,aux
97,544-546,od,_,_,_,_,_,100,ADP,Sg,case
98,547-557,trenuten,_,_,_,_,_,100,ADJ,Agpmsg,amod
99,558-566,lastnik,_,_,_,_,_,112,NOUN,Ncmsg,obl
100,567-570,Ram,ORG[6],0,*->7-1,*[7],3 - Nevtralno[25],100,PROPN,Npmsn,nmod
101,571-577,Invest,ORG[6],0,*->7-1,*[7],3 - Nevtralno[25],100,PROPN,Npmsg,nmod
102,578-579,",",_,_,_,_,_,106,PUNCT,Z,punct
103,580-582,ki,_,_,_,_,_,106,SCONJ,Cs,mark
104,583-585,on,_,_,_,_,_,106,PRON,Pp3msa--y,obj
105,586-590,voditi,_,_,_,_,_,100,VERB,Vmpr3s,acl
106,591-595,Igor,PER[7],0,*->8-1,*[8],3 - Nevtralno[26],106,PROPN,Npmsn,nsubj
107,596-601,Jurij,PER[7],0,*->8-1,*[8],3 - Nevtralno[26],107,PROPN,Npmsn,flat:name
108,602-609,Pogačar,PER[7],0,*->8-1,*[8],3 - Nevtralno[26],107,PROPN,Npmsn,flat:name
109,610-611,",",_,_,_,_,_,106,PUNCT,Z,punct
110,612-618,stavba,_,_,_,_,_,112,NOUN,Ncfsa,obj
111,619-627,odkupiti,_,_,_,_,_,93,VERB,Vmep-pm,acl
112,628-630,in,_,_,_,_,_,117,CCONJ,Cc,cc
113,631-633,on,_,_,_,_,_,117,PRON,Pp3fsa--y,obj
114,634-639,takoj,_,_,_,_,_,116,ADV,Rgp,advmod
115,640-645,znova,_,_,_,_,_,117,ADV,Rgp,advmod
116,646-650,dati,_,_,_,_,_,112,VERB,Vmep-pm,conj
117,651-652,v,_,_,_,_,_,119,ADP,Sl,case
118,653-658,najem,_,_,_,_,_,117,NOUN,Ncmsl,obl
119,659-665,država,_,_,_,_,_,119,NOUN,Ncfsl,nmod
120,666-668,po,_,_,_,_,_,123,ADP,Sl,case
121,669-679,ugoden,_,_,_,_,_,123,ADJ,Agcmpl,amod
122,680-687,pogoj,_,_,_,_,_,120,NOUN,Ncmpl,nmod
123,688-689,.,_,_,_,_,_,112,PUNCT,Z,punct
124,690-697,soboten,_,_,_,_,_,126,ADJ,Agpmsny,amod
125,698-705,kongres,_,_,_,_,_,130,NOUN,Ncmsn,nsubj
126,706-709,LDS,ORG,_,*->6-2,*[6],_,126,PROPN,Npfsg,nmod
127,710-712,biti,_,_,_,_,_,130,AUX,Va-r3s-n,aux
128,713-719,očitno,_,_,_,_,_,130,ADV,Rgp,advmod
129,720-728,prinesti,_,_,_,_,_,4,VERB,Vmep-sm,parataxis
130,729-733,nov,_,_,_,_,_,132,ADJ,Agpfsa,amod
131,734-744,priložnost,_,_,_,_,_,130,NOUN,Ncfsa,obj
132,745-746,",",_,_,_,_,_,140,PUNCT,Z,punct
133,747-749,da,_,_,_,_,_,140,SCONJ,Cs,mark
134,750-752,se,_,_,_,_,_,140,PRON,Px------y,expl
135,753-761,Katarina,PER[8],_,*->1-5,*[1],_,140,PROPN,Npfsa,obj
136,762-768,Kresal,PER[8],_,*->1-5,*[1],_,136,PROPN,Npfsa,flat:name
137,769-771,še,_,_,_,_,_,140,PART,Q,advmod
138,772-778,enkrat,_,_,_,_,_,140,ADV,Rgp,advmod
139,779-784,očrneti,_,_,_,_,_,132,VERB,Vmer3s,acl
140,785-786,.,_,_,_,_,_,140,PUNCT,Z,punct
141,787-789,da,_,_,_,_,_,144,SCONJ,Cs,mark
142,790-792,se,_,_,_,_,_,144,PRON,Px------y,expl
143,793-799,pokazati,_,_,_,_,_,140,VERB,Vmer3s,advcl
144,800-801,",",_,_,_,_,_,149,PUNCT,Z,punct
145,802-808,kakšen,_,_,_,_,_,147,DET,Pq-fsg,det
146,809-815,zarota,_,_,_,_,_,149,NOUN,Ncfpn,nsubj
147,816-819,ves,_,_,_,_,_,149,DET,Pg-nsn,nsubj
148,820-824,kujiti,_,_,*->1-6,*[1],_,144,VERB,Vmpr3s,ccomp
149,825-826,.,_,_,_,_,_,149,PUNCT,Z,punct
150,827-829,da,_,_,_,_,_,152,SCONJ,Cs,mark
151,830-834,delati,_,_,*->1-7,*[1],_,149,VERB,Vmpr3s,advcl
152,835-844,izključno,_,_,_,_,_,152,ADV,Rgp,advmod
153,845-846,v,_,_,_,_,_,156,ADP,Sa,case
154,847-852,svoj,_,_,_,_,_,156,DET,Px-nsa,det
155,853-858,dober,_,_,_,_,_,152,ADJ,Agpnsa,obl
156,859-860,.,_,_,_,_,_,165,PUNCT,Z,punct
157,861-863,da,_,_,_,_,_,160,SCONJ,Cs,mark
158,864-866,biti,_,_,*->1-8,*[1],_,160,AUX,Va-r3s-n,cop
159,867-873,sužnja,_,_,*->1-8,*[1],_,156,NOUN,Ncfsn,acl
160,874-878,elita,_,_,_,_,_,160,NOUN,Ncfpg,nmod
161,879-880,.,_,_,_,_,_,165,PUNCT,Z,punct
162,881-883,da,_,_,_,_,_,165,SCONJ,Cs,mark
163,884-886,biti,_,_,*->1-9,*[1],_,165,AUX,Va-r3s-n,cop
164,887-892,kriv,_,_,*->1-9,*[1],_,161,ADJ,Agpfsn,acl
165,893-895,za,_,_,_,_,_,167,ADP,Sa,case
166,896-899,ves,_,_,_,_,_,165,DET,Pg-nsa,obl
167,900-901,.,_,_,_,_,_,4,PUNCT,Z,punct
168,902-910,Katarina,PER[9],_,*->1-10,*[1],_,180,PROPN,Npfsn,nsubj
169,911-917,Kresal,PER[9],_,*->1-10,*[1],_,169,PROPN,Npfsn,flat:name
170,918-927,Kresalov,PER,_,*->1-11,*[1],_,180,ADJ,Aspfsn,nsubj
171,928-930,biti,_,_,_,_,_,180,AUX,Va-r3s-n,aux
172,931-932,v,_,_,_,_,_,174,ADP,Sl,case
173,933-938,blog,_,_,_,_,_,180,NOUN,Ncmsl,obl
174,939-941,na,_,_,_,_,_,177,ADP,Sl,case
175,942-949,spleten,_,_,_,_,_,177,ADJ,Agpfsl,amod
176,950-956,stran,_,_,_,_,_,174,NOUN,Ncfsl,nmod
177,957-960,LDS,ORG,_,*->6-3,*[6],_,177,PROPN,Npfsg,nmod
178,961-966,danes,_,_,_,_,_,180,ADV,Rgp,advmod
179,967-973,ovreči,_,_,_,_,_,4,VERB,Vmep-sf,parataxis
180,974-977,ves,_,_,_,_,_,182,DET,Pg-npa,det
181,978-989,namigovanje,_,_,_,_,_,180,NOUN,Ncnpa,obj
182,990-991,",",_,_,_,_,_,189,PUNCT,Z,punct
183,992-994,da,_,_,_,_,_,189,SCONJ,Cs,mark
184,995-997,za,_,_,_,_,_,186,ADP,Sa,case
185,998-1004,težnja,_,_,_,_,_,189,NOUN,Ncfsa,obl
186,1005-1015,Reiffeisen,ORG[10],_,*->5-4,*[5],_,186,PROPN,Npmsn,nmod
187,1016-1024,Leasing,ORG[10],_,*->5-4,*[5],_,187,PROPN,Npmsg,nmod
188,1025-1030,stati,_,_,_,_,_,182,VERB,Vmpr3s,acl
189,1031-1034,on,_,_,*->1-12,*[1],_,189,PRON,Pp3fsn,nsubj
190,1035-1039,sam,_,_,_,_,_,189,ADJ,Agpfsn,obl
191,1040-1041,",",_,_,_,_,_,205,PUNCT,Z,punct
192,1042-1047,potem,_,_,_,_,_,205,ADV,Rgp,mark
193,1048-1050,ko,_,_,_,_,_,193,SCONJ,Cs,fixed
194,1051-1053,on,_,_,*->1-13,*[1],_,205,PRON,Pp3fsd--y,iobj
195,1054-1063,opozicija,_,_,_,_,_,205,NOUN,Ncfsn,nsubj
196,1064-1066,in,_,_,_,_,_,205,CCONJ,Cc,cc
197,1067-1069,po,_,_,_,_,_,201,ADP,Sl,case
198,1070-1079,nekateri,_,_,_,_,_,201,DET,Pi-mpl,det
199,1080-1089,neuraden,_,_,_,_,_,201,ADJ,Agpmpl,amod
200,1090-1098,podatek,_,_,_,_,_,205,NOUN,Ncmpl,obl
201,1099-1103,tudi,_,_,_,_,_,205,PART,Q,advmod
202,1104-1112,računski,_,_,_,_,_,204,ADJ,Agpnsn,amod
203,1113-1120,sodišče,_,_,_,_,_,205,NOUN,Ncnsn,nsubj
204,1121-1128,očitati,_,_,_,_,_,189,VERB,Vmpr3d,advcl
205,1129-1141,negospodaren,_,_,_,_,_,208,ADJ,Agpfsa,amod
206,1142-1149,najemen,_,_,_,_,_,208,ADJ,Agpfsa,amod
207,1150-1157,pogodba,_,_,_,_,_,205,NOUN,Ncfsa,obj
208,1158-1159,.,_,_,_,_,_,4,PUNCT,Z,punct
209,1160-1161,"""",_,_,_,_,_,216,PUNCT,Z,punct
210,1162-1169,soboten,_,_,_,_,_,212,ADJ,Agpmsny,amod
211,1170-1177,kongres,_,_,_,_,_,216,NOUN,Ncmsn,nsubj
212,1178-1181,LDS,ORG,0,*->6-4,*[6],3 - Nevtralno,212,PROPN,Npfsg,nmod
213,1182-1184,biti,_,_,_,_,_,216,AUX,Va-r3s-n,aux
214,1185-1191,očitno,_,_,_,_,_,216,ADV,Rgp,advmod
215,1192-1200,prinesti,_,_,_,_,_,4,VERB,Vmep-sm,parataxis
216,1201-1205,nov,_,_,_,_,_,218,ADJ,Agpfsa,amod
217,1206-1216,priložnost,_,_,_,_,_,216,NOUN,Ncfsa,obj
218,1217-1218,",",_,_,_,_,_,226,PUNCT,Z,punct
219,1219-1221,da,_,_,_,_,_,226,SCONJ,Cs,mark
220,1222-1224,se,_,_,_,_,_,226,PRON,Px------y,expl
221,1225-1233,Katarina,PER[11],_,*->1-14,*[1],_,226,PROPN,Npfsa,obj
222,1234-1240,Kresal,PER[11],_,*->1-14,*[1],_,222,PROPN,Npfsa,flat:name
223,1241-1243,še,_,_,_,_,_,226,PART,Q,advmod
224,1244-1250,enkrat,_,_,_,_,_,226,ADV,Rgp,advmod
225,1251-1256,očrneti,_,_,_,_,_,218,VERB,Vmer3s,acl
226,1257-1258,.,_,_,_,_,_,226,PUNCT,Z,punct
227,1259-1261,da,_,_,_,_,_,230,SCONJ,Cs,mark
228,1262-1264,se,_,_,_,_,_,230,PRON,Px------y,expl
229,1265-1271,pokazati,_,_,_,_,_,226,VERB,Vmer3s,advcl
230,1272-1273,",",_,_,_,_,_,235,PUNCT,Z,punct
231,1274-1280,kakšen,_,_,_,_,_,233,DET,Pq-fsg,det
232,1281-1287,zarota,_,_,_,_,_,235,NOUN,Ncfpn,nsubj
233,1288-1291,ves,_,_,_,_,_,233,DET,Pg-nsn,det
234,1292-1296,kujiti,_,_,*->1-15,*[1],_,230,VERB,Vmpr3s,ccomp
235,1297-1298,.,_,_,_,_,_,235,PUNCT,Z,punct
236,1299-1301,da,_,_,_,_,_,238,SCONJ,Cs,mark
237,1302-1306,delati,_,_,*->1-16,*[1],_,235,VERB,Vmpr3s,advcl
238,1307-1316,izključno,_,_,_,_,_,238,ADV,Rgp,advmod
239,1317-1318,v,_,_,_,_,_,242,ADP,Sa,case
240,1319-1324,svoj,_,_,_,_,_,242,DET,Px-nsa,det
241,1325-1330,dober,_,_,_,_,_,238,ADJ,Agpnsa,obl
242,1331-1332,.,_,_,_,_,_,251,PUNCT,Z,punct
243,1333-1335,da,_,_,_,_,_,246,SCONJ,Cs,mark
244,1336-1338,biti,_,_,*->1-17,*[1],_,246,AUX,Va-r3s-n,cop
245,1339-1345,sužnja,_,_,*->1-17,*[1],_,242,NOUN,Ncfsn,acl
246,1346-1350,elita,_,_,_,_,_,246,NOUN,Ncfpg,nmod
247,1351-1352,.,_,_,_,_,_,251,PUNCT,Z,punct
248,1353-1355,da,_,_,_,_,_,251,SCONJ,Cs,mark
249,1356-1358,biti,_,_,*->1-18,*[1],_,251,AUX,Va-r3s-n,cop
250,1359-1364,kriv,_,_,*->1-18,*[1],_,238,ADJ,Agpfsn,advcl
251,1365-1367,za,_,_,_,_,_,253,ADP,Sa,case
252,1368-1371,ves,_,_,_,_,_,251,DET,Pg-nsa,obl
253,1372-1373,.,_,_,_,_,_,246,PUNCT,Z,punct
254,1374-1378,zato,_,_,_,_,_,261,CCONJ,Cc,cc
255,1379-1381,še,_,_,_,_,_,261,PART,Q,advmod
256,1382-1388,enkrat,_,_,_,_,_,261,ADV,Rgp,advmod
257,1389-1391,in,_,_,_,_,_,261,CCONJ,Cc,cc
258,1392-1394,da,_,_,_,_,_,261,SCONJ,Cs,mark
259,1395-1397,biti,_,_,_,_,_,261,AUX,Va-f3s-n,cop
260,1398-1403,jasen,_,_,_,_,_,251,ADJ,Agpnsn,conj
261,1404-1410,enkrat,_,_,_,_,_,261,ADV,Rgp,advmod
262,1411-1413,za,_,_,_,_,_,264,ADP,Sa,case
263,1414-1420,vselej,_,_,_,_,_,261,ADV,Rgp,advmod
264,1421-1422,:,_,_,_,_,_,271,PUNCT,Z,punct
265,1423-1434,ministrstvo,ORG[12],_,*->2-4,*[2],_,271,NOUN,Ncnsn,nsubj
266,1435-1437,za,ORG[12],_,*->2-4,*[2],_,269,ADP,Sa,case
267,1438-1446,notranji,ORG[12],_,*->2-4,*[2],_,269,ADJ,Agpfpa,amod
268,1447-1453,zadeva,ORG[12],_,*->2-4,*[2],_,266,NOUN,Ncfpa,nmod
269,1454-1456,biti,_,_,_,_,_,271,AUX,Va-r3s-y,aux
270,1457-1463,iskati,_,_,_,_,_,261,VERB,Vmpp-sn,csubj
271,1464-1466,in,_,_,_,_,_,274,CCONJ,Cc,cc
272,1467-1469,ne,_,_,_,_,_,274,PART,Q,advmod
273,1470-1474,iskati,_,_,_,_,_,271,VERB,Vmpr3s,conj
274,1475-1480,kupec,_,_,_,_,_,274,NOUN,Ncmsg,obj
275,1481-1483,za,_,_,_,_,_,277,ADP,Sa,case
276,1484-1490,stavba,_,_,_,_,_,275,NOUN,Ncfsa,nmod
277,1491-1494,NPU,ORG,0,*->3-4,*[3],3 - Nevtralno,277,PROPN,Npmsg,nmod
278,1495-1496,.,_,_,_,_,_,271,PUNCT,Z,punct
279,1497-1508,ministrstvo,ORG[13],_,*->2-5,*[2],_,286,NOUN,Ncnsn,nsubj
280,1509-1511,za,ORG[13],_,*->2-5,*[2],_,283,ADP,Sa,case
281,1512-1520,notranji,ORG[13],_,*->2-5,*[2],_,283,ADJ,Agpfpa,amod
282,1521-1527,zadeva,ORG[13],_,*->2-5,*[2],_,280,NOUN,Ncfpa,nmod
283,1528-1535,nihče,_,_,_,_,_,283,PRON,Pz-msg,nmod
284,1536-1538,biti,_,_,_,_,_,286,AUX,Va-r3s-y,aux
285,1539-1546,prositi,_,_,_,_,_,271,VERB,Vmpp-sn,conj
286,1547-1549,za,_,_,_,_,_,288,ADP,Sa,case
287,1550-1557,ponudba,_,_,_,_,_,286,NOUN,Ncfsa,obl
288,1558-1560,za,_,_,_,_,_,290,ADP,Sa,case
289,1561-1566,odkup,_,_,_,_,_,288,NOUN,Ncmsan,nmod
290,1567-1573,stavba,_,_,_,_,_,290,NOUN,Ncfsg,nmod
291,1574-1575,.,_,_,_,_,_,286,PUNCT,Z,punct
292,1576-1584,Katarina,PER[14],_,*->1-19,*[1],_,314,PROPN,Npfsn,nsubj
293,1585-1591,Kresal,PER[14],_,*->1-19,*[1],_,293,PROPN,Npfsn,flat:name
294,1592-1593,z,_,_,_,_,_,296,ADP,Si,case
295,1594-1601,nihče,_,_,_,_,_,286,PRON,Pz-msi,obl
296,1602-1604,iz,_,_,_,_,_,298,ADP,Sg,case
297,1605-1615,Raiffeisen,ORG[15],_,*->5-5,*[5],_,296,PROPN,Npfsg,nmod
298,1616-1623,Leasing,ORG[15],_,*->5-5,*[5],_,298,PROPN,Npmsg,nmod
299,1624-1629,glede,_,_,_,_,_,302,ADP,Sg,case
300,1630-1632,ta,_,_,_,_,_,302,DET,Pd-fsg,det
301,1633-1640,ponudba,_,_,_,_,_,299,NOUN,Ncfsg,nmod
302,1641-1643,biti,_,_,_,_,_,314,AUX,Va-r3s-y,aux
303,1644-1648,biti,_,_,_,_,_,307,AUX,Va-p-sf,cop
304,1649-1650,',_,_,_,_,_,307,PUNCT,Z,punct
305,1651-1652,v,_,_,_,_,_,307,ADP,Sl,case
306,1653-1659,stik,_,_,_,_,_,302,NOUN,Ncmpl,nmod
307,1660-1661,',_,_,_,_,_,307,PUNCT,Z,punct
308,1662-1663,.,_,_,_,_,_,293,PUNCT,Z,punct
309,1664-1665,"""",_,_,_,_,_,314,PUNCT,Z,punct
310,1666-1674,Katarina,PER[16],_,*->1-20,*[1],_,314,PROPN,Npfsn,nsubj
311,1675-1681,Kresal,PER[16],_,*->1-20,*[1],_,311,PROPN,Npfsn,flat:name
312,1682-1684,ne,_,_,_,_,_,314,PART,Q,advmod
313,1685-1690,poznati,_,_,_,_,_,307,VERB,Vmpr3s,acl
314,1691-1693,in,_,_,_,_,_,319,CCONJ,Cc,cc
315,1694-1700,doslej,_,_,_,_,_,319,ADV,Rgp,advmod
316,1701-1707,nikoli,_,_,_,_,_,319,ADV,Rgp,advmod
317,1708-1710,biti,_,_,_,_,_,319,AUX,Va-r3s-y,aux
318,1711-1718,slišati,_,_,_,_,_,314,VERB,Vmbp-sf,conj
319,1719-1721,za,_,_,_,_,_,321,ADP,Sa,case
320,1722-1734,predstavnik,_,_,*->4-3,*[4],_,319,NOUN,Ncmsay,obl
321,1735-1745,Raiffeisen,ORG[17],_,*->4-3|*->5-6,*[4]|*[5],_,321,PROPN,Npmsg,nmod
322,1746-1753,Leasing,ORG[17],_,*->4-3|*->5-6,*[4]|*[5],_,322,PROPN,Npmsg,nmod
323,1754-1755,z,_,_,_,_,_,325,ADP,Sg,case
324,1756-1762,Dunaj,LOC,_,*->9-1,*[9],_,321,PROPN,Npmsg,nmod
325,1763-1764,z,_,_,_,_,_,327,ADP,Si,case
326,1765-1771,ime,_,_,_,_,_,321,NOUN,Ncnsi,nmod
327,1772-1780,Johannes,PER[18],_,*->4-4,*[4],_,327,PROPN,Npmsn,nmod
328,1781-1785,Frei,PER[18],_,*->4-4,*[4],_,328,PROPN,Npmsn,flat:name
329,1786-1787,",",_,_,_,_,_,314,PUNCT,Z,punct
330,1788-1789,"""",_,_,_,_,_,332,PUNCT,Z,punct
331,1790-1799,nadaljevati,_,_,_,_,_,314,VERB,Vmpr3s,conj
332,1800-1809,Kresalov,PER,_,*->1-21,*[1],_,332,ADJ,Aspfsn,nsubj
333,1810-1811,",",_,_,_,_,_,338,PUNCT,Z,punct
334,1812-1813,z,_,_,_,_,_,336,ADP,Si,case
335,1814-1819,kar,_,_,_,_,_,338,PRON,Pr-nsi,obl
336,1820-1822,biti,_,_,*->1-22,*[1],_,338,AUX,Va-r3s-n,aux
337,1823-1831,zanikati,_,_,*->1-22,*[1],_,332,VERB,Vmep-sf,advcl
338,1832-1842,včerajšnji,_,_,_,_,_,340,ADJ,Agpnsa,amod
339,1843-1852,poročanje,_,_,_,_,_,338,NOUN,Ncnsa,obj
340,1853-1859,Kanal,ORG[19],0,*->10-1,*[10],3 - Nevtralno[27],340,PROPN,Npmsg,nmod
341,1860-1861,a,ORG[19],0,*->10-1,*[10],3 - Nevtralno[27],341,CCONJ,Cc,cc
342,1862-1863,",",_,_,_,_,_,348,PUNCT,Z,punct
343,1864-1866,za,_,_,_,_,_,345,ADP,Sa,case
344,1867-1875,kateri,_,_,_,_,_,348,DET,Pq-msa,obl
345,1876-1878,biti,_,_,_,_,_,348,AUX,Va-r3s-n,aux
346,1879-1883,Frei,PER,_,*->4-5,*[4],_,348,PROPN,Npmsn,nsubj
347,1884-1889,dejati,_,_,_,_,_,340,VERB,Vmep-sm,acl
348,1890-1891,",",_,_,_,_,_,355,PUNCT,Z,punct
349,1892-1894,da,_,_,_,_,_,355,SCONJ,Cs,mark
350,1895-1897,se,_,0,*->4-6,*[4],3 - Nevtralno,355,PRON,Px------y,expl
351,1898-1903,glede,_,_,_,_,_,354,ADP,Sg,case
352,1904-1908,nov,_,_,_,_,_,354,ADJ,Agpfsg,amod
353,1909-1916,pogodba,_,_,_,_,_,355,NOUN,Ncfsg,obl
354,1917-1923,pogajati,_,_,_,_,_,348,VERB,Vmpr3s,ccomp
355,1924-1934,neposredno,_,_,_,_,_,355,ADV,Rgp,advmod
356,1935-1936,z,_,_,_,_,_,358,ADP,Si,case
357,1937-1946,Kresalov,PER,_,*->1-23,*[1],_,355,ADJ,Aspfsi,obl
358,1947-1948,.,_,_,_,_,_,338,PUNCT,Z,punct
359,1949-1950,"""",_,_,_,_,_,361,PUNCT,Z,punct
360,1951-1959,Katarina,PER[20],_,*->1-24,*[1],_,377,PROPN,Npfsn,nsubj
361,1960-1966,Kresal,PER[20],_,*->1-24,*[1],_,361,PROPN,Npfsn,flat:name
362,1967-1969,se,_,_,_,_,_,377,PRON,Px------y,expl
363,1970-1971,z,_,_,_,_,_,365,ADP,Si,case
364,1972-1979,ponudba,_,_,_,_,_,377,NOUN,Ncfsi,obl
365,1980-1981,",",_,_,_,_,_,370,PUNCT,Z,punct
366,1982-1984,ki,_,_,_,_,_,370,SCONJ,Cs,mark
367,1985-1987,on,_,_,_,_,_,370,PRON,Pp3fsa--y,obj
368,1988-1990,biti,_,_,_,_,_,370,AUX,Va-r3s-n,aux
369,1991-1998,poslati,_,_,_,_,_,365,VERB,Vmep-sf,acl
370,1999-2009,Raiffeisen,ORG[21],_,*->5-7,*[5],_,370,PROPN,Npfsn,nsubj
371,2010-2017,Leasing,ORG[21],_,*->5-7,*[5],_,371,PROPN,Npmsn,nmod
372,2018-2019,z,_,_,_,_,_,374,ADP,Sg,case
373,2020-2026,Dunaj,LOC,_,*->9-2,*[9],_,372,PROPN,Npmsg,nmod
374,2027-2028,",",_,_,_,_,_,370,PUNCT,Z,punct
375,2029-2031,biti,_,_,_,_,_,377,AUX,Va-r3s-y,aux
376,2032-2041,ukvarjati,_,_,_,_,_,358,VERB,Vmpp-sf,acl
377,2042-2043,",",_,_,_,_,_,370,PUNCT,Z,punct
378,2044-2050,temveč,_,_,_,_,_,384,CCONJ,Cc,cc
379,2051-2053,biti,_,_,_,_,_,384,AUX,Va-r3p-n,aux
380,2054-2056,on,_,_,_,_,_,384,PRON,Pp3fsa--y,obj
381,2057-2058,v,_,_,_,_,_,383,ADP,Sa,case
382,2059-2068,obravnava,_,_,_,_,_,384,NOUN,Ncfsa,obl
383,2069-2077,prevzeti,_,_,_,_,_,377,VERB,Vmep-pf,conj
384,2078-2087,strokoven,_,_,_,_,_,386,ADJ,Agpfpn,amod
385,2088-2094,služba,_,_,_,_,_,384,NOUN,Ncfpn,nsubj
386,2095-2106,ministrstvo,_,_,*->2-6,*[2],_,386,NOUN,Ncnsg,nmod
387,2107-2108,.,_,_,_,_,_,377,PUNCT,Z,punct
388,2109-2120,ministrstvo,ORG[22],_,*->2-7,*[2],_,396,NOUN,Ncnsn,nsubj
389,2121-2123,za,ORG[22],_,*->2-7,*[2],_,392,ADP,Sa,case
390,2124-2132,notranji,ORG[22],_,*->2-7,*[2],_,392,ADJ,Agpfpa,amod
391,2133-2139,zadeva,ORG[22],_,*->2-7,*[2],_,389,NOUN,Ncfpa,nmod
392,2140-2142,za,_,_,_,_,_,394,ADP,Sa,case
393,2143-2148,odkup,_,_,_,_,_,392,NOUN,Ncmsan,nmod
394,2149-2155,stavba,_,_,_,_,_,394,NOUN,Ncfsg,nmod
395,2156-2160,imeti,_,_,_,_,_,384,VERB,Vmpr3s-y,conj
396,2161-2168,denar,_,_,_,_,_,396,NOUN,Ncmsg,obj
397,2169-2170,",",_,_,_,_,_,396,PUNCT,Z,punct
398,2171-2175,zato,_,_,_,_,_,403,CCONJ,Cc,cc
399,2176-2178,za,_,_,_,_,_,401,ADP,Sa,case
400,2179-2181,ta,_,_,_,_,_,403,DET,Pd-nsa,obl
401,2182-2187,sploh,_,_,_,_,_,403,PART,Q,advmod
402,2188-2190,biti,_,_,_,_,_,396,VERB,Va-r3s-y,conj
403,2191-2199,možnost,_,_,_,_,_,403,NOUN,Ncfsg,nsubj
404,2200-2201,.,_,_,_,_,_,396,PUNCT,Z,punct
405,2202-2204,biti,_,_,_,_,_,411,AUX,Va-f3s-n,aux
406,2205-2207,pa,_,_,_,_,_,411,CCONJ,Cc,advmod
407,2208-2219,ministrstvo,_,_,*->2-8,*[2],_,411,NOUN,Ncnsn,nsubj
408,2220-2226,uraden,_,_,_,_,_,410,ADJ,Agpfsa,amod
409,2227-2234,ponudba,_,_,_,_,_,411,NOUN,Ncfsa,obj
410,2235-2243,preučiti,_,_,_,_,_,403,VERB,Vmep-sn,conj
411,2244-2245,",",_,_,_,_,_,411,PUNCT,Z,punct
412,2246-2248,se,_,_,_,_,_,416,PRON,Px------y,expl
413,2249-2250,o,_,_,_,_,_,415,ADP,Sl,case
414,2251-2255,on,_,_,_,_,_,416,PRON,Pp3fsl,obl
415,2256-2267,posvetovati,_,_,_,_,_,411,VERB,Vmpp-sn,advcl
416,2268-2269,z,_,_,_,_,_,419,ADP,Si,case
417,2270-2281,pristojen,_,_,_,_,_,419,ADJ,Agpmpi,amod
418,2282-2289,resor,_,_,_,_,_,416,NOUN,Ncmpi,obl
419,2290-2292,in,_,_,_,_,_,423,CCONJ,Cc,cc
420,2293-2298,name,_,_,_,_,_,423,PRON,Pp3fsa--b,obj
421,2299-2305,uradno,_,_,_,_,_,423,ADV,Rgp,advmod
422,2306-2316,odgovoriti,_,_,_,_,_,416,VERB,Vmep-sn,conj
423,2317-2318,.,_,_,_,_,_,411,PUNCT,Z,punct
424,2319-2321,ne,_,_,*->1-25,*[1],_,426,PART,Q,advmod
425,2322-2325,vedeti,_,_,*->1-25,*[1],_,416,VERB,Vmpr1s,conj
426,2326-2327,",",_,_,_,_,_,435,PUNCT,Z,punct
427,2328-2333,zakaj,_,_,_,_,_,435,ADV,Rgp,advmod
428,2334-2336,biti,_,_,_,_,_,435,AUX,Va-r3s-n,aux
429,2337-2347,Raiffeisen,ORG[23],2,*->5-8,*[5],2 - Negativno[28],435,PROPN,Npmsn,nsubj
430,2348-2355,Leasing,ORG[23],2,*->5-8,*[5],2 - Negativno[28],430,PROPN,Npmsn,nmod
431,2356-2357,z,_,_,_,_,_,433,ADP,Sg,case
432,2358-2364,Dunaj,LOC,0,*->9-3,*[9],3 - Nevtralno,435,PROPN,Npmsg,obl
433,2365-2372,ponudba,_,_,_,_,_,435,NOUN,Ncfsa,obj
434,2373-2379,poslati,_,_,_,_,_,426,VERB,Vmep-sm,ccomp
435,2380-2382,na,_,_,_,_,_,437,ADP,Sa,case
436,2383-2394,ministrstvo,ORG[24],0,*->2-9,*[2],3 - Nevtralno[29],435,NOUN,Ncnsa,obl
437,2395-2397,za,ORG[24],0,*->2-9,*[2],3 - Nevtralno[29],440,ADP,Sa,case
438,2398-2406,notranji,ORG[24],0,*->2-9,*[2],3 - Nevtralno[29],440,ADJ,Agpfpa,amod
439,2407-2413,zadeva,ORG[24],0,*->2-9,*[2],3 - Nevtralno[29],437,NOUN,Ncfpa,nmod
440,2414-2415,.,_,_,_,_,_,416,PUNCT,Z,punct
441,2416-2418,ne,_,_,*->1-26,*[1],_,443,PART,Q,advmod
442,2419-2422,vedeti,_,_,*->1-26,*[1],_,435,VERB,Vmpr1s,conj
443,2423-2424,",",_,_,_,_,_,448,PUNCT,Z,punct
444,2425-2430,zakaj,_,_,_,_,_,448,ADV,Rgp,advmod
445,2431-2433,on,_,_,_,_,_,448,PRON,Pp3fsg--y,obj
446,2434-2438,biti,_,_,_,_,_,448,AUX,Va-r3p-y,aux
447,2439-2446,poslati,_,_,_,_,_,443,VERB,Vmep-pm,ccomp
448,2447-2455,lastnik,_,_,_,_,_,448,NOUN,Ncmsd,obj
449,2456-2457,",",_,_,_,_,_,448,PUNCT,Z,punct
450,2458-2459,"""",_,_,_,_,_,453,PUNCT,Z,punct
451,2460-2462,še,_,_,_,_,_,453,PART,Q,advmod
452,2463-2467,pisati,_,_,_,_,_,443,VERB,Vmpr3s,ccomp
453,2468-2477,Kresalov,PER,2,*->1-27,*[1],2 - Negativno,453,ADJ,Aspfsn,nsubj
