idx,chars_idx,token,entity_type,sentiment,idk_1,idk_2,orig_sentiment,heads,upos,xpos,deprel
0,0-5,banka,_,_,_,_,_,3,NOUN,Ncfpn,nsubj
1,6-8,biti,_,_,_,_,_,3,AUX,Va-r3p-n,aux
2,9-16,prejeti,_,_,_,_,_,0,VERB,Vmep-pf,root
3,17-21,osem,_,_,_,_,_,6,NUM,Mlc-pa,nummod
4,22-35,nezavezujoč,_,_,_,_,_,6,ADJ,Appfpg,amod
5,36-42,ponudba,_,_,_,_,_,3,NOUN,Ncfpg,obj
6,43-45,za,_,_,_,_,_,8,ADP,Sa,case
7,46-51,nakup,_,_,_,_,_,6,NOUN,Ncmsan,nmod
8,52-57,dober,_,_,_,_,_,10,ADJ,Agpfsg,amod
9,58-66,tretjina,_,_,_,_,_,8,NOUN,Ncfsg,nmod
10,67-77,Mercator,ORG,_,*->16-1,*[16],_,10,PROPN,Npmsg,nmod
11,78-79,.,_,_,_,_,_,13,PUNCT,Z,punct
12,80-86,želeti,_,_,*->16-2,*[16],_,3,VERB,Vmpr1p,parataxis
13,87-89,se,_,_,_,_,_,13,PRON,Px---d--y,expl
14,90-98,lastnik,_,_,_,_,_,13,NOUN,Ncmpa,obj
15,99-100,",",_,_,_,_,_,19,PUNCT,Z,punct
16,101-103,ki,_,_,_,_,_,19,SCONJ,Cs,mark
17,104-108,biti,_,_,_,_,_,19,AUX,Va-f3p-n,cop
18,109-117,sposoben,_,_,_,_,_,15,ADJ,Agpmpn,acl
19,118-122,tudi,_,_,_,_,_,19,PART,Q,advmod
20,123-126,kaj,_,_,_,_,_,22,PRON,Pq-nsa,obj
21,127-131,dati,_,_,_,_,_,19,VERB,Vmen,ccomp
22,132-133,",",_,_,_,_,_,19,PUNCT,Z,punct
23,134-136,ne,_,_,_,_,_,26,PART,Q,advmod
24,137-141,samo,_,_,_,_,_,24,PART,Q,fixed
25,142-148,jemati,_,_,_,_,_,19,VERB,Vmpn,conj
26,149-150,",",_,_,_,_,_,19,PUNCT,Z,punct
27,151-153,biti,_,_,_,_,_,29,AUX,Va-r3s-n,aux
28,154-161,povedati,_,_,_,_,_,3,VERB,Vmep-sm,parataxis
29,162-166,prvi,_,_,*->9-1,*[9],_,31,ADJ,Mlomsn,amod
30,167-170,mož,_,_,*->9-1,*[9],_,29,NOUN,Ncmsn,nsubj
31,171-177,družba,_,_,*->9-1|*->16-3,*[9]|*[16],_,31,NOUN,Ncfsg,nmod
32,178-186,Debeljak,PER,_,*->9-1,*[9],_,32,PROPN,Npmsn,nmod
33,187-188,.,_,_,_,_,_,29,PUNCT,Z,punct
34,189-196,skupina,_,_,_,_,_,29,NOUN,Ncfsn,nsubj
35,197-201,banka,_,_,_,_,_,35,NOUN,Ncfpg,nmod
36,202-203,",",_,_,_,_,_,39,PUNCT,Z,punct
37,204-206,ki,_,_,_,_,_,39,SCONJ,Cs,mark
38,207-210,imeti,_,_,_,_,_,35,VERB,Vmpr3s-n,acl
39,211-212,v,_,_,_,_,_,41,ADP,Sl,case
40,213-218,last,_,_,_,_,_,39,NOUN,Ncfsl,obl
41,219-225,skupaj,_,_,_,_,_,39,ADV,Rgp,advmod
42,226-228,36,_,_,_,_,_,45,NUM,Mdc,nummod
43,229-230,-,_,_,_,_,_,45,PUNCT,Z,punct
44,231-239,odstoten,_,_,_,_,_,46,ADJ,Agpmsay,amod
45,240-245,delež,_,_,_,_,_,39,NOUN,Ncmsan,obj
46,246-256,Mercator,ORG,_,*->16-4,*[16],_,46,PROPN,Npmsg,nmod
47,257-258,",",_,_,_,_,_,39,PUNCT,Z,punct
48,259-261,biti,_,_,_,_,_,54,AUX,Va-r3s-n,aux
49,262-264,do,_,_,_,_,_,52,ADP,Sg,case
50,265-279,ponedeljkov,_,_,_,_,_,52,ADJ,Aspmsg,amod
51,280-286,iztekati,_,_,_,_,_,54,NOUN,Ncmsg,obl
52,287-291,roka,_,_,_,_,_,52,NOUN,Ncmsg,nmod
53,292-299,prejeti,_,_,_,_,_,3,VERB,Vmep-sf,parataxis
54,300-304,osem,_,_,_,_,_,57,NUM,Mlc-pa,nummod
55,305-318,nezavezujoč,_,_,_,_,_,57,ADJ,Appfpg,amod
56,319-325,ponudba,_,_,_,_,_,54,NOUN,Ncfpg,obj
57,326-328,za,_,_,_,_,_,59,ADP,Sa,case
58,329-334,nakup,_,_,_,_,_,57,NOUN,Ncmsan,nmod
59,335-345,omenjen,_,_,_,_,_,61,ADJ,Appmsg,amod
60,346-352,delež,_,_,_,_,_,59,NOUN,Ncmsg,nmod
61,353-354,v,_,_,_,_,_,66,ADP,Sl,case
62,355-363,velik,_,_,*->16-5,*[16],_,66,ADJ,Agsfsl,amod
63,364-373,slovenski,_,_,*->16-5,*[16],_,66,ADJ,Agpfsl,amod
64,374-382,trgovski,_,_,*->16-5,*[16],_,66,ADJ,Agpfsl,amod
65,383-389,družba,_,_,*->16-5,*[16],_,61,NOUN,Ncfsl,nmod
66,390-391,",",_,_,_,_,_,19,PUNCT,Z,punct
67,392-394,biti,_,_,_,_,_,69,AUX,Va-r3p-n,aux
68,395-404,sporočiti,_,_,_,_,_,3,VERB,Vmep-pm,parataxis
69,405-407,iz,_,_,_,_,_,71,ADP,Sg,case
70,408-416,podjetje,_,_,*->20-1,*[20],_,69,NOUN,Ncnsg,obl
71,417-422,Arkas,ORG,_,*->20-1,*[20],_,71,PROPN,Npmsn,nmod
72,423-424,.,_,_,_,_,_,76,PUNCT,Z,punct
73,425-428,kdo,_,_,_,_,_,76,PRON,Pq-msn,nsubj
74,429-431,biti,_,_,_,_,_,76,AUX,Va-r3p-n,cop
75,432-441,ponudnik,_,_,_,_,_,71,NOUN,Ncmpn,acl
76,442-443,",",_,_,_,_,_,78,PUNCT,Z,punct
77,444-449,banka,_,_,_,_,_,76,NOUN,Ncfpn,conj
78,450-452,še,_,_,_,_,_,82,PART,Q,advmod
79,453-455,ne,_,_,_,_,_,82,PART,Q,advmod
80,456-460,biti,_,_,_,_,_,82,AUX,Va-f3p-n,aux
81,461-469,razkriti,_,_,_,_,_,76,VERB,Vmep-pf,acl
82,470-471,.,_,_,_,_,_,76,PUNCT,Z,punct
83,472-473,v,_,_,_,_,_,85,ADP,Sa,case
84,474-481,javnost,_,_,_,_,_,87,NOUN,Ncfsa,obl
85,482-484,biti,_,_,_,_,_,87,AUX,Va-r3s-n,aux
86,485-496,pricurljati,_,_,_,_,_,3,VERB,Vmpp-sf,parataxis
87,497-508,informacija,_,_,_,_,_,87,NOUN,Ncfsn,nsubj
88,509-510,",",_,_,_,_,_,105,PUNCT,Z,punct
89,511-513,da,_,_,_,_,_,105,SCONJ,Cs,mark
90,514-516,biti,_,_,_,_,_,105,AUX,Va-r3p-n,aux
91,517-520,med,_,_,_,_,_,94,ADP,Si,case
92,521-534,potencialen,_,_,_,_,_,94,ADJ,Agpmpi,amod
93,535-540,kupec,_,_,_,_,_,97,NOUN,Ncmpi,obl
94,541-545,tako,_,_,_,_,_,96,ADV,Rgp,advmod
95,546-554,finančen,_,_,_,_,_,97,ADJ,Agpmpn,amod
96,555-567,investitor,_,_,_,_,_,76,NOUN,Ncmpn,nsubj
97,568-571,kot,_,_,_,_,_,100,SCONJ,Cs,case
98,572-580,trgovski,_,_,_,_,_,100,ADJ,Agpfpn,amod
99,581-587,veriga,_,_,_,_,_,97,NOUN,Ncfpn,obl
100,588-589,",",_,_,_,_,_,105,PUNCT,Z,punct
101,590-593,med,_,_,_,_,_,103,ADP,Si,case
102,594-599,on,_,_,_,_,_,105,PRON,Pp3mpi,obl
103,600-602,pa,_,_,_,_,_,105,CCONJ,Cc,advmod
104,603-605,biti,_,_,_,_,_,100,VERB,Va-r3s-y,acl
105,606-615,Slovenec,_,_,_,_,_,105,PROPN,Npmpg,nsubj
106,616-617,.,_,_,_,_,_,105,PUNCT,Z,punct
107,618-622,zdaj,_,_,_,_,_,120,ADV,Rgp,advmod
108,623-625,biti,_,_,_,_,_,130,AUX,Va-r3s-n,aux
109,626-628,na,_,_,_,_,_,111,ADP,Sl,case
110,629-634,vrsta,_,_,_,_,_,120,NOUN,Ncfsl,obl
111,635-646,preučevanje,_,_,_,_,_,105,NOUN,Ncnsn,nsubj
112,647-653,ponudba,_,_,_,_,_,112,NOUN,Ncfpg,nmod
113,654-655,",",_,_,_,_,_,120,PUNCT,Z,punct
114,656-664,izbran,_,_,_,_,_,116,ADJ,Appmpd,amod
115,665-675,ponudnik,_,_,_,_,_,120,NOUN,Ncmpd,iobj
116,676-679,naj,_,_,_,_,_,120,PART,Q,advmod
117,680-682,biti,_,_,_,_,_,120,AUX,Va-c,aux
118,683-688,marec,_,_,_,_,_,120,NOUN,Ncmsg,obl
119,689-698,omogočiti,_,_,_,_,_,112,VERB,Vmep-pm,acl
120,699-706,izvedba,_,_,_,_,_,120,NOUN,Ncfsa,obj
121,707-715,skrben,_,_,_,_,_,123,ADJ,Agpmsg,amod
122,716-724,pregled,_,_,_,_,_,121,NOUN,Ncmsg,nmod
123,725-731,družba,_,_,*->16-6,*[16],_,123,NOUN,Ncfsg,nmod
124,732-740,Mercator,ORG,_,*->16-6,*[16],_,124,PROPN,Npmsn,nmod
125,741-742,.,_,_,_,_,_,120,PUNCT,Z,punct
126,743-749,uprava,_,_,_,_,_,130,NOUN,Ncfsn,nsubj
127,750-760,Mercator,ORG,_,*->16-7,*[16],_,127,PROPN,Npmsg,nmod
128,761-763,se,_,_,_,_,_,130,PRON,Px---d--y,expl
129,764-768,želeti,_,_,_,_,_,3,VERB,Vmpr3s,parataxis
130,769-777,finančen,_,_,_,_,_,132,ADV,Rgp,advmod
131,778-783,močen,_,_,_,_,_,133,ADJ,Agpmpa,amod
132,784-792,lastnik,_,_,_,_,_,148,NOUN,Ncmpa,obj
133,793-797,Žiga,PER[1],_,*->9-2,*[9],_,133,PROPN,Npmsn,nmod
134,798-806,Debeljak,PER[1],_,*->9-2,*[9],_,134,PROPN,Npmsn,flat:name
135,807-808,v,_,_,_,_,_,137,ADP,Sl,case
136,809-819,Mercator,ORG,_,*->16-8,*[16],_,139,PROPN,Npmsl,obl
137,820-822,se,_,_,_,_,_,139,PRON,Px---d--y,expl
138,823-829,želeti,_,_,_,_,_,130,VERB,Vmpr3p,conj
139,830-838,lastnik,_,_,_,_,_,139,NOUN,Ncmpa,obj
140,839-840,",",_,_,_,_,_,145,PUNCT,Z,punct
141,841-843,ki,_,_,_,_,_,145,SCONJ,Cs,mark
142,844-848,biti,_,_,_,_,_,145,AUX,Va-f3p-n,cop
143,849-855,družba,_,_,*->16-9,*[16],_,145,NOUN,Ncfpn,nsubj
144,856-864,sposoben,_,_,_,_,_,140,ADJ,Agpmpn,acl
145,865-869,tudi,_,_,_,_,_,145,PART,Q,advmod
146,870-873,kaj,_,_,_,_,_,148,PRON,Pq-nsa,obj
147,874-878,dati,_,_,_,_,_,145,VERB,Vmen,ccomp
148,879-880,",",_,_,_,_,_,145,PUNCT,Z,punct
149,881-883,ne,_,_,_,_,_,152,PART,Q,advmod
150,884-888,samo,_,_,_,_,_,150,PART,Q,fixed
151,889-895,jemati,_,_,_,_,_,145,VERB,Vmpn,advcl
152,896-897,",",_,_,_,_,_,152,PUNCT,Z,punct
153,898-900,biti,_,_,_,_,_,155,AUX,Va-r3s-n,aux
154,901-908,povedati,_,_,_,_,_,3,VERB,Vmep-sm,parataxis
155,909-913,prvi,_,_,*->9-3,*[9],_,157,ADJ,Mlomsn,amod
156,914-917,mož,_,_,*->9-3,*[9],_,155,NOUN,Ncmsn,nsubj
157,918-928,Mercator,ORG,_,*->9-3|*->16-10,*[9]|*[16],_,157,PROPN,Npmsg,nmod
158,929-933,Žiga,PER[2],_,*->9-3,*[9],_,157,PROPN,Npmsn,nmod
159,934-942,Debeljak,PER[2],_,*->9-3,*[9],_,159,PROPN,Npmsn,flat:name
160,943-944,.,_,_,_,_,_,152,PUNCT,Z,punct
161,945-951,uprava,_,_,_,_,_,165,NOUN,Ncfsn,nsubj
162,952-962,Mercator,ORG,_,*->16-11,*[16],_,162,PROPN,Npmsg,nmod
163,963-965,se,_,_,_,_,_,165,PRON,Px---d--y,expl
164,966-970,želeti,_,_,_,_,_,3,VERB,Vmpr3s,parataxis
165,971-979,stabilen,_,_,_,_,_,167,ADJ,Agpnsa,amod
166,980-990,lastništvo,_,_,_,_,_,165,NOUN,Ncnsa,obj
167,991-993,in,_,_,_,_,_,173,CCONJ,Cc,cc
168,994-999,resen,_,_,_,_,_,173,ADJ,Agpmpa,amod
169,1000-1001,",",_,_,_,_,_,172,PUNCT,Z,punct
170,1002-1010,finančen,_,_,_,_,_,172,ADV,Rgp,advmod
171,1011-1016,močen,_,_,_,_,_,169,ADJ,Agpmpa,conj
172,1017-1025,lastnik,_,_,_,_,_,167,NOUN,Ncmpa,conj
173,1026-1027,",",_,_,_,_,_,177,PUNCT,Z,punct
174,1028-1030,ki,_,_,_,_,_,177,SCONJ,Cs,mark
175,1031-1035,biti,_,_,_,_,_,177,AUX,Va-f3p-n,aux
176,1036-1045,omogočiti,_,_,_,_,_,173,VERB,Vmep-pm,acl
177,1046-1058,nadaljevanje,_,_,_,_,_,177,NOUN,Ncnsa,obj
178,1059-1071,samostojen,_,_,_,_,_,180,ADJ,Agpmsg,amod
179,1072-1079,razvoj,_,_,_,_,_,178,NOUN,Ncmsg,nmod
180,1080-1090,Mercator,ORG,_,*->16-12,*[16],_,180,PROPN,Npmsg,nmod
181,1091-1094,kot,_,_,_,_,_,184,SCONJ,Cs,case
182,1095-1104,vodilen,_,_,*->16-13,*[16],_,184,ADJ,Agpmsg,amod
183,1105-1112,trgovec,_,_,*->16-13,*[16],_,180,NOUN,Ncmsg,nmod
184,1113-1114,v,_,_,_,_,_,186,ADP,Sl,case
185,1115-1121,regija,_,_,_,_,_,184,NOUN,Ncfsl,nmod
186,1122-1123,",",_,_,_,_,_,177,PUNCT,Z,punct
187,1124-1126,biti,_,_,_,_,_,189,AUX,Va-r3s-n,aux
188,1127-1134,povedati,_,_,_,_,_,3,VERB,Vmep-sm,parataxis
189,1135-1139,prvi,_,_,*->9-4,*[9],_,191,ADJ,Mlomsn,amod
190,1140-1143,mož,_,_,*->9-4,*[9],_,189,NOUN,Ncmsn,nsubj
191,1144-1150,družba,_,_,*->9-4|*->16-14,*[9]|*[16],_,191,NOUN,Ncfsg,nmod
192,1151-1155,Žiga,PER[3],_,*->9-4,*[9],_,191,PROPN,Npmsn,nmod
193,1156-1164,Debeljak,PER[3],_,*->9-4,*[9],_,193,PROPN,Npmsn,flat:name
194,1165-1166,.,_,_,_,_,_,189,PUNCT,Z,punct
195,1167-1174,vodstvo,_,_,_,_,_,201,NOUN,Ncnsn,nsubj
196,1175-1176,v,_,_,_,_,_,198,ADP,Sa,case
197,1177-1185,postopek,_,_,_,_,_,196,NOUN,Ncmpa,nmod
198,1186-1193,prodaja,_,_,_,_,_,198,NOUN,Ncfsg,nmod
199,1194-1196,biti,_,_,_,_,_,201,AUX,Va-r3s-y,cop
200,1197-1206,vključen,_,_,_,_,_,3,ADJ,Appnsn,parataxis
201,1207-1208,",",_,_,_,_,_,201,PUNCT,Z,punct
202,1209-1210,v,_,_,_,_,_,204,ADP,Sl,case
203,1211-1217,okvir,_,_,_,_,_,216,NOUN,Ncmsl,obl
204,1218-1225,priprava,_,_,_,_,_,204,NOUN,Ncfpg,nmod
205,1226-1228,na,_,_,_,_,_,208,ADP,Sa,case
206,1229-1238,morebiten,_,_,_,_,_,208,ADJ,Agpfsa,amod
207,1239-1255,dokapitalizacija,_,_,_,_,_,205,NOUN,Ncfsa,nmod
208,1256-1258,za,_,_,_,_,_,211,ADP,Sa,case
209,1259-1268,strateški,_,_,_,_,_,211,ADJ,Agpfpa,amod
210,1269-1277,povezava,_,_,_,_,_,208,NOUN,Ncfpa,nmod
211,1278-1280,pa,_,_,_,_,_,214,CCONJ,Cc,advmod
212,1281-1283,biti,_,_,_,_,_,214,AUX,Va-f3s-n,aux
213,1284-1294,pripraviti,_,_,_,_,_,3,VERB,Vmep-sn,parataxis
214,1295-1298,ves,_,_,_,_,_,214,DET,Pg-nsn,nsubj
215,1299-1307,potreben,_,_,_,_,_,214,ADJ,Agpnsn,xcomp
216,1308-1310,za,_,_,_,_,_,219,ADP,Sa,case
217,1311-1317,skrben,_,_,_,_,_,219,ADJ,Agpmsay,amod
218,1318-1325,pregled,_,_,_,_,_,216,NOUN,Ncmsan,obl
219,1326-1332,družba,_,_,*->16-15,*[16],_,219,NOUN,Ncfsg,nmod
220,1333-1334,",",_,_,_,_,_,224,PUNCT,Z,punct
221,1335-1337,biti,_,_,*->9-5,*[9],_,224,AUX,Va-r3s-n,aux
222,1338-1340,še,_,_,_,_,_,224,PART,Q,advmod
223,1341-1348,povedati,_,_,_,_,_,3,VERB,Vmep-sm,parataxis
224,1349-1350,.,_,_,_,_,_,224,PUNCT,Z,punct
225,1351-1354,pod,_,_,_,_,_,228,ADP,Si,case
226,1355-1363,kakšen,_,_,_,_,_,228,DET,Pq-mpi,det
227,1364-1370,pogoj,_,_,_,_,_,232,NOUN,Ncmpi,obl
228,1371-1373,in,_,_,_,_,_,230,CCONJ,Cc,cc
229,1374-1378,kdo,_,_,_,_,_,232,PRON,Pq-msd,mark
230,1379-1383,biti,_,_,_,_,_,232,AUX,Va-f3p-n,aux
231,1384-1392,dovoliti,_,_,_,_,_,224,VERB,Vmep-pm,ccomp
232,1393-1400,vpogled,_,_,_,_,_,232,NOUN,Ncmsan,obj
233,1401-1402,v,_,_,_,_,_,235,ADP,Sa,case
234,1403-1411,drobovje,_,_,_,_,_,233,NOUN,Ncnsa,nmod
235,1412-1422,Mercator,ORG,_,*->16-16,*[16],_,235,PROPN,Npmsg,nmod
236,1423-1424,",",_,_,_,_,_,232,PUNCT,Z,punct
237,1425-1427,se,_,_,_,_,_,240,PRON,Px------y,expl
238,1428-1432,biti,_,_,_,_,_,240,AUX,Va-f3p-n,aux
239,1433-1441,odločati,_,_,_,_,_,3,VERB,Vmpp-pm,parataxis
240,1442-1451,posamičen,_,_,_,_,_,240,ADV,Rgp,advmod
241,1452-1454,in,_,_,_,_,_,244,CCONJ,Cc,cc
242,1455-1457,po,_,_,_,_,_,244,ADP,Sl,case
243,1458-1466,pregled,_,_,_,_,_,241,NOUN,Ncmsl,conj
244,1467-1474,seznam,_,_,_,_,_,244,NOUN,Ncmsg,nmod
245,1475-1487,interesent,_,_,_,_,_,245,NOUN,Ncmpg,nmod
246,1488-1489,.,_,_,_,_,_,232,PUNCT,Z,punct
247,1490-1498,Debeljak,PER,1,*->9-6,*[9],4 - Pozitivno,253,PROPN,Npmsn,nsubj
248,1499-1501,biti,_,_,_,_,_,253,AUX,Va-r3s-n,aux
249,1502-1504,ob,_,_,_,_,_,251,ADP,Sl,case
250,1505-1508,ta,_,_,_,_,_,253,DET,Pd-nsl,obl
251,1509-1511,še,_,_,_,_,_,253,PART,Q,advmod
252,1512-1517,dejati,_,_,_,_,_,240,VERB,Vmep-sm,conj
253,1518-1519,",",_,_,_,_,_,256,PUNCT,Z,punct
254,1520-1522,da,_,_,_,_,_,256,SCONJ,Cs,mark
255,1523-1529,imeti,_,_,_,_,_,253,VERB,Vmpr3p-y,ccomp
256,1530-1537,noben,_,_,_,_,_,258,DET,Pz-fpg,det
257,1538-1548,informacija,_,_,_,_,_,256,NOUN,Ncfpg,obj
258,1549-1550,",",_,_,_,_,_,264,PUNCT,Z,punct
259,1551-1554,kdo,_,_,_,_,_,264,PRON,Pq-msn,nsubj
260,1555-1558,naj,_,_,_,_,_,264,PART,Q,advmod
261,1559-1561,biti,_,_,_,_,_,264,AUX,Va-c,aux
262,1562-1564,se,_,_,_,_,_,264,PRON,Px------y,expl
263,1565-1572,zanimati,_,_,_,_,_,258,VERB,Vmpp-sm,acl
264,1573-1575,za,_,_,_,_,_,266,ADP,Sa,case
265,1576-1583,delnica,_,_,_,_,_,264,NOUN,Ncfpa,obl
266,1584-1594,Mercator,ORG,_,*->16-17,*[16],_,266,PROPN,Npmsg,nmod
267,1595-1597,in,_,_,_,_,_,270,CCONJ,Cc,cc
268,1598-1602,kdo,_,_,_,_,_,270,PRON,Pq-msa,obj
269,1603-1609,zanimati,_,_,_,_,_,264,VERB,Vmpr3s,conj
270,1610-1611,",",_,_,_,_,_,273,PUNCT,Z,punct
271,1612-1615,kaj,_,_,_,_,_,273,PRON,Pq-nsa,obj
272,1616-1618,biti,_,_,_,_,_,270,VERB,Va-r3s-n,csubj
273,1619-1620,v,_,_,_,_,_,276,ADP,Sl,case
274,1621-1634,Mercatorjev,_,_,*->16-18,*[16],_,276,ADJ,Aspnsl,amod
275,1635-1643,drobovje,_,_,_,_,_,273,NOUN,Ncnsl,obl
276,1644-1645,.,_,_,_,_,_,264,PUNCT,Z,punct
277,1646-1649,med,_,_,_,_,_,279,ADP,Si,case
278,1650-1661,interesent,_,_,_,_,_,273,NOUN,Ncmpi,obl
279,1662-1666,tudi,_,_,_,_,_,281,PART,Q,advmod
280,1667-1670,KAD,ORG,_,*->16-19,*[16],_,279,NOUN,Ncmsn,nmod
281,1671-1676,banka,ORG[4],0,*->14-1,*[14],3 - Nevtralno[18],281,PROPN,Npfsn,nmod
282,1677-1682,Koper,ORG[4]|LOC[5],0,*->14-1|*->15-1,*[14]|*[15],3 - Nevtralno[18]|3 - Nevtralno[19],282,PROPN,Npmsn,nmod
283,1683-1684,",",_,_,_,_,_,285,PUNCT,Z,punct
284,1685-1694,Unicredit,ORG,0,*->7-1,*[7],3 - Nevtralno,283,PROPN,Npmsn,conj
285,1695-1696,",",_,_,_,_,_,288,PUNCT,Z,punct
286,1697-1706,gorenjski,ORG[6],0,*->10-1,*[10],3 - Nevtralno[20],288,ADJ,Agpfsn,amod
287,1707-1712,banka,ORG[6],0,*->10-1,*[10],3 - Nevtralno[20],283,NOUN,Ncfsn,conj
288,1713-1714,",",_,_,_,_,_,292,PUNCT,Z,punct
289,1715-1719,nov,ORG[7],0,*->8-1,*[8],3 - Nevtralno[21],292,ADJ,Agpfsn,amod
290,1720-1728,krediten,ORG[7],0,*->8-1,*[8],3 - Nevtralno[21],292,ADJ,Agpfsn,amod
291,1729-1734,banka,ORG[7],0,*->8-1,*[8],3 - Nevtralno[21],282,NOUN,Ncfsn,conj
292,1735-1742,Maribor,ORG[7]|LOC[8],0,*->8-1|*->11-1,*[8]|*[11],3 - Nevtralno[21]|3 - Nevtralno[22],292,PROPN,Npmsn,nmod
293,1743-1744,",",_,_,_,_,_,295,PUNCT,Z,punct
294,1745-1751,Abanka,ORG,0,*->18-1,*[18],3 - Nevtralno,293,PROPN,Npfsn,conj
295,1752-1754,in,_,_,_,_,_,298,CCONJ,Cc,cc
296,1755-1759,Hypo,ORG[9],0,*->13-1,*[13],3 - Nevtralno[23],298,PROPN,Npfsn,nmod
297,1760-1765,banka,ORG[9],0,*->13-1,*[13],3 - Nevtralno[23],300,NOUN,Ncfsn,nsubj
298,1766-1772,skupaj,_,_,_,_,_,300,ADV,Rgp,advmod
299,1773-1782,prodajati,_,_,_,_,_,281,VERB,Vmpr3p,acl
300,1783-1785,21,_,_,_,_,_,302,NUM,Mdc,nummod
301,1786-1795,odstotek,_,_,_,_,_,300,NOUN,Ncmpg,obj
302,1796-1802,delnica,_,_,_,_,_,302,NOUN,Ncfpg,nmod
303,1803-1813,Mercator,ORG,_,*->16-20,*[16],_,303,PROPN,Npmsg,nmod
304,1814-1815,",",_,_,_,_,_,300,PUNCT,Z,punct
305,1816-1819,pri,_,_,_,_,_,307,ADP,Sl,case
306,1820-1827,prodaja,_,_,_,_,_,309,NOUN,Ncfsl,obl
307,1828-1830,pa,_,_,_,_,_,309,CCONJ,Cc,advmod
308,1831-1840,posredovati,_,_,_,_,_,300,VERB,Vmbr3s,advcl
309,1841-1847,družba,_,_,*->20-2,*[20],_,309,NOUN,Ncfsn,nsubj
310,1848-1853,Arkas,ORG,_,*->20-2,*[20],_,310,PROPN,Npmsn,nmod
311,1854-1855,.,_,_,_,_,_,309,PUNCT,Z,punct
312,1856-1866,preostal,_,_,_,_,_,302,ADJ,Appmpg,amod
313,1867-1869,15,_,_,_,_,_,315,NUM,Mdc,nummod
314,1870-1879,odstotek,_,_,_,_,_,310,NOUN,Ncmpg,appos
315,1880-1893,Mercatorjev,_,_,*->16-21,*[16],_,317,ADJ,Aspfpg,amod
316,1894-1900,delnica,_,_,_,_,_,315,NOUN,Ncfpg,nmod
317,1901-1902,",",_,_,_,_,_,321,PUNCT,Z,punct
318,1903-1905,ki,_,_,_,_,_,321,SCONJ,Cs,mark
319,1906-1908,biti,_,_,_,_,_,321,AUX,Va-r3p-n,cop
320,1909-1917,naprodaj,_,_,_,_,_,317,NOUN,Ncfsn,acl
321,1918-1919,",",_,_,_,_,_,321,PUNCT,Z,punct
322,1920-1925,imeti,_,_,_,_,_,313,VERB,Vmpr3d-n,conj
323,1926-1927,v,_,_,_,_,_,325,ADP,Sl,case
324,1928-1933,last,_,_,_,_,_,323,NOUN,Ncfsl,obl
325,1934-1938,nov,ORG[10],0,*->2-1,*[2],3 - Nevtralno[24],328,ADJ,Agpfsn,amod
326,1939-1950,ljubljanski,ORG[10],0,*->2-1,*[2],3 - Nevtralno[24],328,ADJ,Agpfsn,amod
327,1951-1956,banka,ORG[10],0,*->2-1,*[2],3 - Nevtralno[24],323,NOUN,Ncfsn,nsubj
328,1957-1959,in,_,_,_,_,_,330,CCONJ,Cc,cc
329,1960-1965,banka,ORG[11],0,*->19-1,*[19],3 - Nevtralno[25],328,PROPN,Npfsn,conj
330,1966-1971,Celje,ORG[11]|LOC[12],0,*->19-1|*->4-1,*[19]|*[4],3 - Nevtralno[25]|3 - Nevtralno[26],330,PROPN,Npnsn,nmod
331,1972-1973,",",_,_,_,_,_,337,PUNCT,Z,punct
332,1974-1976,ki,_,_,_,_,_,337,SCONJ,Cs,mark
333,1977-1985,formalno,_,_,_,_,_,337,ADV,Rgp,advmod
334,1986-1991,sicer,_,_,_,_,_,337,PART,Q,advmod
335,1992-1997,biti,_,_,_,_,_,337,AUX,Va-r3d-y,cop
336,1998-2001,del,_,_,_,_,_,328,NOUN,Ncmsn,acl
337,2002-2012,konzorcij,_,_,_,_,_,337,NOUN,Ncmsg,nmod
338,2013-2017,prej,_,_,_,_,_,340,ADV,Rgc,advmod
339,2018-2027,omenjen,_,_,_,_,_,341,ADJ,Appfpg,amod
340,2028-2032,banka,_,_,_,_,_,338,NOUN,Ncfpg,nmod
341,2033-2034,",",_,_,_,_,_,337,PUNCT,Z,punct
342,2035-2036,a,_,_,_,_,_,346,CCONJ,Cc,cc
343,2037-2038,z,_,_,_,_,_,345,ADP,Si,case
344,2039-2046,Arkas,ORG,_,*->20-3,*[20],_,346,PROPN,Npmsi,obl
345,2047-2059,koordinirati,_,_,_,_,_,337,VERB,Vmbr3d,conj
346,2060-2068,prodajen,_,_,_,_,_,348,ADJ,Agpfpa,amod
347,2069-2079,aktivnost,_,_,_,_,_,346,NOUN,Ncfpa,obj
348,2080-2081,.,_,_,_,_,_,337,PUNCT,Z,punct
349,2082-2090,omenjen,_,_,_,_,_,351,ADJ,Appmpa,amod
350,2091-2097,deleža,_,_,_,_,_,354,NOUN,Ncmpa,obj
351,2098-2100,biti,_,_,_,_,_,354,AUX,Va-r3p-n,aux
352,2101-2106,banka,_,_,_,_,_,354,NOUN,Ncfpn,nsubj
353,2107-2116,pridobiti,_,_,_,_,_,3,VERB,Vmep-pf,parataxis
354,2117-2119,po,_,_,_,_,_,356,ADP,Sl,case
355,2120-2126,zaseg,_,_,_,_,_,354,NOUN,Ncmsl,obl
356,2127-2133,delnica,_,_,_,_,_,356,NOUN,Ncfpg,nmod
357,2134-2141,družba,_,_,_,_,_,356,NOUN,Ncfpd,nmod
358,2142-2152,nekdanji,_,_,_,_,_,361,ADJ,Agpmsg,amod
359,2153-2159,prvi,_,0,*->5-1,*[5],3 - Nevtralno[27],361,ADJ,Mlomsg,amod
360,2160-2164,mož,_,0,*->5-1,*[5],3 - Nevtralno[27],358,NOUN,Ncmsg,nmod
361,2165-2174,pivovarna,ORG[13],0,*->5-1|*->17-1,*[5]|*[17],3 - Nevtralno[27]|3 - Nevtralno[28],361,NOUN,Ncfsg,nmod
362,2175-2180,Laško,ORG[13]|LOC[14],0,*->5-1|*->17-1|*->6-1,*[5]|*[17]|*[6],3 - Nevtralno[27]|3 - Nevtralno[28]|3 - Nevtralno[29],362,PROPN,Npnsn,nmod
363,2181-2186,Boška,PER[15],0,*->5-1,*[5],3 - Nevtralno[27],362,PROPN,Npmsg,nmod
364,2187-2192,Šrot,PER[15],0,*->5-1,*[5],3 - Nevtralno[27],364,PROPN,Npmsg,flat:name
365,2193-2195,in,_,_,_,_,_,367,CCONJ,Cc,cc
366,2196-2206,Istrabenz,ORG,_,*->21-1,*[21],_,364,PROPN,Npmsd,conj
367,2207-2208,.,_,_,_,_,_,337,PUNCT,Z,punct
368,2209-2212,kot,_,_,_,_,_,374,SCONJ,Cs,mark
369,2213-2215,biti,_,_,_,_,_,374,AUX,Va-r3s-n,aux
370,2216-2218,že,_,_,_,_,_,374,PART,Q,advmod
371,2219-2223,pred,_,_,_,_,_,373,ADP,Si,case
372,2224-2229,čas,_,_,_,_,_,374,NOUN,Ncmsi,obl
373,2230-2237,povedati,_,_,_,_,_,367,VERB,Vmep-sm,acl
374,2238-2246,direktor,_,0,*->12-1,*[12],3 - Nevtralno[30],374,NOUN,Ncmsn,nsubj
375,2247-2253,Arkas,ORG,0,*->12-1|*->20-4,*[12]|*[20],3 - Nevtralno[30]|3 - Nevtralno[31],375,PROPN,Npmsg,nmod
376,2254-2258,Uroš,PER[16],0,*->12-1,*[12],3 - Nevtralno[30],375,PROPN,Npmsn,nmod
377,2259-2265,Marter,PER[16],0,*->12-1,*[12],3 - Nevtralno[30],377,PROPN,Npmsn,flat:name
378,2266-2267,",",_,_,_,_,_,374,PUNCT,Z,punct
379,2268-2270,biti,_,_,_,_,_,386,AUX,Va-r3s-n,cop
380,2271-2280,zanimanje,_,_,_,_,_,386,NOUN,Ncnsn,nsubj
381,2281-2283,za,_,_,_,_,_,383,ADP,Sa,case
382,2284-2289,nakup,_,_,_,_,_,381,NOUN,Ncmsan,nmod
383,2290-2303,Mercatorjev,_,_,*->16-22,*[16],_,385,ADJ,Aspfpg,amod
384,2304-2310,delnica,_,_,_,_,_,383,NOUN,Ncfpg,nmod
385,2311-2321,precejšnji,_,_,_,_,_,3,ADJ,Agpnsn,parataxis
386,2322-2323,.,_,_,_,_,_,386,PUNCT,Z,punct
387,2324-2326,po,_,_,_,_,_,389,ADP,Sl,case
388,2327-2336,ugibanje,_,_,_,_,_,390,NOUN,Ncnpl,obl
389,2337-2340,iti,_,_,_,_,_,386,VERB,Vmbr3s,advcl
390,2341-2349,predvsem,_,_,_,_,_,390,PART,Q,advmod
391,2350-2352,za,_,_,_,_,_,394,ADP,Sa,case
392,2353-2361,finančen,_,_,_,_,_,394,ADJ,Agpmpa,amod
393,2362-2368,sklad,_,_,_,_,_,390,NOUN,Ncmpa,obl
394,2369-2371,pa,_,_,_,_,_,390,CCONJ,Cc,advmod
395,2372-2376,tudi,_,_,_,_,_,390,PART,Q,advmod
396,2377-2385,trgovski,_,_,*->16-23,*[16],_,398,ADJ,Agpfpa,amod
397,2386-2392,družba,_,_,*->16-23,*[16],_,394,NOUN,Ncfpa,conj
398,2393-2394,",",_,_,_,_,_,401,PUNCT,Z,punct
399,2395-2397,ki,_,_,_,_,_,401,SCONJ,Cs,mark
400,2398-2406,delovati,_,_,_,_,_,398,VERB,Vmpr3p,acl
401,2407-2409,na,_,_,_,_,_,403,ADP,Sl,case
402,2410-2417,območje,_,_,_,_,_,401,NOUN,Ncnsl,obl
403,2418-2429,jugovzhoden,_,0,*->3-1,*[3],3 - Nevtralno[32],405,ADJ,Agpfsg,amod
404,2430-2436,Evropa,LOC,0,*->3-1,*[3],3 - Nevtralno[32],403,PROPN,Npfsg,nmod
405,2437-2438,.,_,_,_,_,_,390,PUNCT,Z,punct
406,2439-2443,prav,_,_,_,_,_,408,PART,Q,advmod
407,2444-2448,tako,_,_,_,_,_,412,ADV,Rgp,advmod
408,2449-2451,se,_,_,_,_,_,412,PRON,Px------y,expl
409,2452-2454,za,_,_,_,_,_,411,ADP,Sa,case
410,2455-2460,nakup,_,_,_,_,_,412,NOUN,Ncmsan,obl
411,2461-2467,zanimati,_,_,_,_,_,390,VERB,Vmpr3s,conj
412,2468-2478,kapitalski,ORG[17],_,*->16-24,*[16],_,414,ADJ,Agpfsn,amod
413,2479-2485,družba,ORG[17],_,*->16-24,*[16],_,412,NOUN,Ncfsn,nsubj
414,2486-2487,",",_,_,_,_,_,422,PUNCT,Z,punct
415,2488-2490,ki,_,_,_,_,_,422,SCONJ,Cs,mark
416,2491-2493,biti,_,_,_,_,_,422,AUX,Va-r3s-n,aux
417,2494-2498,pred,_,_,_,_,_,419,ADP,Si,case
418,2499-2503,leto,_,_,_,_,_,422,NOUN,Ncnpi,obl
419,2504-2506,že,_,_,_,_,_,422,PART,Q,advmod
420,2507-2511,biti,_,_,*->16-25,*[16],_,422,AUX,Va-p-sf,cop
421,2512-2520,lastnica,_,1,*->16-26,*[16],4 - Pozitivno[33],414,NOUN,Ncfsn,acl
422,2521-2531,Mercator,ORG,1,*->16-26|*->1-1,*[16]|*[1],4 - Pozitivno[33]|2 - Negativno[34],422,PROPN,Npmsg,nmod
423,2532-2533,",",_,_,_,_,_,422,PUNCT,Z,punct
424,2534-2539,zatem,_,_,_,_,_,435,ADV,Rgp,advmod
425,2540-2542,pa,_,_,_,_,_,435,CCONJ,Cc,advmod
426,2543-2545,biti,_,_,_,_,_,435,AUX,Va-r3s-n,aux
427,2546-2555,september,_,_,_,_,_,435,NOUN,Ncmsg,obl
428,2556-2560,2005,_,_,_,_,_,428,NUM,Mdc,nummod
429,2561-2565,svoj,_,_,_,_,_,434,DET,Px-msa,det
430,2566-2571,"15,34",_,_,_,_,_,433,NUM,Mdc,nummod
431,2572-2573,-,_,_,_,_,_,433,PUNCT,Z,punct
432,2574-2582,odstoten,_,_,_,_,_,434,ADJ,Agpmsay,amod
433,2583-2588,delež,_,_,_,_,_,435,NOUN,Ncmsan,obj
434,2589-2596,prodati,_,_,_,_,_,422,VERB,Vmep-sf,conj
435,2597-2607,Istrabenz,ORG,0,*->21-2,*[21],3 - Nevtralno,435,PROPN,Npmsd,obj
