idx,chars_idx,token,entity_type,sentiment,idk_1,idk_2,orig_sentiment,heads,upos,xpos,deprel
0,0-5,Dušan,PER[1],_,*->1-1,*[1],_,23,PROPN,Npmsn,nsubj
1,6-11,Kumer,PER[1],_,*->1-1,*[1],_,1,PROPN,Npmsn,flat:name
2,12-13,",",_,_,_,_,_,4,PUNCT,Z,punct
3,14-19,vodja,_,0,*->1-2,*[1],3 - Nevtralno[14],1,NOUN,Ncmsn,appos
4,20-29,poslanski,_,0,*->1-2|*->2-1,*[1]|*[2],3 - Nevtralno[14],6,ADJ,Agpfsg,amod
5,30-37,skupina,_,0,*->1-2|*->2-1,*[1]|*[2],3 - Nevtralno[14],4,NOUN,Ncfsg,nmod
6,38-40,SD,ORG,0,*->1-2|*->2-1,*[1]|*[2],3 - Nevtralno[14],6,PROPN,Npmsn,nmod
7,41-43,in,_,_,_,_,_,9,CCONJ,Cc,cc
8,44-49,Borut,PER[2],_,*->3-1,*[3],_,1,PROPN,Npmsn,conj
9,50-57,Sajovica,PER[2],_,*->3-1,*[3],_,9,PROPN,Npmsn,flat:name
10,58-59,",",_,_,_,_,_,4,PUNCT,Z,punct
11,60-65,vodja,_,0,*->3-2,*[3],3 - Nevtralno[15],4,NOUN,Ncmsn,conj
12,66-77,poslanski,_,0,*->3-2|*->4-1,*[3]|*[4],3 - Nevtralno[15],14,ADJ,Agpmsg,amod
13,78-83,klub,_,0,*->3-2|*->4-1,*[3]|*[4],3 - Nevtralno[15],12,NOUN,Ncmsg,nmod
14,84-87,LDS,ORG,0,*->3-2|*->4-1,*[3]|*[4],3 - Nevtralno[15],14,PROPN,Npfsg,nmod
15,88-91,biti,_,_,_,_,_,23,AUX,Va-r3d-n,aux
16,92-95,kot,_,_,_,_,_,18,SCONJ,Cs,case
17,96-105,kandidat,_,_,_,_,_,23,NOUN,Ncmdn,obl
18,106-108,za,_,_,_,_,_,21,ADP,Sa,case
19,109-115,nov,_,_,_,_,_,21,ADJ,Agpmsa,amod
20,116-127,predsednik,_,_,_,_,_,18,NOUN,Ncmsay,nmod
21,128-130,DZ,ORG,_,*->5-1,*[5],_,21,PROPN,Npmsg,nmod
22,131-142,predstaviti,_,_,_,_,_,0,VERB,Vmep-dm,root
23,143-151,poslanec,_,_,*->6-1,*[6],_,23,NOUN,Ncmdn,nsubj
24,152-157,Ljub,PER[3],_,*->6-1,*[6],_,24,PROPN,Npmsn,nmod
25,158-165,Germič,PER[3],_,*->6-1,*[6],_,25,PROPN,Npmsg,flat:name
26,166-167,.,_,_,_,_,_,23,PUNCT,Z,punct
27,168-174,Germič,PER,_,*->6-2,*[6],_,32,PROPN,Npmsn,nsubj
28,175-177,se,_,_,_,_,_,32,PRON,Px------y,expl
29,178-180,biti,_,_,_,_,_,32,AUX,Va-r3s-n,aux
30,181-186,danes,_,_,_,_,_,32,ADV,Rgp,advmod
31,187-197,predstaviti,_,_,_,_,_,23,VERB,Vmep-sm,parataxis
32,198-202,tudi,_,_,_,_,_,32,PART,Q,advmod
33,203-206,kot,_,_,_,_,_,35,SCONJ,Cs,case
34,207-216,ljubitelj,_,_,*->6-3,*[6],_,32,NOUN,Ncmsn,obl
35,217-223,šport,_,_,*->6-3,*[6],_,35,NOUN,Ncmsg,nmod
36,224-226,in,_,_,*->6-3,*[6],_,38,CCONJ,Cc,cc
37,227-233,glasba,_,_,*->6-3,*[6],_,36,NOUN,Ncfsg,conj
38,234-235,–,_,_,_,_,_,42,PUNCT,Z,punct
39,236-239,med,_,_,_,_,_,41,ADP,Si,case
40,240-246,drug,_,_,_,_,_,42,ADJ,Mlpmsi,obl
41,247-251,igrati,_,_,*->6-4,*[6],_,32,VERB,Vmpr3s,parataxis
42,252-260,saksofon,_,_,_,_,_,42,NOUN,Ncmsn,nsubj
43,261-262,v,_,_,_,_,_,45,ADP,Sl,case
44,263-272,Parlament,ORG[4],0,*->7-1,*[7],3 - Nevtralno[16],43,PROPN,Npmsn,nmod
45,273-278,Dixie,ORG[4],0,*->7-1,*[7],3 - Nevtralno[16],47,PROPN,Npmsn,nmod
46,279-284,Band,ORG[4],0,*->7-1,*[7],3 - Nevtralno[16],45,PROPN,Npmsl,nmod
47,285-286,",",_,_,_,_,_,51,PUNCT,Z,punct
48,287-289,ki,_,_,_,_,_,51,SCONJ,Cs,mark
49,290-292,on,_,_,_,_,_,51,PRON,Pp3msa--y,obj
50,293-304,sestavljati,_,_,_,_,_,43,VERB,Vmpr3p,acl
51,305-313,aktualen,_,_,_,_,_,55,ADJ,Agpmpn,amod
52,314-316,in,_,_,_,_,_,54,CCONJ,Cc,cc
53,317-325,nekdanji,_,_,_,_,_,52,ADJ,Agpmpn,conj
54,326-334,poslanec,_,_,_,_,_,51,NOUN,Ncmpn,nsubj
55,335-336,",",_,_,_,_,_,51,PUNCT,Z,punct
56,337-340,med,_,_,_,_,_,58,ADP,Si,case
57,341-346,on,_,_,_,_,_,67,PRON,Pp3mpi,obl
58,347-351,Rudi,PER[5],0,*->8-1,*[8],3 - Nevtralno[17],55,PROPN,Npmsn,nmod
59,352-356,Moge,PER[5],0,*->8-1,*[8],3 - Nevtralno[17],59,PROPN,Npmsn,flat:name
60,357-358,",",_,_,_,_,_,62,PUNCT,Z,punct
61,359-363,Geza,PER[6],0,*->9-1,*[9],3 - Nevtralno[18],59,PROPN,Npmsn,conj
62,364-370,Džuban,PER[6],0,*->9-1,*[9],3 - Nevtralno[18],62,PROPN,Npmsn,flat:name
63,371-372,",",_,_,_,_,_,67,PUNCT,Z,punct
64,373-379,včasih,_,_,_,_,_,67,ADV,Rgp,advmod
65,380-382,pa,_,_,_,_,_,67,CCONJ,Cc,advmod
66,383-391,zapojati,_,_,_,_,_,23,VERB,Vmer3d,parataxis
67,392-396,tudi,_,_,_,_,_,67,PART,Q,advmod
68,397-400,Eva,PER[7],0,*->10-1,*[10],3 - Nevtralno[19],67,PROPN,Npfsn,nsubj
69,401-405,Irgl,PER[7],0,*->10-1,*[10],3 - Nevtralno[19],69,PROPN,Npfsn,flat:name
70,406-408,in,_,_,_,_,_,72,CCONJ,Cc,cc
71,409-414,Darja,PER[8],0,*->11-1,*[11],3 - Nevtralno[20],69,PROPN,Npfsn,conj
72,415-423,Lavtižar,PER[8],0,*->11-1,*[11],3 - Nevtralno[20],72,PROPN,Npfsn,flat:name
73,424-430,Bebler,PER[8],0,*->11-1,*[11],3 - Nevtralno[20],72,PROPN,Npfsn,flat:name
74,431-432,.,_,_,_,_,_,67,PUNCT,Z,punct
75,433-434,z,_,_,_,_,_,77,ADP,Si,case
76,435-438,ta,_,_,_,_,_,67,DET,Pd-nsi,obl
77,439-440,",",_,_,_,_,_,81,PUNCT,Z,punct
78,441-443,ko,_,_,_,_,_,81,SCONJ,Cs,mark
79,444-446,že,_,_,_,_,_,81,PART,Q,advmod
80,447-460,predstavljati,_,_,_,_,_,77,VERB,Vmpr3p,acl
81,461-470,kandidat,_,_,_,_,_,81,NOUN,Ncmsay,obj
82,471-472,",",_,_,_,_,_,81,PUNCT,Z,punct
83,473-479,želeti,_,_,_,_,_,77,VERB,Vmpr3p,acl
84,480-484,dati,_,_,_,_,_,84,VERB,Vmen,xcomp
85,485-492,možnost,_,_,_,_,_,85,NOUN,Ncfsa,obj
86,493-499,drug,_,_,_,_,_,89,ADJ,Mlpfpd,amod
87,500-510,poslanski,_,_,_,_,_,89,ADJ,Agpfpd,amod
88,511-519,skupina,_,_,_,_,_,85,NOUN,Ncfpd,iobj
89,520-521,",",_,_,_,_,_,95,PUNCT,Z,punct
90,522-524,da,_,_,_,_,_,95,SCONJ,Cs,mark
91,525-527,se,_,_,_,_,_,95,PRON,Px------y,expl
92,528-530,do,_,_,_,_,_,94,ADP,Sg,case
93,531-535,seja,_,_,_,_,_,95,NOUN,Ncfsg,obl
94,536-544,izreči,_,_,_,_,_,89,VERB,Vmer3p,acl
95,545-546,o,_,_,_,_,_,97,ADP,Sl,case
96,547-556,kandidat,_,_,_,_,_,95,NOUN,Ncmsl,obl
97,557-558,",",_,_,_,_,_,95,PUNCT,Z,punct
98,559-561,biti,_,_,_,_,_,103,AUX,Va-r3p-n,aux
99,562-564,na,_,_,_,_,_,102,ADP,Sl,case
100,565-573,tiskoven,_,_,_,_,_,102,ADJ,Agpfsl,amod
101,574-584,konferenca,_,_,_,_,_,103,NOUN,Ncfsl,obl
102,585-593,povedati,_,_,_,_,_,23,VERB,Vmep-pm,parataxis
103,594-602,poslanec,_,_,_,_,_,103,NOUN,Ncmpn,nsubj
104,603-604,.,_,_,_,_,_,103,PUNCT,Z,punct
105,605-611,želeti,_,_,_,_,_,103,VERB,Vmpr3p,parataxis
106,612-618,namreč,_,_,_,_,_,106,CCONJ,Cc,advmod
107,619-620,",",_,_,_,_,_,118,PUNCT,Z,punct
108,621-623,da,_,_,_,_,_,118,SCONJ,Cs,mark
109,624-626,biti,_,_,_,_,_,118,AUX,Va-c,aux
110,627-632,lahko,_,_,_,_,_,118,ADV,Rgp,advmod
111,633-641,poslanec,_,_,_,_,_,118,NOUN,Ncmpn,nsubj
112,642-643,o,_,_,_,_,_,115,ADP,Sl,case
113,644-649,nov,_,_,_,_,_,115,ADJ,Agpmsl,amod
114,650-661,predsednik,_,_,_,_,_,118,NOUN,Ncmsl,obl
115,662-671,državen,ORG[9],_,*->5-2,*[5],_,117,ADJ,Agpmsg,amod
116,672-677,zbor,ORG[9],_,*->5-2,*[5],_,115,NOUN,Ncmsg,nmod
117,678-687,glasovati,_,_,_,_,_,106,VERB,Vmbp-pm,ccomp
118,688-693,takoj,_,_,_,_,_,121,ADV,Rgp,advmod
119,694-696,po,_,_,_,_,_,121,ADP,Sl,case
120,697-704,odstop,_,_,_,_,_,118,NOUN,Ncmsl,obl
121,705-710,Pavel,PER[10],_,*->12-1,*[12],_,121,PROPN,Npmsg,nmod
122,711-719,Gantar,PER[10],_,*->12-1,*[12],_,122,PROPN,Npmsg,flat:name
123,720-721,.,_,_,_,_,_,118,PUNCT,Z,punct
124,722-729,podpora,_,_,_,_,_,118,NOUN,Ncfsa,obj
125,730-735,Ljub,PER[11],_,*->6-5,*[6],_,125,PROPN,Npmsd,nmod
126,736-743,Germič,PER[11],_,*->6-5,*[6],_,126,PROPN,Npmsd,flat:name
127,744-746,za,_,_,_,_,_,129,ADP,Sa,case
128,747-758,predsednik,_,_,_,_,_,134,NOUN,Ncmsay,obl
129,759-761,DZ,ORG,0,*->5-3,*[5],3 - Nevtralno,129,PROPN,Npmsg,nmod
130,762-764,biti,_,_,_,_,_,134,AUX,Va-r3p-n,aux
131,765-767,za,_,_,_,_,_,133,ADP,Sa,case
132,768-772,zdaj,_,_,_,_,_,134,ADV,Rgp,advmod
133,773-783,napovedati,_,_,_,_,_,125,VERB,Vmep-pm,acl
134,784-792,poslanec,_,_,_,_,_,134,NOUN,Ncmpn,nsubj
135,793-795,SD,ORG,_,*->2-2,*[2],_,135,PROPN,Npfsg,nmod
136,796-798,in,_,_,_,_,_,138,CCONJ,Cc,cc
137,799-802,LDS,ORG,_,*->4-2,*[4],_,136,PROPN,Npfsg,conj
138,803-804,",",_,_,_,_,_,144,PUNCT,Z,punct
139,805-807,ki,_,_,_,_,_,144,SCONJ,Cs,mark
140,808-810,biti,_,_,_,_,_,144,AUX,Va-r3p-n,aux
141,811-813,on,_,_,_,_,_,144,PRON,Pp3msa--y,obj
142,814-818,tudi,_,_,_,_,_,144,PART,Q,advmod
143,819-829,predlagati,_,_,_,_,_,135,VERB,Vmbp-pm,acl
144,830-831,",",_,_,_,_,_,144,PUNCT,Z,punct
145,832-834,pa,_,_,_,_,_,148,CCONJ,Cc,cc
146,835-839,tudi,_,_,_,_,_,146,PART,Q,fixed
147,840-848,poslanec,_,_,_,_,_,135,NOUN,Ncmpn,conj
148,849-852,SNS,ORG,0,*->13-1,*[13],3 - Nevtralno,148,PROPN,Npfsg,nmod
149,853-854,",",_,_,_,_,_,151,PUNCT,Z,punct
150,855-860,zares,ORG,0,*->14-1,*[14],3 - Nevtralno,149,ADV,Rgp,conj
151,861-863,in,_,_,_,_,_,153,CCONJ,Cc,cc
152,864-869,Desus,ORG,0,*->15-1,*[15],3 - Nevtralno,149,PROPN,Npmsn,conj
153,870-871,.,_,_,_,_,_,144,PUNCT,Z,punct
154,872-873,v,_,_,_,_,_,156,ADP,Sl,case
155,874-877,SDS,ORG,0,*->16-1,*[16],3 - Nevtralno,161,PROPN,Npfsl,obl
156,878-885,njegov,_,_,_,_,_,158,DET,Ps3fsgsm,det
157,886-895,izvolitev,_,_,_,_,_,156,NOUN,Ncfsg,nmod
158,896-898,ne,_,_,_,_,_,161,PART,Q,advmod
159,899-903,biti,_,_,_,_,_,161,AUX,Va-f3p-n,aux
160,904-911,podpreti,_,_,_,_,_,148,VERB,Vmep-pm,acl
161,912-913,",",_,_,_,_,_,172,PUNCT,Z,punct
162,914-924,nepovezan,_,_,_,_,_,164,ADJ,Agpmpn,amod
163,925-933,poslanec,_,_,_,_,_,172,NOUN,Ncmpn,nsubj
164,934-936,in,_,_,_,_,_,166,CCONJ,Cc,cc
165,937-945,poslanec,_,_,_,_,_,164,NOUN,Ncmpn,conj
166,946-949,SLS,ORG,0,*->17-1,*[17],3 - Nevtralno,166,PROPN,Npfsg,nmod
167,950-952,pa,_,_,_,_,_,172,CCONJ,Cc,advmod
168,953-957,biti,_,_,_,_,_,172,AUX,Va-f3p-n,aux
169,958-959,o,_,_,_,_,_,171,ADP,Sl,case
170,960-963,ta,_,_,_,_,_,172,DET,Pd-nsl,obl
171,964-972,odločati,_,_,_,_,_,161,VERB,Vmpp-pm,conj
172,973-974,v,_,_,_,_,_,174,ADP,Sa,case
173,975-980,torek,_,_,_,_,_,172,NOUN,Ncmsan,obl
174,981-982,.,_,_,_,_,_,172,PUNCT,Z,punct
175,983-987,tako,_,_,_,_,_,181,ADV,Rgp,advmod
176,988-993,lahko,_,_,_,_,_,181,ADV,Rgp,advmod
177,994-1000,Germič,PER,_,*->6-6,*[6],_,181,PROPN,Npmsn,nsubj
178,1001-1003,že,_,_,_,_,_,181,PART,Q,advmod
179,1004-1009,sedaj,_,_,_,_,_,181,ADV,Rgp,advmod
180,1010-1016,račun,_,_,_,_,_,172,NOUN,Ncmsg,obj
181,1017-1019,na,_,_,_,_,_,184,ADP,Sa,case
182,1020-1022,50,_,_,_,_,_,184,NUM,Mdc,nummod
183,1023-1029,glas,_,_,_,_,_,181,NOUN,Ncmpg,nmod
184,1030-1037,podpora,_,_,_,_,_,184,NOUN,Ncfsg,nmod
185,1038-1039,",",_,_,_,_,_,190,PUNCT,Z,punct
186,1040-1042,za,_,_,_,_,_,188,ADP,Sa,case
187,1043-1052,izvolitev,_,_,_,_,_,190,NOUN,Ncfsa,obl
188,1053-1056,on,_,_,_,_,_,190,PRON,Pp3mpg--y,obj
189,1057-1066,potrebovati,_,_,_,_,_,185,VERB,Vmpr3s,acl
190,1067-1069,46,_,_,_,_,_,190,NUM,Mdc,nsubj
191,1070-1071,.,_,_,_,_,_,181,PUNCT,Z,punct
192,1072-1073,(,_,_,_,_,_,201,PUNCT,Z,punct
193,1074-1077,biti,ORG,0,*->18-1,*[18],3 - Nevtralno,201,AUX,Va-r3d-n,aux
194,1078-1079,),_,_,_,_,_,190,PUNCT,Z,punct
195,1080-1084,tako,_,_,_,_,_,198,ADV,Rgp,advmod
196,1085-1086,v,_,_,_,_,_,198,ADP,Sl,case
197,1087-1089,SD,ORG,0,*->2-3,*[2],3 - Nevtralno,201,PROPN,Npfsl,obl
198,1090-1093,kot,_,_,_,_,_,200,SCONJ,Cs,case
199,1094-1097,LDS,ORG,_,*->4-3,*[4],_,198,PROPN,Npfsn,conj
200,1098-1104,meniti,_,_,_,_,_,190,VERB,Vmpr3p,conj
201,1105-1106,",",_,_,_,_,_,205,PUNCT,Z,punct
202,1107-1109,da,_,_,_,_,_,205,SCONJ,Cs,mark
203,1110-1112,biti,_,_,_,_,_,205,AUX,Va-r3p-n,aux
204,1113-1123,predlagati,_,_,_,_,_,201,VERB,Vmbp-pm,ccomp
205,1124-1131,dober,_,_,_,_,_,207,ADJ,Agpmsa,amod
206,1132-1141,kandidat,_,_,_,_,_,205,NOUN,Ncmsay,obj
207,1142-1143,",",_,_,_,_,_,212,PUNCT,Z,punct
208,1144-1146,ki,_,_,_,_,_,212,SCONJ,Cs,mark
209,1147-1149,biti,_,_,_,_,_,212,AUX,Va-f3s-n,aux
210,1150-1160,kvaliteten,_,_,_,_,_,212,ADV,Rgp,advmod
211,1161-1166,voditi,_,_,_,_,_,207,VERB,Vmpp-sm,acl
212,1167-1171,delo,_,_,_,_,_,212,NOUN,Ncnsa,obj
213,1172-1182,parlament,ORG,_,*->19-1,*[19],_,213,NOUN,Ncmsg,nmod
214,1183-1184,.,_,_,_,_,_,23,PUNCT,Z,punct
215,1185-1190,Borut,PER[12],_,*->20-1,*[20],_,201,PROPN,Npmsn,nsubj
216,1191-1198,Sajovica,PER[12],_,*->20-1,*[20],_,216,PROPN,Npmsn,flat:name
217,1199-1200,",",_,_,_,_,_,219,PUNCT,Z,punct
218,1201-1206,vodja,_,0,*->20-2,*[20],3 - Nevtralno[21],216,NOUN,Ncmsn,appos
219,1207-1216,poslanski,_,0,*->20-2|*->4-4,*[20]|*[4],3 - Nevtralno[21],221,ADJ,Agpfsg,amod
220,1217-1224,skupina,_,0,*->20-2|*->4-4,*[20]|*[4],3 - Nevtralno[21],219,NOUN,Ncfsg,nmod
221,1225-1228,LDS,ORG,0,*->20-2|*->4-4,*[20]|*[4],3 - Nevtralno[21],221,PROPN,Npfsg,nmod
222,1229-1231,biti,_,_,_,_,_,224,AUX,Va-r3s-n,aux
223,1232-1237,dejati,_,_,_,_,_,216,VERB,Vmep-sm,acl
224,1238-1239,",",_,_,_,_,_,233,PUNCT,Z,punct
225,1240-1242,da,_,_,_,_,_,233,SCONJ,Cs,mark
226,1243-1245,se,_,_,_,_,_,233,PRON,Px---d--y,expl
227,1246-1252,odhod,_,_,_,_,_,233,NOUN,Ncmsg,obj
228,1253-1263,aktualen,_,_,*->12-2,*[12],_,230,ADJ,Agpmsg,amod
229,1264-1275,predsednik,_,_,*->12-2,*[12],_,228,NOUN,Ncmsg,nmod
230,1276-1281,sicer,_,_,_,_,_,233,PART,Q,advmod
231,1282-1286,biti,_,_,_,_,_,233,AUX,Va-r3p-y,aux
232,1287-1293,želeti,_,_,_,_,_,224,VERB,Vmpp-pm,ccomp
233,1294-1295,.,_,_,_,_,_,224,PUNCT,Z,punct
234,1296-1301,Ljuba,PER[13],_,*->6-7,*[6],_,238,PROPN,Npmsn,nsubj
235,1302-1308,Germič,PER[13],_,*->6-7,*[6],_,235,PROPN,Npmsn,flat:name
236,1309-1314,sicer,_,_,_,_,_,238,PART,Q,advmod
237,1315-1322,prihajati,_,_,_,_,_,224,VERB,Vmpr3s,ccomp
238,1323-1325,iz,_,_,_,_,_,240,ADP,Sg,case
239,1326-1329,Ruš,LOC,0,*->21-1,*[21],3 - Nevtralno,238,PROPN,Npfpg,obl
240,1330-1331,",",_,_,_,_,_,233,PUNCT,Z,punct
241,1332-1334,po,_,_,_,_,_,243,ADP,Sl,case
242,1335-1344,izobrazba,_,_,_,_,_,248,NOUN,Ncfsl,obl
243,1345-1347,pa,_,_,_,_,_,248,CCONJ,Cc,advmod
244,1348-1350,biti,_,_,_,_,_,248,AUX,Va-r3s-n,cop
245,1351-1364,univerziteten,_,_,*->6-8,*[6],_,248,ADJ,Agpmsny,amod
246,1365-1376,diplomiran,_,_,*->6-8,*[6],_,248,ADJ,Appmsny,amod
247,1377-1384,inženir,_,_,*->6-8,*[6],_,238,NOUN,Ncmsn,nsubj
248,1385-1391,kemija,_,_,*->6-8,*[6],_,248,NOUN,Ncfsg,nmod
249,1392-1394,in,_,_,*->6-8,*[6],_,252,CCONJ,Cc,cc
250,1395-1403,kemijski,_,_,*->6-8,*[6],_,252,ADJ,Agpfsg,amod
251,1404-1415,tehnologija,_,_,*->6-8,*[6],_,249,NOUN,Ncfsg,conj
252,1416-1417,.,_,_,_,_,_,238,PUNCT,Z,punct
253,1418-1427,Slovenija,LOC,0,*->22-1,*[22],3 - Nevtralno,258,PROPN,Npfsa,obj
254,1428-1430,biti,_,_,*->6-9,*[6],_,258,AUX,Va-r3s-n,aux
255,1431-1432,v,_,_,_,_,_,257,ADP,Sa,case
256,1433-1435,EU,LOC,_,*->23-1,*[23],_,258,PROPN,Npfsa,obl
257,1436-1444,zastopati,_,_,_,_,_,248,VERB,Vmpp-sm,acl
258,1445-1449,pred,_,_,_,_,_,260,ADP,Si,case
259,1450-1457,vstop,_,_,_,_,_,258,NOUN,Ncmsi,obl
260,1458-1459,v,_,_,_,_,_,262,ADP,Sa,case
261,1460-1462,EU,LOC,_,*->23-2,*[23],_,260,PROPN,Npfsa,nmod
262,1463-1464,",",_,_,_,_,_,258,PUNCT,Z,punct
263,1465-1468,kot,_,_,_,_,_,265,SCONJ,Cs,case
264,1469-1479,opazovalec,_,_,_,_,_,262,NOUN,Ncmsn,conj
265,1480-1481,",",_,_,_,_,_,273,PUNCT,Z,punct
266,1482-1484,po,_,_,_,_,_,268,ADP,Sl,case
267,1485-1491,vstop,_,_,_,_,_,273,NOUN,Ncmsl,obl
268,1492-1493,v,_,_,_,_,_,270,ADP,Sa,case
269,1494-1496,EU,LOC,0,*->23-3,*[23],3 - Nevtralno,268,PROPN,Npfsa,nmod
270,1497-1499,on,_,_,_,_,_,273,PRON,Pp3msd--y,obj
271,1500-1502,biti,_,_,_,_,_,273,AUX,Va-r3s-n,aux
272,1503-1511,pripasti,_,_,_,_,_,265,VERB,Vmep-sf,acl
273,1512-1518,naloga,_,_,_,_,_,273,NOUN,Ncfsn,nsubj
274,1519-1525,prvi,_,_,*->6-10,*[6],_,276,ADJ,Mlomsg,amod
275,1526-1537,predsednik,_,_,*->6-10,*[6],_,274,NOUN,Ncmsg,nmod
276,1538-1544,odbor,_,_,*->6-10,*[6],_,276,NOUN,Ncmsg,nmod
277,1545-1547,za,_,_,*->6-10,*[6],_,280,ADP,Sa,case
278,1548-1556,evropski,_,_,*->6-10,*[6],_,280,ADJ,Agpfpa,amod
279,1557-1563,zadeva,_,_,*->6-10,*[6],_,277,NOUN,Ncfpa,nmod
280,1564-1565,v,_,_,*->6-10,*[6],_,283,ADP,Sl,case
281,1566-1576,slovenski,_,_,*->6-10,*[6],_,283,ADJ,Agpmsl,amod
282,1577-1587,parlament,ORG,0,*->6-10|*->19-2,*[6]|*[19],3 - Nevtralno,280,NOUN,Ncmsl,nmod
283,1588-1589,.,_,_,_,_,_,273,PUNCT,Z,punct
284,1590-1598,trenutno,_,_,_,_,_,286,ADV,Rgp,advmod
285,1599-1603,voditi,_,_,*->6-11,*[6],_,273,VERB,Vmpr3s,conj
286,1604-1609,odbor,_,_,_,_,_,286,NOUN,Ncmsan,obj
287,1610-1612,za,_,_,_,_,_,289,ADP,Sa,case
288,1613-1622,zdravstvo,_,_,_,_,_,287,NOUN,Ncnsa,nmod
289,1623-1625,in,_,_,_,_,_,293,CCONJ,Cc,cc
290,1626-1628,biti,_,_,_,_,_,293,AUX,Va-r3s-n,cop
291,1629-1633,tudi,_,_,_,_,_,293,PART,Q,advmod
292,1634-1643,namestnik,_,0,*->6-12,*[6],3 - Nevtralno[22],286,NOUN,Ncmsn,conj
293,1644-1649,vodja,_,0,*->6-12,*[6],3 - Nevtralno[22],293,NOUN,Ncmsg,nmod
294,1650-1661,poslanski,_,0,*->6-12|*->4-5,*[6]|*[4],3 - Nevtralno[22]|3 - Nevtralno[23],296,ADJ,Agpmsg,amod
295,1662-1667,klub,_,0,*->6-12|*->4-5,*[6]|*[4],3 - Nevtralno[22]|3 - Nevtralno[23],294,NOUN,Ncmsg,nmod
296,1668-1671,LDS,ORG,0,*->6-12|*->4-5,*[6]|*[4],3 - Nevtralno[22]|3 - Nevtralno[23],296,PROPN,Npfsg,nmod
