idx,chars_idx,token,entity_type,sentiment,idk_1,idk_2,orig_sentiment,heads,upos,xpos,deprel
0,0-9,povolilen,_,_,_,_,_,2,ADJ,Agpnsa,amod
1,10-16,mnenje,_,_,_,_,_,6,NOUN,Ncnsa,nsubj
2,17-18,.,_,_,_,_,_,2,PUNCT,Z,punct
3,19-24,Janez,PER[1],_,*->1-1,*[1],_,2,PROPN,Npmsn,nmod
4,25-30,Janša,PER[1],_,*->1-1,*[1],_,4,PROPN,Npmsn,flat:name
5,31-36,pasti,_,_,_,_,_,0,VERB,Vmep-sm,root
6,37-39,na,_,_,_,_,_,8,ADP,Sl,case
7,40-48,lestvica,_,_,_,_,_,6,NOUN,Ncfsl,obl
8,49-64,priljubljenost,_,_,_,_,_,8,NOUN,Ncfsg,nmod
9,65-66,",",_,_,_,_,_,22,PUNCT,Z,punct
10,67-69,na,_,_,_,_,_,13,ADP,Sl,case
11,70-75,sam,_,_,_,_,_,13,ADJ,Agpmsl,amod
12,76-80,vrh,_,_,_,_,_,15,NOUN,Ncmsl,nmod
13,81-83,biti,_,_,_,_,_,22,AUX,Va-r3s-n,aux
14,84-94,predsednik,_,_,*->2-1,*[2],_,22,NOUN,Ncmsn,nsubj
15,95-104,republika,_,_,*->2-1,*[2],_,15,NOUN,Ncfsg,nmod
16,105-106,",",_,_,_,_,_,22,PUNCT,Z,punct
17,107-113,precej,_,_,_,_,_,22,ADV,Rgp,advmod
18,114-116,pa,_,_,_,_,_,22,CCONJ,Cc,advmod
19,117-119,se,_,_,_,_,_,22,PRON,Px------y,expl
20,120-122,biti,_,_,_,_,_,22,AUX,Va-r3s-n,aux
21,123-130,dvigniti,_,_,_,_,_,6,VERB,Vmep-sm,parataxis
22,131-137,Gregor,PER[2],_,*->3-1,*[3],_,22,PROPN,Npmsn,nsubj
23,138-144,Virant,PER[2],_,*->3-1,*[3],_,23,PROPN,Npmsn,flat:name
24,145-146,.,_,_,_,_,_,22,PUNCT,Z,punct
25,147-149,na,_,_,_,_,_,28,ADP,Sl,case
26,150-160,Dnevnikov,ORG,0,*->4-1,*[4],3 - Nevtralno,28,ADJ,Aspfsl,amod
27,161-169,lestvica,_,_,_,_,_,34,NOUN,Ncfsl,obl
28,170-185,priljubljenost,_,_,_,_,_,28,NOUN,Ncfsg,nmod
29,186-196,slovenski,_,_,_,_,_,31,ADJ,Agpmpg,amod
30,197-206,politik,_,_,_,_,_,29,NOUN,Ncmpg,nmod
31,207-209,še,_,_,_,_,_,34,PART,Q,advmod
32,210-215,vedno,_,_,_,_,_,34,ADV,Rgp,advmod
33,216-220,voditi,_,_,_,_,_,6,VERB,Vmpr3s,parataxis
34,221-227,Danilo,PER[3],_,*->2-2,*[2],_,34,PROPN,Npmsn,nsubj
35,228-232,Türk,PER[3],_,*->2-2,*[2],_,35,PROPN,Npmsn,flat:name
36,233-234,",",_,_,_,_,_,40,PUNCT,Z,punct
37,235-237,ki,_,_,_,_,_,40,SCONJ,Cs,mark
38,238-240,biti,_,0,*->2-3,*[2],3 - Nevtralno[19],40,AUX,Va-r3s-n,cop
39,241-248,ocenjen,_,0,*->2-3,*[2],3 - Nevtralno[19],35,ADJ,Appmsnn,acl
40,249-254,dobro,_,_,_,_,_,40,ADV,Rgc,advmod
41,255-258,kot,_,_,_,_,_,43,SCONJ,Cs,case
42,259-267,november,_,_,_,_,_,41,NOUN,Ncmsg,nmod
43,268-269,",",_,_,_,_,_,40,PUNCT,Z,punct
44,270-277,slediti,_,_,_,_,_,34,VERB,Vmpr3d,parataxis
45,278-280,on,_,_,_,_,_,48,PRON,Pp3msd--y,obj
46,281-286,dobro,_,_,_,_,_,48,ADV,Rgc,advmod
47,287-295,ocenjen,_,_,_,_,_,49,ADJ,Appmdn,amod
48,296-301,Janez,PER[4],0,*->5-1,*[5],3 - Nevtralno[20],45,PROPN,Npmsn,nsubj
49,302-310,Potočnik,PER[4],0,*->5-1,*[5],3 - Nevtralno[20],49,PROPN,Npmsn,flat:name
50,311-313,in,_,_,_,_,_,52,CCONJ,Cc,cc
51,314-321,Radovan,PER[5],0,*->6-1,*[6],3 - Nevtralno[21],49,PROPN,Npmsn,conj
52,322-328,Žerjav,PER[5],0,*->6-1,*[6],3 - Nevtralno[21],52,PROPN,Npmsn,flat:name
53,329-330,.,_,_,_,_,_,56,PUNCT,Z,punct
54,331-336,dobro,_,_,_,_,_,56,ADV,Rgp,advmod
55,337-341,kazati,_,_,_,_,_,6,VERB,Vmpr3s,parataxis
56,342-354,novopečen,_,_,*->3-2,*[3],_,58,ADJ,Appmsd,amod
57,355-366,predsednik,_,_,*->3-2,*[3],_,56,NOUN,Ncmsd,obj
58,367-376,državen,ORG[6],0,*->3-2|*->7-1,*[3]|*[7],3 - Nevtralno[22],60,ADJ,Agpmsg,amod
59,377-382,zbor,ORG[6],0,*->3-2|*->7-1,*[3]|*[7],3 - Nevtralno[22],58,NOUN,Ncmsg,nmod
60,383-391,Gregorje,PER[7],_,*->3-2,*[3],_,60,PROPN,Npmsd,nmod
61,392-399,Virant,PER[7],_,*->3-2,*[3],_,61,PROPN,Npmsd,flat:name
62,400-401,",",_,_,_,_,_,66,PUNCT,Z,punct
63,402-404,ki,_,_,_,_,_,66,SCONJ,Cs,mark
64,405-407,biti,_,_,*->3-3,*[3],_,66,AUX,Va-r3s-n,aux
65,408-414,skočiti,_,_,*->3-3,*[3],_,60,VERB,Vmep-sm,acl
66,415-417,za,_,_,_,_,_,69,ADP,Sa,case
67,418-423,štirje,_,_,_,_,_,69,NUM,Mlcnpa,nummod
68,424-429,mesto,_,_,_,_,_,66,NOUN,Ncnpa,obl
69,430-437,navzgor,_,_,_,_,_,66,ADV,Rgp,advmod
70,438-440,in,_,_,_,_,_,74,CCONJ,Cc,cc
71,441-443,biti,_,0,*->3-4,*[3],3 - Nevtralno,74,AUX,Va-r3s-n,cop
72,444-449,sedaj,_,_,_,_,_,74,ADV,Rgp,advmod
73,450-456,četrti,_,_,_,_,_,66,ADJ,Mlomsn,conj
74,457-458,.,_,_,_,_,_,66,PUNCT,Z,punct
75,459-464,Zoran,PER[8],_,*->8-1,*[8],_,79,PROPN,Npmsn,nmod
76,465-473,Janković,PER[8],_,*->8-1,*[8],_,76,PROPN,Npmsn,flat:name
77,474-476,biti,_,_,_,_,_,79,AUX,Va-r3s-n,aux
78,477-482,sedmi,_,_,_,_,_,74,ADJ,Mlomsa,obj
79,483-484,.,_,_,_,_,_,74,PUNCT,Z,punct
80,485-487,na,_,_,_,_,_,82,ADP,Sl,case
81,488-496,lestvica,_,_,_,_,_,85,NOUN,Ncfsl,obl
82,497-499,biti,_,_,_,_,_,85,AUX,Va-r3s-n,aux
83,500-507,najbolj,_,_,_,_,_,85,ADV,Rgs,advmod
84,508-518,napredovati,_,_,_,_,_,79,VERB,Vmbp-sm,acl
85,519-524,Miran,PER[9],_,*->9-1,*[9],_,85,PROPN,Npmsn,nsubj
86,525-530,Potrč,PER[9],_,*->9-1,*[9],_,86,PROPN,Npmsn,flat:name
87,531-532,",",_,_,_,_,_,92,PUNCT,Z,punct
88,533-535,ki,_,_,_,_,_,92,SCONJ,Cs,mark
89,536-538,se,_,0,*->9-2,*[9],3 - Nevtralno[23],92,PRON,Px------y,expl
90,539-541,biti,_,0,*->9-2,*[9],3 - Nevtralno[23],92,AUX,Va-r3s-n,aux
91,542-550,posloviti,_,0,*->9-2,*[9],3 - Nevtralno[23],86,VERB,Vmep-sm,acl
92,551-553,od,_,_,_,_,_,94,ADP,Sg,case
93,554-562,politika,_,_,_,_,_,92,NOUN,Ncfsg,obl
94,563-564,.,_,_,_,_,_,85,PUNCT,Z,punct
95,565-570,Borut,PER[10],0,*->10-1,*[10],3 - Nevtralno[24],99,PROPN,Npmsn,nsubj
96,571-576,Pahor,PER[10],0,*->10-1,*[10],3 - Nevtralno[24],96,PROPN,Npmsn,flat:name
97,577-579,biti,_,_,_,_,_,99,AUX,Va-r3s-n,cop
98,580-586,deseti,_,_,_,_,_,85,ADJ,Mlomsn,parataxis
99,587-588,",",_,_,_,_,_,99,PUNCT,Z,punct
100,589-592,tik,_,_,_,_,_,103,ADV,Rgp,advmod
101,593-595,pa,_,_,_,_,_,103,CCONJ,Cc,advmod
102,596-603,ljubica,PER[11],0,*->11-1,*[11],3 - Nevtralno[25],99,NOUN,Ncfsa,obj
103,604-611,Jelušič,PER[11],0,*->11-1,*[11],3 - Nevtralno[25],103,PROPN,Npfsn,nmod
104,612-614,in,_,_,_,_,_,107,CCONJ,Cc,cc
105,615-619,pred,_,_,_,_,_,107,ADP,Si,case
106,620-626,Pavel,PER[12],0,*->12-1,*[12],3 - Nevtralno[26],104,PROPN,Npmsi,conj
107,627-636,Gantar,PER[12],0,*->12-1,*[12],3 - Nevtralno[26],107,PROPN,Npmsi,flat:name
108,637-638,.,_,_,_,_,_,99,PUNCT,Z,punct
109,639-644,Janša,PER,_,*->1-2,*[1],_,104,PROPN,Npmsg,conj
110,645-646,v,_,_,_,_,_,112,ADP,Sl,case
111,647-653,družba,_,_,_,_,_,110,NOUN,Ncfsl,nmod
112,654-663,Kresalov,PER,_,*->13-1,*[13],_,112,ADJ,Aspfsg,amod
113,664-666,in,_,_,_,_,_,115,CCONJ,Cc,cc
114,667-675,Golobič,PER,_,*->14-1,*[14],_,113,PROPN,Npmsg,conj
115,676-678,le,_,_,_,_,_,120,PART,Q,advmod
116,679-684,trije,_,_,_,_,_,118,NUM,Mlcmpn,nummod
117,685-693,politika,_,_,_,_,_,120,NOUN,Ncmpn,nsubj
118,694-696,biti,_,_,_,_,_,120,AUX,Va-r3p-n,cop
119,697-705,ocenjen,_,_,_,_,_,6,ADJ,Appmpn,parataxis
120,706-712,slabo,_,_,_,_,_,120,ADV,Rgc,advmod
121,713-716,kot,_,_,_,_,_,124,SCONJ,Cs,case
122,717-725,prejšnji,_,_,_,_,_,124,ADJ,Agpmsay,amod
123,726-731,mesec,_,_,_,_,_,121,NOUN,Ncmsan,obl
124,732-733,:,_,_,_,_,_,131,PUNCT,Z,punct
125,734-744,predsednik,_,_,*->1-3,*[1],_,131,NOUN,Ncmsn,nsubj
126,745-748,SDS,ORG,_,*->1-3|*->15-1,*[1]|*[15],_,126,PROPN,Npmsg,nmod
127,749-754,Janez,PER[13],_,*->1-3,*[1],_,126,PROPN,Npmsn,nmod
128,755-760,Janša,PER[13],_,*->1-3,*[1],_,128,PROPN,Npmsn,flat:name
129,761-763,biti,_,_,_,_,_,131,AUX,Va-r3s-n,aux
130,764-769,pasti,_,_,_,_,_,120,VERB,Vmep-sm,parataxis
131,770-771,z,_,_,_,_,_,133,ADP,Sg,case
132,772-779,šesti,_,_,_,_,_,131,ADJ,Mlomsg,obl
133,780-782,na,_,_,_,_,_,136,ADP,Sa,case
134,783-793,osemnajsti,_,_,_,_,_,136,ADJ,Mlonsa,amod
135,794-799,mesto,_,_,_,_,_,133,NOUN,Ncnsa,nmod
136,800-801,",",_,_,_,_,_,131,PUNCT,Z,punct
137,802-804,za,_,_,_,_,_,139,ADP,Si,case
138,805-809,on,_,_,*->1-4,*[1],_,143,PRON,Pp3msi,obl
139,810-812,pa,_,_,_,_,_,143,CCONJ,Cc,advmod
140,813-816,biti,_,_,_,_,_,143,AUX,Va-r3d-n,aux
141,817-819,še,_,_,_,_,_,143,PART,Q,advmod
142,820-831,predsednica,_,0,*->13-2,*[13],3 - Nevtralno[27],131,NOUN,Ncfsn,nsubj
143,832-835,LDS,ORG,0,*->13-2|*->16-1,*[13]|*[16],3 - Nevtralno[27]|3 - Nevtralno[28],143,PROPN,Npfsg,nmod
144,836-837,v,_,0,*->13-2,*[13],3 - Nevtralno[27],146,ADP,Sl,case
145,838-845,odstop,_,0,*->13-2,*[13],3 - Nevtralno[27],143,NOUN,Ncmsl,nmod
146,846-854,Katarina,PER[14],0,*->13-2,*[13],3 - Nevtralno[27],143,PROPN,Npfsn,nmod
147,855-861,Kresal,PER[14],0,*->13-2,*[13],3 - Nevtralno[27],147,PROPN,Npfsn,flat:name
148,862-864,in,_,_,_,_,_,153,CCONJ,Cc,cc
149,865-867,za,_,_,_,_,_,151,ADP,Sa,case
150,868-872,zdaj,_,_,_,_,_,153,ADV,Rgp,advmod
151,873-875,še,_,_,_,_,_,153,PART,Q,advmod
152,876-886,predsednik,_,0,*->14-2,*[14],3 - Nevtralno[29],143,NOUN,Ncmsn,conj
153,887-892,zares,ORG,0,*->14-2|*->17-1,*[14]|*[17],3 - Nevtralno[29]|3 - Nevtralno[30],153,ADV,Rgp,advmod
154,893-899,Gregor,PER[15],0,*->14-2,*[14],3 - Nevtralno[29],153,PROPN,Npmsn,nmod
155,900-907,Golobič,PER[15],0,*->14-2,*[14],3 - Nevtralno[29],155,PROPN,Npmsn,flat:name
156,908-909,.,_,_,_,_,_,143,PUNCT,Z,punct
157,910-918,zanimiv,_,_,_,_,_,159,ADJ,Agpnsn,nsubj
158,919-921,biti,_,_,_,_,_,6,VERB,Va-f3s-n,parataxis
159,922-928,videti,_,_,_,_,_,159,VERB,Vmbn,csubj
160,929-930,",",_,_,_,_,_,171,PUNCT,Z,punct
161,931-937,kakšen,_,_,_,_,_,164,DET,Pq-mpn,nsubj
162,938-942,biti,_,_,_,_,_,162,AUX,Va-f3p-n,aux
163,943-952,rezultat,_,_,_,_,_,159,NOUN,Ncmpn,nsubj
164,953-955,po,_,_,_,_,_,167,ADP,Sl,case
165,956-961,nov,_,_,_,_,_,167,ADJ,Agpnsl,amod
166,962-966,leto,_,_,_,_,_,164,NOUN,Ncnsl,nmod
167,967-968,-,_,_,_,_,_,171,PUNCT,Z,punct
168,969-971,biti,_,_,_,_,_,171,AUX,Va-f3s-n,aux
169,972-977,Janši,PER,_,*->1-5,*[1],_,171,PROPN,Npfsd,iobj
170,978-985,pomagati,_,_,_,_,_,160,VERB,Vmbp-sm,ccomp
171,986-993,osnutek,_,_,_,_,_,171,NOUN,Ncmsan,obj
172,994-1005,koalicijski,_,_,_,_,_,174,ADJ,Agpfsg,amod
173,1006-1013,pogodba,_,_,_,_,_,172,NOUN,Ncfsg,nmod
174,1014-1017,SDS,ORG,0,*->15-2,*[15],3 - Nevtralno,174,PROPN,Npmsn,nmod
175,1018-1019,-,_,_,_,_,_,177,PUNCT,Z,punct
176,1020-1021,a,_,_,_,_,_,182,CCONJ,Cc,cc
177,1022-1023,",",_,_,_,_,_,182,PUNCT,Z,punct
178,1024-1026,za,_,_,_,_,_,180,ADP,Sa,case
179,1027-1035,kateri,_,_,_,_,_,182,DET,Pq-msa,obl
180,1036-1039,sam,_,_,_,_,_,182,ADJ,Agpmsnn,obl
181,1040-1045,praviti,_,_,*->1-6,*[1],_,174,VERB,Vmbr3s,acl
182,1046-1047,",",_,_,_,_,_,187,PUNCT,Z,punct
183,1048-1050,da,_,_,_,_,_,194,SCONJ,Cs,mark
184,1051-1053,biti,_,_,_,_,_,187,AUX,Va-r3s-n,cop
185,1054-1062,rezerven,_,_,_,_,_,187,ADJ,Agpmsny,amod
186,1063-1071,scenarij,_,_,_,_,_,182,NOUN,Ncmsn,nsubj
187,1072-1073,?,_,_,_,_,_,171,PUNCT,Z,punct
188,1074-1081,osnutek,_,_,_,_,_,194,NOUN,Ncmsn,nsubj
189,1082-1084,biti,_,0,*->1-7,*[1],3 - Nevtralno,194,AUX,Va-r3s-n,aux
190,1085-1099,parlamentaren,_,_,_,_,_,192,ADJ,Agpfpd,amod
191,1100-1108,stranka,_,_,_,_,_,194,NOUN,Ncfpd,obj
192,1109-1111,že,_,_,_,_,_,194,PART,Q,advmod
193,1112-1118,poslati,_,_,_,_,_,187,VERB,Vmep-sm,acl
194,1119-1121,in,_,_,_,_,_,196,CCONJ,Cc,cc
195,1122-1130,pojasniti,_,_,_,_,_,194,VERB,Vmep-sm,conj
196,1131-1132,",",_,_,_,_,_,199,PUNCT,Z,punct
197,1133-1135,da,_,_,_,_,_,199,SCONJ,Cs,mark
198,1136-1139,iti,_,_,_,_,_,196,VERB,Vmbr3s,ccomp
199,1140-1142,za,_,_,_,_,_,202,ADP,Sa,case
200,1143-1151,rezerven,_,_,_,_,_,202,ADJ,Agpmsay,amod
201,1152-1157,načrt,_,_,_,_,_,199,NOUN,Ncmsan,obl
202,1158-1159,v,_,_,_,_,_,204,ADP,Sl,case
203,1160-1167,primer,_,_,_,_,_,199,NOUN,Ncmsl,obl
204,1168-1169,",",_,_,_,_,_,214,PUNCT,Z,punct
205,1170-1172,da,_,_,_,_,_,214,SCONJ,Cs,mark
206,1173-1184,predsednik,_,0,*->8-2,*[8],3 - Nevtralno[31],214,NOUN,Ncmsd,obj
207,1185-1194,pozitiven,ORG[16],0,*->8-2|*->18-1,*[8]|*[18],3 - Nevtralno[31]|3 - Nevtralno[32],209,ADJ,Agpfsg,amod
208,1195-1204,Slovenija,ORG[16]|LOC[17],0,*->8-2|*->18-1|*->19-1,*[8]|*[18]|*[19],3 - Nevtralno[31]|3 - Nevtralno[32]|3 - Nevtralno[33],207,PROPN,Npfsg,nmod
209,1205-1211,Zoran,PER[18],0,*->8-2,*[8],3 - Nevtralno[31],214,PROPN,Npmsd,obj
210,1212-1221,Janković,PER[18],0,*->8-2,*[8],3 - Nevtralno[31],210,PROPN,Npmsd,flat:name
211,1222-1224,ne,_,_,_,_,_,214,PART,Q,advmod
212,1225-1227,biti,_,_,_,_,_,214,AUX,Va-c,aux
213,1228-1234,uspeti,_,_,_,_,_,204,VERB,Vmep-sn,acl
214,1235-1244,sestaviti,_,_,_,_,_,214,VERB,Vmen,xcomp
215,1245-1251,vladen,_,_,_,_,_,217,ADJ,Agpfsg,amod
216,1252-1261,koalicija,_,_,_,_,_,215,NOUN,Ncfsg,obj
217,1262-1263,.,_,_,_,_,_,214,PUNCT,Z,punct
218,1264-1267,več,_,_,_,_,_,221,PART,Q,advmod
219,1268-1273,lahko,_,_,_,_,_,221,ADV,Rgp,advmod
220,1274-1283,prebrati,_,_,_,_,_,6,VERB,Vmer2p,parataxis
221,1284-1289,tukaj,_,_,_,_,_,221,ADV,Rgp,advmod
