idx,chars_idx,token,entity_type,sentiment,idk_1,idk_2,orig_sentiment,heads,upos,xpos,deprel
0,0-9,vstopanje,_,_,_,_,_,5,NOUN,Ncnsn,nsubj
1,10-11,v,_,_,_,_,_,3,ADP,Sa,case
2,12-15,SCT,_,_,*->10-1,*[10],_,1,PROPN,Npmsan,nmod
3,16-18,ne,_,_,_,_,_,5,PART,Q,advmod
4,19-24,priti,_,_,_,_,_,0,VERB,Vmer3s,root
5,25-26,v,_,_,_,_,_,7,ADP,Sa,case
6,27-33,poštvo,_,_,_,_,_,5,NOUN,Ncmsan,obl
7,34-35,",",_,_,_,_,_,9,PUNCT,Z,punct
8,36-40,meniti,_,_,_,_,_,5,VERB,Vmpr3s,parataxis
9,41-51,predsednik,_,_,*->5-1,*[5],_,9,NOUN,Ncmsn,nsubj
10,52-61,upraven,_,_,*->5-1,*[5],_,12,ADJ,Agpmsg,amod
11,62-68,odbor,_,_,*->5-1,*[5],_,10,NOUN,Ncmsg,nmod
12,69-72,CPL,ORG,_,*->5-1|*->8-1,*[5]|*[8],_,12,PROPN,Npmsn,nmod
13,73-74,",",_,_,_,_,_,20,PUNCT,Z,punct
14,75-76,z,_,_,_,_,_,16,ADP,Si,case
15,77-82,kar,_,_,_,_,_,20,PRON,Pr-nsi,obl
16,83-85,biti,_,_,_,_,_,20,AUX,Va-f3s-n,aux
17,86-95,prihodnji,_,_,_,_,_,19,ADJ,Agpmsay,amod
18,96-101,teden,_,_,_,_,_,20,NOUN,Ncmsan,obl
19,102-110,seznaniti,_,_,*->5-2,*[5],_,12,VERB,Vmep-sm,acl
20,111-115,tudi,_,_,_,_,_,20,PART,Q,advmod
21,116-123,upraven,_,_,_,_,_,23,ADJ,Agpmsny,amod
22,124-129,odbor,_,_,_,_,_,20,NOUN,Ncmsn,nsubj
23,130-131,.,_,_,_,_,_,20,PUNCT,Z,punct
24,132-135,biti,_,_,_,_,_,38,AUX,Va-r1p-n,aux
25,136-144,podjetje,_,_,*->8-2,*[8],_,38,NOUN,Ncnsa,obj
26,145-146,",",_,_,_,_,_,32,PUNCT,Z,punct
27,147-149,ki,_,_,_,_,_,32,SCONJ,Cs,mark
28,150-152,se,_,_,_,_,_,32,PRON,Px------y,expl
29,153-157,zdaj,_,_,_,_,_,32,ADV,Rgp,advmod
30,158-163,lahko,_,_,_,_,_,32,ADV,Rgp,advmod
31,164-171,prebiti,_,_,*->8-3,*[8],_,26,VERB,Vmer3s,acl
32,172-177,skozi,_,_,_,_,_,35,ADP,Sa,case
33,178-184,krizen,_,_,_,_,_,35,ADJ,Agpmpa,amod
34,185-189,čas,_,_,_,_,_,32,NOUN,Ncmpa,obl
35,190-191,",",_,_,_,_,_,32,PUNCT,Z,punct
36,192-194,še,_,_,_,_,_,38,PART,Q,advmod
37,195-200,praviti,_,_,*->5-3,*[5],_,5,VERB,Vmbr3s,parataxis
38,201-202,.,_,_,_,_,_,38,PUNCT,Z,punct
39,203-209,Stanko,PER[1],_,*->5-4,*[5],_,38,PROPN,Npmsn,nsubj
40,210-216,Petrič,PER[1],_,*->5-4,*[5],_,40,PROPN,Npmsn,flat:name
41,217-218,",",_,_,_,_,_,43,PUNCT,Z,punct
42,219-229,predsednik,_,_,*->5-5,*[5],_,40,NOUN,Ncmsn,appos
43,230-239,upraven,_,_,*->5-5,*[5],_,45,ADJ,Agpmsg,amod
44,240-246,odbor,_,_,*->5-5,*[5],_,43,NOUN,Ncmsg,nmod
45,247-255,cesten,ORG[2],_,*->5-5|*->8-4,*[5]|*[8],_,47,ADJ,Agpnsg,amod
46,256-264,podjetje,ORG[2],_,*->5-5|*->8-4,*[5]|*[8],_,45,NOUN,Ncnsg,nmod
47,265-274,Ljubljana,ORG[2]|LOC[3],0,*->5-5|*->8-4|*->1-1,*[5]|*[8]|*[1],3 - Nevtralno,47,PROPN,Npfsn,nmod
48,275-278,CPL,ORG[2],_,*->5-5|*->8-4,*[5]|*[8],_,48,PROPN,Npmsn,nmod
49,279-280,",",_,_,_,_,_,32,PUNCT,Z,punct
50,281-283,biti,_,_,_,_,_,52,AUX,Va-r3s-n,aux
51,284-291,povedati,_,_,_,_,_,38,VERB,Vmep-sm,conj
52,292-293,",",_,_,_,_,_,62,PUNCT,Z,punct
53,294-296,da,_,_,_,_,_,62,SCONJ,Cs,mark
54,297-298,v,_,_,_,_,_,56,ADP,Sa,case
55,299-310,sodelovanje,_,_,_,_,_,62,NOUN,Ncnsa,obl
56,311-312,z,_,_,_,_,_,59,ADP,Si,case
57,313-322,gradben,_,_,*->10-2,*[10],_,59,ADJ,Agpnsi,amod
58,323-332,podjetje,_,_,*->10-2,*[10],_,56,NOUN,Ncnsi,nmod
59,333-336,SCT,ORG,_,*->10-2,*[10],_,59,PROPN,Npmsn,nmod
60,337-339,ne,_,_,_,_,_,62,PART,Q,advmod
61,340-347,verjeti,_,_,*->5-6,*[5],_,52,VERB,Vmbr3s,ccomp
62,348-351,več,_,_,_,_,_,62,PART,Q,advmod
63,352-353,.,_,_,_,_,_,65,PUNCT,Z,punct
64,354-363,prepričan,_,_,*->5-7,*[5],_,62,ADJ,Appmsnn,conj
65,364-366,biti,_,_,*->5-7,*[5],_,65,AUX,Va-r3s-n,aux
66,367-373,namreč,_,_,_,_,_,65,CCONJ,Cc,advmod
67,374-375,",",_,_,_,_,_,77,PUNCT,Z,punct
68,376-378,da,_,_,_,_,_,77,SCONJ,Cs,mark
69,379-381,biti,_,_,_,_,_,77,AUX,Va-r3s-n,aux
70,382-393,sodelovanje,_,_,_,_,_,77,NOUN,Ncnsn,nsubj
71,394-395,z,_,_,_,_,_,73,ADP,Si,case
72,396-399,SCT,ORG,_,*->10-3,*[10],_,71,PROPN,Npmsi,nmod
73,400-404,bolj,_,_,_,_,_,77,ADV,Rgc,advmod
74,405-408,ali,_,_,_,_,_,76,CCONJ,Cc,cc
75,409-413,manj,_,_,_,_,_,74,DET,Rgc,conj
76,414-421,utopija,_,_,_,_,_,65,NOUN,Ncfsn,ccomp
77,422-423,",",_,_,_,_,_,77,PUNCT,Z,punct
78,424-428,pisati,_,_,_,_,_,77,VERB,Vmpr3s,conj
79,429-437,današnji,_,_,_,_,_,81,ADJ,Agpmsny,amod
80,438-445,dnevnik,ORG,_,*->3-1,*[3],_,79,NOUN,Ncmsn,nsubj
81,446-447,.,_,_,_,_,_,79,PUNCT,Z,punct
82,448-451,Mes,PER,_,*->2-1,*[2],_,84,PROPN,Npmsn,nsubj
83,452-457,praviti,_,_,_,_,_,5,VERB,Vmbr3s,parataxis
84,458-459,",",_,_,_,_,_,88,PUNCT,Z,punct
85,460-462,da,_,_,_,_,_,88,SCONJ,Cs,mark
86,463-465,biti,_,_,_,_,_,88,AUX,Va-r3p-n,aux
87,466-474,narediti,_,_,_,_,_,84,VERB,Vmep-pm,ccomp
88,475-480,korak,_,_,_,_,_,88,NOUN,Ncmsan,obj
89,481-487,naprej,_,_,_,_,_,89,ADV,Rgp,advmod
90,488-489,.,_,_,_,_,_,84,PUNCT,Z,punct
91,490-495,konec,_,_,_,_,_,93,ADP,Sg,case
92,496-500,maj,_,_,_,_,_,96,NOUN,Ncmsg,obl
93,501-503,biti,_,_,_,_,_,96,AUX,Va-r3s-n,aux
94,504-507,CPL,ORG,_,*->8-5,*[8],_,96,PROPN,Npmsn,nsubj
95,508-516,sporočiti,_,_,_,_,_,84,VERB,Vmep-sm,parataxis
96,517-518,",",_,_,_,_,_,100,PUNCT,Z,punct
97,519-521,da,_,_,_,_,_,100,SCONJ,Cs,mark
98,522-524,biti,_,_,_,_,_,100,AUX,Va-r3s-n,cop
99,525-536,pripravljen,_,_,_,_,_,96,ADJ,Appmsnn,ccomp
100,537-544,postati,_,_,_,_,_,100,VERB,Vmen,ccomp
101,545-552,partner,_,_,_,_,_,101,NOUN,Ncmsn,nsubj
102,553-555,in,_,_,_,_,_,105,CCONJ,Cc,cc
103,556-564,večinski,_,_,_,_,_,105,ADJ,Agpmsny,amod
104,565-572,lastnik,_,_,_,_,_,102,NOUN,Ncmsn,conj
105,573-576,SCT,ORG,_,*->10-4,*[10],_,105,PROPN,Npmsg,nmod
106,577-578,",",_,_,_,_,_,114,PUNCT,Z,punct
107,579-580,v,_,_,_,_,_,109,ADP,Sa,case
108,581-584,kar,_,_,_,_,_,114,PRON,Pr-nsa,obl
109,585-587,pa,_,_,_,_,_,114,CCONJ,Cc,advmod
110,588-594,Petrič,PER,_,*->5-8,*[5],_,114,PROPN,Npmsn,nsubj
111,595-599,zdaj,_,_,_,_,_,114,ADV,Rgp,advmod
112,600-602,ne,_,_,_,_,_,114,PART,Q,advmod
113,603-610,verjeti,_,_,_,_,_,105,VERB,Vmbr3s,acl
114,611-614,več,_,_,_,_,_,114,PART,Q,advmod
115,615-616,.,_,_,_,_,_,114,PUNCT,Z,punct
116,617-628,konkreten,_,_,_,_,_,118,ADJ,Agpmsg,amod
117,629-637,predlog,_,_,_,_,_,114,NOUN,Ncmsg,obj
118,638-640,na,_,_,_,_,_,120,ADP,Sa,case
119,641-645,miza,_,_,_,_,_,118,NOUN,Ncfsa,nmod
120,646-648,do,_,_,_,_,_,122,ADP,Sg,case
121,649-654,danes,_,_,_,_,_,124,ADV,Rgp,advmod
122,655-660,biti,_,_,*->5-9,*[5],_,124,AUX,Va-r1s-y,aux
123,661-666,dobiti,_,_,*->5-9,*[5],_,114,VERB,Vmep-sm,conj
124,667-668,",",_,_,_,_,_,124,PUNCT,Z,punct
125,669-675,stati,_,_,*->5-10,*[5],_,124,VERB,Vmpr1s,conj
126,676-678,pa,_,_,_,_,_,126,CCONJ,Cc,advmod
127,679-681,na,_,_,_,_,_,129,ADP,Sl,case
128,682-690,stališče,_,_,_,_,_,126,NOUN,Ncnsl,obl
129,691-692,",",_,_,_,_,_,140,PUNCT,Z,punct
130,693-695,da,_,_,_,_,_,140,SCONJ,Cs,mark
131,696-703,kakršen,_,_,_,_,_,134,DET,Pq-nsn,det
132,704-708,koli,_,_,_,_,_,132,PART,Q,fixed
133,709-720,povezovanje,_,_,_,_,_,140,NOUN,Ncnsa,nsubj
134,721-722,z,_,_,_,_,_,136,ADP,Sg,case
135,723-726,SCT,ORG,_,*->10-5,*[10],_,134,PROPN,Npmsi,nmod
136,727-729,za,_,_,_,_,_,138,ADP,Sa,case
137,730-733,jaz,_,_,_,_,_,140,PRON,Pp1-pa,obl
138,734-736,ne,_,_,_,_,_,140,PART,Q,advmod
139,737-742,priti,_,_,_,_,_,129,VERB,Vmer3s,acl
140,743-744,v,_,_,_,_,_,142,ADP,Sa,case
141,745-751,poštvo,_,_,_,_,_,140,NOUN,Ncmsan,obl
142,752-753,",",_,_,_,_,_,140,PUNCT,Z,punct
143,754-756,biti,_,_,_,_,_,145,AUX,Va-r3s-n,aux
144,757-764,povedati,_,_,*->5-11,*[5],_,5,VERB,Vmep-sm,parataxis
145,765-767,za,_,_,_,_,_,147,ADP,Sa,case
146,768-774,časnik,_,_,*->3-2,*[3],_,145,NOUN,Ncmsan,obl
147,775-776,.,_,_,_,_,_,145,PUNCT,Z,punct
148,777-783,zadnji,_,_,_,_,_,150,ADJ,Agpmsny,amod
149,784-790,poskus,_,_,_,_,_,145,NOUN,Ncmsn,nsubj
150,791-800,reševanje,_,_,_,_,_,150,NOUN,Ncnsg,nmod
151,801-804,SCT,ORG,_,*->10-6,*[10],_,151,PROPN,Npmsg,nmod
152,805-807,se,_,_,_,_,_,157,PRON,Px------y,expl
153,808-812,tako,_,_,_,_,_,156,ADV,Rgp,advmod
154,813-816,vse,_,_,_,_,_,156,ADV,Rgp,advmod
155,817-821,bolj,_,_,_,_,_,157,ADV,Rgc,advmod
156,822-829,zaplesati,_,_,_,_,_,145,VERB,Vmpr3s,conj
157,830-831,.,_,_,_,_,_,157,PUNCT,Z,punct
158,832-838,medtem,_,_,_,_,_,168,ADV,Rgp,mark
159,839-841,ko,_,_,_,_,_,159,SCONJ,Cs,fixed
160,842-851,prokurist,_,0,*->2-2,*[2],3 - Nevtralno[10],168,NOUN,Ncmsn,nsubj
161,852-855,SCT,ORG,0,*->2-2|*->10-7,*[2]|*[10],3 - Nevtralno[10],161,PROPN,Npmsn,nmod
162,856-861,Dušan,PER[4],0,*->2-2,*[2],3 - Nevtralno[10],161,PROPN,Npmsn,nmod
163,862-865,Mes,PER[4],0,*->2-2,*[2],3 - Nevtralno[10],163,PROPN,Npmsn,flat:name
164,866-868,po,_,_,_,_,_,166,ADP,Sl,case
165,869-878,poročanje,_,_,_,_,_,168,NOUN,Ncnsl,obl
166,879-886,časnik,_,_,*->3-3,*[3],_,166,NOUN,Ncmsg,nmod
167,887-895,zatrjevati,_,_,_,_,_,157,VERB,Vmpr3s,advcl
168,896-897,",",_,_,_,_,_,171,PUNCT,Z,punct
169,898-900,da,_,_,_,_,_,171,SCONJ,Cs,mark
170,901-903,biti,_,_,_,_,_,168,VERB,Va-r3p-n,ccomp
171,904-905,v,_,_,_,_,_,173,ADP,Sl,case
172,906-915,dogovor,_,_,_,_,_,171,NOUN,Ncmpl,obl
173,916-917,z,_,_,_,_,_,176,ADP,Si,case
174,918-928,operativen,_,_,_,_,_,176,ADJ,Agpfsi,amod
175,929-934,ekipa,_,_,_,_,_,173,NOUN,Ncfsi,nmod
176,935-938,CPL,ORG,_,*->8-6,*[8],_,176,PROPN,Npmsn,nmod
177,939-940,",",_,_,_,_,_,181,PUNCT,Z,punct
178,941-943,ki,_,_,_,_,_,181,SCONJ,Cs,mark
179,944-946,on,_,_,_,_,_,181,PRON,Pp3fsa--y,obj
180,947-951,voditi,_,_,_,_,_,176,VERB,Vmpr3s,acl
181,952-959,izvršen,_,0,*->4-1,*[4],3 - Nevtralno[11],183,ADJ,Agpmsny,amod
182,960-968,direktor,_,0,*->4-1,*[4],3 - Nevtralno[11],181,NOUN,Ncmsn,nsubj
183,969-971,za,_,0,*->4-1,*[4],3 - Nevtralno[11],185,ADP,Sa,case
184,972-982,komercialo,_,0,*->4-1,*[4],3 - Nevtralno[11],183,NOUN,Ncfsa,nmod
185,983-986,pri,_,0,*->4-1,*[4],3 - Nevtralno[11],187,ADP,Sl,case
186,987-990,CPL,ORG,0,*->4-1|*->8-7,*[4]|*[8],3 - Nevtralno[11],185,PROPN,Npmsl,nmod
187,991-995,Jure,PER[5],0,*->4-1,*[4],3 - Nevtralno[11],183,PROPN,Npmsn,nmod
188,996-1002,Krajnc,PER[5],0,*->4-1,*[4],3 - Nevtralno[11],188,PROPN,Npmsn,flat:name
189,1003-1004,",",_,_,_,_,_,181,PUNCT,Z,punct
190,1005-1013,narediti,_,_,_,_,_,181,VERB,Vmep-pm,conj
191,1014-1019,korak,_,_,_,_,_,191,NOUN,Ncmsan,obj
192,1020-1026,naprej,_,_,_,_,_,191,ADV,Rgp,advmod
193,1027-1028,",",_,_,_,_,_,199,PUNCT,Z,punct
194,1029-1031,biti,_,_,_,_,_,199,AUX,Va-r3s-n,aux
195,1032-1038,Petrič,PER,_,*->5-12,*[5],_,199,PROPN,Npmsn,nsubj
196,1039-1043,vsaj,_,_,_,_,_,199,PART,Q,advmod
197,1044-1050,uradno,_,_,_,_,_,199,ADV,Rgp,advmod
198,1051-1059,neomajen,_,_,_,_,_,191,ADJ,Agpmsnn,conj
199,1060-1061,.,_,_,_,_,_,199,PUNCT,Z,punct
200,1062-1071,prepričan,_,_,*->5-13,*[5],_,199,ADJ,Appmsnn,advcl
201,1072-1075,biti,_,_,*->5-13,*[5],_,199,AUX,Va-r1s-n,cop
202,1076-1077,",",_,_,_,_,_,211,PUNCT,Z,punct
203,1078-1080,da,_,_,_,_,_,211,SCONJ,Cs,mark
204,1081-1083,biti,_,_,_,_,_,211,AUX,Va-r3s-n,aux
205,1084-1086,ta,_,_,_,_,_,207,DET,Pd-nsn,det
206,1087-1098,sodelovanje,_,_,_,_,_,211,NOUN,Ncnsn,nsubj
207,1099-1103,bolj,_,_,_,_,_,211,ADV,Rgc,advmod
208,1104-1107,ali,_,_,_,_,_,210,CCONJ,Cc,cc
209,1108-1112,manj,_,_,_,_,_,208,DET,Rgc,conj
210,1113-1120,utopija,_,_,_,_,_,199,NOUN,Ncfsn,csubj
211,1121-1122,.,_,_,_,_,_,199,PUNCT,Z,punct
212,1123-1124,z,_,_,_,_,_,214,ADP,Si,case
213,1125-1134,dogajanje,_,_,_,_,_,218,NOUN,Ncnpi,obl
214,1135-1138,biti,_,_,_,_,_,218,AUX,Va-f1s-n,aux
215,1139-1148,prihodnji,_,_,_,_,_,217,ADJ,Agpmsay,amod
216,1149-1154,teden,_,_,_,_,_,218,NOUN,Ncmsan,obl
217,1155-1163,seznaniti,_,_,*->5-14,*[5],_,199,VERB,Vmep-sm,advcl
218,1164-1171,upraven,_,_,_,_,_,220,ADJ,Agpmsny,amod
219,1172-1177,odbor,_,_,_,_,_,218,NOUN,Ncmsan,obj
220,1178-1180,in,_,_,_,_,_,223,CCONJ,Cc,cc
221,1181-1183,on,_,_,_,_,_,223,PRON,Pp3msd--y,iobj
222,1184-1192,sporočiti,_,_,*->5-15,*[5],_,218,VERB,Vmep-sm,conj
223,1193-1198,svoj,_,_,_,_,_,225,DET,Px-nsa,det
224,1199-1207,stališče,_,_,_,_,_,223,NOUN,Ncnsa,obj
225,1208-1209,",",_,_,_,_,_,232,PUNCT,Z,punct
226,1210-1212,da,_,_,_,_,_,232,SCONJ,Cs,mark
227,1213-1222,vstopanje,_,_,_,_,_,232,NOUN,Ncnsn,nsubj
228,1223-1224,v,_,_,_,_,_,230,ADP,Sl,case
229,1225-1228,SCT,ORG,_,*->10-8,*[10],_,228,PROPN,Npmsl,nmod
230,1229-1231,ne,_,_,_,_,_,232,PART,Q,advmod
231,1232-1237,priti,_,_,_,_,_,225,VERB,Vmer3s,acl
232,1238-1239,v,_,_,_,_,_,234,ADP,Sa,case
233,1240-1246,poštvo,_,_,_,_,_,232,NOUN,Ncmsan,obl
234,1247-1248,.,_,_,_,_,_,218,PUNCT,Z,punct
235,1249-1252,biti,_,_,_,_,_,267,AUX,Va-r1p-n,aux
236,1253-1260,srednji,_,_,*->8-8,*[8],_,239,ADJ,Agpnsa,amod
237,1261-1267,velik,_,_,*->8-8,*[8],_,239,ADJ,Agpnsa,amod
238,1268-1276,podjetje,_,_,*->8-8,*[8],_,267,NOUN,Ncnsa,obj
239,1277-1278,",",_,_,_,_,_,245,PUNCT,Z,punct
240,1279-1281,ki,_,_,_,_,_,245,SCONJ,Cs,mark
241,1282-1284,se,_,_,_,_,_,245,PRON,Px------y,expl
242,1285-1289,zdaj,_,_,_,_,_,245,ADV,Rgp,advmod
243,1290-1295,lahko,_,_,_,_,_,245,ADV,Rgp,advmod
244,1296-1303,prebiti,_,_,*->8-9,*[8],_,239,VERB,Vmer3s,acl
245,1304-1309,skozi,_,_,_,_,_,248,ADP,Sa,case
246,1310-1316,krizen,_,_,_,_,_,248,ADJ,Agpmpa,amod
247,1317-1321,čas,_,_,_,_,_,245,NOUN,Ncmpa,obl
248,1322-1323,",",_,_,_,_,_,245,PUNCT,Z,punct
249,1324-1326,biti,_,_,_,_,_,251,AUX,Va-r3s-n,aux
250,1327-1334,povedati,_,_,_,_,_,5,VERB,Vmep-sm,parataxis
251,1335-1341,Petrič,PER,0,*->5-16,*[5],3 - Nevtralno,251,PROPN,Npmsn,nsubj
252,1342-1343,.,_,_,_,_,_,251,PUNCT,Z,punct
253,1344-1346,po,_,_,_,_,_,255,ADP,Sl,case
254,1347-1356,poročanje,_,_,_,_,_,267,NOUN,Ncnsl,obl
255,1357-1365,dnevnik,ORG,0,*->3-4,*[3],3 - Nevtralno,255,NOUN,Ncmsg,nmod
256,1366-1368,biti,_,_,_,_,_,267,AUX,Va-r3p-n,aux
257,1369-1373,biti,_,_,_,_,_,267,AUX,Va-p-pn,cop
258,1374-1380,mnenje,_,_,_,_,_,267,NOUN,Ncnpn,nsubj
259,1381-1382,v,_,_,_,_,_,263,ADP,Sl,case
260,1383-1394,tričlanski,_,_,_,_,_,263,ADJ,Agpmsl,amod
261,1395-1403,upraven,_,_,_,_,_,263,ADJ,Agpmsl,amod
262,1404-1410,odbor,_,_,_,_,_,259,NOUN,Ncmsl,nmod
263,1411-1414,CPL,ORG,_,*->8-10,*[8],_,263,PROPN,Npfsn,nmod
264,1415-1422,nedavno,_,_,_,_,_,267,ADV,Rgp,advmod
265,1423-1425,še,_,_,_,_,_,267,PART,Q,advmod
266,1426-1433,deljen,_,_,_,_,_,5,ADJ,Appnpn,parataxis
267,1434-1435,.,_,_,_,_,_,267,PUNCT,Z,punct
268,1436-1438,še,_,_,_,_,_,279,PART,Q,advmod
269,1439-1443,pred,_,_,_,_,_,272,ADP,Si,case
270,1444-1449,dva,_,_,_,_,_,272,NUM,Mlcmdi,nummod
271,1450-1457,teden,_,_,_,_,_,279,NOUN,Ncmdi,obl
272,1458-1460,biti,_,_,_,_,_,279,AUX,Va-r3s-n,aux
273,1461-1464,biti,_,_,_,_,_,279,AUX,Va-p-sm,cop
274,1465-1476,povezovanje,_,_,_,_,_,279,NOUN,Ncnsd,obj
275,1477-1478,z,_,_,_,_,_,277,ADP,Si,case
276,1479-1482,SCT,ORG,_,*->10-9,*[10],_,275,PROPN,Npmsi,nmod
277,1483-1488,javno,_,_,_,_,_,279,ADV,Rgp,advmod
278,1489-1498,naklonjen,_,_,_,_,_,267,ADJ,Appmsnn,parataxis
279,1499-1505,glaven,_,0,*->6-1,*[6],3 - Nevtralno[12],282,ADJ,Agpmsny,amod
280,1506-1513,izvršen,_,0,*->6-1,*[6],3 - Nevtralno[12],282,ADJ,Agpmsny,amod
281,1514-1522,direktor,_,0,*->6-1,*[6],3 - Nevtralno[12],279,NOUN,Ncmsn,nsubj
282,1523-1528,Alojz,PER[6],0,*->6-1,*[6],3 - Nevtralno[12],282,PROPN,Npmsn,nmod
283,1529-1537,Kramljak,PER[6],0,*->6-1,*[6],3 - Nevtralno[12],283,PROPN,Npmsn,flat:name
284,1538-1539,",",_,_,_,_,_,297,PUNCT,Z,punct
285,1540-1542,ki,_,_,_,_,_,297,SCONJ,Cs,mark
286,1543-1546,naj,_,_,_,_,_,297,PART,Q,advmod
287,1547-1549,biti,_,_,_,_,_,297,AUX,Va-c,aux
288,1550-1552,se,_,_,_,_,_,297,PRON,Px------y,expl
289,1553-1557,pred,_,_,_,_,_,291,ADP,Si,case
290,1558-1565,kratek,_,_,_,_,_,297,ADJ,Agpmsi,obl
291,1566-1567,z,_,_,_,_,_,296,ADP,Si,case
292,1568-1570,za,_,_,_,_,_,296,ADP,Si,case
293,1571-1575,zdaj,_,_,_,_,_,295,ADV,Rgp,advmod
294,1576-1584,neznan,_,_,_,_,_,296,ADJ,Agpmsi,amod
295,1585-1595,ponudnik,_,_,_,_,_,297,NOUN,Ncmsi,obl
296,1596-1606,dogovarjati,_,0,*->6-2,*[6],3 - Nevtralno,282,VERB,Vmpp-sm,acl
297,1607-1608,o,_,_,_,_,_,299,ADP,Sl,case
298,1609-1616,prodaja,_,_,_,_,_,297,NOUN,Ncfsl,obl
299,1617-1624,svoj,_,_,_,_,_,304,DET,Px-msg,det
300,1625-1629,"36,6",_,_,_,_,_,303,NUM,Mdc,nummod
301,1630-1631,-,_,_,_,_,_,303,PUNCT,Z,punct
302,1632-1642,odstoten,_,_,_,_,_,304,ADJ,Agpmsg,amod
303,1643-1649,delež,_,_,_,_,_,299,NOUN,Ncmsg,nmod
304,1650-1651,v,_,_,_,_,_,306,ADP,Sa,case
305,1652-1655,CPL,ORG[7]|ORG[8],_,*->7-1|*->8-11,*[7]|*[8],_,304,NOUN,Ncmsa,nmod
306,1656-1663,naložba,ORG[7],_,*->7-1,*[7],_,306,NOUN,Ncfsg,nmod
307,1664-1665,",",_,_,_,_,_,311,PUNCT,Z,punct
308,1666-1668,ki,_,_,_,_,_,311,SCONJ,Cs,mark
309,1669-1678,lastniško,_,_,_,_,_,311,ADV,Rgp,advmod
310,1679-1688,obvladovati,_,0,*->7-2,*[7],3 - Nevtralno,307,VERB,Vmpr3s,acl
311,1689-1692,CPL,ORG,0,*->8-12,*[8],3 - Nevtralno,311,PROPN,Npmsn,nsubj
312,1693-1694,",",_,_,_,_,_,311,PUNCT,Z,punct
313,1695-1701,vendar,_,_,_,_,_,318,CCONJ,Cc,cc
314,1702-1705,naj,_,_,_,_,_,318,PART,Q,advmod
315,1706-1708,biti,_,_,_,_,_,318,AUX,Va-c,aux
316,1709-1714,posel,_,_,_,_,_,318,NOUN,Ncmsan,obj
317,1715-1720,pasti,_,_,_,_,_,311,VERB,Vmep-sm,conj
318,1721-1722,v,_,_,_,_,_,320,ADP,Sa,case
319,1723-1727,voda,_,_,_,_,_,318,NOUN,Ncfsa,obl
320,1728-1729,.,_,_,_,_,_,318,PUNCT,Z,punct
321,1730-1741,ljubljanski,_,_,_,_,_,324,ADJ,Agpnsn,amod
322,1742-1749,okrožen,_,_,_,_,_,324,ADJ,Agpnsn,amod
323,1750-1757,sodišče,_,_,_,_,_,330,NOUN,Ncnsn,nsubj
324,1758-1760,biti,_,_,_,_,_,330,AUX,Va-r3s-n,aux
325,1761-1769,postopek,_,_,_,_,_,330,NOUN,Ncmsan,obj
326,1770-1778,prisilen,_,_,_,_,_,328,ADJ,Agpfsg,amod
327,1779-1788,poravnava,_,_,_,_,_,326,NOUN,Ncfsg,nmod
328,1789-1792,SCT,ORG,_,*->10-10,*[10],_,328,PROPN,Npmsn,nmod
329,1793-1799,začeti,_,_,_,_,_,318,VERB,Vmep-sn,conj
330,1800-1802,25,_,_,_,_,_,330,NUM,Mdc,obl
331,1803-1804,.,_,_,_,_,_,330,PUNCT,Z,punct
332,1805-1813,januar,_,_,_,_,_,330,NOUN,Ncmsg,obl
333,1814-1815,",",_,_,_,_,_,330,PUNCT,Z,punct
334,1816-1820,zdaj,_,_,_,_,_,345,ADV,Rgp,advmod
335,1821-1823,pa,_,_,_,_,_,337,CCONJ,Cc,advmod
336,1824-1828,morati,_,_,_,_,_,330,VERB,Vmpr3s,advcl
337,1829-1832,SCT,ORG,_,*->10-11,*[10],_,339,ADJ,Agpmsnn,amod
338,1833-1840,predlog,_,_,_,_,_,345,NOUN,Ncmsan,obj
339,1841-1843,za,_,_,_,_,_,341,ADP,Sa,case
340,1844-1851,začetek,_,_,_,_,_,339,NOUN,Ncmsan,nmod
341,1852-1860,postopek,_,_,_,_,_,341,NOUN,Ncmsg,nmod
342,1861-1869,prisilen,_,_,_,_,_,344,ADJ,Agpfsg,amod
343,1870-1879,poravnava,_,_,_,_,_,342,NOUN,Ncfsg,nmod
344,1880-1889,dopolniti,_,_,_,_,_,337,VERB,Vmen,xcomp
345,1890-1891,.,_,_,_,_,_,330,PUNCT,Z,punct
346,1892-1899,upraven,_,_,_,_,_,348,ADJ,Agpmsny,amod
347,1900-1905,odbor,_,_,_,_,_,355,NOUN,Ncmsn,nsubj
348,1906-1909,SCT,ORG,_,*->10-12,*[10],_,348,PROPN,Npmsn,nmod
349,1910-1912,biti,_,_,_,_,_,355,AUX,Va-r3s-n,aux
350,1913-1922,odvetnik,_,_,*->9-1,*[9],_,355,NOUN,Ncmsay,iobj
351,1923-1928,Mirko,PER[9],_,*->9-1,*[9],_,351,PROPN,Npmsay,nmod
352,1929-1936,Bandelj,PER[9],_,*->9-1,*[9],_,352,PROPN,Npmsay,flat:name
353,1937-1942,sicer,_,_,_,_,_,355,PART,Q,advmod
354,1943-1953,pooblastiti,_,_,_,_,_,330,VERB,Vmep-sm,conj
355,1954-1955,",",_,_,_,_,_,375,PUNCT,Z,punct
356,1956-1958,da,_,_,_,_,_,375,SCONJ,Cs,mark
357,1959-1960,v,_,_,_,_,_,359,ADP,Sl,case
358,1961-1968,primer,_,_,_,_,_,375,NOUN,Ncmsl,obl
359,1969-1970,",",_,_,_,_,_,371,PUNCT,Z,punct
360,1971-1973,če,_,_,_,_,_,371,SCONJ,Cs,mark
361,1974-1976,do,_,_,_,_,_,363,ADP,Sg,case
362,1977-1979,14,_,_,_,_,_,365,NUM,Mdc,nummod
363,1980-1981,.,_,_,_,_,_,355,PUNCT,Z,punct
364,1982-1988,junij,_,_,_,_,_,371,NOUN,Ncmsg,obl
365,1989-1998,zaposlen,_,_,_,_,_,371,ADJ,Appmpn,nsubj
366,1999-2000,v,_,_,_,_,_,368,ADP,Sl,case
367,2001-2004,SCT,ORG,_,*->10-13,*[10],_,371,PROPN,Npmsl,obl
368,2005-2007,ne,_,_,_,_,_,371,PART,Q,advmod
369,2008-2012,biti,_,_,_,_,_,371,AUX,Va-f3p-n,aux
370,2013-2019,dobiti,_,_,_,_,_,375,VERB,Vmep-pm,advcl
371,2020-2029,zaostal,_,_,_,_,_,373,ADJ,Appfpg,amod
372,2030-2034,plača,_,_,_,_,_,371,NOUN,Ncfpg,obj
373,2035-2036,",",_,_,_,_,_,371,PUNCT,Z,punct
374,2037-2043,umakniti,_,0,*->9-2,*[9],3 - Nevtralno,355,VERB,Vmer3s,ccomp
375,2044-2051,predlog,_,_,_,_,_,375,NOUN,Ncmsan,obj
376,2052-2054,za,_,_,_,_,_,379,ADP,Sa,case
377,2055-2063,prisilen,_,_,_,_,_,379,ADJ,Agpfsa,amod
378,2064-2073,poravnava,_,_,_,_,_,376,NOUN,Ncfsa,nmod
379,2074-2075,",",_,_,_,_,_,384,PUNCT,Z,punct
380,2076-2079,kar,_,_,_,_,_,384,PRON,Pr-nsn,nsubj
381,2080-2082,biti,_,_,_,_,_,384,AUX,Va-c,aux
382,2083-2089,družba,_,2,*->10-14,*[10],2 - Negativno,384,NOUN,Ncfsa,obj
383,2090-2096,voditi,_,_,_,_,_,379,VERB,Vmpp-sn,acl
384,2097-2098,v,_,_,_,_,_,386,ADP,Sa,case
385,2099-2105,stečaj,_,_,_,_,_,384,NOUN,Ncmsan,obl
