idx,chars_idx,token,entity_type,sentiment,idk_1,idk_2,orig_sentiment,heads,upos,xpos,deprel
0,0-7,okrožen,ORG[1],_,*->12-1,*[12],_,2,ADJ,Agpnsn,amod
1,8-15,sodišče,ORG[1],_,*->12-1,*[12],_,6,NOUN,Ncnsn,nsubj
2,16-17,v,ORG[1],_,*->12-1,*[12],_,11,ADP,Sl,case
3,18-27,Ljubljana,ORG[1]|LOC[2],_,*->12-1|*->14-1,*[12]|*[14],_,2,PROPN,Npfsl,nmod
4,28-30,biti,_,_,_,_,_,6,AUX,Va-r3s-n,aux
5,31-38,ugoditi,_,_,_,_,_,0,VERB,Vmep-sn,root
6,39-46,zahteva,_,_,_,_,_,6,NOUN,Ncfsd,obj
7,47-52,pet,_,_,_,_,_,9,NUM,Mlc-pg,nummod
8,53-63,zaposlen,_,_,_,_,_,7,ADJ,Appmpg,amod
9,64-67,pri,_,_,_,_,_,11,ADP,Sl,case
10,68-71,SCT,ORG,_,*->1-1,*[1],_,9,PROPN,Npmsl,nmod
11,72-74,in,_,_,_,_,_,15,CCONJ,Cc,cc
12,75-80,Majda,PER[3],_,*->10-1,*[10],_,15,PROPN,Npfsa,obj
13,81-86,Šantl,PER[3],_,*->10-1,*[10],_,13,PROPN,Npfsn,flat:name
14,87-96,razrešiti,_,_,_,_,_,6,VERB,Vmep-sn,conj
15,97-98,z,_,_,_,_,_,17,ADP,Sg,case
16,99-107,funkcija,_,_,_,_,_,15,NOUN,Ncfsg,obl
17,108-118,prisilen,_,_,*->10-2,*[10],_,19,ADJ,Agpmsg,amod
18,119-130,upravitelj,_,_,*->10-2,*[10],_,17,NOUN,Ncmsg,nmod
19,131-137,družba,_,_,*->10-2,*[10],_,19,NOUN,Ncfsg,nmod
20,138-141,SCT,ORG,_,*->10-2|*->1-2,*[10]|*[1],_,20,PROPN,Npmsn,nmod
21,142-143,.,_,_,_,_,_,27,PUNCT,Z,punct
22,144-146,za,_,_,_,_,_,25,ADP,Sa,case
23,147-153,nov,_,_,*->13-1,*[13],_,25,ADJ,Agpmsa,amod
24,154-165,upravitelj,_,_,*->13-1,*[13],_,27,NOUN,Ncmsay,obl
25,166-168,biti,_,_,_,_,_,27,AUX,Va-r3s-n,aux
26,169-178,imenovati,_,_,_,_,_,6,VERB,Vmbp-sn,parataxis
27,179-184,Leona,PER[4],_,*->13-2,*[13],_,27,PROPN,Npmsay,obj
28,185-194,Benigar,PER[4],_,*->13-2,*[13],_,28,PROPN,Npmsay,flat:name
29,195-201,Tošič,PER[4],_,*->13-2,*[13],_,28,PROPN,Npmsay,flat:name
30,202-203,.,_,_,_,_,_,32,PUNCT,Z,punct
31,204-211,zahtevati,_,_,_,_,_,27,VERB,Vmbr3s,parataxis
32,212-217,pet,_,_,_,_,_,35,NUM,Mlc-pg,nummod
33,218-228,zaposlen,_,_,_,_,_,35,ADJ,Appmpg,amod
34,229-233,Toma,PER[5],0,*->2-1,*[2],3 - Nevtralno[21],32,PROPN,Npmsg,obj
35,234-241,Kranjcc,PER[5],0,*->2-1,*[2],3 - Nevtralno[21],35,PROPN,Npmsg,flat:name
36,242-243,",",_,_,_,_,_,38,PUNCT,Z,punct
37,244-251,Damir,PER[6],0,*->3-1,*[3],3 - Nevtralno[22],35,PROPN,Npmsg,conj
38,252-260,Besedič,PER[6],0,*->3-1,*[3],3 - Nevtralno[22],38,PROPN,Npmsg,flat:name
39,261-262,",",_,_,_,_,_,41,PUNCT,Z,punct
40,263-269,Jože,PER[7],0,*->4-1,*[4],3 - Nevtralno[23],35,PROPN,Npmsg,conj
41,270-275,Tocka,PER[7],0,*->4-1,*[4],3 - Nevtralno[23],41,PROPN,Npmsg,flat:name
42,276-277,",",_,_,_,_,_,45,PUNCT,Z,punct
43,278-283,drag,PER[8],0,*->5-1,*[5],3 - Nevtralno[24],45,ADJ,Agpmsg,amod
44,284-294,obšteter,PER[8],0,*->5-1,*[5],3 - Nevtralno[24],35,NOUN,Ncmsg,conj
45,295-297,in,_,_,_,_,_,47,CCONJ,Cc,cc
46,298-304,Janez,PER[9],0,*->6-1,*[6],3 - Nevtralno[25],35,PROPN,Npmsg,conj
47,305-314,Pogačar,PER[9],0,*->6-1,*[6],3 - Nevtralno[25],47,PROPN,Npmsg,flat:name
48,315-317,ki,_,_,_,_,_,75,SCONJ,Cs,mark
49,318-320,biti,_,_,_,_,_,60,AUX,Va-r3p-n,aux
50,321-323,13,_,_,_,_,_,47,NUM,Mdc,nummod
51,324-325,.,_,_,_,_,_,6,PUNCT,Z,punct
52,326-330,maj,_,_,_,_,_,60,NOUN,Ncmsg,obl
53,331-335,svoj,_,_,_,_,_,55,DET,Px-msa,det
54,336-342,ugovor,_,_,_,_,_,60,NOUN,Ncmsan,obj
55,343-348,proti,_,_,_,_,_,57,ADP,Sd,case
56,349-356,vodenje,_,_,_,_,_,55,NOUN,Ncnsd,nmod
57,357-365,prisilen,_,_,_,_,_,59,ADJ,Agpfsg,amod
58,366-375,poravnava,_,_,_,_,_,57,NOUN,Ncfsg,nmod
59,376-385,dopolniti,_,_,_,_,_,6,VERB,Vmep-pm,parataxis
60,386-387,z,_,_,_,_,_,62,ADP,Si,case
61,388-395,zahteva,_,_,_,_,_,60,NOUN,Ncfsi,obl
62,396-398,za,_,_,_,_,_,64,ADP,Sa,case
63,399-409,razrešitev,_,_,_,_,_,62,NOUN,Ncfsa,nmod
64,410-415,Majda,PER[10],_,*->10-3,*[10],_,64,PROPN,Npfsg,nmod
65,416-421,Šantl,PER[10],_,*->10-3,*[10],_,65,PROPN,Npfsg,flat:name
66,422-425,kot,_,_,_,_,_,69,SCONJ,Cs,case
67,426-434,prisilen,_,_,*->10-4,*[10],_,69,ADJ,Agpfsg,amod
68,435-448,upraviteljica,_,_,*->10-4,*[10],_,64,NOUN,Ncfsg,nmod
69,449-450,",",_,_,_,_,_,75,PUNCT,Z,punct
70,451-454,ker,_,_,_,_,_,75,SCONJ,Cs,mark
71,455-458,naj,_,_,_,_,_,75,PART,Q,advmod
72,459-461,ne,_,_,_,_,_,75,PART,Q,advmod
73,462-464,biti,_,_,_,_,_,75,AUX,Va-c,aux
74,465-472,ravnati,_,_,*->10-5,*[10],_,60,VERB,Vmpp-sf,advcl
75,473-474,z,_,_,_,_,_,79,ADP,Si,case
76,475-483,ustrezen,_,_,_,_,_,79,ADJ,Agpfsi,amod
77,484-497,profesionalen,_,_,_,_,_,79,ADJ,Agpfsi,amod
78,498-508,skrbnost,_,_,_,_,_,75,NOUN,Ncfsi,obl
79,509-510,",",_,_,_,_,_,75,PUNCT,Z,punct
80,511-513,biti,_,_,_,_,_,82,AUX,Va-r3s-n,cop
81,514-524,utemeljen,_,_,_,_,_,60,ADJ,Appfsn,parataxis
82,525-526,",",_,_,_,_,_,75,PUNCT,Z,punct
83,527-529,biti,_,_,_,_,_,86,AUX,Va-r3s-n,aux
84,530-537,sodišče,_,_,*->12-2,*[12],_,86,NOUN,Ncnsn,nsubj
85,538-546,zapisati,_,_,_,_,_,6,VERB,Vmep-sn,parataxis
86,547-548,v,_,_,_,_,_,88,ADP,Sl,case
87,549-555,sklep,_,_,_,_,_,86,NOUN,Ncmsl,obl
88,556-557,",",_,_,_,_,_,91,PUNCT,Z,punct
89,558-563,danes,_,_,_,_,_,91,ADV,Rgp,advmod
90,564-575,objavljen,_,_,_,_,_,88,ADJ,Appmsl,amod
91,576-578,na,_,_,_,_,_,94,ADP,Sl,case
92,579-587,spleten,_,_,_,_,_,94,ADJ,Agpfpl,amod
93,588-595,stran,_,_,_,_,_,91,NOUN,Ncfpl,obl
94,596-604,agencija,ORG[11],0,*->7-1,*[7],3 - Nevtralno[26],94,NOUN,Ncfsg,nmod
95,605-607,RS,ORG[11]|LOC[12],0,*->7-1|*->16-1,*[7]|*[16],3 - Nevtralno[26]|3 - Nevtralno[27],95,PROPN,Npfsg,nmod
96,608-610,za,ORG[11],0,*->7-1,*[7],3 - Nevtralno[26],99,ADP,Sa,case
97,611-622,javnopraven,ORG[11],0,*->7-1,*[7],3 - Nevtralno[26],99,ADJ,Agpfpa,amod
98,623-631,evidenca,ORG[11],0,*->7-1,*[7],3 - Nevtralno[26],95,NOUN,Ncfpa,nmod
99,632-634,in,ORG[11],0,*->7-1,*[7],3 - Nevtralno[26],101,CCONJ,Cc,cc
100,635-643,storitev,ORG[11],0,*->7-1,*[7],3 - Nevtralno[26],99,NOUN,Ncfpa,conj
101,644-649,Ajpes,ORG[11],0,*->7-1,*[7],3 - Nevtralno[26],101,PROPN,Npmsn,nmod
102,650-651,.,_,_,_,_,_,82,PUNCT,Z,punct
103,652-659,sodišče,_,_,*->12-3,*[12],_,106,NOUN,Ncnsn,nsubj
104,660-662,biti,_,_,_,_,_,106,AUX,Va-r3s-n,aux
105,663-672,ugotoviti,_,_,_,_,_,6,VERB,Vmep-sn,parataxis
106,673-674,",",_,_,_,_,_,112,PUNCT,Z,punct
107,675-677,da,_,_,_,_,_,112,SCONJ,Cs,mark
108,678-680,biti,_,_,_,_,_,112,AUX,Va-r3s-n,aux
109,681-689,Šantlov,PER,_,*->10-6,*[10],_,112,ADJ,Aspfsn,nsubj
110,690-693,res,_,_,_,_,_,112,ADV,Rgp,advmod
111,694-701,vložiti,_,_,_,_,_,106,VERB,Vmep-sf,ccomp
112,702-713,pomanjkljiv,_,_,_,_,_,114,ADJ,Agpmsan,amod
113,714-720,ugovor,_,_,_,_,_,112,NOUN,Ncmsan,obj
114,721-726,zoper,_,_,_,_,_,116,ADP,Sa,case
115,727-734,vodenje,_,_,_,_,_,114,NOUN,Ncnsa,nmod
116,735-743,prisilen,_,_,_,_,_,118,ADJ,Agpfsg,amod
117,744-753,poravnava,_,_,_,_,_,116,NOUN,Ncfsg,nmod
118,754-756,in,_,_,_,_,_,124,CCONJ,Cc,cc
119,757-758,v,_,_,_,_,_,121,ADP,Sa,case
120,759-765,seznam,_,_,_,_,_,124,NOUN,Ncmsan,obl
121,766-778,preizkušen,_,_,_,_,_,123,ADJ,Agpfpg,amod
122,779-787,terjatev,_,_,_,_,_,121,NOUN,Ncfpg,nmod
123,788-797,vključiti,_,_,*->10-7,*[10],_,112,VERB,Vmep-sf,conj
124,798-801,trije,_,_,_,_,_,126,NUM,Mlcfpa,nummod
125,802-810,terjatva,_,_,_,_,_,124,NOUN,Ncfpa,obj
126,811-812,",",_,_,_,_,_,132,PUNCT,Z,punct
127,813-815,ki,_,_,_,_,_,132,SCONJ,Cs,mark
128,816-819,on,_,_,_,_,_,132,PRON,Pp3mpa--y,obj
129,820-822,biti,_,_,_,_,_,132,AUX,Va-r3s-n,aux
130,823-830,sodišče,_,_,*->12-4,*[12],_,132,NOUN,Ncnsn,nsubj
131,831-838,zavreči,_,_,_,_,_,126,VERB,Vmep-sn,acl
132,839-840,",",_,_,_,_,_,138,PUNCT,Z,punct
133,841-843,da,_,_,_,_,_,138,SCONJ,Cs,mark
134,844-846,pa,_,_,_,_,_,138,CCONJ,Cc,advmod
135,847-849,biti,_,_,_,_,_,138,AUX,Va-r3s-n,aux
136,850-854,nato,_,_,_,_,_,138,ADV,Rgp,advmod
137,855-862,slediti,_,_,*->10-8,*[10],_,132,VERB,Vmpp-sf,ccomp
138,863-869,sklep,_,_,_,_,_,138,NOUN,Ncmsd,obj
139,870-877,sodišče,_,_,*->12-5,*[12],_,139,NOUN,Ncnsg,nmod
140,878-880,in,_,_,_,_,_,143,CCONJ,Cc,cc
141,881-887,ugovor,_,_,_,_,_,139,NOUN,Ncmsan,conj
142,888-897,dopolniti,_,_,*->10-9,*[10],_,138,VERB,Vmep-sf,conj
143,898-899,",",_,_,_,_,_,148,PUNCT,Z,punct
144,900-908,omenjen,_,_,_,_,_,146,ADJ,Appfpa,amod
145,909-917,terjatva,_,_,_,_,_,148,NOUN,Ncfpa,obj
146,918-920,pa,_,_,_,_,_,148,CCONJ,Cc,advmod
147,921-931,izključiti,_,_,*->10-10,*[10],_,143,VERB,Vmep-sf,conj
148,932-933,z,_,_,_,_,_,150,ADP,Sg,case
149,934-941,seznam,_,_,_,_,_,148,NOUN,Ncmsg,obl
150,942-943,.,_,_,_,_,_,148,PUNCT,Z,punct
151,944-950,zaradi,_,_,_,_,_,153,ADP,Sg,case
152,951-955,ta,_,_,_,_,_,148,DET,Pd-nsg,obl
153,956-958,in,_,_,_,_,_,159,CCONJ,Cc,cc
154,959-962,ker,_,_,_,_,_,159,SCONJ,Cs,mark
155,963-965,biti,_,_,_,_,_,159,AUX,Va-r3s-n,cop
156,966-973,izredno,_,_,_,_,_,158,ADV,Rgp,advmod
157,974-980,veliko,_,_,_,_,_,160,DET,Rgp,det
158,981-993,prijavljen,_,_,_,_,_,160,ADJ,Appfpg,amod
159,994-1002,terjatev,_,_,_,_,_,148,NOUN,Ncfpg,obj
160,1003-1004,",",_,_,_,_,_,159,PUNCT,Z,punct
161,1005-1012,sodišče,_,_,*->12-6,*[12],_,163,NOUN,Ncnsn,nsubj
162,1013-1021,ocenjevati,_,_,_,_,_,148,VERB,Vmpr3s,conj
163,1022-1023,",",_,_,_,_,_,169,PUNCT,Z,punct
164,1024-1026,da,_,_,_,_,_,169,SCONJ,Cs,mark
165,1027-1030,pri,_,_,_,_,_,176,ADP,Sl,case
166,1031-1034,ta,_,_,_,_,_,169,DET,Pd-nsl,obl
167,1035-1037,biti,_,_,_,_,_,169,AUX,Va-r3s-y,aux
168,1038-1041,iti,_,_,_,_,_,163,VERB,Vmbp-sn,ccomp
169,1042-1044,za,_,_,_,_,_,172,ADP,Sa,case
170,1045-1053,neskrben,_,_,_,_,_,172,ADJ,Agpnsa,amod
171,1054-1062,ravnanje,_,_,_,_,_,169,NOUN,Ncnsa,obl
172,1063-1065,in,_,_,_,_,_,177,CCONJ,Cc,cc
173,1066-1068,da,_,_,_,_,_,177,SCONJ,Cs,mark
174,1069-1075,zaradi,_,_,_,_,_,176,ADP,Sg,case
175,1076-1080,ta,_,_,_,_,_,177,DET,Pd-nsg,obl
176,1081-1083,biti,_,_,_,_,_,169,VERB,Va-r3s-y,conj
177,1084-1091,razlog,_,_,_,_,_,177,NOUN,Ncmsg,nsubj
178,1092-1094,za,_,_,_,_,_,180,ADP,Sa,case
179,1095-1105,razrešitev,_,_,_,_,_,178,NOUN,Ncfsa,nmod
180,1106-1119,upraviteljica,_,_,*->10-11,*[10],_,180,NOUN,Ncfsg,nmod
181,1120-1121,.,_,_,_,_,_,6,PUNCT,Z,punct
182,1122-1124,biti,_,_,_,_,_,192,AUX,Va-r3s-n,aux
183,1125-1127,pa,_,_,_,_,_,192,CCONJ,Cc,advmod
184,1128-1136,Šantlov,PER,_,*->10-12,*[10],_,192,ADJ,Aspfsn,nsubj
185,1137-1139,po,_,_,_,_,_,187,ADP,Sl,case
186,1140-1150,ugotovitev,_,_,_,_,_,192,NOUN,Ncfsl,obl
187,1151-1158,sodišče,_,_,*->12-7,*[12],_,187,NOUN,Ncnsg,nmod
188,1159-1164,kljub,_,_,_,_,_,191,ADP,Sd,case
189,1165-1173,zakonski,_,_,_,_,_,191,ADJ,Agpfsd,amod
190,1174-1183,prepoved,_,_,_,_,_,192,NOUN,Ncfsd,obl
191,1184-1193,podpisati,_,_,_,_,_,6,VERB,Vmep-sf,parataxis
192,1194-1199,aneks,_,_,_,_,_,192,NOUN,Ncmsan,obj
193,1200-1201,o,_,_,_,_,_,195,ADP,Sl,case
194,1202-1213,podaljšanje,_,_,_,_,_,193,NOUN,Ncnsl,nmod
195,1214-1222,poroštvo,_,_,_,_,_,195,NOUN,Ncnsg,nmod
196,1223-1229,družba,_,0,*->8-1,*[8],3 - Nevtralno[28],196,NOUN,Ncfsl,nmod
197,1230-1233,ISC,ORG[13],0,*->8-1,*[8],3 - Nevtralno[28],197,PROPN,Npmsn,nmod
198,1234-1241,München,ORG[13]|LOC[14],0,*->8-1|*->9-1,*[8]|*[9],3 - Nevtralno[28]|3 - Nevtralno[29],197,PROPN,Npmsn,nmod
199,1242-1243,.,_,_,_,_,_,192,PUNCT,Z,punct
200,1244-1249,njen,_,_,*->10-13,*[10],_,202,DET,Ps3fsgsf,det
201,1250-1257,navedba,_,_,_,_,_,192,NOUN,Ncfsg,obj
202,1258-1259,v,_,_,_,_,_,204,ADP,Sl,case
203,1260-1266,izjava,_,_,_,_,_,202,NOUN,Ncfsl,nmod
204,1267-1268,",",_,_,_,_,_,211,PUNCT,Z,punct
205,1269-1271,da,_,_,_,_,_,211,SCONJ,Cs,mark
206,1272-1274,za,_,_,_,_,_,208,ADP,Sa,case
207,1275-1283,poroštvo,_,_,_,_,_,211,NOUN,Ncnsa,obl
208,1284-1293,pozitiven,_,_,_,_,_,210,ADJ,Agpnsa,amod
209,1294-1300,mnenje,_,_,_,_,_,211,NOUN,Ncnsa,obj
210,1301-1303,biti,_,_,_,_,_,204,VERB,Va-r3s-y,acl
211,1304-1310,dovolj,_,_,_,_,_,211,DET,Rgp,advmod
212,1311-1312,",",_,_,_,_,_,215,PUNCT,Z,punct
213,1313-1316,saj,_,_,_,_,_,215,CCONJ,Cc,cc
214,1317-1321,morati,_,_,_,_,_,211,VERB,Vmpr3s,conj
215,1322-1329,dolžnik,_,_,_,_,_,215,NOUN,Ncmsn,nsubj
216,1330-1339,pridobiti,_,_,_,_,_,215,VERB,Vmen,xcomp
217,1340-1342,še,_,_,_,_,_,217,PART,Q,advmod
218,1343-1349,mnenje,_,_,_,_,_,217,NOUN,Ncnsa,obj
219,1350-1359,upraven,_,_,_,_,_,221,ADJ,Agpmsg,amod
220,1360-1366,odbor,_,_,_,_,_,219,NOUN,Ncmsg,nmod
221,1367-1369,in,_,_,_,_,_,223,CCONJ,Cc,cc
222,1370-1378,soglasje,_,_,_,_,_,221,NOUN,Ncnsa,conj
223,1379-1386,sodišče,_,_,*->12-8,*[12],_,223,NOUN,Ncnsg,nmod
224,1387-1388,",",_,_,_,_,_,230,PUNCT,Z,punct
225,1389-1394,kar,_,_,_,_,_,230,PRON,Pr-nsg,obj
226,1395-1397,pa,_,_,_,_,_,230,CCONJ,Cc,advmod
227,1398-1401,on,_,_,*->10-14,*[10],_,230,PRON,Pp3fsn,nsubj
228,1402-1404,biti,_,_,_,_,_,230,AUX,Va-r3s-y,aux
229,1405-1417,kontrolirati,_,_,_,_,_,224,VERB,Vmbp-sf,acl
230,1418-1419,",",_,_,_,_,_,230,PUNCT,Z,punct
231,1420-1422,po,_,_,_,_,_,233,ADP,Sl,case
232,1423-1431,navedba,_,_,_,_,_,236,NOUN,Ncfpl,obl
233,1432-1439,sodišče,_,_,*->12-9,*[12],_,233,NOUN,Ncnsg,nmod
234,1440-1447,dodatno,_,_,_,_,_,236,ADV,Rgp,advmod
235,1448-1454,kazati,_,_,_,_,_,6,VERB,Vmpr3p,parataxis
236,1455-1456,",",_,_,_,_,_,241,PUNCT,Z,punct
237,1457-1459,da,_,_,_,_,_,241,SCONJ,Cs,mark
238,1460-1473,upraviteljica,_,_,*->10-15,*[10],_,241,NOUN,Ncfsn,nsubj
239,1474-1476,ne,_,_,_,_,_,241,PART,Q,advmod
240,1477-1485,upoštevati,_,_,_,_,_,236,VERB,Vmbr3s,ccomp
241,1486-1492,zakon,_,_,_,_,_,241,NOUN,Ncmsg,obj
242,1493-1494,",",_,_,_,_,_,245,PUNCT,Z,punct
243,1495-1497,ki,_,_,_,_,_,245,SCONJ,Cs,mark
244,1498-1504,določati,_,_,_,_,_,242,VERB,Vmpr3s,acl
245,1505-1513,soglasje,_,_,_,_,_,245,NOUN,Ncnsa,obj
246,1514-1521,sodišče,_,_,*->12-10,*[12],_,246,NOUN,Ncnsg,nmod
247,1522-1524,za,_,_,_,_,_,249,ADP,Sa,case
248,1525-1532,prodaja,_,_,_,_,_,247,NOUN,Ncfsa,nmod
249,1533-1543,premoženje,_,_,_,_,_,249,NOUN,Ncnsg,nmod
250,1544-1546,in,_,_,_,_,_,252,CCONJ,Cc,cc
251,1547-1553,najem,_,_,_,_,_,250,NOUN,Ncmsg,conj
252,1554-1562,posojilo,_,_,_,_,_,252,NOUN,Ncnsg,nmod
253,1563-1566,ali,_,_,_,_,_,255,CCONJ,Cc,cc
254,1567-1575,kredit,_,_,_,_,_,253,NOUN,Ncmpg,conj
255,1576-1577,",",_,_,_,_,_,261,PUNCT,Z,punct
256,1578-1585,dajanje,_,_,_,_,_,261,NOUN,Ncnsa,obj
257,1586-1594,poroštvo,_,_,_,_,_,257,NOUN,Ncfpg,nmod
258,1595-1597,pa,_,_,_,_,_,261,CCONJ,Cc,advmod
259,1598-1600,biti,_,_,_,_,_,261,AUX,Va-r3s-n,cop
260,1601-1612,prepovedan,_,_,_,_,_,6,ADJ,Appnsn,parataxis
261,1613-1614,.,_,_,_,_,_,261,PUNCT,Z,punct
262,1615-1623,zakonski,_,_,_,_,_,264,ADJ,Agpfsg,amod
263,1624-1633,prepoved,_,_,_,_,_,269,NOUN,Ncfsg,obj
264,1634-1641,dajanje,_,_,_,_,_,264,NOUN,Ncnsg,nmod
265,1642-1650,poroštvo,_,_,_,_,_,265,NOUN,Ncfpg,nmod
266,1651-1653,biti,_,_,_,_,_,261,VERB,Va-r3s-y,csubj
267,1654-1657,moč,_,_,_,_,_,267,NOUN,Ncfsn,nsubj
268,1658-1665,zaobiti,_,_,_,_,_,267,VERB,Vmen,csubj
269,1666-1667,z,_,_,_,_,_,271,ADP,Si,case
270,1668-1675,mnenje,_,_,_,_,_,269,NOUN,Ncnsi,obl
271,1676-1685,upniški,_,_,_,_,_,273,ADJ,Agpmsg,amod
272,1686-1692,odbor,_,_,_,_,_,271,NOUN,Ncmsg,nmod
273,1693-1695,in,_,_,_,_,_,275,CCONJ,Cc,cc
274,1696-1705,soglasje,_,_,_,_,_,273,NOUN,Ncnsi,conj
275,1706-1713,sodišče,_,_,*->12-11,*[12],_,273,NOUN,Ncnsg,nmod
276,1714-1715,",",_,_,_,_,_,278,PUNCT,Z,punct
277,1716-1720,pisati,_,_,_,_,_,267,VERB,Vmpr3s,csubj
278,1721-1728,sodišče,_,_,*->12-12,*[12],_,278,NOUN,Ncnsa,obj
279,1729-1730,.,_,_,_,_,_,267,PUNCT,Z,punct
280,1731-1738,okrožen,ORG[15],_,*->12-13,*[12],_,282,ADJ,Agpnsn,amod
281,1739-1746,sodišče,ORG[15],_,*->12-13,*[12],_,286,NOUN,Ncnsn,nsubj
282,1747-1748,v,ORG[15],_,*->12-13,*[12],_,284,ADP,Sl,case
283,1749-1758,Ljubljana,ORG[15]|LOC[16],0,*->12-13|*->14-2,*[12]|*[14],3 - Nevtralno,282,PROPN,Npfsl,nmod
284,1759-1761,biti,_,_,_,_,_,286,AUX,Va-r3s-n,aux
285,1762-1769,ugoditi,_,_,_,_,_,6,VERB,Vmep-sn,parataxis
286,1770-1777,zahteva,_,_,_,_,_,286,NOUN,Ncfsd,obj
287,1778-1783,pet,_,_,_,_,_,289,NUM,Mlc-pg,nummod
288,1784-1794,zaposlen,_,_,_,_,_,287,ADJ,Appmpg,amod
289,1795-1798,pri,_,_,_,_,_,291,ADP,Sl,case
290,1799-1802,SCT,ORG,_,*->1-3,*[1],_,289,PROPN,Npmsl,nmod
291,1803-1805,in,_,_,_,_,_,295,CCONJ,Cc,cc
292,1806-1811,Majda,PER[17],_,*->10-16,*[10],_,295,PROPN,Npfsa,obj
293,1812-1817,Šantl,PER[17],_,*->10-16,*[10],_,293,PROPN,Npfsn,flat:name
294,1818-1827,razrešiti,_,_,_,_,_,286,VERB,Vmep-sn,conj
295,1828-1829,z,_,_,_,_,_,297,ADP,Sg,case
296,1830-1838,funkcija,_,_,_,_,_,295,NOUN,Ncfsg,obl
297,1839-1849,prisilen,_,_,*->10-17,*[10],_,299,ADJ,Agpmsg,amod
298,1850-1861,upravitelj,_,_,*->10-17,*[10],_,297,NOUN,Ncmsg,nmod
299,1862-1868,družba,_,_,*->10-17,*[10],_,299,NOUN,Ncfsg,nmod
300,1869-1872,SCT,ORG,_,*->10-17|*->1-4,*[10]|*[1],_,300,PROPN,Npmsn,nmod
301,1873-1874,.,_,_,_,_,_,295,PUNCT,Z,punct
302,1875-1877,za,_,_,_,_,_,305,ADP,Sa,case
303,1878-1884,nov,_,_,*->13-3,*[13],_,305,ADJ,Agpmsa,amod
304,1885-1896,upravitelj,_,_,*->13-3,*[13],_,307,NOUN,Ncmsay,obl
305,1897-1899,biti,_,_,_,_,_,307,AUX,Va-r3s-n,aux
306,1900-1909,imenovati,_,_,_,_,_,6,VERB,Vmbp-sn,parataxis
307,1910-1915,Leona,PER[18],_,*->13-4,*[13],_,307,PROPN,Npmsay,obj
308,1916-1925,Benigar,PER[18],_,*->13-4,*[13],_,308,PROPN,Npmsay,flat:name
309,1926-1932,Tošič,PER[18],_,*->13-4,*[13],_,308,PROPN,Npmsay,flat:name
310,1933-1934,.,_,_,_,_,_,307,PUNCT,Z,punct
311,1935-1941,sporen,_,_,_,_,_,316,ADJ,Agpnsn,amod
312,1942-1944,biti,_,_,_,_,_,312,AUX,Va-r3s-n,aux
313,1945-1949,biti,_,_,_,_,_,316,AUX,Va-p-sn,cop
314,1950-1954,tudi,_,_,_,_,_,307,PART,Q,advmod
315,1955-1963,soglasje,_,_,_,_,_,307,NOUN,Ncnsn,nsubj
316,1964-1972,Šantlov,PER,_,*->10-18,*[10],_,316,ADJ,Aspfsg,amod
317,1973-1975,za,_,_,_,_,_,319,ADP,Sa,case
318,1976-1983,prodaja,_,_,_,_,_,316,NOUN,Ncfsa,nmod
319,1984-1988,delo,_,_,_,_,_,319,NOUN,Ncnsg,nmod
320,1989-1999,premoženje,_,_,_,_,_,320,NOUN,Ncnsg,nmod
321,2000-2001,.,_,_,_,_,_,307,PUNCT,Z,punct
322,2002-2004,na,_,_,_,_,_,324,ADP,Sl,case
323,2005-2009,seja,_,_,_,_,_,316,NOUN,Ncfsl,obl
324,2010-2019,upniški,_,_,_,_,_,326,ADJ,Agpmsg,amod
325,2020-2026,odbor,_,_,_,_,_,324,NOUN,Ncmsg,nmod
326,2027-2029,18,_,_,_,_,_,326,NUM,Mdc,nummod
327,2030-2031,.,_,_,_,_,_,312,PUNCT,Z,punct
328,2032-2036,maj,_,_,_,_,_,326,NOUN,Ncmsg,nmod
329,2037-2039,biti,_,_,_,_,_,331,AUX,Va-r3p-n,aux
330,2040-2049,opozoriti,_,_,_,_,_,6,VERB,Vmep-pm,parataxis
331,2050-2051,",",_,_,_,_,_,340,PUNCT,Z,punct
332,2052-2054,da,_,_,_,_,_,340,SCONJ,Cs,mark
333,2055-2057,ne,_,_,_,_,_,340,PART,Q,advmod
334,2058-2065,upniški,_,_,_,_,_,336,ADJ,Agpmsny,amod
335,2066-2071,odbor,_,_,_,_,_,340,NOUN,Ncmsn,nsubj
336,2072-2074,ne,_,_,_,_,_,340,PART,Q,advmod
337,2075-2082,sodišče,_,_,*->12-14,*[12],_,340,NOUN,Ncnsn,nsubj
338,2083-2088,biti,_,_,_,_,_,340,AUX,Va-r3d-y,aux
339,2089-2093,dati,_,_,_,_,_,331,VERB,Vmep-dm,ccomp
340,2094-2102,soglasje,_,_,_,_,_,340,NOUN,Ncnsg,obj
341,2103-2105,za,_,_,_,_,_,343,ADP,Sa,case
342,2106-2113,prodaja,_,_,_,_,_,341,NOUN,Ncfsa,nmod
343,2114-2126,računalnik,_,_,_,_,_,343,NOUN,Ncmpg,nmod
344,2127-2128,.,_,_,_,_,_,340,PUNCT,Z,punct
345,2129-2137,Šantlov,PER,_,*->10-19,*[10],_,349,ADJ,Aspfsn,nsubj
346,2138-2140,biti,_,_,_,_,_,349,AUX,Va-r3s-n,aux
347,2141-2146,sicer,_,_,_,_,_,349,PART,Q,advmod
348,2147-2153,podati,_,_,_,_,_,6,VERB,Vmbp-sf,parataxis
349,2154-2157,nov,_,_,_,_,_,351,ADJ,Agpmsan,amod
350,2158-2164,ugovor,_,_,_,_,_,349,NOUN,Ncmsan,obj
351,2165-2170,proti,_,_,_,_,_,353,ADP,Sd,case
352,2171-2178,vodenje,_,_,_,_,_,351,NOUN,Ncnsd,nmod
353,2179-2187,prisilen,_,_,_,_,_,355,ADJ,Agpfsg,amod
354,2188-2197,poravnava,_,_,_,_,_,353,NOUN,Ncfsg,nmod
355,2198-2199,",",_,_,_,_,_,360,PUNCT,Z,punct
356,2200-2203,ker,_,_,_,_,_,360,SCONJ,Cs,mark
357,2204-2206,da,_,_,_,_,_,360,SCONJ,Cs,mark
358,2207-2209,biti,_,_,_,_,_,360,AUX,Va-r3s-n,aux
359,2210-2214,dati,_,_,*->10-20,*[10],_,349,VERB,Vmep-sf,advcl
360,2215-2223,soglasje,_,_,_,_,_,360,NOUN,Ncnsa,obj
361,2224-2228,samo,_,_,_,_,_,360,PART,Q,advmod
362,2229-2231,za,_,_,_,_,_,368,ADP,Sa,case
363,2232-2241,minimalen,_,_,_,_,_,368,ADJ,Agpnsa,amod
364,2242-2244,in,_,_,_,_,_,366,CCONJ,Cc,cc
365,2245-2250,točno,_,_,_,_,_,364,ADJ,Agpnsa,conj
366,2251-2259,določen,_,_,_,_,_,368,ADJ,Appnsa,amod
367,2260-2270,premoženje,_,_,_,_,_,361,NOUN,Ncnsa,nmod
368,2271-2272,",",_,_,_,_,_,360,PUNCT,Z,punct
369,2273-2278,ampak,_,_,_,_,_,373,CCONJ,Cc,cc
370,2279-2281,po,_,_,_,_,_,372,ADP,Sl,case
371,2282-2288,zakon,_,_,_,_,_,373,NOUN,Ncmsl,obl
372,2289-2293,dajati,_,_,_,_,_,360,VERB,Vmpr3s,conj
373,2294-2302,soglasje,_,_,_,_,_,373,NOUN,Ncnsa,obj
374,2303-2310,sodišče,_,_,*->12-15,*[12],_,374,NOUN,Ncnsa,nmod
375,2311-2312,",",_,_,_,_,_,378,PUNCT,Z,punct
376,2313-2315,ne,_,_,_,_,_,378,PART,Q,cc:preconj
377,2316-2326,upravitelj,_,_,_,_,_,375,NOUN,Ncmsn,appos
378,2327-2328,.,_,_,_,_,_,373,PUNCT,Z,punct
379,2329-2334,poleg,_,_,_,_,_,382,ADP,Sg,case
380,2335-2339,sam,_,_,_,_,_,382,ADJ,Agpfsg,amod
381,2340-2347,kršitev,_,_,_,_,_,378,NOUN,Ncfsg,obl
382,2348-2355,izrecen,_,_,_,_,_,385,ADJ,Agpfsg,amod
383,2356-2364,zakonski,_,_,_,_,_,385,ADJ,Agpfsg,amod
384,2365-2372,določba,_,_,_,_,_,382,NOUN,Ncfsg,nmod
385,2373-2379,izjava,_,_,_,_,_,378,NOUN,Ncfsn,nsubj
386,2380-2393,upraviteljica,_,_,*->10-21,*[10],_,386,NOUN,Ncfsg,nmod
387,2394-2395,",",_,_,_,_,_,391,PUNCT,Z,punct
388,2396-2398,da,_,_,_,_,_,391,SCONJ,Cs,mark
389,2399-2401,biti,_,_,_,_,_,391,AUX,Va-r3s-n,aux
390,2402-2405,iti,_,_,_,_,_,387,VERB,Vmbp-sn,acl
391,2406-2408,za,_,_,_,_,_,393,ADP,Sa,case
392,2409-2420,računalnik,_,_,_,_,_,391,NOUN,Ncmpa,obl
393,2421-2429,delavec,_,_,_,_,_,393,NOUN,Ncmpg,nmod
394,2430-2431,",",_,_,_,_,_,399,PUNCT,Z,punct
395,2432-2434,ki,_,_,_,_,_,399,SCONJ,Cs,mark
396,2435-2439,biti,_,_,_,_,_,399,AUX,Va-r3p-y,cop
397,2440-2443,več,_,_,_,_,_,399,PART,Q,advmod
398,2444-2453,zaposlen,_,_,_,_,_,394,ADJ,Appmpn,acl
399,2454-2455,v,_,_,_,_,_,401,ADP,Sl,case
400,2456-2459,SCT,ORG,_,*->1-5,*[1],_,399,PROPN,Npmsl,nmod
401,2460-2461,",",_,_,_,_,_,399,PUNCT,Z,punct
402,2462-2466,zato,_,_,_,_,_,407,CCONJ,Cc,cc
403,2467-2478,računalnik,_,_,_,_,_,407,NOUN,Ncmpn,nsubj
404,2479-2483,biti,_,_,_,_,_,407,AUX,Va-r3p-y,cop
405,2484-2487,več,_,_,_,_,_,407,PART,Q,advmod
406,2488-2496,potreben,_,_,_,_,_,399,ADJ,Agpmpn,conj
407,2497-2498,",",_,_,_,_,_,407,PUNCT,Z,punct
408,2499-2503,kazati,_,_,_,_,_,407,VERB,Vmpr3s,parataxis
409,2504-2506,na,_,_,_,_,_,412,ADP,Sa,case
410,2507-2511,njen,_,_,*->10-22,*[10],_,412,DET,Ps3msasf,det
411,2512-2517,način,_,_,_,_,_,409,NOUN,Ncmsan,obl
412,2518-2530,razmišljanje,_,_,_,_,_,412,NOUN,Ncnsg,nmod
413,2531-2532,",",_,_,_,_,_,420,PUNCT,Z,punct
414,2533-2535,ko,_,_,_,_,_,420,SCONJ,Cs,mark
415,2536-2538,se,_,_,_,_,_,420,PRON,Px------y,expl
416,2539-2540,v,_,_,_,_,_,419,ADP,Sl,case
417,2541-2549,prisilen,_,_,_,_,_,419,ADJ,Agpfsl,amod
418,2550-2559,poravnava,_,_,_,_,_,420,NOUN,Ncfsl,obl
419,2560-2566,kršiti,_,_,_,_,_,413,VERB,Vmpr3p,acl
420,2567-2574,izrecen,_,_,_,_,_,423,ADJ,Agpfpa,amod
421,2575-2583,zakonski,_,_,_,_,_,423,ADJ,Agpfpa,amod
422,2584-2591,določba,_,_,_,_,_,420,NOUN,Ncfpa,obj
423,2592-2593,",",_,_,_,_,_,420,PUNCT,Z,punct
424,2594-2598,nato,_,_,_,_,_,429,ADV,Rgp,advmod
425,2599-2601,pa,_,_,_,_,_,429,CCONJ,Cc,advmod
426,2602-2604,se,_,_,_,_,_,429,PRON,Px------y,expl
427,2605-2613,ravnanje,_,_,_,_,_,429,NOUN,Ncnsn,nsubj
428,2614-2624,opravičevati,_,_,_,_,_,6,VERB,Vmpr3s,parataxis
429,2625-2626,z,_,_,_,_,_,431,ADP,Si,case
430,2627-2635,razlog,_,_,_,_,_,429,NOUN,Ncmsi,obl
431,2636-2637,",",_,_,_,_,_,439,PUNCT,Z,punct
432,2638-2640,ki,_,_,_,_,_,439,SCONJ,Cs,mark
433,2641-2643,že,_,_,_,_,_,439,PART,Q,advmod
434,2644-2646,po,_,_,_,_,_,436,ADP,Sl,case
435,2647-2653,narava,_,_,_,_,_,441,NOUN,Ncfsl,obl
436,2654-2660,stvar,_,_,_,_,_,436,NOUN,Ncfpg,nmod
437,2661-2663,ne,_,_,_,_,_,439,PART,Q,advmod
438,2664-2668,moči,_,_,_,_,_,431,VERB,Vmpr3s,acl
439,2669-2673,biti,_,_,_,_,_,441,AUX,Va-n,cop
440,2674-2683,utemeljen,_,_,_,_,_,439,ADJ,Appmsnn,xcomp
441,2684-2685,",",_,_,_,_,_,439,PUNCT,Z,punct
442,2686-2688,biti,_,_,_,_,_,444,AUX,Va-r3s-n,aux
443,2689-2697,zapisati,_,_,_,_,_,429,VERB,Vmep-sn,advcl
444,2698-2705,sodišče,_,_,*->12-16,*[12],_,444,NOUN,Ncnsn,nsubj
445,2706-2707,.,_,_,_,_,_,6,PUNCT,Z,punct
446,2708-2715,sodišče,_,_,*->12-17,*[12],_,450,NOUN,Ncnsn,nsubj
447,2716-2718,biti,_,_,_,_,_,450,AUX,Va-r3s-n,aux
448,2719-2723,tako,_,_,_,_,_,450,ADV,Rgp,advmod
449,2724-2733,ugotoviti,_,_,_,_,_,6,VERB,Vmep-sn,parataxis
450,2734-2735,",",_,_,_,_,_,455,PUNCT,Z,punct
451,2736-2738,da,_,_,_,_,_,455,SCONJ,Cs,mark
452,2739-2747,Šantlov,PER,_,*->10-23,*[10],_,455,ADJ,Aspfsn,nsubj
453,2748-2750,biti,_,_,_,_,_,455,AUX,Va-r3s-y,aux
454,2751-2761,opravljati,_,_,_,_,_,450,VERB,Vmpp-sf,ccomp
455,2762-2768,svoj,_,_,_,_,_,457,DET,Px-fpg,det
456,2769-2778,dolžnost,_,_,_,_,_,455,NOUN,Ncfpg,obj
457,2779-2780,",",_,_,_,_,_,462,PUNCT,Z,punct
458,2781-2783,ki,_,_,_,_,_,462,SCONJ,Cs,mark
459,2784-2786,on,_,_,*->10-24,*[10],_,462,PRON,Pp3fsd--y,obj
460,2787-2790,on,_,_,_,_,_,462,PRON,Pp3mpa--y,obj
461,2791-2797,nalagati,_,_,_,_,_,457,VERB,Vmpr3s,acl
462,2798-2803,zakon,_,_,_,_,_,462,NOUN,Ncmsn,nsubj
463,2804-2805,",",_,_,_,_,_,462,PUNCT,Z,punct
464,2806-2808,in,_,_,_,_,_,472,CCONJ,Cc,cc
465,2809-2815,zaradi,_,_,_,_,_,468,ADP,Sg,case
466,2816-2825,opisan,_,_,_,_,_,468,ADJ,Appnsg,amod
467,2826-2837,sodelovanje,_,_,_,_,_,472,NOUN,Ncnsg,obl
468,2838-2839,z,_,_,_,_,_,470,ADP,Si,case
469,2840-2849,dolžnik,_,_,_,_,_,468,NOUN,Ncmsi,nmod
470,2850-2857,sodišče,_,_,*->12-18,*[12],_,472,NOUN,Ncnsn,nsubj
471,2858-2866,ocenjevati,_,_,_,_,_,462,VERB,Vmpr3s,conj
472,2867-2868,",",_,_,_,_,_,477,PUNCT,Z,punct
473,2869-2871,da,_,_,_,_,_,477,SCONJ,Cs,mark
474,2872-2885,upraviteljica,_,_,*->10-25,*[10],_,477,NOUN,Ncfsn,nsubj
475,2886-2888,ne,_,_,_,_,_,477,PART,Q,advmod
476,2889-2894,ravnati,_,_,_,_,_,472,VERB,Vmpr3s,ccomp
477,2895-2899,tako,_,_,_,_,_,481,ADV,Rgp,mark
478,2900-2901,",",_,_,_,_,_,478,PUNCT,Z,punct
479,2902-2904,da,_,_,_,_,_,478,SCONJ,Cs,fixed
480,2905-2911,varovati,_,_,*->10-26,*[10],_,477,VERB,Vmpr3s,advcl
481,2912-2914,in,_,_,_,_,_,483,CCONJ,Cc,cc
482,2915-2925,uresničevati,_,_,*->10-27,*[10],_,481,VERB,Vmpr3s,conj
483,2926-2934,interes,_,_,_,_,_,483,NOUN,Ncmpa,obj
484,2935-2942,upnik,_,_,_,_,_,484,NOUN,Ncmpg,nmod
485,2943-2944,",",_,_,_,_,_,488,PUNCT,Z,punct
486,2945-2947,ki,_,_,_,_,_,488,SCONJ,Cs,mark
487,2948-2954,morati,_,_,_,_,_,485,VERB,Vmpr3p,acl
488,2955-2959,biti,_,_,_,_,_,490,AUX,Va-n,cop
489,2960-2966,vodilo,_,_,_,_,_,488,NOUN,Ncnsn,nsubj
490,2967-2970,pri,_,_,_,_,_,492,ADP,Sl,case
491,2971-2982,opravljanje,_,_,_,_,_,490,NOUN,Ncnsl,nmod
492,2983-2988,naloga,_,_,_,_,_,492,NOUN,Ncfpg,nmod
493,2989-2991,in,_,_,_,_,_,495,CCONJ,Cc,cc
494,2992-3004,pristojnost,_,_,_,_,_,493,NOUN,Ncfpg,conj
495,3005-3016,upravitelj,_,_,_,_,_,493,NOUN,Ncmsg,conj
496,3017-3018,.,_,_,_,_,_,488,PUNCT,Z,punct
497,3019-3027,Šantlov,ORG,_,*->10-28,*[10],_,499,ADJ,Aspmpa,amod
498,3028-3034,očitek,_,_,_,_,_,500,NOUN,Ncmpa,obj
499,3035-3042,zavračati,_,_,_,_,_,496,VERB,Vmpr3s,acl
500,3043-3052,absoluten,_,_,_,_,_,502,ADV,Rgp,advmod
501,3053-3061,zavračati,_,_,*->10-29,*[10],_,500,VERB,Vmpr1s,conj
502,3062-3063,",",_,_,_,_,_,508,PUNCT,Z,punct
503,3064-3066,da,_,_,_,_,_,508,SCONJ,Cs,mark
504,3067-3070,biti,_,_,*->10-30,*[10],_,508,AUX,Va-r1s-n,aux
505,3071-3074,kar,_,_,_,_,_,508,ADV,Rgp,advmod
506,3075-3079,koli,_,_,_,_,_,506,PART,Q,fixed
507,3080-3088,narediti,_,_,_,_,_,502,VERB,Vmep-sf,ccomp
508,3089-3095,narobe,_,_,_,_,_,508,ADV,Rgp,advmod
509,3096-3097,",",_,_,_,_,_,508,PUNCT,Z,punct
510,3098-3100,biti,_,_,*->10-31,*[10],_,512,AUX,Va-r3s-n,aux
511,3101-3107,dejati,_,_,*->10-31,*[10],_,500,VERB,Vmep-sf,parataxis
512,3108-3109,.,_,_,_,_,_,500,PUNCT,Z,punct
513,3110-3115,glede,_,_,_,_,_,515,ADP,Sg,case
514,3116-3122,očitek,_,_,_,_,_,512,NOUN,Ncmsg,obl
515,3123-3124,",",_,_,_,_,_,519,PUNCT,Z,punct
516,3125-3127,da,_,_,_,_,_,519,SCONJ,Cs,mark
517,3128-3130,biti,_,_,_,_,_,519,AUX,Va-r3s-y,aux
518,3131-3139,varovati,_,_,*->10-32,*[10],_,515,VERB,Vmpp-sf,acl
519,3140-3149,interes,_,_,_,_,_,519,NOUN,Ncmpg,obj
520,3150-3157,upnik,_,_,_,_,_,520,NOUN,Ncmpg,nmod
521,3158-3159,",",_,_,_,_,_,519,PUNCT,Z,punct
522,3160-3165,praviti,_,_,*->10-33,*[10],_,512,VERB,Vmbr3s,conj
523,3166-3167,",",_,_,_,_,_,527,PUNCT,Z,punct
524,3168-3170,da,_,_,_,_,_,527,SCONJ,Cs,mark
525,3171-3173,biti,_,_,_,_,_,527,AUX,Va-r3s-n,aux
526,3174-3177,iti,_,_,_,_,_,523,VERB,Vmbp-sm,ccomp
527,3178-3181,ves,_,_,_,_,_,530,DET,Pg-msa,det
528,3182-3186,njen,_,_,*->10-34,*[10],_,530,DET,Ps3msasf,det
529,3187-3191,trud,_,_,_,_,_,527,NOUN,Ncmsan,obj
530,3192-3193,v,_,_,_,_,_,532,ADP,Sl,case
531,3194-3199,smer,_,_,_,_,_,530,NOUN,Ncfsl,nmod
532,3200-3201,",",_,_,_,_,_,538,PUNCT,Z,punct
533,3202-3204,da,_,_,_,_,_,538,SCONJ,Cs,mark
534,3205-3207,biti,_,_,_,_,_,538,AUX,Va-c,aux
535,3208-3212,biti,_,_,_,_,_,538,AUX,Va-p-pm,cop
536,3213-3219,upnik,_,_,_,_,_,538,NOUN,Ncmpn,nsubj
537,3220-3229,poplačan,_,_,_,_,_,527,ADJ,Appmpn,advcl
538,3230-3235,dobro,_,_,_,_,_,538,ADV,Rgc,advmod
539,3236-3237,v,_,_,_,_,_,542,ADP,Sl,case
540,3238-3246,prisilen,_,_,_,_,_,542,ADJ,Agpfsl,amod
541,3247-3256,poravnava,_,_,_,_,_,538,NOUN,Ncfsl,obl
542,3257-3258,.,_,_,_,_,_,547,PUNCT,Z,punct
543,3259-3262,ker,_,_,_,_,_,547,SCONJ,Cs,mark
544,3263-3265,pa,_,_,_,_,_,547,CCONJ,Cc,advmod
545,3266-3268,biti,_,_,_,_,_,547,AUX,Va-f3s-n,aux
546,3269-3272,iti,_,_,_,_,_,538,VERB,Vmbp-sm,advcl
547,3273-3276,SCT,ORG,_,*->1-6,*[1],_,547,PROPN,Npmsn,nsubj
548,3277-3278,v,_,_,_,_,_,550,ADP,Sa,case
549,3279-3285,stečaj,_,_,_,_,_,547,NOUN,Ncmsan,obl
550,3286-3287,",",_,_,_,_,_,547,PUNCT,Z,punct
551,3288-3290,se,_,_,_,_,_,554,PRON,Px------y,expl
552,3291-3293,biti,_,_,_,_,_,554,AUX,Va-f3s-n,aux
553,3294-3302,izkazati,_,_,_,_,_,6,VERB,Vmep-sn,parataxis
554,3303-3304,",",_,_,_,_,_,563,PUNCT,Z,punct
555,3305-3307,da,_,_,_,_,_,563,SCONJ,Cs,mark
556,3308-3312,biti,_,_,_,_,_,563,AUX,Va-f3p-n,cop
557,3313-3319,upnik,_,_,_,_,_,563,NOUN,Ncmpn,nsubj
558,3320-3321,v,_,_,_,_,_,560,ADP,Sl,case
559,3322-3329,stečaj,_,_,_,_,_,563,NOUN,Ncmsl,obl
560,3330-3338,bistveno,_,_,_,_,_,562,ADV,Rgp,advmod
561,3339-3345,slabo,_,_,_,_,_,563,ADV,Rgc,advmod
562,3346-3355,poplačan,_,_,_,_,_,554,ADJ,Appmpn,csubj
563,3356-3357,.,_,_,_,_,_,547,PUNCT,Z,punct
564,3358-3359,v,_,_,_,_,_,567,ADP,Sl,case
565,3360-3366,vsak,_,_,_,_,_,567,DET,Pg-msl,det
566,3367-3374,stečaj,_,_,_,_,_,570,NOUN,Ncmsl,obl
567,3375-3381,doslej,_,_,_,_,_,570,ADV,Rgp,advmod
568,3382-3384,biti,_,_,_,_,_,570,AUX,Va-r3s-n,aux
569,3385-3389,biti,_,_,_,_,_,563,VERB,Va-p-sn,conj
570,3390-3394,tako,_,_,_,_,_,570,ADV,Rgp,advmod
571,3395-3396,",",_,_,_,_,_,573,PUNCT,Z,punct
572,3397-3403,dodajati,_,_,*->10-35,*[10],_,570,VERB,Vmpr3s,conj
573,3404-3405,.,_,_,_,_,_,570,PUNCT,Z,punct
574,3406-3410,foto,_,_,_,_,_,578,NOUN,Ncmsn,nsubj
575,3411-3419,24ur.co,ORG,0,*->15-1,*[15],3 - Nevtralno,578,NUM,Mdc,punct
576,3420-3423,kot,_,_,_,_,_,578,SCONJ,Cs,mark
577,3424-3429,praviti,_,_,*->10-36,*[10],_,573,VERB,Vmbr3s,advcl
578,3430-3431,",",_,_,_,_,_,578,PUNCT,Z,punct
579,3432-3434,biti,_,_,_,_,_,586,AUX,Va-r3s-y,aux
580,3435-3439,biti,_,_,_,_,_,616,AUX,Va-p-sf,aux
581,3440-3445,njen,_,_,*->10-37,*[10],_,583,DET,Ps3fsnsf,det
582,3446-3452,naloga,_,_,_,_,_,586,NOUN,Ncfsn,nsubj
583,3453-3455,od,_,_,_,_,_,585,ADP,Sg,case
584,3456-3463,sodišče,_,_,*->12-19,*[12],_,586,NOUN,Ncnsg,obl
585,3464-3473,zahtevati,_,_,_,_,_,578,VERB,Vmbn,xcomp
586,3474-3476,ne,_,_,_,_,_,588,PART,Q,advmod
587,3477-3485,soglasje,_,_,_,_,_,586,NOUN,Ncnsg,obj
588,3486-3488,za,_,_,_,_,_,590,ADP,Sa,case
589,3489-3496,prodaja,_,_,_,_,_,588,NOUN,Ncfsa,nmod
590,3497-3509,računalnik,_,_,_,_,_,590,NOUN,Ncmpg,nmod
591,3510-3512,ne,_,_,_,_,_,594,PART,Q,advmod
592,3513-3515,za,_,_,_,_,_,594,ADP,Sa,case
593,3516-3524,poroštvo,_,_,_,_,_,590,NOUN,Ncnsa,nmod
594,3525-3526,.,_,_,_,_,_,578,PUNCT,Z,punct
595,3527-3529,ta,_,_,_,_,_,598,DET,Pd-nsa,obj
596,3530-3534,morati,_,_,_,_,_,6,VERB,Vmpr3s,parataxis
597,3535-3543,narediti,_,_,_,_,_,597,VERB,Vmen,xcomp
598,3544-3551,dolžnik,_,_,_,_,_,598,NOUN,Ncmsn,nsubj
599,3552-3553,",",_,_,_,_,_,605,PUNCT,Z,punct
600,3554-3556,ne,_,_,_,_,_,605,PART,Q,cc:preconj
601,3557-3560,jaz,_,_,*->10-38,*[10],_,601,PRON,Pp1-sn,fixed
602,3561-3564,kot,_,_,_,_,_,605,SCONJ,Cs,case
603,3565-3573,prisilen,_,_,*->10-39,*[10],_,605,ADJ,Agpfsn,amod
604,3574-3587,upraviteljica,_,_,*->10-39,*[10],_,599,NOUN,Ncfsn,conj
605,3588-3589,",",_,_,_,_,_,602,PUNCT,Z,punct
606,3590-3594,trditi,_,_,*->10-40,*[10],_,597,VERB,Vmpr3s,conj
607,3595-3596,.,_,_,_,_,_,597,PUNCT,Z,punct
608,3597-3605,Šantlov,PER,_,*->10-41,*[10],_,616,ADJ,Aspfsn,nsubj
609,3606-3608,se,_,_,_,_,_,616,PRON,Px------y,expl
610,3609-3611,biti,_,_,_,_,_,616,AUX,Va-f3s-n,aux
611,3612-3614,na,_,_,_,_,_,613,ADP,Sa,case
612,3615-3620,sklep,_,_,_,_,_,616,NOUN,Ncmsan,obl
613,3621-3628,sodišče,_,_,*->12-20,*[12],_,613,NOUN,Ncnsg,nmod
614,3629-3637,verjetno,_,_,_,_,_,616,ADV,Rgp,advmod
615,3638-3647,pritožiti,_,_,_,_,_,607,VERB,Vmep-sf,conj
616,3648-3649,",",_,_,_,_,_,616,PUNCT,Z,punct
617,3650-3653,pri,_,_,_,_,_,619,ADP,Sl,case
618,3654-3657,ta,_,_,_,_,_,624,DET,Pd-nsl,obl
619,3658-3660,on,_,_,_,_,_,624,PRON,Pp3fsa--y,obj
620,3661-3663,po,_,_,_,_,_,623,ADP,Sl,case
621,3664-3670,njen,_,_,*->10-42,*[10],_,623,DET,Ps3fplsf,det
622,3671-3678,beseda,_,_,_,_,_,624,NOUN,Ncfpl,obl
623,3679-3686,podpirati,_,_,_,_,_,616,VERB,Vmpr3s,conj
624,3687-3691,tudi,_,_,_,_,_,624,PART,Q,advmod
625,3692-3700,zbornica,_,_,_,_,_,624,NOUN,Ncfsn,nsubj
626,3701-3713,upravitelj,_,_,_,_,_,626,NOUN,Ncmpg,nmod
627,3714-3715,.,_,_,_,_,_,616,PUNCT,Z,punct
628,3716-3727,predsednica,_,_,*->11-1,*[11],_,633,NOUN,Ncfsn,nsubj
629,3728-3736,zbornica,_,_,*->11-1,*[11],_,629,NOUN,Ncfsg,nmod
630,3737-3743,Melita,PER[19],_,*->11-1,*[11],_,629,PROPN,Npfsn,nmod
631,3744-3750,Butara,PER[19],_,*->11-1,*[11],_,631,PROPN,Npfsn,flat:name
632,3751-3756,praviti,_,_,_,_,_,624,VERB,Vmbr3s,conj
633,3757-3758,",",_,_,_,_,_,640,PUNCT,Z,punct
634,3759-3761,da,_,_,_,_,_,640,SCONJ,Cs,mark
635,3762-3764,iz,_,_,_,_,_,637,ADP,Sg,case
636,3765-3771,sklep,_,_,_,_,_,640,NOUN,Ncmsg,obl
637,3772-3774,in,_,_,_,_,_,639,CCONJ,Cc,cc
638,3775-3787,obrazložitev,_,_,_,_,_,637,NOUN,Ncfsg,conj
639,3788-3794,izhajati,_,_,_,_,_,633,VERB,Vmpr3s,ccomp
640,3795-3796,",",_,_,_,_,_,645,PUNCT,Z,punct
641,3797-3799,da,_,_,_,_,_,645,SCONJ,Cs,mark
642,3800-3802,biti,_,_,_,_,_,645,AUX,Va-r3s-n,aux
643,3803-3811,Šantlov,PER,_,*->10-43,*[10],_,645,ADJ,Aspfsn,nsubj
644,3812-3819,ravnati,_,_,_,_,_,640,VERB,Vmpp-sf,ccomp
645,3820-3826,narobe,_,_,_,_,_,645,ADV,Rgp,advmod
646,3827-3829,in,_,_,_,_,_,651,CCONJ,Cc,cc
647,3830-3832,da,_,_,_,_,_,651,SCONJ,Cs,mark
648,3833-3835,biti,_,_,_,_,_,651,AUX,Va-r3s-n,cop
649,3836-3843,sodišče,_,_,*->12-21,*[12],_,651,NOUN,Ncnsn,nsubj
650,3844-3850,dolžen,_,_,_,_,_,645,ADJ,Agpnsn,conj
651,3851-3859,ukrepati,_,_,_,_,_,651,VERB,Vmpn,csubj
652,3860-3861,",",_,_,_,_,_,656,PUNCT,Z,punct
653,3862-3867,kakor,_,_,_,_,_,656,SCONJ,Cs,mark
654,3868-3870,biti,_,_,_,_,_,656,AUX,Va-r3s-n,aux
655,3871-3879,ukrepati,_,_,*->12-22,*[12],_,652,VERB,Vmpp-sn,advcl
656,3880-3881,.,_,_,_,_,_,662,PUNCT,Z,punct
657,3882-3884,če,_,_,_,_,_,662,SCONJ,Cs,mark
658,3885-3887,se,_,_,_,_,_,662,PRON,Px------y,expl
659,3888-3890,biti,_,_,_,_,_,662,AUX,Va-f3s-n,aux
660,3891-3904,upraviteljica,_,_,*->10-44,*[10],_,662,NOUN,Ncfsn,nsubj
661,3905-3914,pritožiti,_,_,_,_,_,652,VERB,Vmep-sf,advcl
662,3915-3916,",",_,_,_,_,_,662,PUNCT,Z,punct
663,3917-3919,biti,_,_,_,_,_,667,AUX,Va-f3s-n,aux
664,3920-3925,visok,_,_,_,_,_,666,ADJ,Agcnsn,amod
665,3926-3933,sodišče,_,_,_,_,_,667,NOUN,Ncnsn,nsubj
666,3934-3942,odločati,_,_,_,_,_,656,VERB,Vmpp-sn,conj
667,3943-3945,in,_,_,_,_,_,669,CCONJ,Cc,cc
668,3946-3952,videti,_,_,_,_,_,667,VERB,Vmbp-pm,conj
669,3953-3957,biti,_,_,_,_,_,669,AUX,Va-f1p-n,aux
670,3958-3959,",",_,_,_,_,_,672,PUNCT,Z,punct
671,3960-3966,kakšen,_,_,_,_,_,669,DET,Pq-fsn,ccomp
672,3967-3969,biti,_,_,_,_,_,672,AUX,Va-f3s-n,cop
673,3970-3979,odločitev,_,_,_,_,_,672,NOUN,Ncfsn,nsubj
674,3980-3981,",",_,_,_,_,_,672,PUNCT,Z,punct
675,3982-3984,biti,_,_,_,_,_,677,AUX,Va-r3s-n,aux
676,3985-3991,dejati,_,_,_,_,_,667,VERB,Vmep-sf,conj
677,3992-4003,predsednica,_,_,*->11-2,*[11],_,677,NOUN,Ncfsn,nsubj
678,4004-4012,zbornica,_,_,*->11-2,*[11],_,678,NOUN,Ncfsg,nmod
679,4013-4014,.,_,_,_,_,_,667,PUNCT,Z,punct
680,4015-4021,dodati,_,0,*->11-3,*[11],3 - Nevtralno[30],677,VERB,Vmep-sf,conj
681,4022-4024,biti,_,0,*->11-3,*[11],3 - Nevtralno[30],681,AUX,Va-r3s-n,aux
682,4025-4026,",",_,_,_,_,_,697,PUNCT,Z,punct
683,4027-4029,da,_,_,_,_,_,697,SCONJ,Cs,mark
684,4030-4032,se,_,_,_,_,_,697,PRON,Px------y,expl
685,4033-4035,biti,_,_,_,_,_,697,AUX,Va-f3s-n,aux
686,4036-4037,",",_,_,_,_,_,697,PUNCT,Z,punct
687,4038-4040,če,_,_,_,_,_,697,SCONJ,Cs,mark
688,4041-4043,biti,_,_,_,_,_,697,AUX,Va-r3s-n,aux
689,4044-4046,na,_,_,_,_,_,691,ADP,Sl,case
690,4047-4053,stran,_,_,_,_,_,697,NOUN,Ncfsl,obl
691,4054-4061,sodišče,_,_,*->12-23,*[12],_,691,NOUN,Ncnsg,nmod
692,4062-4065,kar,_,_,_,_,_,697,PRON,Pr-nsn,nsubj
693,4066-4070,koli,_,_,_,_,_,693,PART,Q,fixed
694,4071-4077,narobe,_,_,_,_,_,697,ADV,Rgp,advmod
695,4078-4079,",",_,_,_,_,_,697,PUNCT,Z,punct
696,4080-4089,razrešiti,_,_,_,_,_,681,VERB,Vmep-sn,advcl
697,4090-4092,le,_,_,_,_,_,697,PART,Q,advmod
698,4093-4095,na,_,_,_,_,_,700,ADP,Sl,case
699,4096-4103,podlaga,_,_,_,_,_,697,NOUN,Ncfsl,obl
700,4104-4112,pritožba,_,_,_,_,_,700,NOUN,Ncfsg,nmod
701,4113-4126,upraviteljica,_,_,*->10-45,*[10],_,701,NOUN,Ncfsg,nmod
702,4127-4128,.,_,_,_,_,_,697,PUNCT,Z,punct
703,4129-4133,nov,_,0,*->13-5,*[13],3 - Nevtralno[31],705,ADJ,Agpmsny,amod
704,4134-4144,upravitelj,_,0,*->13-5,*[13],3 - Nevtralno[31],712,NOUN,Ncmsn,nsubj
705,4145-4152,Benigar,PER[20],0,*->13-5,*[13],3 - Nevtralno[31],705,PROPN,Npmsn,nmod
706,4153-4158,Tošič,PER[20],0,*->13-5,*[13],3 - Nevtralno[31],706,PROPN,Npmsn,flat:name
707,4159-4161,biti,_,_,_,_,_,712,AUX,Va-f3s-n,aux
708,4162-4163,v,_,_,_,_,_,710,ADP,Sl,case
709,4164-4171,primer,_,_,_,_,_,712,NOUN,Ncmsl,obl
710,4172-4179,stečaj,_,_,_,_,_,710,NOUN,Ncmsg,nmod
711,4180-4185,voditi,_,_,_,_,_,697,VERB,Vmpp-sm,conj
712,4186-4190,tudi,_,_,_,_,_,712,PART,Q,advmod
713,4191-4199,stečajen,_,_,_,_,_,715,ADJ,Agpmsay,amod
714,4200-4208,postopek,_,_,_,_,_,712,NOUN,Ncmsan,obj
715,4209-4210,.,_,_,_,_,_,712,PUNCT,Z,punct
716,4211-4213,na,_,_,_,_,_,718,ADP,Sl,case
717,4214-4221,sodišče,_,_,*->12-24,*[12],_,752,NOUN,Ncnsl,obl
718,4222-4224,biti,_,_,_,_,_,752,AUX,Va-f3s-n,aux
719,4225-4226,v,_,_,_,_,_,721,ADP,Sa,case
720,4227-4232,torek,_,_,_,_,_,752,NOUN,Ncmsan,obl
721,4233-4238,narok,_,_,_,_,_,712,NOUN,Ncmsn,nsubj
722,4239-4240,o,_,_,_,_,_,725,ADP,Sl,case
723,4241-4245,dva,_,_,_,_,_,725,NUM,Mlcmdl,nummod
724,4246-4254,ugovor,_,_,_,_,_,722,NOUN,Ncmdl,nmod
725,4255-4260,zoper,_,_,_,_,_,727,ADP,Sa,case
726,4261-4268,vodenje,_,_,_,_,_,725,NOUN,Ncnsa,nmod
727,4269-4277,prisilen,_,_,_,_,_,729,ADJ,Agpfsg,amod
728,4278-4287,poravnava,_,_,_,_,_,727,NOUN,Ncfsg,nmod
729,4288-4289,",",_,_,_,_,_,734,PUNCT,Z,punct
730,4290-4292,ki,_,_,_,_,_,734,SCONJ,Cs,mark
731,4293-4296,biti,_,_,_,_,_,734,AUX,Va-r3d-n,aux
732,4297-4299,on,_,_,_,_,_,734,PRON,Pp3mda--y,obj
733,4300-4307,vložiti,_,_,_,_,_,729,VERB,Vmep-dm,acl
734,4308-4316,omenjen,_,_,_,_,_,736,ADJ,Appfsn,amod
735,4317-4325,peterica,_,_,_,_,_,734,NOUN,Ncfsn,nsubj
736,4326-4336,zaposlen,_,_,_,_,_,736,ADJ,Appmpg,amod
737,4337-4339,in,_,_,_,_,_,739,CCONJ,Cc,cc
738,4340-4348,Šantlov,PER,2,*->10-46,*[10],2 - Negativno,737,ADJ,Aspfsn,conj
739,4349-4350,.,_,_,_,_,_,742,PUNCT,Z,punct
740,4351-4354,SCT,ORG,2,*->1-7,*[1],2 - Negativno,742,PROPN,Npmsn,nsubj
741,4355-4359,morati,_,_,_,_,_,712,VERB,Vmpr3s,conj
742,4360-4362,do,_,_,_,_,_,744,ADP,Sg,case
743,4363-4368,torka,_,_,_,_,_,745,NOUN,Ncmsg,obl
744,4369-4378,izplačati,_,_,_,_,_,742,VERB,Vmbn,xcomp
745,4379-4384,plača,_,_,_,_,_,745,NOUN,Ncfpa,obj
746,4385-4395,zaposlen,_,_,_,_,_,746,ADJ,Appmpd,amod
747,4396-4397,",",_,_,_,_,_,752,PUNCT,Z,punct
748,4398-4403,sicer,_,_,_,_,_,752,PART,Q,advmod
749,4404-4406,biti,_,_,_,_,_,752,AUX,Va-f3s-n,aux
750,4407-4414,sodišče,_,0,*->12-25,*[12],3 - Nevtralno,752,NOUN,Ncnsn,nsubj
751,4415-4421,začeti,_,_,_,_,_,742,VERB,Vmep-sn,conj
752,4422-4430,stečajen,_,_,_,_,_,754,ADJ,Agpmsay,amod
753,4431-4439,postopek,_,_,_,_,_,752,NOUN,Ncmsan,obj
