idx,chars_idx,token,entity_type,sentiment,idk_1,idk_2,orig_sentiment,heads,upos,xpos,deprel
0,0-8,nadzoren,_,_,_,_,_,2,ADJ,Agpmsny,amod
1,9-13,svet,_,_,_,_,_,5,NOUN,Ncmsn,nsubj
2,14-24,slovenski,ORG[1],_,*->21-1,*[21],_,4,ADJ,Agpfpg,amod
3,25-33,železnica,ORG[1],_,*->21-1,*[21],_,2,NOUN,Ncfpg,nmod
4,34-40,izbirati,_,_,_,_,_,29,VERB,Vmpr3s,advcl
5,41-47,nov,_,_,_,_,_,8,ADJ,Agpmsg,amod
6,48-59,generalen,_,_,_,_,_,8,ADJ,Agpmsg,amod
7,60-70,direktor,_,_,_,_,_,5,NOUN,Ncmsg,obj
8,71-77,družba,_,_,*->21-2,*[21],_,8,NOUN,Ncfsg,nmod
9,78-79,.,_,_,_,_,_,5,PUNCT,Z,punct
10,80-85,ime,_,_,_,_,_,8,NOUN,Ncnsg,conj
11,86-95,izbran,_,_,_,_,_,13,ADJ,Appmsg,amod
12,96-105,kandidat,_,_,_,_,_,11,NOUN,Ncmsg,nmod
13,106-107,",",_,_,_,_,_,21,PUNCT,Z,punct
14,108-110,ki,_,_,_,_,_,21,SCONJ,Cs,mark
15,111-113,on,_,_,_,_,_,21,PRON,Pp3msa--y,obj
16,114-120,zaradi,_,_,_,_,_,20,ADP,Sg,case
17,121-132,prihajajoč,_,_,_,_,_,20,ADJ,Appfsg,amod
18,133-137,nov,_,_,_,_,_,20,ADJ,Agpfsg,amod
19,138-143,kriza,_,_,_,_,_,21,NOUN,Ncfsg,obl
20,144-148,čakati,_,_,_,_,_,11,VERB,Vmpr3s,acl
21,149-154,težek,_,_,_,_,_,23,ADJ,Agpfsn,amod
22,155-161,naloga,_,_,_,_,_,21,NOUN,Ncfsn,nsubj
23,162-163,",",_,_,_,_,_,21,PUNCT,Z,punct
24,164-166,za,_,_,_,_,_,37,ADP,Sa,case
25,167-171,zdaj,_,_,_,_,_,29,ADV,Rgp,advmod
26,172-174,ne,_,_,_,_,_,29,PART,Q,advmod
27,175-179,biti,_,_,_,_,_,29,AUX,Va-f3p-n,aux
28,180-188,razkriti,_,_,*->21-3,*[21],_,0,VERB,Vmep-pm,root
29,189-190,.,_,_,_,_,_,5,PUNCT,Z,punct
30,191-199,nadzoren,_,_,_,_,_,32,ADJ,Agpmsny,amod
31,200-204,svet,_,_,_,_,_,75,NOUN,Ncmsn,nsubj
32,205-215,slovenski,ORG[2],_,*->21-4,*[21],_,34,ADJ,Agpfpg,amod
33,216-224,železnica,ORG[2],_,*->21-4,*[21],_,32,NOUN,Ncfpg,nmod
34,225-228,med,_,_,_,_,_,37,ADP,Si,case
35,229-236,štirje,_,_,_,_,_,37,NUM,Mlcmpi,nummod
36,237-246,kandidat,_,_,_,_,_,34,NOUN,Ncmpi,nmod
37,247-252,danes,_,_,_,_,_,39,ADV,Rgp,advmod
38,253-259,izbira,_,_,_,_,_,29,NOUN,Ncfsn,nsubj
39,260-266,nov,_,_,_,_,_,42,ADJ,Agpmsg,amod
40,267-278,generalen,_,_,_,_,_,42,ADJ,Agpmsg,amod
41,279-289,direktor,_,_,_,_,_,39,NOUN,Ncmsg,nmod
42,290-296,družba,_,_,*->21-5,*[21],_,42,NOUN,Ncfsg,nmod
43,297-298,.,_,_,_,_,_,29,PUNCT,Z,punct
44,299-307,nadzoren,_,_,_,_,_,46,ADJ,Agpmsny,amod
45,308-312,svet,_,_,_,_,_,39,NOUN,Ncmsn,conj
46,313-323,slovenski,ORG[3],_,*->21-6,*[21],_,48,ADJ,Agpfpg,amod
47,324-332,železnica,ORG[3],_,*->21-6,*[21],_,46,NOUN,Ncfpg,nmod
48,333-338,danes,_,_,_,_,_,75,ADV,Rgp,advmod
49,339-342,med,_,_,_,_,_,52,ADP,Si,case
50,343-350,štirje,_,_,_,_,_,52,NUM,Mlcmpi,nummod
51,351-360,kandidat,_,_,_,_,_,75,NOUN,Ncmpi,obl
52,361-362,",",_,_,_,_,_,57,PUNCT,Z,punct
53,363-365,ki,_,_,_,_,_,57,SCONJ,Cs,mark
54,366-369,on,_,_,_,_,_,57,PRON,Pp3fpa--y,obj
55,370-372,biti,_,_,_,_,_,57,AUX,Va-r3s-n,aux
56,373-381,poiskati,_,_,_,_,_,52,VERB,Vmep-sf,acl
57,382-391,kadrovski,_,0,*->11-1,*[11],3 - Nevtralno[22],59,ADJ,Agpfsn,amod
58,392-400,agencija,_,0,*->11-1,*[11],3 - Nevtralno[22],57,NOUN,Ncfsn,nsubj
59,401-407,profilo,ORG,0,*->11-1,*[11],3 - Nevtralno[22],59,NOUN,Ncmsn,nmod
60,408-409,",",_,_,_,_,_,57,PUNCT,Z,punct
61,410-416,izbira,_,_,_,_,_,59,NOUN,Ncfsn,conj
62,417-423,nov,_,_,_,_,_,65,ADJ,Agpmsg,amod
63,424-435,generalen,_,_,_,_,_,65,ADJ,Agpmsg,amod
64,436-446,direktor,_,_,_,_,_,62,NOUN,Ncmsg,nmod
65,447-453,družba,ORG,_,*->21-7,*[21],_,65,NOUN,Ncfsg,nmod
66,454-455,.,_,_,_,_,_,62,PUNCT,Z,punct
67,456-461,ime,_,_,_,_,_,75,NOUN,Ncnsg,obj
68,462-471,izbran,_,_,_,_,_,70,ADJ,Appmsg,amod
69,472-481,kandidat,_,_,_,_,_,68,NOUN,Ncmsg,nmod
70,482-484,za,_,_,_,_,_,72,ADP,Sa,case
71,485-489,zdaj,_,_,_,_,_,75,ADV,Rgp,advmod
72,490-492,ne,_,_,_,_,_,75,PART,Q,advmod
73,493-497,biti,_,_,_,_,_,75,AUX,Va-f3p-n,aux
74,498-506,razkriti,_,_,*->21-8,*[21],_,29,VERB,Vmep-pm,parataxis
75,507-508,",",_,_,_,_,_,79,PUNCT,Z,punct
76,509-515,temveč,_,_,_,_,_,79,CCONJ,Cc,cc
77,516-520,biti,_,_,_,_,_,79,AUX,Va-f3p-n,aux
78,521-529,počakati,_,_,*->21-9,*[21],_,75,VERB,Vmep-pm,conj
79,530-532,na,_,_,_,_,_,81,ADP,Sa,case
80,533-541,soglasje,_,_,_,_,_,79,NOUN,Ncnsa,obl
81,542-550,agencija,ORG[4],_,*->3-1,*[3],_,81,NOUN,Ncfsg,nmod
82,551-553,za,ORG[4],_,*->3-1,*[3],_,84,ADP,Sa,case
83,554-565,upravljanje,ORG[4],_,*->3-1,*[3],_,82,NOUN,Ncnsa,nmod
84,566-577,kapitalski,ORG[4],_,*->3-1,*[3],_,86,ADJ,Agpfpg,amod
85,578-584,naložba,ORG[4],_,*->3-1,*[3],_,84,NOUN,Ncfpg,nmod
86,585-587,RS,ORG[4]|LOC[5],0,*->3-1|*->4-1,*[3]|*[4],3 - Nevtralno,86,PROPN,Npfsg,nmod
87,588-592,AUKN,ORG[4],_,*->3-1,*[3],_,87,PROPN,Npmsg,flat:name
88,593-594,.,_,_,_,_,_,75,PUNCT,Z,punct
89,595-605,nadzoren,_,_,_,_,_,91,ADJ,Agpmsd,amod
90,606-611,svet,_,_,_,_,_,95,NOUN,Ncmsd,obj
91,612-614,biti,_,_,_,_,_,95,AUX,Va-r3p-n,aux
92,615-617,se,_,_,_,_,_,95,PRON,Px------y,expl
93,618-623,danes,_,_,_,_,_,95,ADV,Rgp,advmod
94,624-635,predstaviti,_,_,_,_,_,5,VERB,Vmep-pm,parataxis
95,636-642,štirje,_,_,_,_,_,97,NUM,Mlcmpn,nummod
96,643-652,kandidat,_,_,_,_,_,95,NOUN,Ncmpn,nsubj
97,653-654,.,_,_,_,_,_,95,PUNCT,Z,punct
98,655-657,po,_,_,_,_,_,100,ADP,Sl,case
99,658-667,poročanje,_,_,_,_,_,97,NOUN,Ncnsl,nmod
100,668-672,24UR,ORG,0,*->10-1,*[10],3 - Nevtralno,100,NUM,Mdc,nummod
101,673-675,biti,_,_,_,_,_,108,AUX,Va-r3p-n,cop
102,676-678,ta,_,_,_,_,_,104,DET,Pd-nsn,det
103,679-684,Dušan,PER[6],_,*->16-1,*[16],_,97,PROPN,Npmsn,nmod
104,685-688,Mes,PER[6],_,*->16-1,*[16],_,104,PROPN,Npmsn,flat:name
105,689-690,",",_,_,_,_,_,108,PUNCT,Z,punct
106,691-699,nekdanji,_,_,*->16-2,*[16],_,108,ADJ,Agpmsny,amod
107,700-704,član,_,_,*->16-2,*[16],_,104,NOUN,Ncmsn,appos
108,705-711,uprava,_,_,*->16-2,*[16],_,108,NOUN,Ncfsg,nmod
109,712-725,utapljajoč,_,_,*->16-2,*[16],_,111,ADJ,Appmsg,amod
110,726-734,Casinoja,ORG[7],2,*->16-2|*->15-1,*[16]|*[15],2 - Negativno[23],109,PROPN,Npmsg,nmod
111,735-743,Portorož,ORG[7]|LOC[8],0,*->16-2|*->15-1|*->2-1,*[16]|*[15]|*[2],2 - Negativno[23]|3 - Nevtralno[24],111,PROPN,Npmsn,nmod
112,744-746,in,_,_,_,_,_,115,CCONJ,Cc,cc
113,747-755,nazadnje,_,_,_,_,_,108,ADV,Rgp,advmod
114,756-763,sanator,_,2,*->16-3,*[16],2 - Negativno[25],108,NOUN,Ncmsn,conj
115,764-774,propadel,_,2,*->16-3,*[16],2 - Negativno[25],117,ADJ,Appmsg,amod
116,775-778,SCT,ORG,2,*->16-3,*[16],2 - Negativno[25],115,PROPN,Npmsg,nmod
117,779-780,.,_,_,_,_,_,95,PUNCT,Z,punct
118,781-786,drug,_,_,*->13-1,*[13],_,121,ADJ,Mlpmsny,appos
119,787-789,biti,_,_,_,_,_,210,AUX,Va-r3s-n,aux
120,790-796,Martin,PER[9],_,*->13-2,*[13],_,104,PROPN,Npmsn,root
121,797-802,Konta,PER[9],_,*->13-2,*[13],_,121,PROPN,Npmsn,flat:name
122,803-804,",",_,_,_,_,_,129,PUNCT,Z,punct
123,805-807,ki,_,_,_,_,_,129,SCONJ,Cs,mark
124,808-810,biti,_,_,*->13-3,*[13],_,129,AUX,Va-r3s-n,aux
125,811-817,večina,_,_,_,_,_,129,NOUN,Ncfsa,obj
126,818-823,svoj,_,_,_,_,_,128,DET,Px-fsg,det
127,824-831,kariera,_,_,_,_,_,126,NOUN,Ncfsg,nmod
128,832-840,preživeti,_,_,_,_,_,121,VERB,Vmep-sm,acl
129,841-842,v,_,_,_,_,_,131,ADP,Sl,case
130,843-849,tujina,_,_,_,_,_,129,NOUN,Ncfsl,obl
131,850-851,",",_,_,_,_,_,129,PUNCT,Z,punct
132,852-860,predvsem,_,_,_,_,_,135,PART,Q,advmod
133,861-862,v,_,_,_,_,_,135,ADP,Sl,case
134,863-871,Francija,LOC,0,*->7-1,*[7],3 - Nevtralno,131,PROPN,Npfsl,conj
135,872-873,",",_,_,_,_,_,137,PUNCT,Z,punct
136,874-880,Rusija,LOC,0,*->20-1,*[20],3 - Nevtralno,135,PROPN,Npfsl,conj
137,881-883,in,_,_,_,_,_,139,CCONJ,Cc,cc
138,884-891,Nemčija,LOC,0,*->17-1,*[17],3 - Nevtralno,131,PROPN,Npfsl,conj
139,892-893,",",_,_,_,_,_,145,PUNCT,Z,punct
140,894-898,kjer,_,_,_,_,_,145,SCONJ,Cs,mark
141,899-901,biti,_,_,_,_,_,145,AUX,Va-r3s-n,aux
142,902-905,biti,_,_,_,_,_,145,AUX,Va-p-sm,cop
143,906-916,regionalen,_,_,*->13-4,*[13],_,145,ADJ,Agpmsny,amod
144,917-925,direktor,_,_,*->13-4,*[13],_,129,NOUN,Ncmsn,nsubj
145,926-935,francoski,_,0,*->13-4|*->19-1,*[13]|*[19],3 - Nevtralno[26],147,ADJ,Agpfsg,amod
146,936-951,multinacionalka,_,0,*->13-4|*->19-1,*[13]|*[19],3 - Nevtralno[26],145,NOUN,Ncfsg,nmod
147,952-958,Burea,ORG[10],0,*->13-4|*->19-1,*[13]|*[19],3 - Nevtralno[26],147,PROPN,Npmsn,nmod
148,959-966,Veritas,ORG[10],0,*->13-4|*->19-1,*[13]|*[19],3 - Nevtralno[26],148,PROPN,Npmsn,nmod
149,967-968,.,_,_,_,_,_,145,PUNCT,Z,punct
150,969-975,tretji,_,_,*->14-1,*[14],_,29,ADJ,Mlomsn,parataxis
151,976-978,biti,_,_,*->14-1,*[14],_,168,AUX,Va-r3s-n,cop
152,979-983,malo,_,_,_,_,_,154,DET,Rgp,advmod
153,984-989,znan,_,_,_,_,_,155,ADJ,Appmsny,amod
154,990-994,Igor,PER[11],_,*->14-2,*[14],_,151,PROPN,Npmsn,nsubj
155,995-1001,Blejec,PER[11],_,*->14-2,*[14],_,155,PROPN,Npmsn,flat:name
156,1002-1003,",",_,_,_,_,_,160,PUNCT,Z,punct
157,1004-1006,ki,_,_,_,_,_,160,SCONJ,Cs,mark
158,1007-1009,biti,_,_,_,_,_,160,AUX,Va-r3s-n,aux
159,1010-1015,voditi,_,0,_,_,3 - Nevtralno,155,VERB,Vmpp-sm,acl
160,1016-1020,Teol,ORG,_,*->6-1,*[6],_,160,PROPN,Npmsn,nsubj
161,1021-1022,",",_,_,_,_,_,163,PUNCT,Z,punct
162,1023-1031,Geostroj,ORG,0,*->5-1,*[5],3 - Nevtralno,161,PROPN,Npmsn,conj
163,1032-1034,in,_,_,_,_,_,165,CCONJ,Cc,cc
164,1035-1041,Siteep,ORG,0,*->18-1,*[18],3 - Nevtralno,161,PROPN,Npmsan,conj
165,1042-1043,.,_,_,_,_,_,160,PUNCT,Z,punct
166,1044-1051,najbolj,_,_,_,_,_,168,ADV,Rgs,advmod
167,1052-1060,negotov,_,_,_,_,_,161,ADJ,Agpnsn,amod
168,1061-1063,biti,_,_,_,_,_,168,AUX,Va-r3s-n,cop
169,1064-1070,četrti,_,_,_,_,_,171,ADJ,Mlonsa,amod
170,1071-1074,ime,_,_,_,_,_,168,NOUN,Ncnsa,obj
171,1075-1076,",",_,_,_,_,_,160,PUNCT,Z,punct
172,1077-1080,saj,_,_,_,_,_,182,CCONJ,Cc,cc
173,1081-1083,biti,_,_,_,_,_,182,AUX,Va-r3s-n,aux
174,1084-1089,okoli,_,_,_,_,_,176,ADP,Sg,case
175,1090-1095,on,_,_,_,_,_,178,PRON,Pp3msg,nmod
176,1096-1102,veliko,_,_,_,_,_,178,DET,Rgp,det
177,1103-1110,ugibanje,_,_,_,_,_,171,NOUN,Ncnpg,nmod
178,1111-1112,",",_,_,_,_,_,182,PUNCT,Z,punct
179,1113-1121,nekateri,_,_,_,_,_,182,DET,Pi-mpn,nsubj
180,1122-1124,pa,_,_,_,_,_,182,CCONJ,Cc,advmod
181,1125-1133,omenjati,_,_,_,_,_,5,VERB,Vmpr3p,parataxis
182,1134-1138,Nino,PER[12],_,*->9-1,*[9],_,182,PROPN,Npfsa,obj
183,1139-1146,Mauhler,PER[12],_,*->9-1,*[9],_,183,PROPN,Npmsa,flat:name
184,1147-1148,",",_,_,_,_,_,187,PUNCT,Z,punct
185,1149-1157,trenutno,_,_,_,_,_,187,ADJ,Agpfsa,amod
186,1158-1169,direktorica,_,0,*->9-2,*[9],3 - Nevtralno[27],183,NOUN,Ncfsa,appos
187,1170-1181,direktorat,_,0,*->9-2,*[9],3 - Nevtralno[27],187,NOUN,Ncmsg,nmod
188,1182-1184,za,_,0,*->9-2,*[9],3 - Nevtralno[27],190,ADP,Sa,case
189,1185-1194,železnica,_,0,*->9-2,*[9],3 - Nevtralno[27],188,NOUN,Ncfpa,nmod
190,1195-1197,in,_,0,*->9-2,*[9],3 - Nevtralno[27],192,CCONJ,Cc,cc
191,1198-1205,žičnica,_,0,*->9-2,*[9],3 - Nevtralno[27],190,NOUN,Ncfpa,conj
192,1206-1208,na,_,0,*->9-2,*[9],3 - Nevtralno[27],194,ADP,Sl,case
193,1209-1220,ministrstvo,_,0,*->9-2,*[9],3 - Nevtralno[27],192,NOUN,Ncnsl,nmod
194,1221-1223,za,_,0,*->9-2,*[9],3 - Nevtralno[27],196,ADP,Sa,case
195,1224-1230,promet,_,0,*->9-2,*[9],3 - Nevtralno[27],194,NOUN,Ncmsan,nmod
196,1231-1232,.,_,_,_,_,_,5,PUNCT,Z,punct
197,1233-1241,napoved,_,_,_,_,_,187,NOUN,Ncfpa,conj
198,1242-1243,o,_,_,_,_,_,200,ADP,Sl,case
199,1244-1247,ta,_,_,_,_,_,198,DET,Pd-nsl,nmod
200,1248-1249,",",_,_,_,_,_,206,PUNCT,Z,punct
201,1250-1253,kdo,_,_,_,_,_,206,PRON,Pq-msn,nsubj
202,1254-1256,od,_,_,_,_,_,204,ADP,Sg,case
203,1257-1266,naveden,_,_,_,_,_,202,ADJ,Appmpg,nmod
204,1267-1269,biti,_,_,_,_,_,206,AUX,Va-f3s-n,cop
205,1270-1276,izbran,_,_,_,_,_,200,ADJ,Appmsnn,acl
206,1277-1278,",",_,_,_,_,_,206,PUNCT,Z,punct
207,1279-1281,biti,_,_,_,_,_,210,AUX,Va-r3p-n,aux
208,1282-1286,zelo,_,_,_,_,_,210,ADV,Rgp,advmod
209,1287-1297,nehvaležen,_,_,_,_,_,5,ADJ,Agpfpn,parataxis
210,1298-1299,",",_,_,_,_,_,206,PUNCT,Z,punct
211,1300-1303,saj,_,_,_,_,_,215,CCONJ,Cc,cc
212,1304-1306,se,_,_,_,_,_,215,PRON,Px------y,expl
213,1307-1313,stvar,_,_,_,_,_,215,NOUN,Ncfpn,nsubj
214,1314-1325,spreminjati,_,_,_,_,_,210,VERB,Vmpr3p,conj
215,1326-1328,iz,_,_,_,_,_,217,ADP,Sg,case
216,1329-1334,dan,_,_,_,_,_,215,NOUN,Ncmsg,obl
217,1335-1336,v,_,_,_,_,_,219,ADP,Sa,case
218,1337-1340,dan,_,_,_,_,_,217,NOUN,Ncmsan,nmod
219,1341-1342,.,_,_,_,_,_,210,PUNCT,Z,punct
220,1343-1345,če,_,_,_,_,_,230,SCONJ,Cs,mark
221,1346-1348,biti,_,_,_,_,_,230,AUX,Va-r3s-n,aux
222,1349-1354,kont,PER,_,*->13-5,*[13],_,230,NOUN,Ncfpa,obj
223,1355-1361,zaradi,_,_,_,_,_,226,ADP,Sg,case
224,1362-1373,mednaroden,_,_,_,_,_,226,ADJ,Agpfpg,amod
225,1374-1382,izkušnja,_,_,_,_,_,230,NOUN,Ncfpg,obl
226,1383-1385,še,_,_,_,_,_,230,PART,Q,advmod
227,1386-1390,pred,_,_,_,_,_,229,ADP,Si,case
228,1391-1398,kratek,_,_,_,_,_,230,ADJ,Agpnsi,obl
229,1399-1405,veljati,_,_,_,_,_,215,VERB,Vmpp-sm,advcl
230,1406-1408,za,_,_,_,_,_,233,ADP,Sa,case
231,1409-1417,glaven,_,_,*->13-6,*[13],_,233,ADJ,Agpmsa,amod
232,1418-1426,favorit,_,_,*->13-6,*[13],_,230,NOUN,Ncmsay,obl
233,1427-1428,",",_,_,_,_,_,230,PUNCT,Z,punct
234,1429-1433,tudi,_,_,_,_,_,237,PART,Q,advmod
235,1434-1435,z,_,_,_,_,_,237,ADP,Si,case
236,1436-1443,podpora,_,_,_,_,_,233,NOUN,Ncfsi,conj
237,1444-1448,AUKN,ORG,0,*->3-2,*[3],3 - Nevtralno,237,PROPN,Npfsg,nmod
238,1449-1450,",",_,_,_,_,_,237,PUNCT,Z,punct
239,1451-1456,danes,_,_,_,_,_,242,ADV,Rgp,advmod
240,1457-1465,nekateri,_,_,_,_,_,242,DET,Pi-mpn,nsubj
241,1466-1472,trditi,_,_,_,_,_,5,VERB,Vmpr3p,parataxis
242,1473-1474,",",_,_,_,_,_,249,PUNCT,Z,punct
243,1475-1477,da,_,_,_,_,_,249,SCONJ,Cs,mark
244,1478-1480,on,_,2,*->13-7,*[13],2 - Negativno,249,PRON,Pp3msd--y,obj
245,1481-1491,nadzornik,_,_,_,_,_,249,NOUN,Ncmpn,nsubj
246,1492-1496,biti,_,_,_,_,_,249,AUX,Va-r3p-y,cop
247,1497-1504,najbolj,_,_,_,_,_,249,ADV,Rgs,advmod
248,1505-1515,naklonjen,_,_,_,_,_,242,ADJ,Appmpn,ccomp
249,1516-1517,.,_,_,_,_,_,249,PUNCT,Z,punct
250,1518-1523,kljub,_,_,_,_,_,253,ADP,Sd,case
251,1524-1531,slab,_,_,_,_,_,253,ADJ,Agcnpd,amod
252,1532-1545,pričakovanje,_,_,_,_,_,267,NOUN,Ncnpd,obl
253,1546-1554,železnica,_,_,*->21-10,*[21],_,253,NOUN,Ncfpg,nmod
254,1555-1557,do,_,_,_,_,_,256,ADP,Sg,case
255,1558-1563,konec,_,_,_,_,_,267,NOUN,Ncmsg,obl
256,1564-1574,letošnji,_,_,_,_,_,258,ADJ,Agpnsg,amod
257,1575-1579,leto,_,_,_,_,_,256,NOUN,Ncnsg,nmod
258,1580-1585,biti,_,_,_,_,_,267,AUX,Va-f3d-n,aux
259,1586-1595,Brankovič,PER,_,*->8-1,*[8],_,267,PROPN,Npmsn,nsubj
260,1596-1598,in,_,_,_,_,_,262,CCONJ,Cc,cc
261,1599-1605,Pavlič,PER,_,*->1-1,*[1],_,260,PROPN,Npmsn,conj
262,1606-1613,skladno,_,_,_,_,_,267,ADV,Rgp,advmod
263,1614-1615,z,_,_,_,_,_,265,ADP,Si,case
264,1616-1623,sklep,_,_,_,_,_,267,NOUN,Ncmsi,obl
265,1624-1635,nadzornik,_,_,_,_,_,265,NOUN,Ncmpg,nmod
266,1636-1643,prejeti,_,_,_,_,_,5,VERB,Vmep-dm,parataxis
267,1644-1651,nagrada,_,_,_,_,_,267,NOUN,Ncfsa,obj
268,1652-1654,za,_,_,_,_,_,270,ADP,Sa,case
269,1655-1666,izboljšanje,_,_,_,_,_,268,NOUN,Ncnsa,nmod
270,1667-1677,poslovanje,_,_,_,_,_,270,NOUN,Ncnsg,nmod
271,1678-1679,.,_,_,_,_,_,267,PUNCT,Z,punct
272,1680-1684,vsak,_,_,_,_,_,275,DET,Pg-msn,nsubj
273,1685-1687,biti,_,_,_,_,_,275,AUX,Va-f3s-n,aux
274,1688-1694,prejeti,_,_,_,_,_,5,VERB,Vmep-sm,parataxis
275,1695-1697,po,_,_,_,_,_,278,ADP,Sa,case
276,1698-1704,25.000,_,_,_,_,_,278,NUM,Mdc,nummod
277,1705-1710,evro,_,_,_,_,_,275,NOUN,Ncmpg,obl
278,1711-1716,bruto,_,_,_,_,_,278,NOUN,Ncmsn,nmod
279,1717-1718,.,_,_,_,_,_,275,PUNCT,Z,punct
280,1719-1723,foto,_,_,_,_,_,283,NOUN,Ncmsn,nmod
281,1724-1733,slovenski,ORG[13],_,*->21-11,*[21],_,283,ADJ,Agpfsg,amod
282,1734-1743,železnica,ORG[13],_,*->21-11,*[21],_,279,NOUN,Ncfsg,nmod
283,1744-1754,predsednik,_,_,*->12-1,*[12],_,290,NOUN,Ncmsn,nsubj
284,1755-1765,nadzoren,_,_,*->12-1,*[12],_,286,ADJ,Agpmsg,amod
285,1766-1771,svet,_,_,*->12-1,*[12],_,284,NOUN,Ncmsg,nmod
286,1772-1780,železnica,_,_,*->12-1|*->21-12,*[12]|*[21],_,286,NOUN,Ncfpg,nmod
287,1781-1786,Bojan,PER[14],_,*->12-1,*[12],_,284,PROPN,Npmsn,nmod
288,1787-1792,Brank,PER[14],_,*->12-1,*[12],_,288,PROPN,Npmsn,flat:name
289,1793-1802,pričakovati,_,_,_,_,_,275,VERB,Vmpr3s,conj
290,1803-1804,",",_,_,_,_,_,296,PUNCT,Z,punct
291,1805-1807,da,_,_,_,_,_,296,SCONJ,Cs,mark
292,1808-1812,biti,_,_,_,_,_,296,AUX,Va-f3p-n,aux
293,1813-1824,generalen,_,_,_,_,_,295,ADJ,Agpmsa,amod
294,1825-1835,direktor,_,_,_,_,_,296,NOUN,Ncmsay,obj
295,1836-1843,izbrati,_,_,_,_,_,290,VERB,Vmep-pm,ccomp
296,1844-1846,do,_,_,_,_,_,298,ADP,Sg,case
297,1847-1853,večer,_,_,_,_,_,296,NOUN,Ncmsg,obl
298,1854-1855,.,_,_,_,_,_,290,PUNCT,Z,punct
299,1856-1860,nov,_,_,_,_,_,301,ADJ,Agpfsn,amod
300,1861-1867,uprava,_,_,_,_,_,304,NOUN,Ncfsn,nsubj
301,1868-1876,železnica,_,_,*->21-13,*[21],_,301,NOUN,Ncfpg,nmod
302,1877-1879,biti,_,_,_,_,_,304,AUX,Va-f3s-n,aux
303,1880-1892,štiričlanski,_,_,_,_,_,290,ADJ,Agpfsn,parataxis
304,1893-1894,",",_,_,_,_,_,304,PUNCT,Z,punct
305,1895-1897,po,_,_,_,_,_,308,ADP,Sl,case
306,1898-1910,mandatarski,_,_,_,_,_,308,ADJ,Agpmsl,amod
307,1911-1918,sistem,_,_,_,_,_,313,NOUN,Ncmsl,obl
308,1919-1921,biti,_,_,_,_,_,313,AUX,Va-f3s-n,aux
309,1922-1925,dva,_,_,_,_,_,311,NUM,Mlcmda,nummod
310,1926-1931,član,_,_,_,_,_,313,NOUN,Ncmda,obj
311,1932-1938,uprava,_,_,_,_,_,311,NOUN,Ncfsg,nmod
312,1939-1948,predlagati,_,_,_,_,_,304,VERB,Vmbp-sm,csubj
313,1949-1960,nadzornik,_,_,_,_,_,313,NOUN,Ncmpd,obj
314,1961-1962,v,_,_,_,_,_,316,ADP,Sa,case
315,1963-1972,potrditev,_,_,_,_,_,314,NOUN,Ncfsa,nmod
316,1973-1982,generalen,_,_,_,_,_,318,ADJ,Agpmsny,amod
317,1983-1991,direktor,_,_,_,_,_,316,NOUN,Ncmsn,nmod
318,1992-1993,",",_,_,_,_,_,325,PUNCT,Z,punct
319,1994-2001,delavec,_,_,_,_,_,325,NOUN,Ncmpa,obj
320,2002-2004,pa,_,_,_,_,_,325,CCONJ,Cc,advmod
321,2005-2007,biti,_,_,_,_,_,325,AUX,Va-f3s-n,aux
322,2008-2009,v,_,_,_,_,_,324,ADP,Sl,case
323,2010-2016,uprava,_,_,_,_,_,325,NOUN,Ncfsl,obl
324,2017-2025,zastopati,_,_,_,_,_,304,VERB,Vmpp-sm,advcl
325,2026-2032,Albert,PER[15],_,*->1-2,*[1],_,325,PROPN,Npmsn,nsubj
326,2033-2039,Pavlič,PER[15],_,*->1-2,*[1],_,326,PROPN,Npmsn,flat:name
327,2040-2041,.,_,_,_,_,_,325,PUNCT,Z,punct
328,2042-2051,slovenski,ORG[16],_,*->21-14,*[21],_,330,ADJ,Agpfsg,amod
329,2052-2061,železnica,ORG[16],_,*->21-14,*[21],_,326,NOUN,Ncfsg,appos
330,2062-2063,",",_,_,_,_,_,347,PUNCT,Z,punct
331,2064-2066,ki,_,_,_,_,_,347,SCONJ,Cs,mark
332,2067-2069,biti,_,_,_,_,_,347,AUX,Va-r3p-n,aux
333,2070-2072,se,_,_,*->21-15,*[21],_,338,PRON,Px------y,expl
334,2073-2074,1,_,_,_,_,_,338,NUM,Mdc,obl
335,2075-2076,.,_,_,_,_,_,325,PUNCT,Z,punct
336,2077-2086,september,_,_,_,_,_,338,NOUN,Ncmsg,obl
337,2087-2100,preoblikovati,_,_,_,_,_,326,VERB,Vmep-pf,acl
338,2101-2102,v,_,_,_,_,_,340,ADP,Sa,case
339,2103-2110,holding,_,_,_,_,_,338,NOUN,Ncmsan,obl
340,2111-2112,",",_,_,_,_,_,347,PUNCT,Z,punct
341,2113-2115,ki,_,_,_,_,_,347,SCONJ,Cs,mark
342,2116-2118,biti,_,_,_,_,_,347,AUX,Va-f3s-n,aux
343,2119-2124,sicer,_,_,_,_,_,347,PART,Q,advmod
344,2125-2126,v,_,_,_,_,_,346,ADP,Sl,case
345,2127-2133,celota,_,_,_,_,_,347,NOUN,Ncfsl,obl
346,2134-2141,zaživeti,_,_,_,_,_,340,VERB,Vmep-sm,acl
347,2142-2143,z,_,_,_,_,_,349,ADP,Si,case
348,2144-2153,januar,_,_,_,_,_,347,NOUN,Ncmsi,obl
349,2154-2163,prihodnji,_,_,_,_,_,351,ADJ,Agpnsa,amod
350,2164-2168,leto,_,_,_,_,_,349,NOUN,Ncnsa,nmod
351,2169-2170,",",_,_,_,_,_,347,PUNCT,Z,punct
352,2171-2179,trenutno,_,_,_,_,_,356,ADV,Rgp,advmod
353,2180-2182,še,_,_,_,_,_,356,PART,Q,advmod
354,2183-2188,vedno,_,_,_,_,_,356,ADV,Rgp,advmod
355,2189-2193,voditi,_,_,_,_,_,338,VERB,Vmpr3s,advcl
356,2194-2199,Goran,PER[17],_,*->8-2,*[8],_,356,PROPN,Npmsn,nsubj
357,2200-2209,Brankovič,PER[17],_,*->8-2,*[8],_,357,PROPN,Npmsn,flat:name
358,2210-2211,.,_,_,_,_,_,356,PUNCT,Z,punct
359,2212-2218,nov,_,_,_,_,_,361,ADJ,Agpmsa,amod
360,2219-2229,direktor,_,_,_,_,_,362,NOUN,Ncmsay,obj
361,2230-2234,čakati,_,_,_,_,_,356,VERB,Vmpr3s,conj
362,2235-2240,težek,_,_,_,_,_,364,ADJ,Agpfsn,amod
363,2241-2252,preizkušnja,_,_,_,_,_,356,NOUN,Ncfsn,nsubj
364,2253-2258,kljub,_,_,_,_,_,387,ADP,Sd,mark
365,2259-2263,ta,_,_,_,_,_,379,DET,Pd-nsd,punct
366,2264-2266,da,_,_,_,_,_,379,SCONJ,Cs,mark
367,2267-2269,biti,_,_,_,_,_,444,AUX,Va-r3s-n,aux
368,2270-2274,biti,_,_,_,_,_,444,AUX,Va-p-sn,cop
369,2275-2285,poslovanje,_,_,_,_,_,379,NOUN,Ncnsn,nsubj
370,2286-2296,slovenski,ORG[18],_,*->21-16,*[21],_,372,ADJ,Agpfpg,amod
371,2297-2305,železnica,ORG[18],_,*->21-16,*[21],_,370,NOUN,Ncfpg,nmod
372,2306-2307,v,_,_,_,_,_,376,ADP,Sl,case
373,2308-2313,prvi,_,_,_,_,_,376,ADJ,Mlompl,amod
374,2314-2319,osem,_,_,_,_,_,376,NUM,Mlc-pl,nummod
375,2320-2327,mesec,_,_,_,_,_,379,NOUN,Ncmpl,obl
376,2328-2332,ta,_,_,_,_,_,378,DET,Pd-nsg,det
377,2333-2337,leto,_,_,_,_,_,376,NOUN,Ncnsg,nmod
378,2338-2344,dober,_,_,_,_,_,362,ADJ,Agcnsn,advcl
379,2345-2347,od,_,_,_,_,_,381,ADP,Sg,case
380,2348-2360,načrtovan,_,_,_,_,_,379,ADJ,Appnsg,amod
381,2361-2362,",",_,_,_,_,_,379,PUNCT,Z,punct
382,2363-2365,pa,_,_,_,_,_,387,CCONJ,Cc,advmod
383,2366-2372,nov,_,_,_,_,_,386,ADJ,Agpmsa,amod
384,2373-2379,prvi,_,_,_,_,_,386,ADJ,Mlomsg,amod
385,2380-2384,mož,_,_,_,_,_,387,NOUN,Ncmsg,obj
386,2385-2389,čakati,_,_,_,_,_,379,VERB,Vmpr3s,advcl
387,2390-2395,težek,_,_,_,_,_,389,ADJ,Agpfsn,amod
388,2396-2402,naloga,_,_,_,_,_,387,NOUN,Ncfsn,nsubj
389,2403-2404,.,_,_,_,_,_,387,PUNCT,Z,punct
390,2405-2413,napoved,_,_,_,_,_,399,NOUN,Ncfpn,nsubj
391,2414-2426,prihodkoven,_,_,_,_,_,393,ADJ,Agpnpg,amod
392,2427-2433,gibanje,_,_,_,_,_,391,NOUN,Ncnpg,nmod
393,2434-2436,do,_,_,_,_,_,395,ADP,Sg,case
394,2437-2442,konec,_,_,_,_,_,399,NOUN,Ncmsg,obl
395,2443-2447,leto,_,_,_,_,_,395,NOUN,Ncnsg,nmod
396,2448-2450,biti,_,_,_,_,_,399,AUX,Va-r3p-n,cop
397,2451-2457,namreč,_,_,_,_,_,399,CCONJ,Cc,advmod
398,2458-2464,slab,_,_,_,_,_,5,ADJ,Agcfpn,parataxis
399,2465-2467,od,_,_,_,_,_,401,ADP,Sg,case
400,2468-2480,pričakovan,_,_,_,_,_,399,ADJ,Appfpg,amod
401,2481-2482,.,_,_,_,_,_,399,PUNCT,Z,punct
402,2483-2484,v,_,_,_,_,_,405,ADP,Sl,case
403,2485-2493,tovoren,_,_,_,_,_,405,ADJ,Agpmsl,amod
404,2494-2501,promet,_,_,_,_,_,409,NOUN,Ncmsl,obl
405,2502-2504,se,_,_,_,_,_,409,PRON,Px------y,expl
406,2505-2513,prihodek,_,_,_,_,_,409,NOUN,Ncmpn,nsubj
407,2514-2518,manj,_,_,_,_,_,409,DET,Rgc,advmod
408,2519-2529,povečevati,_,_,_,_,_,399,VERB,Vmpr3p,acl
409,2530-2532,in,_,_,_,_,_,417,CCONJ,Cc,cc
410,2533-2537,biti,_,_,_,_,_,417,AUX,Va-f3p-n,aux
411,2538-2548,predvidoma,_,_,_,_,_,417,ADV,Rgp,advmod
412,2549-2551,za,_,_,_,_,_,415,ADP,Sa,case
413,2552-2555,"2,2",_,_,_,_,_,415,NUM,Mdc,nummod
414,2556-2564,milijon,_,_,_,_,_,417,NOUN,Ncmsg,obl
415,2565-2570,evro,_,_,_,_,_,415,NOUN,Ncmpg,nmod
416,2571-2577,majhen,_,_,_,_,_,409,ADJ,Agcmsny,conj
417,2578-2581,kot,_,_,_,_,_,419,SCONJ,Cs,case
418,2582-2592,načrtovan,_,_,_,_,_,417,ADJ,Appfsn,obl
419,2593-2594,.,_,_,_,_,_,409,PUNCT,Z,punct
420,2595-2597,po,_,_,_,_,_,422,ADP,Sl,case
421,2598-2605,beseda,_,_,_,_,_,427,NOUN,Ncfpl,obl
422,2606-2619,predstavnik,_,_,_,_,_,422,NOUN,Ncmpg,nmod
423,2620-2626,družba,_,_,*->21-17,*[21],_,423,NOUN,Ncfsg,nmod
424,2627-2629,pa,_,_,_,_,_,427,CCONJ,Cc,advmod
425,2630-2632,se,_,_,_,_,_,427,PRON,Px------y,expl
426,2633-2637,čutiti,_,_,_,_,_,5,VERB,Vmpr3s,parataxis
427,2638-2642,tudi,_,_,_,_,_,427,PART,Q,advmod
428,2643-2645,že,_,_,_,_,_,427,PART,Q,advmod
429,2646-2651,vpliv,_,_,_,_,_,427,NOUN,Ncmsn,nsubj
430,2652-2663,prihajajoč,_,_,_,_,_,433,ADJ,Appfsg,amod
431,2664-2668,nov,_,_,_,_,_,433,ADJ,Agpfsg,amod
432,2669-2674,kriza,_,_,_,_,_,430,NOUN,Ncfsg,nmod
433,2675-2676,",",_,_,_,_,_,444,PUNCT,Z,punct
434,2677-2683,zaradi,_,_,_,_,_,500,ADP,Sg,case
435,2684-2690,kateri,_,_,_,_,_,444,DET,Pq-fsg,obl
436,2691-2693,biti,_,_,_,_,_,444,AUX,Va-f3s-n,aux
437,2694-2698,leto,_,_,_,_,_,444,NOUN,Ncnsn,nsubj
438,2699-2703,2012,_,_,_,_,_,438,NUM,Mdc,nummod
439,2704-2706,za,_,_,_,_,_,442,ADP,Sa,case
440,2707-2714,tovoren,_,_,_,_,_,442,ADJ,Agpmsay,amod
441,2715-2721,promet,_,_,_,_,_,444,NOUN,Ncmsan,obl
442,2722-2726,zelo,_,_,_,_,_,444,ADV,Rgp,advmod
443,2727-2734,težaven,_,_,_,_,_,433,ADJ,Agpnsn,acl
444,2735-2736,.,_,_,_,_,_,444,PUNCT,Z,punct
445,2737-2739,po,_,_,_,_,_,447,ADP,Sl,case
446,2740-2747,beseda,_,_,_,_,_,457,NOUN,Ncfpl,obl
447,2748-2759,generalen,_,_,*->8-3,*[8],_,449,ADJ,Agpmsg,amod
448,2760-2770,direktor,_,_,*->8-3,*[8],_,447,NOUN,Ncmsg,nmod
449,2771-2781,Brankovič,PER,_,*->8-3,*[8],_,449,PROPN,Npmsg,nmod
450,2782-2786,biti,_,_,_,_,_,457,AUX,Va-f3p-n,aux
451,2787-2789,na,_,_,_,_,_,453,ADP,Sa,case
452,2790-2800,poslovanje,_,_,_,_,_,457,NOUN,Ncnsa,obl
453,2801-2805,leto,_,_,_,_,_,457,NOUN,Ncnsg,obl
454,2806-2810,2012,_,_,_,_,_,454,NUM,Mdc,nummod
455,2811-2820,negativen,_,_,_,_,_,457,ADV,Rgp,advmod
456,2821-2829,vplivati,_,_,_,_,_,5,VERB,Vmpp-pf,parataxis
457,2830-2839,zaostren,_,_,_,_,_,460,ADJ,Agpfpn,amod
458,2840-2845,tržen,_,_,_,_,_,460,ADJ,Agpfpn,amod
459,2846-2853,razmera,_,_,_,_,_,457,NOUN,Ncfpn,nsubj
460,2854-2856,in,_,_,_,_,_,464,CCONJ,Cc,cc
461,2857-2868,pričakovan,_,_,_,_,_,464,ADJ,Appnsa,amod
462,2869-2878,nadaljnji,_,_,_,_,_,464,ADJ,Agpnsa,amod
463,2879-2891,zmanjševanje,_,_,_,_,_,460,NOUN,Ncnsa,conj
464,2892-2904,proračunski,_,_,_,_,_,466,ADJ,Agpnpg,amod
465,2905-2913,sredstvo,_,_,_,_,_,464,NOUN,Ncnpg,nmod
466,2914-2916,za,_,_,_,_,_,471,ADP,Sa,case
467,2917-2924,obvezen,_,_,_,_,_,471,ADJ,Agpfpa,amod
468,2925-2936,gospodarski,_,_,_,_,_,471,ADJ,Agpfpa,amod
469,2937-2942,javen,_,_,_,_,_,471,ADJ,Agpfpa,amod
470,2943-2949,služba,_,_,_,_,_,466,NOUN,Ncfpa,nmod
471,2950-2951,.,_,_,_,_,_,457,PUNCT,Z,punct
472,2952-2958,država,_,_,_,_,_,483,NOUN,Ncfsn,nsubj
473,2959-2961,biti,_,_,_,_,_,483,AUX,Va-r3s-n,aux
474,2962-2968,namreč,_,_,_,_,_,483,CCONJ,Cc,advmod
475,2969-2977,letošnji,_,_,_,_,_,477,ADJ,Agpnpa,amod
476,2978-2986,sredstvo,_,_,_,_,_,457,NOUN,Ncnpa,obj
477,2987-2988,",",_,_,_,_,_,479,PUNCT,Z,punct
478,2989-2998,namenjen,_,_,_,_,_,460,ADJ,Appfsn,amod
479,2999-3001,za,_,_,_,_,_,481,ADP,Sa,case
480,3002-3016,infrastruktura,_,_,_,_,_,479,NOUN,Ncfsa,obl
481,3017-3018,",",_,_,_,_,_,479,PUNCT,Z,punct
482,3019-3026,znižati,_,_,_,_,_,477,VERB,Vmep-sf,acl
483,3027-3029,za,_,_,_,_,_,486,ADP,Sa,case
484,3030-3031,2,_,_,_,_,_,486,NUM,Mdc,nummod
485,3032-3040,milijon,_,_,_,_,_,483,NOUN,Ncmda,obl
486,3041-3046,evro,_,_,_,_,_,486,NOUN,Ncmpg,nmod
487,3047-3048,",",_,_,_,_,_,483,PUNCT,Z,punct
488,3049-3057,sredstvo,_,_,_,_,_,486,NOUN,Ncnpa,conj
489,3058-3060,za,_,_,_,_,_,491,ADP,Sa,case
490,3061-3068,vodenje,_,_,_,_,_,489,NOUN,Ncnsa,nmod
491,3069-3076,promet,_,_,_,_,_,491,NOUN,Ncmsg,nmod
492,3077-3079,pa,_,_,_,_,_,492,CCONJ,Cc,cc
493,3080-3082,za,_,_,_,_,_,496,ADP,Sa,case
494,3083-3086,"1,5",_,_,_,_,_,496,NUM,Mdc,nummod
495,3087-3095,milijon,_,_,_,_,_,483,NOUN,Ncmsg,obl
496,3096-3101,evro,_,_,_,_,_,496,NOUN,Ncmpg,nmod
497,3102-3103,.,_,_,_,_,_,483,PUNCT,Z,punct
498,3104-3109,poleg,_,_,_,_,_,500,ADP,Sg,case
499,3110-3114,ta,_,_,_,_,_,505,DET,Pd-nsg,nmod
500,3115-3117,biti,_,_,_,_,_,505,AUX,Va-r3s-n,aux
501,3118-3120,po,_,_,_,_,_,504,ADP,Sl,case
502,3121-3129,njegov,_,_,*->8-4,*[8],_,504,DET,Ps3fplsm,det
503,3130-3137,beseda,_,_,_,_,_,505,NOUN,Ncfpl,nmod
504,3138-3146,negotov,_,_,_,_,_,506,ADJ,Agpnsa,amod
505,3147-3156,izplačilo,_,_,_,_,_,560,NOUN,Ncnsa,obj
506,3157-3163,prvi,_,_,_,_,_,508,ADJ,Mlomsg,amod
507,3164-3170,obrok,_,_,_,_,_,506,NOUN,Ncmsg,nmod
508,3171-3173,za,_,_,_,_,_,510,ADP,Sa,case
509,3174-3182,pokritje,_,_,_,_,_,508,NOUN,Ncnsa,nmod
510,3183-3191,strošek,_,_,_,_,_,510,NOUN,Ncmpg,nmod
511,3192-3200,obvezen,_,_,_,_,_,515,ADJ,Agpfpg,amod
512,3201-3213,gospodarski,_,_,_,_,_,515,ADJ,Agpfpg,amod
513,3214-3220,javen,_,_,_,_,_,515,ADJ,Agpfpg,amod
514,3221-3226,služba,_,_,_,_,_,511,NOUN,Ncfpg,nmod
515,3227-3228,v,_,_,_,_,_,518,ADP,Sl,case
516,3229-3238,potniški,_,_,_,_,_,518,ADJ,Agpmsl,amod
517,3239-3246,promet,_,_,_,_,_,515,NOUN,Ncmsl,nmod
518,3247-3250,med,_,_,_,_,_,520,ADP,Si,case
519,3251-3257,leto,_,_,_,_,_,518,NOUN,Ncndi,nmod
520,3258-3262,2003,_,_,_,_,_,520,NUM,Mdc,nummod
521,3263-3265,in,_,_,_,_,_,523,CCONJ,Cc,cc
522,3266-3270,2009,_,_,_,_,_,521,NUM,Mdc,conj
523,3271-3272,v,_,_,_,_,_,525,ADP,Sl,case
524,3273-3279,višina,_,_,_,_,_,483,NOUN,Ncfsl,obl
525,3280-3284,"10,7",_,_,_,_,_,527,NUM,Mdc,nummod
526,3285-3293,milijon,_,_,_,_,_,525,NOUN,Ncmsg,nmod
527,3294-3299,evro,_,_,_,_,_,527,NOUN,Ncmpg,nmod
528,3300-3303,ter,_,_,_,_,_,531,CCONJ,Cc,cc
529,3304-3310,prvi,_,_,_,_,_,531,ADJ,Mlomsg,amod
530,3311-3317,obrok,_,_,_,_,_,527,NOUN,Ncmsg,conj
531,3318-3327,izpadel,_,_,_,_,_,533,ADJ,Appmsg,amod
532,3328-3336,kapital,_,_,_,_,_,531,NOUN,Ncmsg,nmod
533,3337-3338,",",_,_,_,_,_,538,PUNCT,Z,punct
534,3339-3341,do,_,_,_,_,_,536,ADP,Sg,case
535,3342-3350,kateri,_,_,_,_,_,538,DET,Pq-msg,obl
536,3351-3353,biti,_,_,_,_,_,538,AUX,Va-r3s-n,aux
537,3354-3360,priti,_,_,_,_,_,527,VERB,Vmep-sn,acl
538,3361-3363,ob,_,_,_,_,_,540,ADP,Sl,case
539,3364-3373,izločitev,_,_,_,_,_,538,NOUN,Ncfsl,obl
540,3374-3379,javen,_,_,_,_,_,543,ADJ,Agpfsg,amod
541,3380-3390,železniški,_,_,_,_,_,543,ADJ,Agpfsg,amod
542,3391-3405,infrastruktura,_,_,_,_,_,540,NOUN,Ncfsg,nmod
543,3406-3407,.,_,_,_,_,_,538,PUNCT,Z,punct
544,3408-3414,višina,_,_,_,_,_,547,NOUN,Ncfsn,nsubj
545,3415-3421,obrok,_,_,_,_,_,545,NOUN,Ncmsg,nmod
546,3422-3427,znašati,_,_,_,_,_,5,VERB,Vmpr3s,parataxis
547,3428-3432,"26,8",_,_,_,_,_,549,NUM,Mdc,nummod
548,3433-3441,milijon,_,_,_,_,_,547,NOUN,Ncmsg,obl
549,3442-3447,evro,_,_,_,_,_,549,NOUN,Ncmpg,nmod
550,3448-3449,.,_,_,_,_,_,547,PUNCT,Z,punct
551,3450-3459,morebiten,_,_,_,_,_,553,ADJ,Agpmsny,amod
552,3460-3465,izpad,_,_,_,_,_,560,NOUN,Ncmsn,nsubj
553,3466-3475,naveden,_,_,_,_,_,555,ADJ,Appfpg,amod
554,3476-3486,obveznost,_,_,_,_,_,553,NOUN,Ncfpg,nmod
555,3487-3493,država,_,_,_,_,_,555,NOUN,Ncfsg,nmod
556,3494-3496,pa,_,_,_,_,_,560,CCONJ,Cc,advmod
557,3497-3499,biti,_,_,_,_,_,560,AUX,Va-c,aux
558,3500-3505,lahko,_,_,_,_,_,560,ADV,Rgp,advmod
559,3506-3513,ogroziti,_,_,_,_,_,5,VERB,Vmep-sm,parataxis
560,3514-3524,likvidnost,_,_,_,_,_,560,NOUN,Ncfsa,obj
561,3525-3535,slovenski,ORG[19],_,*->21-18,*[21],_,563,ADJ,Agpfpg,amod
562,3536-3544,železnica,ORG[19],_,*->21-18,*[21],_,561,NOUN,Ncfpg,nmod
563,3545-3546,.,_,_,_,_,_,560,PUNCT,Z,punct
564,3547-3552,prvi,_,_,_,_,_,567,ADJ,Mlompg,amod
565,3553-3557,osem,_,_,_,_,_,567,NUM,Mlc-pa,nummod
566,3558-3565,mesec,_,_,_,_,_,563,NOUN,Ncmpg,appos
567,3566-3572,dober,_,_,_,_,_,567,ADJ,Agpmpg,amod
568,3573-3574,",",_,_,_,_,_,567,PUNCT,Z,punct
569,3575-3576,a,_,_,_,_,_,574,CCONJ,Cc,cc
570,3577-3579,na,_,_,_,_,_,573,ADP,Sa,case
571,3580-3586,končen,_,_,_,_,_,573,ADJ,Agpmsay,amod
572,3587-3595,rezultat,_,_,_,_,_,574,NOUN,Ncmsan,nmod
573,3596-3602,slab,_,_,_,_,_,568,ADJ,Agcmsny,nmod
574,3603-3605,od,_,_,_,_,_,578,ADP,Sg,case
575,3606-3619,pričakovan,_,_,_,_,_,578,ADJ,Appnsg,amod
576,3620-3629,slovenski,ORG[20],_,*->21-19,*[21],_,578,ADJ,Agpfsg,amod
577,3630-3639,železnica,ORG[20],_,*->21-19,*[21],_,574,NOUN,Ncfsg,nmod
578,3640-3642,biti,_,_,_,_,_,584,AUX,Va-r3p-n,aux
579,3643-3645,še,_,_,_,_,_,584,PART,Q,advmod
580,3646-3650,pred,_,_,_,_,_,583,ADP,Si,case
581,3651-3656,nekaj,_,_,_,_,_,583,DET,Rgp,det
582,3657-3663,mesec,_,_,_,_,_,584,NOUN,Ncmpi,obl
583,3664-3675,pričakovati,_,_,_,_,_,574,VERB,Vmpp-pf,csubj
584,3676-3684,bistveno,_,_,_,_,_,586,ADV,Rgp,advmod
585,3685-3691,dober,_,_,_,_,_,587,ADJ,Agcmsay,amod
586,3692-3700,rezultat,_,_,_,_,_,584,NOUN,Ncmsan,obj
587,3701-3703,od,_,_,_,_,_,589,ADP,Sg,case
588,3704-3716,načrtovan,_,_,_,_,_,587,ADJ,Appmsg,amod
589,3717-3718,",",_,_,_,_,_,593,PUNCT,Z,punct
590,3719-3721,ki,_,_,_,_,_,593,SCONJ,Cs,mark
591,3722-3724,biti,_,_,_,_,_,593,AUX,Va-r3s-n,aux
592,3725-3736,predvidevati,_,_,_,_,_,587,VERB,Vmpp-sm,acl
593,3737-3743,izguba,_,_,_,_,_,593,NOUN,Ncfsa,obj
594,3744-3745,v,_,_,_,_,_,596,ADP,Sl,case
595,3746-3752,višina,_,_,_,_,_,594,NOUN,Ncfsl,nmod
596,3753-3758,pet,_,_,_,_,_,598,NUM,Mlc-pg,nummod
597,3759-3768,milijon,_,_,_,_,_,596,NOUN,Ncmpg,nmod
598,3769-3774,evro,_,_,_,_,_,598,NOUN,Ncmpg,nmod
599,3775-3776,.,_,_,_,_,_,584,PUNCT,Z,punct
600,3777-3785,trenutno,_,_,_,_,_,603,ADV,Rgp,advmod
601,3786-3788,se,_,_,_,_,_,603,PRON,Px------y,expl
602,3789-3792,zdeti,_,_,_,_,_,5,VERB,Vmpr3s,parataxis
603,3793-3794,",",_,_,_,_,_,609,PUNCT,Z,punct
604,3795-3797,da,_,_,_,_,_,609,SCONJ,Cs,mark
605,3798-3800,biti,_,_,_,_,_,609,AUX,Va-f3s-n,cop
606,3801-3803,ta,_,_,_,_,_,608,DET,Pd-msn,det
607,3804-3812,rezultat,_,_,_,_,_,609,NOUN,Ncmsn,nsubj
608,3813-3819,slab,_,_,_,_,_,603,ADJ,Agcmsny,csubj
609,3820-3821,.,_,_,_,_,_,603,PUNCT,Z,punct
610,3822-3824,ta,_,_,_,_,_,613,DET,Pd-nsn,nsubj
611,3825-3828,jaz,_,_,*->21-20,*[21],_,613,PRON,Pp1-pa,obj
612,3829-3834,skrbeti,_,_,_,_,_,5,VERB,Vmpr3s,parataxis
613,3835-3836,",",_,_,_,_,_,609,PUNCT,Z,punct
614,3837-3841,zato,_,_,_,_,_,618,CCONJ,Cc,cc
615,3842-3845,biti,_,_,_,_,_,618,AUX,Va-r1p-n,aux
616,3846-3858,poslovodstvo,_,_,_,_,_,618,NOUN,Ncnsd,iobj
617,3859-3867,naložiti,_,_,*->21-21,*[21],_,609,VERB,Vmep-pm,conj
618,3868-3882,konkretizacija,_,_,_,_,_,618,NOUN,Ncfsa,obj
619,3883-3894,predlagan,_,_,_,_,_,621,ADJ,Appmpg,amod
620,3895-3902,ukrep,_,_,_,_,_,619,NOUN,Ncmpg,nmod
621,3903-3904,",",_,_,_,_,_,625,PUNCT,Z,punct
622,3905-3907,ki,_,_,_,_,_,625,SCONJ,Cs,mark
623,3908-3910,biti,_,_,_,_,_,625,AUX,Va-c,aux
624,3911-3921,izboljšati,_,_,_,_,_,621,VERB,Vmep-pm,acl
625,3922-3932,poslovanje,_,_,_,_,_,625,NOUN,Ncnsa,obj
626,3933-3935,in,_,_,_,_,_,631,CCONJ,Cc,cc
627,3936-3938,ki,_,_,_,_,_,631,SCONJ,Cs,mark
628,3939-3942,on,_,_,_,_,_,631,PRON,Pp3mpa--y,obj
629,3943-3947,biti,_,_,_,_,_,631,AUX,Va-f1p-n,aux
630,3948-3958,pregledati,_,_,*->21-22,*[21],_,625,VERB,Vmep-pm,conj
631,3959-3962,čez,_,_,_,_,_,634,ADP,Sa,case
632,3963-3966,dva,_,_,_,_,_,634,NUM,Mlcmda,nummod
633,3967-3972,teden,_,_,_,_,_,631,NOUN,Ncmda,obl
634,3973-3974,",",_,_,_,_,_,625,PUNCT,Z,punct
635,3975-3977,biti,_,_,_,_,_,637,AUX,Va-r3s-n,aux
636,3978-3983,dejati,_,_,_,_,_,5,VERB,Vmep-sm,parataxis
637,3984-3989,Brank,_,_,*->12-2,*[12],_,637,PROPN,Npmsn,nsubj
638,3990-3992,in,_,_,_,_,_,640,CCONJ,Cc,cc
639,3993-4003,izpostaviti,_,_,*->12-3,*[12],_,637,VERB,Vmep-sm,conj
640,4004-4012,predvsem,_,_,_,_,_,640,PART,Q,advmod
641,4013-4021,kontrola,_,_,_,_,_,640,NOUN,Ncfsa,obj
642,4022-4030,strošek,_,_,_,_,_,642,NOUN,Ncmpg,nmod
643,4031-4032,",",_,_,_,_,_,650,PUNCT,Z,punct
644,4033-4037,kjer,_,_,_,_,_,650,SCONJ,Cs,mark
645,4038-4040,do,_,_,_,_,_,647,ADP,Sg,case
646,4041-4045,zdaj,_,_,_,_,_,650,ADV,Rgp,advmod
647,4046-4048,biti,_,_,_,_,_,650,AUX,Va-r3s-y,aux
648,4049-4053,biti,_,_,_,_,_,650,AUX,Va-p-sn,cop
649,4054-4064,narejen,_,_,_,_,_,643,ADJ,Appnsg,acl
650,4065-4071,dovolj,_,_,_,_,_,650,DET,Rgp,advmod
651,4072-4073,.,_,_,_,_,_,650,PUNCT,Z,punct
652,4074-4083,železnica,_,_,*->21-23,*[21],_,661,NOUN,Ncfsg,obj
653,4084-4086,biti,_,_,_,_,_,661,AUX,Va-r3p-n,aux
654,4087-4092,sicer,_,_,_,_,_,661,PART,Q,advmod
655,4093-4094,v,_,_,_,_,_,659,ADP,Sl,case
656,4095-4100,prvi,_,_,_,_,_,659,ADJ,Mlompl,amod
657,4101-4106,osem,_,_,_,_,_,659,NUM,Mlc-pl,nummod
658,4107-4114,mesec,_,_,_,_,_,661,NOUN,Ncmpl,obl
659,4115-4120,letos,_,_,_,_,_,661,ADV,Rgp,advmod
660,4121-4130,ustvariti,_,_,_,_,_,650,VERB,Vmep-pf,csubj
661,4131-4138,445.000,_,_,_,_,_,663,NUM,Mdc,nummod
662,4139-4144,evro,_,_,_,_,_,661,NOUN,Ncmpg,obj
663,4145-4152,dobiček,_,_,_,_,_,663,NOUN,Ncmsg,nmod
664,4153-4155,iz,_,_,_,_,_,666,ADP,Sg,case
665,4156-4166,poslovanje,_,_,_,_,_,664,NOUN,Ncnsg,nmod
666,4167-4168,",",_,_,_,_,_,711,PUNCT,Z,punct
667,4169-4172,kar,_,_,_,_,_,697,PRON,Pr-nsn,nsubj
668,4173-4175,biti,_,_,_,_,_,697,AUX,Va-r3s-n,aux
669,4176-4184,predvsem,_,_,_,_,_,697,PART,Q,advmod
670,4185-4187,na,_,_,_,_,_,672,ADP,Sa,case
671,4188-4193,račun,_,_,_,_,_,697,NOUN,Ncmsan,obl
672,4194-4200,velik,_,_,_,_,_,675,ADJ,Agcmpg,amod
673,4201-4213,transporten,_,_,_,_,_,675,ADJ,Agpmpg,amod
674,4214-4223,prihodek,_,_,_,_,_,672,NOUN,Ncmpg,nmod
675,4224-4233,tovoren,_,_,_,_,_,677,ADJ,Agpmsg,amod
676,4234-4241,promet,_,_,_,_,_,675,NOUN,Ncmsg,nmod
677,4242-4245,ter,_,_,_,_,_,680,CCONJ,Cc,cc
678,4246-4253,dober,_,_,_,_,_,680,ADJ,Agcmpg,amod
679,4254-4264,rezultat,_,_,_,_,_,675,NOUN,Ncmpg,conj
680,4265-4279,infrastruktura,_,_,_,_,_,680,NOUN,Ncfsg,nmod
681,4280-4282,in,_,_,_,_,_,683,CCONJ,Cc,cc
682,4283-4290,vodenje,_,_,_,_,_,681,NOUN,Ncnsg,conj
683,4291-4298,promet,_,_,_,_,_,683,NOUN,Ncmsg,nmod
684,4299-4301,za,_,_,_,_,_,687,ADP,Sa,case
685,4302-4306,"8,37",_,_,_,_,_,687,NUM,Mdc,nummod
686,4307-4315,milijon,_,_,_,_,_,684,NOUN,Ncmsg,nmod
687,4316-4321,evro,_,_,_,_,_,687,NOUN,Ncmpg,nmod
688,4322-4327,dobro,_,_,_,_,_,691,ADV,Rgc,advmod
689,4328-4330,od,_,_,_,_,_,691,ADP,Sg,case
690,4331-4338,načrt,_,_,_,_,_,688,NOUN,Ncmpg,nmod
691,4339-4340,.,_,_,_,_,_,691,PUNCT,Z,punct
692,4341-4346,čist,_,_,_,_,_,694,ADJ,Agpfsn,amod
693,4347-4353,izguba,_,_,_,_,_,697,NOUN,Ncfsn,nsubj
694,4354-4356,biti,_,_,_,_,_,697,AUX,Va-r3s-n,aux
695,4357-4363,medtem,_,_,_,_,_,697,ADV,Rgp,advmod
696,4364-4371,znašati,_,_,_,_,_,5,VERB,Vmpp-sf,parataxis
697,4372-4376,"4,82",_,_,_,_,_,699,NUM,Mdc,nummod
698,4377-4385,milijon,_,_,_,_,_,697,NOUN,Ncmsg,obl
699,4386-4391,evro,_,_,_,_,_,699,NOUN,Ncmpg,nmod
700,4392-4393,",",_,_,_,_,_,711,PUNCT,Z,punct
701,4394-4400,medtem,_,_,_,_,_,711,ADV,Rgp,mark
702,4401-4403,ko,_,_,_,_,_,702,SCONJ,Cs,fixed
703,4404-4406,biti,_,_,_,_,_,711,AUX,Va-r3s-n,aux
704,4407-4411,biti,_,_,_,_,_,711,AUX,Va-p-sf,cop
705,4412-4413,v,_,_,_,_,_,708,ADP,Sl,case
706,4414-4420,enak,_,_,_,_,_,708,DET,Pi-nsl,det
707,4421-4428,obdobje,_,_,_,_,_,711,NOUN,Ncnsl,obl
708,4429-4433,lani,_,_,_,_,_,711,ADV,Rgp,advmod
709,4434-4440,izguba,_,_,_,_,_,711,NOUN,Ncfsn,nsubj
710,4441-4446,velik,_,_,_,_,_,697,ADJ,Agcfsn,advcl
711,4447-4449,za,_,_,_,_,_,714,ADP,Sa,case
712,4450-4454,"3,36",_,_,_,_,_,714,NUM,Mdc,nummod
713,4455-4463,milijon,_,_,_,_,_,711,NOUN,Ncmsg,obl
714,4464-4469,evro,_,_,_,_,_,714,NOUN,Ncmpg,nmod
715,4470-4471,.,_,_,_,_,_,711,PUNCT,Z,punct
716,4472-4474,na,_,_,_,_,_,720,ADP,Sa,case
717,4475-4480,čist,_,_,_,_,_,720,ADJ,Agpfsa,amod
718,4481-4492,osemmesečen,_,_,_,_,_,720,ADJ,Agpfsa,amod
719,4493-4499,izguba,_,_,_,_,_,722,NOUN,Ncfsa,obl
720,4500-4502,biti,_,_,_,_,_,722,AUX,Va-r3p-n,aux
721,4503-4511,vplivati,_,_,_,_,_,5,VERB,Vmpp-pf,parataxis
722,4512-4521,negativen,_,_,_,_,_,725,ADJ,Agpfpn,amod
723,4522-4529,tečajen,_,_,_,_,_,725,ADJ,Agpfpn,amod
724,4530-4537,razlika,_,_,_,_,_,722,NOUN,Ncfpn,nsubj
725,4538-4539,v,_,_,_,_,_,727,ADP,Sl,case
726,4540-4546,višina,_,_,_,_,_,725,NOUN,Ncfsl,nmod
727,4547-4550,"3,9",_,_,_,_,_,729,NUM,Mdc,nummod
728,4551-4559,milijon,_,_,_,_,_,727,NOUN,Ncmsg,nmod
729,4560-4565,evro,_,_,_,_,_,729,NOUN,Ncmpg,nmod
730,4566-4568,in,_,_,_,_,_,732,CCONJ,Cc,cc
731,4569-4577,izveden,_,_,_,_,_,734,ADJ,Appmpn,amod
732,4578-4586,finančen,_,_,_,_,_,734,ADJ,Agpmpa,amod
733,4587-4599,instrument,_,_,_,_,_,729,NOUN,Ncmpg,conj
734,4600-4601,v,_,_,_,_,_,736,ADP,Sl,case
735,4602-4608,višina,_,_,_,_,_,734,NOUN,Ncfsl,nmod
736,4609-4612,trije,_,_,_,_,_,738,NUM,Mlcmpa,nummod
737,4613-4621,milijon,_,_,_,_,_,736,NOUN,Ncmpa,nmod
738,4622-4627,evro,_,_,_,_,_,738,NOUN,Ncmpg,nmod
739,4628-4629,.,_,_,_,_,_,722,PUNCT,Z,punct
740,4630-4631,z,_,_,_,_,_,742,ADP,Si,case
741,4632-4643,izločitev,_,_,_,_,_,756,NOUN,Ncfsi,obl
742,4644-4648,ves,_,_,_,_,_,744,DET,Pg-mpg,det
743,4649-4656,učinek,_,_,_,_,_,742,NOUN,Ncmpg,nmod
744,4657-4665,izreden,_,_,_,_,_,746,ADJ,Agpmpg,amod
745,4666-4673,vpliv,_,_,_,_,_,744,NOUN,Ncmpg,nmod
746,4674-4676,biti,_,_,_,_,_,756,AUX,Va-r3s-n,aux
747,4677-4682,čist,_,_,_,_,_,749,ADJ,Agpfsn,amod
748,4683-4689,izguba,_,_,_,_,_,756,NOUN,Ncfsn,nsubj
749,4690-4700,slovenski,ORG[21],_,*->21-24,*[21],_,751,ADJ,Agpfpg,amod
750,4701-4709,železnica,ORG[21],_,*->21-24,*[21],_,749,NOUN,Ncfpg,nmod
751,4710-4711,v,_,_,_,_,_,755,ADP,Sl,case
752,4712-4717,prvi,_,_,_,_,_,755,ADJ,Mlompl,amod
753,4718-4723,osem,_,_,_,_,_,755,NUM,Mlc-pl,nummod
754,4724-4731,mesec,_,_,_,_,_,756,NOUN,Ncmpl,obl
755,4732-4739,znašati,_,_,_,_,_,5,VERB,Vmpp-sf,parataxis
756,4740-4744,"3,36",_,_,_,_,_,758,NUM,Mdc,nummod
757,4745-4753,milijon,_,_,_,_,_,756,NOUN,Ncmsg,obl
758,4754-4759,evro,_,_,_,_,_,758,NOUN,Ncmpg,nmod
759,4760-4761,.,_,_,_,_,_,756,PUNCT,Z,punct
760,4762-4768,skupen,_,_,_,_,_,763,ADJ,Agpmpn,amod
761,4769-4777,posloven,_,_,_,_,_,763,ADJ,Agpmpn,amod
762,4778-4786,prihodek,_,_,_,_,_,773,NOUN,Ncmpn,nsubj
763,4787-4789,biti,_,_,_,_,_,773,AUX,Va-r3p-n,aux
764,4790-4794,biti,_,_,_,_,_,773,AUX,Va-p-pm,cop
765,4795-4796,z,_,_,_,_,_,768,ADP,Si,case
766,4797-4803,"274,83",_,_,_,_,_,768,NUM,Mdc,nummod
767,4804-4812,milijon,_,_,_,_,_,773,NOUN,Ncmsg,obl
768,4813-4818,evro,_,_,_,_,_,768,NOUN,Ncmpg,nmod
769,4819-4821,za,_,_,_,_,_,772,ADP,Sa,case
770,4822-4825,"9,1",_,_,_,_,_,772,NUM,Mdc,nummod
771,4826-4834,odstotek,_,_,_,_,_,768,NOUN,Ncmsg,nmod
772,4835-4840,velik,_,_,_,_,_,759,ADJ,Agcmpn,acl
773,4841-4843,od,_,_,_,_,_,775,ADP,Sg,case
774,4844-4855,načrtovan,_,_,_,_,_,773,ADJ,Appmpg,amod
775,4856-4857,",",_,_,_,_,_,782,PUNCT,Z,punct
776,4858-4864,lanski,_,_,_,_,_,779,ADJ,Agpmpa,amod
777,4865-4873,posloven,_,_,_,_,_,779,ADJ,Agpmpa,amod
778,4874-4882,prihodek,_,_,_,_,_,782,NOUN,Ncmpa,obj
779,4883-4885,pa,_,_,_,_,_,782,CCONJ,Cc,advmod
780,4886-4888,biti,_,_,_,_,_,782,AUX,Va-r3p-n,aux
781,4889-4897,preseči,_,_,_,_,_,773,VERB,Vmep-pm,acl
782,4898-4900,za,_,_,_,_,_,785,ADP,Sa,case
783,4901-4905,"12,6",_,_,_,_,_,785,NUM,Mdc,nummod
784,4906-4914,odstotek,_,_,_,_,_,782,NOUN,Ncmsg,obl
785,4915-4916,.,_,_,_,_,_,773,PUNCT,Z,punct
786,4917-4922,kljub,_,_,_,_,_,789,ADP,Sd,case
787,4923-4929,slab,_,_,_,_,_,789,ADJ,Agpfpd,amod
788,4930-4939,napoved,_,_,_,_,_,797,NOUN,Ncfpd,obl
789,4940-4945,biti,_,_,_,_,_,797,AUX,Va-f3d-n,cop
790,4946-4948,za,_,_,_,_,_,792,ADP,Sa,case
791,4949-4960,izboljšanje,_,_,_,_,_,797,NOUN,Ncnsa,obl
792,4961-4971,poslovanje,_,_,_,_,_,792,NOUN,Ncnsg,nmod
793,4972-4981,Brankovič,PER,_,*->8-5,*[8],_,793,PROPN,Npmsn,nmod
794,4982-4984,in,_,_,_,_,_,796,CCONJ,Cc,cc
795,4985-4991,Pavlič,PER,_,*->1-3,*[1],_,794,PROPN,Npfsn,conj
796,4992-5001,nagrajen,_,_,_,_,_,773,ADJ,Appmdn,conj
797,5002-5007,kljub,_,_,_,_,_,800,ADP,Sd,case
798,5008-5015,slab,_,_,_,_,_,800,ADJ,Agcnpd,amod
799,5016-5029,pričakovanje,_,_,_,_,_,797,NOUN,Ncnpd,obl
800,5030-5038,železnica,_,2,*->21-25,*[21],2 - Negativno,800,NOUN,Ncfpg,nmod
801,5039-5041,do,_,_,_,_,_,803,ADP,Sg,case
802,5042-5047,konec,_,_,_,_,_,800,NOUN,Ncmsg,nmod
803,5048-5058,letošnji,_,_,_,_,_,805,ADJ,Agpnsg,amod
804,5059-5063,leto,_,_,_,_,_,803,NOUN,Ncnsg,nmod
805,5064-5066,pa,_,_,_,_,_,815,CCONJ,Cc,advmod
806,5067-5072,biti,_,_,_,_,_,815,AUX,Va-f3d-n,aux
807,5073-5082,Brankovič,PER,_,*->8-6,*[8],_,815,PROPN,Npmsn,nsubj
808,5083-5085,in,_,_,_,_,_,810,CCONJ,Cc,cc
809,5086-5092,Pavlič,PER,_,*->1-4,*[1],_,808,PROPN,Npmsn,conj
810,5093-5100,skladno,_,_,_,_,_,815,ADV,Rgp,advmod
811,5101-5102,z,_,_,_,_,_,813,ADP,Si,case
812,5103-5110,sklep,_,_,_,_,_,815,NOUN,Ncmsi,obl
813,5111-5122,nadzornik,_,_,_,_,_,813,NOUN,Ncmpg,nmod
814,5123-5130,prejeti,_,_,_,_,_,797,VERB,Vmep-dm,conj
815,5131-5138,nagrada,_,_,_,_,_,815,NOUN,Ncfsa,obj
816,5139-5141,za,_,_,_,_,_,818,ADP,Sa,case
817,5142-5153,izboljšanje,_,_,_,_,_,816,NOUN,Ncnsa,nmod
818,5154-5164,poslovanje,_,_,_,_,_,818,NOUN,Ncnsg,nmod
819,5165-5166,.,_,_,_,_,_,815,PUNCT,Z,punct
820,5167-5169,ta,_,_,_,_,_,826,DET,Pd-msn,nsubj
821,5170-5172,se,_,_,_,_,_,826,PRON,Px------y,expl
822,5173-5175,po,_,_,_,_,_,825,ADP,Sl,case
823,5176-5185,brankov,_,0,*->12-4,*[12],3 - Nevtralno,825,ADJ,Aspnpl,amod
824,5186-5196,pojasnilo,_,_,_,_,_,826,NOUN,Ncnpl,obl
825,5197-5203,nanašati,_,_,_,_,_,815,VERB,Vmpr3s,conj
826,5204-5206,na,_,_,_,_,_,830,ADP,Sa,case
827,5207-5213,lanski,_,_,_,_,_,830,ADJ,Agpnsa,amod
828,5214-5222,posloven,_,_,_,_,_,830,ADJ,Agpnsa,amod
829,5223-5227,leto,_,_,_,_,_,826,NOUN,Ncnsa,obl
830,5228-5230,in,_,_,_,_,_,833,CCONJ,Cc,cc
831,5231-5233,biti,_,_,_,_,_,833,AUX,Va-r3s-n,cop
832,5234-5238,plod,_,_,_,_,_,826,NOUN,Ncmsn,conj
833,5239-5246,vnaprej,_,_,_,_,_,835,ADV,Rgp,advmod
834,5247-5256,določen,_,_,_,_,_,836,ADJ,Appmpg,amod
835,5257-5263,cilj,_,_,_,_,_,833,NOUN,Ncmpg,nmod
836,5264-5265,.,_,_,_,_,_,826,PUNCT,Z,punct
837,5266-5275,Brankovič,PER,0,*->8-7,*[8],3 - Nevtralno,848,PROPN,Npmsn,nsubj
838,5276-5278,in,_,_,_,_,_,840,CCONJ,Cc,cc
839,5279-5285,Pavlič,PER,0,*->1-5,*[1],3 - Nevtralno,838,PROPN,Npmsn,conj
840,5286-5288,se,_,_,_,_,_,843,PRON,Px---d--y,expl
841,5289-5294,biti,_,_,_,_,_,843,AUX,Va-f3d-n,aux
842,5295-5304,razdeliti,_,_,_,_,_,826,VERB,Vmep-dm,conj
843,5305-5309,vsak,_,_,_,_,_,847,DET,Pg-msa,det
844,5310-5312,po,_,_,_,_,_,847,ADP,Sa,case
845,5313-5319,25.000,_,_,_,_,_,847,NUM,Mdc,nummod
846,5320-5325,evro,_,_,_,_,_,843,NOUN,Ncmpg,obl
847,5326-5331,bruto,_,_,_,_,_,843,ADJ,Agpnsn,conj
848,5332-5333,",",_,_,_,_,_,855,PUNCT,Z,punct
849,5334-5337,pri,_,_,_,_,_,851,ADP,Sl,case
850,5338-5343,kar,_,_,_,_,_,855,PRON,Pr-nsl,obl
851,5344-5346,biti,_,_,_,_,_,855,AUX,Va-f3s-n,cop
852,5347-5355,polovica,_,_,_,_,_,855,NOUN,Ncfsn,nsubj
853,5356-5363,nagrada,_,_,_,_,_,853,NOUN,Ncfsg,nmod
854,5364-5373,izplačan,_,_,_,_,_,848,ADJ,Appfsn,advcl
855,5374-5379,takoj,_,_,_,_,_,855,ADV,Rgp,advmod
856,5380-5381,",",_,_,_,_,_,856,PUNCT,Z,punct
857,5382-5390,polovica,_,_,_,_,_,855,NOUN,Ncfsn,nsubj
858,5391-5393,pa,_,_,_,_,_,862,CCONJ,Cc,cc
859,5394-5396,po,_,_,_,_,_,862,ADP,Sl,case
860,5397-5401,dva,_,_,_,_,_,862,NUM,Mlcndl,nummod
861,5402-5407,leto,_,_,_,_,_,858,NOUN,Ncndl,obl
